[
    "core",
    "manage",
    "demo.urls",
    "views",
    "demo",
    "test.demo.urls",
    "test.demo.settings",
    "demo.views",
    "postmark",
    "demo.forms",
    "test.demo.forms",
    "settings",
    "postmark.core",
    "postmark.django_backend",
    "test.demo",
    "demo.settings",
    "forms",
    "django_backend",
    "urls",
    "test",
    "test.demo.manage",
    "test.demo.views",
    "demo.manage"
]