{
    "libs": [
        "fcntl",
        "struct",
        "mmap",
        "optparse",
        "errno",
        "signal",
        "sys",
        "time",
        "os",
        "select",
        "socket"
    ]
}