[
    "docs.source",
    "selfpipe",
    "docs",
    "selsigrace",
    "rstserver",
    "source.conf",
    "source",
    "docs.source.conf",
    "client",
    "sigpipe",
    "conf",
    "server01",
    "server03",
    "server02",
    "server04",
    "server03a"
]