{
    "archive_url": "https://api.github.com/repos/Yaco-Sistemas/django-inplaceedit/{archive_format}{/ref}",
    "assignees_url": "https://api.github.com/repos/Yaco-Sistemas/django-inplaceedit/assignees{/user}",
    "blobs_url": "https://api.github.com/repos/Yaco-Sistemas/django-inplaceedit/git/blobs{/sha}",
    "branches_url": "https://api.github.com/repos/Yaco-Sistemas/django-inplaceedit/branches{/branch}",
    "clone_url": "https://github.com/Yaco-Sistemas/django-inplaceedit.git",
    "collaborators_url": "https://api.github.com/repos/Yaco-Sistemas/django-inplaceedit/collaborators{/collaborator}",
    "comments_url": "https://api.github.com/repos/Yaco-Sistemas/django-inplaceedit/comments{/number}",
    "commits_url": "https://api.github.com/repos/Yaco-Sistemas/django-inplaceedit/commits{/sha}",
    "compare_url": "https://api.github.com/repos/Yaco-Sistemas/django-inplaceedit/compare/{base}...{head}",
    "contents_url": "https://api.github.com/repos/Yaco-Sistemas/django-inplaceedit/contents/{+path}",
    "contributors_url": "https://api.github.com/repos/Yaco-Sistemas/django-inplaceedit/contributors",
    "created_at": "2012-08-09T09:37:15Z",
    "default_branch": "master",
    "description": "Django application that allows you to inline edition of some data from the database.",
    "downloads_url": "https://api.github.com/repos/Yaco-Sistemas/django-inplaceedit/downloads",
    "events_url": "https://api.github.com/repos/Yaco-Sistemas/django-inplaceedit/events",
    "fork": false,
    "forks": 20,
    "forks_count": 20,
    "forks_url": "https://api.github.com/repos/Yaco-Sistemas/django-inplaceedit/forks",
    "full_name": "Yaco-Sistemas/django-inplaceedit",
    "git_commits_url": "https://api.github.com/repos/Yaco-Sistemas/django-inplaceedit/git/commits{/sha}",
    "git_refs_url": "https://api.github.com/repos/Yaco-Sistemas/django-inplaceedit/git/refs{/sha}",
    "git_tags_url": "https://api.github.com/repos/Yaco-Sistemas/django-inplaceedit/git/tags{/sha}",
    "git_url": "git://github.com/Yaco-Sistemas/django-inplaceedit.git",
    "has_downloads": true,
    "has_issues": true,
    "has_wiki": true,
    "homepage": null,
    "hooks_url": "https://api.github.com/repos/Yaco-Sistemas/django-inplaceedit/hooks",
    "html_url": "https://github.com/Yaco-Sistemas/django-inplaceedit",
    "id": 5353739,
    "issue_comment_url": "https://api.github.com/repos/Yaco-Sistemas/django-inplaceedit/issues/comments/{number}",
    "issue_events_url": "https://api.github.com/repos/Yaco-Sistemas/django-inplaceedit/issues/events{/number}",
    "issues_url": "https://api.github.com/repos/Yaco-Sistemas/django-inplaceedit/issues{/number}",
    "keys_url": "https://api.github.com/repos/Yaco-Sistemas/django-inplaceedit/keys{/key_id}",
    "labels_url": "https://api.github.com/repos/Yaco-Sistemas/django-inplaceedit/labels{/name}",
    "language": "Python",
    "languages_url": "https://api.github.com/repos/Yaco-Sistemas/django-inplaceedit/languages",
    "merges_url": "https://api.github.com/repos/Yaco-Sistemas/django-inplaceedit/merges",
    "milestones_url": "https://api.github.com/repos/Yaco-Sistemas/django-inplaceedit/milestones{/number}",
    "mirror_url": null,
    "name": "django-inplaceedit",
    "notifications_url": "https://api.github.com/repos/Yaco-Sistemas/django-inplaceedit/notifications{?since,all,participating}",
    "open_issues": 3,
    "open_issues_count": 3,
    "owner": {
        "avatar_url": "https://avatars.githubusercontent.com/u/739519?",
        "events_url": "https://api.github.com/users/Yaco-Sistemas/events{/privacy}",
        "followers_url": "https://api.github.com/users/Yaco-Sistemas/followers",
        "following_url": "https://api.github.com/users/Yaco-Sistemas/following{/other_user}",
        "gists_url": "https://api.github.com/users/Yaco-Sistemas/gists{/gist_id}",
        "gravatar_id": "e3d898c03bae692e4d8205e070a202bb",
        "html_url": "https://github.com/Yaco-Sistemas",
        "id": 739519,
        "login": "Yaco-Sistemas",
        "organizations_url": "https://api.github.com/users/Yaco-Sistemas/orgs",
        "received_events_url": "https://api.github.com/users/Yaco-Sistemas/received_events",
        "repos_url": "https://api.github.com/users/Yaco-Sistemas/repos",
        "site_admin": false,
        "starred_url": "https://api.github.com/users/Yaco-Sistemas/starred{/owner}{/repo}",
        "subscriptions_url": "https://api.github.com/users/Yaco-Sistemas/subscriptions",
        "type": "Organization",
        "url": "https://api.github.com/users/Yaco-Sistemas"
    },
    "private": false,
    "pulls_url": "https://api.github.com/repos/Yaco-Sistemas/django-inplaceedit/pulls{/number}",
    "pushed_at": "2014-01-05T11:56:19Z",
    "releases_url": "https://api.github.com/repos/Yaco-Sistemas/django-inplaceedit/releases{/id}",
    "score": 1.0,
    "size": 1408,
    "ssh_url": "git@github.com:Yaco-Sistemas/django-inplaceedit.git",
    "stargazers_count": 131,
    "stargazers_url": "https://api.github.com/repos/Yaco-Sistemas/django-inplaceedit/stargazers",
    "statuses_url": "https://api.github.com/repos/Yaco-Sistemas/django-inplaceedit/statuses/{sha}",
    "subscribers_url": "https://api.github.com/repos/Yaco-Sistemas/django-inplaceedit/subscribers",
    "subscription_url": "https://api.github.com/repos/Yaco-Sistemas/django-inplaceedit/subscription",
    "svn_url": "https://github.com/Yaco-Sistemas/django-inplaceedit",
    "tags_url": "https://api.github.com/repos/Yaco-Sistemas/django-inplaceedit/tags",
    "teams_url": "https://api.github.com/repos/Yaco-Sistemas/django-inplaceedit/teams",
    "trees_url": "https://api.github.com/repos/Yaco-Sistemas/django-inplaceedit/git/trees{/sha}",
    "updated_at": "2014-01-05T11:56:20Z",
    "url": "https://api.github.com/repos/Yaco-Sistemas/django-inplaceedit",
    "watchers": 131,
    "watchers_count": 131
}