[
    "rename",
    "STL Software.REORIENT",
    "GUS Simpson.GCODE PREPROCESSOR.simpson segmentize",
    "Wally.GCODE PREPROCESSOR.wally segmentize",
    "STLs.reorient",
    "CoreXZ (PROTO FILES)",
    "reorient",
    "STL Software",
    "CoreXZ transform",
    "STL Software.REORIENT.reorient",
    "REORIENT.reorient",
    "DXFs",
    "GCODE PREPROCESSOR.CoreXZ transform",
    "DXFs.rename",
    "Wally.STLs",
    "GUS Simpson",
    "CoreXZ (PROTO FILES).GCODE PREPROCESSOR",
    "FILAMENT DRIVE.STLs.reorient",
    "LISA Simpson.GCODE PREPROCESSOR",
    "Wally.DXFs.rename",
    "GUS Simpson.GCODE PREPROCESSOR",
    "FILAMENT DRIVE.STLs.rename",
    "CoreXZ (PROTO FILES).GCODE PREPROCESSOR.CoreXZ transform",
    "LISA Simpson.STLs.reorient",
    "simpson segmentize",
    "Wally.GCODE PREPROCESSOR",
    "LISA Simpson",
    "GUS Simpson.STLs.reorient",
    "GUS Simpson.STLs",
    "REORIENT",
    "Wally",
    "FILAMENT DRIVE.STLs",
    "STLs",
    "GCODE PREPROCESSOR.simpson segmentize",
    "GCODE PREPROCESSOR",
    "FILAMENT DRIVE",
    "Wally.STLs.rename",
    "LISA Simpson.STLs.rename",
    "LISA Simpson.GCODE PREPROCESSOR.simpson segmentize",
    "wally segmentize",
    "GUS Simpson.STLs.rename",
    "Wally.DXFs",
    "STLs.rename",
    "LISA Simpson.STLs",
    "GCODE PREPROCESSOR.wally segmentize"
]