[
    "tests.transport_test",
    "simple",
    "echo",
    "rpc",
    "aiozmq.rpc.packer",
    "rpc_incorrect_calls",
    "rpc_func_annotations",
    "_test_util",
    "aiozmq.rpc.rpc",
    "tests.selectors_test",
    "log",
    "tests.echo3",
    "tests.echo2",
    "rpc_namespace_test",
    "zmq_events_test",
    "selectors_test",
    "policy_test",
    "aiozmq",
    "aiozmq.rpc",
    "version_test",
    "rpc.rpc",
    "aiozmq.selector",
    "pubsub",
    "tests.rpc_pubsub_test",
    "tests",
    "examples.rpc_with_subhandlers",
    "docs",
    "benchmarks.simple",
    "selector",
    "util",
    "aiozmq._test_util",
    "rpc_pipeline",
    "rpc_dynamic",
    "rpc.log",
    "docs.conf",
    "rpc_pipeline_test",
    "tests.rpc_translators_test",
    "examples.rpc_exception_translator",
    "interface_test",
    "benchmarks",
    "rpc.pipeline",
    "tests.version_test",
    "tests.events_test",
    "packer",
    "rpc_dict_handler",
    "aiozmq.rpc.util",
    "examples",
    "conf",
    "tests.rpc_test",
    "examples.rpc_custom_translator",
    "aiozmq.interface",
    "aiozmq.core",
    "examples.rpc_pubsub",
    "rpc_simple",
    "examples.rpc_dict_handler",
    "rpc.packer",
    "rpc_custom_translator",
    "aiozmq.rpc.log",
    "rpc_pubsub_test",
    "events_test",
    "rpc.util",
    "tests.echo",
    "aiozmq.rpc.pipeline",
    "aiozmq.rpc.base",
    "rpc_pubsub",
    "core",
    "examples.rpc_pipeline",
    "rpc.base",
    "tests.rpc_packer_test",
    "tests.zmq_events_test",
    "transport_test",
    "tests.interface_test",
    "rpc_with_subhandlers",
    "base",
    "examples.rpc_incorrect_calls",
    "echo2",
    "echo3",
    "interface",
    "tests.policy_test",
    "examples.rpc_simple",
    "pipeline",
    "rpc_exception_translator",
    "tests.rpc_func_annotations",
    "tests.rpc_pipeline_test",
    "rpc_translators_test",
    "aiozmq.rpc.pubsub",
    "rpc.pubsub",
    "tests.rpc_namespace_test",
    "rpc_test",
    "examples.rpc_dynamic",
    "rpc_packer_test",
    "runtests"
]