{
    "libs": [
        "http",
        "conf",
        "generic",
        "notification",
        "db",
        "django",
        "urlresolvers",
        "shortcuts",
        "atomformat",
        "template",
        "sets",
        "contrib",
        "translation",
        "datetime",
        "defaults"
    ]
}