{
    "archive_url": "https://api.github.com/repos/logsol/Github-Auto-Deploy/{archive_format}{/ref}",
    "assignees_url": "https://api.github.com/repos/logsol/Github-Auto-Deploy/assignees{/user}",
    "blobs_url": "https://api.github.com/repos/logsol/Github-Auto-Deploy/git/blobs{/sha}",
    "branches_url": "https://api.github.com/repos/logsol/Github-Auto-Deploy/branches{/branch}",
    "clone_url": "https://github.com/logsol/Github-Auto-Deploy.git",
    "collaborators_url": "https://api.github.com/repos/logsol/Github-Auto-Deploy/collaborators{/collaborator}",
    "comments_url": "https://api.github.com/repos/logsol/Github-Auto-Deploy/comments{/number}",
    "commits_url": "https://api.github.com/repos/logsol/Github-Auto-Deploy/commits{/sha}",
    "compare_url": "https://api.github.com/repos/logsol/Github-Auto-Deploy/compare/{base}...{head}",
    "contents_url": "https://api.github.com/repos/logsol/Github-Auto-Deploy/contents/{+path}",
    "contributors_url": "https://api.github.com/repos/logsol/Github-Auto-Deploy/contributors",
    "created_at": "2011-12-24T00:24:05Z",
    "default_branch": "master",
    "description": "a server that allows you to automatically deploy the latest version of your github project at each git push",
    "downloads_url": "https://api.github.com/repos/logsol/Github-Auto-Deploy/downloads",
    "events_url": "https://api.github.com/repos/logsol/Github-Auto-Deploy/events",
    "fork": false,
    "forks": 77,
    "forks_count": 77,
    "forks_url": "https://api.github.com/repos/logsol/Github-Auto-Deploy/forks",
    "full_name": "logsol/Github-Auto-Deploy",
    "git_commits_url": "https://api.github.com/repos/logsol/Github-Auto-Deploy/git/commits{/sha}",
    "git_refs_url": "https://api.github.com/repos/logsol/Github-Auto-Deploy/git/refs{/sha}",
    "git_tags_url": "https://api.github.com/repos/logsol/Github-Auto-Deploy/git/tags{/sha}",
    "git_url": "git://github.com/logsol/Github-Auto-Deploy.git",
    "has_downloads": true,
    "has_issues": true,
    "has_wiki": true,
    "homepage": "http://logsol.github.com/Github-Auto-Deploy/",
    "hooks_url": "https://api.github.com/repos/logsol/Github-Auto-Deploy/hooks",
    "html_url": "https://github.com/logsol/Github-Auto-Deploy",
    "id": 3043012,
    "issue_comment_url": "https://api.github.com/repos/logsol/Github-Auto-Deploy/issues/comments/{number}",
    "issue_events_url": "https://api.github.com/repos/logsol/Github-Auto-Deploy/issues/events{/number}",
    "issues_url": "https://api.github.com/repos/logsol/Github-Auto-Deploy/issues{/number}",
    "keys_url": "https://api.github.com/repos/logsol/Github-Auto-Deploy/keys{/key_id}",
    "labels_url": "https://api.github.com/repos/logsol/Github-Auto-Deploy/labels{/name}",
    "language": "Python",
    "languages_url": "https://api.github.com/repos/logsol/Github-Auto-Deploy/languages",
    "merges_url": "https://api.github.com/repos/logsol/Github-Auto-Deploy/merges",
    "milestones_url": "https://api.github.com/repos/logsol/Github-Auto-Deploy/milestones{/number}",
    "mirror_url": null,
    "name": "Github-Auto-Deploy",
    "notifications_url": "https://api.github.com/repos/logsol/Github-Auto-Deploy/notifications{?since,all,participating}",
    "open_issues": 8,
    "open_issues_count": 8,
    "owner": {
        "avatar_url": "https://avatars.githubusercontent.com/u/692826?",
        "events_url": "https://api.github.com/users/logsol/events{/privacy}",
        "followers_url": "https://api.github.com/users/logsol/followers",
        "following_url": "https://api.github.com/users/logsol/following{/other_user}",
        "gists_url": "https://api.github.com/users/logsol/gists{/gist_id}",
        "gravatar_id": "4e9843f5413444bb9598368645884ae2",
        "html_url": "https://github.com/logsol",
        "id": 692826,
        "login": "logsol",
        "organizations_url": "https://api.github.com/users/logsol/orgs",
        "received_events_url": "https://api.github.com/users/logsol/received_events",
        "repos_url": "https://api.github.com/users/logsol/repos",
        "site_admin": false,
        "starred_url": "https://api.github.com/users/logsol/starred{/owner}{/repo}",
        "subscriptions_url": "https://api.github.com/users/logsol/subscriptions",
        "type": "User",
        "url": "https://api.github.com/users/logsol"
    },
    "private": false,
    "pulls_url": "https://api.github.com/repos/logsol/Github-Auto-Deploy/pulls{/number}",
    "pushed_at": "2012-12-25T19:47:57Z",
    "releases_url": "https://api.github.com/repos/logsol/Github-Auto-Deploy/releases{/id}",
    "score": 1.0,
    "size": 366,
    "ssh_url": "git@github.com:logsol/Github-Auto-Deploy.git",
    "stargazers_count": 179,
    "stargazers_url": "https://api.github.com/repos/logsol/Github-Auto-Deploy/stargazers",
    "statuses_url": "https://api.github.com/repos/logsol/Github-Auto-Deploy/statuses/{sha}",
    "subscribers_url": "https://api.github.com/repos/logsol/Github-Auto-Deploy/subscribers",
    "subscription_url": "https://api.github.com/repos/logsol/Github-Auto-Deploy/subscription",
    "svn_url": "https://github.com/logsol/Github-Auto-Deploy",
    "tags_url": "https://api.github.com/repos/logsol/Github-Auto-Deploy/tags",
    "teams_url": "https://api.github.com/repos/logsol/Github-Auto-Deploy/teams",
    "trees_url": "https://api.github.com/repos/logsol/Github-Auto-Deploy/git/trees{/sha}",
    "updated_at": "2014-05-06T02:37:25Z",
    "url": "https://api.github.com/repos/logsol/Github-Auto-Deploy",
    "watchers": 179,
    "watchers_count": 179
}