{
    "archive_url": "https://api.github.com/repos/mitsuhiko/python-geoip/{archive_format}{/ref}",
    "assignees_url": "https://api.github.com/repos/mitsuhiko/python-geoip/assignees{/user}",
    "blobs_url": "https://api.github.com/repos/mitsuhiko/python-geoip/git/blobs{/sha}",
    "branches_url": "https://api.github.com/repos/mitsuhiko/python-geoip/branches{/branch}",
    "clone_url": "https://github.com/mitsuhiko/python-geoip.git",
    "collaborators_url": "https://api.github.com/repos/mitsuhiko/python-geoip/collaborators{/collaborator}",
    "comments_url": "https://api.github.com/repos/mitsuhiko/python-geoip/comments{/number}",
    "commits_url": "https://api.github.com/repos/mitsuhiko/python-geoip/commits{/sha}",
    "compare_url": "https://api.github.com/repos/mitsuhiko/python-geoip/compare/{base}...{head}",
    "contents_url": "https://api.github.com/repos/mitsuhiko/python-geoip/contents/{+path}",
    "contributors_url": "https://api.github.com/repos/mitsuhiko/python-geoip/contributors",
    "created_at": "2014-02-20T13:32:32Z",
    "default_branch": "master",
    "description": "GeoIP database access for Python under a BSD license.",
    "downloads_url": "https://api.github.com/repos/mitsuhiko/python-geoip/downloads",
    "events_url": "https://api.github.com/repos/mitsuhiko/python-geoip/events",
    "fork": false,
    "forks": 11,
    "forks_count": 11,
    "forks_url": "https://api.github.com/repos/mitsuhiko/python-geoip/forks",
    "full_name": "mitsuhiko/python-geoip",
    "git_commits_url": "https://api.github.com/repos/mitsuhiko/python-geoip/git/commits{/sha}",
    "git_refs_url": "https://api.github.com/repos/mitsuhiko/python-geoip/git/refs{/sha}",
    "git_tags_url": "https://api.github.com/repos/mitsuhiko/python-geoip/git/tags{/sha}",
    "git_url": "git://github.com/mitsuhiko/python-geoip.git",
    "has_downloads": true,
    "has_issues": true,
    "has_wiki": true,
    "homepage": null,
    "hooks_url": "https://api.github.com/repos/mitsuhiko/python-geoip/hooks",
    "html_url": "https://github.com/mitsuhiko/python-geoip",
    "id": 17021261,
    "issue_comment_url": "https://api.github.com/repos/mitsuhiko/python-geoip/issues/comments/{number}",
    "issue_events_url": "https://api.github.com/repos/mitsuhiko/python-geoip/issues/events{/number}",
    "issues_url": "https://api.github.com/repos/mitsuhiko/python-geoip/issues{/number}",
    "keys_url": "https://api.github.com/repos/mitsuhiko/python-geoip/keys{/key_id}",
    "labels_url": "https://api.github.com/repos/mitsuhiko/python-geoip/labels{/name}",
    "language": "Python",
    "languages_url": "https://api.github.com/repos/mitsuhiko/python-geoip/languages",
    "merges_url": "https://api.github.com/repos/mitsuhiko/python-geoip/merges",
    "milestones_url": "https://api.github.com/repos/mitsuhiko/python-geoip/milestones{/number}",
    "mirror_url": null,
    "name": "python-geoip",
    "notifications_url": "https://api.github.com/repos/mitsuhiko/python-geoip/notifications{?since,all,participating}",
    "open_issues": 4,
    "open_issues_count": 4,
    "owner": {
        "avatar_url": "https://avatars.githubusercontent.com/u/7396?",
        "events_url": "https://api.github.com/users/mitsuhiko/events{/privacy}",
        "followers_url": "https://api.github.com/users/mitsuhiko/followers",
        "following_url": "https://api.github.com/users/mitsuhiko/following{/other_user}",
        "gists_url": "https://api.github.com/users/mitsuhiko/gists{/gist_id}",
        "gravatar_id": "181de1fb11dffe39774f3e2e23cda3b6",
        "html_url": "https://github.com/mitsuhiko",
        "id": 7396,
        "login": "mitsuhiko",
        "organizations_url": "https://api.github.com/users/mitsuhiko/orgs",
        "received_events_url": "https://api.github.com/users/mitsuhiko/received_events",
        "repos_url": "https://api.github.com/users/mitsuhiko/repos",
        "site_admin": false,
        "starred_url": "https://api.github.com/users/mitsuhiko/starred{/owner}{/repo}",
        "subscriptions_url": "https://api.github.com/users/mitsuhiko/subscriptions",
        "type": "User",
        "url": "https://api.github.com/users/mitsuhiko"
    },
    "private": false,
    "pulls_url": "https://api.github.com/repos/mitsuhiko/python-geoip/pulls{/number}",
    "pushed_at": "2014-02-21T07:19:18Z",
    "releases_url": "https://api.github.com/repos/mitsuhiko/python-geoip/releases{/id}",
    "score": 1.0,
    "size": 171,
    "ssh_url": "git@github.com:mitsuhiko/python-geoip.git",
    "stargazers_count": 126,
    "stargazers_url": "https://api.github.com/repos/mitsuhiko/python-geoip/stargazers",
    "statuses_url": "https://api.github.com/repos/mitsuhiko/python-geoip/statuses/{sha}",
    "subscribers_url": "https://api.github.com/repos/mitsuhiko/python-geoip/subscribers",
    "subscription_url": "https://api.github.com/repos/mitsuhiko/python-geoip/subscription",
    "svn_url": "https://github.com/mitsuhiko/python-geoip",
    "tags_url": "https://api.github.com/repos/mitsuhiko/python-geoip/tags",
    "teams_url": "https://api.github.com/repos/mitsuhiko/python-geoip/teams",
    "trees_url": "https://api.github.com/repos/mitsuhiko/python-geoip/git/trees{/sha}",
    "updated_at": "2014-04-24T21:29:11Z",
    "url": "https://api.github.com/repos/mitsuhiko/python-geoip",
    "watchers": 126,
    "watchers_count": 126
}