{
    "libs": [
        "sgml",
        "http",
        "string",
        "item",
        "bs4",
        "pymongo",
        "random",
        "urllib2",
        "urllib",
        "datetime",
        "sys",
        "re",
        "scrapy",
        "url",
        "conf",
        "time",
        "selector",
        "os"
    ]
}