[
    "tools.sampler",
    "sonarlemmafreqlist",
    "tests.textprocessors",
    "examples.freqlist",
    "srilm",
    "examples.make_sonar_lm",
    "sonarfreqlist",
    "tools",
    "timbl_distr_stats",
    "formats.cgn",
    "statistics",
    "phrasetableserver",
    "foliasplitcgnpostags",
    "lm",
    "tests.search",
    "sampler",
    "formats.moses",
    "moses",
    "tests",
    "docs",
    "lm.srilm",
    "tests.cgn",
    "tests.datatypes",
    "freeling",
    "clients.frogclient",
    "dutchsemcor",
    "docs.conf",
    "tools.foliasplitcgnpostags",
    "tools.computepmi",
    "lm.lm",
    "clients.freeling",
    "clients",
    "formats.imdi",
    "server",
    "tests.formats",
    "mt",
    "formats.dutchsemcor",
    "common",
    "tools.freqlist",
    "tests.folia",
    "sonar",
    "tagger",
    "mt.wordalign",
    "taggerdata",
    "query_lm",
    "frogclient",
    "formats.timbl",
    "make_sonar_lm",
    "textprocessors",
    "examples",
    "conf",
    "tools.timbl_distr_stats",
    "tools.sonar2folia",
    "formats.sonar",
    "giza",
    "imdi",
    "sonar2folia",
    "formats.taggerdata",
    "examples.query_lm",
    "tests.statistics",
    "tools.classencoder",
    "folia",
    "client",
    "timbl",
    "net",
    "evaluation",
    "wordalign",
    "cgn",
    "frogwrapper",
    "freqlist",
    "formats",
    "tools.sonarlemmafreqlist",
    "classencoder",
    "tests.evaluation",
    "web",
    "tools.sonarfreqlist",
    "tools.frogwrapper",
    "datatypes",
    "cornetto",
    "reflow",
    "search",
    "classdecoder",
    "lm.server",
    "computepmi",
    "lm.client",
    "formats.giza",
    "clients.cornetto",
    "tools.classdecoder",
    "algorithms",
    "formats.folia",
    "tools.phrasetableserver",
    "tools.reflow"
]