{
    "libs": [
        "zlib",
        "io",
        "unicode_literals",
        "unittest",
        "pysrt",
        "bs4",
        "file",
        "operator",
        "shutil",
        "ElementTree",
        "struct",
        "re",
        "enzyme",
        "collections",
        "sympy",
        "transfo",
        "division",
        "B",
        "colorlog",
        "inspect",
        "zipfile",
        "sys",
        "path",
        "matchtree",
        "datetime",
        "print_function",
        "argparse",
        "httplib",
        "b",
        "logging",
        "socket",
        "readwrite_lock",
        "h",
        "guessit",
        "xmlrpclib",
        "client",
        "chardet",
        "requests",
        "babelfish",
        "os"
    ]
}