[
    "subliminal.video",
    "subtitle",
    "providers.thesubdb",
    "providers",
    "subliminal.providers.opensubtitles",
    "subliminal.providers.thesubdb",
    "api",
    "video",
    "subliminal.converters.tvsubtitles",
    "conf",
    "tests.test_subliminal",
    "subliminal.providers",
    "subliminal.providers.addic7ed",
    "subliminal.api",
    "subliminal.subtitle",
    "compat",
    "subliminal.converters",
    "cli",
    "subliminal.score",
    "subliminal.cli",
    "cache",
    "subliminal.tests.test_subliminal",
    "tvsubtitles",
    "subliminal.tests.common",
    "subliminal",
    "subliminal.converters.podnapisi",
    "opensubtitles",
    "score",
    "tests.common",
    "test_providers",
    "subliminal.compat",
    "converters.podnapisi",
    "thesubdb",
    "providers.opensubtitles",
    "converters",
    "subliminal.cache",
    "tests",
    "converters.addic7ed",
    "providers.tvsubtitles",
    "docs",
    "subliminal.converters.addic7ed",
    "converters.tvsubtitles",
    "subliminal.providers.podnapisi",
    "addic7ed",
    "subliminal.tests",
    "providers.podnapisi",
    "docs.conf",
    "subliminal.tests.test_providers",
    "subliminal.exceptions",
    "tests.test_providers",
    "test_subliminal",
    "podnapisi",
    "common",
    "exceptions",
    "subliminal.providers.tvsubtitles",
    "providers.addic7ed"
]