{
    "archive_url": "https://api.github.com/repos/apitrace/apitrace/{archive_format}{/ref}",
    "assignees_url": "https://api.github.com/repos/apitrace/apitrace/assignees{/user}",
    "blobs_url": "https://api.github.com/repos/apitrace/apitrace/git/blobs{/sha}",
    "branches_url": "https://api.github.com/repos/apitrace/apitrace/branches{/branch}",
    "clone_url": "https://github.com/apitrace/apitrace.git",
    "collaborators_url": "https://api.github.com/repos/apitrace/apitrace/collaborators{/collaborator}",
    "comments_url": "https://api.github.com/repos/apitrace/apitrace/comments{/number}",
    "commits_url": "https://api.github.com/repos/apitrace/apitrace/commits{/sha}",
    "compare_url": "https://api.github.com/repos/apitrace/apitrace/compare/{base}...{head}",
    "contents_url": "https://api.github.com/repos/apitrace/apitrace/contents/{+path}",
    "contributors_url": "https://api.github.com/repos/apitrace/apitrace/contributors",
    "created_at": "2011-04-13T21:37:46Z",
    "default_branch": "master",
    "description": "Tools for tracing OpenGL, Direct3D, and other graphics APIs",
    "downloads_url": "https://api.github.com/repos/apitrace/apitrace/downloads",
    "events_url": "https://api.github.com/repos/apitrace/apitrace/events",
    "fork": false,
    "forks": 102,
    "forks_count": 102,
    "forks_url": "https://api.github.com/repos/apitrace/apitrace/forks",
    "full_name": "apitrace/apitrace",
    "git_commits_url": "https://api.github.com/repos/apitrace/apitrace/git/commits{/sha}",
    "git_refs_url": "https://api.github.com/repos/apitrace/apitrace/git/refs{/sha}",
    "git_tags_url": "https://api.github.com/repos/apitrace/apitrace/git/tags{/sha}",
    "git_url": "git://github.com/apitrace/apitrace.git",
    "has_downloads": true,
    "has_issues": true,
    "has_wiki": true,
    "homepage": "http://apitrace.github.io/",
    "hooks_url": "https://api.github.com/repos/apitrace/apitrace/hooks",
    "html_url": "https://github.com/apitrace/apitrace",
    "id": 1611530,
    "issue_comment_url": "https://api.github.com/repos/apitrace/apitrace/issues/comments/{number}",
    "issue_events_url": "https://api.github.com/repos/apitrace/apitrace/issues/events{/number}",
    "issues_url": "https://api.github.com/repos/apitrace/apitrace/issues{/number}",
    "keys_url": "https://api.github.com/repos/apitrace/apitrace/keys{/key_id}",
    "labels_url": "https://api.github.com/repos/apitrace/apitrace/labels{/name}",
    "language": "Python",
    "languages_url": "https://api.github.com/repos/apitrace/apitrace/languages",
    "merges_url": "https://api.github.com/repos/apitrace/apitrace/merges",
    "milestones_url": "https://api.github.com/repos/apitrace/apitrace/milestones{/number}",
    "mirror_url": null,
    "name": "apitrace",
    "notifications_url": "https://api.github.com/repos/apitrace/apitrace/notifications{?since,all,participating}",
    "open_issues": 29,
    "open_issues_count": 29,
    "owner": {
        "avatar_url": "https://avatars.githubusercontent.com/u/727992?",
        "events_url": "https://api.github.com/users/apitrace/events{/privacy}",
        "followers_url": "https://api.github.com/users/apitrace/followers",
        "following_url": "https://api.github.com/users/apitrace/following{/other_user}",
        "gists_url": "https://api.github.com/users/apitrace/gists{/gist_id}",
        "gravatar_id": null,
        "html_url": "https://github.com/apitrace",
        "id": 727992,
        "login": "apitrace",
        "organizations_url": "https://api.github.com/users/apitrace/orgs",
        "received_events_url": "https://api.github.com/users/apitrace/received_events",
        "repos_url": "https://api.github.com/users/apitrace/repos",
        "site_admin": false,
        "starred_url": "https://api.github.com/users/apitrace/starred{/owner}{/repo}",
        "subscriptions_url": "https://api.github.com/users/apitrace/subscriptions",
        "type": "Organization",
        "url": "https://api.github.com/users/apitrace"
    },
    "private": false,
    "pulls_url": "https://api.github.com/repos/apitrace/apitrace/pulls{/number}",
    "pushed_at": "2014-05-06T14:28:54Z",
    "releases_url": "https://api.github.com/repos/apitrace/apitrace/releases{/id}",
    "score": 1.0,
    "size": 15900,
    "ssh_url": "git@github.com:apitrace/apitrace.git",
    "stargazers_count": 537,
    "stargazers_url": "https://api.github.com/repos/apitrace/apitrace/stargazers",
    "statuses_url": "https://api.github.com/repos/apitrace/apitrace/statuses/{sha}",
    "subscribers_url": "https://api.github.com/repos/apitrace/apitrace/subscribers",
    "subscription_url": "https://api.github.com/repos/apitrace/apitrace/subscription",
    "svn_url": "https://github.com/apitrace/apitrace",
    "tags_url": "https://api.github.com/repos/apitrace/apitrace/tags",
    "teams_url": "https://api.github.com/repos/apitrace/apitrace/teams",
    "trees_url": "https://api.github.com/repos/apitrace/apitrace/git/trees{/sha}",
    "updated_at": "2014-05-06T14:28:54Z",
    "url": "https://api.github.com/repos/apitrace/apitrace",
    "watchers": 537,
    "watchers_count": 537
}