[
    "specs.d3d10misc",
    "specs.dcommon",
    "d3d8trace",
    "dxgitype",
    "scripts.xml2enum",
    "jsonextractimages",
    "dispatch.dispatch",
    "specs.eglenum",
    "d3d10_1",
    "specs.d3d9dxva2",
    "specs.scripts.xml2enum",
    "tracecheck",
    "d3d9dxva2",
    "specs.scripts.c2api",
    "d3d11sdklayers",
    "specs.d3d11sdklayers",
    "gltrace",
    "specs.dxgi",
    "d2derr",
    "specs.d3d10sdklayers",
    "wrappers.trace",
    "specs.debug",
    "wrappers.d3d8trace",
    "eglenum",
    "d3d9caps",
    "specs.d3d9caps",
    "specs.d3d10_1",
    "glretrace",
    "scripts.c2api",
    "scripts",
    "jsondiff",
    "ddraw",
    "specs.winapi",
    "dxgiformat",
    "debug",
    "d3d",
    "d2d1trace",
    "specs.dxgi1_2",
    "d3d8types",
    "specs.dxgiformat",
    "specs.glapi",
    "xml2enum",
    "d2d1",
    "dllretrace",
    "scripts.tracecheck",
    "specs.scripts.xml2glparams",
    "specs.d3d8types",
    "dxgiretrace",
    "glesapi",
    "glxapi",
    "specs.d3d10",
    "wglenum",
    "eglapi",
    "wrappers.ddrawtrace",
    "scripts.jsonextractimages",
    "specs.eglapi",
    "specs.scripts.spec2api",
    "specs.d3d11",
    "gltypes",
    "winapi",
    "glstate_params",
    "dxgitrace",
    "wrappers.d2d1trace",
    "glproc",
    "specs.scripts.txt2api",
    "scripts.xml2glparams",
    "convert",
    "scripts.tracediff",
    "specs.d3d8caps",
    "retrace.retrace",
    "scripts.txt2api",
    "egltrace",
    "txt2api",
    "dwrite",
    "retrace.glretrace",
    "d3d10sdklayers",
    "glapi",
    "specs.d3d11shader",
    "d3d8caps",
    "dispatch",
    "scripts.spec2api",
    "retrace.d3d9retrace",
    "wrappers.wgltrace",
    "wrappers.glxtrace",
    "d3d9retrace",
    "wrappers.gltrace",
    "specs.gltypes",
    "specs.d3dtypes",
    "scripts.retracediff",
    "glparams",
    "wgltrace",
    "specs.d3d",
    "specs.d3d9types",
    "ddrawtrace",
    "c2api",
    "dlltrace",
    "wrappers.cgltrace",
    "specs.dwrite",
    "cglapi",
    "specs.d3d9",
    "specs.d3d8",
    "d3d10misc",
    "scripts.convert",
    "specs.ddraw",
    "specs.d2dbasetypes",
    "d3d9trace",
    "specs.d2d1",
    "dcommon",
    "snapdiff",
    "specs.glxapi",
    "specs.cglapi",
    "cgltrace",
    "wglapi",
    "scripts.profileshader",
    "specs.d2derr",
    "retrace.dxgiretrace",
    "d3d11",
    "d3d10",
    "specs.glesapi",
    "specs.glparams",
    "specs.d3dcaps",
    "retracediff",
    "dxgi1_2",
    "specs.scripts.xml2api",
    "d3d11_1",
    "scripts.highlight",
    "d3d9",
    "d3d8",
    "scripts.xml2api",
    "wrappers.dxgitrace",
    "profileshader",
    "d3dtypes",
    "retrace",
    "specs.dxgitype",
    "specs.wglenum",
    "specs",
    "d2dbasetypes",
    "specs.d3dcommon",
    "scripts.unpickle",
    "retrace.glstate_params",
    "d3dcommon",
    "d3d11shader",
    "specs.stdapi",
    "wrappers",
    "wrappers.dlltrace",
    "trace",
    "spec2api",
    "retrace.dllretrace",
    "scripts.snapdiff",
    "xml2api",
    "unpickle",
    "specs.d3d11_1",
    "wrappers.d3d9trace",
    "stdapi",
    "wrappers.egltrace",
    "d3dcaps",
    "glxtrace",
    "specs.scripts",
    "dxgi",
    "tracediff",
    "highlight",
    "scripts.jsondiff",
    "specs.wglapi",
    "xml2glparams",
    "dispatch.glproc",
    "d3d9types"
]