{
    "libs": [
        "unicodedata",
        "struct",
        "gettext",
        "datetime",
        "sys",
        "codecs",
        "gzip",
        "path",
        "shutil",
        "os"
    ]
}