{
    "libs": [
        "importlib",
        "generic",
        "h",
        "utils",
        "cache",
        "django",
        "sys",
        "re",
        "test",
        "os",
        "functools"
    ]
}