{
    "archive_url": "https://api.github.com/repos/danielfrg/pelican-ipythonnb/{archive_format}{/ref}",
    "assignees_url": "https://api.github.com/repos/danielfrg/pelican-ipythonnb/assignees{/user}",
    "blobs_url": "https://api.github.com/repos/danielfrg/pelican-ipythonnb/git/blobs{/sha}",
    "branches_url": "https://api.github.com/repos/danielfrg/pelican-ipythonnb/branches{/branch}",
    "clone_url": "https://github.com/danielfrg/pelican-ipythonnb.git",
    "collaborators_url": "https://api.github.com/repos/danielfrg/pelican-ipythonnb/collaborators{/collaborator}",
    "comments_url": "https://api.github.com/repos/danielfrg/pelican-ipythonnb/comments{/number}",
    "commits_url": "https://api.github.com/repos/danielfrg/pelican-ipythonnb/commits{/sha}",
    "compare_url": "https://api.github.com/repos/danielfrg/pelican-ipythonnb/compare/{base}...{head}",
    "contents_url": "https://api.github.com/repos/danielfrg/pelican-ipythonnb/contents/{+path}",
    "contributors_url": "https://api.github.com/repos/danielfrg/pelican-ipythonnb/contributors",
    "created_at": "2013-03-07T21:16:48Z",
    "default_branch": "master",
    "description": "Pelican plugin for blogging with iPython Notebooks",
    "downloads_url": "https://api.github.com/repos/danielfrg/pelican-ipythonnb/downloads",
    "events_url": "https://api.github.com/repos/danielfrg/pelican-ipythonnb/events",
    "fork": false,
    "forks": 10,
    "forks_count": 10,
    "forks_url": "https://api.github.com/repos/danielfrg/pelican-ipythonnb/forks",
    "full_name": "danielfrg/pelican-ipythonnb",
    "git_commits_url": "https://api.github.com/repos/danielfrg/pelican-ipythonnb/git/commits{/sha}",
    "git_refs_url": "https://api.github.com/repos/danielfrg/pelican-ipythonnb/git/refs{/sha}",
    "git_tags_url": "https://api.github.com/repos/danielfrg/pelican-ipythonnb/git/tags{/sha}",
    "git_url": "git://github.com/danielfrg/pelican-ipythonnb.git",
    "has_downloads": true,
    "has_issues": true,
    "has_wiki": true,
    "homepage": null,
    "hooks_url": "https://api.github.com/repos/danielfrg/pelican-ipythonnb/hooks",
    "html_url": "https://github.com/danielfrg/pelican-ipythonnb",
    "id": 8636714,
    "issue_comment_url": "https://api.github.com/repos/danielfrg/pelican-ipythonnb/issues/comments/{number}",
    "issue_events_url": "https://api.github.com/repos/danielfrg/pelican-ipythonnb/issues/events{/number}",
    "issues_url": "https://api.github.com/repos/danielfrg/pelican-ipythonnb/issues{/number}",
    "keys_url": "https://api.github.com/repos/danielfrg/pelican-ipythonnb/keys{/key_id}",
    "labels_url": "https://api.github.com/repos/danielfrg/pelican-ipythonnb/labels{/name}",
    "language": "CSS",
    "languages_url": "https://api.github.com/repos/danielfrg/pelican-ipythonnb/languages",
    "merges_url": "https://api.github.com/repos/danielfrg/pelican-ipythonnb/merges",
    "milestones_url": "https://api.github.com/repos/danielfrg/pelican-ipythonnb/milestones{/number}",
    "mirror_url": null,
    "name": "pelican-ipythonnb",
    "notifications_url": "https://api.github.com/repos/danielfrg/pelican-ipythonnb/notifications{?since,all,participating}",
    "open_issues": 1,
    "open_issues_count": 1,
    "owner": {
        "avatar_url": "https://avatars.githubusercontent.com/u/1580714?",
        "events_url": "https://api.github.com/users/danielfrg/events{/privacy}",
        "followers_url": "https://api.github.com/users/danielfrg/followers",
        "following_url": "https://api.github.com/users/danielfrg/following{/other_user}",
        "gists_url": "https://api.github.com/users/danielfrg/gists{/gist_id}",
        "gravatar_id": "2aae7ed1f12c05b5711558c1b5902f05",
        "html_url": "https://github.com/danielfrg",
        "id": 1580714,
        "login": "danielfrg",
        "organizations_url": "https://api.github.com/users/danielfrg/orgs",
        "received_events_url": "https://api.github.com/users/danielfrg/received_events",
        "repos_url": "https://api.github.com/users/danielfrg/repos",
        "site_admin": false,
        "starred_url": "https://api.github.com/users/danielfrg/starred{/owner}{/repo}",
        "subscriptions_url": "https://api.github.com/users/danielfrg/subscriptions",
        "type": "User",
        "url": "https://api.github.com/users/danielfrg"
    },
    "private": false,
    "pulls_url": "https://api.github.com/repos/danielfrg/pelican-ipythonnb/pulls{/number}",
    "pushed_at": "2014-05-04T19:18:50Z",
    "releases_url": "https://api.github.com/repos/danielfrg/pelican-ipythonnb/releases{/id}",
    "score": 1.0,
    "size": 361,
    "ssh_url": "git@github.com:danielfrg/pelican-ipythonnb.git",
    "stargazers_count": 42,
    "stargazers_url": "https://api.github.com/repos/danielfrg/pelican-ipythonnb/stargazers",
    "statuses_url": "https://api.github.com/repos/danielfrg/pelican-ipythonnb/statuses/{sha}",
    "subscribers_url": "https://api.github.com/repos/danielfrg/pelican-ipythonnb/subscribers",
    "subscription_url": "https://api.github.com/repos/danielfrg/pelican-ipythonnb/subscription",
    "svn_url": "https://github.com/danielfrg/pelican-ipythonnb",
    "tags_url": "https://api.github.com/repos/danielfrg/pelican-ipythonnb/tags",
    "teams_url": "https://api.github.com/repos/danielfrg/pelican-ipythonnb/teams",
    "trees_url": "https://api.github.com/repos/danielfrg/pelican-ipythonnb/git/trees{/sha}",
    "updated_at": "2014-05-06T04:47:56Z",
    "url": "https://api.github.com/repos/danielfrg/pelican-ipythonnb",
    "watchers": 42,
    "watchers_count": 42
}