[
    "tty",
    "tasks",
    "evergreen.io.util",
    "futures._thread",
    "test_timeout",
    "evergreen.channel",
    "evergreen.core.utils",
    "tcp",
    "evergreen.lib.select",
    "echo-server",
    "io.tcp",
    "evergreen.futures._thread",
    "lib.socket",
    "select",
    "evergreen.core.threadpool",
    "io.errno",
    "patcher",
    "log",
    "errno",
    "_process",
    "evergreen.futures._process",
    "tests.common",
    "futures._process",
    "evergreen.lib.time",
    "evergreen.futures",
    "local",
    "tests.test_locks",
    "evergreen.io",
    "evergreen.core",
    "evergreen.locks",
    "evergreen.log",
    "docs",
    "evergreen.tasks",
    "io.stream",
    "core.threadpool",
    "evergreen.io.errno",
    "util",
    "ssl",
    "_base",
    "test_locks",
    "examples.crawler",
    "tests.test_tasks",
    "docs.conf",
    "io.tty",
    "evergreen.io.tcp",
    "evergreen.io.pipe",
    "evergreen.lib.socket",
    "io.udp",
    "tests.test_io",
    "common",
    "lib.time",
    "examples.echo-server",
    "lib.select",
    "loop",
    "crawler",
    "evergreen.event",
    "evergreen.io.tty",
    "test_futures",
    "stream",
    "evergreen.patcher",
    "utils",
    "evergreen.io.stream",
    "locks",
    "examples",
    "conf",
    "futures._base",
    "udp",
    "event",
    "core.utils",
    "tests.test_futures",
    "queue",
    "_thread",
    "lib",
    "evergreen.io.udp",
    "evergreen.core.loop",
    "threadpool",
    "tests",
    "evergreen.futures._base",
    "core.socketpair",
    "futures._task",
    "socketpair",
    "channel",
    "tests.test_channel",
    "evergreen",
    "core",
    "tests.test_local",
    "evergreen.local",
    "io",
    "io.pipe",
    "lib.ssl",
    "evergreen.core.socketpair",
    "_task",
    "evergreen.lib.ssl",
    "evergreen.queue",
    "tests.test_timeout",
    "test_io",
    "test_channel",
    "socket",
    "evergreen.timeout",
    "test_tasks",
    "futures",
    "core.loop",
    "timeout",
    "evergreen.futures._task",
    "tests.test_loop",
    "pipe",
    "io.util",
    "test_event",
    "test_local",
    "time",
    "test_loop",
    "tests.test_event",
    "evergreen.lib"
]