{
    "libs": [
        "http",
        "template",
        "simple",
        "aggregates",
        "db",
        "django",
        "sys",
        "exceptions",
        "html",
        "conf",
        "contrib",
        "os",
        "utils"
    ]
}