{
    "archive_url": "https://api.github.com/repos/nyergler/effective-django/{archive_format}{/ref}",
    "assignees_url": "https://api.github.com/repos/nyergler/effective-django/assignees{/user}",
    "blobs_url": "https://api.github.com/repos/nyergler/effective-django/git/blobs{/sha}",
    "branches_url": "https://api.github.com/repos/nyergler/effective-django/branches{/branch}",
    "clone_url": "https://github.com/nyergler/effective-django.git",
    "collaborators_url": "https://api.github.com/repos/nyergler/effective-django/collaborators{/collaborator}",
    "comments_url": "https://api.github.com/repos/nyergler/effective-django/comments{/number}",
    "commits_url": "https://api.github.com/repos/nyergler/effective-django/commits{/sha}",
    "compare_url": "https://api.github.com/repos/nyergler/effective-django/compare/{base}...{head}",
    "contents_url": "https://api.github.com/repos/nyergler/effective-django/contents/{+path}",
    "contributors_url": "https://api.github.com/repos/nyergler/effective-django/contributors",
    "created_at": "2012-03-07T05:56:51Z",
    "default_branch": "master",
    "description": "Documentation on effectively using Django for building web applications.",
    "downloads_url": "https://api.github.com/repos/nyergler/effective-django/downloads",
    "events_url": "https://api.github.com/repos/nyergler/effective-django/events",
    "fork": false,
    "forks": 24,
    "forks_count": 24,
    "forks_url": "https://api.github.com/repos/nyergler/effective-django/forks",
    "full_name": "nyergler/effective-django",
    "git_commits_url": "https://api.github.com/repos/nyergler/effective-django/git/commits{/sha}",
    "git_refs_url": "https://api.github.com/repos/nyergler/effective-django/git/refs{/sha}",
    "git_tags_url": "https://api.github.com/repos/nyergler/effective-django/git/tags{/sha}",
    "git_url": "git://github.com/nyergler/effective-django.git",
    "has_downloads": true,
    "has_issues": true,
    "has_wiki": true,
    "homepage": "http://effectivedjango.com",
    "hooks_url": "https://api.github.com/repos/nyergler/effective-django/hooks",
    "html_url": "https://github.com/nyergler/effective-django",
    "id": 3646241,
    "issue_comment_url": "https://api.github.com/repos/nyergler/effective-django/issues/comments/{number}",
    "issue_events_url": "https://api.github.com/repos/nyergler/effective-django/issues/events{/number}",
    "issues_url": "https://api.github.com/repos/nyergler/effective-django/issues{/number}",
    "keys_url": "https://api.github.com/repos/nyergler/effective-django/keys{/key_id}",
    "labels_url": "https://api.github.com/repos/nyergler/effective-django/labels{/name}",
    "language": "Python",
    "languages_url": "https://api.github.com/repos/nyergler/effective-django/languages",
    "merges_url": "https://api.github.com/repos/nyergler/effective-django/merges",
    "milestones_url": "https://api.github.com/repos/nyergler/effective-django/milestones{/number}",
    "mirror_url": null,
    "name": "effective-django",
    "notifications_url": "https://api.github.com/repos/nyergler/effective-django/notifications{?since,all,participating}",
    "open_issues": 0,
    "open_issues_count": 0,
    "owner": {
        "avatar_url": "https://avatars.githubusercontent.com/u/510875?",
        "events_url": "https://api.github.com/users/nyergler/events{/privacy}",
        "followers_url": "https://api.github.com/users/nyergler/followers",
        "following_url": "https://api.github.com/users/nyergler/following{/other_user}",
        "gists_url": "https://api.github.com/users/nyergler/gists{/gist_id}",
        "gravatar_id": "75dc81420807523b4bdd266160b92e84",
        "html_url": "https://github.com/nyergler",
        "id": 510875,
        "login": "nyergler",
        "organizations_url": "https://api.github.com/users/nyergler/orgs",
        "received_events_url": "https://api.github.com/users/nyergler/received_events",
        "repos_url": "https://api.github.com/users/nyergler/repos",
        "site_admin": false,
        "starred_url": "https://api.github.com/users/nyergler/starred{/owner}{/repo}",
        "subscriptions_url": "https://api.github.com/users/nyergler/subscriptions",
        "type": "User",
        "url": "https://api.github.com/users/nyergler"
    },
    "private": false,
    "pulls_url": "https://api.github.com/repos/nyergler/effective-django/pulls{/number}",
    "pushed_at": "2014-03-30T03:47:51Z",
    "releases_url": "https://api.github.com/repos/nyergler/effective-django/releases{/id}",
    "score": 1.0,
    "size": 1693,
    "ssh_url": "git@github.com:nyergler/effective-django.git",
    "stargazers_count": 106,
    "stargazers_url": "https://api.github.com/repos/nyergler/effective-django/stargazers",
    "statuses_url": "https://api.github.com/repos/nyergler/effective-django/statuses/{sha}",
    "subscribers_url": "https://api.github.com/repos/nyergler/effective-django/subscribers",
    "subscription_url": "https://api.github.com/repos/nyergler/effective-django/subscription",
    "svn_url": "https://github.com/nyergler/effective-django",
    "tags_url": "https://api.github.com/repos/nyergler/effective-django/tags",
    "teams_url": "https://api.github.com/repos/nyergler/effective-django/teams",
    "trees_url": "https://api.github.com/repos/nyergler/effective-django/git/trees{/sha}",
    "updated_at": "2014-04-25T08:01:22Z",
    "url": "https://api.github.com/repos/nyergler/effective-django",
    "watchers": 106,
    "watchers_count": 106
}