{
    "libs": [
        "util",
        "b",
        "logging",
        "socket",
        "cherrypy",
        "random",
        "expat",
        "dowser",
        "datetime",
        "sys",
        "threading",
        "ext",
        "api",
        "MySQLdb",
        "urllib",
        "time",
        "etree",
        "webapp",
        "os"
    ]
}