{
    "libs": [
        "Queue",
        "datetime",
        "array",
        "shutil",
        "select",
        "ElementTree",
        "uuid",
        "errno",
        "re",
        "json",
        "minicluster_testb",
        "unittest2",
        "math",
        "bin",
        "stat",
        "inspect",
        "encoder",
        "sys",
        "pwd",
        "decoder",
        "path",
        "subprocess",
        "struct",
        "argparse",
        "logging",
        "socket",
        "zlib",
        "urlparse",
        "itertools",
        "mock",
        "time",
        "fnmatch",
        "bz2",
        "os"
    ]
}