[
    "protobuf.ProtobufRpcEngine_pb2",
    "test.list_test",
    "test.commandlineparser_test",
    "test.df_test",
    "test.cat_test",
    "snakebite.commandlineparser",
    "test.chgrp_test",
    "test.util",
    "ProtobufRpcEngine_pb2",
    "namenode",
    "test.client_test",
    "effective_user_test",
    "service",
    "snakebite.protobuf.hdfs_pb2",
    "chgrp_test",
    "test.effective_user_test",
    "source",
    "snakebite.minicluster",
    "Security_pb2",
    "copytolocal_test",
    "logger",
    "rename_test",
    "list_test",
    "snakebite.protobuf.RpcHeader_pb2",
    "test.test",
    "snakebite.service",
    "protobuf.RpcHeader_pb2",
    "protobuf.ClientNamenodeProtocol_pb2",
    "minicluster",
    "util",
    "source.conf",
    "delete_test",
    "commandlineparser",
    "test.chown_test",
    "snakebite",
    "snakebite.crc32c",
    "text_test",
    "protobuf.IpcConnectionContext_pb2",
    "glob_test",
    "test.config_test",
    "hdfs_pb2",
    "df_test",
    "test.copytolocal_test",
    "snakebite.namenode",
    "ClientNamenodeProtocol_pb2",
    "test.count_test",
    "config_test",
    "doc",
    "cat_test",
    "snakebite.formatter",
    "du_test",
    "datatransfer_pb2",
    "protobuf.Security_pb2",
    "test.test_test",
    "protobuf.hdfs_pb2",
    "test.glob_test",
    "snakebite.protobuf.ClientNamenodeProtocol_pb2",
    "test.getmerge_test",
    "conf",
    "snakebite.protobuf.IpcConnectionContext_pb2",
    "snakebite.errors",
    "minicluster_testbase",
    "snakebite.config",
    "snakebite.protobuf.Security_pb2",
    "test.du_test",
    "errors",
    "chmod_test",
    "doc.source.conf",
    "RpcHeader_pb2",
    "test.chmod_test",
    "doc.source",
    "snakebite.version",
    "crc32c",
    "version",
    "test",
    "formatter",
    "config",
    "IpcConnectionContext_pb2",
    "channel",
    "snakebite.protobuf",
    "snakebite.glob",
    "protobuf",
    "count_test",
    "test.rename_test",
    "glob",
    "test.minicluster_testbase",
    "test.delete_test",
    "snakebite.protobuf.ProtobufRpcEngine_pb2",
    "test.text_test",
    "snakebite.protobuf.datatransfer_pb2",
    "protobuf.datatransfer_pb2",
    "tail_test",
    "test.tail_test",
    "snakebite.channel",
    "chown_test",
    "snakebite.client",
    "test_test",
    "getmerge_test",
    "commandlineparser_test",
    "client",
    "client_test",
    "snakebite.logger"
]