{
    "libs": [
        "b",
        "struct",
        "h",
        "random",
        "urllib2",
        "sys",
        "re",
        "json",
        "psyco",
        "time",
        "copy",
        "os",
        "hmac"
    ]
}