{
    "libs": [
        "kernel",
        "lexer",
        "profiledir",
        "bs4",
        "testing",
        "IPython",
        "colors",
        "api",
        "io",
        "pand",
        "operator",
        "moves",
        "compat",
        "unicode_literals",
        "shutil",
        "PIL",
        "docutils",
        "tempfile",
        "sphinx_bootstrap_theme",
        "pyplot",
        "token",
        "current",
        "re",
        "json",
        "collections",
        "types",
        "spatial",
        "numpy",
        "math",
        "division",
        "decorators",
        "warnings",
        "glob",
        "tokenize",
        "matplotlib",
        "sys",
        "scipy",
        "rst",
        "stats",
        "copy",
        "print_function",
        "md5",
        "b",
        "sphinx",
        "py3compat",
        "h",
        "StringIO",
        "request",
        "difflib",
        "itertools",
        "colorsys",
        "nose",
        "agile",
        "statsmodels",
        "os",
        "display",
        "custom_doctests"
    ]
}