{
    "libs": [
        "httplib",
        "logging",
        "socket",
        "ujson",
        "traceback",
        "urllib2",
        "urllib",
        "urlparse",
        "re",
        "unittest",
        "functools",
        "mock",
        "bunch"
    ]
}