{
    "archive_url": "https://api.github.com/repos/jseutter/ofxparse/{archive_format}{/ref}",
    "assignees_url": "https://api.github.com/repos/jseutter/ofxparse/assignees{/user}",
    "blobs_url": "https://api.github.com/repos/jseutter/ofxparse/git/blobs{/sha}",
    "branches_url": "https://api.github.com/repos/jseutter/ofxparse/branches{/branch}",
    "clone_url": "https://github.com/jseutter/ofxparse.git",
    "collaborators_url": "https://api.github.com/repos/jseutter/ofxparse/collaborators{/collaborator}",
    "comments_url": "https://api.github.com/repos/jseutter/ofxparse/comments{/number}",
    "commits_url": "https://api.github.com/repos/jseutter/ofxparse/commits{/sha}",
    "compare_url": "https://api.github.com/repos/jseutter/ofxparse/compare/{base}...{head}",
    "contents_url": "https://api.github.com/repos/jseutter/ofxparse/contents/{+path}",
    "contributors_url": "https://api.github.com/repos/jseutter/ofxparse/contributors",
    "created_at": "2009-06-25T00:22:45Z",
    "default_branch": "master",
    "description": "Ofx file format parser for Python",
    "downloads_url": "https://api.github.com/repos/jseutter/ofxparse/downloads",
    "events_url": "https://api.github.com/repos/jseutter/ofxparse/events",
    "fork": false,
    "forks": 37,
    "forks_count": 37,
    "forks_url": "https://api.github.com/repos/jseutter/ofxparse/forks",
    "full_name": "jseutter/ofxparse",
    "git_commits_url": "https://api.github.com/repos/jseutter/ofxparse/git/commits{/sha}",
    "git_refs_url": "https://api.github.com/repos/jseutter/ofxparse/git/refs{/sha}",
    "git_tags_url": "https://api.github.com/repos/jseutter/ofxparse/git/tags{/sha}",
    "git_url": "git://github.com/jseutter/ofxparse.git",
    "has_downloads": true,
    "has_issues": true,
    "has_wiki": true,
    "homepage": "http://sites.google.com/site/ofxparse/",
    "hooks_url": "https://api.github.com/repos/jseutter/ofxparse/hooks",
    "html_url": "https://github.com/jseutter/ofxparse",
    "id": 235672,
    "issue_comment_url": "https://api.github.com/repos/jseutter/ofxparse/issues/comments/{number}",
    "issue_events_url": "https://api.github.com/repos/jseutter/ofxparse/issues/events{/number}",
    "issues_url": "https://api.github.com/repos/jseutter/ofxparse/issues{/number}",
    "keys_url": "https://api.github.com/repos/jseutter/ofxparse/keys{/key_id}",
    "labels_url": "https://api.github.com/repos/jseutter/ofxparse/labels{/name}",
    "language": "Python",
    "languages_url": "https://api.github.com/repos/jseutter/ofxparse/languages",
    "merges_url": "https://api.github.com/repos/jseutter/ofxparse/merges",
    "milestones_url": "https://api.github.com/repos/jseutter/ofxparse/milestones{/number}",
    "mirror_url": null,
    "name": "ofxparse",
    "notifications_url": "https://api.github.com/repos/jseutter/ofxparse/notifications{?since,all,participating}",
    "open_issues": 18,
    "open_issues_count": 18,
    "owner": {
        "avatar_url": "https://avatars.githubusercontent.com/u/78388?",
        "events_url": "https://api.github.com/users/jseutter/events{/privacy}",
        "followers_url": "https://api.github.com/users/jseutter/followers",
        "following_url": "https://api.github.com/users/jseutter/following{/other_user}",
        "gists_url": "https://api.github.com/users/jseutter/gists{/gist_id}",
        "gravatar_id": "2f029827874b9947cd1c5f8551881ee8",
        "html_url": "https://github.com/jseutter",
        "id": 78388,
        "login": "jseutter",
        "organizations_url": "https://api.github.com/users/jseutter/orgs",
        "received_events_url": "https://api.github.com/users/jseutter/received_events",
        "repos_url": "https://api.github.com/users/jseutter/repos",
        "site_admin": false,
        "starred_url": "https://api.github.com/users/jseutter/starred{/owner}{/repo}",
        "subscriptions_url": "https://api.github.com/users/jseutter/subscriptions",
        "type": "User",
        "url": "https://api.github.com/users/jseutter"
    },
    "private": false,
    "pulls_url": "https://api.github.com/repos/jseutter/ofxparse/pulls{/number}",
    "pushed_at": "2014-04-27T01:25:26Z",
    "releases_url": "https://api.github.com/repos/jseutter/ofxparse/releases{/id}",
    "score": 1.0,
    "size": 1013,
    "ssh_url": "git@github.com:jseutter/ofxparse.git",
    "stargazers_count": 43,
    "stargazers_url": "https://api.github.com/repos/jseutter/ofxparse/stargazers",
    "statuses_url": "https://api.github.com/repos/jseutter/ofxparse/statuses/{sha}",
    "subscribers_url": "https://api.github.com/repos/jseutter/ofxparse/subscribers",
    "subscription_url": "https://api.github.com/repos/jseutter/ofxparse/subscription",
    "svn_url": "https://github.com/jseutter/ofxparse",
    "tags_url": "https://api.github.com/repos/jseutter/ofxparse/tags",
    "teams_url": "https://api.github.com/repos/jseutter/ofxparse/teams",
    "trees_url": "https://api.github.com/repos/jseutter/ofxparse/git/trees{/sha}",
    "updated_at": "2014-04-27T01:25:24Z",
    "url": "https://api.github.com/repos/jseutter/ofxparse",
    "watchers": 43,
    "watchers_count": 43
}