{
    "libs": [
        "argparse",
        "copy",
        "platform",
        "io",
        "pluggdapps",
        "plugin",
        "tempfile",
        "utils",
        "pkg_resources",
        "subprocess",
        "sys",
        "docutils",
        "json",
        "pygments",
        "formatters",
        "template",
        "time",
        "path",
        "runtime",
        "os",
        "lexers"
    ]
}