{
    "libs": [
        "management",
        "logging",
        "_pylibmc",
        "shortcuts",
        "cache",
        "db",
        "absolute_import",
        "sys",
        "defaults",
        "test",
        "path"
    ]
}