{
    "libs": [
        "management",
        "unicode_literals",
        "unittest",
        "db",
        "datetime",
        "sys",
        "collections",
        "doctest",
        "defaults",
        "test",
        "os",
        "decimal"
    ]
}