{
    "libs": [
        "pprint",
        "locale",
        "hooks",
        "functools",
        "parser",
        "subprocess",
        "session",
        "contextlib",
        "io",
        "operator",
        "jmespath",
        "moves",
        "shutil",
        "operation",
        "math",
        "dateutil",
        "botocore",
        "tz",
        "struct",
        "parameters",
        "restdoc",
        "tempfile",
        "errno",
        "six",
        "datetime",
        "loaders",
        "platform",
        "json",
        "writers",
        "provider",
        "csv",
        "unittest",
        "mock",
        "t",
        "fcntl",
        "core",
        "random",
        "vendored",
        "textwrap",
        "termios",
        "rsa",
        "sys",
        "exceptions",
        "textwriter",
        "colorama",
        "codecs",
        "re",
        "copy",
        "argparse",
        "b",
        "logging",
        "socket",
        "StringIO",
        "h",
        "difflib",
        "unittest2",
        "docevents",
        "threading",
        "shlex",
        "time",
        "fnmatch",
        "ec2decryptp",
        "requests",
        "os",
        "hmac"
    ]
}