{
    "libs": [
        "random",
        "pymysql",
        "datetime",
        "cubriddb",
        "uri_parser",
        "web",
        "uuid",
        "psycopg2",
        "platform",
        "Cipher",
        "dat",
        "simple_server",
        "gae_memcache",
        "util",
        "b",
        "markmin2html",
        "aes",
        "settings",
        "h",
        "decimal",
        "threading",
        "httpexceptions",
        "cStringIO",
        "zlib",
        "locale",
        "win32file",
        "MySQLdb",
        "static",
        "encodings",
        "pyodbc",
        "ioloop",
        "imaplib",
        "restricted",
        "urllib",
        "re",
        "new",
        "formatter",
        "email",
        "math",
        "cgi",
        "inspect",
        "codecs",
        "struct",
        "logging",
        "socket",
        "thread",
        "traceback",
        "fcntl",
        "itertools",
        "extensions",
        "doctest",
        "os",
        "marshal",
        "sql",
        "__builtin__",
        "son",
        "header",
        "api",
        "contrib",
        "rss2",
        "yaml",
        "fl",
        "json",
        "cPickle",
        "simplejson",
        "pymongo",
        "pywintypes",
        "copy",
        "unicodedata",
        "sapdb",
        "pysqlite2",
        "cx_Oracle",
        "shelve",
        "HTMLParser",
        "pickle",
        "appengine",
        "sqlite",
        "copy_reg",
        "objectid",
        "rewrite",
        "copyreg",
        "io",
        "pypyodbc",
        "shutil",
        "dbapi",
        "firebirdsql",
        "Syb",
        "couchdb",
        "fdb",
        "sqlite3",
        "csv",
        "config",
        "pyuca",
        "polymodel",
        "glob",
        "win32con",
        "htmlentitydefs",
        "sys",
        "saxutils",
        "ipaddress",
        "response",
        "types",
        "kinterb",
        "pbkdf2",
        "urlparse",
        "ext",
        "htmllib",
        "bottle",
        "time",
        "informixdb",
        "idna",
        "hmac"
    ]
}