{
    "archive_url": "https://api.github.com/repos/eddyxu/cpp-coveralls/{archive_format}{/ref}",
    "assignees_url": "https://api.github.com/repos/eddyxu/cpp-coveralls/assignees{/user}",
    "blobs_url": "https://api.github.com/repos/eddyxu/cpp-coveralls/git/blobs{/sha}",
    "branches_url": "https://api.github.com/repos/eddyxu/cpp-coveralls/branches{/branch}",
    "clone_url": "https://github.com/eddyxu/cpp-coveralls.git",
    "collaborators_url": "https://api.github.com/repos/eddyxu/cpp-coveralls/collaborators{/collaborator}",
    "comments_url": "https://api.github.com/repos/eddyxu/cpp-coveralls/comments{/number}",
    "commits_url": "https://api.github.com/repos/eddyxu/cpp-coveralls/commits{/sha}",
    "compare_url": "https://api.github.com/repos/eddyxu/cpp-coveralls/compare/{base}...{head}",
    "contents_url": "https://api.github.com/repos/eddyxu/cpp-coveralls/contents/{+path}",
    "contributors_url": "https://api.github.com/repos/eddyxu/cpp-coveralls/contributors",
    "created_at": "2013-04-18T13:11:55Z",
    "default_branch": "master",
    "description": "Upload gcov results to coveralls.io",
    "downloads_url": "https://api.github.com/repos/eddyxu/cpp-coveralls/downloads",
    "events_url": "https://api.github.com/repos/eddyxu/cpp-coveralls/events",
    "fork": false,
    "forks": 19,
    "forks_count": 19,
    "forks_url": "https://api.github.com/repos/eddyxu/cpp-coveralls/forks",
    "full_name": "eddyxu/cpp-coveralls",
    "git_commits_url": "https://api.github.com/repos/eddyxu/cpp-coveralls/git/commits{/sha}",
    "git_refs_url": "https://api.github.com/repos/eddyxu/cpp-coveralls/git/refs{/sha}",
    "git_tags_url": "https://api.github.com/repos/eddyxu/cpp-coveralls/git/tags{/sha}",
    "git_url": "git://github.com/eddyxu/cpp-coveralls.git",
    "has_downloads": true,
    "has_issues": true,
    "has_wiki": true,
    "homepage": null,
    "hooks_url": "https://api.github.com/repos/eddyxu/cpp-coveralls/hooks",
    "html_url": "https://github.com/eddyxu/cpp-coveralls",
    "id": 9521942,
    "issue_comment_url": "https://api.github.com/repos/eddyxu/cpp-coveralls/issues/comments/{number}",
    "issue_events_url": "https://api.github.com/repos/eddyxu/cpp-coveralls/issues/events{/number}",
    "issues_url": "https://api.github.com/repos/eddyxu/cpp-coveralls/issues{/number}",
    "keys_url": "https://api.github.com/repos/eddyxu/cpp-coveralls/keys{/key_id}",
    "labels_url": "https://api.github.com/repos/eddyxu/cpp-coveralls/labels{/name}",
    "language": "Python",
    "languages_url": "https://api.github.com/repos/eddyxu/cpp-coveralls/languages",
    "merges_url": "https://api.github.com/repos/eddyxu/cpp-coveralls/merges",
    "milestones_url": "https://api.github.com/repos/eddyxu/cpp-coveralls/milestones{/number}",
    "mirror_url": null,
    "name": "cpp-coveralls",
    "notifications_url": "https://api.github.com/repos/eddyxu/cpp-coveralls/notifications{?since,all,participating}",
    "open_issues": 3,
    "open_issues_count": 3,
    "owner": {
        "avatar_url": "https://avatars.githubusercontent.com/u/17097?",
        "events_url": "https://api.github.com/users/eddyxu/events{/privacy}",
        "followers_url": "https://api.github.com/users/eddyxu/followers",
        "following_url": "https://api.github.com/users/eddyxu/following{/other_user}",
        "gists_url": "https://api.github.com/users/eddyxu/gists{/gist_id}",
        "gravatar_id": "9c8366b9132a382f7fe76a72a39f9946",
        "html_url": "https://github.com/eddyxu",
        "id": 17097,
        "login": "eddyxu",
        "organizations_url": "https://api.github.com/users/eddyxu/orgs",
        "received_events_url": "https://api.github.com/users/eddyxu/received_events",
        "repos_url": "https://api.github.com/users/eddyxu/repos",
        "site_admin": false,
        "starred_url": "https://api.github.com/users/eddyxu/starred{/owner}{/repo}",
        "subscriptions_url": "https://api.github.com/users/eddyxu/subscriptions",
        "type": "User",
        "url": "https://api.github.com/users/eddyxu"
    },
    "private": false,
    "pulls_url": "https://api.github.com/repos/eddyxu/cpp-coveralls/pulls{/number}",
    "pushed_at": "2014-05-05T02:16:43Z",
    "releases_url": "https://api.github.com/repos/eddyxu/cpp-coveralls/releases{/id}",
    "score": 1.0,
    "size": 1052,
    "ssh_url": "git@github.com:eddyxu/cpp-coveralls.git",
    "stargazers_count": 49,
    "stargazers_url": "https://api.github.com/repos/eddyxu/cpp-coveralls/stargazers",
    "statuses_url": "https://api.github.com/repos/eddyxu/cpp-coveralls/statuses/{sha}",
    "subscribers_url": "https://api.github.com/repos/eddyxu/cpp-coveralls/subscribers",
    "subscription_url": "https://api.github.com/repos/eddyxu/cpp-coveralls/subscription",
    "svn_url": "https://github.com/eddyxu/cpp-coveralls",
    "tags_url": "https://api.github.com/repos/eddyxu/cpp-coveralls/tags",
    "teams_url": "https://api.github.com/repos/eddyxu/cpp-coveralls/teams",
    "trees_url": "https://api.github.com/repos/eddyxu/cpp-coveralls/git/trees{/sha}",
    "updated_at": "2014-05-05T14:45:22Z",
    "url": "https://api.github.com/repos/eddyxu/cpp-coveralls",
    "watchers": 49,
    "watchers_count": 49
}