[
    "bin",
    "templates",
    "commands",
    "hipsaint.templates",
    "hipsaint.bin",
    "hipsaint.bin.commands",
    "hipsaint.messages",
    "messages",
    "tests",
    "options",
    "hipsaint.options",
    "hipsaint.tests",
    "hipsaint",
    "bin.commands"
]