{
    "libs": [
        "dateutil",
        "division",
        "six",
        "core",
        "unicode_literals",
        "unittest",
        "inspect",
        "db",
        "modelsinspector",
        "datetime",
        "sys",
        "re",
        "json",
        "management",
        "exceptions",
        "test",
        "translation",
        "django",
        "os",
        "decimal",
        "contrib"
    ]
}