[
    "funcs",
    "simple_funcs",
    "namespaces",
    "funcy.debug",
    "funcy",
    "funcy.funcolls",
    "tests.test_funcmakers",
    "funcmakers",
    "drafts.floats",
    "funcy.funcmakers",
    "makeseq",
    "seqmaker",
    "drafts.examples",
    "tests.test_colls",
    "drafts.bench_decorators",
    "tests.test_seqs",
    "drafts.partition",
    "funcy.types",
    "drafts.flatten",
    "calc",
    "tests",
    "docs",
    "funcy.simple_funcs",
    "funcy.cross",
    "test_types",
    "test_flow",
    "drafts.seqmaker",
    "funcy.flow",
    "funcy.strings",
    "docs.conf",
    "tests.test_calc",
    "test_decorators",
    "test_funcolls",
    "funcy.funcs",
    "funcy.decorators",
    "debug",
    "tests.test_strings",
    "flatten",
    "tests.test_types",
    "test_seqs",
    "test_strings",
    "funcy.primitives",
    "flow",
    "py2",
    "py3",
    "drafts.func_spec",
    "test_objects",
    "intro",
    "examples",
    "conf",
    "tests.test_funcs",
    "primitives",
    "funcy.namespaces",
    "funcolls",
    "drafts",
    "funcy.colls",
    "cross",
    "test_debug",
    "tests.test_funcolls",
    "colls",
    "funcy.seqs",
    "seqs",
    "funcy.calc",
    "decorators",
    "test_calc",
    "test_funcs",
    "funcy.objects",
    "drafts.makeseq",
    "funcy.py3",
    "funcy.py2",
    "tests.test_decorators",
    "objects",
    "types",
    "floats",
    "test_colls",
    "tests.test_flow",
    "tests.test_debug",
    "partition",
    "tests.test_objects",
    "test_funcmakers",
    "func_spec",
    "drafts.intro",
    "bench_decorators",
    "strings"
]