{
    "libs": [
        "heapq",
        "ui_p",
        "oggflac",
        "oggspeex",
        "distutils",
        "locale",
        "functools",
        "codecs",
        "subprocess",
        "__builtin__",
        "PyQt4",
        "mp3",
        "operator",
        "wavpack",
        "shutil",
        "oggvorbis",
        "compat",
        "mutagen",
        "dep_util",
        "QtGui",
        "discid",
        "imp",
        "tempfile",
        "errno",
        "gettext",
        "trueaudio",
        "re",
        "json",
        "collections",
        "ntpath",
        "unittest",
        "rele",
        "cgi",
        "monkeysaudio",
        "musepack",
        "Foundation",
        "glob",
        "inspect",
        "optimfrog",
        "_util",
        "wave",
        "sys",
        "ui_options_rele",
        "ctypes",
        "flac",
        "oggopus",
        "path",
        "ogg",
        "oggtheora",
        "platform",
        "struct",
        "unicodedata",
        "b",
        "StringIO",
        "h",
        "traceback",
        "QtCore",
        "urlparse",
        "p",
        "itertools",
        "math",
        "time",
        "fnmatch",
        "webbrowser",
        "os"
    ]
}