[
    "date_seq",
    "src.tsv_to_json",
    "trim_tsv",
    "src.normalize_utf8",
    "join_tsv",
    "csv_to_xlsx",
    "src.date_seq",
    "src.trim_tsv",
    "xlsx_to_csv",
    "src.reservoir_sample",
    "src.xlsx_to_csv",
    "src.csv_to_json",
    "csv_to_tsv",
    "counting_sort",
    "tsv_to_json",
    "src.tsv_to_csv",
    "src",
    "src.csv_to_tsv",
    "src.highlight",
    "normalize_utf8",
    "src.join_tsv",
    "src.csv_to_xlsx",
    "csv_to_json",
    "tsv_to_csv",
    "highlight",
    "reservoir_sample",
    "src.counting_sort"
]