[
    "tests",
    "views",
    "models",
    "demo_project",
    "manage",
    "admin",
    "demo_project.urls",
    "cropper.models",
    "cropper.admin",
    "urls",
    "cropper",
    "demo_project.settings",
    "cropper.views",
    "settings",
    "demo_project.manage",
    "cropper.tests"
]