[
    "wsgi",
    "tasks",
    "plans.listeners",
    "manage",
    "demo.example.foo.views",
    "foo.urls",
    "demo.example.foo.forms",
    "plans.validators",
    "validators",
    "contrib",
    "demo.example.foo.validators",
    "demo.example.urls",
    "plans.views",
    "plans.conf",
    "example.foo.models",
    "taxation.ru",
    "signals",
    "plans.forms",
    "demo.example",
    "plans.admin",
    "plans.taxation.eu",
    "forms",
    "source",
    "fabfile",
    "example.urls",
    "demo.example.foo.tests",
    "tests",
    "plans_i18n.tests",
    "views",
    "example.foo.urls",
    "docs",
    "taxation",
    "mixins",
    "plans.taxation",
    "source.conf",
    "demo.example.foo",
    "plans.tests.tests",
    "translation",
    "plans.urls",
    "foo.views",
    "settings",
    "plans.importer",
    "plans.contrib",
    "listeners",
    "example.foo",
    "foo.tests",
    "example",
    "foo.forms",
    "demo.manage",
    "tests.tests",
    "plans.tests",
    "plans.signals",
    "demo.example.foo.urls",
    "demo",
    "eu",
    "conf",
    "plans_i18n.models",
    "plans_i18n",
    "plans_i18n.admin",
    "plans.tasks",
    "example.foo.tests",
    "docs.source",
    "example.foo.forms",
    "plan_change",
    "docs.source.conf",
    "importer",
    "plans.enum",
    "foo.validators",
    "plans.context_processors",
    "example.foo.views",
    "foo",
    "example.wsgi",
    "example.settings",
    "plans_i18n.translation",
    "plans.mixins",
    "plans",
    "foo.models",
    "context_processors",
    "models",
    "enum",
    "plans.taxation.ru",
    "quota",
    "demo.example.wsgi",
    "plans.models",
    "plans_i18n.views",
    "admin",
    "plans.plan_change",
    "example.foo.validators",
    "demo.example.foo.models",
    "conftest",
    "demo.example.settings",
    "demo.fabfile",
    "urls",
    "taxation.eu",
    "ru",
    "plans.quota"
]