{
    "archive_url": "https://api.github.com/repos/skuroda/Sublime-AdvancedNewFile/{archive_format}{/ref}",
    "assignees_url": "https://api.github.com/repos/skuroda/Sublime-AdvancedNewFile/assignees{/user}",
    "blobs_url": "https://api.github.com/repos/skuroda/Sublime-AdvancedNewFile/git/blobs{/sha}",
    "branches_url": "https://api.github.com/repos/skuroda/Sublime-AdvancedNewFile/branches{/branch}",
    "clone_url": "https://github.com/skuroda/Sublime-AdvancedNewFile.git",
    "collaborators_url": "https://api.github.com/repos/skuroda/Sublime-AdvancedNewFile/collaborators{/collaborator}",
    "comments_url": "https://api.github.com/repos/skuroda/Sublime-AdvancedNewFile/comments{/number}",
    "commits_url": "https://api.github.com/repos/skuroda/Sublime-AdvancedNewFile/commits{/sha}",
    "compare_url": "https://api.github.com/repos/skuroda/Sublime-AdvancedNewFile/compare/{base}...{head}",
    "contents_url": "https://api.github.com/repos/skuroda/Sublime-AdvancedNewFile/contents/{+path}",
    "contributors_url": "https://api.github.com/repos/skuroda/Sublime-AdvancedNewFile/contributors",
    "created_at": "2011-10-28T10:03:38Z",
    "default_branch": "master",
    "description": "File creation plugin for Sublime Text 2 and Sublime Text 3.",
    "downloads_url": "https://api.github.com/repos/skuroda/Sublime-AdvancedNewFile/downloads",
    "events_url": "https://api.github.com/repos/skuroda/Sublime-AdvancedNewFile/events",
    "fork": false,
    "forks": 40,
    "forks_count": 40,
    "forks_url": "https://api.github.com/repos/skuroda/Sublime-AdvancedNewFile/forks",
    "full_name": "skuroda/Sublime-AdvancedNewFile",
    "git_commits_url": "https://api.github.com/repos/skuroda/Sublime-AdvancedNewFile/git/commits{/sha}",
    "git_refs_url": "https://api.github.com/repos/skuroda/Sublime-AdvancedNewFile/git/refs{/sha}",
    "git_tags_url": "https://api.github.com/repos/skuroda/Sublime-AdvancedNewFile/git/tags{/sha}",
    "git_url": "git://github.com/skuroda/Sublime-AdvancedNewFile.git",
    "has_downloads": true,
    "has_issues": true,
    "has_wiki": true,
    "homepage": "",
    "hooks_url": "https://api.github.com/repos/skuroda/Sublime-AdvancedNewFile/hooks",
    "html_url": "https://github.com/skuroda/Sublime-AdvancedNewFile",
    "id": 2664389,
    "issue_comment_url": "https://api.github.com/repos/skuroda/Sublime-AdvancedNewFile/issues/comments/{number}",
    "issue_events_url": "https://api.github.com/repos/skuroda/Sublime-AdvancedNewFile/issues/events{/number}",
    "issues_url": "https://api.github.com/repos/skuroda/Sublime-AdvancedNewFile/issues{/number}",
    "keys_url": "https://api.github.com/repos/skuroda/Sublime-AdvancedNewFile/keys{/key_id}",
    "labels_url": "https://api.github.com/repos/skuroda/Sublime-AdvancedNewFile/labels{/name}",
    "language": "Python",
    "languages_url": "https://api.github.com/repos/skuroda/Sublime-AdvancedNewFile/languages",
    "merges_url": "https://api.github.com/repos/skuroda/Sublime-AdvancedNewFile/merges",
    "milestones_url": "https://api.github.com/repos/skuroda/Sublime-AdvancedNewFile/milestones{/number}",
    "mirror_url": null,
    "name": "Sublime-AdvancedNewFile",
    "notifications_url": "https://api.github.com/repos/skuroda/Sublime-AdvancedNewFile/notifications{?since,all,participating}",
    "open_issues": 3,
    "open_issues_count": 3,
    "owner": {
        "avatar_url": "https://avatars.githubusercontent.com/u/1328880?",
        "events_url": "https://api.github.com/users/skuroda/events{/privacy}",
        "followers_url": "https://api.github.com/users/skuroda/followers",
        "following_url": "https://api.github.com/users/skuroda/following{/other_user}",
        "gists_url": "https://api.github.com/users/skuroda/gists{/gist_id}",
        "gravatar_id": "96f47a342b2e49dff613d73d6ca3e3e1",
        "html_url": "https://github.com/skuroda",
        "id": 1328880,
        "login": "skuroda",
        "organizations_url": "https://api.github.com/users/skuroda/orgs",
        "received_events_url": "https://api.github.com/users/skuroda/received_events",
        "repos_url": "https://api.github.com/users/skuroda/repos",
        "site_admin": false,
        "starred_url": "https://api.github.com/users/skuroda/starred{/owner}{/repo}",
        "subscriptions_url": "https://api.github.com/users/skuroda/subscriptions",
        "type": "User",
        "url": "https://api.github.com/users/skuroda"
    },
    "private": false,
    "pulls_url": "https://api.github.com/repos/skuroda/Sublime-AdvancedNewFile/pulls{/number}",
    "pushed_at": "2014-04-13T23:58:04Z",
    "releases_url": "https://api.github.com/repos/skuroda/Sublime-AdvancedNewFile/releases{/id}",
    "score": 1.0,
    "size": 1086,
    "ssh_url": "git@github.com:skuroda/Sublime-AdvancedNewFile.git",
    "stargazers_count": 306,
    "stargazers_url": "https://api.github.com/repos/skuroda/Sublime-AdvancedNewFile/stargazers",
    "statuses_url": "https://api.github.com/repos/skuroda/Sublime-AdvancedNewFile/statuses/{sha}",
    "subscribers_url": "https://api.github.com/repos/skuroda/Sublime-AdvancedNewFile/subscribers",
    "subscription_url": "https://api.github.com/repos/skuroda/Sublime-AdvancedNewFile/subscription",
    "svn_url": "https://github.com/skuroda/Sublime-AdvancedNewFile",
    "tags_url": "https://api.github.com/repos/skuroda/Sublime-AdvancedNewFile/tags",
    "teams_url": "https://api.github.com/repos/skuroda/Sublime-AdvancedNewFile/teams",
    "trees_url": "https://api.github.com/repos/skuroda/Sublime-AdvancedNewFile/git/trees{/sha}",
    "updated_at": "2014-05-07T00:24:08Z",
    "url": "https://api.github.com/repos/skuroda/Sublime-AdvancedNewFile",
    "watchers": 306,
    "watchers_count": 306
}