[
    "commands.command_base",
    "commands.helper_commands",
    "vcs.git.git_command_base",
    "advanced_new_file.platform",
    "lib.package_resources",
    "advanced_new_file.vcs",
    "completions",
    "advanced_new_file.reloader",
    "advanced_new_file.platform.windows_platform",
    "advanced_new_file",
    "package_resources",
    "advanced_new_file.lib",
    "advanced_new_file.anf_util",
    "advanced_new_file.commands.helper_commands",
    "advanced_new_file.lib.package_resources",
    "git.git_command_base",
    "platform.windows_platform",
    "new_file_command",
    "git_command_base",
    "nix_completion",
    "git",
    "commands.move_file_command",
    "advanced_new_file.completions.windows_completion",
    "lib",
    "nix_platform",
    "advanced_new_file.commands.delete_file_command",
    "advanced_new_file.completions.completion_base",
    "vcs.git",
    "platform",
    "advanced_new_file.commands.move_file_command",
    "vcs",
    "advanced_new_file.commands.new_file_command",
    "windows_platform",
    "commands.delete_file_command",
    "reloader",
    "windows_completion",
    "move_file_command",
    "AdvancedNewFile",
    "advanced_new_file.completions.nix_completion",
    "delete_file_command",
    "command_base",
    "advanced_new_file.vcs.git",
    "advanced_new_file.platform.nix_platform",
    "advanced_new_file.commands",
    "completion_base",
    "commands.new_file_command",
    "platform.nix_platform",
    "anf_util",
    "advanced_new_file.vcs.git.git_command_base",
    "commands",
    "helper_commands",
    "completions.windows_completion",
    "advanced_new_file.commands.command_base",
    "advanced_new_file.completions",
    "completions.completion_base",
    "completions.nix_completion"
]