{
    "archive_url": "https://api.github.com/repos/ericflo/django-oembed/{archive_format}{/ref}",
    "assignees_url": "https://api.github.com/repos/ericflo/django-oembed/assignees{/user}",
    "blobs_url": "https://api.github.com/repos/ericflo/django-oembed/git/blobs{/sha}",
    "branches_url": "https://api.github.com/repos/ericflo/django-oembed/branches{/branch}",
    "clone_url": "https://github.com/ericflo/django-oembed.git",
    "collaborators_url": "https://api.github.com/repos/ericflo/django-oembed/collaborators{/collaborator}",
    "comments_url": "https://api.github.com/repos/ericflo/django-oembed/comments{/number}",
    "commits_url": "https://api.github.com/repos/ericflo/django-oembed/commits{/sha}",
    "compare_url": "https://api.github.com/repos/ericflo/django-oembed/compare/{base}...{head}",
    "contents_url": "https://api.github.com/repos/ericflo/django-oembed/contents/{+path}",
    "contributors_url": "https://api.github.com/repos/ericflo/django-oembed/contributors",
    "created_at": "2008-12-05T07:30:35Z",
    "default_branch": "master",
    "description": "A collection of Django tools which make it easy to change text filled with oembed links into the embedded objects themselves.",
    "downloads_url": "https://api.github.com/repos/ericflo/django-oembed/downloads",
    "events_url": "https://api.github.com/repos/ericflo/django-oembed/events",
    "fork": false,
    "forks": 28,
    "forks_count": 28,
    "forks_url": "https://api.github.com/repos/ericflo/django-oembed/forks",
    "full_name": "ericflo/django-oembed",
    "git_commits_url": "https://api.github.com/repos/ericflo/django-oembed/git/commits{/sha}",
    "git_refs_url": "https://api.github.com/repos/ericflo/django-oembed/git/refs{/sha}",
    "git_tags_url": "https://api.github.com/repos/ericflo/django-oembed/git/tags{/sha}",
    "git_url": "git://github.com/ericflo/django-oembed.git",
    "has_downloads": true,
    "has_issues": true,
    "has_wiki": true,
    "homepage": "http://code.google.com/p/django-oembed/",
    "hooks_url": "https://api.github.com/repos/ericflo/django-oembed/hooks",
    "html_url": "https://github.com/ericflo/django-oembed",
    "id": 85421,
    "issue_comment_url": "https://api.github.com/repos/ericflo/django-oembed/issues/comments/{number}",
    "issue_events_url": "https://api.github.com/repos/ericflo/django-oembed/issues/events{/number}",
    "issues_url": "https://api.github.com/repos/ericflo/django-oembed/issues{/number}",
    "keys_url": "https://api.github.com/repos/ericflo/django-oembed/keys{/key_id}",
    "labels_url": "https://api.github.com/repos/ericflo/django-oembed/labels{/name}",
    "language": "Python",
    "languages_url": "https://api.github.com/repos/ericflo/django-oembed/languages",
    "merges_url": "https://api.github.com/repos/ericflo/django-oembed/merges",
    "milestones_url": "https://api.github.com/repos/ericflo/django-oembed/milestones{/number}",
    "mirror_url": null,
    "name": "django-oembed",
    "notifications_url": "https://api.github.com/repos/ericflo/django-oembed/notifications{?since,all,participating}",
    "open_issues": 11,
    "open_issues_count": 11,
    "owner": {
        "avatar_url": "https://avatars.githubusercontent.com/u/1228?",
        "events_url": "https://api.github.com/users/ericflo/events{/privacy}",
        "followers_url": "https://api.github.com/users/ericflo/followers",
        "following_url": "https://api.github.com/users/ericflo/following{/other_user}",
        "gists_url": "https://api.github.com/users/ericflo/gists{/gist_id}",
        "gravatar_id": "04d6b8e8d3c68899ac88eb8623392150",
        "html_url": "https://github.com/ericflo",
        "id": 1228,
        "login": "ericflo",
        "organizations_url": "https://api.github.com/users/ericflo/orgs",
        "received_events_url": "https://api.github.com/users/ericflo/received_events",
        "repos_url": "https://api.github.com/users/ericflo/repos",
        "site_admin": false,
        "starred_url": "https://api.github.com/users/ericflo/starred{/owner}{/repo}",
        "subscriptions_url": "https://api.github.com/users/ericflo/subscriptions",
        "type": "User",
        "url": "https://api.github.com/users/ericflo"
    },
    "private": false,
    "pulls_url": "https://api.github.com/repos/ericflo/django-oembed/pulls{/number}",
    "pushed_at": "2009-11-30T18:57:11Z",
    "releases_url": "https://api.github.com/repos/ericflo/django-oembed/releases{/id}",
    "score": 1.0,
    "size": 121,
    "ssh_url": "git@github.com:ericflo/django-oembed.git",
    "stargazers_count": 78,
    "stargazers_url": "https://api.github.com/repos/ericflo/django-oembed/stargazers",
    "statuses_url": "https://api.github.com/repos/ericflo/django-oembed/statuses/{sha}",
    "subscribers_url": "https://api.github.com/repos/ericflo/django-oembed/subscribers",
    "subscription_url": "https://api.github.com/repos/ericflo/django-oembed/subscription",
    "svn_url": "https://github.com/ericflo/django-oembed",
    "tags_url": "https://api.github.com/repos/ericflo/django-oembed/tags",
    "teams_url": "https://api.github.com/repos/ericflo/django-oembed/teams",
    "trees_url": "https://api.github.com/repos/ericflo/django-oembed/git/trees{/sha}",
    "updated_at": "2013-12-18T06:11:13Z",
    "url": "https://api.github.com/repos/ericflo/django-oembed",
    "watchers": 78,
    "watchers_count": 78
}