{
    "libs": [
        "functools",
        "random",
        "datetime",
        "isodate",
        "MySQL",
        "interpreter",
        "pyparsing",
        "uuid",
        "tempfile",
        "pprint",
        "platform",
        "collections",
        "division",
        "bsddb3",
        "etree",
        "string",
        "textwrap",
        "subprocess",
        "ConfigParser",
        "httplib",
        "extr",
        "h",
        "decimal",
        "xmlreader",
        "threading",
        "nose",
        "gc",
        "cStringIO",
        "with_statement",
        "calendar",
        "server",
        "html5lib",
        "urllib",
        "re",
        "math",
        "cgi",
        "optparse",
        "UserDict",
        "codecs",
        "path",
        "elementtree",
        "md5",
        "minidom",
        "logging",
        "socket",
        "thread",
        "StringIO",
        "traceback",
        "pkg_resources",
        "itertools",
        "doctest",
        "os",
        "pdb",
        "Graph",
        "unittest",
        "Literal",
        "fileinput",
        "operator",
        "pkgutil",
        "imp",
        "demset",
        "json",
        "pychinko",
        "fork",
        "cPickle",
        "utf_8",
        "simplejson",
        "RDF",
        "copy",
        "unicodedata",
        "b",
        "error",
        "imdb",
        "pickle",
        "ordereddict",
        "SPARQLWrapper",
        "B",
        "contextlib",
        "io",
        "shutil",
        "pipe",
        "RDFS",
        "bsddb",
        "getopt",
        "csv",
        "warnings",
        "htmlentitydefs",
        "urllib2",
        "sys",
        "isostrf",
        "saxutils",
        "types",
        "exc",
        "dom",
        "cjson",
        "request",
        "urlparse",
        "time"
    ]
}