[
    "sublimerl_completion",
    "support.sublimerl_libparser",
    "sublimerl_man",
    "sublimerl_function_search",
    "sublimerl_core",
    "sublimerl_autocompiler",
    "support",
    "sublimerl_formatter",
    "sublimerl_tests_integration",
    "sublimerl_libparser"
]