{
    "libs": [
        "Queue",
        "B",
        "bluetooth",
        "string",
        "simplejson",
        "threading",
        "urllib2",
        "getp",
        "sys",
        "re",
        "pwd",
        "pygame",
        "lightblue",
        "time",
        "sqlite3",
        "getopt",
        "smtplib",
        "copy",
        "os",
        "gps"
    ]
}