{
    "libs": [
        "cStringIO",
        "ansi2html",
        "postgresql",
        "encoding",
        "unicode_literals",
        "unittest",
        "random",
        "with_statement",
        "unicodedata",
        "absolute_import",
        "datetime",
        "contextlib",
        "loremipsum",
        "path",
        "expression",
        "shutil",
        "responses",
        "routing",
        "lxml",
        "pkgutil",
        "dialects",
        "rfc822",
        "re",
        "pytest",
        "collections",
        "kombu",
        "mutable",
        "oauth2client",
        "notification_b",
        "functools",
        "schema",
        "division",
        "sqlalchemy",
        "exam",
        "warnings",
        "jobph",
        "fixers",
        "sys",
        "testc",
        "orm",
        "jinja2",
        "sql",
        "serialization",
        "subprocess",
        "fl",
        "print_function",
        "compiler",
        "dat",
        "c",
        "b",
        "logging",
        "exc",
        "h",
        "pkg_resources",
        "toronado",
        "urlparse",
        "threading",
        "itertools",
        "cleanup_t",
        "t",
        "time",
        "fnmatch",
        "requests",
        "NOQA",
        "os",
        "alembic"
    ]
}