{
    "libs": [
        "Queue",
        "builtins",
        "blacklisted",
        "threading",
        "unittest",
        "queue",
        "testmodule",
        "sys",
        "imp",
        "__builtin__",
        "time",
        "copy",
        "os",
        "types"
    ]
}