{
    "archive_url": "https://api.github.com/repos/trentm/python-markdown2/{archive_format}{/ref}",
    "assignees_url": "https://api.github.com/repos/trentm/python-markdown2/assignees{/user}",
    "blobs_url": "https://api.github.com/repos/trentm/python-markdown2/git/blobs{/sha}",
    "branches_url": "https://api.github.com/repos/trentm/python-markdown2/branches{/branch}",
    "clone_url": "https://github.com/trentm/python-markdown2.git",
    "collaborators_url": "https://api.github.com/repos/trentm/python-markdown2/collaborators{/collaborator}",
    "comments_url": "https://api.github.com/repos/trentm/python-markdown2/comments{/number}",
    "commits_url": "https://api.github.com/repos/trentm/python-markdown2/commits{/sha}",
    "compare_url": "https://api.github.com/repos/trentm/python-markdown2/compare/{base}...{head}",
    "contents_url": "https://api.github.com/repos/trentm/python-markdown2/contents/{+path}",
    "contributors_url": "https://api.github.com/repos/trentm/python-markdown2/contributors",
    "created_at": "2011-01-31T00:30:02Z",
    "default_branch": "master",
    "description": "markdown2: A fast and complete implementation of Markdown in Python",
    "downloads_url": "https://api.github.com/repos/trentm/python-markdown2/downloads",
    "events_url": "https://api.github.com/repos/trentm/python-markdown2/events",
    "fork": false,
    "forks": 112,
    "forks_count": 112,
    "forks_url": "https://api.github.com/repos/trentm/python-markdown2/forks",
    "full_name": "trentm/python-markdown2",
    "git_commits_url": "https://api.github.com/repos/trentm/python-markdown2/git/commits{/sha}",
    "git_refs_url": "https://api.github.com/repos/trentm/python-markdown2/git/refs{/sha}",
    "git_tags_url": "https://api.github.com/repos/trentm/python-markdown2/git/tags{/sha}",
    "git_url": "git://github.com/trentm/python-markdown2.git",
    "has_downloads": true,
    "has_issues": true,
    "has_wiki": true,
    "homepage": "",
    "hooks_url": "https://api.github.com/repos/trentm/python-markdown2/hooks",
    "html_url": "https://github.com/trentm/python-markdown2",
    "id": 1310572,
    "issue_comment_url": "https://api.github.com/repos/trentm/python-markdown2/issues/comments/{number}",
    "issue_events_url": "https://api.github.com/repos/trentm/python-markdown2/issues/events{/number}",
    "issues_url": "https://api.github.com/repos/trentm/python-markdown2/issues{/number}",
    "keys_url": "https://api.github.com/repos/trentm/python-markdown2/keys{/key_id}",
    "labels_url": "https://api.github.com/repos/trentm/python-markdown2/labels{/name}",
    "language": "Python",
    "languages_url": "https://api.github.com/repos/trentm/python-markdown2/languages",
    "merges_url": "https://api.github.com/repos/trentm/python-markdown2/merges",
    "milestones_url": "https://api.github.com/repos/trentm/python-markdown2/milestones{/number}",
    "mirror_url": null,
    "name": "python-markdown2",
    "notifications_url": "https://api.github.com/repos/trentm/python-markdown2/notifications{?since,all,participating}",
    "open_issues": 56,
    "open_issues_count": 56,
    "owner": {
        "avatar_url": "https://avatars.githubusercontent.com/u/46866?",
        "events_url": "https://api.github.com/users/trentm/events{/privacy}",
        "followers_url": "https://api.github.com/users/trentm/followers",
        "following_url": "https://api.github.com/users/trentm/following{/other_user}",
        "gists_url": "https://api.github.com/users/trentm/gists{/gist_id}",
        "gravatar_id": "26156e2b45d0a7aa9b98b78019997f5b",
        "html_url": "https://github.com/trentm",
        "id": 46866,
        "login": "trentm",
        "organizations_url": "https://api.github.com/users/trentm/orgs",
        "received_events_url": "https://api.github.com/users/trentm/received_events",
        "repos_url": "https://api.github.com/users/trentm/repos",
        "site_admin": false,
        "starred_url": "https://api.github.com/users/trentm/starred{/owner}{/repo}",
        "subscriptions_url": "https://api.github.com/users/trentm/subscriptions",
        "type": "User",
        "url": "https://api.github.com/users/trentm"
    },
    "private": false,
    "pulls_url": "https://api.github.com/repos/trentm/python-markdown2/pulls{/number}",
    "pushed_at": "2014-03-31T02:03:24Z",
    "releases_url": "https://api.github.com/repos/trentm/python-markdown2/releases{/id}",
    "score": 1.0,
    "size": 3242,
    "ssh_url": "git@github.com:trentm/python-markdown2.git",
    "stargazers_count": 650,
    "stargazers_url": "https://api.github.com/repos/trentm/python-markdown2/stargazers",
    "statuses_url": "https://api.github.com/repos/trentm/python-markdown2/statuses/{sha}",
    "subscribers_url": "https://api.github.com/repos/trentm/python-markdown2/subscribers",
    "subscription_url": "https://api.github.com/repos/trentm/python-markdown2/subscription",
    "svn_url": "https://github.com/trentm/python-markdown2",
    "tags_url": "https://api.github.com/repos/trentm/python-markdown2/tags",
    "teams_url": "https://api.github.com/repos/trentm/python-markdown2/teams",
    "trees_url": "https://api.github.com/repos/trentm/python-markdown2/git/trees{/sha}",
    "updated_at": "2014-05-07T04:24:00Z",
    "url": "https://api.github.com/repos/trentm/python-markdown2",
    "watchers": 650,
    "watchers_count": 650
}