[
    "example.app",
    "conf",
    "docs._themes.flask_theme_support",
    "docs",
    "app",
    "tests",
    "example",
    "_themes.flask_theme_support",
    "flask_theme_support",
    "docs.conf",
    "docs._themes",
    "example.example.app",
    "tests.test_flask_static",
    "test_flask_static",
    "flask_s3",
    "_themes",
    "example.example"
]