[
    "regenwolken.specs",
    "mongonic",
    "regenwolken.manage",
    "views",
    "utils",
    "manage",
    "regenwolken",
    "regenwolken.views",
    "regenwolken.utils",
    "regenwolken.mongonic",
    "specs"
]