{
    "libs": [
        "functools",
        "random",
        "gevent",
        "gc",
        "bson",
        "errors",
        "monkey",
        "json",
        "collections",
        "sqlite3",
        "pymongo",
        "string",
        "read_preferences",
        "sys",
        "path",
        "pool",
        "argparse",
        "b",
        "logging",
        "f",
        "signal",
        "itertools",
        "time",
        "os",
        "multiprocessing"
    ]
}