[
    "wsgi",
    "socketserver",
    "project.chat.sockserver",
    "chat.sockserver",
    "manage",
    "chat.views",
    "django_sockjs_tornado.management.commands",
    "project.settings",
    "example.project.chat.urls",
    "chat",
    "project.chat.views",
    "django_sockjs_tornado.management",
    "chat.models",
    "example.project.chat.tests",
    "project.chat.models",
    "management",
    "example.project.wsgi",
    "django_sockjs_tornado",
    "example.project.urls",
    "example.project.chat.models",
    "project.chat",
    "management.commands.socketserver",
    "tests",
    "example.manage",
    "views",
    "models",
    "commands.socketserver",
    "example.project",
    "chat.urls",
    "project.chat.tests",
    "example.project.chat.sockserver",
    "example.project.settings",
    "django_sockjs_tornado.models",
    "example.project.chat.views",
    "example.project.chat",
    "commands",
    "chat.tests",
    "project.chat.urls",
    "settings",
    "django_sockjs_tornado.management.commands.socketserver",
    "project.urls",
    "project",
    "urls",
    "project.wsgi",
    "sockserver",
    "management.commands",
    "example"
]