{
    "archive_url": "https://api.github.com/repos/BoundInCode/SMART-Snippets/{archive_format}{/ref}",
    "assignees_url": "https://api.github.com/repos/BoundInCode/SMART-Snippets/assignees{/user}",
    "blobs_url": "https://api.github.com/repos/BoundInCode/SMART-Snippets/git/blobs{/sha}",
    "branches_url": "https://api.github.com/repos/BoundInCode/SMART-Snippets/branches{/branch}",
    "clone_url": "https://github.com/BoundInCode/SMART-Snippets.git",
    "collaborators_url": "https://api.github.com/repos/BoundInCode/SMART-Snippets/collaborators{/collaborator}",
    "comments_url": "https://api.github.com/repos/BoundInCode/SMART-Snippets/comments{/number}",
    "commits_url": "https://api.github.com/repos/BoundInCode/SMART-Snippets/commits{/sha}",
    "compare_url": "https://api.github.com/repos/BoundInCode/SMART-Snippets/compare/{base}...{head}",
    "contents_url": "https://api.github.com/repos/BoundInCode/SMART-Snippets/contents/{+path}",
    "contributors_url": "https://api.github.com/repos/BoundInCode/SMART-Snippets/contributors",
    "created_at": "2012-05-16T23:39:12Z",
    "default_branch": "master",
    "description": "A Sublime Text plugin for creating smart, dynamic snippets",
    "downloads_url": "https://api.github.com/repos/BoundInCode/SMART-Snippets/downloads",
    "events_url": "https://api.github.com/repos/BoundInCode/SMART-Snippets/events",
    "fork": false,
    "forks": 4,
    "forks_count": 4,
    "forks_url": "https://api.github.com/repos/BoundInCode/SMART-Snippets/forks",
    "full_name": "BoundInCode/SMART-Snippets",
    "git_commits_url": "https://api.github.com/repos/BoundInCode/SMART-Snippets/git/commits{/sha}",
    "git_refs_url": "https://api.github.com/repos/BoundInCode/SMART-Snippets/git/refs{/sha}",
    "git_tags_url": "https://api.github.com/repos/BoundInCode/SMART-Snippets/git/tags{/sha}",
    "git_url": "git://github.com/BoundInCode/SMART-Snippets.git",
    "has_downloads": true,
    "has_issues": true,
    "has_wiki": true,
    "homepage": null,
    "hooks_url": "https://api.github.com/repos/BoundInCode/SMART-Snippets/hooks",
    "html_url": "https://github.com/BoundInCode/SMART-Snippets",
    "id": 4352974,
    "issue_comment_url": "https://api.github.com/repos/BoundInCode/SMART-Snippets/issues/comments/{number}",
    "issue_events_url": "https://api.github.com/repos/BoundInCode/SMART-Snippets/issues/events{/number}",
    "issues_url": "https://api.github.com/repos/BoundInCode/SMART-Snippets/issues{/number}",
    "keys_url": "https://api.github.com/repos/BoundInCode/SMART-Snippets/keys{/key_id}",
    "labels_url": "https://api.github.com/repos/BoundInCode/SMART-Snippets/labels{/name}",
    "language": "Python",
    "languages_url": "https://api.github.com/repos/BoundInCode/SMART-Snippets/languages",
    "merges_url": "https://api.github.com/repos/BoundInCode/SMART-Snippets/merges",
    "milestones_url": "https://api.github.com/repos/BoundInCode/SMART-Snippets/milestones{/number}",
    "mirror_url": null,
    "name": "SMART-Snippets",
    "notifications_url": "https://api.github.com/repos/BoundInCode/SMART-Snippets/notifications{?since,all,participating}",
    "open_issues": 4,
    "open_issues_count": 4,
    "owner": {
        "avatar_url": "https://avatars.githubusercontent.com/u/693981?",
        "events_url": "https://api.github.com/users/BoundInCode/events{/privacy}",
        "followers_url": "https://api.github.com/users/BoundInCode/followers",
        "following_url": "https://api.github.com/users/BoundInCode/following{/other_user}",
        "gists_url": "https://api.github.com/users/BoundInCode/gists{/gist_id}",
        "gravatar_id": "560b90e2290c087e119ab12d93aa5e8c",
        "html_url": "https://github.com/BoundInCode",
        "id": 693981,
        "login": "BoundInCode",
        "organizations_url": "https://api.github.com/users/BoundInCode/orgs",
        "received_events_url": "https://api.github.com/users/BoundInCode/received_events",
        "repos_url": "https://api.github.com/users/BoundInCode/repos",
        "site_admin": false,
        "starred_url": "https://api.github.com/users/BoundInCode/starred{/owner}{/repo}",
        "subscriptions_url": "https://api.github.com/users/BoundInCode/subscriptions",
        "type": "User",
        "url": "https://api.github.com/users/BoundInCode"
    },
    "private": false,
    "pulls_url": "https://api.github.com/repos/BoundInCode/SMART-Snippets/pulls{/number}",
    "pushed_at": "2012-05-17T11:08:15Z",
    "releases_url": "https://api.github.com/repos/BoundInCode/SMART-Snippets/releases{/id}",
    "score": 1.0,
    "size": 176,
    "ssh_url": "git@github.com:BoundInCode/SMART-Snippets.git",
    "stargazers_count": 40,
    "stargazers_url": "https://api.github.com/repos/BoundInCode/SMART-Snippets/stargazers",
    "statuses_url": "https://api.github.com/repos/BoundInCode/SMART-Snippets/statuses/{sha}",
    "subscribers_url": "https://api.github.com/repos/BoundInCode/SMART-Snippets/subscribers",
    "subscription_url": "https://api.github.com/repos/BoundInCode/SMART-Snippets/subscription",
    "svn_url": "https://github.com/BoundInCode/SMART-Snippets",
    "tags_url": "https://api.github.com/repos/BoundInCode/SMART-Snippets/tags",
    "teams_url": "https://api.github.com/repos/BoundInCode/SMART-Snippets/teams",
    "trees_url": "https://api.github.com/repos/BoundInCode/SMART-Snippets/git/trees{/sha}",
    "updated_at": "2014-04-27T04:24:36Z",
    "url": "https://api.github.com/repos/BoundInCode/SMART-Snippets",
    "watchers": 40,
    "watchers_count": 40
}