{
    "archive_url": "https://api.github.com/repos/stackforge/designate/{archive_format}{/ref}",
    "assignees_url": "https://api.github.com/repos/stackforge/designate/assignees{/user}",
    "blobs_url": "https://api.github.com/repos/stackforge/designate/git/blobs{/sha}",
    "branches_url": "https://api.github.com/repos/stackforge/designate/branches{/branch}",
    "clone_url": "https://github.com/stackforge/designate.git",
    "collaborators_url": "https://api.github.com/repos/stackforge/designate/collaborators{/collaborator}",
    "comments_url": "https://api.github.com/repos/stackforge/designate/comments{/number}",
    "commits_url": "https://api.github.com/repos/stackforge/designate/commits{/sha}",
    "compare_url": "https://api.github.com/repos/stackforge/designate/compare/{base}...{head}",
    "contents_url": "https://api.github.com/repos/stackforge/designate/contents/{+path}",
    "contributors_url": "https://api.github.com/repos/stackforge/designate/contributors",
    "created_at": "2012-11-01T01:00:11Z",
    "default_branch": "master",
    "description": "Moniker - DNS for OpenStack",
    "downloads_url": "https://api.github.com/repos/stackforge/designate/downloads",
    "events_url": "https://api.github.com/repos/stackforge/designate/events",
    "fork": false,
    "forks": 23,
    "forks_count": 23,
    "forks_url": "https://api.github.com/repos/stackforge/designate/forks",
    "full_name": "stackforge/designate",
    "git_commits_url": "https://api.github.com/repos/stackforge/designate/git/commits{/sha}",
    "git_refs_url": "https://api.github.com/repos/stackforge/designate/git/refs{/sha}",
    "git_tags_url": "https://api.github.com/repos/stackforge/designate/git/tags{/sha}",
    "git_url": "git://github.com/stackforge/designate.git",
    "has_downloads": false,
    "has_issues": false,
    "has_wiki": false,
    "homepage": "http://openstack.org",
    "hooks_url": "https://api.github.com/repos/stackforge/designate/hooks",
    "html_url": "https://github.com/stackforge/designate",
    "id": 6483068,
    "issue_comment_url": "https://api.github.com/repos/stackforge/designate/issues/comments/{number}",
    "issue_events_url": "https://api.github.com/repos/stackforge/designate/issues/events{/number}",
    "issues_url": "https://api.github.com/repos/stackforge/designate/issues{/number}",
    "keys_url": "https://api.github.com/repos/stackforge/designate/keys{/key_id}",
    "labels_url": "https://api.github.com/repos/stackforge/designate/labels{/name}",
    "language": "Python",
    "languages_url": "https://api.github.com/repos/stackforge/designate/languages",
    "merges_url": "https://api.github.com/repos/stackforge/designate/merges",
    "milestones_url": "https://api.github.com/repos/stackforge/designate/milestones{/number}",
    "mirror_url": null,
    "name": "designate",
    "notifications_url": "https://api.github.com/repos/stackforge/designate/notifications{?since,all,participating}",
    "open_issues": 0,
    "open_issues_count": 0,
    "owner": {
        "avatar_url": "https://avatars.githubusercontent.com/u/1441604?",
        "events_url": "https://api.github.com/users/stackforge/events{/privacy}",
        "followers_url": "https://api.github.com/users/stackforge/followers",
        "following_url": "https://api.github.com/users/stackforge/following{/other_user}",
        "gists_url": "https://api.github.com/users/stackforge/gists{/gist_id}",
        "gravatar_id": null,
        "html_url": "https://github.com/stackforge",
        "id": 1441604,
        "login": "stackforge",
        "organizations_url": "https://api.github.com/users/stackforge/orgs",
        "received_events_url": "https://api.github.com/users/stackforge/received_events",
        "repos_url": "https://api.github.com/users/stackforge/repos",
        "site_admin": false,
        "starred_url": "https://api.github.com/users/stackforge/starred{/owner}{/repo}",
        "subscriptions_url": "https://api.github.com/users/stackforge/subscriptions",
        "type": "Organization",
        "url": "https://api.github.com/users/stackforge"
    },
    "private": false,
    "pulls_url": "https://api.github.com/repos/stackforge/designate/pulls{/number}",
    "pushed_at": "2014-05-07T01:58:46Z",
    "releases_url": "https://api.github.com/repos/stackforge/designate/releases{/id}",
    "score": 1.0,
    "size": 11436,
    "ssh_url": "git@github.com:stackforge/designate.git",
    "stargazers_count": 58,
    "stargazers_url": "https://api.github.com/repos/stackforge/designate/stargazers",
    "statuses_url": "https://api.github.com/repos/stackforge/designate/statuses/{sha}",
    "subscribers_url": "https://api.github.com/repos/stackforge/designate/subscribers",
    "subscription_url": "https://api.github.com/repos/stackforge/designate/subscription",
    "svn_url": "https://github.com/stackforge/designate",
    "tags_url": "https://api.github.com/repos/stackforge/designate/tags",
    "teams_url": "https://api.github.com/repos/stackforge/designate/teams",
    "trees_url": "https://api.github.com/repos/stackforge/designate/git/trees{/sha}",
    "updated_at": "2014-05-07T01:58:46Z",
    "url": "https://api.github.com/repos/stackforge/designate",
    "watchers": 58,
    "watchers_count": 58
}