[
    "articles.migrations.0004_remove_infobox",
    "test_core.test_cache",
    "migrations.0003_auto__chg_field_photo_created__chg_field_photo_image",
    "ella.core.templatetags.authors",
    "test_ella",
    "test_custom_urls",
    "test_core.test_listing",
    "ella.articles.migrations.0006_auto__del_field_article_updated__del_field_article_created__del_field_",
    "ella.core.management.commands.regenerate_publish_signals",
    "core.cache.fields",
    "migrations.0004_add_field_category_app_data_add_field_publishable_app_data",
    "core.tasks",
    "cases",
    "photos.migrations.0001_initial",
    "test_api.test_views",
    "management.commands.generate_publish_signals",
    "0005_auto__add_field_category_content__add_field_category_template",
    "migrations.0003_remove_contents",
    "utils.settings",
    "test_ella.test_positions.test_admin",
    "photos.newman_admin",
    "test_ella.test_positions.test_models",
    "ella.api.middleware",
    "ella.photos.formatter",
    "core.management.commands.regenerate_listing_handlers",
    "ella.core.migrations.0002_remove_shit_schema_cleanup",
    "ella.photos.migrations.0001_initial",
    "core.urls",
    "ella.core.management.commands.generate_publish_signals",
    "test_ella.test_photos.test_photo",
    "utils.middleware",
    "ella.core.management.commands.regenerate_listing_handlers",
    "ella.core.templatetags.core",
    "test_ella.test_photos.test_forms",
    "test_utils",
    "settings",
    "fields",
    "test_core.test_publishable",
    "test_ella.test_api.test_views",
    "migrations.0009_auto__chg_field_publishable_last_updated",
    "photos.migrations.0004_auto__chg_field_formatedphoto_crop_top__chg_field_formatedphoto_crop_l",
    "0002_remove_shit_add_columns",
    "ella.core.templatetags.custom_urls_tags",
    "core.models",
    "core.register",
    "core.admin",
    "api.serializers",
    "generate_publish_signals",
    "core.context_processors",
    "ella.photos.migrations.0004_auto__chg_field_formatedphoto_crop_top__chg_field_formatedphoto_crop_l",
    "management.commands.regenerate_publish_signals",
    "ella.articles.newman_admin",
    "0004_add_field_category_app_data_add_field_publishable_app_data",
    "ella.core.feeds",
    "fixtures",
    "test_templatetags",
    "0005_auto__add_field_format_master",
    "context_processors",
    "photos.management.commands",
    "core.feeds",
    "ella.articles.models",
    "migrations",
    "test_related",
    "migrations.0002_remove_shit_data",
    "0002_add_field_article_content",
    "formatter",
    "test_ella.test_app.models",
    "test_ella.settings.base",
    "ella.core.models.main",
    "core.templatetags.authors",
    "core.conf",
    "ella.core.templatetags.related",
    "core.templatetags",
    "test_ella.settings.local_example",
    "serialization",
    "serializers",
    "core.managers",
    "cache.redis",
    "cache.fields",
    "box",
    "ella.positions",
    "admin",
    "test_ella.urls",
    "test_models",
    "articles.migrations.0001_initial",
    "test_boxes",
    "migrations.0006_add_publishable_announced",
    "urls",
    "migrations.0006_auto__del_field_article_updated__del_field_article_created__del_field_",
    "core.related_finders",
    "working_urls",
    "tasks",
    "test_photos.test_resize",
    "check_photo_files_consistence",
    "test_ella.test_app.loadme",
    "manage",
    "run_tests",
    "migrations.0002_remove_shit_add_columns",
    "ella.photos.management.commands.check_photo_files_consistence",
    "api.serialization",
    "utils.installedapps",
    "ella.utils.timezone",
    "test_app.loadme",
    "test_ella.test_photos.test_resize",
    "ella.core.templatetags",
    "core.custom_urls",
    "test_ella.test_utils.test_paginator",
    "ella.articles.migrations.0002_add_field_article_content",
    "doc.conf",
    "template_loader",
    "regenerate_publish_signals",
    "positions.models",
    "cache",
    "ella.core.managers",
    "ella.core.management",
    "management.commands.regenerate_listing_handlers",
    "ella.positions.templatetags.positions",
    "test_ella.template_loader",
    "templatetags.photos",
    "test_ella.test_app",
    "photos.management",
    "migrations.0001_initial",
    "commands",
    "photos",
    "ella.core.context_processors",
    "articles.migrations.0006_auto__del_field_article_updated__del_field_article_created__del_field_",
    "ella.core.admin",
    "migrations.0002_add_field_photo_app_data",
    "test_ella.test_api",
    "ella.utils.installedapps",
    "ella.core.migrations.0007_auto__chg_field_category_site__chg_field_related_related_ct__chg_field",
    "articles.migrations",
    "pagination",
    "ella.utils",
    "test_ella.test_core.test_feeds",
    "ella.core.cache",
    "ella.core.models",
    "photos.management.commands.check_photo_files_consistence",
    "test_utils.test_installedapps",
    "core.migrations.0003_add_field_publishable_published",
    "test_photos",
    "photos.migrations.0003_auto__chg_field_photo_created__chg_field_photo_image",
    "test_ella.test_utils.test_middleware",
    "ella.core.register",
    "conf",
    "ella.articles",
    "utils",
    "core.migrations.0002_initial_publishable",
    "test_ella.test_utils",
    "publishable",
    "test_core",
    "test_ella.test_core.test_publishable",
    "test_ella.manage",
    "ella.core.migrations.0010_add_field_author_photo",
    "ella.articles.migrations",
    "0006_auto__del_field_article_updated__del_field_article_created__del_field_",
    "ella.core.migrations.0009_auto__chg_field_publishable_last_updated",
    "core.cache.utils",
    "custom_urls",
    "utils.test_helpers",
    "photos.templatetags.photos",
    "migrations.0010_add_field_author_photo",
    "0004_remove_infobox",
    "test_ella.test_core.test_view_helpers",
    "config",
    "ella.core.migrations.0003_add_field_publishable_published",
    "templatetags.custom_urls_tags",
    "test_core.test_view_helpers",
    "0002_add_field_photo_app_data",
    "ella",
    "test_ella.test_positions",
    "ella.core",
    "ella.utils.test_helpers",
    "templatetags.core",
    "templatetags.related",
    "commands.generate_publish_signals",
    "test_view_helpers",
    "migrations.0002_add_field_article_content",
    "ella.core.box",
    "test_core.test_related",
    "ella.articles.migrations.0001_initial",
    "ella.core.urls",
    "related_finders",
    "models.publishable",
    "0010_add_field_author_photo",
    "core.views",
    "articles.migrations.0005_move_updated_to_publishable",
    "test_resize",
    "ella.utils.pagination",
    "core.migrations.0001_initial",
    "test_middleware",
    "commands.check_photo_files_consistence",
    "core.migrations.0005_auto__add_field_category_content__add_field_category_template",
    "test_ella.test_photos.fixtures",
    "test_ella.working_urls",
    "managers",
    "ella.core.cache.fields",
    "photos.templatetags",
    "test_ella.test_core",
    "register",
    "photos.migrations.0005_auto__add_field_format_master",
    "ella.core.migrations.0002_initial_publishable",
    "ella.positions.migrations.0001_initial",
    "installedapps",
    "migrations.0002_initial_publishable",
    "test_positions.test_models",
    "articles.migrations.0003_remove_contents",
    "signals",
    "settings.base",
    "photos.formatter",
    "core.box",
    "ella.core.migrations.0005_auto__add_field_category_content__add_field_category_template",
    "ella.core.models.publishable",
    "main",
    "core.templatetags.related",
    "core.middleware",
    "ella.core.migrations.0006_add_publishable_announced",
    "articles.newman_admin",
    "views",
    "cache.utils",
    "core.migrations",
    "positions.admin",
    "api.register",
    "test_ella.run_tests",
    "core.migrations.0006_add_publishable_announced",
    "ella.core.templatetags.pagination",
    "test_photos.test_forms",
    "test_core.test_views",
    "ella.articles.migrations.0005_move_updated_to_publishable",
    "articles",
    "test_ella.test_core.test_custom_urls",
    "0003_auto__chg_field_photo_created__chg_field_photo_image",
    "test_photos.fixtures",
    "photos.migrations",
    "photos.models",
    "test_ella.test_core.test_views",
    "test_core.test_category",
    "api",
    "positions",
    "feeds",
    "migrations.0005_auto__add_field_category_content__add_field_category_template",
    "ella.core.cache.utils",
    "test_paginator",
    "test_api.test_serialization",
    "ella.core.views",
    "ella.photos.templatetags.photos",
    "core.migrations.0007_auto__chg_field_category_site__chg_field_related_related_ct__chg_field",
    "core.migrations.0002_remove_shit_add_columns",
    "related",
    "ella.core.management.commands",
    "core.migrations.0008_add_last_updated",
    "ella.positions.migrations",
    "test_serialization",
    "test_publishable",
    "ella.photos.migrations",
    "ella.core.cache.redis",
    "0009_auto__chg_field_publishable_last_updated",
    "core.management",
    "models.main",
    "test_ella.test_core.test_boxes",
    "0003_remove_contents",
    "redis",
    "0005_move_updated_to_publishable",
    "0007_auto__chg_field_category_site__chg_field_related_related_ct__chg_field",
    "test_photo",
    "test_ella.test_core.test_listing",
    "test_core.test_boxes",
    "ella.photos.migrations.0005_auto__add_field_format_master",
    "ella.core.migrations",
    "test_ella.test_core.test_related",
    "ella.core.tasks",
    "core",
    "positions.newman_admin",
    "ella.core.migrations.0002_remove_shit_add_columns",
    "migrations.0003_add_field_publishable_published",
    "api.conf",
    "ella.photos.templatetags",
    "ella.positions.admin",
    "test_photos.test_photo",
    "test_core.test_feeds",
    "base",
    "custom_urls_tags",
    "ella.api.serialization",
    "articles.admin",
    "templatetags.authors",
    "ella.core.custom_urls",
    "ella.photos.management.commands",
    "newman_admin",
    "test_photos.test_templatetags",
    "test_ella.test_core.test_templatetags",
    "core.migrations.0002_remove_shit_schema_cleanup",
    "management.commands",
    "test_ella.test_photos",
    "api.middleware",
    "photos.conf",
    "regenerate_listing_handlers",
    "test_ella.test_core.test_category",
    "migrations.0002_remove_shit_schema_cleanup",
    "ella.photos.migrations.0002_add_field_photo_app_data",
    "test_positions.test_admin",
    "test_listing",
    "articles.models",
    "migrations.0004_remove_infobox",
    "ella.photos.migrations.0003_auto__chg_field_photo_created__chg_field_photo_image",
    "0003_add_field_publishable_published",
    "core.cache.redis",
    "ella.articles.migrations.0004_remove_infobox",
    "test_ella.test_core.test_cache",
    "core.migrations.0004_add_field_category_app_data_add_field_publishable_app_data",
    "test_positions.test_templatetags",
    "test_ella.settings",
    "ella.photos.conf",
    "ella.utils.middleware",
    "test_ella.settings.config",
    "ella.photos.management",
    "templatetags.pagination",
    "commands.regenerate_publish_signals",
    "test_feeds",
    "test_installedapps",
    "positions.migrations.0001_initial",
    "ella.api.serializers",
    "test_helpers",
    "ella.core.middleware",
    "ella.positions.templatetags",
    "test_admin",
    "core.templatetags.custom_urls_tags",
    "ella.core.migrations.0001_initial",
    "positions.templatetags.positions",
    "core.newman_admin",
    "core.models.publishable",
    "0002_initial_publishable",
    "test_core.test_custom_urls",
    "test_utils.test_middleware",
    "management.commands.check_photo_files_consistence",
    "authors",
    "core.management.commands",
    "ella.api.conf",
    "migrations.0007_auto__chg_field_category_site__chg_field_related_related_ct__chg_field",
    "ella.photos.models",
    "ella.photos.admin",
    "ella.core.migrations.0008_add_last_updated",
    "ella.utils.settings",
    "migrations.0005_move_updated_to_publishable",
    "utils.pagination",
    "ella.photos.newman_admin",
    "settings.local_example",
    "middleware",
    "core.signals",
    "test_category",
    "photos.migrations.0002_add_field_photo_app_data",
    "test_cache",
    "0002_remove_shit_data",
    "doc",
    "test_ella.test_photos.test_templatetags",
    "ella.core.migrations.0002_remove_shit_data",
    "ella.api",
    "core.templatetags.core",
    "test_app.models",
    "templatetags.positions",
    "test_app",
    "utils.timezone",
    "core.cache",
    "templatetags",
    "test_api",
    "core.migrations.0009_auto__chg_field_publishable_last_updated",
    "0008_add_last_updated",
    "timezone",
    "positions.migrations",
    "loadme",
    "ella.articles.admin",
    "test_forms",
    "core.management.commands.generate_publish_signals",
    "ella.core.signals",
    "core.models.main",
    "photos.admin",
    "ella.core.newman_admin",
    "articles.migrations.0002_add_field_article_content",
    "core.management.commands.regenerate_publish_signals",
    "ella.core.conf",
    "core.templatetags.pagination",
    "test_core.test_templatetags",
    "models",
    "0006_add_publishable_announced",
    "test_positions",
    "migrations.0008_add_last_updated",
    "test_utils.test_paginator",
    "migrations.0005_auto__add_field_format_master",
    "test_views",
    "test_ella.cases",
    "0001_initial",
    "ella.photos",
    "commands.regenerate_listing_handlers",
    "0002_remove_shit_schema_cleanup",
    "migrations.0004_auto__chg_field_formatedphoto_crop_top__chg_field_formatedphoto_crop_l",
    "ella.positions.models",
    "ella.articles.migrations.0003_remove_contents",
    "positions.templatetags",
    "local_example",
    "0004_auto__chg_field_formatedphoto_crop_top__chg_field_formatedphoto_crop_l",
    "settings.config",
    "core.migrations.0002_remove_shit_data",
    "ella.core.related_finders",
    "test_ella.test_positions.test_templatetags",
    "ella.api.register",
    "core.migrations.0010_add_field_author_photo",
    "ella.positions.newman_admin",
    "test_ella.test_api.test_serialization",
    "test_ella.test_utils.test_installedapps",
    "management",
    "ella.core.migrations.0004_add_field_category_app_data_add_field_publishable_app_data"
]