{
    "archive_url": "https://api.github.com/repos/tiddlyweb/tiddlyweb/{archive_format}{/ref}",
    "assignees_url": "https://api.github.com/repos/tiddlyweb/tiddlyweb/assignees{/user}",
    "blobs_url": "https://api.github.com/repos/tiddlyweb/tiddlyweb/git/blobs{/sha}",
    "branches_url": "https://api.github.com/repos/tiddlyweb/tiddlyweb/branches{/branch}",
    "clone_url": "https://github.com/tiddlyweb/tiddlyweb.git",
    "collaborators_url": "https://api.github.com/repos/tiddlyweb/tiddlyweb/collaborators{/collaborator}",
    "comments_url": "https://api.github.com/repos/tiddlyweb/tiddlyweb/comments{/number}",
    "commits_url": "https://api.github.com/repos/tiddlyweb/tiddlyweb/commits{/sha}",
    "compare_url": "https://api.github.com/repos/tiddlyweb/tiddlyweb/compare/{base}...{head}",
    "contents_url": "https://api.github.com/repos/tiddlyweb/tiddlyweb/contents/{+path}",
    "contributors_url": "https://api.github.com/repos/tiddlyweb/tiddlyweb/contributors",
    "created_at": "2009-04-20T13:23:08Z",
    "default_branch": "master",
    "description": "TiddlyWeb Core",
    "downloads_url": "https://api.github.com/repos/tiddlyweb/tiddlyweb/downloads",
    "events_url": "https://api.github.com/repos/tiddlyweb/tiddlyweb/events",
    "fork": false,
    "forks": 10,
    "forks_count": 10,
    "forks_url": "https://api.github.com/repos/tiddlyweb/tiddlyweb/forks",
    "full_name": "tiddlyweb/tiddlyweb",
    "git_commits_url": "https://api.github.com/repos/tiddlyweb/tiddlyweb/git/commits{/sha}",
    "git_refs_url": "https://api.github.com/repos/tiddlyweb/tiddlyweb/git/refs{/sha}",
    "git_tags_url": "https://api.github.com/repos/tiddlyweb/tiddlyweb/git/tags{/sha}",
    "git_url": "git://github.com/tiddlyweb/tiddlyweb.git",
    "has_downloads": true,
    "has_issues": true,
    "has_wiki": true,
    "homepage": "http://tiddlyweb.com/",
    "hooks_url": "https://api.github.com/repos/tiddlyweb/tiddlyweb/hooks",
    "html_url": "https://github.com/tiddlyweb/tiddlyweb",
    "id": 180773,
    "issue_comment_url": "https://api.github.com/repos/tiddlyweb/tiddlyweb/issues/comments/{number}",
    "issue_events_url": "https://api.github.com/repos/tiddlyweb/tiddlyweb/issues/events{/number}",
    "issues_url": "https://api.github.com/repos/tiddlyweb/tiddlyweb/issues{/number}",
    "keys_url": "https://api.github.com/repos/tiddlyweb/tiddlyweb/keys{/key_id}",
    "labels_url": "https://api.github.com/repos/tiddlyweb/tiddlyweb/labels{/name}",
    "language": "Python",
    "languages_url": "https://api.github.com/repos/tiddlyweb/tiddlyweb/languages",
    "merges_url": "https://api.github.com/repos/tiddlyweb/tiddlyweb/merges",
    "milestones_url": "https://api.github.com/repos/tiddlyweb/tiddlyweb/milestones{/number}",
    "mirror_url": null,
    "name": "tiddlyweb",
    "notifications_url": "https://api.github.com/repos/tiddlyweb/tiddlyweb/notifications{?since,all,participating}",
    "open_issues": 6,
    "open_issues_count": 6,
    "owner": {
        "avatar_url": "https://avatars.githubusercontent.com/u/75716?",
        "events_url": "https://api.github.com/users/tiddlyweb/events{/privacy}",
        "followers_url": "https://api.github.com/users/tiddlyweb/followers",
        "following_url": "https://api.github.com/users/tiddlyweb/following{/other_user}",
        "gists_url": "https://api.github.com/users/tiddlyweb/gists{/gist_id}",
        "gravatar_id": "c9798d85cf63fa232da490aa376b9463",
        "html_url": "https://github.com/tiddlyweb",
        "id": 75716,
        "login": "tiddlyweb",
        "organizations_url": "https://api.github.com/users/tiddlyweb/orgs",
        "received_events_url": "https://api.github.com/users/tiddlyweb/received_events",
        "repos_url": "https://api.github.com/users/tiddlyweb/repos",
        "site_admin": false,
        "starred_url": "https://api.github.com/users/tiddlyweb/starred{/owner}{/repo}",
        "subscriptions_url": "https://api.github.com/users/tiddlyweb/subscriptions",
        "type": "Organization",
        "url": "https://api.github.com/users/tiddlyweb"
    },
    "private": false,
    "pulls_url": "https://api.github.com/repos/tiddlyweb/tiddlyweb/pulls{/number}",
    "pushed_at": "2014-05-06T16:27:56Z",
    "releases_url": "https://api.github.com/repos/tiddlyweb/tiddlyweb/releases{/id}",
    "score": 1.0,
    "size": 5907,
    "ssh_url": "git@github.com:tiddlyweb/tiddlyweb.git",
    "stargazers_count": 40,
    "stargazers_url": "https://api.github.com/repos/tiddlyweb/tiddlyweb/stargazers",
    "statuses_url": "https://api.github.com/repos/tiddlyweb/tiddlyweb/statuses/{sha}",
    "subscribers_url": "https://api.github.com/repos/tiddlyweb/tiddlyweb/subscribers",
    "subscription_url": "https://api.github.com/repos/tiddlyweb/tiddlyweb/subscription",
    "svn_url": "https://github.com/tiddlyweb/tiddlyweb",
    "tags_url": "https://api.github.com/repos/tiddlyweb/tiddlyweb/tags",
    "teams_url": "https://api.github.com/repos/tiddlyweb/tiddlyweb/teams",
    "trees_url": "https://api.github.com/repos/tiddlyweb/tiddlyweb/git/trees{/sha}",
    "updated_at": "2014-05-06T16:27:56Z",
    "url": "https://api.github.com/repos/tiddlyweb/tiddlyweb",
    "watchers": 40,
    "watchers_count": 40
}