{
    "archive_url": "https://api.github.com/repos/vandersonmota/model_mommy/{archive_format}{/ref}",
    "assignees_url": "https://api.github.com/repos/vandersonmota/model_mommy/assignees{/user}",
    "blobs_url": "https://api.github.com/repos/vandersonmota/model_mommy/git/blobs{/sha}",
    "branches_url": "https://api.github.com/repos/vandersonmota/model_mommy/branches{/branch}",
    "clone_url": "https://github.com/vandersonmota/model_mommy.git",
    "collaborators_url": "https://api.github.com/repos/vandersonmota/model_mommy/collaborators{/collaborator}",
    "comments_url": "https://api.github.com/repos/vandersonmota/model_mommy/comments{/number}",
    "commits_url": "https://api.github.com/repos/vandersonmota/model_mommy/commits{/sha}",
    "compare_url": "https://api.github.com/repos/vandersonmota/model_mommy/compare/{base}...{head}",
    "contents_url": "https://api.github.com/repos/vandersonmota/model_mommy/contents/{+path}",
    "contributors_url": "https://api.github.com/repos/vandersonmota/model_mommy/contributors",
    "created_at": "2011-01-09T18:05:24Z",
    "default_branch": "master",
    "description": "Object factory for django",
    "downloads_url": "https://api.github.com/repos/vandersonmota/model_mommy/downloads",
    "events_url": "https://api.github.com/repos/vandersonmota/model_mommy/events",
    "fork": false,
    "forks": 79,
    "forks_count": 79,
    "forks_url": "https://api.github.com/repos/vandersonmota/model_mommy/forks",
    "full_name": "vandersonmota/model_mommy",
    "git_commits_url": "https://api.github.com/repos/vandersonmota/model_mommy/git/commits{/sha}",
    "git_refs_url": "https://api.github.com/repos/vandersonmota/model_mommy/git/refs{/sha}",
    "git_tags_url": "https://api.github.com/repos/vandersonmota/model_mommy/git/tags{/sha}",
    "git_url": "git://github.com/vandersonmota/model_mommy.git",
    "has_downloads": true,
    "has_issues": true,
    "has_wiki": true,
    "homepage": "",
    "hooks_url": "https://api.github.com/repos/vandersonmota/model_mommy/hooks",
    "html_url": "https://github.com/vandersonmota/model_mommy",
    "id": 1235616,
    "issue_comment_url": "https://api.github.com/repos/vandersonmota/model_mommy/issues/comments/{number}",
    "issue_events_url": "https://api.github.com/repos/vandersonmota/model_mommy/issues/events{/number}",
    "issues_url": "https://api.github.com/repos/vandersonmota/model_mommy/issues{/number}",
    "keys_url": "https://api.github.com/repos/vandersonmota/model_mommy/keys{/key_id}",
    "labels_url": "https://api.github.com/repos/vandersonmota/model_mommy/labels{/name}",
    "language": "Python",
    "languages_url": "https://api.github.com/repos/vandersonmota/model_mommy/languages",
    "merges_url": "https://api.github.com/repos/vandersonmota/model_mommy/merges",
    "milestones_url": "https://api.github.com/repos/vandersonmota/model_mommy/milestones{/number}",
    "mirror_url": null,
    "name": "model_mommy",
    "notifications_url": "https://api.github.com/repos/vandersonmota/model_mommy/notifications{?since,all,participating}",
    "open_issues": 13,
    "open_issues_count": 13,
    "owner": {
        "avatar_url": "https://avatars.githubusercontent.com/u/88955?",
        "events_url": "https://api.github.com/users/vandersonmota/events{/privacy}",
        "followers_url": "https://api.github.com/users/vandersonmota/followers",
        "following_url": "https://api.github.com/users/vandersonmota/following{/other_user}",
        "gists_url": "https://api.github.com/users/vandersonmota/gists{/gist_id}",
        "gravatar_id": "b689478b81465d915fab5dcc4fe07c7f",
        "html_url": "https://github.com/vandersonmota",
        "id": 88955,
        "login": "vandersonmota",
        "organizations_url": "https://api.github.com/users/vandersonmota/orgs",
        "received_events_url": "https://api.github.com/users/vandersonmota/received_events",
        "repos_url": "https://api.github.com/users/vandersonmota/repos",
        "site_admin": false,
        "starred_url": "https://api.github.com/users/vandersonmota/starred{/owner}{/repo}",
        "subscriptions_url": "https://api.github.com/users/vandersonmota/subscriptions",
        "type": "User",
        "url": "https://api.github.com/users/vandersonmota"
    },
    "private": false,
    "pulls_url": "https://api.github.com/repos/vandersonmota/model_mommy/pulls{/number}",
    "pushed_at": "2014-04-27T00:48:33Z",
    "releases_url": "https://api.github.com/repos/vandersonmota/model_mommy/releases{/id}",
    "score": 1.0,
    "size": 1684,
    "ssh_url": "git@github.com:vandersonmota/model_mommy.git",
    "stargazers_count": 394,
    "stargazers_url": "https://api.github.com/repos/vandersonmota/model_mommy/stargazers",
    "statuses_url": "https://api.github.com/repos/vandersonmota/model_mommy/statuses/{sha}",
    "subscribers_url": "https://api.github.com/repos/vandersonmota/model_mommy/subscribers",
    "subscription_url": "https://api.github.com/repos/vandersonmota/model_mommy/subscription",
    "svn_url": "https://github.com/vandersonmota/model_mommy",
    "tags_url": "https://api.github.com/repos/vandersonmota/model_mommy/tags",
    "teams_url": "https://api.github.com/repos/vandersonmota/model_mommy/teams",
    "trees_url": "https://api.github.com/repos/vandersonmota/model_mommy/git/trees{/sha}",
    "updated_at": "2014-05-02T19:08:30Z",
    "url": "https://api.github.com/repos/vandersonmota/model_mommy",
    "watchers": 394,
    "watchers_count": 394
}