{
    "libs": [
        "paginator",
        "management",
        "local_settings",
        "conf",
        "re",
        "shortcuts",
        "db",
        "datetime",
        "sys",
        "generic",
        "template",
        "path",
        "contrib",
        "query",
        "translation",
        "django",
        "os",
        "defaults"
    ]
}