{
    "libs": [
        "encoding",
        "shortcuts",
        "datetime",
        "contrib",
        "static",
        "conf",
        "operator",
        "management",
        "fabric",
        "generic",
        "re",
        "template",
        "test",
        "decorators",
        "http",
        "simplejson",
        "db",
        "auth",
        "sys",
        "v2",
        "translation",
        "local_settings",
        "sitemaps",
        "b",
        "safestring",
        "django",
        "client",
        "feedgenerator",
        "os"
    ]
}