{
    "libs": [
        "unittest",
        "random",
        "datetime",
        "parse",
        "contextlib",
        "io",
        "shutil",
        "tools",
        "lxml",
        "urllib",
        "re",
        "functools",
        "sys",
        "codecs",
        "subprocess",
        "fl",
        "print_function",
        "argparse",
        "logging",
        "h",
        "request",
        "urlparse",
        "cssselect",
        "time",
        "os"
    ]
}