{
    "archive_url": "https://api.github.com/repos/Cue/greplin-tornado-ses/{archive_format}{/ref}",
    "assignees_url": "https://api.github.com/repos/Cue/greplin-tornado-ses/assignees{/user}",
    "blobs_url": "https://api.github.com/repos/Cue/greplin-tornado-ses/git/blobs{/sha}",
    "branches_url": "https://api.github.com/repos/Cue/greplin-tornado-ses/branches{/branch}",
    "clone_url": "https://github.com/Cue/greplin-tornado-ses.git",
    "collaborators_url": "https://api.github.com/repos/Cue/greplin-tornado-ses/collaborators{/collaborator}",
    "comments_url": "https://api.github.com/repos/Cue/greplin-tornado-ses/comments{/number}",
    "commits_url": "https://api.github.com/repos/Cue/greplin-tornado-ses/commits{/sha}",
    "compare_url": "https://api.github.com/repos/Cue/greplin-tornado-ses/compare/{base}...{head}",
    "contents_url": "https://api.github.com/repos/Cue/greplin-tornado-ses/contents/{+path}",
    "contributors_url": "https://api.github.com/repos/Cue/greplin-tornado-ses/contributors",
    "created_at": "2011-03-29T20:44:38Z",
    "default_branch": "master",
    "description": "An asynchronous client for Amazon SES",
    "downloads_url": "https://api.github.com/repos/Cue/greplin-tornado-ses/downloads",
    "events_url": "https://api.github.com/repos/Cue/greplin-tornado-ses/events",
    "fork": false,
    "forks": 7,
    "forks_count": 7,
    "forks_url": "https://api.github.com/repos/Cue/greplin-tornado-ses/forks",
    "full_name": "Cue/greplin-tornado-ses",
    "git_commits_url": "https://api.github.com/repos/Cue/greplin-tornado-ses/git/commits{/sha}",
    "git_refs_url": "https://api.github.com/repos/Cue/greplin-tornado-ses/git/refs{/sha}",
    "git_tags_url": "https://api.github.com/repos/Cue/greplin-tornado-ses/git/tags{/sha}",
    "git_url": "git://github.com/Cue/greplin-tornado-ses.git",
    "has_downloads": true,
    "has_issues": true,
    "has_wiki": true,
    "homepage": "",
    "hooks_url": "https://api.github.com/repos/Cue/greplin-tornado-ses/hooks",
    "html_url": "https://github.com/Cue/greplin-tornado-ses",
    "id": 1543314,
    "issue_comment_url": "https://api.github.com/repos/Cue/greplin-tornado-ses/issues/comments/{number}",
    "issue_events_url": "https://api.github.com/repos/Cue/greplin-tornado-ses/issues/events{/number}",
    "issues_url": "https://api.github.com/repos/Cue/greplin-tornado-ses/issues{/number}",
    "keys_url": "https://api.github.com/repos/Cue/greplin-tornado-ses/keys{/key_id}",
    "labels_url": "https://api.github.com/repos/Cue/greplin-tornado-ses/labels{/name}",
    "language": "Python",
    "languages_url": "https://api.github.com/repos/Cue/greplin-tornado-ses/languages",
    "merges_url": "https://api.github.com/repos/Cue/greplin-tornado-ses/merges",
    "milestones_url": "https://api.github.com/repos/Cue/greplin-tornado-ses/milestones{/number}",
    "mirror_url": null,
    "name": "greplin-tornado-ses",
    "notifications_url": "https://api.github.com/repos/Cue/greplin-tornado-ses/notifications{?since,all,participating}",
    "open_issues": 0,
    "open_issues_count": 0,
    "owner": {
        "avatar_url": "https://avatars.githubusercontent.com/u/449000?",
        "events_url": "https://api.github.com/users/Cue/events{/privacy}",
        "followers_url": "https://api.github.com/users/Cue/followers",
        "following_url": "https://api.github.com/users/Cue/following{/other_user}",
        "gists_url": "https://api.github.com/users/Cue/gists{/gist_id}",
        "gravatar_id": "65cff9f27f6086ee173e0344fd45aeb2",
        "html_url": "https://github.com/Cue",
        "id": 449000,
        "login": "Cue",
        "organizations_url": "https://api.github.com/users/Cue/orgs",
        "received_events_url": "https://api.github.com/users/Cue/received_events",
        "repos_url": "https://api.github.com/users/Cue/repos",
        "site_admin": false,
        "starred_url": "https://api.github.com/users/Cue/starred{/owner}{/repo}",
        "subscriptions_url": "https://api.github.com/users/Cue/subscriptions",
        "type": "Organization",
        "url": "https://api.github.com/users/Cue"
    },
    "private": false,
    "pulls_url": "https://api.github.com/repos/Cue/greplin-tornado-ses/pulls{/number}",
    "pushed_at": "2012-10-16T00:14:12Z",
    "releases_url": "https://api.github.com/repos/Cue/greplin-tornado-ses/releases{/id}",
    "score": 1.0,
    "size": 233,
    "ssh_url": "git@github.com:Cue/greplin-tornado-ses.git",
    "stargazers_count": 40,
    "stargazers_url": "https://api.github.com/repos/Cue/greplin-tornado-ses/stargazers",
    "statuses_url": "https://api.github.com/repos/Cue/greplin-tornado-ses/statuses/{sha}",
    "subscribers_url": "https://api.github.com/repos/Cue/greplin-tornado-ses/subscribers",
    "subscription_url": "https://api.github.com/repos/Cue/greplin-tornado-ses/subscription",
    "svn_url": "https://github.com/Cue/greplin-tornado-ses",
    "tags_url": "https://api.github.com/repos/Cue/greplin-tornado-ses/tags",
    "teams_url": "https://api.github.com/repos/Cue/greplin-tornado-ses/teams",
    "trees_url": "https://api.github.com/repos/Cue/greplin-tornado-ses/git/trees{/sha}",
    "updated_at": "2013-11-18T07:26:02Z",
    "url": "https://api.github.com/repos/Cue/greplin-tornado-ses",
    "watchers": 40,
    "watchers_count": 40
}