{
    "libs": [
        "skip",
        "functools",
        "random",
        "absolute_import",
        "subprocess",
        "ElementTree",
        "msvcrt",
        "tpool",
        "patcher",
        "tempfile",
        "nodes",
        "osgeo",
        "division",
        "etree",
        "SocketServer",
        "ops",
        "textwrap",
        "tbtools",
        "mocker",
        "resolver",
        "datetime",
        "magic",
        "h",
        "p",
        "greenlet",
        "shlex",
        "debug",
        "multiprocessing",
        "cStringIO",
        "with_statement",
        "mimetypes",
        "calendar",
        "eventlet",
        "urllib",
        "re",
        "math",
        "fcntl",
        "optparse",
        "representer",
        "Queue",
        "greenpool",
        "ctypes",
        "codecs",
        "PIL",
        "emitter",
        "logging",
        "socket",
        "thread",
        "StringIO",
        "geometry",
        "pickle",
        "traceback",
        "pkg_resources",
        "doctest",
        "webtest",
        "attrib",
        "os",
        "mapnik2",
        "shapely",
        "unittest",
        "dummy_thread",
        "operator",
        "tools",
        "errno",
        "json",
        "cPickle",
        "shell",
        "simplejson",
        "copy",
        "b",
        "handlers",
        "pyinotify",
        "scriptine",
        "B",
        "contextlib",
        "shutil",
        "wkt",
        "lxml",
        "threading",
        "OpenSSL",
        "sqlite3",
        "stat",
        "warnings",
        "glob",
        "urllib2",
        "prepared",
        "sys",
        "requests",
        "m",
        "urlparse",
        "time",
        "serializer"
    ]
}