{
    "libs": [
        "code",
        "functools",
        "random",
        "absolute_import",
        "datetime",
        "Shell",
        "struct",
        "secret_keys",
        "platform",
        "collections",
        "cProfile",
        "pycodegen",
        "smtplib",
        "zipimport",
        "etree",
        "string",
        "textwrap",
        "dat",
        "jinja2",
        "compiler",
        "h",
        "pydoc",
        "imaplib",
        "cStringIO",
        "with_statement",
        "plistlib",
        "threading",
        "redis",
        "urllib",
        "re",
        "template",
        "cgi",
        "optparse",
        "inspect",
        "ctypes",
        "codecs",
        "path",
        "posixpath",
        "socket",
        "StringIO",
        "traceback",
        "weakref",
        "tempfile",
        "itertools",
        "pstats",
        "os",
        "unittest",
        "__builtin__",
        "loader",
        "api",
        "operator",
        "pkgutil",
        "imp",
        "errno",
        "json",
        "Cookie",
        "tokenize",
        "simplejson",
        "version_cl",
        "translation",
        "copy",
        "b",
        "zlib",
        "fnmatch",
        "embed",
        "pickle",
        "contextlib",
        "conf",
        "__main__",
        "shutil",
        "lxml",
        "gettext",
        "html",
        "getopt",
        "profile",
        "mimetypes",
        "warnings",
        "sets",
        "sys",
        "fl",
        "types",
        "util",
        "xmlrpclib",
        "urlparse",
        "linecache",
        "time",
        "hmac"
    ]
}