{
    "archive_url": "https://api.github.com/repos/danecjensen/subscribely/{archive_format}{/ref}",
    "assignees_url": "https://api.github.com/repos/danecjensen/subscribely/assignees{/user}",
    "blobs_url": "https://api.github.com/repos/danecjensen/subscribely/git/blobs{/sha}",
    "branches_url": "https://api.github.com/repos/danecjensen/subscribely/branches{/branch}",
    "clone_url": "https://github.com/danecjensen/subscribely.git",
    "collaborators_url": "https://api.github.com/repos/danecjensen/subscribely/collaborators{/collaborator}",
    "comments_url": "https://api.github.com/repos/danecjensen/subscribely/comments{/number}",
    "commits_url": "https://api.github.com/repos/danecjensen/subscribely/commits{/sha}",
    "compare_url": "https://api.github.com/repos/danecjensen/subscribely/compare/{base}...{head}",
    "contents_url": "https://api.github.com/repos/danecjensen/subscribely/contents/{+path}",
    "contributors_url": "https://api.github.com/repos/danecjensen/subscribely/contributors",
    "created_at": "2012-07-09T17:16:13Z",
    "default_branch": "master",
    "description": "**Available for Contract Work** A boilerplate for building your own subscription site with stripe integration or stripe subscription service or saas site or membership site or billing service.  Subscribely was built for my own subscription service integrating stripe SockClub.com.  ",
    "downloads_url": "https://api.github.com/repos/danecjensen/subscribely/downloads",
    "events_url": "https://api.github.com/repos/danecjensen/subscribely/events",
    "fork": false,
    "forks": 10,
    "forks_count": 10,
    "forks_url": "https://api.github.com/repos/danecjensen/subscribely/forks",
    "full_name": "danecjensen/subscribely",
    "git_commits_url": "https://api.github.com/repos/danecjensen/subscribely/git/commits{/sha}",
    "git_refs_url": "https://api.github.com/repos/danecjensen/subscribely/git/refs{/sha}",
    "git_tags_url": "https://api.github.com/repos/danecjensen/subscribely/git/tags{/sha}",
    "git_url": "git://github.com/danecjensen/subscribely.git",
    "has_downloads": true,
    "has_issues": true,
    "has_wiki": true,
    "homepage": "www.sotmclub.com",
    "hooks_url": "https://api.github.com/repos/danecjensen/subscribely/hooks",
    "html_url": "https://github.com/danecjensen/subscribely",
    "id": 4961688,
    "issue_comment_url": "https://api.github.com/repos/danecjensen/subscribely/issues/comments/{number}",
    "issue_events_url": "https://api.github.com/repos/danecjensen/subscribely/issues/events{/number}",
    "issues_url": "https://api.github.com/repos/danecjensen/subscribely/issues{/number}",
    "keys_url": "https://api.github.com/repos/danecjensen/subscribely/keys{/key_id}",
    "labels_url": "https://api.github.com/repos/danecjensen/subscribely/labels{/name}",
    "language": "Python",
    "languages_url": "https://api.github.com/repos/danecjensen/subscribely/languages",
    "merges_url": "https://api.github.com/repos/danecjensen/subscribely/merges",
    "milestones_url": "https://api.github.com/repos/danecjensen/subscribely/milestones{/number}",
    "mirror_url": null,
    "name": "subscribely",
    "notifications_url": "https://api.github.com/repos/danecjensen/subscribely/notifications{?since,all,participating}",
    "open_issues": 0,
    "open_issues_count": 0,
    "owner": {
        "avatar_url": "https://avatars.githubusercontent.com/u/1511883?",
        "events_url": "https://api.github.com/users/danecjensen/events{/privacy}",
        "followers_url": "https://api.github.com/users/danecjensen/followers",
        "following_url": "https://api.github.com/users/danecjensen/following{/other_user}",
        "gists_url": "https://api.github.com/users/danecjensen/gists{/gist_id}",
        "gravatar_id": "5befe04381c79a65d4ec2ff9f93e330f",
        "html_url": "https://github.com/danecjensen",
        "id": 1511883,
        "login": "danecjensen",
        "organizations_url": "https://api.github.com/users/danecjensen/orgs",
        "received_events_url": "https://api.github.com/users/danecjensen/received_events",
        "repos_url": "https://api.github.com/users/danecjensen/repos",
        "site_admin": false,
        "starred_url": "https://api.github.com/users/danecjensen/starred{/owner}{/repo}",
        "subscriptions_url": "https://api.github.com/users/danecjensen/subscriptions",
        "type": "User",
        "url": "https://api.github.com/users/danecjensen"
    },
    "private": false,
    "pulls_url": "https://api.github.com/repos/danecjensen/subscribely/pulls{/number}",
    "pushed_at": "2012-07-17T22:36:20Z",
    "releases_url": "https://api.github.com/repos/danecjensen/subscribely/releases{/id}",
    "score": 1.0,
    "size": 2336,
    "ssh_url": "git@github.com:danecjensen/subscribely.git",
    "stargazers_count": 203,
    "stargazers_url": "https://api.github.com/repos/danecjensen/subscribely/stargazers",
    "statuses_url": "https://api.github.com/repos/danecjensen/subscribely/statuses/{sha}",
    "subscribers_url": "https://api.github.com/repos/danecjensen/subscribely/subscribers",
    "subscription_url": "https://api.github.com/repos/danecjensen/subscribely/subscription",
    "svn_url": "https://github.com/danecjensen/subscribely",
    "tags_url": "https://api.github.com/repos/danecjensen/subscribely/tags",
    "teams_url": "https://api.github.com/repos/danecjensen/subscribely/teams",
    "trees_url": "https://api.github.com/repos/danecjensen/subscribely/git/trees{/sha}",
    "updated_at": "2014-05-05T23:51:57Z",
    "url": "https://api.github.com/repos/danecjensen/subscribely",
    "watchers": 203,
    "watchers_count": 203
}