{
    "archive_url": "https://api.github.com/repos/cobrateam/django-htmlmin/{archive_format}{/ref}",
    "assignees_url": "https://api.github.com/repos/cobrateam/django-htmlmin/assignees{/user}",
    "blobs_url": "https://api.github.com/repos/cobrateam/django-htmlmin/git/blobs{/sha}",
    "branches_url": "https://api.github.com/repos/cobrateam/django-htmlmin/branches{/branch}",
    "clone_url": "https://github.com/cobrateam/django-htmlmin.git",
    "collaborators_url": "https://api.github.com/repos/cobrateam/django-htmlmin/collaborators{/collaborator}",
    "comments_url": "https://api.github.com/repos/cobrateam/django-htmlmin/comments{/number}",
    "commits_url": "https://api.github.com/repos/cobrateam/django-htmlmin/commits{/sha}",
    "compare_url": "https://api.github.com/repos/cobrateam/django-htmlmin/compare/{base}...{head}",
    "contents_url": "https://api.github.com/repos/cobrateam/django-htmlmin/contents/{+path}",
    "contributors_url": "https://api.github.com/repos/cobrateam/django-htmlmin/contributors",
    "created_at": "2011-05-12T14:03:12Z",
    "default_branch": "master",
    "description": "HTML minifier for Python frameworks (not only Django, despite the name).",
    "downloads_url": "https://api.github.com/repos/cobrateam/django-htmlmin/downloads",
    "events_url": "https://api.github.com/repos/cobrateam/django-htmlmin/events",
    "fork": false,
    "forks": 24,
    "forks_count": 24,
    "forks_url": "https://api.github.com/repos/cobrateam/django-htmlmin/forks",
    "full_name": "cobrateam/django-htmlmin",
    "git_commits_url": "https://api.github.com/repos/cobrateam/django-htmlmin/git/commits{/sha}",
    "git_refs_url": "https://api.github.com/repos/cobrateam/django-htmlmin/git/refs{/sha}",
    "git_tags_url": "https://api.github.com/repos/cobrateam/django-htmlmin/git/tags{/sha}",
    "git_url": "git://github.com/cobrateam/django-htmlmin.git",
    "has_downloads": true,
    "has_issues": true,
    "has_wiki": true,
    "homepage": "http://pypi.python.org/pypi/django-htmlmin",
    "hooks_url": "https://api.github.com/repos/cobrateam/django-htmlmin/hooks",
    "html_url": "https://github.com/cobrateam/django-htmlmin",
    "id": 1738549,
    "issue_comment_url": "https://api.github.com/repos/cobrateam/django-htmlmin/issues/comments/{number}",
    "issue_events_url": "https://api.github.com/repos/cobrateam/django-htmlmin/issues/events{/number}",
    "issues_url": "https://api.github.com/repos/cobrateam/django-htmlmin/issues{/number}",
    "keys_url": "https://api.github.com/repos/cobrateam/django-htmlmin/keys{/key_id}",
    "labels_url": "https://api.github.com/repos/cobrateam/django-htmlmin/labels{/name}",
    "language": "Python",
    "languages_url": "https://api.github.com/repos/cobrateam/django-htmlmin/languages",
    "merges_url": "https://api.github.com/repos/cobrateam/django-htmlmin/merges",
    "milestones_url": "https://api.github.com/repos/cobrateam/django-htmlmin/milestones{/number}",
    "mirror_url": null,
    "name": "django-htmlmin",
    "notifications_url": "https://api.github.com/repos/cobrateam/django-htmlmin/notifications{?since,all,participating}",
    "open_issues": 21,
    "open_issues_count": 21,
    "owner": {
        "avatar_url": "https://avatars.githubusercontent.com/u/403905?",
        "events_url": "https://api.github.com/users/cobrateam/events{/privacy}",
        "followers_url": "https://api.github.com/users/cobrateam/followers",
        "following_url": "https://api.github.com/users/cobrateam/following{/other_user}",
        "gists_url": "https://api.github.com/users/cobrateam/gists{/gist_id}",
        "gravatar_id": "1748a027361ab3e3a7f6515ac0319271",
        "html_url": "https://github.com/cobrateam",
        "id": 403905,
        "login": "cobrateam",
        "organizations_url": "https://api.github.com/users/cobrateam/orgs",
        "received_events_url": "https://api.github.com/users/cobrateam/received_events",
        "repos_url": "https://api.github.com/users/cobrateam/repos",
        "site_admin": false,
        "starred_url": "https://api.github.com/users/cobrateam/starred{/owner}{/repo}",
        "subscriptions_url": "https://api.github.com/users/cobrateam/subscriptions",
        "type": "Organization",
        "url": "https://api.github.com/users/cobrateam"
    },
    "private": false,
    "pulls_url": "https://api.github.com/repos/cobrateam/django-htmlmin/pulls{/number}",
    "pushed_at": "2014-03-18T20:55:56Z",
    "releases_url": "https://api.github.com/repos/cobrateam/django-htmlmin/releases{/id}",
    "score": 1.0,
    "size": 514,
    "ssh_url": "git@github.com:cobrateam/django-htmlmin.git",
    "stargazers_count": 149,
    "stargazers_url": "https://api.github.com/repos/cobrateam/django-htmlmin/stargazers",
    "statuses_url": "https://api.github.com/repos/cobrateam/django-htmlmin/statuses/{sha}",
    "subscribers_url": "https://api.github.com/repos/cobrateam/django-htmlmin/subscribers",
    "subscription_url": "https://api.github.com/repos/cobrateam/django-htmlmin/subscription",
    "svn_url": "https://github.com/cobrateam/django-htmlmin",
    "tags_url": "https://api.github.com/repos/cobrateam/django-htmlmin/tags",
    "teams_url": "https://api.github.com/repos/cobrateam/django-htmlmin/teams",
    "trees_url": "https://api.github.com/repos/cobrateam/django-htmlmin/git/trees{/sha}",
    "updated_at": "2014-05-05T17:27:16Z",
    "url": "https://api.github.com/repos/cobrateam/django-htmlmin",
    "watchers": 149,
    "watchers_count": 149
}