[
    "clouddns.errors",
    "domain",
    "utils",
    "tests",
    "authentication",
    "tests.authentication_test",
    "clouddns.domain",
    "consts",
    "clouddns.record",
    "errors",
    "tests.t",
    "clouddns",
    "clouddns.consts",
    "authentication_test",
    "record",
    "connection",
    "clouddns.utils",
    "t",
    "clouddns.connection",
    "clouddns.authentication"
]