{
    "archive_url": "https://api.github.com/repos/toastdriven/queued_search/{archive_format}{/ref}",
    "assignees_url": "https://api.github.com/repos/toastdriven/queued_search/assignees{/user}",
    "blobs_url": "https://api.github.com/repos/toastdriven/queued_search/git/blobs{/sha}",
    "branches_url": "https://api.github.com/repos/toastdriven/queued_search/branches{/branch}",
    "clone_url": "https://github.com/toastdriven/queued_search.git",
    "collaborators_url": "https://api.github.com/repos/toastdriven/queued_search/collaborators{/collaborator}",
    "comments_url": "https://api.github.com/repos/toastdriven/queued_search/comments{/number}",
    "commits_url": "https://api.github.com/repos/toastdriven/queued_search/commits{/sha}",
    "compare_url": "https://api.github.com/repos/toastdriven/queued_search/compare/{base}...{head}",
    "contents_url": "https://api.github.com/repos/toastdriven/queued_search/contents/{+path}",
    "contributors_url": "https://api.github.com/repos/toastdriven/queued_search/contributors",
    "created_at": "2010-01-14T05:07:58Z",
    "default_branch": "master",
    "description": "A queuing setup for integration with Haystack.",
    "downloads_url": "https://api.github.com/repos/toastdriven/queued_search/downloads",
    "events_url": "https://api.github.com/repos/toastdriven/queued_search/events",
    "fork": false,
    "forks": 20,
    "forks_count": 20,
    "forks_url": "https://api.github.com/repos/toastdriven/queued_search/forks",
    "full_name": "toastdriven/queued_search",
    "git_commits_url": "https://api.github.com/repos/toastdriven/queued_search/git/commits{/sha}",
    "git_refs_url": "https://api.github.com/repos/toastdriven/queued_search/git/refs{/sha}",
    "git_tags_url": "https://api.github.com/repos/toastdriven/queued_search/git/tags{/sha}",
    "git_url": "git://github.com/toastdriven/queued_search.git",
    "has_downloads": true,
    "has_issues": true,
    "has_wiki": true,
    "homepage": "",
    "hooks_url": "https://api.github.com/repos/toastdriven/queued_search/hooks",
    "html_url": "https://github.com/toastdriven/queued_search",
    "id": 471414,
    "issue_comment_url": "https://api.github.com/repos/toastdriven/queued_search/issues/comments/{number}",
    "issue_events_url": "https://api.github.com/repos/toastdriven/queued_search/issues/events{/number}",
    "issues_url": "https://api.github.com/repos/toastdriven/queued_search/issues{/number}",
    "keys_url": "https://api.github.com/repos/toastdriven/queued_search/keys{/key_id}",
    "labels_url": "https://api.github.com/repos/toastdriven/queued_search/labels{/name}",
    "language": "Python",
    "languages_url": "https://api.github.com/repos/toastdriven/queued_search/languages",
    "merges_url": "https://api.github.com/repos/toastdriven/queued_search/merges",
    "milestones_url": "https://api.github.com/repos/toastdriven/queued_search/milestones{/number}",
    "mirror_url": null,
    "name": "queued_search",
    "notifications_url": "https://api.github.com/repos/toastdriven/queued_search/notifications{?since,all,participating}",
    "open_issues": 8,
    "open_issues_count": 8,
    "owner": {
        "avatar_url": "https://avatars.githubusercontent.com/u/2449?",
        "events_url": "https://api.github.com/users/toastdriven/events{/privacy}",
        "followers_url": "https://api.github.com/users/toastdriven/followers",
        "following_url": "https://api.github.com/users/toastdriven/following{/other_user}",
        "gists_url": "https://api.github.com/users/toastdriven/gists{/gist_id}",
        "gravatar_id": "ea39e564e226a87b507a00d46e471e10",
        "html_url": "https://github.com/toastdriven",
        "id": 2449,
        "login": "toastdriven",
        "organizations_url": "https://api.github.com/users/toastdriven/orgs",
        "received_events_url": "https://api.github.com/users/toastdriven/received_events",
        "repos_url": "https://api.github.com/users/toastdriven/repos",
        "site_admin": false,
        "starred_url": "https://api.github.com/users/toastdriven/starred{/owner}{/repo}",
        "subscriptions_url": "https://api.github.com/users/toastdriven/subscriptions",
        "type": "User",
        "url": "https://api.github.com/users/toastdriven"
    },
    "private": false,
    "pulls_url": "https://api.github.com/repos/toastdriven/queued_search/pulls{/number}",
    "pushed_at": "2013-12-03T10:15:02Z",
    "releases_url": "https://api.github.com/repos/toastdriven/queued_search/releases{/id}",
    "score": 1.0,
    "size": 151,
    "ssh_url": "git@github.com:toastdriven/queued_search.git",
    "stargazers_count": 73,
    "stargazers_url": "https://api.github.com/repos/toastdriven/queued_search/stargazers",
    "statuses_url": "https://api.github.com/repos/toastdriven/queued_search/statuses/{sha}",
    "subscribers_url": "https://api.github.com/repos/toastdriven/queued_search/subscribers",
    "subscription_url": "https://api.github.com/repos/toastdriven/queued_search/subscription",
    "svn_url": "https://github.com/toastdriven/queued_search",
    "tags_url": "https://api.github.com/repos/toastdriven/queued_search/tags",
    "teams_url": "https://api.github.com/repos/toastdriven/queued_search/teams",
    "trees_url": "https://api.github.com/repos/toastdriven/queued_search/git/trees{/sha}",
    "updated_at": "2014-04-29T18:25:02Z",
    "url": "https://api.github.com/repos/toastdriven/queued_search",
    "watchers": 73,
    "watchers_count": 73
}