{
    "libs": [
        "cStringIO",
        "getp",
        "os",
        "locale",
        "utils",
        "subprocess",
        "io",
        "plugins",
        "NullHandler",
        "tempfile",
        "urllib",
        "re",
        "json",
        "sqlite3",
        "ecdsa",
        "glib",
        "conf",
        "questions",
        "urllib2",
        "util",
        "callbacks",
        "registry",
        "path",
        "xchat",
        "sys",
        "commands",
        "b",
        "logging",
        "socket",
        "StringIO",
        "h",
        "dbus",
        "supybot",
        "xmlrpclib",
        "threading",
        "client",
        "time",
        "gobject",
        "requests",
        "weechat",
        "ircutils"
    ]
}