{
    "archive_url": "https://api.github.com/repos/stephenmcd/cartridge/{archive_format}{/ref}",
    "assignees_url": "https://api.github.com/repos/stephenmcd/cartridge/assignees{/user}",
    "blobs_url": "https://api.github.com/repos/stephenmcd/cartridge/git/blobs{/sha}",
    "branches_url": "https://api.github.com/repos/stephenmcd/cartridge/branches{/branch}",
    "clone_url": "https://github.com/stephenmcd/cartridge.git",
    "collaborators_url": "https://api.github.com/repos/stephenmcd/cartridge/collaborators{/collaborator}",
    "comments_url": "https://api.github.com/repos/stephenmcd/cartridge/comments{/number}",
    "commits_url": "https://api.github.com/repos/stephenmcd/cartridge/commits{/sha}",
    "compare_url": "https://api.github.com/repos/stephenmcd/cartridge/compare/{base}...{head}",
    "contents_url": "https://api.github.com/repos/stephenmcd/cartridge/contents/{+path}",
    "contributors_url": "https://api.github.com/repos/stephenmcd/cartridge/contributors",
    "created_at": "2010-08-22T00:36:43Z",
    "default_branch": "master",
    "description": "A Django shopping cart application.",
    "downloads_url": "https://api.github.com/repos/stephenmcd/cartridge/downloads",
    "events_url": "https://api.github.com/repos/stephenmcd/cartridge/events",
    "fork": false,
    "forks": 129,
    "forks_count": 129,
    "forks_url": "https://api.github.com/repos/stephenmcd/cartridge/forks",
    "full_name": "stephenmcd/cartridge",
    "git_commits_url": "https://api.github.com/repos/stephenmcd/cartridge/git/commits{/sha}",
    "git_refs_url": "https://api.github.com/repos/stephenmcd/cartridge/git/refs{/sha}",
    "git_tags_url": "https://api.github.com/repos/stephenmcd/cartridge/git/tags{/sha}",
    "git_url": "git://github.com/stephenmcd/cartridge.git",
    "has_downloads": true,
    "has_issues": true,
    "has_wiki": true,
    "homepage": "http://cartridge.jupo.org",
    "hooks_url": "https://api.github.com/repos/stephenmcd/cartridge/hooks",
    "html_url": "https://github.com/stephenmcd/cartridge",
    "id": 854078,
    "issue_comment_url": "https://api.github.com/repos/stephenmcd/cartridge/issues/comments/{number}",
    "issue_events_url": "https://api.github.com/repos/stephenmcd/cartridge/issues/events{/number}",
    "issues_url": "https://api.github.com/repos/stephenmcd/cartridge/issues{/number}",
    "keys_url": "https://api.github.com/repos/stephenmcd/cartridge/keys{/key_id}",
    "labels_url": "https://api.github.com/repos/stephenmcd/cartridge/labels{/name}",
    "language": "Python",
    "languages_url": "https://api.github.com/repos/stephenmcd/cartridge/languages",
    "merges_url": "https://api.github.com/repos/stephenmcd/cartridge/merges",
    "milestones_url": "https://api.github.com/repos/stephenmcd/cartridge/milestones{/number}",
    "mirror_url": null,
    "name": "cartridge",
    "notifications_url": "https://api.github.com/repos/stephenmcd/cartridge/notifications{?since,all,participating}",
    "open_issues": 17,
    "open_issues_count": 17,
    "owner": {
        "avatar_url": "https://avatars.githubusercontent.com/u/116385?",
        "events_url": "https://api.github.com/users/stephenmcd/events{/privacy}",
        "followers_url": "https://api.github.com/users/stephenmcd/followers",
        "following_url": "https://api.github.com/users/stephenmcd/following{/other_user}",
        "gists_url": "https://api.github.com/users/stephenmcd/gists{/gist_id}",
        "gravatar_id": "ce5bfd8756e2fae0e800bbea413e86b3",
        "html_url": "https://github.com/stephenmcd",
        "id": 116385,
        "login": "stephenmcd",
        "organizations_url": "https://api.github.com/users/stephenmcd/orgs",
        "received_events_url": "https://api.github.com/users/stephenmcd/received_events",
        "repos_url": "https://api.github.com/users/stephenmcd/repos",
        "site_admin": false,
        "starred_url": "https://api.github.com/users/stephenmcd/starred{/owner}{/repo}",
        "subscriptions_url": "https://api.github.com/users/stephenmcd/subscriptions",
        "type": "User",
        "url": "https://api.github.com/users/stephenmcd"
    },
    "private": false,
    "pulls_url": "https://api.github.com/repos/stephenmcd/cartridge/pulls{/number}",
    "pushed_at": "2014-05-05T09:02:13Z",
    "releases_url": "https://api.github.com/repos/stephenmcd/cartridge/releases{/id}",
    "score": 1.0,
    "size": 42847,
    "ssh_url": "git@github.com:stephenmcd/cartridge.git",
    "stargazers_count": 305,
    "stargazers_url": "https://api.github.com/repos/stephenmcd/cartridge/stargazers",
    "statuses_url": "https://api.github.com/repos/stephenmcd/cartridge/statuses/{sha}",
    "subscribers_url": "https://api.github.com/repos/stephenmcd/cartridge/subscribers",
    "subscription_url": "https://api.github.com/repos/stephenmcd/cartridge/subscription",
    "svn_url": "https://github.com/stephenmcd/cartridge",
    "tags_url": "https://api.github.com/repos/stephenmcd/cartridge/tags",
    "teams_url": "https://api.github.com/repos/stephenmcd/cartridge/teams",
    "trees_url": "https://api.github.com/repos/stephenmcd/cartridge/git/trees{/sha}",
    "updated_at": "2014-05-05T09:02:13Z",
    "url": "https://api.github.com/repos/stephenmcd/cartridge",
    "watchers": 305,
    "watchers_count": 305
}