{
    "libs": [
        "fcntl",
        "binary",
        "errors",
        "struct",
        "optparse",
        "pymongo",
        "signal",
        "read_preferences",
        "connection",
        "termios",
        "son",
        "sys",
        "json",
        "time",
        "os"
    ]
}