{
    "archive_url": "https://api.github.com/repos/wong2/xiaohuangji-new/{archive_format}{/ref}",
    "assignees_url": "https://api.github.com/repos/wong2/xiaohuangji-new/assignees{/user}",
    "blobs_url": "https://api.github.com/repos/wong2/xiaohuangji-new/git/blobs{/sha}",
    "branches_url": "https://api.github.com/repos/wong2/xiaohuangji-new/branches{/branch}",
    "clone_url": "https://github.com/wong2/xiaohuangji-new.git",
    "collaborators_url": "https://api.github.com/repos/wong2/xiaohuangji-new/collaborators{/collaborator}",
    "comments_url": "https://api.github.com/repos/wong2/xiaohuangji-new/comments{/number}",
    "commits_url": "https://api.github.com/repos/wong2/xiaohuangji-new/commits{/sha}",
    "compare_url": "https://api.github.com/repos/wong2/xiaohuangji-new/compare/{base}...{head}",
    "contents_url": "https://api.github.com/repos/wong2/xiaohuangji-new/contents/{+path}",
    "contributors_url": "https://api.github.com/repos/wong2/xiaohuangji-new/contributors",
    "created_at": "2013-01-16T14:06:45Z",
    "default_branch": "master",
    "description": "\u4eba\u4eba\u7f51\u5c0f\u9ec4\u9e21",
    "downloads_url": "https://api.github.com/repos/wong2/xiaohuangji-new/downloads",
    "events_url": "https://api.github.com/repos/wong2/xiaohuangji-new/events",
    "fork": false,
    "forks": 179,
    "forks_count": 179,
    "forks_url": "https://api.github.com/repos/wong2/xiaohuangji-new/forks",
    "full_name": "wong2/xiaohuangji-new",
    "git_commits_url": "https://api.github.com/repos/wong2/xiaohuangji-new/git/commits{/sha}",
    "git_refs_url": "https://api.github.com/repos/wong2/xiaohuangji-new/git/refs{/sha}",
    "git_tags_url": "https://api.github.com/repos/wong2/xiaohuangji-new/git/tags{/sha}",
    "git_url": "git://github.com/wong2/xiaohuangji-new.git",
    "has_downloads": true,
    "has_issues": true,
    "has_wiki": true,
    "homepage": null,
    "hooks_url": "https://api.github.com/repos/wong2/xiaohuangji-new/hooks",
    "html_url": "https://github.com/wong2/xiaohuangji-new",
    "id": 7646787,
    "issue_comment_url": "https://api.github.com/repos/wong2/xiaohuangji-new/issues/comments/{number}",
    "issue_events_url": "https://api.github.com/repos/wong2/xiaohuangji-new/issues/events{/number}",
    "issues_url": "https://api.github.com/repos/wong2/xiaohuangji-new/issues{/number}",
    "keys_url": "https://api.github.com/repos/wong2/xiaohuangji-new/keys{/key_id}",
    "labels_url": "https://api.github.com/repos/wong2/xiaohuangji-new/labels{/name}",
    "language": "Python",
    "languages_url": "https://api.github.com/repos/wong2/xiaohuangji-new/languages",
    "merges_url": "https://api.github.com/repos/wong2/xiaohuangji-new/merges",
    "milestones_url": "https://api.github.com/repos/wong2/xiaohuangji-new/milestones{/number}",
    "mirror_url": null,
    "name": "xiaohuangji-new",
    "notifications_url": "https://api.github.com/repos/wong2/xiaohuangji-new/notifications{?since,all,participating}",
    "open_issues": 1,
    "open_issues_count": 1,
    "owner": {
        "avatar_url": "https://avatars.githubusercontent.com/u/321947?",
        "events_url": "https://api.github.com/users/wong2/events{/privacy}",
        "followers_url": "https://api.github.com/users/wong2/followers",
        "following_url": "https://api.github.com/users/wong2/following{/other_user}",
        "gists_url": "https://api.github.com/users/wong2/gists{/gist_id}",
        "gravatar_id": "c4304a7108b702fabbaac8484393c18b",
        "html_url": "https://github.com/wong2",
        "id": 321947,
        "login": "wong2",
        "organizations_url": "https://api.github.com/users/wong2/orgs",
        "received_events_url": "https://api.github.com/users/wong2/received_events",
        "repos_url": "https://api.github.com/users/wong2/repos",
        "site_admin": false,
        "starred_url": "https://api.github.com/users/wong2/starred{/owner}{/repo}",
        "subscriptions_url": "https://api.github.com/users/wong2/subscriptions",
        "type": "User",
        "url": "https://api.github.com/users/wong2"
    },
    "private": false,
    "pulls_url": "https://api.github.com/repos/wong2/xiaohuangji-new/pulls{/number}",
    "pushed_at": "2013-05-14T08:19:43Z",
    "releases_url": "https://api.github.com/repos/wong2/xiaohuangji-new/releases{/id}",
    "score": 1.0,
    "size": 5532,
    "ssh_url": "git@github.com:wong2/xiaohuangji-new.git",
    "stargazers_count": 253,
    "stargazers_url": "https://api.github.com/repos/wong2/xiaohuangji-new/stargazers",
    "statuses_url": "https://api.github.com/repos/wong2/xiaohuangji-new/statuses/{sha}",
    "subscribers_url": "https://api.github.com/repos/wong2/xiaohuangji-new/subscribers",
    "subscription_url": "https://api.github.com/repos/wong2/xiaohuangji-new/subscription",
    "svn_url": "https://github.com/wong2/xiaohuangji-new",
    "tags_url": "https://api.github.com/repos/wong2/xiaohuangji-new/tags",
    "teams_url": "https://api.github.com/repos/wong2/xiaohuangji-new/teams",
    "trees_url": "https://api.github.com/repos/wong2/xiaohuangji-new/git/trees{/sha}",
    "updated_at": "2014-05-06T09:20:23Z",
    "url": "https://api.github.com/repos/wong2/xiaohuangji-new",
    "watchers": 253,
    "watchers_count": 253
}