{
    "archive_url": "https://api.github.com/repos/jakevdp/sklearn_scipy2013/{archive_format}{/ref}",
    "assignees_url": "https://api.github.com/repos/jakevdp/sklearn_scipy2013/assignees{/user}",
    "blobs_url": "https://api.github.com/repos/jakevdp/sklearn_scipy2013/git/blobs{/sha}",
    "branches_url": "https://api.github.com/repos/jakevdp/sklearn_scipy2013/branches{/branch}",
    "clone_url": "https://github.com/jakevdp/sklearn_scipy2013.git",
    "collaborators_url": "https://api.github.com/repos/jakevdp/sklearn_scipy2013/collaborators{/collaborator}",
    "comments_url": "https://api.github.com/repos/jakevdp/sklearn_scipy2013/comments{/number}",
    "commits_url": "https://api.github.com/repos/jakevdp/sklearn_scipy2013/commits{/sha}",
    "compare_url": "https://api.github.com/repos/jakevdp/sklearn_scipy2013/compare/{base}...{head}",
    "contents_url": "https://api.github.com/repos/jakevdp/sklearn_scipy2013/contents/{+path}",
    "contributors_url": "https://api.github.com/repos/jakevdp/sklearn_scipy2013/contributors",
    "created_at": "2013-06-14T17:40:13Z",
    "default_branch": "master",
    "description": "Scikit-learn tutorials for the Scipy 2013 conference",
    "downloads_url": "https://api.github.com/repos/jakevdp/sklearn_scipy2013/downloads",
    "events_url": "https://api.github.com/repos/jakevdp/sklearn_scipy2013/events",
    "fork": false,
    "forks": 52,
    "forks_count": 52,
    "forks_url": "https://api.github.com/repos/jakevdp/sklearn_scipy2013/forks",
    "full_name": "jakevdp/sklearn_scipy2013",
    "git_commits_url": "https://api.github.com/repos/jakevdp/sklearn_scipy2013/git/commits{/sha}",
    "git_refs_url": "https://api.github.com/repos/jakevdp/sklearn_scipy2013/git/refs{/sha}",
    "git_tags_url": "https://api.github.com/repos/jakevdp/sklearn_scipy2013/git/tags{/sha}",
    "git_url": "git://github.com/jakevdp/sklearn_scipy2013.git",
    "has_downloads": true,
    "has_issues": true,
    "has_wiki": true,
    "homepage": null,
    "hooks_url": "https://api.github.com/repos/jakevdp/sklearn_scipy2013/hooks",
    "html_url": "https://github.com/jakevdp/sklearn_scipy2013",
    "id": 10694331,
    "issue_comment_url": "https://api.github.com/repos/jakevdp/sklearn_scipy2013/issues/comments/{number}",
    "issue_events_url": "https://api.github.com/repos/jakevdp/sklearn_scipy2013/issues/events{/number}",
    "issues_url": "https://api.github.com/repos/jakevdp/sklearn_scipy2013/issues{/number}",
    "keys_url": "https://api.github.com/repos/jakevdp/sklearn_scipy2013/keys{/key_id}",
    "labels_url": "https://api.github.com/repos/jakevdp/sklearn_scipy2013/labels{/name}",
    "language": "Python",
    "languages_url": "https://api.github.com/repos/jakevdp/sklearn_scipy2013/languages",
    "merges_url": "https://api.github.com/repos/jakevdp/sklearn_scipy2013/merges",
    "milestones_url": "https://api.github.com/repos/jakevdp/sklearn_scipy2013/milestones{/number}",
    "mirror_url": null,
    "name": "sklearn_scipy2013",
    "notifications_url": "https://api.github.com/repos/jakevdp/sklearn_scipy2013/notifications{?since,all,participating}",
    "open_issues": 0,
    "open_issues_count": 0,
    "owner": {
        "avatar_url": "https://avatars.githubusercontent.com/u/781659?",
        "events_url": "https://api.github.com/users/jakevdp/events{/privacy}",
        "followers_url": "https://api.github.com/users/jakevdp/followers",
        "following_url": "https://api.github.com/users/jakevdp/following{/other_user}",
        "gists_url": "https://api.github.com/users/jakevdp/gists{/gist_id}",
        "gravatar_id": "56c4053438af8e8b90d6f53cbb7573be",
        "html_url": "https://github.com/jakevdp",
        "id": 781659,
        "login": "jakevdp",
        "organizations_url": "https://api.github.com/users/jakevdp/orgs",
        "received_events_url": "https://api.github.com/users/jakevdp/received_events",
        "repos_url": "https://api.github.com/users/jakevdp/repos",
        "site_admin": false,
        "starred_url": "https://api.github.com/users/jakevdp/starred{/owner}{/repo}",
        "subscriptions_url": "https://api.github.com/users/jakevdp/subscriptions",
        "type": "User",
        "url": "https://api.github.com/users/jakevdp"
    },
    "private": false,
    "pulls_url": "https://api.github.com/repos/jakevdp/sklearn_scipy2013/pulls{/number}",
    "pushed_at": "2013-11-05T05:39:05Z",
    "releases_url": "https://api.github.com/repos/jakevdp/sklearn_scipy2013/releases{/id}",
    "score": 1.0,
    "size": 6031,
    "ssh_url": "git@github.com:jakevdp/sklearn_scipy2013.git",
    "stargazers_count": 113,
    "stargazers_url": "https://api.github.com/repos/jakevdp/sklearn_scipy2013/stargazers",
    "statuses_url": "https://api.github.com/repos/jakevdp/sklearn_scipy2013/statuses/{sha}",
    "subscribers_url": "https://api.github.com/repos/jakevdp/sklearn_scipy2013/subscribers",
    "subscription_url": "https://api.github.com/repos/jakevdp/sklearn_scipy2013/subscription",
    "svn_url": "https://github.com/jakevdp/sklearn_scipy2013",
    "tags_url": "https://api.github.com/repos/jakevdp/sklearn_scipy2013/tags",
    "teams_url": "https://api.github.com/repos/jakevdp/sklearn_scipy2013/teams",
    "trees_url": "https://api.github.com/repos/jakevdp/sklearn_scipy2013/git/trees{/sha}",
    "updated_at": "2014-04-29T18:49:02Z",
    "url": "https://api.github.com/repos/jakevdp/sklearn_scipy2013",
    "watchers": 113,
    "watchers_count": 113
}