{
    "libs": [
        "attest",
        "parser",
        "markdown",
        "socketserver",
        "SimpleHTTPServer",
        "unicode_literals",
        "request",
        "functools",
        "random",
        "Queue",
        "cPickle",
        "__builtin__",
        "datetime",
        "parse",
        "html2text",
        "HTMLParser",
        "io",
        "locale",
        "shutil",
        "queue",
        "style",
        "builtins",
        "entities",
        "docutils",
        "tempfile",
        "smartypants",
        "itertools",
        "urllib",
        "textile",
        "re",
        "json",
        "version",
        "collections",
        "print_function",
        "template",
        "threading",
        "directives",
        "inlinepatterns",
        "twitter",
        "math",
        "t",
        "cgi",
        "imp",
        "shlex",
        "SocketServer",
        "warnings",
        "error",
        "htmlentitydefs",
        "textwrap",
        "urllib2",
        "sys",
        "discount",
        "lookup",
        "colorama",
        "absolute_import",
        "saxutils",
        "path",
        "subprocess",
        "types",
        "posixpath",
        "argparse",
        "logging",
        "handlers",
        "pickle",
        "traceback",
        "xmlrpclib",
        "pkg_resources",
        "server",
        "urlparse",
        "html2rest",
        "ext",
        "client",
        "token",
        "time",
        "exceptions",
        "os",
        "multiprocessing"
    ]
}