[
    "autotag.hooks",
    "beets.dbcore",
    "util.confit",
    "lyrics",
    "test_datequery",
    "duplicates",
    "hooks",
    "test_art",
    "random",
    "test_keyfinder",
    "replaygain",
    "query",
    "test_lastgenre",
    "beetsplug.mpdupdate",
    "test_mb",
    "autotag.mb",
    "test_mbsync",
    "test.test_replaygain",
    "bench",
    "keyfinder",
    "test_ui",
    "dbcore.types",
    "test.rsrc.beetsplug",
    "test.test_config_command",
    "test.test_mediafile",
    "test.test_query",
    "beets.library",
    "match",
    "beets.importer",
    "beets.autotag.match",
    "functemplate",
    "ui.commands",
    "docs",
    "db",
    "util.pipeline",
    "util",
    "beetsplug.ftintitle",
    "test.test_ihate",
    "test.test_echonest",
    "artresizer",
    "test_library",
    "beets.util.artresizer",
    "test.test_web",
    "docs.conf",
    "bpd.gstplayer",
    "beetsplug.zero",
    "bpd",
    "test.rsrc.beetsplug.test",
    "beetsplug.mpdstats",
    "mpdupdate",
    "beetsplug",
    "mediafile",
    "test.test_convert",
    "release",
    "test.test_bucket",
    "echonest",
    "test_convert",
    "mpdstats",
    "beetsplug.mbsync",
    "echonest_tempo",
    "test.test_importfeeds",
    "library",
    "test.test_zero",
    "ftintitle",
    "beetsplug.play",
    "beets.util",
    "bluelet",
    "test_autotag",
    "beetsplug.fetchart",
    "test_echonest",
    "test_importfeeds",
    "smartplaylist",
    "missing",
    "beetsplug.inline",
    "importer",
    "test.test_mediafile_edge",
    "beetsplug.smartplaylist",
    "beets.dbcore.query",
    "test_replaygain",
    "beetsplug.importadded",
    "test.test_player",
    "beets.ui",
    "util.enumeration",
    "fetchart",
    "test_the",
    "fromfilename",
    "beets.autotag.mb",
    "embedart",
    "beetsplug.bpd",
    "ihate",
    "beets.plugins",
    "beetsplug.bench",
    "beets.mediafile",
    "commands",
    "extra.release",
    "test.testall",
    "beetsplug.importfeeds",
    "beetsplug.the",
    "testall",
    "test_vfs",
    "test.helper",
    "beetsplug.chroma",
    "beetsplug.beatport",
    "test_zero",
    "test.test_lyrics",
    "extra",
    "test_pipeline",
    "test.lyrics_sources",
    "beets.vfs",
    "test.test_vfs",
    "test_files",
    "test.test_library",
    "beets.util.functemplate",
    "beets.ui.migrate",
    "beets.autotag.hooks",
    "beetsplug.fuzzy",
    "util.functemplate",
    "test.test_mb",
    "lyrics_sources",
    "test.rsrc",
    "test_mediafile_edge",
    "test_importer",
    "dbcore",
    "rewrite",
    "chroma",
    "beetsplug.convert",
    "beetsplug.ihate",
    "rsrc",
    "test_mediafile",
    "test.test_ui_importer",
    "test_ihate",
    "pipeline",
    "beetsplug.test",
    "test_web",
    "gstplayer",
    "beetsplug.fromfilename",
    "beets.util.bluelet",
    "beetsplug.discogs",
    "queryparse",
    "convert",
    "beets.dbcore.types",
    "dbcore.query",
    "fuzzy",
    "test.test_art",
    "mbsync",
    "rsrc.beetsplug",
    "info",
    "test.test_dbcore",
    "beetsplug.lyrics",
    "mb",
    "test._common",
    "beetsplug.embedart",
    "bucket",
    "zero",
    "test.test_files",
    "beets.util.pipeline",
    "_common",
    "ui",
    "test_query",
    "beetsplug.random",
    "beets.dbcore.db",
    "beetsplug.info",
    "beetsplug.bpd.gstplayer",
    "beetsplug.mbcollection",
    "beetsplug.keyfinder",
    "importadded",
    "test.test_lastgenre",
    "helper",
    "dbcore.queryparse",
    "migrate",
    "plugins",
    "beets.util.confit",
    "importfeeds",
    "conf",
    "test.test_the",
    "beetsplug.bucket",
    "beets.ui.commands",
    "beetsplug.duplicates",
    "beets.util.enumeration",
    "test_lyrics",
    "test_ui_importer",
    "beets.dbcore.queryparse",
    "enumeration",
    "confit",
    "beetsplug.rewrite",
    "test.test_autotag",
    "test_player",
    "test",
    "ui.migrate",
    "beetsplug.echonest_tempo",
    "discogs",
    "mbcollection",
    "util.bluelet",
    "play",
    "scrub",
    "test.test_importer",
    "util.artresizer",
    "beetsplug.echonest",
    "autotag.match",
    "rsrc.beetsplug.test",
    "beets.autotag",
    "beetsplug.replaygain",
    "test.test_template",
    "test_bucket",
    "beetsplug.scrub",
    "test_config_command",
    "beatport",
    "types",
    "test.test_ui",
    "beetsplug.missing",
    "test_template",
    "test.test_mbsync",
    "test.test_datequery",
    "beets",
    "test.test_keyfinder",
    "autotag",
    "dbcore.db",
    "inline",
    "the",
    "test_dbcore",
    "vfs",
    "test.test_pipeline"
]