{
    "archive_url": "https://api.github.com/repos/dotcloud/dotcloud-cli/{archive_format}{/ref}",
    "assignees_url": "https://api.github.com/repos/dotcloud/dotcloud-cli/assignees{/user}",
    "blobs_url": "https://api.github.com/repos/dotcloud/dotcloud-cli/git/blobs{/sha}",
    "branches_url": "https://api.github.com/repos/dotcloud/dotcloud-cli/branches{/branch}",
    "clone_url": "https://github.com/dotcloud/dotcloud-cli.git",
    "collaborators_url": "https://api.github.com/repos/dotcloud/dotcloud-cli/collaborators{/collaborator}",
    "comments_url": "https://api.github.com/repos/dotcloud/dotcloud-cli/comments{/number}",
    "commits_url": "https://api.github.com/repos/dotcloud/dotcloud-cli/commits{/sha}",
    "compare_url": "https://api.github.com/repos/dotcloud/dotcloud-cli/compare/{base}...{head}",
    "contents_url": "https://api.github.com/repos/dotcloud/dotcloud-cli/contents/{+path}",
    "contributors_url": "https://api.github.com/repos/dotcloud/dotcloud-cli/contributors",
    "created_at": "2011-08-31T18:05:45Z",
    "default_branch": "master",
    "description": "",
    "downloads_url": "https://api.github.com/repos/dotcloud/dotcloud-cli/downloads",
    "events_url": "https://api.github.com/repos/dotcloud/dotcloud-cli/events",
    "fork": false,
    "forks": 33,
    "forks_count": 33,
    "forks_url": "https://api.github.com/repos/dotcloud/dotcloud-cli/forks",
    "full_name": "dotcloud/dotcloud-cli",
    "git_commits_url": "https://api.github.com/repos/dotcloud/dotcloud-cli/git/commits{/sha}",
    "git_refs_url": "https://api.github.com/repos/dotcloud/dotcloud-cli/git/refs{/sha}",
    "git_tags_url": "https://api.github.com/repos/dotcloud/dotcloud-cli/git/tags{/sha}",
    "git_url": "git://github.com/dotcloud/dotcloud-cli.git",
    "has_downloads": true,
    "has_issues": true,
    "has_wiki": true,
    "homepage": "",
    "hooks_url": "https://api.github.com/repos/dotcloud/dotcloud-cli/hooks",
    "html_url": "https://github.com/dotcloud/dotcloud-cli",
    "id": 2303135,
    "issue_comment_url": "https://api.github.com/repos/dotcloud/dotcloud-cli/issues/comments/{number}",
    "issue_events_url": "https://api.github.com/repos/dotcloud/dotcloud-cli/issues/events{/number}",
    "issues_url": "https://api.github.com/repos/dotcloud/dotcloud-cli/issues{/number}",
    "keys_url": "https://api.github.com/repos/dotcloud/dotcloud-cli/keys{/key_id}",
    "labels_url": "https://api.github.com/repos/dotcloud/dotcloud-cli/labels{/name}",
    "language": "Python",
    "languages_url": "https://api.github.com/repos/dotcloud/dotcloud-cli/languages",
    "merges_url": "https://api.github.com/repos/dotcloud/dotcloud-cli/merges",
    "milestones_url": "https://api.github.com/repos/dotcloud/dotcloud-cli/milestones{/number}",
    "mirror_url": null,
    "name": "dotcloud-cli",
    "notifications_url": "https://api.github.com/repos/dotcloud/dotcloud-cli/notifications{?since,all,participating}",
    "open_issues": 7,
    "open_issues_count": 7,
    "owner": {
        "avatar_url": "https://avatars.githubusercontent.com/u/171922?",
        "events_url": "https://api.github.com/users/dotcloud/events{/privacy}",
        "followers_url": "https://api.github.com/users/dotcloud/followers",
        "following_url": "https://api.github.com/users/dotcloud/following{/other_user}",
        "gists_url": "https://api.github.com/users/dotcloud/gists{/gist_id}",
        "gravatar_id": "d2fbb59e6c8b80a26e48b06ea30d53fd",
        "html_url": "https://github.com/dotcloud",
        "id": 171922,
        "login": "dotcloud",
        "organizations_url": "https://api.github.com/users/dotcloud/orgs",
        "received_events_url": "https://api.github.com/users/dotcloud/received_events",
        "repos_url": "https://api.github.com/users/dotcloud/repos",
        "site_admin": false,
        "starred_url": "https://api.github.com/users/dotcloud/starred{/owner}{/repo}",
        "subscriptions_url": "https://api.github.com/users/dotcloud/subscriptions",
        "type": "Organization",
        "url": "https://api.github.com/users/dotcloud"
    },
    "private": false,
    "pulls_url": "https://api.github.com/repos/dotcloud/dotcloud-cli/pulls{/number}",
    "pushed_at": "2014-03-27T00:39:25Z",
    "releases_url": "https://api.github.com/repos/dotcloud/dotcloud-cli/releases{/id}",
    "score": 1.0,
    "size": 996,
    "ssh_url": "git@github.com:dotcloud/dotcloud-cli.git",
    "stargazers_count": 40,
    "stargazers_url": "https://api.github.com/repos/dotcloud/dotcloud-cli/stargazers",
    "statuses_url": "https://api.github.com/repos/dotcloud/dotcloud-cli/statuses/{sha}",
    "subscribers_url": "https://api.github.com/repos/dotcloud/dotcloud-cli/subscribers",
    "subscription_url": "https://api.github.com/repos/dotcloud/dotcloud-cli/subscription",
    "svn_url": "https://github.com/dotcloud/dotcloud-cli",
    "tags_url": "https://api.github.com/repos/dotcloud/dotcloud-cli/tags",
    "teams_url": "https://api.github.com/repos/dotcloud/dotcloud-cli/teams",
    "trees_url": "https://api.github.com/repos/dotcloud/dotcloud-cli/git/trees{/sha}",
    "updated_at": "2014-05-05T09:42:06Z",
    "url": "https://api.github.com/repos/dotcloud/dotcloud-cli",
    "watchers": 40,
    "watchers_count": 40
}