{
    "archive_url": "https://api.github.com/repos/niuchl/oauth-login-demo/{archive_format}{/ref}",
    "assignees_url": "https://api.github.com/repos/niuchl/oauth-login-demo/assignees{/user}",
    "blobs_url": "https://api.github.com/repos/niuchl/oauth-login-demo/git/blobs{/sha}",
    "branches_url": "https://api.github.com/repos/niuchl/oauth-login-demo/branches{/branch}",
    "clone_url": "https://github.com/niuchl/oauth-login-demo.git",
    "collaborators_url": "https://api.github.com/repos/niuchl/oauth-login-demo/collaborators{/collaborator}",
    "comments_url": "https://api.github.com/repos/niuchl/oauth-login-demo/comments{/number}",
    "commits_url": "https://api.github.com/repos/niuchl/oauth-login-demo/commits{/sha}",
    "compare_url": "https://api.github.com/repos/niuchl/oauth-login-demo/compare/{base}...{head}",
    "contents_url": "https://api.github.com/repos/niuchl/oauth-login-demo/contents/{+path}",
    "contributors_url": "https://api.github.com/repos/niuchl/oauth-login-demo/contributors",
    "created_at": "2011-09-27T22:27:57Z",
    "default_branch": "master",
    "description": "Very simple demo that shows Google's OAuth 2.0 support for Login.",
    "downloads_url": "https://api.github.com/repos/niuchl/oauth-login-demo/downloads",
    "events_url": "https://api.github.com/repos/niuchl/oauth-login-demo/events",
    "fork": false,
    "forks": 8,
    "forks_count": 8,
    "forks_url": "https://api.github.com/repos/niuchl/oauth-login-demo/forks",
    "full_name": "niuchl/oauth-login-demo",
    "git_commits_url": "https://api.github.com/repos/niuchl/oauth-login-demo/git/commits{/sha}",
    "git_refs_url": "https://api.github.com/repos/niuchl/oauth-login-demo/git/refs{/sha}",
    "git_tags_url": "https://api.github.com/repos/niuchl/oauth-login-demo/git/tags{/sha}",
    "git_url": "git://github.com/niuchl/oauth-login-demo.git",
    "has_downloads": true,
    "has_issues": true,
    "has_wiki": true,
    "homepage": "https://oauth2-login-demo.appspot.com",
    "hooks_url": "https://api.github.com/repos/niuchl/oauth-login-demo/hooks",
    "html_url": "https://github.com/niuchl/oauth-login-demo",
    "id": 2471224,
    "issue_comment_url": "https://api.github.com/repos/niuchl/oauth-login-demo/issues/comments/{number}",
    "issue_events_url": "https://api.github.com/repos/niuchl/oauth-login-demo/issues/events{/number}",
    "issues_url": "https://api.github.com/repos/niuchl/oauth-login-demo/issues{/number}",
    "keys_url": "https://api.github.com/repos/niuchl/oauth-login-demo/keys{/key_id}",
    "labels_url": "https://api.github.com/repos/niuchl/oauth-login-demo/labels{/name}",
    "language": "Python",
    "languages_url": "https://api.github.com/repos/niuchl/oauth-login-demo/languages",
    "merges_url": "https://api.github.com/repos/niuchl/oauth-login-demo/merges",
    "milestones_url": "https://api.github.com/repos/niuchl/oauth-login-demo/milestones{/number}",
    "mirror_url": null,
    "name": "oauth-login-demo",
    "notifications_url": "https://api.github.com/repos/niuchl/oauth-login-demo/notifications{?since,all,participating}",
    "open_issues": 0,
    "open_issues_count": 0,
    "owner": {
        "avatar_url": "https://avatars.githubusercontent.com/u/36480?",
        "events_url": "https://api.github.com/users/niuchl/events{/privacy}",
        "followers_url": "https://api.github.com/users/niuchl/followers",
        "following_url": "https://api.github.com/users/niuchl/following{/other_user}",
        "gists_url": "https://api.github.com/users/niuchl/gists{/gist_id}",
        "gravatar_id": "6f230d5a4ea4d204bd0cc3c54851e5bc",
        "html_url": "https://github.com/niuchl",
        "id": 36480,
        "login": "niuchl",
        "organizations_url": "https://api.github.com/users/niuchl/orgs",
        "received_events_url": "https://api.github.com/users/niuchl/received_events",
        "repos_url": "https://api.github.com/users/niuchl/repos",
        "site_admin": false,
        "starred_url": "https://api.github.com/users/niuchl/starred{/owner}{/repo}",
        "subscriptions_url": "https://api.github.com/users/niuchl/subscriptions",
        "type": "User",
        "url": "https://api.github.com/users/niuchl"
    },
    "private": false,
    "pulls_url": "https://api.github.com/repos/niuchl/oauth-login-demo/pulls{/number}",
    "pushed_at": "2011-12-27T17:58:38Z",
    "releases_url": "https://api.github.com/repos/niuchl/oauth-login-demo/releases{/id}",
    "score": 1.0,
    "size": 171,
    "ssh_url": "git@github.com:niuchl/oauth-login-demo.git",
    "stargazers_count": 43,
    "stargazers_url": "https://api.github.com/repos/niuchl/oauth-login-demo/stargazers",
    "statuses_url": "https://api.github.com/repos/niuchl/oauth-login-demo/statuses/{sha}",
    "subscribers_url": "https://api.github.com/repos/niuchl/oauth-login-demo/subscribers",
    "subscription_url": "https://api.github.com/repos/niuchl/oauth-login-demo/subscription",
    "svn_url": "https://github.com/niuchl/oauth-login-demo",
    "tags_url": "https://api.github.com/repos/niuchl/oauth-login-demo/tags",
    "teams_url": "https://api.github.com/repos/niuchl/oauth-login-demo/teams",
    "trees_url": "https://api.github.com/repos/niuchl/oauth-login-demo/git/trees{/sha}",
    "updated_at": "2014-02-05T23:04:25Z",
    "url": "https://api.github.com/repos/niuchl/oauth-login-demo",
    "watchers": 43,
    "watchers_count": 43
}