{
    "archive_url": "https://api.github.com/repos/yourcelf/django-jimmypage/{archive_format}{/ref}",
    "assignees_url": "https://api.github.com/repos/yourcelf/django-jimmypage/assignees{/user}",
    "blobs_url": "https://api.github.com/repos/yourcelf/django-jimmypage/git/blobs{/sha}",
    "branches_url": "https://api.github.com/repos/yourcelf/django-jimmypage/branches{/branch}",
    "clone_url": "https://github.com/yourcelf/django-jimmypage.git",
    "collaborators_url": "https://api.github.com/repos/yourcelf/django-jimmypage/collaborators{/collaborator}",
    "comments_url": "https://api.github.com/repos/yourcelf/django-jimmypage/comments{/number}",
    "commits_url": "https://api.github.com/repos/yourcelf/django-jimmypage/commits{/sha}",
    "compare_url": "https://api.github.com/repos/yourcelf/django-jimmypage/compare/{base}...{head}",
    "contents_url": "https://api.github.com/repos/yourcelf/django-jimmypage/contents/{+path}",
    "contributors_url": "https://api.github.com/repos/yourcelf/django-jimmypage/contributors",
    "created_at": "2010-04-26T17:30:16Z",
    "default_branch": "master",
    "description": "Generation-based whole page caching for Django",
    "downloads_url": "https://api.github.com/repos/yourcelf/django-jimmypage/downloads",
    "events_url": "https://api.github.com/repos/yourcelf/django-jimmypage/events",
    "fork": false,
    "forks": 9,
    "forks_count": 9,
    "forks_url": "https://api.github.com/repos/yourcelf/django-jimmypage/forks",
    "full_name": "yourcelf/django-jimmypage",
    "git_commits_url": "https://api.github.com/repos/yourcelf/django-jimmypage/git/commits{/sha}",
    "git_refs_url": "https://api.github.com/repos/yourcelf/django-jimmypage/git/refs{/sha}",
    "git_tags_url": "https://api.github.com/repos/yourcelf/django-jimmypage/git/tags{/sha}",
    "git_url": "git://github.com/yourcelf/django-jimmypage.git",
    "has_downloads": true,
    "has_issues": true,
    "has_wiki": true,
    "homepage": "",
    "hooks_url": "https://api.github.com/repos/yourcelf/django-jimmypage/hooks",
    "html_url": "https://github.com/yourcelf/django-jimmypage",
    "id": 629977,
    "issue_comment_url": "https://api.github.com/repos/yourcelf/django-jimmypage/issues/comments/{number}",
    "issue_events_url": "https://api.github.com/repos/yourcelf/django-jimmypage/issues/events{/number}",
    "issues_url": "https://api.github.com/repos/yourcelf/django-jimmypage/issues{/number}",
    "keys_url": "https://api.github.com/repos/yourcelf/django-jimmypage/keys{/key_id}",
    "labels_url": "https://api.github.com/repos/yourcelf/django-jimmypage/labels{/name}",
    "language": "Python",
    "languages_url": "https://api.github.com/repos/yourcelf/django-jimmypage/languages",
    "merges_url": "https://api.github.com/repos/yourcelf/django-jimmypage/merges",
    "milestones_url": "https://api.github.com/repos/yourcelf/django-jimmypage/milestones{/number}",
    "mirror_url": null,
    "name": "django-jimmypage",
    "notifications_url": "https://api.github.com/repos/yourcelf/django-jimmypage/notifications{?since,all,participating}",
    "open_issues": 2,
    "open_issues_count": 2,
    "owner": {
        "avatar_url": "https://avatars.githubusercontent.com/u/21318?",
        "events_url": "https://api.github.com/users/yourcelf/events{/privacy}",
        "followers_url": "https://api.github.com/users/yourcelf/followers",
        "following_url": "https://api.github.com/users/yourcelf/following{/other_user}",
        "gists_url": "https://api.github.com/users/yourcelf/gists{/gist_id}",
        "gravatar_id": "780278dd7b2d6bb187413a3cfcfb48cf",
        "html_url": "https://github.com/yourcelf",
        "id": 21318,
        "login": "yourcelf",
        "organizations_url": "https://api.github.com/users/yourcelf/orgs",
        "received_events_url": "https://api.github.com/users/yourcelf/received_events",
        "repos_url": "https://api.github.com/users/yourcelf/repos",
        "site_admin": false,
        "starred_url": "https://api.github.com/users/yourcelf/starred{/owner}{/repo}",
        "subscriptions_url": "https://api.github.com/users/yourcelf/subscriptions",
        "type": "User",
        "url": "https://api.github.com/users/yourcelf"
    },
    "private": false,
    "pulls_url": "https://api.github.com/repos/yourcelf/django-jimmypage/pulls{/number}",
    "pushed_at": "2013-03-04T14:49:47Z",
    "releases_url": "https://api.github.com/repos/yourcelf/django-jimmypage/releases{/id}",
    "score": 1.0,
    "size": 131,
    "ssh_url": "git@github.com:yourcelf/django-jimmypage.git",
    "stargazers_count": 62,
    "stargazers_url": "https://api.github.com/repos/yourcelf/django-jimmypage/stargazers",
    "statuses_url": "https://api.github.com/repos/yourcelf/django-jimmypage/statuses/{sha}",
    "subscribers_url": "https://api.github.com/repos/yourcelf/django-jimmypage/subscribers",
    "subscription_url": "https://api.github.com/repos/yourcelf/django-jimmypage/subscription",
    "svn_url": "https://github.com/yourcelf/django-jimmypage",
    "tags_url": "https://api.github.com/repos/yourcelf/django-jimmypage/tags",
    "teams_url": "https://api.github.com/repos/yourcelf/django-jimmypage/teams",
    "trees_url": "https://api.github.com/repos/yourcelf/django-jimmypage/git/trees{/sha}",
    "updated_at": "2013-12-02T07:10:38Z",
    "url": "https://api.github.com/repos/yourcelf/django-jimmypage",
    "watchers": 62,
    "watchers_count": 62
}