{
    "archive_url": "https://api.github.com/repos/Yelp/python-gearman/{archive_format}{/ref}",
    "assignees_url": "https://api.github.com/repos/Yelp/python-gearman/assignees{/user}",
    "blobs_url": "https://api.github.com/repos/Yelp/python-gearman/git/blobs{/sha}",
    "branches_url": "https://api.github.com/repos/Yelp/python-gearman/branches{/branch}",
    "clone_url": "https://github.com/Yelp/python-gearman.git",
    "collaborators_url": "https://api.github.com/repos/Yelp/python-gearman/collaborators{/collaborator}",
    "comments_url": "https://api.github.com/repos/Yelp/python-gearman/comments{/number}",
    "commits_url": "https://api.github.com/repos/Yelp/python-gearman/commits{/sha}",
    "compare_url": "https://api.github.com/repos/Yelp/python-gearman/compare/{base}...{head}",
    "contents_url": "https://api.github.com/repos/Yelp/python-gearman/contents/{+path}",
    "contributors_url": "https://api.github.com/repos/Yelp/python-gearman/contributors",
    "created_at": "2010-09-24T23:55:27Z",
    "default_branch": "master",
    "description": "Gearman API - Client, worker, and admin client interfaces",
    "downloads_url": "https://api.github.com/repos/Yelp/python-gearman/downloads",
    "events_url": "https://api.github.com/repos/Yelp/python-gearman/events",
    "fork": false,
    "forks": 77,
    "forks_count": 77,
    "forks_url": "https://api.github.com/repos/Yelp/python-gearman/forks",
    "full_name": "Yelp/python-gearman",
    "git_commits_url": "https://api.github.com/repos/Yelp/python-gearman/git/commits{/sha}",
    "git_refs_url": "https://api.github.com/repos/Yelp/python-gearman/git/refs{/sha}",
    "git_tags_url": "https://api.github.com/repos/Yelp/python-gearman/git/tags{/sha}",
    "git_url": "git://github.com/Yelp/python-gearman.git",
    "has_downloads": true,
    "has_issues": true,
    "has_wiki": true,
    "homepage": "http://github.com/Yelp/python-gearman/",
    "hooks_url": "https://api.github.com/repos/Yelp/python-gearman/hooks",
    "html_url": "https://github.com/Yelp/python-gearman",
    "id": 937503,
    "issue_comment_url": "https://api.github.com/repos/Yelp/python-gearman/issues/comments/{number}",
    "issue_events_url": "https://api.github.com/repos/Yelp/python-gearman/issues/events{/number}",
    "issues_url": "https://api.github.com/repos/Yelp/python-gearman/issues{/number}",
    "keys_url": "https://api.github.com/repos/Yelp/python-gearman/keys{/key_id}",
    "labels_url": "https://api.github.com/repos/Yelp/python-gearman/labels{/name}",
    "language": "Python",
    "languages_url": "https://api.github.com/repos/Yelp/python-gearman/languages",
    "merges_url": "https://api.github.com/repos/Yelp/python-gearman/merges",
    "milestones_url": "https://api.github.com/repos/Yelp/python-gearman/milestones{/number}",
    "mirror_url": null,
    "name": "python-gearman",
    "notifications_url": "https://api.github.com/repos/Yelp/python-gearman/notifications{?since,all,participating}",
    "open_issues": 20,
    "open_issues_count": 20,
    "owner": {
        "avatar_url": "https://avatars.githubusercontent.com/u/49071?",
        "events_url": "https://api.github.com/users/Yelp/events{/privacy}",
        "followers_url": "https://api.github.com/users/Yelp/followers",
        "following_url": "https://api.github.com/users/Yelp/following{/other_user}",
        "gists_url": "https://api.github.com/users/Yelp/gists{/gist_id}",
        "gravatar_id": "cedaa6f42505b701ae74f53ea1783c0b",
        "html_url": "https://github.com/Yelp",
        "id": 49071,
        "login": "Yelp",
        "organizations_url": "https://api.github.com/users/Yelp/orgs",
        "received_events_url": "https://api.github.com/users/Yelp/received_events",
        "repos_url": "https://api.github.com/users/Yelp/repos",
        "site_admin": false,
        "starred_url": "https://api.github.com/users/Yelp/starred{/owner}{/repo}",
        "subscriptions_url": "https://api.github.com/users/Yelp/subscriptions",
        "type": "Organization",
        "url": "https://api.github.com/users/Yelp"
    },
    "private": false,
    "pulls_url": "https://api.github.com/repos/Yelp/python-gearman/pulls{/number}",
    "pushed_at": "2014-01-10T01:49:07Z",
    "releases_url": "https://api.github.com/repos/Yelp/python-gearman/releases{/id}",
    "score": 1.0,
    "size": 931,
    "ssh_url": "git@github.com:Yelp/python-gearman.git",
    "stargazers_count": 160,
    "stargazers_url": "https://api.github.com/repos/Yelp/python-gearman/stargazers",
    "statuses_url": "https://api.github.com/repos/Yelp/python-gearman/statuses/{sha}",
    "subscribers_url": "https://api.github.com/repos/Yelp/python-gearman/subscribers",
    "subscription_url": "https://api.github.com/repos/Yelp/python-gearman/subscription",
    "svn_url": "https://github.com/Yelp/python-gearman",
    "tags_url": "https://api.github.com/repos/Yelp/python-gearman/tags",
    "teams_url": "https://api.github.com/repos/Yelp/python-gearman/teams",
    "trees_url": "https://api.github.com/repos/Yelp/python-gearman/git/trees{/sha}",
    "updated_at": "2014-05-06T20:04:00Z",
    "url": "https://api.github.com/repos/Yelp/python-gearman",
    "watchers": 160,
    "watchers_count": 160
}