[
    "urls",
    "wsgi",
    "accounts.forms",
    "api_v1",
    "locksmith.context_processors",
    "migrations.0004_auto__add_field_credentialgroup_name__add_field_credentialgroup_descri",
    "migrations.0004_auto__add_field_userprofile_customer_id",
    "0002_auto__add_field_userprofile_is_pro",
    "0006_auto__del_field_credential_key__add_field_credential_username__add_fie",
    "accounts",
    "vault.migrations.0002_auto__add_credentialgroup__del_field_credential_owner__add_field_crede",
    "vault.migrations.0003_auto__del_field_credential_group",
    "locksmith.settings",
    "0004_auto__add_field_userprofile_customer_id",
    "billing",
    "accounts.urls",
    "encryption",
    "locksmith.templatetags.locksmith",
    "accounts.migrations",
    "forms",
    "accounts.migrations.0001_initial",
    "0002_auto__add_credentialgroup__del_field_credential_owner__add_field_crede",
    "accounts.migrations.0002_auto__add_field_userprofile_is_pro",
    "accounts.models",
    "utils.encryption",
    "locksmith.templatetags",
    "locksmith.urls",
    "tests",
    "manage",
    "views",
    "migrations.0001_initial",
    "migrations.0005_auto__chg_field_userprofile_customer_id",
    "0005_auto__chg_field_userprofile_customer_id",
    "middleware.threadlocal",
    "middleware",
    "settings",
    "migrations.0006_auto__del_field_credential_key__add_field_credential_username__add_fie",
    "templatetags.locksmith",
    "locksmith.middleware.threadlocal",
    "migrations.0003_auto__del_field_credential_group",
    "accounts.migrations.0004_auto__add_field_userprofile_customer_id",
    "utils",
    "vault.migrations",
    "locksmith",
    "threadlocal",
    "vault.models",
    "vault.urls",
    "accounts.migrations.0006_auto__add_field_userprofile_activation_code",
    "vault.migrations.0004_auto__add_field_credentialgroup_name__add_field_credentialgroup_descri",
    "context_processors",
    "vault.admin",
    "accounts.migrations.0005_auto__chg_field_userprofile_customer_id",
    "0003_auto__add_field_userprofile_pro_join_date",
    "vault.migrations.0001_initial",
    "migrations",
    "0004_auto__add_field_credentialgroup_name__add_field_credentialgroup_descri",
    "locksmith.admin",
    "vault.views",
    "locksmith.wsgi",
    "vault.tests",
    "migrations.0006_auto__add_field_userprofile_activation_code",
    "utils.billing",
    "models",
    "0005_auto__add_field_credential_uuid__add_field_credentialgroup_uuid",
    "locksmith.api_v1",
    "vault.migrations.0006_auto__del_field_credential_key__add_field_credential_username__add_fie",
    "0001_initial",
    "migrations.0005_auto__add_field_credential_uuid__add_field_credentialgroup_uuid",
    "accounts.tests",
    "vault.forms",
    "vault.migrations.0005_auto__add_field_credential_uuid__add_field_credentialgroup_uuid",
    "migrations.0003_auto__add_field_userprofile_pro_join_date",
    "admin",
    "migrations.0002_auto__add_credentialgroup__del_field_credential_owner__add_field_crede",
    "templatetags",
    "0003_auto__del_field_credential_group",
    "locksmith.middleware",
    "migrations.0002_auto__add_field_userprofile_is_pro",
    "accounts.views",
    "0006_auto__add_field_userprofile_activation_code",
    "accounts.migrations.0003_auto__add_field_userprofile_pro_join_date",
    "vault",
    "locksmith.views"
]