{
    "archive_url": "https://api.github.com/repos/bow/volt/{archive_format}{/ref}",
    "assignees_url": "https://api.github.com/repos/bow/volt/assignees{/user}",
    "blobs_url": "https://api.github.com/repos/bow/volt/git/blobs{/sha}",
    "branches_url": "https://api.github.com/repos/bow/volt/branches{/branch}",
    "clone_url": "https://github.com/bow/volt.git",
    "collaborators_url": "https://api.github.com/repos/bow/volt/collaborators{/collaborator}",
    "comments_url": "https://api.github.com/repos/bow/volt/comments{/number}",
    "commits_url": "https://api.github.com/repos/bow/volt/commits{/sha}",
    "compare_url": "https://api.github.com/repos/bow/volt/compare/{base}...{head}",
    "contents_url": "https://api.github.com/repos/bow/volt/contents/{+path}",
    "contributors_url": "https://api.github.com/repos/bow/volt/contributors",
    "created_at": "2012-03-06T19:27:42Z",
    "default_branch": "master",
    "description": "Versatile static website generator",
    "downloads_url": "https://api.github.com/repos/bow/volt/downloads",
    "events_url": "https://api.github.com/repos/bow/volt/events",
    "fork": false,
    "forks": 5,
    "forks_count": 5,
    "forks_url": "https://api.github.com/repos/bow/volt/forks",
    "full_name": "bow/volt",
    "git_commits_url": "https://api.github.com/repos/bow/volt/git/commits{/sha}",
    "git_refs_url": "https://api.github.com/repos/bow/volt/git/refs{/sha}",
    "git_tags_url": "https://api.github.com/repos/bow/volt/git/tags{/sha}",
    "git_url": "git://github.com/bow/volt.git",
    "has_downloads": true,
    "has_issues": true,
    "has_wiki": true,
    "homepage": "http://github.com/bow/volt",
    "hooks_url": "https://api.github.com/repos/bow/volt/hooks",
    "html_url": "https://github.com/bow/volt",
    "id": 3641701,
    "issue_comment_url": "https://api.github.com/repos/bow/volt/issues/comments/{number}",
    "issue_events_url": "https://api.github.com/repos/bow/volt/issues/events{/number}",
    "issues_url": "https://api.github.com/repos/bow/volt/issues{/number}",
    "keys_url": "https://api.github.com/repos/bow/volt/keys{/key_id}",
    "labels_url": "https://api.github.com/repos/bow/volt/labels{/name}",
    "language": "Python",
    "languages_url": "https://api.github.com/repos/bow/volt/languages",
    "merges_url": "https://api.github.com/repos/bow/volt/merges",
    "milestones_url": "https://api.github.com/repos/bow/volt/milestones{/number}",
    "mirror_url": null,
    "name": "volt",
    "notifications_url": "https://api.github.com/repos/bow/volt/notifications{?since,all,participating}",
    "open_issues": 1,
    "open_issues_count": 1,
    "owner": {
        "avatar_url": "https://avatars.githubusercontent.com/u/343998?",
        "events_url": "https://api.github.com/users/bow/events{/privacy}",
        "followers_url": "https://api.github.com/users/bow/followers",
        "following_url": "https://api.github.com/users/bow/following{/other_user}",
        "gists_url": "https://api.github.com/users/bow/gists{/gist_id}",
        "gravatar_id": "172c852982356639c7c85dbc6f78b451",
        "html_url": "https://github.com/bow",
        "id": 343998,
        "login": "bow",
        "organizations_url": "https://api.github.com/users/bow/orgs",
        "received_events_url": "https://api.github.com/users/bow/received_events",
        "repos_url": "https://api.github.com/users/bow/repos",
        "site_admin": false,
        "starred_url": "https://api.github.com/users/bow/starred{/owner}{/repo}",
        "subscriptions_url": "https://api.github.com/users/bow/subscriptions",
        "type": "User",
        "url": "https://api.github.com/users/bow"
    },
    "private": false,
    "pulls_url": "https://api.github.com/repos/bow/volt/pulls{/number}",
    "pushed_at": "2014-03-27T08:24:41Z",
    "releases_url": "https://api.github.com/repos/bow/volt/releases{/id}",
    "score": 1.0,
    "size": 1065,
    "ssh_url": "git@github.com:bow/volt.git",
    "stargazers_count": 43,
    "stargazers_url": "https://api.github.com/repos/bow/volt/stargazers",
    "statuses_url": "https://api.github.com/repos/bow/volt/statuses/{sha}",
    "subscribers_url": "https://api.github.com/repos/bow/volt/subscribers",
    "subscription_url": "https://api.github.com/repos/bow/volt/subscription",
    "svn_url": "https://github.com/bow/volt",
    "tags_url": "https://api.github.com/repos/bow/volt/tags",
    "teams_url": "https://api.github.com/repos/bow/volt/teams",
    "trees_url": "https://api.github.com/repos/bow/volt/git/trees{/sha}",
    "updated_at": "2014-03-27T08:24:41Z",
    "url": "https://api.github.com/repos/bow/volt",
    "watchers": 43,
    "watchers_count": 43
}