[
    "examples.push-cgi-notifier.feedparser",
    "pony_build.tests",
    "examples.push-cgi-notifier.test-post-rss",
    "client.test_client.test_context",
    "test-post-rss",
    "client.test_client.test_hg_client",
    "change-receiver",
    "_mypath",
    "web",
    "pony_build.file_storage",
    "test_client.test_hg_client",
    "pony_build.web",
    "web.run",
    "feedparser",
    "pony_build.web.urls",
    "test_client",
    "PyRSS2Gen",
    "bin",
    "tests",
    "file_storage",
    "dbsqlite",
    "pony_build.tests.test_coordinator",
    "client.test_client.test_git_client",
    "pony_build.rss",
    "push-cgi-notifier.parse_pony_build_rss",
    "pony_build.coordinator",
    "change-receiver.test-post-github-notify",
    "pony_build.tests.testutil",
    "rss",
    "tests.test_coordinator",
    "client.test_client.test_svn_client",
    "tests.test_qx_web",
    "pony_build.server",
    "client.pony_client",
    "push-cgi-notifier.feedparser",
    "web.util",
    "test_misc",
    "tests.testutil",
    "pony_build.dbsqlite",
    "pony_build.web.util",
    "examples",
    "testutil",
    "test_qx_web",
    "push-cgi-notifier",
    "test_context",
    "push-cgi-notifier.test-post-rss",
    "pony_build.pubsubhubbub_publish",
    "parse_pony_build_rss",
    "examples.change-receiver.test-post-github-notify",
    "pony_build.PyRSS2Gen",
    "coordinator",
    "test_xmlrpc_api",
    "bin._mypath",
    "server",
    "test_client.test_git_client",
    "pony_build.tests.run",
    "client",
    "client.test_client.test_misc",
    "test-post-github-notify",
    "pony_client",
    "client.build-mechanize",
    "examples.push-cgi-notifier",
    "run",
    "build-mechanize",
    "test_git_client",
    "web.urls",
    "test_svn_client",
    "test_hg_client",
    "examples.push-cgi-notifier.parse_pony_build_rss",
    "tests.run",
    "test_client.test_misc",
    "pony_build.web.run",
    "examples.change-receiver",
    "tests.test_xmlrpc_api",
    "client.test_client",
    "pony_build.tests.test_xmlrpc_api",
    "pony_build.remote_api",
    "pubsubhubbub_publish",
    "test_coordinator",
    "util",
    "remote_api",
    "pony_build",
    "pony_build.tests.test_qx_web",
    "urls",
    "test_client.test_context",
    "test_client.test_svn_client"
]