[
    "typeconv.rules",
    "tests.cudadrv.test_nvvm_driver",
    "oldnumba.tests.test_sum",
    "viz.astviz",
    "tests.ops.test_binary_ops",
    "cffi_support",
    "bytecode",
    "tests.cudapy.test_math",
    "classgen",
    "oldnumba.exttypes.types.methods",
    "containers.tests.test_typed_list",
    "numba.cuda.cudadrv.devices",
    "numba.cuda.tests.cudapy.test_slicing",
    "tests.cudadrv",
    "modules.utils",
    "test_math",
    "oldnumba.annotate.tests.test_rendering",
    "oldnumba.typesystem.constants",
    "specialize.exttypes",
    "test_montecarlo",
    "oldnumba.minivect.miniutils",
    "oldnumba.tests.test_issues",
    "oldnumba.exttypes.validators",
    "asdl.py2_7.asdl",
    "tests.test_array_attr",
    "oldnumba.asdl.schema",
    "nodes.bitwise",
    "broken_issues.test_log1p_vectorize",
    "oldnumba.tests.arrays",
    "oldnumba.exttypes.tests.test_extension_warnings",
    "oldnumba.random",
    "oldnumba.tests.math_tests.test_math",
    "test_numberctor",
    "numpynodes",
    "test_flow_control",
    "examples.multithread",
    "tests.test_ctypes",
    "orderedcontainer",
    "cudapy",
    "issues.test_issue_138",
    "test_builtin_ord",
    "oldnumba.annotate.step",
    "oldnumba.typesystem.types",
    "numba_intrinsic",
    "servicelib",
    "llvm_types",
    "oldnumba.utility.cbuilder.numbacdef",
    "oldnumba.lexing",
    "test_issue_313",
    "minivect.tests.testutils",
    "oldnumba.external.utility",
    "metadata",
    "oldnumba.asdl.asdl",
    "deps",
    "wrapping",
    "oldnumba.testing.tests.test_parametrize",
    "oldnumba.tests.test_addressof",
    "numba.tests.test_wrapper",
    "oldnumba.exttypes.types.extensiontype",
    "numba.cuda.tests.cudadrv.test_nvvm_driver",
    "numba.cuda.cudaimpl",
    "oldnumba.control_flow.tests.test_cfg_type_infer",
    "oldnumba.tests.test_object_iteration",
    "cudapy.test_math",
    "tests.test_template_types",
    "condarecipe.local",
    "numba.cuda.tests.cudapy.test_array",
    "numba.pycc.decorators",
    "numba.targets.builtins",
    "test_rendering",
    "test_create_arrays",
    "buildscripts.condarecipe",
    "tests.cudapy.test_constmem",
    "external.utility",
    "tests.test_dispatcher",
    "oldnumba.config",
    "tests.test_type_properties",
    "numba.testing",
    "oldnumba.annotate.ir_capture",
    "tests.test_operators",
    "codegen.debug",
    "tests.broken_issues.test_binary_harder",
    "oldnumba.containers.register",
    "test_events",
    "numba.tests.test_lists",
    "buildscripts.condarecipe.devel",
    "oldnumba.viz.ssaviz",
    "issues.issue_305_helper1",
    "annotate.tests.test_rendering",
    "issues.issue_305_helper2",
    "exceptions",
    "oldnumba.tests.np.test_numpy_type_inference",
    "test_extern_call",
    "example",
    "test_intrinsics",
    "tests.ops",
    "examples.strings",
    "threadlocal",
    "tests.test_object_literals",
    "numba.typeinfer",
    "generator.visitorgen",
    "oldnumba.external",
    "numba.utils",
    "test_pycc_tresult",
    "oldnumba.external.libc",
    "type_inference.tests.test_typesets",
    "tbaa",
    "test_unsigned_arith",
    "numba.decorators",
    "config",
    "oldnumba.tests.test_unsigned_arith",
    "tests.builtins.test_builtin_round",
    "numba.tests.test_pycc_tresult",
    "oldnumba.tests.closures.test_closure_type_inference",
    "type_inference.modules",
    "oldnumba.tests.issues.test_issue_169",
    "cudadrv.test_cuda_driver",
    "prange.test_prange",
    "tests.array_exprs.test_slicing2",
    "oldnumba.tests.issues.test_issue_161",
    "oldnumba.tests.issues.test_issue_163",
    "oldnumba.tests.issues.test_issue_165",
    "parallel",
    "constants",
    "oldnumba.codegen",
    "typesystem.tests.test_typeof",
    "loopimpl",
    "test_structref",
    "tests.cudapy.test_boolean",
    "oldnumba.ir.generator.visitorgen",
    "test_array",
    "make_toc",
    "test_extension_methods",
    "tests.test_numpyadapt",
    "test_extension_attributes",
    "validators",
    "control_flow.tests.test_w_uninitialized_for",
    "tests.test_while",
    "nodes.tempnodes",
    "test_ufuncs",
    "nodes.constnodes",
    "test_complex_array",
    "cuda.tests.cudapy.test_powi",
    "cudapy.test_blackscholes",
    "typesystem.defaults",
    "deps.pyextensibletype.demo.run",
    "oldnumba.tests.issues.test_issue_184",
    "test_bubblesort",
    "closuretypes",
    "test_bitwise_harder",
    "tests.broken_issues.test_bitwise_harder",
    "slicing",
    "oldnumba.minivect.graphviz",
    "tests.test_random.test_random_gibbs",
    "oldnumba.codegen.llvmcontext",
    "oldnumba.annotate",
    "cbuilder.library",
    "tests.autojit.test_unannotated_extension_methods",
    "oldnumba.exttypes.tests.autojit.test_extension_class_specializations",
    "oldnumba.testing.runner",
    "tests.prange.test_prange_issue_24",
    "exttypes.tests.autojit.test_unspecialized_extension_methods",
    "test_array_attr",
    "debug",
    "cuda.descriptor",
    "compile_with_pycc",
    "templates",
    "oldnumba.ad",
    "test_slicing",
    "ctypes_example",
    "test_issue_77",
    "test_locals",
    "specialize.loops",
    "oldnumba.typesystem.itypesystem",
    "exttypes.ordering",
    "tests.cudapy.test_localmem",
    "test_globals_builtins",
    "refcounting",
    "oldnumba.typesystem.typematch",
    "oldnumba.specialize.loopimpl",
    "test_issue_252",
    "oldnumba.tests.array_exprs.test_slicing2",
    "typesystem.typeset",
    "test_issue_256",
    "tests.np.test_preloading",
    "numba.cuda.tests.cudadrv.test_host_alloc",
    "oldnumba.nodes.extnodes",
    "entrypoints",
    "itypesystem",
    "tests.np.test_ufunc_type_inference",
    "tests.builtins.test_builtin_abs",
    "pyextensibletype.extensibletype.test.test_perfecthashing",
    "tests.test_fbcorr",
    "tests.test_type_inference",
    "numba._version",
    "tests.cudapy.test_array",
    "type_inference.module_type_inference",
    "test_type_properties",
    "np.test_ufunc_type_inference",
    "test_dummyarray",
    "cudadrv.test_inline_ptx",
    "numba.cuda.tests.cudapy.test_idiv",
    "oldnumba.testing",
    "cudapy.test_sync",
    "runall",
    "builtins.test_builtin_minmax",
    "deps.pyextensibletype.extensibletype.test",
    "issues.test_issue_212",
    "issues.test_issue_216",
    "issues.test_issue_215",
    "test_type_constructors",
    "oldnumba.intrinsic.string_intrinsic",
    "test_maxmin",
    "cffi_example",
    "service",
    "tests.issues.test_issue_192",
    "cudadrv.test_events",
    "numba.cuda.tests.cudapy.test_boolean",
    "numba.tests.test_conversion",
    "tests.test_jitclasses",
    "testing.runner",
    "tests.test_mandelbrot",
    "cuda.cudadrv.driver",
    "oldnumba.control_flow.delete_cfnode",
    "oldnumba.astsix",
    "tests.cudapy.test_slicing",
    "test_typenames",
    "target",
    "pycc.decorators",
    "tests.test_ir",
    "random.__generate_rng",
    "test_pointers",
    "tests.test_circular_type_inference",
    "py2x.test_py2raise",
    "cudapy.test_constmem",
    "tests.test_if",
    "tests.test_flow_control",
    "typesystem.typematch",
    "numba.cuda.tests.cudadrv.test_linker",
    "array_expressions",
    "cudapy.test_complex_kernel",
    "control_flow.tests.test_cfg_type_infer",
    "usernode",
    "deps.pyextensibletype.extensibletype.test.test_perfecthashing",
    "numba.tests.test_casting",
    "oldnumba.typesystem.kinds",
    "versioneer",
    "numba.cuda.stubs",
    "tests.math_tests.test_complex",
    "docs.source",
    "examples.simpleadd",
    "test_object_mode",
    "tests.py2x",
    "nodes.pointernodes",
    "test_avg2d",
    "oldnumba.tests.test_unpacking",
    "examples.queens",
    "examples.notebooks",
    "oldnumba.codegen.translate",
    "oldnumba.tests.pointers",
    "tests.np",
    "cuda.tests.cudadrv.test_detect",
    "typeinfer",
    "exttypes",
    "cuda.tests.cudapy.test_math",
    "sum",
    "numba.npyufunc.gufunc",
    "numba.cuda.cudadrv.error",
    "numba.cuda.tests.cudapy.test_intrinsics",
    "signatures",
    "random",
    "tests.test_listcomp",
    "test_object_builtins",
    "minivect.minicode",
    "builtins.test_builtin_int",
    "oldnumba.type_inference",
    "cuda.cudaimpl",
    "oldnumba.nodes.excnodes",
    "cudapy.test_slicing",
    "oldnumba.transforms",
    "tests.test_tuple",
    "numba.tests.test_mathlib",
    "oldnumba.typesystem.ctypestypes",
    "ir.generator.tests.testutils",
    "tests.issues.test_issue_249",
    "cgutils",
    "oldnumba.tests.prange.test_prange",
    "test_builtin_minmax",
    "tests.test_ast_cfg",
    "string_intrinsic",
    "oldnumba.minivect.tests.llvm_testutils",
    "tests.cudapy.test_matmul",
    "test_storeslice",
    "test_typesets",
    "linregr_numbapro",
    "cuda.tests.cudapy.runtests",
    "numba.servicelib.service",
    "oldnumba.tests.arrays.array_global",
    "exttypes.methodtable",
    "typesystem.tests.test_consing",
    "cuda.api",
    "numba.looplifting",
    "test_autojit",
    "testing",
    "oldnumba.minivect.treepath",
    "complexsupport",
    "oldnumba.support.tests.ctypes_values",
    "autojit",
    "oldnumba.exttypes.tests.autojit.test_unspecialized_extension_methods",
    "test_cffi_call",
    "cuda.tests.cudadrv.test_host_alloc",
    "oldnumba.tests.issues.test_issue_249",
    "infer_call",
    "oldnumba.tests.test_ast_getattr",
    "test_w_uninitialized",
    "oldnumba.exttypes",
    "tests.cudadrv.test_pinned",
    "test_complex_kernel",
    "test_issue_249",
    "condarecipe.local.run_test",
    "issues.test_issue_50",
    "cudadrv.error",
    "exttypes.compileclass",
    "oldnumba.environment",
    "issues.test_issue_118",
    "oldnumba.minivect.specializers",
    "oldnumba.typesystem.tests.test_type_constructors",
    "utility.cbuilder",
    "numba.cuda.tests.cudadrv.test_cuda_auto_context",
    "issues.test_issue_112",
    "issues.test_issue_117",
    "modules.numbamodule",
    "py2_7",
    "oldnumba.control_flow.cfstats",
    "tests.cudapy.test_idiv",
    "annotate.step",
    "containers",
    "_rng_generated",
    "math_tests.test_math",
    "test_issue_118",
    "oldnumba.exttypes.autojitclass",
    "test_issue_117",
    "oldnumba.tests.test_mandelbrot_2",
    "oldnumba.tests.array_exprs",
    "test_issue_112",
    "multithread",
    "targets.options",
    "oldnumba.nodes.callnodes",
    "test_perfecthashing",
    "oldnumba.exttypes.attributetable",
    "stubs",
    "oldnumba.asdl.py2_7.asdl",
    "formatting",
    "oldnumba.typesystem.universe",
    "tests.foreign_call.test_callbacks",
    "tests.autojit.test_unspecialized_extension_methods",
    "minivect.minivisitor",
    "tests.test_typed_tuple",
    "cuda.tests.cudapy.test_autojit",
    "minivect.tests",
    "oldnumba.specialize",
    "ir",
    "buildscripts.condarecipe.devel.run_test",
    "cuda.tests.cudapy.test_array",
    "exttypes.virtual",
    "conf",
    "test_const_folding",
    "oldnumba.type_inference.module_type_inference",
    "exttypes.tests.test_extension_types",
    "test_type_recognition",
    "numba.tests.test_flow_control",
    "numba.tests.test_typenames",
    "test_vmdot",
    "test_cstring",
    "typing.context",
    "annotate.annotators",
    "oldnumba.exttypes.jitclass",
    "test_typecreate",
    "nodes.excnodes",
    "oldnumba.tests.np.test_ufunc_type_inference",
    "oldnumba.missing",
    "tests.py2only.test_print",
    "test_potential_gcc_error",
    "numba.cuda.tests.cudapy.runtests",
    "datetimesupport",
    "ctypes_conversion",
    "autojit.test_unspecialized_extension_methods",
    "numba.tests.test_dummyarray",
    "cfstats",
    "numba.config",
    "options",
    "array_exprs.test_broadcasting",
    "transforms",
    "numpy_support.sliceutils",
    "test_reporting",
    "cudadrv.test_host_alloc",
    "oldnumba.tests.issues.test_issue_204",
    "cuda.cudadrv.nvvm",
    "typesystem.tests",
    "test_array_args",
    "oldnumba.ir.generator.classgen",
    "oldnumba.minivect.minitypes",
    "oldnumba.ir.generator.tests.testutils",
    "oldnumba.tests.test_datetime",
    "minivect.tests.llvm_testutils",
    "pointernodes",
    "ops",
    "typesystem.promotion",
    "builtins.test_builtin_enumerate",
    "jitclass",
    "examples.fbcorr",
    "tests.issues.test_issue_313",
    "numba.cuda.tests.cudadrv.runtests",
    "control_flow.tests",
    "test_cuda_array_slicing",
    "numba.tests.test_locals",
    "tests.issues.test_issue_256",
    "oldnumba.asdl.tests.support",
    "numba.tests.test_builtins",
    "intrinsic.intrinsic",
    "tests.test_autojit",
    "tests.prange",
    "virtuallookup",
    "tests.test_mathlib",
    "exttypes.types.extensiontype",
    "test_datetime",
    "test_w_uninitialized_for",
    "numba.cuda.compiler",
    "visitorgen",
    "tests.test_locals_override",
    "py2x",
    "cuda.tests.cudapy.test_localmem",
    "tests.builtins.test_builtin_complex",
    "examples.findmulti",
    "np.test_preloading",
    "pydot.pydot",
    "oldnumba.asdl.tests.test_good",
    "tests.test_print",
    "tests.test_nan",
    "containers.typedtuple",
    "irpasses",
    "control_flow.control_flow",
    "notebooks.LinearRegr",
    "test_parametrize",
    "nodes.cfnodes",
    "numba.typeconv.rules",
    "asdl.common",
    "typing.mathdecl",
    "numba.cuda.tests.cudapy.test_py2_div_issue",
    "tests.test_astgen",
    "oldnumba.tests.builtins.test_builtin_ord",
    "oldnumba.tests.issues.test_issue_252",
    "cudapy.test_laplace",
    "builtins.test_builtin_abs",
    "typesystem.typeutils",
    "test_ufuncbuilding",
    "examples.closure",
    "npyufunc.decorators",
    "oldnumba.support.numpy_support",
    "oldnumba.control_flow",
    "support",
    "oldnumba.tests.np.test_numpy_calls",
    "oldnumba.tests.test_mandelbrot",
    "queens",
    "test_select_device",
    "linregr_bench",
    "test_typingerror",
    "test_issue_297",
    "tests.test_storeslice",
    "ir.build",
    "oldnumba.tests.np.test_preloading",
    "callwrapper",
    "oldnumba.ir.generator",
    "objectnodes",
    "benchmarks.bm_euler",
    "numba.sigutils",
    "cuda.tests.cudadrv.test_cuda_auto_context",
    "devices",
    "oldnumba.tests.builtins.test_builtin_chr",
    "cuda.tests.cudapy.test_constmem",
    "benchmarks",
    "oldnumba.tests.conftest",
    "broken_issues.test_bitwise_harder",
    "tests.test_consing",
    "oldnumba.tests.test_diffusion",
    "cudadrv.devicearray",
    "issue_305_helper2",
    "test_issue_125",
    "oldnumba.type_inference.modules",
    "issue_305_helper1",
    "numba.types",
    "tests.issues.test_issue_77",
    "cuda.cudamath",
    "numpy_support.slicenodes",
    "tests.test_rendering",
    "oldnumba.nodes.tempnodes",
    "test_issue_204",
    "numba.tests.test_typingerror",
    "cuda.tests.cudapy.test_atomics",
    "test",
    "oldnumba.typesystem.promotion",
    "tests.test_ast_forloop",
    "issues.test_issue_309",
    "oldnumba.containers.tests.test_typed_tuple",
    "numba.cuda.tests.cudadrv.test_cuda_driver",
    "issues.test_issue_305",
    "numba.tests.test_range",
    "test_blackscholes",
    "linregr_python",
    "oldnumba.tests.test_slicing",
    "variable",
    "oldnumba.codegen.datetimesupport",
    "targets.npyimpl",
    "assume",
    "modules",
    "test_nopython_math",
    "nodes.coercionnodes",
    "tests.cudapy.test_powi",
    "runtests",
    "test_casting",
    "oldnumba.tests.test_if",
    "tests.test_w_unreachable",
    "astformat",
    "broken_issues",
    "numba.bytecode",
    "test_operators",
    "oldnumba.tests.builtins.test_builtin_pow",
    "oldnumba.type_inference.tests.test_extension_type_inference",
    "numba.tests.test_ufuncs",
    "numba.cuda.tests.cudadrv.test_array_attr",
    "oldnumba.viz.graphviz",
    "oldnumba.tests.math_tests",
    "ops.test_binary_ops",
    "environment",
    "test_globals",
    "oldnumba.tests.test_modulo",
    "oldnumba.type_inference.infer_call",
    "npyufunc.ufuncbuilder",
    "oldnumba.support.ctypes_support",
    "test_consing",
    "codegen.llvmwrapper",
    "oldnumba.control_flow.control_flow",
    "oldnumba.control_flow.tests.test_ast_cfg",
    "run_test",
    "math_tests.test_nopython_math",
    "array_exprs.test_array_math",
    "utility.cbuilder.numbacdef",
    "defaults",
    "numba.typing",
    "cuda.tests.cudadrv.test_inline_ptx",
    "numba.cuda.tests.cudapy.test_sync",
    "tests.test_deprecations",
    "targets",
    "test_extension_warnings",
    "oldnumba.typesystem.tbaa",
    "numba.lowering",
    "cuda.tests.cudapy.test_idiv",
    "doctest_support",
    "lexing",
    "oldnumba.minivect.optimize",
    "pycc.compiler",
    "examples.pycc_example",
    "tests.cudadrv.test_events",
    "oldnumba.exttypes.variable",
    "pyextensibletype",
    "testutils",
    "numba.typing.templates",
    "_version",
    "oldnumba.tests.array_exprs.test_vmdot",
    "tests.cudadrv.test_cuda_driver",
    "autojit_ext_method_call",
    "cudadrv.test_linker",
    "typesystem.tests.test_casting",
    "numba.controlflow",
    "oldnumba.tests.issues.issue_305_helper1",
    "oldnumba.tests.issues.issue_305_helper2",
    "cudapy.test_idiv",
    "tests.array_exprs",
    "oldnumba.minivect.miniast",
    "generator.astgen",
    "oldnumba.nodes.closurenodes",
    "nodes.closurenodes",
    "tests.prange.test_prange",
    "cudadrv.runtests",
    "tests.issues.test_issue_118",
    "tests.issues.test_issue_112",
    "numba.tests.test_storeslice",
    "tests.issues.test_issue_117",
    "builtins.test_builtin_chr",
    "oldnumba.support.tests.test_ctypes",
    "ctypes_support",
    "cuda.tests.cudapy.test_complex_kernel",
    "test_hoisting",
    "tests.test_typecreate",
    "test_loopdetection",
    "test_typed_tuple",
    "oldnumba.random.__generate_rng",
    "closures.test_closure_type_inference",
    "oldnumba.exttypes.compileclass",
    "test_numpy_type_inference",
    "function_util",
    "test_withpython",
    "exttypes.validators",
    "oldnumba.specialize.exttypes",
    "numba.tests.test_usecases",
    "descriptor",
    "minivect.specializers",
    "cuda.tests.cudadrv.test_reset_device",
    "tests.cudapy.test_montecarlo",
    "cuda.cudadrv.enums",
    "cudadrv.test_array_attr",
    "cuda.tests.cudadrv.test_cuda_ndarray",
    "oldnumba.visitors",
    "cuda.tests.cudapy.test_blackscholes",
    "support.ctypes_support",
    "tests.test_typeof",
    "minivect.pydot",
    "numba.tests.test_print",
    "tests.test_issues",
    "normalize",
    "deps.pyextensibletype.extensibletype.test.test_pstdint",
    "exttypes.tests.autojit.test_unannotated_extension_methods",
    "cudapy.test_globals",
    "minitypes",
    "test_unspecialized_extension_methods",
    "docs.ams_presentation.linregr_numba",
    "numba.interpreter",
    "targets.intrinsics",
    "py2_7.asdl",
    "asdl.asdl",
    "numba.tests.test_object_mode",
    "issues.test_issue_77",
    "numba.tests.test_array_manipulation",
    "minivect.codegen",
    "test_issue_138",
    "support.numpy_support.slicing",
    "typedefs",
    "cuda.cudadecl",
    "typedlist",
    "minivect.minitypes",
    "tests.test_loopdetection",
    "test_matmul",
    "numba.servicelib",
    "numba.tests.test_maxmin",
    "oldnumba.tests.issues.test_issue_256",
    "builtins.test_builtin_ord",
    "control_flow.cfstats",
    "numba.targets.options",
    "typesystem.lowering",
    "generator.tests.test_visitors",
    "cudadrv.test_cuda_auto_context",
    "npyimpl",
    "issues.test_issue_313",
    "graphviz",
    "numba.tests.test_arrayconst",
    "test_constmem",
    "test_jitclasses",
    "deps.pyextensibletype.demo",
    "numba.type_annotations",
    "numba.cuda.descriptor",
    "oldnumba.utility.virtuallookup",
    "builtins",
    "tests.test_object_counting",
    "ssa",
    "tests.builtins.test_object_builtins",
    "numba.targets.cpu",
    "test_builtin_str",
    "control_flow.delete_cfnode",
    "tests.test_casting",
    "multiarray_api",
    "mathdecl",
    "gufunc",
    "examples.cffi_example",
    "tests.issues.test_compare",
    "type_inference.tests.test_type_inference",
    "numba.tests.test_ctypes",
    "test_prange_iteration_space",
    "extensibletype.test.test_interning",
    "tests.test_nosource",
    "numba.typing.npydecl",
    "numba.targets.intrinsics",
    "funccalls",
    "tests.autojit",
    "oldnumba.tests.test_raise",
    "codegen.datetimesupport",
    "tests.test_extension_attributes",
    "numba.targets.mathimpl",
    "naming",
    "control_flow.debug",
    "oldnumba.support.numpy_support.slicing",
    "test_builtin_range",
    "test_ctypes_call",
    "tests.builtins.test_builtin_enumerate",
    "oldnumba.asdl.tests",
    "containers.orderedcontainer",
    "slicenodes",
    "decorators",
    "array_exprs",
    "cudapy.test_nondet",
    "oldnumba.tests.prange.test_prange_issue_24",
    "math_tests",
    "cuda.tests.cudapy.test_globals",
    "dispatcher",
    "oldnumba.exttypes.signatures",
    "prettyprint",
    "tests.test_numbafunction",
    "tests.test_ufuncbuilding",
    "oldnumba.validate",
    "codegen",
    "condarecipe.devel.run_test",
    "oldnumba.tests.array_exprs.test_broadcasting",
    "tests.broken_issues.autojit_ext_method_call",
    "numba.cuda.tests.cudapy.test_laplace",
    "buildscripts.condarecipe.mandel",
    "promotion",
    "oldnumba.minivect.type_promoter",
    "numba.npyufunc.decorators",
    "utility.virtuallookup",
    "pyextensibletype.extensibletype",
    "random.random",
    "pointers.test_null",
    "tests.test_indexing",
    "numba.tests.test_mandelbrot",
    "oldnumba.minivect.llvm_codegen",
    "tests.math_tests",
    "cuda.cudadrv",
    "tests.issues.test_issue_297",
    "oldnumba.typesystem.tests.test_casting",
    "py2only.test_print",
    "oldnumba.tests.test_object_literals",
    "common.asdl",
    "oldnumba.tests.issues.test_issue_164",
    "test_cuda_memory",
    "types",
    "typing",
    "test_looplifting",
    "structures",
    "test_extension_inheritance",
    "oldnumba.asdl.py2_7",
    "numba.tests.test_complex_array",
    "oldnumba.tests.closures.test_closure",
    "codegen.complexsupport",
    "miniast",
    "test_print_function",
    "simpleadd",
    "type_annotations",
    "type_promoter",
    "typing.templates",
    "oldnumba.tests.closures",
    "cuda.tests.cudapy.test_array_args",
    "tests.support",
    "numba.tests.test_dataflow",
    "issues.test_issue_56",
    "issues.test_issue_57",
    "test_locals_override",
    "cuda.cudadrv.libs",
    "ssaviz",
    "tests.broken_issues.test_log1p_vectorize",
    "sigparse",
    "oldnumba.minivect.tests",
    "postpasses",
    "specialize.exceptions",
    "oldnumba.tests.builtins",
    "oldnumba.exttypes.tests.autojit",
    "exttypes.tests.autojit",
    "builtins.test_builtin_str",
    "test_recursion",
    "pyextensibletype.demo",
    "containers.tests",
    "oldnumba.asdl.tests.test_bad",
    "builtins.test_builtin_complex",
    "modules.numpyufuncs",
    "numba.tests.test_deprecations",
    "tests.builtins.test_builtin_int",
    "numba.cuda.cudamath",
    "control_flow.ssa",
    "oldnumba.type_inference.modules.numpymodule",
    "visitors",
    "oldnumba.tests.py2only",
    "test_object_literals",
    "cuda.tests.cudadrv.test_pinned",
    "test_pstdint",
    "__generate_rng",
    "tests.issues.issue_305_helper1",
    "tests.issues.issue_305_helper2",
    "typeset",
    "nodes.llvmnodes",
    "asdl.processor",
    "numba.tests.test_typeconv",
    "tests.test_intrinsic",
    "numba.npyufunc.sigparse",
    "tests.issues.test_issue_57",
    "tests.issues.test_issue_56",
    "tests.issues.test_issue_50",
    "oldnumba.ast_constant_folding",
    "issues.test_issue_256",
    "typesystem.tests.test_type_constructors",
    "issues.test_issue_252",
    "numba.pycc.compiler",
    "prange.test_prange_issue_24",
    "oldnumba.error",
    "oldnumba.tests.test_filter2d",
    "tests.test_dot",
    "type_inference.modules.numpyufuncs",
    "test_typeof",
    "typesystem.kinds",
    "support.tests.ctypes_values",
    "looplifting",
    "issues.test_issue_321",
    "tests.cudadrv.test_select_device",
    "user_support",
    "math_utilities",
    "test_intrinsic",
    "typedtuple",
    "closure",
    "oldnumba.containers.orderedcontainer",
    "numba.typing.mathdecl",
    "pydot",
    "test_linker",
    "ufuncbuilder",
    "numba.targets.registry",
    "arrays",
    "tests.test_range",
    "test_object_conversion",
    "tests.test_extension_inheritance",
    "exttypes.signatures",
    "oldnumba.exttypes.entrypoints",
    "test_struct",
    "extensibletype.test.test_pstdint",
    "closures",
    "cudaimpl",
    "test_wrapper",
    "test_broadcasting",
    "oldnumba.annotate.tests",
    "cuda.tests.cudadrv.test_nvvm_driver",
    "oldnumba.nodes",
    "oldnumba.tests.test_object_conversion",
    "cudapy.test_montecarlo",
    "oldnumba.typedefs",
    "tests.builtins.test_builtin_ord",
    "testing.tests.test_user_doctest",
    "oldnumba.tests.test_getattr",
    "oldnumba.minivect.tests.test_hoisting",
    "test_builtin_pow",
    "support.tests.test_random.test_random_gibbs",
    "spark",
    "cudadrv.test_cuda_memory",
    "tests.cudadrv.runtests",
    "oldnumba.annotate.textrender",
    "cuda.tests.cudadrv.test_events",
    "cudadrv.libs",
    "minivect",
    "test_detect",
    "exttypes.variable",
    "oldnumba.tests.issues",
    "oldnumba.ir.generator.naming",
    "astgen",
    "exttypes.utils",
    "tests.test_random",
    "unittest_support",
    "tests.test_w_uninitialized_for",
    "test_print",
    "test_type_inference",
    "cuda.tests.cudadrv.test_cuda_array_slicing",
    "oldnumba.tests.test_redefine",
    "callnodes",
    "oldnumba.tests.issues.test_issue_185",
    "test_typed_list",
    "oldnumba.tests",
    "numba.dummyarray",
    "stdio_util",
    "test_conversion",
    "minivect.optimize",
    "oldnumba.ir.generator.tests.test_visitors",
    "tests.cudapy.test_complex_kernel",
    "tests.test_forces",
    "examples.ufuncs",
    "condarecipe.devel",
    "viz.ssaviz",
    "numpyufuncs",
    "test_issue_126",
    "test_mandelbrot_2",
    "test_null",
    "numba.cuda.cudadecl",
    "getfailed",
    "test_cfg_type_infer",
    "oldnumba.support.tests.test_ctypes_gibbs",
    "oldnumba.tests.test_object_counting",
    "tests.cudadrv.test_cuda_ndarray",
    "tests.test_sum",
    "numba.tests.test_typecreate",
    "oldnumba.ir.generator.build",
    "utils",
    "numba",
    "numba.cuda.cudadrv.driver",
    "foreign_call",
    "tests.issues.test_issue_138",
    "oldnumba.typesystem.tests",
    "tests.cudapy.test_device_func",
    "oldnumba.annotate.htmlrender",
    "oldnumba.nodes.structnodes",
    "oldnumba.tests.py2only.test_print",
    "type_inference.infer_call",
    "oldnumba.support.numpy_support.slicenodes",
    "typesystem.ssatypes",
    "numba.cuda.tests.cudapy.test_localmem",
    "driver",
    "oldnumba.tests.builtins.test_builtin_round",
    "tests.cudapy.test_autojit",
    "test_extension_type_inference",
    "control_flow.block",
    "tests.test_numberctor",
    "test_deprecations",
    "tests.test_visitors",
    "support.tests",
    "tests.test_object_mode",
    "macro",
    "codegen.refcounting",
    "test_for_in_range",
    "external.external",
    "oldnumba.typesystem.tests.test_conversion",
    "oldnumba.minivect.pydot",
    "targets.imputils",
    "test_numpy_math",
    "methodtable",
    "annotate.ir_capture",
    "oldnumba.external.external",
    "specializers",
    "numba.tests.test_unpack_sequence",
    "type_inference.modules.mathmodule",
    "tests.test_wrapper",
    "generator",
    "test.test_pstdint",
    "oldnumba.tests.test_nosource",
    "asdl.py2_7.spark",
    "ast_constant_folding",
    "oldnumba.prettyprint",
    "oldnumba.tests.foreign_call",
    "type_inference.modules.utils",
    "numba.numpy_support",
    "test_issue_159",
    "test_issue_192",
    "numba.typeconv",
    "issues.test_issue_249",
    "libs",
    "test_array_manipulation",
    "enums",
    "oldnumba.support",
    "oldnumba.minivect.complex_support",
    "ams_presentation.linregr_python",
    "oldnumba.control_flow.block",
    "oldnumba.codegen.llvmwrapper",
    "tests.test_filter2d",
    "tests.llvm_testutils",
    "exttypes.tests.test_extension_inheritance",
    "test_vtables",
    "test_builtin_float",
    "test_strings",
    "templating",
    "pyextensibletype.extensibletype.test",
    "controlflow",
    "exttypes.tests.test_extension_sizeof",
    "oldnumba.tests.test_withpython",
    "control_flow.tests.test_w_uninitialized",
    "examples.structures",
    "docs.ams_presentation",
    "autojit.test_unannotated_extension_methods",
    "builtins.test_builtin_round",
    "test_array_expressions",
    "tests.test_ufuncs",
    "tests.np.test_numpy_type_inference",
    "exttypes.autojitclass",
    "tests.test_w_uninitialized_while",
    "oldnumba.tests.broken_issues.test_binary_harder",
    "deps.pyextensibletype.extensibletype.test.test_interning",
    "oldnumba.typesystem.tests.test_template_types",
    "numba.cuda.nvvmutils",
    "intrinsic.string_intrinsic",
    "cuda",
    "oldnumba.tests.array_exprs.test_slicing",
    "test_unannotated_extension_methods",
    "builtins.test_builtin_range",
    "processor",
    "oldnumba.tests.test_unbound_variables",
    "cudapy.test_mandel",
    "ir.generator.naming",
    "oldnumba.exttypes.utils",
    "cudapy.test_localmem",
    "oldnumba.tests.test_exceptions",
    "annotate",
    "ndarray_helpers",
    "ops.test_bitwise_ops",
    "test_arrayconst",
    "oldnumba.function_util",
    "nvvm",
    "ufunc_builder",
    "tests.test_arrayconst",
    "generator.tests.test_astgen",
    "cudapy.test_device_func",
    "type_inference.infer",
    "test_mandel",
    "numba.cuda.tests.cudapy.test_nondet",
    "cudadrv.test_select_device",
    "examples.example",
    "ams_presentation",
    "test_user_doctest",
    "test_llarray",
    "ra24",
    "numba.pythonapi",
    "test_build",
    "numba.tests.true_div_usecase",
    "ad",
    "random._rng_generated",
    "oldnumba.control_flow.tests.test_w_unreachable",
    "oldnumba.minivect.ctypes_conversion",
    "targets.builtins",
    "oldnumba.type_inference.modules.numbamodule",
    "numba.npyufunc.ufuncbuilder",
    "tests.test_redefine",
    "asdl.py2_7",
    "prange",
    "tests.test_ctypes_gibbs",
    "minivect.type_promoter",
    "test_nondet",
    "asdl.common.spark",
    "numba.io_support",
    "oldnumba.asdl.processor",
    "oldnumba.tests.foreign_call.test_callbacks",
    "tests.cudadrv.test_array_attr",
    "oldnumba.control_flow.ssa",
    "test_lists",
    "oldnumba.tests.test_recursion",
    "oldnumba.tests.issues.test_issue_297",
    "foreign_call.test_callbacks",
    "ssatypes",
    "hello",
    "cpu",
    "external",
    "npyufunc.wrappers",
    "oldnumba.tests.builtins.test_object_builtins",
    "numba.cuda.tests.cudapy.test_math",
    "specialize.loopimpl",
    "oldnumba.random._rng_generated",
    "oldnumba.minivect.xmldumper",
    "llvm_codegen",
    "oldnumba.parallel",
    "ctypes_utils",
    "numba.cuda.tests.cudapy.test_montecarlo",
    "examples.compile_with_pycc",
    "numba.typing.builtins",
    "test_mandelbrot",
    "test_ctypes",
    "tests.test_looplifting",
    "nodes",
    "astsix",
    "minivect.xmldumper",
    "oldnumba.decorators",
    "tests.test_reporting",
    "io_support",
    "tests.issues.test_issue_215",
    "oldnumba.tests.builtins.test_builtin_enumerate",
    "tests.builtins.test_builtin_minmax",
    "tests.usecases",
    "llvmnodes",
    "oldnumba.containers",
    "test_range",
    "tests.test_builtins",
    "codegen.coerce",
    "test_specializations",
    "oldnumba.tests.test_while",
    "cuda.tests.cudapy.test_intrinsics",
    "condarecipe.run_test",
    "oldnumba.ir.generator.tests.test_astgen",
    "codegen.globalconstants",
    "oldnumba.tests.pointers.test_null",
    "oldnumba.tests.math_tests.test_allmath",
    "oldnumba.tests.test_reporting",
    "tests.builtins.test_builtin_chr",
    "numba.tests.test_blackscholes",
    "oldnumba.testing.doctest_support",
    "oldnumba.ir",
    "test_ctypes_gibbs",
    "cuda.tests.cudapy.test_mandel",
    "wrapping.compiler",
    "numba.compiler",
    "oldnumba.support.numpy_support.sliceutils",
    "cudadrv.devices",
    "issues.test_issue_185",
    "issues.test_issue_184",
    "oldnumba.typesystem.tests.test_consing",
    "constnodes",
    "tests.test_llarray",
    "threads",
    "tests.cudapy.test_mandel",
    "cuda.tests.cudapy.test_device_func",
    "examples.notebooks.LinearRegr",
    "numba.tests.test_interproc",
    "broken_issues.test_binary_harder",
    "cuda.tests.cudapy.test_sync",
    "test_log1p_vectorize",
    "test_issue_169",
    "test_issue_164",
    "test_issue_165",
    "specialize",
    "test_issue_161",
    "test_issue_163",
    "numba.tests.test_tuple_return",
    "array_global",
    "oldnumba.annotate.annotate",
    "servicelib.service",
    "numba.servicelib.threadlocal",
    "oldnumba.normalize",
    "viz",
    "test_unpacking",
    "oldnumba.tools.astformat",
    "test_nan",
    "nvvmutils",
    "tests.cudapy.test_globals",
    "findlib",
    "issues.test_issue_297",
    "tests.array_exprs.test_vmdot",
    "math_tests.test_complex",
    "typesystem.tests.test_conversion",
    "lowering",
    "cudadrv.test_cuda_ndarray",
    "numba.tests.test_create_arrays",
    "descriptors",
    "tests.cudadrv.test_cuda_memory",
    "source.conf",
    "test_extension_class_specializations",
    "tests.conftest",
    "oldnumba.tests.test_tuple",
    "oldnumba.macros",
    "mathmodule",
    "astviz",
    "numba.cuda",
    "cudapy.runtests",
    "oldnumba.utility.cbuilder",
    "coerce",
    "tests.arrays",
    "oldnumba.random.random",
    "oldnumba.control_flow.reaching",
    "oldnumba.tests.prange",
    "minivect.miniutils",
    "generator.tests",
    "tests.py2x.test_py2raise",
    "oldnumba.type_inference.modules.numpyufuncs",
    "examples.objects",
    "oldnumba.exttypes.tests",
    "numba.cuda.tests.cudapy.test_atomics",
    "cuda.tests.cudadrv.test_cuda_memory",
    "oldnumba.tests.array_exprs.test_array_math",
    "oldnumba.tests.ops.test_binary_ops",
    "oldnumba.containers.typedlist",
    "support.numpy_support.slicenodes",
    "control_flow.tests.test_w_uninitialized_while",
    "test_idiv",
    "asdl.schema",
    "docs.ams_presentation.linregr_bench",
    "tests.test_unbound_variables",
    "tests.test_unpacking",
    "oldnumba.typesystem.ssatypes",
    "ams_presentation.linregr_numba",
    "cfgviz",
    "support.tests.test_random",
    "oldnumba.tests.test_locals_override",
    "oldnumba.tests.issues.test_issue_118",
    "true_div_usecase",
    "examples.numba_decimal",
    "oldnumba.tests.issues.test_issue_117",
    "tests.test_cffi",
    "oldnumba.tests.issues.test_issue_112",
    "bm_euler",
    "tests.array_exprs.test_slicing",
    "typing.builtins",
    "tests.foreign_call.test_ctypes_call",
    "test_raise",
    "oldnumba.exttypes.tests.autojit.test_unannotated_extension_methods",
    "test_typeconv",
    "issues.test_issue_192",
    "oldnumba.typesystem.tests.test_type_properties",
    "oldnumba.typesystem.templatetypes",
    "tests.test_getattr",
    "register",
    "tests.test_typed_list",
    "cudadrv.test_pinned",
    "tests.issues.test_issue_159",
    "oldnumba.ir.build",
    "npydecl",
    "tools.astformat",
    "numba.cuda.tests.cudapy.test_matmul",
    "test_allmath",
    "oldnumba.specialize.funccalls",
    "oldnumba.tests.test_autojit",
    "libdevice",
    "oldnumba.tests.test_print_function",
    "cbuilder",
    "tests.test_build",
    "tests.test_avg2d",
    "autojitclass",
    "numba.tests.test_cffi",
    "tests.array_exprs.test_array_math",
    "wrappers",
    "utility.cbuilder.refcounting",
    "numpy_support",
    "types.extensiontype",
    "loops",
    "nodes.extnodes",
    "numba.cffi_support",
    "numba.cuda.tests.cudadrv.test_inline_ptx",
    "support.tests.test_ctypes",
    "docs.ams_presentation.linregr_numbapro",
    "test_builtin_complex",
    "drvapi",
    "oldnumba.tests.prange.test_prange_iteration_space",
    "basenodes",
    "tests.test_pycc_tresult",
    "oldnumba.codegen.complexsupport",
    "intrinsics",
    "typesystem.tbaa",
    "numba.cuda.cudadrv.ndarray",
    "numba.npyufunc",
    "utility.cbuilder.library",
    "minivect.complex_support",
    "exttypes.tests.test_vtables",
    "base",
    "cuda.tests.cudapy.test_boolean",
    "tests.builtins.test_builtin_float",
    "oldnumba.tests.test_intrinsic",
    "fbcorr",
    "oldnumba.containers.typedtuple",
    "extensibletype",
    "oldnumba.tests.foreign_call.test_ctypes_call",
    "numba.ctypes_utils",
    "test_template_types",
    "excnodes",
    "oldnumba.tests.issues.test_compare",
    "minivect.tests.test_hoisting",
    "test_random",
    "devicearray",
    "oldnumba.ir.generator.astgen",
    "condarecipe.mandel",
    "issues.test_issue_198",
    "oldnumba.utils",
    "test_unpack_sequence",
    "test_compare",
    "test_random_gibbs",
    "cuda.target",
    "numba.cuda.api",
    "validate",
    "cudapy.test_array_args",
    "oldnumba.exttypes.tests.test_extension_sizeof",
    "oldnumba.templating",
    "benchmarks.runall",
    "typeconv.typeconv",
    "tests.test_print_function",
    "numba.special",
    "minivect.llvm_codegen",
    "tests.builtins.test_builtin_range",
    "tests.builtins",
    "cuda.cudadrv.devices",
    "oldnumba.asdl.common.spark",
    "schema",
    "test_good",
    "oldnumba.minivect",
    "array_exprs.test_vmdot",
    "tests.test_slicing",
    "test_issue_172",
    "numba.cuda.tests.cudadrv.test_pinned",
    "test_device_func",
    "tests.test_dummyarray",
    "oldnumba.tests.test_listcomp",
    "nodes.objectnodes",
    "tests.test_mandelbrot_2",
    "numba.cuda.tests.cudadrv.test_detect",
    "numba.cgutils",
    "numba.cuda.target",
    "numba.cuda.cudadrv.nvvm",
    "tests.test_conversion",
    "docs.make_toc",
    "tests.cudapy.test_sync",
    "bitwise",
    "attributetable",
    "tests.test_extern_call",
    "oldnumba.reporting",
    "cuda.tests.cudadrv.test_select_device",
    "test_unbound_variables",
    "numba.assume",
    "examples.ra24",
    "tests.cudapy",
    "build",
    "oldnumba.tests.builtins.test_builtin_str",
    "numba.cuda.cudadrv.drvapi",
    "oldnumba.tests.array_exprs.test_array_expressions",
    "buildscripts.condarecipe.local.run_test",
    "oldnumba.support.tests.test_random",
    "test_unary_ops",
    "exttypes.entrypoints",
    "tests.compile_with_pycc",
    "llvm_testutils",
    "typesystem.universe",
    "numba.tests.test_jitclasses",
    "test_nvvm_driver",
    "generator.formatting",
    "asdl.tests.test_good",
    "numba.tests.test_array_return",
    "tests.cudadrv.test_cuda_array_slicing",
    "oldnumba.tests.broken_issues.test_bitwise_harder",
    "cuda.tests.cudapy.test_montecarlo",
    "benchmarks.bm_laplace2d",
    "oldnumba.control_flow.tests.test_w_uninitialized_while",
    "minicode",
    "oldnumba.type_inference.tests",
    "targets.mathimpl",
    "tests.issues.test_issue_321",
    "typesystem.constants",
    "oldnumba.tests.np",
    "typesystem",
    "module_type_inference",
    "numba.cuda.tests.cudapy.test_blackscholes",
    "oldnumba.exttypes.tests.test_extension_types",
    "control_flow.tests.test_ast_cfg",
    "tests.test_extension_sizeof",
    "ir.generator.tests",
    "templatetypes",
    "tests.test_create_arrays",
    "tests.cudadrv.test_reset_device",
    "compiler",
    "numba.tests.test_operators",
    "cuda.tests.cudadrv.test_cuda_driver",
    "numba.irpasses",
    "typesystem.itypesystem",
    "viz.cfgviz",
    "test_ufunc_type_inference",
    "ir.generator.tests.test_build",
    "test_addressof",
    "sigutils",
    "test_laplace",
    "tests.closures.test_closure",
    "common",
    "test_indexing",
    "tests.cudadrv.test_detect",
    "docs.gh-pages",
    "oldnumba.type_inference.tests.test_typesets",
    "test_issue_57",
    "oldnumba.tests.builtins.test_builtin_complex",
    "test_cffi",
    "type_inference.deferred",
    "oldnumba.typesystem.defaults",
    "scrape_multiarray_api",
    "cuda.cudadrv.devicearray",
    "numba.ctypes_support",
    "oldnumba.tests.builtins.test_builtin_zip",
    "test_prange",
    "oldnumba.testing.tests.test_user_doctest",
    "oldnumba.multiarray_api",
    "oldnumba.utility.math_utilities",
    "test_ast_cfg",
    "missing",
    "oldnumba.typesystem",
    "test_prange_issue_24",
    "tests.test_for_in_range",
    "oldnumba.tests.test_numbafunction",
    "asdl.tests",
    "test_fbcorr",
    "numba.callwrapper",
    "oldnumba.ir.generator.formatting",
    "oldnumba.tests.issues.test_issue_125",
    "ctypes_values",
    "test_diffusion",
    "numba.cuda.tests.cudapy.test_array_args",
    "minivect.miniast",
    "objects",
    "context",
    "test_powi",
    "typesystem.templatetypes",
    "cuda.cudadrv.ndarray",
    "tests.testutils",
    "control_flow.reaching",
    "asdl",
    "oldnumba.type_inference.tests.test_user_type_inference",
    "type_inference.modules.builtinmodule",
    "test_inline_ptx",
    "tests.test_type_constructors",
    "oldnumba.pipeline",
    "oldnumba.array_validation",
    "oldnumba.containers.tests",
    "oldnumba.tests.test_types",
    "runner",
    "cudapy.test_array",
    "numba.macro",
    "numba.cuda.tests.cudapy.test_complex_kernel",
    "tests.test_typesets",
    "nodes.numpynodes",
    "issues.test_issue_169",
    "oldnumba.tests.test_forloop",
    "issues.test_issue_165",
    "issues.test_issue_164",
    "issues.test_issue_161",
    "issues.test_issue_163",
    "typing.npydecl",
    "targets.cpu",
    "imputils",
    "tests.test_bad",
    "oldnumba.codegen.debug",
    "cuda.libdevice",
    "pointers.test_pointers",
    "test_ifexp",
    "asdl.tests.test_bad",
    "cudadrv.drvapi",
    "oldnumba.tests.test_fbcorr",
    "test_cuda_driver",
    "deferred",
    "test_issue_184",
    "test_issue_185",
    "tests.test_multiarray_api",
    "cudadrv.test_nvvm_driver",
    "error",
    "numpy_support.slicing",
    "oldnumba.annotate.annotators",
    "minivect.ctypes_conversion",
    "oldnumba.tools",
    "test_circular_type_inference",
    "tests.test_addressof",
    "minivect.graphviz",
    "buildscripts.condarecipe.local",
    "oldnumba.tests.test_ast_forloop",
    "rules",
    "cuda.compiler",
    "cuda.cudadrv.error",
    "tests.test_const_folding",
    "oldnumba.support.tests.test_random.test_random_gibbs",
    "oldnumba.typesystem.llvmtypes",
    "oldnumba.tests.test_nan",
    "tests.cudapy.test_intrinsics",
    "tests.true_div_usecase",
    "complex_support",
    "ir.generator.visitorgen",
    "ir.generator",
    "deps.pyextensibletype",
    "extensiontype",
    "usecases",
    "tests.test_globals_builtins",
    "test_getattr",
    "issues.test_issue_126",
    "numba.findlib",
    "condarecipe",
    "numba.cuda.tests.cudadrv.test_cuda_memory",
    "utility.math_utilities",
    "tests.test_array_manipulation",
    "oldnumba.exttypes.autojitmeta",
    "typesystem.tests.test_type_properties",
    "targets.registry",
    "tests.test_tuple_return",
    "source",
    "numba.tests.usecases",
    "numba.tests.test_ir",
    "tests.cudadrv.test_cuda_auto_context",
    "numba.tests.test_indexing",
    "test_numpyadapt",
    "numba.dispatcher",
    "tests.test_ifexp",
    "linregr_numba",
    "docs.update-release-notes",
    "numba.cuda.cudadrv.libs",
    "odict",
    "tests.math_tests.test_math",
    "numba.pycc.llvm_types",
    "array_validation",
    "builtins.test_builtin_pow",
    "test_modulo",
    "oldnumba.tests.issues.test_issue_138",
    "test_builtin_abs",
    "tests.np.test_numpy_calls",
    "api",
    "minierror",
    "methods",
    "oldnumba.tests.test_multiarray_api",
    "oldnumba.exttypes.types",
    "traits",
    "buildscripts.condarecipe.run_test",
    "examples",
    "pyapi",
    "oldnumba.type_inference.modules.builtinmodule",
    "extensibletype.test",
    "dummyarray",
    "tests.pointers.test_null",
    "ir.generator.build",
    "cbuilder.numbacdef",
    "extnodes",
    "tests.array_exprs.test_broadcasting",
    "autojitmeta",
    "minivect.tests.test_specializations",
    "tests.issues.test_issue_172",
    "tests.test_unsigned_arith",
    "test_complex",
    "tests.pointers",
    "run",
    "exttypes.attributetable",
    "test_astgen",
    "math_tests.test_numpy_math",
    "tests.test_withpython",
    "cuda.tests.cudapy.test_py2_div_issue",
    "step",
    "numba.cuda.tests",
    "pycc.llvm_types",
    "generator.classgen",
    "cuda.decorators",
    "test_extension_types",
    "optimize",
    "pipeline",
    "oldnumba.utility.cbuilder.refcounting",
    "tests.test_typenames",
    "oldnumba.type_inference.tests.test_type_inference",
    "oldnumba.tests.issues.test_issue_313",
    "oldnumba.nodes.bitwise",
    "test_visitors",
    "oldnumba.testing.tests",
    "block",
    "oldnumba.tests.issues.test_issue_77",
    "gh-pages",
    "tests.test_usecases",
    "oldnumba.exttypes.virtual",
    "examples.sum",
    "numba.cuda.tests.cudadrv.test_reset_device",
    "builtins.test_object_builtins",
    "tests.test_blackscholes",
    "typematch",
    "test_user_exc",
    "tests.test_modulo",
    "test_object_iteration",
    "tests.test_datetime",
    "translate",
    "exttypes.types",
    "numba.npyufunc.wrappers",
    "oldnumba.asdl.common.asdl",
    "oldnumba.typesystem.numpy_support",
    "cuda.testing",
    "prange.test_prange_iteration_space",
    "cuda.tests.cudadrv.test_array_attr",
    "nodes.metadata",
    "tests.test_overflow",
    "oldnumba.scrape_multiarray_api",
    "tests.test_bubblesort",
    "numba.typeconv.typeconv",
    "typesystem.tests.test_template_types",
    "cuda.tests.cudadrv.runtests",
    "numba.cuda.tests.cudadrv.test_cuda_ndarray",
    "typeconv",
    "tests.cudapy.test_py2_div_issue",
    "oldnumba.stdio_util",
    "typesystem.types",
    "tests.test_dataflow",
    "oldnumba.naming",
    "issues.test_issue_172",
    "oldnumba.nodes.llvmnodes",
    "oldnumba.support.tests",
    "cudapy.test_py2_div_issue",
    "exttypes.tests.test_extension_attributes",
    "tests.pointers.test_pointers",
    "cudadrv.test_cuda_array_slicing",
    "oldnumba.codegen.globalconstants",
    "tests.math_tests.test_numpy_math",
    "tests.test_maxmin",
    "test_bitwise_ops",
    "oldnumba.tests.ops",
    "test_issue_198",
    "cbuilder.refcounting",
    "numpymodule",
    "pyextensibletype.extensibletype.test.test_pstdint",
    "tests.cudapy.test_blackscholes",
    "np.test_numpy_type_inference",
    "test_array_math",
    "numba.cuda.tests.cudapy.test_globals",
    "oldnumba.control_flow.tests.test_w_uninitialized",
    "cudamath",
    "tests.test_vtables",
    "exttypes.autojitmeta",
    "oldnumba.asdl.py2_7.spark",
    "test_ast_arrays",
    "test_issues",
    "tests.autojit.test_extension_class_specializations",
    "control_flow.graphviz",
    "llvmcontext",
    "oldnumba.minivect.minicode",
    "linregr_numbapro_cuda",
    "ufuncs",
    "oldnumba.control_flow.debug",
    "tests.test_ast_arrays",
    "modules.builtinmodule",
    "numba.cuda.testing",
    "issues",
    "tests.test_interproc",
    "viz.graphviz",
    "oldnumba.functions",
    "oldnumba.typesystem.typeutils",
    "cudadrv",
    "codeutils",
    "numba.targets",
    "demo.run",
    "minivect.treepath",
    "test_boolean",
    "oldnumba.tests.test_indexing",
    "tests.cudapy.test_nondet",
    "oldnumba.closures",
    "oldnumba.tests.broken_issues.autojit_ext_method_call",
    "tests.test_diffusion",
    "tests.test_strings",
    "oldnumba.utility.cbuilder.library",
    "oldnumba.tests.math_tests.test_numpy_math",
    "sliceutils",
    "miniutils",
    "numba.cuda.tests.cudapy.test_device_func",
    "numbatypes",
    "oldnumba.tests.test_const_folding",
    "py2_7.spark",
    "ir.generator.formatting",
    "tests.cudapy.test_laplace",
    "test_dataflow",
    "test_w_unreachable",
    "support.numpy_support.sliceutils",
    "update-release-notes",
    "oldnumba.tests.test_forces",
    "tests.test_extension_methods",
    "annotate.annotate",
    "type_inference.tests",
    "test_localmem",
    "tests.foreign_call",
    "test_builtin_chr",
    "tests.issues.test_issue_309",
    "ir.generator.classgen",
    "oldnumba.codegen.refcounting",
    "oldnumba.tests.builtins.test_builtin_abs",
    "tests.issues.test_issue_305",
    "oldnumba.traits",
    "tests.test_w_uninitialized",
    "test_closure_type_inference",
    "test_listcomp",
    "py2only",
    "oldnumba.tests.issues.test_issue_126",
    "oldnumba.exttypes.tests.test_extension_attributes",
    "tests.foreign_call.test_cffi_call",
    "oldnumba.nodes.usernode",
    "test_user_type_inference",
    "oldnumba.minivect.tests.test_specializations",
    "testing.test_support",
    "libc",
    "asdl.tests.support",
    "cuda.tests.cudadrv.test_linker",
    "tests.cudapy.test_atomics",
    "conftest",
    "oldnumba.codegen.codeutils",
    "tests.issues.test_issue_169",
    "tests.issues.test_issue_164",
    "tests.issues.test_issue_165",
    "tests.issues.test_issue_163",
    "test_cuda_auto_context",
    "tests.issues.test_issue_161",
    "tests.test_types",
    "modules.numpymodule",
    "oldnumba.tests.builtins.test_builtin_int",
    "test_forces",
    "tools",
    "tests.test_type_recognition",
    "common.spark",
    "typesystem.llvmtypes",
    "tests.builtins.test_builtin_str",
    "test_builtin_int",
    "llvmtypes",
    "oldnumba.tests.issues.test_issue_309",
    "containers.tests.test_typed_tuple",
    "oldnumba.tests.issues.test_issue_305",
    "test.test_perfecthashing",
    "tests.test_cfg_type_infer",
    "oldnumba.control_flow.tests.test_w_uninitialized_for",
    "ir_capture",
    "numba.tests",
    "tests.test_extension_warnings",
    "nodes.usernode",
    "minivect.minierror",
    "tests.test_structref",
    "bm_laplace2d",
    "nodes.structnodes",
    "oldnumba.odict",
    "bubblesort",
    "docs.source.conf",
    "asdl.common.asdl",
    "oldnumba.tests.test_struct",
    "issues.test_compare",
    "test_issue_321",
    "numba.cuda.tests.cudapy.test_autojit",
    "llvmwrapper",
    "tests.cudapy.runtests",
    "test_builtins",
    "tests.test_specializations",
    "intrinsic.numba_intrinsic",
    "oldnumba.control_flow.tests.test_circular_type_inference",
    "oldnumba.tests.issues.test_potential_gcc_error",
    "test_exceptions",
    "test_issue_216",
    "ir.generator.astgen",
    "test_issue_212",
    "numba.cuda.tests.cudadrv.test_cuda_array_slicing",
    "test_reset_device",
    "tests.test_parametrize",
    "numba.dataflow",
    "oldnumba.intrinsic.intrinsic",
    "codegen.llvmcontext",
    "oldnumba.external.pyapi",
    "test_ast_getattr",
    "generator.build",
    "oldnumba.intrinsic.numba_intrinsic",
    "oldnumba.specialize.loops",
    "oldnumba.exttypes.ordering",
    "cuda.stubs",
    "pycc",
    "pycc_example",
    "oldnumba.utility",
    "oldnumba.typesystem.closuretypes",
    "test_callbacks",
    "docs.ams_presentation.linregr_numbapro_cuda",
    "interpreter",
    "oldnumba.exttypes.tests.test_extension_inheritance",
    "oldnumba.typesystem.tests.test_typeof",
    "builtins.test_builtin_float",
    "notebooks",
    "pyextensibletype.demo.run",
    "test_issue_215",
    "oldnumba.containers.tests.test_typed_list",
    "numba.cuda.libdevice",
    "control_flow.tests.test_w_unreachable",
    "tests.test_struct",
    "tests.issues",
    "tests.broken_issues",
    "testing.tests",
    "docs",
    "oldnumba.typesystem.typeset",
    "test_types",
    "tests.builtins.test_builtin_pow",
    "npyufunc.gufunc",
    "oldnumba.codegen.coerce",
    "tests.arrays.array_global",
    "typesystem.numbatypes",
    "treepath",
    "oldnumba.tests.pointers.test_pointers",
    "oldnumba.postpasses",
    "cuda.tests.cudapy.test_slicing",
    "tests.issues.test_potential_gcc_error",
    "tests.test_array_return",
    "cudapy.test_atomics",
    "oldnumba.nodes.metadata",
    "array_exprs.test_slicing2",
    "numba_decimal",
    "tests.test_extension_type_inference",
    "types.methods",
    "array_exprs.test_array_expressions",
    "special",
    "test_builtin_enumerate",
    "gen_type_conversion",
    "oldnumba.array_expressions",
    "minivect.pydot.pydot",
    "servicelib.threadlocal",
    "tests.prange.test_prange_iteration_space",
    "codegen.translate",
    "oldnumba.oset",
    "examples.pointers",
    "external.pyapi",
    "test_mathlib",
    "oldnumba.tests.py2x.test_py2raise",
    "oldnumba.metadata",
    "tests.test_user_type_inference",
    "cudadrv.enums",
    "numba.cuda.tests.cudapy",
    "oldnumba.testing.test_support",
    "cudadrv.ndarray",
    "test_tuple",
    "typesystem.ctypestypes",
    "test.test_interning",
    "oldnumba.tests.test_overflow",
    "oldnumba.tests.issues.test_issue_159",
    "oldnumba.nodes.numpynodes",
    "type_inference.modules.numpymodule",
    "tests.issues.test_issue_204",
    "ordering",
    "exttypes.tests.test_extension_warnings",
    "mathimpl",
    "oldnumba.tests.test_for_in_range",
    "oldnumba.tests.broken_issues",
    "tests.issues.test_issue_198",
    "oldnumba.ir.generator.tests.test_build",
    "numba.targets.imputils",
    "LinearRegr",
    "oldnumba.ir.generator.generator",
    "test_dot",
    "ams_presentation.linregr_bench",
    "numba.tests.test_structref",
    "tests.test_locals",
    "builtins.test_builtin_zip",
    "autojit.test_extension_class_specializations",
    "pointers",
    "issues.test_potential_gcc_error",
    "oldnumba.nodes.pointernodes",
    "foreign_call.test_ctypes_call",
    "buildscripts",
    "tests.test_exceptions",
    "oldnumba.intrinsic",
    "test_extension_sizeof",
    "pyextensibletype.extensibletype.test.test_interning",
    "numba.tests.test_dispatcher",
    "tests.ops.test_unary_ops",
    "numba.tests.test_loopdetection",
    "oldnumba.exttypes.tests.test_vtables",
    "oldnumba.control_flow.graphviz",
    "test_binary_ops",
    "oldnumba.tests.issues.test_issue_56",
    "oldnumba.tests.issues.test_issue_57",
    "oldnumba.tests.issues.test_issue_50",
    "cudadrv.nvvm",
    "cudapy.test_boolean",
    "findmulti",
    "coercionnodes",
    "tests.cudapy.test_array_args",
    "oldnumba.nodes.cfnodes",
    "test_ir",
    "test_w_uninitialized_while",
    "test_cuda_ndarray",
    "intrinsic",
    "oldnumba.specialize.comparisons",
    "oldnumba.tests.builtins.test_builtin_range",
    "numba.typing.context",
    "exttypes.tests.autojit.test_extension_class_specializations",
    "numba.cuda.cudadrv",
    "tests.test_unpack_sequence",
    "typeutils",
    "test_support",
    "numba.tests.test_array_attr",
    "numba.cuda.tests.cudapy.test_constmem",
    "test_overflow",
    "condatestall",
    "tests.closures",
    "math_tests.test_allmath",
    "test_if",
    "tests.cudadrv.test_inline_ptx",
    "issues.test_issue_159",
    "tests.test_cstring",
    "oldnumba.viz.cfgviz",
    "test_preloading",
    "examples.bubblesort",
    "numba.tests.test_numpyadapt",
    "annotate.textrender",
    "exttypes.tests",
    "test_multiarray_api",
    "oldnumba.tests.issues.test_issue_321",
    "cudapy.test_powi",
    "exttypes.types.methods",
    "oldnumba.minivect.codegen",
    "extensibletype.test.test_perfecthashing",
    "cuda.tests.cudapy",
    "delete_cfnode",
    "annotate.tests",
    "oldnumba.asdl",
    "numbamodule",
    "test_tuple_return",
    "symtab",
    "npyufunc.sigparse",
    "test_py2raise",
    "docs.ams_presentation.linregr_python",
    "numba.tests.test_numberctor",
    "test_py2_div_issue",
    "oldnumba.tests.test_ifexp",
    "testing.doctest_support",
    "oldnumba.wrapping",
    "closurenodes",
    "typesystem.closuretypes",
    "tests.test_hoisting",
    "cuda.nvvmutils",
    "oldnumba.nodes.constnodes",
    "generator.tests.test_build",
    "condarecipe.devel.mandel",
    "tests.test_raise",
    "macros",
    "oldnumba.nodes.coercionnodes",
    "exttypes.tests.test_extension_methods",
    "testing.tests.test_parametrize",
    "arrays.array_global",
    "cuda.tests.cudapy.test_matmul",
    "oldnumba.tests.test_globals_builtins",
    "tests.test_typeconv",
    "oldnumba.asdl.common",
    "tests.test_object_iteration",
    "numba.cuda.tests.cudapy.test_powi",
    "cuda.cudadrv.drvapi",
    "cuda.tests.cudapy.test_nondet",
    "oldnumba.tests.ops.test_unary_ops",
    "cudadrv.test_reset_device",
    "ir.generator.generator",
    "test_redefine",
    "numba.cuda.tests.cudadrv",
    "test_bad",
    "oldnumba.tests.foreign_call.test_cffi_call",
    "generator.naming",
    "ams_presentation.linregr_numbapro_cuda",
    "tests.test_typingerror",
    "oldnumba.type_inference.modules.mathmodule",
    "numba.tests.test_bubblesort",
    "oldnumba.tests.ops.test_bitwise_ops",
    "test_host_alloc",
    "numba.targets.base",
    "buildscripts.condarecipe.devel.mandel",
    "np.test_numpy_calls",
    "test_closure",
    "control_flow",
    "oldnumba.nodes.objectnodes",
    "support.numpy_support",
    "test_dispatcher",
    "oldnumba.minivect.tests.test_operators",
    "oldnumba.symtab",
    "oldnumba.type_inference.modules.utils",
    "oldnumba.minivect.minivisitor",
    "tests.array_exprs.test_array_expressions",
    "oldnumba.exttypes.methodtable",
    "examples.ctypes_example",
    "tests.test_object_conversion",
    "oldnumba.tests.builtins.test_builtin_float",
    "annotators",
    "tests.math_tests.test_allmath",
    "ir.generator.tests.test_astgen",
    "tests.issues.test_issue_212",
    "targets.base",
    "test_interproc",
    "tests.issues.test_issue_216",
    "tests.py2only",
    "dataflow",
    "test_atomics",
    "numbacdef",
    "tests.issues.test_issue_184",
    "tests.issues.test_issue_185",
    "oldnumba.testing.user_support",
    "numba.ir",
    "textrender",
    "oldnumba.ndarray_helpers",
    "tempnodes",
    "demo",
    "numba.cuda.cudadrv.devicearray",
    "test_numpy_calls",
    "type_inference.tests.test_user_type_inference",
    "tests.math_tests.test_nopython_math",
    "examples.mandel",
    "pythonapi",
    "oldnumba.llvm_types",
    "tests.test_user_doctest",
    "numba.targets.npyimpl",
    "numba.tests.test_nan",
    "oldnumba.viz",
    "oldnumba.special",
    "test_pinned",
    "codegen.codeutils",
    "test_forloop",
    "cudapy.test_matmul",
    "tests.test_extension_types",
    "ir.generator.tests.test_visitors",
    "test_interning",
    "tests.test_complex_array",
    "infer",
    "minivisitor",
    "reporting",
    "cuda.tests.cudadrv",
    "test_nosource",
    "htmlrender",
    "annotate.htmlrender",
    "cudapy.test_intrinsics",
    "xmldumper",
    "tests.closures.test_closure_type_inference",
    "oldnumba.tests.issues.test_issue_216",
    "oldnumba.tests.issues.test_issue_215",
    "oldnumba.tests.issues.test_issue_212",
    "oldnumba.tests.math_tests.test_nopython_math",
    "comparisons",
    "tests.test_lists",
    "tests.ops.test_bitwise_ops",
    "test_issue_50",
    "numba.tests.compile_with_pycc",
    "oldnumba.typesystem.lowering",
    "cudapy.test_autojit",
    "test_issue_56",
    "oldnumba.control_flow.tests",
    "oldnumba.tests.broken_issues.test_log1p_vectorize",
    "deps.pyextensibletype.extensibletype",
    "oldnumba.tests.math_tests.test_complex",
    "test_slicing2",
    "modules.mathmodule",
    "oldnumba",
    "oldnumba.type_inference.deferred",
    "targets.descriptors",
    "cudadrv.driver",
    "ctypestypes",
    "cfnodes",
    "tests",
    "globalconstants",
    "issues.test_issue_125",
    "oldnumba.tests.py2x",
    "test_array_return",
    "oldnumba.tests.test_llarray",
    "oldnumba.tests.test_avg2d",
    "oset",
    "tests.cudadrv.test_host_alloc",
    "test_while",
    "test_issue_309",
    "test_issue_305",
    "tests.test_forloop",
    "closures.test_closure",
    "library",
    "numba.cuda.decorators",
    "oldnumba.tests.test_extern_call",
    "oldnumba.specialize.exceptions",
    "foreign_call.test_cffi_call",
    "oldnumba.type_inference.infer",
    "test_usecases",
    "type_inference.tests.test_extension_type_inference",
    "oldnumba.ir.generator.tests",
    "tests.ctypes_values",
    "type_inference",
    "test_builtin_zip",
    "oldnumba.tests.test_strings",
    "cudadrv.test_detect",
    "test_sync",
    "reaching",
    "typesystem.numpy_support",
    "support.tests.test_ctypes_gibbs",
    "cudadecl",
    "numba.cuda.tests.cudapy.test_mandel",
    "np",
    "oldnumba.wrapping.compiler",
    "oldnumba.exttypes.tests.test_extension_methods",
    "minivect.tests.test_operators",
    "oldnumba.tests.test_dot",
    "specialize.funccalls",
    "containers.register",
    "universe",
    "oldnumba.minivect.tests.testutils",
    "tests.test_rshift",
    "tests.test_recursion",
    "oldnumba.tests.builtins.test_builtin_minmax",
    "generator.tests.testutils",
    "registry",
    "exttypes.jitclass",
    "numba.targets.descriptors",
    "tests.cudadrv.test_linker",
    "control_flow.tests.test_circular_type_inference",
    "numba.cuda.tests.cudadrv.test_events",
    "numba.cuda.tests.cudadrv.test_select_device",
    "compileclass",
    "utility",
    "ops.test_unary_ops",
    "oldnumba.nodes.basenodes",
    "numba.cuda.cudadrv.enums",
    "oldnumba.exttypes.tests.test_type_recognition",
    "oldnumba.tests.test_ast_arrays",
    "test_binary_harder",
    "mandel",
    "test_builtin_round",
    "oldnumba.tests.test_rshift",
    "containers.typedlist",
    "oldnumba.viz.astviz",
    "testing.user_support",
    "exttypes.tests.test_type_recognition",
    "nodes.callnodes",
    "oldnumba.minivect.pydot.pydot",
    "nodes.basenodes",
    "test_random.test_random_gibbs",
    "tests.issues.test_issue_126",
    "numba.unittest_support",
    "test_ast_forloop",
    "broken_issues.autojit_ext_method_call",
    "numba.tests.test_ufuncbuilding",
    "generator.generator",
    "npyufunc",
    "tests.issues.test_issue_125",
    "tests.builtins.test_builtin_zip",
    "type_inference.modules.numbamodule",
    "array_exprs.test_slicing",
    "oldnumba.ufunc_builder",
    "numba.pycc",
    "numba.tests.test_looplifting",
    "test_rshift",
    "issues.test_issue_204",
    "specialize.comparisons",
    "builtinmodule",
    "oldnumba.tests.issues.test_issue_172",
    "functions",
    "oldnumba.minivect.minierror",
    "external.libc",
    "virtual",
    "tests.test_good",
    "test_numbafunction",
    "kinds",
    "structnodes",
    "cuda.tests",
    "oldnumba.threads",
    "test_sum",
    "ams_presentation.linregr_numbapro",
    "test_filter2d",
    "ndarray",
    "oldnumba.tests.test_cstring",
    "tests.test_ast_getattr",
    "strings",
    "cuda.tests.cudapy.test_laplace",
    "oldnumba.typesystem.numbatypes",
    "oldnumba.tests.issues.test_issue_192",
    "oldnumba.tests.issues.test_issue_198",
    "tests.issues.test_issue_252",
    "test_object_counting"
]