[
    "urls",
    "views",
    "models",
    "agenda.views.date_based",
    "templatetags",
    "templatetags.next_previous",
    "agenda.templatetags.agenda",
    "agenda.templatetags",
    "agenda.models",
    "views.vobject_django",
    "templatetags.agenda",
    "agenda.admin",
    "sitemaps",
    "date_based",
    "admin",
    "vobject_django",
    "agenda.urls",
    "agenda.views",
    "agenda.feeds",
    "agenda.views.vobject_django",
    "views.date_based",
    "next_previous",
    "agenda.templatetags.next_previous",
    "agenda",
    "agenda.sitemaps",
    "feeds"
]