{
    "libs": [
        "threading",
        "urllib2",
        "subprocess",
        "re",
        "json",
        "dir_util",
        "sublime_plugin",
        "os",
        "sublime"
    ]
}