{
    "archive_url": "https://api.github.com/repos/gornostal/Modific/{archive_format}{/ref}",
    "assignees_url": "https://api.github.com/repos/gornostal/Modific/assignees{/user}",
    "blobs_url": "https://api.github.com/repos/gornostal/Modific/git/blobs{/sha}",
    "branches_url": "https://api.github.com/repos/gornostal/Modific/branches{/branch}",
    "clone_url": "https://github.com/gornostal/Modific.git",
    "collaborators_url": "https://api.github.com/repos/gornostal/Modific/collaborators{/collaborator}",
    "comments_url": "https://api.github.com/repos/gornostal/Modific/comments{/number}",
    "commits_url": "https://api.github.com/repos/gornostal/Modific/commits{/sha}",
    "compare_url": "https://api.github.com/repos/gornostal/Modific/compare/{base}...{head}",
    "contents_url": "https://api.github.com/repos/gornostal/Modific/contents/{+path}",
    "contributors_url": "https://api.github.com/repos/gornostal/Modific/contributors",
    "created_at": "2012-06-01T16:51:56Z",
    "default_branch": "master",
    "description": "Highlight lines changed since the last commit (supports Git, SVN, Bazaar and Mercurial) / ST2(3) plugin",
    "downloads_url": "https://api.github.com/repos/gornostal/Modific/downloads",
    "events_url": "https://api.github.com/repos/gornostal/Modific/events",
    "fork": false,
    "forks": 22,
    "forks_count": 22,
    "forks_url": "https://api.github.com/repos/gornostal/Modific/forks",
    "full_name": "gornostal/Modific",
    "git_commits_url": "https://api.github.com/repos/gornostal/Modific/git/commits{/sha}",
    "git_refs_url": "https://api.github.com/repos/gornostal/Modific/git/refs{/sha}",
    "git_tags_url": "https://api.github.com/repos/gornostal/Modific/git/tags{/sha}",
    "git_url": "git://github.com/gornostal/Modific.git",
    "has_downloads": true,
    "has_issues": true,
    "has_wiki": false,
    "homepage": "",
    "hooks_url": "https://api.github.com/repos/gornostal/Modific/hooks",
    "html_url": "https://github.com/gornostal/Modific",
    "id": 4521941,
    "issue_comment_url": "https://api.github.com/repos/gornostal/Modific/issues/comments/{number}",
    "issue_events_url": "https://api.github.com/repos/gornostal/Modific/issues/events{/number}",
    "issues_url": "https://api.github.com/repos/gornostal/Modific/issues{/number}",
    "keys_url": "https://api.github.com/repos/gornostal/Modific/keys{/key_id}",
    "labels_url": "https://api.github.com/repos/gornostal/Modific/labels{/name}",
    "language": "Python",
    "languages_url": "https://api.github.com/repos/gornostal/Modific/languages",
    "merges_url": "https://api.github.com/repos/gornostal/Modific/merges",
    "milestones_url": "https://api.github.com/repos/gornostal/Modific/milestones{/number}",
    "mirror_url": null,
    "name": "Modific",
    "notifications_url": "https://api.github.com/repos/gornostal/Modific/notifications{?since,all,participating}",
    "open_issues": 8,
    "open_issues_count": 8,
    "owner": {
        "avatar_url": "https://avatars.githubusercontent.com/u/1202543?",
        "events_url": "https://api.github.com/users/gornostal/events{/privacy}",
        "followers_url": "https://api.github.com/users/gornostal/followers",
        "following_url": "https://api.github.com/users/gornostal/following{/other_user}",
        "gists_url": "https://api.github.com/users/gornostal/gists{/gist_id}",
        "gravatar_id": "d6a9591d1bfe4aa60d9ee8b39d4d8530",
        "html_url": "https://github.com/gornostal",
        "id": 1202543,
        "login": "gornostal",
        "organizations_url": "https://api.github.com/users/gornostal/orgs",
        "received_events_url": "https://api.github.com/users/gornostal/received_events",
        "repos_url": "https://api.github.com/users/gornostal/repos",
        "site_admin": false,
        "starred_url": "https://api.github.com/users/gornostal/starred{/owner}{/repo}",
        "subscriptions_url": "https://api.github.com/users/gornostal/subscriptions",
        "type": "User",
        "url": "https://api.github.com/users/gornostal"
    },
    "private": false,
    "pulls_url": "https://api.github.com/repos/gornostal/Modific/pulls{/number}",
    "pushed_at": "2014-02-14T08:48:37Z",
    "releases_url": "https://api.github.com/repos/gornostal/Modific/releases{/id}",
    "score": 1.0,
    "size": 336,
    "ssh_url": "git@github.com:gornostal/Modific.git",
    "stargazers_count": 345,
    "stargazers_url": "https://api.github.com/repos/gornostal/Modific/stargazers",
    "statuses_url": "https://api.github.com/repos/gornostal/Modific/statuses/{sha}",
    "subscribers_url": "https://api.github.com/repos/gornostal/Modific/subscribers",
    "subscription_url": "https://api.github.com/repos/gornostal/Modific/subscription",
    "svn_url": "https://github.com/gornostal/Modific",
    "tags_url": "https://api.github.com/repos/gornostal/Modific/tags",
    "teams_url": "https://api.github.com/repos/gornostal/Modific/teams",
    "trees_url": "https://api.github.com/repos/gornostal/Modific/git/trees{/sha}",
    "updated_at": "2014-05-06T18:25:44Z",
    "url": "https://api.github.com/repos/gornostal/Modific",
    "watchers": 345,
    "watchers_count": 345
}