{
    "libs": [
        "stat",
        "winioctlcon",
        "warnings",
        "textwrap",
        "gettext",
        "sys",
        "re",
        "win32file",
        "ctypes",
        "sets",
        "copy",
        "os"
    ]
}