[
    "tests",
    "xmlrunner.extra.djangotestrunner",
    "extra",
    "xmlrunner.extra",
    "tests.testsuite",
    "xmlrunner.version",
    "xmlrunner.tests.testsuite",
    "testsuite",
    "src.xmlrunner",
    "src",
    "src.xmlrunner.tests.testsuite",
    "djangotestrunner",
    "xmlrunner",
    "src.xmlrunner.version",
    "version",
    "extra.djangotestrunner",
    "src.xmlrunner.extra.djangotestrunner",
    "xmlrunner.tests",
    "src.xmlrunner.extra",
    "src.xmlrunner.tests"
]