{
    "archive_url": "https://api.github.com/repos/openhatch/oh-mainline/{archive_format}{/ref}",
    "assignees_url": "https://api.github.com/repos/openhatch/oh-mainline/assignees{/user}",
    "blobs_url": "https://api.github.com/repos/openhatch/oh-mainline/git/blobs{/sha}",
    "branches_url": "https://api.github.com/repos/openhatch/oh-mainline/branches{/branch}",
    "clone_url": "https://github.com/openhatch/oh-mainline.git",
    "collaborators_url": "https://api.github.com/repos/openhatch/oh-mainline/collaborators{/collaborator}",
    "comments_url": "https://api.github.com/repos/openhatch/oh-mainline/comments{/number}",
    "commits_url": "https://api.github.com/repos/openhatch/oh-mainline/commits{/sha}",
    "compare_url": "https://api.github.com/repos/openhatch/oh-mainline/compare/{base}...{head}",
    "contents_url": "https://api.github.com/repos/openhatch/oh-mainline/contents/{+path}",
    "contributors_url": "https://api.github.com/repos/openhatch/oh-mainline/contributors",
    "created_at": "2011-11-15T00:33:55Z",
    "default_branch": "master",
    "description": "The code that runs openhatch.org",
    "downloads_url": "https://api.github.com/repos/openhatch/oh-mainline/downloads",
    "events_url": "https://api.github.com/repos/openhatch/oh-mainline/events",
    "fork": false,
    "forks": 127,
    "forks_count": 127,
    "forks_url": "https://api.github.com/repos/openhatch/oh-mainline/forks",
    "full_name": "openhatch/oh-mainline",
    "git_commits_url": "https://api.github.com/repos/openhatch/oh-mainline/git/commits{/sha}",
    "git_refs_url": "https://api.github.com/repos/openhatch/oh-mainline/git/refs{/sha}",
    "git_tags_url": "https://api.github.com/repos/openhatch/oh-mainline/git/tags{/sha}",
    "git_url": "git://github.com/openhatch/oh-mainline.git",
    "has_downloads": true,
    "has_issues": false,
    "has_wiki": false,
    "homepage": "http://openhatch.org",
    "hooks_url": "https://api.github.com/repos/openhatch/oh-mainline/hooks",
    "html_url": "https://github.com/openhatch/oh-mainline",
    "id": 2776635,
    "issue_comment_url": "https://api.github.com/repos/openhatch/oh-mainline/issues/comments/{number}",
    "issue_events_url": "https://api.github.com/repos/openhatch/oh-mainline/issues/events{/number}",
    "issues_url": "https://api.github.com/repos/openhatch/oh-mainline/issues{/number}",
    "keys_url": "https://api.github.com/repos/openhatch/oh-mainline/keys{/key_id}",
    "labels_url": "https://api.github.com/repos/openhatch/oh-mainline/labels{/name}",
    "language": "Python",
    "languages_url": "https://api.github.com/repos/openhatch/oh-mainline/languages",
    "merges_url": "https://api.github.com/repos/openhatch/oh-mainline/merges",
    "milestones_url": "https://api.github.com/repos/openhatch/oh-mainline/milestones{/number}",
    "mirror_url": null,
    "name": "oh-mainline",
    "notifications_url": "https://api.github.com/repos/openhatch/oh-mainline/notifications{?since,all,participating}",
    "open_issues": 19,
    "open_issues_count": 19,
    "owner": {
        "avatar_url": "https://avatars.githubusercontent.com/u/1191811?",
        "events_url": "https://api.github.com/users/openhatch/events{/privacy}",
        "followers_url": "https://api.github.com/users/openhatch/followers",
        "following_url": "https://api.github.com/users/openhatch/following{/other_user}",
        "gists_url": "https://api.github.com/users/openhatch/gists{/gist_id}",
        "gravatar_id": "4fdd629fafd2b4d78dc2fb638f09d528",
        "html_url": "https://github.com/openhatch",
        "id": 1191811,
        "login": "openhatch",
        "organizations_url": "https://api.github.com/users/openhatch/orgs",
        "received_events_url": "https://api.github.com/users/openhatch/received_events",
        "repos_url": "https://api.github.com/users/openhatch/repos",
        "site_admin": false,
        "starred_url": "https://api.github.com/users/openhatch/starred{/owner}{/repo}",
        "subscriptions_url": "https://api.github.com/users/openhatch/subscriptions",
        "type": "Organization",
        "url": "https://api.github.com/users/openhatch"
    },
    "private": false,
    "pulls_url": "https://api.github.com/repos/openhatch/oh-mainline/pulls{/number}",
    "pushed_at": "2014-05-06T18:14:49Z",
    "releases_url": "https://api.github.com/repos/openhatch/oh-mainline/releases{/id}",
    "score": 1.0,
    "size": 85347,
    "ssh_url": "git@github.com:openhatch/oh-mainline.git",
    "stargazers_count": 84,
    "stargazers_url": "https://api.github.com/repos/openhatch/oh-mainline/stargazers",
    "statuses_url": "https://api.github.com/repos/openhatch/oh-mainline/statuses/{sha}",
    "subscribers_url": "https://api.github.com/repos/openhatch/oh-mainline/subscribers",
    "subscription_url": "https://api.github.com/repos/openhatch/oh-mainline/subscription",
    "svn_url": "https://github.com/openhatch/oh-mainline",
    "tags_url": "https://api.github.com/repos/openhatch/oh-mainline/tags",
    "teams_url": "https://api.github.com/repos/openhatch/oh-mainline/teams",
    "trees_url": "https://api.github.com/repos/openhatch/oh-mainline/git/trees{/sha}",
    "updated_at": "2014-05-06T18:14:49Z",
    "url": "https://api.github.com/repos/openhatch/oh-mainline",
    "watchers": 84,
    "watchers_count": 84
}