[
    "tracext",
    "tracext.git.PyGIT",
    "git.git_fs",
    "git",
    "git_fs",
    "PyGIT",
    "git.PyGIT",
    "tracext.git.future27",
    "tracext.git.git_fs",
    "future27",
    "git.future27",
    "tracext.git"
]