{
    "archive_url": "https://api.github.com/repos/jarus/flask-mongokit/{archive_format}{/ref}",
    "assignees_url": "https://api.github.com/repos/jarus/flask-mongokit/assignees{/user}",
    "blobs_url": "https://api.github.com/repos/jarus/flask-mongokit/git/blobs{/sha}",
    "branches_url": "https://api.github.com/repos/jarus/flask-mongokit/branches{/branch}",
    "clone_url": "https://github.com/jarus/flask-mongokit.git",
    "collaborators_url": "https://api.github.com/repos/jarus/flask-mongokit/collaborators{/collaborator}",
    "comments_url": "https://api.github.com/repos/jarus/flask-mongokit/comments{/number}",
    "commits_url": "https://api.github.com/repos/jarus/flask-mongokit/commits{/sha}",
    "compare_url": "https://api.github.com/repos/jarus/flask-mongokit/compare/{base}...{head}",
    "contents_url": "https://api.github.com/repos/jarus/flask-mongokit/contents/{+path}",
    "contributors_url": "https://api.github.com/repos/jarus/flask-mongokit/contributors",
    "created_at": "2011-09-13T18:52:02Z",
    "default_branch": "master",
    "description": "Flask-MongoKit simplifies the use of MongoKit (a powerful MongoDB ORM for Python) within Flask applications",
    "downloads_url": "https://api.github.com/repos/jarus/flask-mongokit/downloads",
    "events_url": "https://api.github.com/repos/jarus/flask-mongokit/events",
    "fork": false,
    "forks": 14,
    "forks_count": 14,
    "forks_url": "https://api.github.com/repos/jarus/flask-mongokit/forks",
    "full_name": "jarus/flask-mongokit",
    "git_commits_url": "https://api.github.com/repos/jarus/flask-mongokit/git/commits{/sha}",
    "git_refs_url": "https://api.github.com/repos/jarus/flask-mongokit/git/refs{/sha}",
    "git_tags_url": "https://api.github.com/repos/jarus/flask-mongokit/git/tags{/sha}",
    "git_url": "git://github.com/jarus/flask-mongokit.git",
    "has_downloads": true,
    "has_issues": true,
    "has_wiki": false,
    "homepage": "http://packages.python.org/Flask-MongoKit/",
    "hooks_url": "https://api.github.com/repos/jarus/flask-mongokit/hooks",
    "html_url": "https://github.com/jarus/flask-mongokit",
    "id": 2380486,
    "issue_comment_url": "https://api.github.com/repos/jarus/flask-mongokit/issues/comments/{number}",
    "issue_events_url": "https://api.github.com/repos/jarus/flask-mongokit/issues/events{/number}",
    "issues_url": "https://api.github.com/repos/jarus/flask-mongokit/issues{/number}",
    "keys_url": "https://api.github.com/repos/jarus/flask-mongokit/keys{/key_id}",
    "labels_url": "https://api.github.com/repos/jarus/flask-mongokit/labels{/name}",
    "language": "Python",
    "languages_url": "https://api.github.com/repos/jarus/flask-mongokit/languages",
    "merges_url": "https://api.github.com/repos/jarus/flask-mongokit/merges",
    "milestones_url": "https://api.github.com/repos/jarus/flask-mongokit/milestones{/number}",
    "mirror_url": null,
    "name": "flask-mongokit",
    "notifications_url": "https://api.github.com/repos/jarus/flask-mongokit/notifications{?since,all,participating}",
    "open_issues": 4,
    "open_issues_count": 4,
    "owner": {
        "avatar_url": "https://avatars.githubusercontent.com/u/110274?",
        "events_url": "https://api.github.com/users/jarus/events{/privacy}",
        "followers_url": "https://api.github.com/users/jarus/followers",
        "following_url": "https://api.github.com/users/jarus/following{/other_user}",
        "gists_url": "https://api.github.com/users/jarus/gists{/gist_id}",
        "gravatar_id": "3ecd2267905c2c88e4cc79fe7226608d",
        "html_url": "https://github.com/jarus",
        "id": 110274,
        "login": "jarus",
        "organizations_url": "https://api.github.com/users/jarus/orgs",
        "received_events_url": "https://api.github.com/users/jarus/received_events",
        "repos_url": "https://api.github.com/users/jarus/repos",
        "site_admin": false,
        "starred_url": "https://api.github.com/users/jarus/starred{/owner}{/repo}",
        "subscriptions_url": "https://api.github.com/users/jarus/subscriptions",
        "type": "User",
        "url": "https://api.github.com/users/jarus"
    },
    "private": false,
    "pulls_url": "https://api.github.com/repos/jarus/flask-mongokit/pulls{/number}",
    "pushed_at": "2014-04-08T08:01:36Z",
    "releases_url": "https://api.github.com/repos/jarus/flask-mongokit/releases{/id}",
    "score": 1.0,
    "size": 313,
    "ssh_url": "git@github.com:jarus/flask-mongokit.git",
    "stargazers_count": 44,
    "stargazers_url": "https://api.github.com/repos/jarus/flask-mongokit/stargazers",
    "statuses_url": "https://api.github.com/repos/jarus/flask-mongokit/statuses/{sha}",
    "subscribers_url": "https://api.github.com/repos/jarus/flask-mongokit/subscribers",
    "subscription_url": "https://api.github.com/repos/jarus/flask-mongokit/subscription",
    "svn_url": "https://github.com/jarus/flask-mongokit",
    "tags_url": "https://api.github.com/repos/jarus/flask-mongokit/tags",
    "teams_url": "https://api.github.com/repos/jarus/flask-mongokit/teams",
    "trees_url": "https://api.github.com/repos/jarus/flask-mongokit/git/trees{/sha}",
    "updated_at": "2014-04-08T08:01:34Z",
    "url": "https://api.github.com/repos/jarus/flask-mongokit",
    "watchers": 44,
    "watchers_count": 44
}