[
    "urls",
    "image_processors.pil",
    "oembed.tests.tests.sites",
    "text",
    "migrations",
    "oembed_tags",
    "oembed.tests.tests.parsers",
    "contrib",
    "oembed.contrib",
    "tests.base",
    "tests.storage",
    "oembed.providers",
    "oembed.contrib.oembed_providers",
    "oembed.templatetags.oembed_tags",
    "tests.templatetags",
    "oembed.urls",
    "tests.tests.resources",
    "contrib.models",
    "tests.views",
    "oembed.utils",
    "resources",
    "tests",
    "parsers.base",
    "views",
    "parsers.text",
    "migrations.0001_initial",
    "tests.oembed_providers",
    "oembed.parsers",
    "oembed.tests.oembed_providers",
    "parsers.html",
    "oembed.tests.urls",
    "tests.resources",
    "oembed.tests.tests.models",
    "tests.tests.views",
    "settings",
    "oembed.tests.settings",
    "oembed.templatetags",
    "listeners",
    "parsers",
    "oembed.image_processors",
    "contrib.oembed_providers",
    "fields",
    "exceptions",
    "oembed.tests.tests.providers",
    "oembed.models",
    "tests.parsers",
    "tests.tests",
    "oembed.listeners",
    "pil",
    "oembed.tests.tests.templatetags",
    "providers",
    "oembed.tests.tests.base",
    "tests.tests.sites",
    "utils",
    "oembed.parsers.base",
    "tests.tests.consumer",
    "tests.sites",
    "oembed.consumer",
    "oembed_providers",
    "conf",
    "tests.models",
    "oembed.exceptions",
    "oembed.migrations.0001_initial",
    "oembed.migrations",
    "tests.tests.templatetags",
    "tests.admin",
    "oembed.sites",
    "sites",
    "oembed.contrib.models",
    "html",
    "tests.utils",
    "oembed.tests",
    "tests.tests.base",
    "oembed.fields",
    "tests.settings",
    "tests.urls",
    "oembed.admin",
    "oembed.tests.tests.utils",
    "oembed.tests.storage",
    "oembed.tests.tests.resources",
    "tests.providers",
    "templatetags.oembed_tags",
    "models",
    "tests.tests.models",
    "oembed.tests.tests",
    "storage",
    "base",
    "0001_initial",
    "tests.tests.parsers",
    "oembed.image_processors.pil",
    "constants",
    "oembed.tests.tests.consumer",
    "oembed.parsers.html",
    "tests.consumer",
    "admin",
    "doc",
    "tests.tests.providers",
    "templatetags",
    "tests.tests.utils",
    "oembed.parsers.text",
    "oembed.tests.tests.views",
    "oembed",
    "runtests",
    "oembed.views",
    "image_processors",
    "oembed.tests.admin",
    "oembed.resources",
    "consumer",
    "doc.conf",
    "oembed.tests.models",
    "oembed.constants"
]