{
    "archive_url": "https://api.github.com/repos/SublimeText/Mote/{archive_format}{/ref}",
    "assignees_url": "https://api.github.com/repos/SublimeText/Mote/assignees{/user}",
    "blobs_url": "https://api.github.com/repos/SublimeText/Mote/git/blobs{/sha}",
    "branches_url": "https://api.github.com/repos/SublimeText/Mote/branches{/branch}",
    "clone_url": "https://github.com/SublimeText/Mote.git",
    "collaborators_url": "https://api.github.com/repos/SublimeText/Mote/collaborators{/collaborator}",
    "comments_url": "https://api.github.com/repos/SublimeText/Mote/comments{/number}",
    "commits_url": "https://api.github.com/repos/SublimeText/Mote/commits{/sha}",
    "compare_url": "https://api.github.com/repos/SublimeText/Mote/compare/{base}...{head}",
    "contents_url": "https://api.github.com/repos/SublimeText/Mote/contents/{+path}",
    "contributors_url": "https://api.github.com/repos/SublimeText/Mote/contributors",
    "created_at": "2011-10-03T18:34:53Z",
    "default_branch": "master",
    "description": "SFTP Remote Editing for Sublime Text 2",
    "downloads_url": "https://api.github.com/repos/SublimeText/Mote/downloads",
    "events_url": "https://api.github.com/repos/SublimeText/Mote/events",
    "fork": false,
    "forks": 18,
    "forks_count": 18,
    "forks_url": "https://api.github.com/repos/SublimeText/Mote/forks",
    "full_name": "SublimeText/Mote",
    "git_commits_url": "https://api.github.com/repos/SublimeText/Mote/git/commits{/sha}",
    "git_refs_url": "https://api.github.com/repos/SublimeText/Mote/git/refs{/sha}",
    "git_tags_url": "https://api.github.com/repos/SublimeText/Mote/git/tags{/sha}",
    "git_url": "git://github.com/SublimeText/Mote.git",
    "has_downloads": true,
    "has_issues": true,
    "has_wiki": true,
    "homepage": "",
    "hooks_url": "https://api.github.com/repos/SublimeText/Mote/hooks",
    "html_url": "https://github.com/SublimeText/Mote",
    "id": 2506652,
    "issue_comment_url": "https://api.github.com/repos/SublimeText/Mote/issues/comments/{number}",
    "issue_events_url": "https://api.github.com/repos/SublimeText/Mote/issues/events{/number}",
    "issues_url": "https://api.github.com/repos/SublimeText/Mote/issues{/number}",
    "keys_url": "https://api.github.com/repos/SublimeText/Mote/keys{/key_id}",
    "labels_url": "https://api.github.com/repos/SublimeText/Mote/labels{/name}",
    "language": "Python",
    "languages_url": "https://api.github.com/repos/SublimeText/Mote/languages",
    "merges_url": "https://api.github.com/repos/SublimeText/Mote/merges",
    "milestones_url": "https://api.github.com/repos/SublimeText/Mote/milestones{/number}",
    "mirror_url": null,
    "name": "Mote",
    "notifications_url": "https://api.github.com/repos/SublimeText/Mote/notifications{?since,all,participating}",
    "open_issues": 10,
    "open_issues_count": 10,
    "owner": {
        "avatar_url": "https://avatars.githubusercontent.com/u/684879?",
        "events_url": "https://api.github.com/users/SublimeText/events{/privacy}",
        "followers_url": "https://api.github.com/users/SublimeText/followers",
        "following_url": "https://api.github.com/users/SublimeText/following{/other_user}",
        "gists_url": "https://api.github.com/users/SublimeText/gists{/gist_id}",
        "gravatar_id": "e050e5a2f8ee78a967c87e12e935e250",
        "html_url": "https://github.com/SublimeText",
        "id": 684879,
        "login": "SublimeText",
        "organizations_url": "https://api.github.com/users/SublimeText/orgs",
        "received_events_url": "https://api.github.com/users/SublimeText/received_events",
        "repos_url": "https://api.github.com/users/SublimeText/repos",
        "site_admin": false,
        "starred_url": "https://api.github.com/users/SublimeText/starred{/owner}{/repo}",
        "subscriptions_url": "https://api.github.com/users/SublimeText/subscriptions",
        "type": "Organization",
        "url": "https://api.github.com/users/SublimeText"
    },
    "private": false,
    "pulls_url": "https://api.github.com/repos/SublimeText/Mote/pulls{/number}",
    "pushed_at": "2012-02-10T07:50:00Z",
    "releases_url": "https://api.github.com/repos/SublimeText/Mote/releases{/id}",
    "score": 1.0,
    "size": 798,
    "ssh_url": "git@github.com:SublimeText/Mote.git",
    "stargazers_count": 82,
    "stargazers_url": "https://api.github.com/repos/SublimeText/Mote/stargazers",
    "statuses_url": "https://api.github.com/repos/SublimeText/Mote/statuses/{sha}",
    "subscribers_url": "https://api.github.com/repos/SublimeText/Mote/subscribers",
    "subscription_url": "https://api.github.com/repos/SublimeText/Mote/subscription",
    "svn_url": "https://github.com/SublimeText/Mote",
    "tags_url": "https://api.github.com/repos/SublimeText/Mote/tags",
    "teams_url": "https://api.github.com/repos/SublimeText/Mote/teams",
    "trees_url": "https://api.github.com/repos/SublimeText/Mote/git/trees{/sha}",
    "updated_at": "2014-04-24T13:11:56Z",
    "url": "https://api.github.com/repos/SublimeText/Mote",
    "watchers": 82,
    "watchers_count": 82
}