{
    "archive_url": "https://api.github.com/repos/gmate/gmate/{archive_format}{/ref}",
    "assignees_url": "https://api.github.com/repos/gmate/gmate/assignees{/user}",
    "blobs_url": "https://api.github.com/repos/gmate/gmate/git/blobs{/sha}",
    "branches_url": "https://api.github.com/repos/gmate/gmate/branches{/branch}",
    "clone_url": "https://github.com/gmate/gmate.git",
    "collaborators_url": "https://api.github.com/repos/gmate/gmate/collaborators{/collaborator}",
    "comments_url": "https://api.github.com/repos/gmate/gmate/comments{/number}",
    "commits_url": "https://api.github.com/repos/gmate/gmate/commits{/sha}",
    "compare_url": "https://api.github.com/repos/gmate/gmate/compare/{base}...{head}",
    "contents_url": "https://api.github.com/repos/gmate/gmate/contents/{+path}",
    "contributors_url": "https://api.github.com/repos/gmate/gmate/contributors",
    "created_at": "2010-03-30T11:35:36Z",
    "default_branch": "master",
    "description": "Set of plugins and improvements to make Gedit a powerfull programmer text editor",
    "downloads_url": "https://api.github.com/repos/gmate/gmate/downloads",
    "events_url": "https://api.github.com/repos/gmate/gmate/events",
    "fork": false,
    "forks": 130,
    "forks_count": 130,
    "forks_url": "https://api.github.com/repos/gmate/gmate/forks",
    "full_name": "gmate/gmate",
    "git_commits_url": "https://api.github.com/repos/gmate/gmate/git/commits{/sha}",
    "git_refs_url": "https://api.github.com/repos/gmate/gmate/git/refs{/sha}",
    "git_tags_url": "https://api.github.com/repos/gmate/gmate/git/tags{/sha}",
    "git_url": "git://github.com/gmate/gmate.git",
    "has_downloads": false,
    "has_issues": true,
    "has_wiki": false,
    "homepage": "",
    "hooks_url": "https://api.github.com/repos/gmate/gmate/hooks",
    "html_url": "https://github.com/gmate/gmate",
    "id": 586391,
    "issue_comment_url": "https://api.github.com/repos/gmate/gmate/issues/comments/{number}",
    "issue_events_url": "https://api.github.com/repos/gmate/gmate/issues/events{/number}",
    "issues_url": "https://api.github.com/repos/gmate/gmate/issues{/number}",
    "keys_url": "https://api.github.com/repos/gmate/gmate/keys{/key_id}",
    "labels_url": "https://api.github.com/repos/gmate/gmate/labels{/name}",
    "language": "Python",
    "languages_url": "https://api.github.com/repos/gmate/gmate/languages",
    "merges_url": "https://api.github.com/repos/gmate/gmate/merges",
    "milestones_url": "https://api.github.com/repos/gmate/gmate/milestones{/number}",
    "mirror_url": null,
    "name": "gmate",
    "notifications_url": "https://api.github.com/repos/gmate/gmate/notifications{?since,all,participating}",
    "open_issues": 25,
    "open_issues_count": 25,
    "owner": {
        "avatar_url": "https://avatars.githubusercontent.com/u/233284?",
        "events_url": "https://api.github.com/users/gmate/events{/privacy}",
        "followers_url": "https://api.github.com/users/gmate/followers",
        "following_url": "https://api.github.com/users/gmate/following{/other_user}",
        "gists_url": "https://api.github.com/users/gmate/gists{/gist_id}",
        "gravatar_id": "19ce7242d45c2ecdfd1411179de7e870",
        "html_url": "https://github.com/gmate",
        "id": 233284,
        "login": "gmate",
        "organizations_url": "https://api.github.com/users/gmate/orgs",
        "received_events_url": "https://api.github.com/users/gmate/received_events",
        "repos_url": "https://api.github.com/users/gmate/repos",
        "site_admin": false,
        "starred_url": "https://api.github.com/users/gmate/starred{/owner}{/repo}",
        "subscriptions_url": "https://api.github.com/users/gmate/subscriptions",
        "type": "Organization",
        "url": "https://api.github.com/users/gmate"
    },
    "private": false,
    "pulls_url": "https://api.github.com/repos/gmate/gmate/pulls{/number}",
    "pushed_at": "2014-04-21T16:18:25Z",
    "releases_url": "https://api.github.com/repos/gmate/gmate/releases{/id}",
    "score": 1.0,
    "size": 2043,
    "ssh_url": "git@github.com:gmate/gmate.git",
    "stargazers_count": 977,
    "stargazers_url": "https://api.github.com/repos/gmate/gmate/stargazers",
    "statuses_url": "https://api.github.com/repos/gmate/gmate/statuses/{sha}",
    "subscribers_url": "https://api.github.com/repos/gmate/gmate/subscribers",
    "subscription_url": "https://api.github.com/repos/gmate/gmate/subscription",
    "svn_url": "https://github.com/gmate/gmate",
    "tags_url": "https://api.github.com/repos/gmate/gmate/tags",
    "teams_url": "https://api.github.com/repos/gmate/gmate/teams",
    "trees_url": "https://api.github.com/repos/gmate/gmate/git/trees{/sha}",
    "updated_at": "2014-05-06T19:20:31Z",
    "url": "https://api.github.com/repos/gmate/gmate",
    "watchers": 977,
    "watchers_count": 977
}