{
    "libs": [
        "cStringIO",
        "functools",
        "random",
        "with_statement",
        "site",
        "subprocess",
        "_watchdog_fsevents",
        "io",
        "shutil",
        "select",
        "buildout",
        "struct",
        "read_directory_changes_",
        "re",
        "tempfile",
        "errno",
        "select_backport",
        "yaml",
        "pytest",
        "collections",
        "argh",
        "stat",
        "warnings",
        "optparse",
        "package_index",
        "inspect",
        "urllib2",
        "Queue",
        "ctypes",
        "imp",
        "path",
        "sys",
        "unicodedata",
        "logging",
        "wintypes",
        "signal",
        "StringIO",
        "request",
        "pkg_resources",
        "queue",
        "threading",
        "doctest",
        "time",
        "fnmatch",
        "FSEvents",
        "os",
        "tricks"
    ]
}