[
    "util.test_skiplist",
    "Errors",
    "util.expiring_dict",
    "p2pool.networks",
    "SOAPpy.Parser",
    "p2pool.util.memoize",
    "p2pool.util.datachunker",
    "nattraverso.pynupnp.soap",
    "bitcoin.stratum",
    "test_expiring_dict",
    "tests.test_wsdl",
    "getwork",
    "SOAPpy",
    "networks",
    "bitcoin.test_getwork",
    "web",
    "wstools.TimeoutSocket",
    "test_p2p",
    "p2pool.util.logging",
    "p2pool.bitcoin.helper",
    "graph",
    "pynupnp.upnpxml",
    "wstools.tests",
    "test_math",
    "test.util.test_pack",
    "helper",
    "stratum",
    "p2pool.test.util.test_datachunker",
    "SOAPpy.SOAPBuilder",
    "sha256",
    "test_data",
    "p2pool.test.util.test_pack",
    "tests",
    "TimeoutSocket",
    "Namespaces",
    "test.util.test_math",
    "SOAPpy.WSDL",
    "SOAPpy.Config",
    "util.test_forest",
    "test_skiplist",
    "util",
    "XMLname",
    "bitcoin.test_p2p",
    "portmapper",
    "p2pool.test.util.test_skiplist",
    "p2pool.test.bitcoin",
    "fpconst",
    "WSDL",
    "bitcoin.helper",
    "test.util.test_deferral",
    "test.bitcoin.test_script",
    "p2pool.bitcoin.script",
    "expiring_dict",
    "nattraverso.pynupnp",
    "test.util.test_expiring_dict",
    "bitcoin.p2p",
    "height_tracker",
    "soap",
    "util.test_graph",
    "deferral",
    "UserTuple",
    "nattraverso.ipdiscover",
    "SOAPpy.Server",
    "p2pool.util.expiring_dict",
    "tests.test_wstools",
    "MIMEAttachment",
    "SOAPpy.SOAP",
    "p2pool.util.switchprotocol",
    "test.util.test_datachunker",
    "test.bitcoin.test_sha256",
    "p2pool.main",
    "p2protocol",
    "Types",
    "worker_interface",
    "util.test_expiring_dict",
    "test.bitcoin.test_p2p",
    "p2pool.p2p",
    "util.forest",
    "util.memory",
    "wstools.Utility",
    "p2pool.util.pack",
    "wstools",
    "util.logging",
    "test_node",
    "p2pool.bitcoin.height_tracker",
    "Utilities",
    "p2pool.util.fixargparse",
    "p2pool.test.util.test_math",
    "wstools.MIMEAttachment",
    "version",
    "util.deferred_resource",
    "bitcoin.networks",
    "p2pool.util.math",
    "p2pool.data",
    "p2pool.util",
    "p2pool.bitcoin.p2p",
    "bitcoin.script",
    "p2pool.test.util.test_expiring_dict",
    "p2pool.test.test_p2p",
    "nattraverso.pynupnp.upnp",
    "test_datachunker",
    "Server",
    "p2pool",
    "p2p",
    "XMLSchema",
    "pynupnp",
    "wstools.tests.test_wstools",
    "WSDLTools",
    "p2pool.test.bitcoin.test_p2p",
    "test_wsdl",
    "util.graph",
    "test.bitcoin.test_data",
    "SOAPpy.version",
    "p2pool.bitcoin.getwork",
    "p2pool.bitcoin.sha256",
    "Parser",
    "bitcoin.getwork",
    "nattraverso.portmapper",
    "p2pool.util.deferred_resource",
    "p2pool.bitcoin.networks",
    "util.jsonrpc",
    "p2pool.test.bitcoin.test_script",
    "util.switchprotocol",
    "p2pool.work",
    "URLopener",
    "SOAPpy.GSIServer",
    "util.test_math",
    "GSIServer",
    "datachunker",
    "p2pool.test.bitcoin.test_sha256",
    "bitcoin.worker_interface",
    "p2pool.util.memory",
    "test_script",
    "util.test_deferral",
    "p2pool.bitcoin",
    "test.util",
    "fixargparse",
    "Config",
    "math",
    "util.p2protocol",
    "ipdiscover",
    "p2pool.util.deferral",
    "script",
    "util.deferral",
    "wstools.UserTuple",
    "bitcoin",
    "util.memoize",
    "nattraverso.utils",
    "wstools.tests.test_wsdl",
    "memory",
    "NS",
    "SOAPpy.Utilities",
    "wstools.tests.test_t1",
    "test.test_data",
    "util.datachunker",
    "bitcoin.sha256",
    "bitcoin.data",
    "p2pool.test.test_node",
    "p2pool.test.util.test_forest",
    "p2pool.test.bitcoin.test_getwork",
    "test.util.test_graph",
    "upnpxml",
    "SOAPpy.Types",
    "p2pool.test",
    "wstools.logging",
    "Client",
    "util.test_pack",
    "test.util.test_forest",
    "p2pool.test.bitcoin.test_data",
    "bitcoin.test_script",
    "logging",
    "test_graph",
    "p2pool.node",
    "p2pool.test.util.test_graph",
    "main",
    "p2pool.bitcoin.data",
    "pynupnp.soap",
    "work",
    "wstools.WSDLTools",
    "test_wstools",
    "test_deferral",
    "test.test_p2p",
    "jsonrpc",
    "switchprotocol",
    "test_forest",
    "SOAPpy.Errors",
    "nattraverso",
    "pack",
    "util.test_datachunker",
    "bitcoin.test_sha256",
    "test_getwork",
    "bitcoin.height_tracker",
    "test.test_node",
    "utils",
    "util.pack",
    "util.math",
    "p2pool.test.util",
    "p2pool.web",
    "test.bitcoin",
    "test.util.test_skiplist",
    "test.bitcoin.test_getwork",
    "wstools.Namespaces",
    "run_p2pool",
    "test_sha256",
    "p2pool.bitcoin.stratum",
    "tests.test_t1",
    "upnp",
    "p2pool.util.variable",
    "util.fixargparse",
    "p2pool.util.jsonrpc",
    "forest",
    "wstools.c14n",
    "test",
    "memoize",
    "test_pack",
    "SOAPpy.NS",
    "node",
    "deferred_resource",
    "p2pool.bitcoin.worker_interface",
    "p2pool.test.util.test_deferral",
    "util.variable",
    "wstools.XMLSchema",
    "wstools.tests.test_wstools_net",
    "p2pool.util.skiplist",
    "test_wstools_net",
    "variable",
    "bitcoin.test_data",
    "pynupnp.upnp",
    "data",
    "c14n",
    "nattraverso.pynupnp.upnpxml",
    "SOAPpy.URLopener",
    "SOAPpy.Client",
    "p2pool.util.forest",
    "tests.test_wstools_net",
    "wstools.XMLname",
    "p2pool.test.test_data",
    "SOAP",
    "p2pool.util.p2protocol",
    "SOAPBuilder",
    "test_t1",
    "p2pool.util.graph",
    "skiplist",
    "util.skiplist",
    "Utility"
]