[
    "tracking.tests",
    "app.tracking.tests",
    "users.tests",
    "app.constants",
    "users.models",
    "app",
    "app.users.tests",
    "app.bases",
    "users.views",
    "app.tracking.decorators",
    "app.users.constants",
    "users.forms",
    "app.mixins",
    "app.users.models",
    "forms",
    "tracking.forms",
    "bases",
    "app.tracking.constants",
    "decorators",
    "tracking.geodata",
    "tests",
    "shell",
    "run",
    "users",
    "views",
    "models",
    "app.tracking.views",
    "app.tracking",
    "mixins",
    "app.users.decorators",
    "geodata",
    "constants",
    "tracking",
    "app.users",
    "app.users.views",
    "config",
    "tracking.constants",
    "tracking.views",
    "app.users.forms",
    "app.tracking.models",
    "app.tracking.forms",
    "users.constants",
    "tracking.decorators",
    "users.decorators",
    "tracking.models",
    "app.tracking.geodata"
]