{
    "archive_url": "https://api.github.com/repos/woutervanwijk/Pi-MusicBox/{archive_format}{/ref}",
    "assignees_url": "https://api.github.com/repos/woutervanwijk/Pi-MusicBox/assignees{/user}",
    "blobs_url": "https://api.github.com/repos/woutervanwijk/Pi-MusicBox/git/blobs{/sha}",
    "branches_url": "https://api.github.com/repos/woutervanwijk/Pi-MusicBox/branches{/branch}",
    "clone_url": "https://github.com/woutervanwijk/Pi-MusicBox.git",
    "collaborators_url": "https://api.github.com/repos/woutervanwijk/Pi-MusicBox/collaborators{/collaborator}",
    "comments_url": "https://api.github.com/repos/woutervanwijk/Pi-MusicBox/comments{/number}",
    "commits_url": "https://api.github.com/repos/woutervanwijk/Pi-MusicBox/commits{/sha}",
    "compare_url": "https://api.github.com/repos/woutervanwijk/Pi-MusicBox/compare/{base}...{head}",
    "contents_url": "https://api.github.com/repos/woutervanwijk/Pi-MusicBox/contents/{+path}",
    "contributors_url": "https://api.github.com/repos/woutervanwijk/Pi-MusicBox/contributors",
    "created_at": "2013-01-22T07:50:04Z",
    "default_branch": "master",
    "description": "An image (SD-card) to turn the Raspberry Pi into an easy to use MusicBox with Spotify playback and AirTunes streaming",
    "downloads_url": "https://api.github.com/repos/woutervanwijk/Pi-MusicBox/downloads",
    "events_url": "https://api.github.com/repos/woutervanwijk/Pi-MusicBox/events",
    "fork": false,
    "forks": 23,
    "forks_count": 23,
    "forks_url": "https://api.github.com/repos/woutervanwijk/Pi-MusicBox/forks",
    "full_name": "woutervanwijk/Pi-MusicBox",
    "git_commits_url": "https://api.github.com/repos/woutervanwijk/Pi-MusicBox/git/commits{/sha}",
    "git_refs_url": "https://api.github.com/repos/woutervanwijk/Pi-MusicBox/git/refs{/sha}",
    "git_tags_url": "https://api.github.com/repos/woutervanwijk/Pi-MusicBox/git/tags{/sha}",
    "git_url": "git://github.com/woutervanwijk/Pi-MusicBox.git",
    "has_downloads": true,
    "has_issues": true,
    "has_wiki": true,
    "homepage": null,
    "hooks_url": "https://api.github.com/repos/woutervanwijk/Pi-MusicBox/hooks",
    "html_url": "https://github.com/woutervanwijk/Pi-MusicBox",
    "id": 7748227,
    "issue_comment_url": "https://api.github.com/repos/woutervanwijk/Pi-MusicBox/issues/comments/{number}",
    "issue_events_url": "https://api.github.com/repos/woutervanwijk/Pi-MusicBox/issues/events{/number}",
    "issues_url": "https://api.github.com/repos/woutervanwijk/Pi-MusicBox/issues{/number}",
    "keys_url": "https://api.github.com/repos/woutervanwijk/Pi-MusicBox/keys{/key_id}",
    "labels_url": "https://api.github.com/repos/woutervanwijk/Pi-MusicBox/labels{/name}",
    "language": "Python",
    "languages_url": "https://api.github.com/repos/woutervanwijk/Pi-MusicBox/languages",
    "merges_url": "https://api.github.com/repos/woutervanwijk/Pi-MusicBox/merges",
    "milestones_url": "https://api.github.com/repos/woutervanwijk/Pi-MusicBox/milestones{/number}",
    "mirror_url": null,
    "name": "Pi-MusicBox",
    "notifications_url": "https://api.github.com/repos/woutervanwijk/Pi-MusicBox/notifications{?since,all,participating}",
    "open_issues": 36,
    "open_issues_count": 36,
    "owner": {
        "avatar_url": "https://avatars.githubusercontent.com/u/480348?",
        "events_url": "https://api.github.com/users/woutervanwijk/events{/privacy}",
        "followers_url": "https://api.github.com/users/woutervanwijk/followers",
        "following_url": "https://api.github.com/users/woutervanwijk/following{/other_user}",
        "gists_url": "https://api.github.com/users/woutervanwijk/gists{/gist_id}",
        "gravatar_id": "cc1a615209a359ed2a007c02ae3934eb",
        "html_url": "https://github.com/woutervanwijk",
        "id": 480348,
        "login": "woutervanwijk",
        "organizations_url": "https://api.github.com/users/woutervanwijk/orgs",
        "received_events_url": "https://api.github.com/users/woutervanwijk/received_events",
        "repos_url": "https://api.github.com/users/woutervanwijk/repos",
        "site_admin": false,
        "starred_url": "https://api.github.com/users/woutervanwijk/starred{/owner}{/repo}",
        "subscriptions_url": "https://api.github.com/users/woutervanwijk/subscriptions",
        "type": "User",
        "url": "https://api.github.com/users/woutervanwijk"
    },
    "private": false,
    "pulls_url": "https://api.github.com/repos/woutervanwijk/Pi-MusicBox/pulls{/number}",
    "pushed_at": "2014-04-08T11:32:44Z",
    "releases_url": "https://api.github.com/repos/woutervanwijk/Pi-MusicBox/releases{/id}",
    "score": 1.0,
    "size": 10827,
    "ssh_url": "git@github.com:woutervanwijk/Pi-MusicBox.git",
    "stargazers_count": 180,
    "stargazers_url": "https://api.github.com/repos/woutervanwijk/Pi-MusicBox/stargazers",
    "statuses_url": "https://api.github.com/repos/woutervanwijk/Pi-MusicBox/statuses/{sha}",
    "subscribers_url": "https://api.github.com/repos/woutervanwijk/Pi-MusicBox/subscribers",
    "subscription_url": "https://api.github.com/repos/woutervanwijk/Pi-MusicBox/subscription",
    "svn_url": "https://github.com/woutervanwijk/Pi-MusicBox",
    "tags_url": "https://api.github.com/repos/woutervanwijk/Pi-MusicBox/tags",
    "teams_url": "https://api.github.com/repos/woutervanwijk/Pi-MusicBox/teams",
    "trees_url": "https://api.github.com/repos/woutervanwijk/Pi-MusicBox/git/trees{/sha}",
    "updated_at": "2014-05-07T06:18:37Z",
    "url": "https://api.github.com/repos/woutervanwijk/Pi-MusicBox",
    "watchers": 180,
    "watchers_count": 180
}