{
    "libs": [
        "pprint",
        "prettytable",
        "locale",
        "copy",
        "datetime",
        "parse",
        "gettext",
        "calendar",
        "fixtures",
        "abc",
        "uuid",
        "re",
        "babel",
        "six",
        "urllib",
        "imp",
        "json",
        "getp",
        "functools",
        "mock",
        "simplejson",
        "optparse",
        "inspect",
        "textwrap",
        "iso8601",
        "sys",
        "subprocess",
        "print_function",
        "ConfigParser",
        "argparse",
        "unicodedata",
        "b",
        "logging",
        "traceback",
        "pkg_resources",
        "urlparse",
        "itertools",
        "stevedore",
        "math",
        "time",
        "requests",
        "anyjson",
        "os",
        "xmlrpc_client"
    ]
}