{
    "archive_url": "https://api.github.com/repos/dsoprea/GDriveFS/{archive_format}{/ref}",
    "assignees_url": "https://api.github.com/repos/dsoprea/GDriveFS/assignees{/user}",
    "blobs_url": "https://api.github.com/repos/dsoprea/GDriveFS/git/blobs{/sha}",
    "branches_url": "https://api.github.com/repos/dsoprea/GDriveFS/branches{/branch}",
    "clone_url": "https://github.com/dsoprea/GDriveFS.git",
    "collaborators_url": "https://api.github.com/repos/dsoprea/GDriveFS/collaborators{/collaborator}",
    "comments_url": "https://api.github.com/repos/dsoprea/GDriveFS/comments{/number}",
    "commits_url": "https://api.github.com/repos/dsoprea/GDriveFS/commits{/sha}",
    "compare_url": "https://api.github.com/repos/dsoprea/GDriveFS/compare/{base}...{head}",
    "contents_url": "https://api.github.com/repos/dsoprea/GDriveFS/contents/{+path}",
    "contributors_url": "https://api.github.com/repos/dsoprea/GDriveFS/contributors",
    "created_at": "2012-08-21T00:21:17Z",
    "default_branch": "master",
    "description": "An innovative FUSE wrapper for Google Drive.",
    "downloads_url": "https://api.github.com/repos/dsoprea/GDriveFS/downloads",
    "events_url": "https://api.github.com/repos/dsoprea/GDriveFS/events",
    "fork": false,
    "forks": 11,
    "forks_count": 11,
    "forks_url": "https://api.github.com/repos/dsoprea/GDriveFS/forks",
    "full_name": "dsoprea/GDriveFS",
    "git_commits_url": "https://api.github.com/repos/dsoprea/GDriveFS/git/commits{/sha}",
    "git_refs_url": "https://api.github.com/repos/dsoprea/GDriveFS/git/refs{/sha}",
    "git_tags_url": "https://api.github.com/repos/dsoprea/GDriveFS/git/tags{/sha}",
    "git_url": "git://github.com/dsoprea/GDriveFS.git",
    "has_downloads": true,
    "has_issues": true,
    "has_wiki": true,
    "homepage": null,
    "hooks_url": "https://api.github.com/repos/dsoprea/GDriveFS/hooks",
    "html_url": "https://github.com/dsoprea/GDriveFS",
    "id": 5488471,
    "issue_comment_url": "https://api.github.com/repos/dsoprea/GDriveFS/issues/comments/{number}",
    "issue_events_url": "https://api.github.com/repos/dsoprea/GDriveFS/issues/events{/number}",
    "issues_url": "https://api.github.com/repos/dsoprea/GDriveFS/issues{/number}",
    "keys_url": "https://api.github.com/repos/dsoprea/GDriveFS/keys{/key_id}",
    "labels_url": "https://api.github.com/repos/dsoprea/GDriveFS/labels{/name}",
    "language": "Python",
    "languages_url": "https://api.github.com/repos/dsoprea/GDriveFS/languages",
    "merges_url": "https://api.github.com/repos/dsoprea/GDriveFS/merges",
    "milestones_url": "https://api.github.com/repos/dsoprea/GDriveFS/milestones{/number}",
    "mirror_url": null,
    "name": "GDriveFS",
    "notifications_url": "https://api.github.com/repos/dsoprea/GDriveFS/notifications{?since,all,participating}",
    "open_issues": 20,
    "open_issues_count": 20,
    "owner": {
        "avatar_url": "https://avatars.githubusercontent.com/u/715626?",
        "events_url": "https://api.github.com/users/dsoprea/events{/privacy}",
        "followers_url": "https://api.github.com/users/dsoprea/followers",
        "following_url": "https://api.github.com/users/dsoprea/following{/other_user}",
        "gists_url": "https://api.github.com/users/dsoprea/gists{/gist_id}",
        "gravatar_id": "bb7e85832e0110214043a8726ad70a76",
        "html_url": "https://github.com/dsoprea",
        "id": 715626,
        "login": "dsoprea",
        "organizations_url": "https://api.github.com/users/dsoprea/orgs",
        "received_events_url": "https://api.github.com/users/dsoprea/received_events",
        "repos_url": "https://api.github.com/users/dsoprea/repos",
        "site_admin": false,
        "starred_url": "https://api.github.com/users/dsoprea/starred{/owner}{/repo}",
        "subscriptions_url": "https://api.github.com/users/dsoprea/subscriptions",
        "type": "User",
        "url": "https://api.github.com/users/dsoprea"
    },
    "private": false,
    "pulls_url": "https://api.github.com/repos/dsoprea/GDriveFS/pulls{/number}",
    "pushed_at": "2014-04-28T06:52:49Z",
    "releases_url": "https://api.github.com/repos/dsoprea/GDriveFS/releases{/id}",
    "score": 1.0,
    "size": 1572,
    "ssh_url": "git@github.com:dsoprea/GDriveFS.git",
    "stargazers_count": 58,
    "stargazers_url": "https://api.github.com/repos/dsoprea/GDriveFS/stargazers",
    "statuses_url": "https://api.github.com/repos/dsoprea/GDriveFS/statuses/{sha}",
    "subscribers_url": "https://api.github.com/repos/dsoprea/GDriveFS/subscribers",
    "subscription_url": "https://api.github.com/repos/dsoprea/GDriveFS/subscription",
    "svn_url": "https://github.com/dsoprea/GDriveFS",
    "tags_url": "https://api.github.com/repos/dsoprea/GDriveFS/tags",
    "teams_url": "https://api.github.com/repos/dsoprea/GDriveFS/teams",
    "trees_url": "https://api.github.com/repos/dsoprea/GDriveFS/git/trees{/sha}",
    "updated_at": "2014-04-28T06:52:49Z",
    "url": "https://api.github.com/repos/dsoprea/GDriveFS",
    "watchers": 58,
    "watchers_count": 58
}