{
    "archive_url": "https://api.github.com/repos/zsh-users/zsh-completions/{archive_format}{/ref}",
    "assignees_url": "https://api.github.com/repos/zsh-users/zsh-completions/assignees{/user}",
    "blobs_url": "https://api.github.com/repos/zsh-users/zsh-completions/git/blobs{/sha}",
    "branches_url": "https://api.github.com/repos/zsh-users/zsh-completions/branches{/branch}",
    "clone_url": "https://github.com/zsh-users/zsh-completions.git",
    "collaborators_url": "https://api.github.com/repos/zsh-users/zsh-completions/collaborators{/collaborator}",
    "comments_url": "https://api.github.com/repos/zsh-users/zsh-completions/comments{/number}",
    "commits_url": "https://api.github.com/repos/zsh-users/zsh-completions/commits{/sha}",
    "compare_url": "https://api.github.com/repos/zsh-users/zsh-completions/compare/{base}...{head}",
    "contents_url": "https://api.github.com/repos/zsh-users/zsh-completions/contents/{+path}",
    "contributors_url": "https://api.github.com/repos/zsh-users/zsh-completions/contributors",
    "created_at": "2011-07-20T12:23:15Z",
    "default_branch": "master",
    "description": "Additional completion definitions for Zsh.",
    "downloads_url": "https://api.github.com/repos/zsh-users/zsh-completions/downloads",
    "events_url": "https://api.github.com/repos/zsh-users/zsh-completions/events",
    "fork": false,
    "forks": 127,
    "forks_count": 127,
    "forks_url": "https://api.github.com/repos/zsh-users/zsh-completions/forks",
    "full_name": "zsh-users/zsh-completions",
    "git_commits_url": "https://api.github.com/repos/zsh-users/zsh-completions/git/commits{/sha}",
    "git_refs_url": "https://api.github.com/repos/zsh-users/zsh-completions/git/refs{/sha}",
    "git_tags_url": "https://api.github.com/repos/zsh-users/zsh-completions/git/tags{/sha}",
    "git_url": "git://github.com/zsh-users/zsh-completions.git",
    "has_downloads": true,
    "has_issues": true,
    "has_wiki": false,
    "homepage": "",
    "hooks_url": "https://api.github.com/repos/zsh-users/zsh-completions/hooks",
    "html_url": "https://github.com/zsh-users/zsh-completions",
    "id": 2077847,
    "issue_comment_url": "https://api.github.com/repos/zsh-users/zsh-completions/issues/comments/{number}",
    "issue_events_url": "https://api.github.com/repos/zsh-users/zsh-completions/issues/events{/number}",
    "issues_url": "https://api.github.com/repos/zsh-users/zsh-completions/issues{/number}",
    "keys_url": "https://api.github.com/repos/zsh-users/zsh-completions/keys{/key_id}",
    "labels_url": "https://api.github.com/repos/zsh-users/zsh-completions/labels{/name}",
    "language": "Python",
    "languages_url": "https://api.github.com/repos/zsh-users/zsh-completions/languages",
    "merges_url": "https://api.github.com/repos/zsh-users/zsh-completions/merges",
    "milestones_url": "https://api.github.com/repos/zsh-users/zsh-completions/milestones{/number}",
    "mirror_url": null,
    "name": "zsh-completions",
    "notifications_url": "https://api.github.com/repos/zsh-users/zsh-completions/notifications{?since,all,participating}",
    "open_issues": 33,
    "open_issues_count": 33,
    "owner": {
        "avatar_url": "https://avatars.githubusercontent.com/u/567410?",
        "events_url": "https://api.github.com/users/zsh-users/events{/privacy}",
        "followers_url": "https://api.github.com/users/zsh-users/followers",
        "following_url": "https://api.github.com/users/zsh-users/following{/other_user}",
        "gists_url": "https://api.github.com/users/zsh-users/gists{/gist_id}",
        "gravatar_id": "b56e3c7dc10b6379d2e03b1ee008e11f",
        "html_url": "https://github.com/zsh-users",
        "id": 567410,
        "login": "zsh-users",
        "organizations_url": "https://api.github.com/users/zsh-users/orgs",
        "received_events_url": "https://api.github.com/users/zsh-users/received_events",
        "repos_url": "https://api.github.com/users/zsh-users/repos",
        "site_admin": false,
        "starred_url": "https://api.github.com/users/zsh-users/starred{/owner}{/repo}",
        "subscriptions_url": "https://api.github.com/users/zsh-users/subscriptions",
        "type": "Organization",
        "url": "https://api.github.com/users/zsh-users"
    },
    "private": false,
    "pulls_url": "https://api.github.com/repos/zsh-users/zsh-completions/pulls{/number}",
    "pushed_at": "2014-04-14T11:55:45Z",
    "releases_url": "https://api.github.com/repos/zsh-users/zsh-completions/releases{/id}",
    "score": 1.0,
    "size": 1771,
    "ssh_url": "git@github.com:zsh-users/zsh-completions.git",
    "stargazers_count": 588,
    "stargazers_url": "https://api.github.com/repos/zsh-users/zsh-completions/stargazers",
    "statuses_url": "https://api.github.com/repos/zsh-users/zsh-completions/statuses/{sha}",
    "subscribers_url": "https://api.github.com/repos/zsh-users/zsh-completions/subscribers",
    "subscription_url": "https://api.github.com/repos/zsh-users/zsh-completions/subscription",
    "svn_url": "https://github.com/zsh-users/zsh-completions",
    "tags_url": "https://api.github.com/repos/zsh-users/zsh-completions/tags",
    "teams_url": "https://api.github.com/repos/zsh-users/zsh-completions/teams",
    "trees_url": "https://api.github.com/repos/zsh-users/zsh-completions/git/trees{/sha}",
    "updated_at": "2014-05-04T07:47:30Z",
    "url": "https://api.github.com/repos/zsh-users/zsh-completions",
    "watchers": 588,
    "watchers_count": 588
}