{
    "libs": [
        "util",
        "inspect",
        "time",
        "runner",
        "skip",
        "unittest",
        "six",
        "sys",
        "re",
        "nose",
        "plugins",
        "xunit",
        "os",
        "functools",
        "types",
        "doctest"
    ]
}