{
    "archive_url": "https://api.github.com/repos/macoscope/MCSLLDBToolkit/{archive_format}{/ref}",
    "assignees_url": "https://api.github.com/repos/macoscope/MCSLLDBToolkit/assignees{/user}",
    "blobs_url": "https://api.github.com/repos/macoscope/MCSLLDBToolkit/git/blobs{/sha}",
    "branches_url": "https://api.github.com/repos/macoscope/MCSLLDBToolkit/branches{/branch}",
    "clone_url": "https://github.com/macoscope/MCSLLDBToolkit.git",
    "collaborators_url": "https://api.github.com/repos/macoscope/MCSLLDBToolkit/collaborators{/collaborator}",
    "comments_url": "https://api.github.com/repos/macoscope/MCSLLDBToolkit/comments{/number}",
    "commits_url": "https://api.github.com/repos/macoscope/MCSLLDBToolkit/commits{/sha}",
    "compare_url": "https://api.github.com/repos/macoscope/MCSLLDBToolkit/compare/{base}...{head}",
    "contents_url": "https://api.github.com/repos/macoscope/MCSLLDBToolkit/contents/{+path}",
    "contributors_url": "https://api.github.com/repos/macoscope/MCSLLDBToolkit/contributors",
    "created_at": "2014-04-03T11:47:01Z",
    "default_branch": "master",
    "description": "Set of handy LLDB commands that will dramatically improve your debugging workflow",
    "downloads_url": "https://api.github.com/repos/macoscope/MCSLLDBToolkit/downloads",
    "events_url": "https://api.github.com/repos/macoscope/MCSLLDBToolkit/events",
    "fork": false,
    "forks": 2,
    "forks_count": 2,
    "forks_url": "https://api.github.com/repos/macoscope/MCSLLDBToolkit/forks",
    "full_name": "macoscope/MCSLLDBToolkit",
    "git_commits_url": "https://api.github.com/repos/macoscope/MCSLLDBToolkit/git/commits{/sha}",
    "git_refs_url": "https://api.github.com/repos/macoscope/MCSLLDBToolkit/git/refs{/sha}",
    "git_tags_url": "https://api.github.com/repos/macoscope/MCSLLDBToolkit/git/tags{/sha}",
    "git_url": "git://github.com/macoscope/MCSLLDBToolkit.git",
    "has_downloads": true,
    "has_issues": true,
    "has_wiki": true,
    "homepage": null,
    "hooks_url": "https://api.github.com/repos/macoscope/MCSLLDBToolkit/hooks",
    "html_url": "https://github.com/macoscope/MCSLLDBToolkit",
    "id": 18401068,
    "issue_comment_url": "https://api.github.com/repos/macoscope/MCSLLDBToolkit/issues/comments/{number}",
    "issue_events_url": "https://api.github.com/repos/macoscope/MCSLLDBToolkit/issues/events{/number}",
    "issues_url": "https://api.github.com/repos/macoscope/MCSLLDBToolkit/issues{/number}",
    "keys_url": "https://api.github.com/repos/macoscope/MCSLLDBToolkit/keys{/key_id}",
    "labels_url": "https://api.github.com/repos/macoscope/MCSLLDBToolkit/labels{/name}",
    "language": "Python",
    "languages_url": "https://api.github.com/repos/macoscope/MCSLLDBToolkit/languages",
    "merges_url": "https://api.github.com/repos/macoscope/MCSLLDBToolkit/merges",
    "milestones_url": "https://api.github.com/repos/macoscope/MCSLLDBToolkit/milestones{/number}",
    "mirror_url": null,
    "name": "MCSLLDBToolkit",
    "notifications_url": "https://api.github.com/repos/macoscope/MCSLLDBToolkit/notifications{?since,all,participating}",
    "open_issues": 1,
    "open_issues_count": 1,
    "owner": {
        "avatar_url": "https://avatars.githubusercontent.com/u/759101?",
        "events_url": "https://api.github.com/users/macoscope/events{/privacy}",
        "followers_url": "https://api.github.com/users/macoscope/followers",
        "following_url": "https://api.github.com/users/macoscope/following{/other_user}",
        "gists_url": "https://api.github.com/users/macoscope/gists{/gist_id}",
        "gravatar_id": "e3207102b470e230d2d7f42dd8497e59",
        "html_url": "https://github.com/macoscope",
        "id": 759101,
        "login": "macoscope",
        "organizations_url": "https://api.github.com/users/macoscope/orgs",
        "received_events_url": "https://api.github.com/users/macoscope/received_events",
        "repos_url": "https://api.github.com/users/macoscope/repos",
        "site_admin": false,
        "starred_url": "https://api.github.com/users/macoscope/starred{/owner}{/repo}",
        "subscriptions_url": "https://api.github.com/users/macoscope/subscriptions",
        "type": "Organization",
        "url": "https://api.github.com/users/macoscope"
    },
    "private": false,
    "pulls_url": "https://api.github.com/repos/macoscope/MCSLLDBToolkit/pulls{/number}",
    "pushed_at": "2014-04-11T17:26:43Z",
    "releases_url": "https://api.github.com/repos/macoscope/MCSLLDBToolkit/releases{/id}",
    "score": 1.0,
    "size": 286,
    "ssh_url": "git@github.com:macoscope/MCSLLDBToolkit.git",
    "stargazers_count": 66,
    "stargazers_url": "https://api.github.com/repos/macoscope/MCSLLDBToolkit/stargazers",
    "statuses_url": "https://api.github.com/repos/macoscope/MCSLLDBToolkit/statuses/{sha}",
    "subscribers_url": "https://api.github.com/repos/macoscope/MCSLLDBToolkit/subscribers",
    "subscription_url": "https://api.github.com/repos/macoscope/MCSLLDBToolkit/subscription",
    "svn_url": "https://github.com/macoscope/MCSLLDBToolkit",
    "tags_url": "https://api.github.com/repos/macoscope/MCSLLDBToolkit/tags",
    "teams_url": "https://api.github.com/repos/macoscope/MCSLLDBToolkit/teams",
    "trees_url": "https://api.github.com/repos/macoscope/MCSLLDBToolkit/git/trees{/sha}",
    "updated_at": "2014-05-05T01:17:00Z",
    "url": "https://api.github.com/repos/macoscope/MCSLLDBToolkit",
    "watchers": 66,
    "watchers_count": 66
}