[
    "polls.tests",
    "wsgi",
    "1-Intro",
    "shah-tut.tutorial.polls.tests",
    "4-Api.simpleapi.manage",
    "basicapi.resources",
    "2-Django.shah-tut.tutorial.tutorial.urls",
    "manage",
    "shah-tut.tutorial.tutorial.urls",
    "3-NLTK.movie_review_analysis",
    "movie_review_analysis",
    "simpleapi.urls",
    "simpleapi.basicapi.resources",
    "simpleapi.wsgi",
    "shah-tut.tutorial.polls",
    "tutorial.tutorial",
    "basicapi.tests",
    "4-Api.simpleapi.basicapi.resources",
    "simpleapi.simpleapi.settings",
    "simpleapi.manage",
    "resources",
    "tests",
    "tutorial.polls.views",
    "views",
    "shah-tut.tutorial.polls.views",
    "2-Django.shah-tut.tutorial.tutorial.settings",
    "test_intro",
    "2-Django.shah-tut.tutorial.manage",
    "tutorial.polls",
    "4-Api.simpleapi.simpleapi.settings",
    "simpleapi.basicapi.tests",
    "basicapi",
    "4-Api.simpleapi",
    "tutorial.tutorial.urls",
    "shah-tut.tutorial.manage",
    "settings",
    "4-Api.simpleapi.basicapi.models",
    "spam_filtering",
    "polls",
    "polls.views",
    "tutorial.wsgi",
    "3-NLTK.spam_filtering",
    "2-Django.shah-tut.tutorial.tutorial.wsgi",
    "basicapi.views",
    "4-Api.simpleapi.simpleapi",
    "simpleapi.basicapi.models",
    "shah-tut.tutorial.tutorial.wsgi",
    "tutorial.tutorial.wsgi",
    "intro",
    "simpleapi.settings",
    "tutorial",
    "2-Django.shah-tut.tutorial.polls.tests",
    "2-Django.shah-tut.tutorial.polls.views",
    "tutorial.manage",
    "2-Django.shah-tut.tutorial.polls.models",
    "simpleapi.simpleapi.urls",
    "tutorial.polls.models",
    "tutorial.settings",
    "4-Api.simpleapi.simpleapi.urls",
    "shah-tut.tutorial.polls.models",
    "simpleapi.basicapi.views",
    "4-Api.simpleapi.basicapi",
    "4-Api",
    "2-Django",
    "4-Api.simpleapi.basicapi.views",
    "models",
    "2-Django.shah-tut.tutorial.tutorial",
    "shah-tut",
    "1-Intro.test_intro",
    "shah-tut.tutorial.tutorial.settings",
    "tutorial.urls",
    "polls.models",
    "2-Django.shah-tut.tutorial.polls",
    "shah-tut.tutorial",
    "shah-tut.tutorial.tutorial",
    "simpleapi.simpleapi.wsgi",
    "tutorial.polls.tests",
    "3-NLTK",
    "simpleapi.basicapi",
    "1-Intro.intro",
    "simpleapi.simpleapi",
    "4-Api.simpleapi.basicapi.tests",
    "4-Api.simpleapi.simpleapi.wsgi",
    "simpleapi",
    "tutorial.tutorial.settings",
    "urls",
    "2-Django.shah-tut",
    "2-Django.shah-tut.tutorial",
    "basicapi.models"
]