{
    "archive_url": "https://api.github.com/repos/worthwhile/fabric-bolt/{archive_format}{/ref}",
    "assignees_url": "https://api.github.com/repos/worthwhile/fabric-bolt/assignees{/user}",
    "blobs_url": "https://api.github.com/repos/worthwhile/fabric-bolt/git/blobs{/sha}",
    "branches_url": "https://api.github.com/repos/worthwhile/fabric-bolt/branches{/branch}",
    "clone_url": "https://github.com/worthwhile/fabric-bolt.git",
    "collaborators_url": "https://api.github.com/repos/worthwhile/fabric-bolt/collaborators{/collaborator}",
    "comments_url": "https://api.github.com/repos/worthwhile/fabric-bolt/comments{/number}",
    "commits_url": "https://api.github.com/repos/worthwhile/fabric-bolt/commits{/sha}",
    "compare_url": "https://api.github.com/repos/worthwhile/fabric-bolt/compare/{base}...{head}",
    "contents_url": "https://api.github.com/repos/worthwhile/fabric-bolt/contents/{+path}",
    "contributors_url": "https://api.github.com/repos/worthwhile/fabric-bolt/contributors",
    "created_at": "2013-09-20T22:25:39Z",
    "default_branch": "master",
    "description": "Fabric deployments via a web interface",
    "downloads_url": "https://api.github.com/repos/worthwhile/fabric-bolt/downloads",
    "events_url": "https://api.github.com/repos/worthwhile/fabric-bolt/events",
    "fork": false,
    "forks": 22,
    "forks_count": 22,
    "forks_url": "https://api.github.com/repos/worthwhile/fabric-bolt/forks",
    "full_name": "worthwhile/fabric-bolt",
    "git_commits_url": "https://api.github.com/repos/worthwhile/fabric-bolt/git/commits{/sha}",
    "git_refs_url": "https://api.github.com/repos/worthwhile/fabric-bolt/git/refs{/sha}",
    "git_tags_url": "https://api.github.com/repos/worthwhile/fabric-bolt/git/tags{/sha}",
    "git_url": "git://github.com/worthwhile/fabric-bolt.git",
    "has_downloads": true,
    "has_issues": true,
    "has_wiki": true,
    "homepage": "http://fabric-bolt.readthedocs.org/en/latest/",
    "hooks_url": "https://api.github.com/repos/worthwhile/fabric-bolt/hooks",
    "html_url": "https://github.com/worthwhile/fabric-bolt",
    "id": 12985210,
    "issue_comment_url": "https://api.github.com/repos/worthwhile/fabric-bolt/issues/comments/{number}",
    "issue_events_url": "https://api.github.com/repos/worthwhile/fabric-bolt/issues/events{/number}",
    "issues_url": "https://api.github.com/repos/worthwhile/fabric-bolt/issues{/number}",
    "keys_url": "https://api.github.com/repos/worthwhile/fabric-bolt/keys{/key_id}",
    "labels_url": "https://api.github.com/repos/worthwhile/fabric-bolt/labels{/name}",
    "language": "Python",
    "languages_url": "https://api.github.com/repos/worthwhile/fabric-bolt/languages",
    "merges_url": "https://api.github.com/repos/worthwhile/fabric-bolt/merges",
    "milestones_url": "https://api.github.com/repos/worthwhile/fabric-bolt/milestones{/number}",
    "mirror_url": null,
    "name": "fabric-bolt",
    "notifications_url": "https://api.github.com/repos/worthwhile/fabric-bolt/notifications{?since,all,participating}",
    "open_issues": 14,
    "open_issues_count": 14,
    "owner": {
        "avatar_url": "https://avatars.githubusercontent.com/u/2211348?",
        "events_url": "https://api.github.com/users/worthwhile/events{/privacy}",
        "followers_url": "https://api.github.com/users/worthwhile/followers",
        "following_url": "https://api.github.com/users/worthwhile/following{/other_user}",
        "gists_url": "https://api.github.com/users/worthwhile/gists{/gist_id}",
        "gravatar_id": "ef5026f7e9ef4f9e3dd954a716048fc0",
        "html_url": "https://github.com/worthwhile",
        "id": 2211348,
        "login": "worthwhile",
        "organizations_url": "https://api.github.com/users/worthwhile/orgs",
        "received_events_url": "https://api.github.com/users/worthwhile/received_events",
        "repos_url": "https://api.github.com/users/worthwhile/repos",
        "site_admin": false,
        "starred_url": "https://api.github.com/users/worthwhile/starred{/owner}{/repo}",
        "subscriptions_url": "https://api.github.com/users/worthwhile/subscriptions",
        "type": "Organization",
        "url": "https://api.github.com/users/worthwhile"
    },
    "private": false,
    "pulls_url": "https://api.github.com/repos/worthwhile/fabric-bolt/pulls{/number}",
    "pushed_at": "2014-05-01T23:57:38Z",
    "releases_url": "https://api.github.com/repos/worthwhile/fabric-bolt/releases{/id}",
    "score": 1.0,
    "size": 6357,
    "ssh_url": "git@github.com:worthwhile/fabric-bolt.git",
    "stargazers_count": 119,
    "stargazers_url": "https://api.github.com/repos/worthwhile/fabric-bolt/stargazers",
    "statuses_url": "https://api.github.com/repos/worthwhile/fabric-bolt/statuses/{sha}",
    "subscribers_url": "https://api.github.com/repos/worthwhile/fabric-bolt/subscribers",
    "subscription_url": "https://api.github.com/repos/worthwhile/fabric-bolt/subscription",
    "svn_url": "https://github.com/worthwhile/fabric-bolt",
    "tags_url": "https://api.github.com/repos/worthwhile/fabric-bolt/tags",
    "teams_url": "https://api.github.com/repos/worthwhile/fabric-bolt/teams",
    "trees_url": "https://api.github.com/repos/worthwhile/fabric-bolt/git/trees{/sha}",
    "updated_at": "2014-05-05T16:41:19Z",
    "url": "https://api.github.com/repos/worthwhile/fabric-bolt",
    "watchers": 119,
    "watchers_count": 119
}