[
    "whirlwind.contrib.sockjs.router_connection",
    "whirlwind-admin",
    "contrib.sockjs",
    "sockjs_base_request",
    "app_template",
    "sockjs.router_connection",
    "session",
    "multiplex",
    "filters",
    "whirlwind.conf.app_template.config.settings",
    "app_template.application",
    "config",
    "conf.app_template.version",
    "paginator",
    "application.models.user",
    "whirlwind.conf",
    "whirlwind.db.mongo",
    "flash",
    "whirlwind.view.paginator",
    "session.memcache.middleware",
    "sockjs.bootstrap",
    "whirlwind.conf.app_template.config.example.settings",
    "conf.app_template.main",
    "multithreading",
    "bin",
    "connections.chat",
    "db",
    "application.controllers.account_controller",
    "util",
    "test",
    "router_connection",
    "core.routes",
    "whirlwind.contrib",
    "account_controller",
    "whirlwind.core.multithreading",
    "config.settings",
    "whirlwind.middleware.session",
    "whirlwind.conf.app_template.application.connections.chat",
    "settings",
    "app_template.version",
    "whirlwind.middleware.session.redis.middleware",
    "whirlwind.middleware.session.middleware",
    "conf.app_template.application.models.user",
    "controllers",
    "whirlwind.db.redis_interface",
    "controllers.account_controller",
    "whirlwind.conf.app_template.application.connections",
    "middleware",
    "whirlwind",
    "whirlwind.middleware.test",
    "whirlwind.contrib.sockjs.bootstrap",
    "controllers.site_controller",
    "whirlwind.middleware.session.redis",
    "core.request",
    "whirlwind.db.memcache_interface",
    "application.connections",
    "connections",
    "app_template.application.controllers.site_controller",
    "session.redis.middleware",
    "whirlwind.conf.app_template.application",
    "session.middleware",
    "whirlwind.contrib.sockjs.sockjs_base_request",
    "redis_interface",
    "whirlwind.middleware.session.memcache.middleware",
    "redis.middleware",
    "contrib.sockjs.router_connection",
    "view.paginator",
    "db.redis_interface",
    "whirlwind.conf.app_template.version",
    "redis",
    "session.memcache",
    "app_template.application.connections.chat",
    "whirlwind.view.decorators",
    "version",
    "middleware.test",
    "config.example.settings",
    "application.controllers.site_controller",
    "conf.app_template",
    "decorators",
    "whirlwind.conf.app_template",
    "core",
    "conf",
    "db.memcache_interface",
    "memcache_interface",
    "conf.app_template.application.connections.chat",
    "application.models",
    "application.controllers",
    "bin.whirlwind-admin",
    "middleware.flash.middleware",
    "whirlwind.middleware.flash.middleware",
    "routes",
    "conf.app_template.application.models",
    "view",
    "whirlwind.middleware.session.memcache",
    "app_template.config",
    "whirlwind.contrib.sockjs.multiplex",
    "whirlwind.conf.app_template.config.routes",
    "sockjs.multiplex",
    "whirlwind.contrib.sockjs",
    "whirlwind.core.log",
    "whirlwind.middleware.flash",
    "conf.app_template.application",
    "contrib",
    "app_template.application.models",
    "whirlwind.conf.app_template.application.controllers.site_controller",
    "conf.app_template.application.controllers",
    "log",
    "app_template.main",
    "app_template.config.routes",
    "core.bootstrap",
    "conf.app_template.config.settings",
    "app_template.application.models.user",
    "app_template.application.controllers.account_controller",
    "view.filters",
    "app_template.config.settings",
    "models.user",
    "middleware.session.redis",
    "conf.app_template.config",
    "memcache",
    "conf.app_template.application.controllers.site_controller",
    "whirlwind.util",
    "app_template.application.connections",
    "main",
    "app_template.application.controllers",
    "whirlwind.core.routes",
    "whirlwind.db",
    "conf.app_template.config.routes",
    "whirlwind.conf.app_template.application.models.user",
    "config.routes",
    "middleware.session.memcache.middleware",
    "whirlwind.conf.app_template.application.models",
    "mongo",
    "whirlwind.conf.app_template.application.controllers",
    "flash.middleware",
    "whirlwind.conf.app_template.application.controllers.account_controller",
    "chat",
    "util.singleton",
    "contrib.sockjs.multiplex",
    "middleware.session.redis.middleware",
    "whirlwind.middleware",
    "whirlwind.core.bootstrap",
    "contrib.sockjs.bootstrap",
    "whirlwind.conf.app_template.config",
    "core.multithreading",
    "sockjs",
    "core.log",
    "conf.app_template.application.controllers.account_controller",
    "memcache.middleware",
    "application",
    "whirlwind.bin.whirlwind-admin",
    "sockjs.sockjs_base_request",
    "example.settings",
    "conf.app_template.application.connections",
    "app_template.config.example.settings",
    "models",
    "db.mongo",
    "middleware.session.middleware",
    "application.connections.chat",
    "middleware.session.memcache",
    "whirlwind.view",
    "whirlwind.bin",
    "user",
    "whirlwind.util.singleton",
    "singleton",
    "contrib.sockjs.sockjs_base_request",
    "session.redis",
    "whirlwind.conf.app_template.main",
    "bootstrap",
    "request",
    "middleware.flash",
    "view.decorators",
    "whirlwind.core.request",
    "conf.app_template.config.example.settings",
    "middleware.session",
    "site_controller",
    "whirlwind.view.filters",
    "whirlwind.core"
]