[
    "converter.avcodecs",
    "ffmpeg",
    "doc",
    "doc.conf",
    "test.test",
    "converter.formats",
    "converter.ffmpeg",
    "conf",
    "formats",
    "test",
    "avcodecs",
    "converter"
]