{
    "archive_url": "https://api.github.com/repos/jannson/yaha/{archive_format}{/ref}",
    "assignees_url": "https://api.github.com/repos/jannson/yaha/assignees{/user}",
    "blobs_url": "https://api.github.com/repos/jannson/yaha/git/blobs{/sha}",
    "branches_url": "https://api.github.com/repos/jannson/yaha/branches{/branch}",
    "clone_url": "https://github.com/jannson/yaha.git",
    "collaborators_url": "https://api.github.com/repos/jannson/yaha/collaborators{/collaborator}",
    "comments_url": "https://api.github.com/repos/jannson/yaha/comments{/number}",
    "commits_url": "https://api.github.com/repos/jannson/yaha/commits{/sha}",
    "compare_url": "https://api.github.com/repos/jannson/yaha/compare/{base}...{head}",
    "contents_url": "https://api.github.com/repos/jannson/yaha/contents/{+path}",
    "contributors_url": "https://api.github.com/repos/jannson/yaha/contributors",
    "created_at": "2013-08-12T04:36:38Z",
    "default_branch": "master",
    "description": "yaha",
    "downloads_url": "https://api.github.com/repos/jannson/yaha/downloads",
    "events_url": "https://api.github.com/repos/jannson/yaha/events",
    "fork": false,
    "forks": 21,
    "forks_count": 21,
    "forks_url": "https://api.github.com/repos/jannson/yaha/forks",
    "full_name": "jannson/yaha",
    "git_commits_url": "https://api.github.com/repos/jannson/yaha/git/commits{/sha}",
    "git_refs_url": "https://api.github.com/repos/jannson/yaha/git/refs{/sha}",
    "git_tags_url": "https://api.github.com/repos/jannson/yaha/git/tags{/sha}",
    "git_url": "git://github.com/jannson/yaha.git",
    "has_downloads": true,
    "has_issues": true,
    "has_wiki": true,
    "homepage": null,
    "hooks_url": "https://api.github.com/repos/jannson/yaha/hooks",
    "html_url": "https://github.com/jannson/yaha",
    "id": 12047992,
    "issue_comment_url": "https://api.github.com/repos/jannson/yaha/issues/comments/{number}",
    "issue_events_url": "https://api.github.com/repos/jannson/yaha/issues/events{/number}",
    "issues_url": "https://api.github.com/repos/jannson/yaha/issues{/number}",
    "keys_url": "https://api.github.com/repos/jannson/yaha/keys{/key_id}",
    "labels_url": "https://api.github.com/repos/jannson/yaha/labels{/name}",
    "language": "Python",
    "languages_url": "https://api.github.com/repos/jannson/yaha/languages",
    "merges_url": "https://api.github.com/repos/jannson/yaha/merges",
    "milestones_url": "https://api.github.com/repos/jannson/yaha/milestones{/number}",
    "mirror_url": null,
    "name": "yaha",
    "notifications_url": "https://api.github.com/repos/jannson/yaha/notifications{?since,all,participating}",
    "open_issues": 2,
    "open_issues_count": 2,
    "owner": {
        "avatar_url": "https://avatars.githubusercontent.com/u/4100344?",
        "events_url": "https://api.github.com/users/jannson/events{/privacy}",
        "followers_url": "https://api.github.com/users/jannson/followers",
        "following_url": "https://api.github.com/users/jannson/following{/other_user}",
        "gists_url": "https://api.github.com/users/jannson/gists{/gist_id}",
        "gravatar_id": "68db158249a0a410191e062934cc83d5",
        "html_url": "https://github.com/jannson",
        "id": 4100344,
        "login": "jannson",
        "organizations_url": "https://api.github.com/users/jannson/orgs",
        "received_events_url": "https://api.github.com/users/jannson/received_events",
        "repos_url": "https://api.github.com/users/jannson/repos",
        "site_admin": false,
        "starred_url": "https://api.github.com/users/jannson/starred{/owner}{/repo}",
        "subscriptions_url": "https://api.github.com/users/jannson/subscriptions",
        "type": "User",
        "url": "https://api.github.com/users/jannson"
    },
    "private": false,
    "pulls_url": "https://api.github.com/repos/jannson/yaha/pulls{/number}",
    "pushed_at": "2014-03-18T00:47:33Z",
    "releases_url": "https://api.github.com/repos/jannson/yaha/releases{/id}",
    "score": 1.0,
    "size": 4612,
    "ssh_url": "git@github.com:jannson/yaha.git",
    "stargazers_count": 57,
    "stargazers_url": "https://api.github.com/repos/jannson/yaha/stargazers",
    "statuses_url": "https://api.github.com/repos/jannson/yaha/statuses/{sha}",
    "subscribers_url": "https://api.github.com/repos/jannson/yaha/subscribers",
    "subscription_url": "https://api.github.com/repos/jannson/yaha/subscription",
    "svn_url": "https://github.com/jannson/yaha",
    "tags_url": "https://api.github.com/repos/jannson/yaha/tags",
    "teams_url": "https://api.github.com/repos/jannson/yaha/teams",
    "trees_url": "https://api.github.com/repos/jannson/yaha/git/trees{/sha}",
    "updated_at": "2014-05-06T10:09:09Z",
    "url": "https://api.github.com/repos/jannson/yaha",
    "watchers": 57,
    "watchers_count": 57
}