[
    "wsgi",
    "meetup.legacy",
    "moscowdjango.settings_staging",
    "meetup.migrations.0008_auto__add_field_event_manual_on_air",
    "vacancies.models",
    "manage",
    "templatetags.markup",
    "meetup.migrations.0002_auto__add_field_talk_position",
    "0009_auto__add_tutorial",
    "0006_fill_slugs",
    "__local_settings",
    "0011_auto__add_vote",
    "meetup.migrations",
    "migrations.0002_auto__add_field_talk_position",
    "serializers.json_pretty",
    "forms",
    "meetup.admin",
    "test_subscribe",
    "meetup.utils",
    "tests.test_on_air",
    "meetup.legacy.views",
    "vacancies.migrations.0001_initial",
    "migrations.0011_auto__add_vote",
    "tests",
    "migrations.0004_auto__add_field_event_timepad_id",
    "0003_auto__add_mediacoverage",
    "views",
    "docs",
    "meetup.templatetags.markup",
    "migrations.0001_initial",
    "migrations.0010_auto__add_field_sponsor_status",
    "amazon",
    "vacancies.admin",
    "settings_production",
    "moscowdjango.serializers",
    "meetup.migrations.0009_auto__add_tutorial",
    "docs.conf",
    "test_redirect",
    "test_views",
    "settings",
    "meetup.migrations.0004_auto__add_field_event_timepad_id",
    "moscowdjango.__local_settings",
    "migrations.0009_auto__add_tutorial",
    "legacy",
    "moscowdjango.wsgi",
    "legacy.views",
    "test_on_air",
    "vacancies",
    "vacancies.views",
    "meetup.migrations.0001_initial",
    "meetup.context",
    "migrations.0005_auto__add_field_speaker_slug",
    "moscowdjango.urls",
    "utils",
    "meetup.templatetags",
    "0008_auto__add_field_event_manual_on_air",
    "conf",
    "tests.test_views",
    "migrations.0008_auto__add_field_event_manual_on_air",
    "moscowdjango.settings_production",
    "meetup.forms",
    "moscowdjango.settings",
    "serializers",
    "0004_auto__add_field_event_timepad_id",
    "0010_auto__add_field_sponsor_status",
    "migrations",
    "migrations.0003_auto__add_mediacoverage",
    "meetup",
    "vacancies.urls",
    "migrations.0006_fill_slugs",
    "meetup.migrations.0003_auto__add_mediacoverage",
    "migrations.0007_auto__add_field_speaker_description",
    "meetup.migrations.0007_auto__add_field_speaker_description",
    "context",
    "meetup.migrations.0011_auto__add_vote",
    "models",
    "settings_staging",
    "moscowdjango.amazon",
    "0007_auto__add_field_speaker_description",
    "0001_initial",
    "tests.test_subscribe",
    "moscowdjango",
    "json_pretty",
    "legacy.urls",
    "meetup.models",
    "meetup.views",
    "moscowdjango.serializers.json_pretty",
    "admin",
    "0002_auto__add_field_talk_position",
    "markup",
    "templatetags",
    "vacancies.migrations",
    "tests.test_redirect",
    "0005_auto__add_field_speaker_slug",
    "meetup.migrations.0006_fill_slugs",
    "meetup.urls",
    "urls",
    "meetup.legacy.urls",
    "meetup.migrations.0005_auto__add_field_speaker_slug",
    "meetup.migrations.0010_auto__add_field_sponsor_status"
]