[
    "image_tricks",
    "segaran-recommend",
    "f2py.chaos",
    "pade2",
    "pass_array_args",
    "chaos",
    "shellExample",
    "SciPy",
    "f2py.pass_args",
    "f2py.pass_array_args",
    "SciPy.integrate",
    "shellExample.generate_data",
    "constants",
    "SciPy.image_tricks",
    "SciPy.special_functions",
    "recommendationEngine.recommend",
    "recommendationEngine",
    "pass_args",
    "recommendationEngine.segaran-recommend",
    "f2py",
    "SciPy.pade1",
    "SciPy.pade2",
    "pade1",
    "generate_data",
    "special_functions",
    "recommend",
    "integrate",
    "SciPy.constants"
]