[
    "mediasync.tests.settings",
    "mediasync",
    "conf",
    "syncmedia",
    "tests.tests",
    "slim",
    "processors.yuicompressor",
    "processors.slim",
    "mediasync.tests.tests",
    "mediasync.templatetags.media",
    "processors.closurecompiler",
    "mediasync.backends",
    "mediasync.conf",
    "management.commands.syncmedia",
    "management",
    "processors",
    "templatetags.media",
    "s3",
    "mediasync.backends.cloudfiles",
    "signals",
    "mediasync.urls",
    "backends.s3",
    "backends",
    "tests.settings",
    "mediasync.processors.closurecompiler",
    "yuicompressor",
    "mediasync.tests.models",
    "tests",
    "mediasync.tests",
    "mediasync.processors.yuicompressor",
    "views",
    "models",
    "mediasync.processors",
    "cloudfiles",
    "mediasync.backends.s3",
    "mediasync.views",
    "mediasync.management",
    "mediasync.signals",
    "mediasync.models",
    "dummy",
    "commands",
    "closurecompiler",
    "settings",
    "tests.models",
    "mediasync.management.commands.syncmedia",
    "mediasync.backends.dummy",
    "templatetags",
    "backends.dummy",
    "backends.cloudfiles",
    "mediasync.management.commands",
    "urls",
    "media",
    "mediasync.templatetags",
    "management.commands",
    "mediasync.processors.slim",
    "commands.syncmedia"
]