[
    "bin",
    "nomagic.torndb",
    "nomagic.connection",
    "auth",
    "nomagic.auth",
    "nomagic.hash_ring",
    "migration",
    "nomagic.friends",
    "friends",
    "torndb",
    "nomagic.feeds",
    "nomagic.setting",
    "hash_ring",
    "bin.migration",
    "connection",
    "setting",
    "nomagic",
    "feeds"
]