{
    "libs": [
        "threading",
        "tempfile",
        "functools",
        "subprocess",
        "re",
        "shlex",
        "time",
        "path",
        "sublime_plugin",
        "os",
        "sublime"
    ]
}