{
    "libs": [
        "cStringIO",
        "loader",
        "SimpleHTTPServer",
        "unittest",
        "random",
        "subprocess",
        "_winreg",
        "calendar",
        "ElementTree",
        "select",
        "struct",
        "imaplib",
        "tempfile",
        "errno",
        "zoneinfo",
        "webtest",
        "urllib",
        "re",
        "json",
        "version",
        "smtplib",
        "SocketServer",
        "mock",
        "realsocket",
        "cgi",
        "string",
        "simplejson",
        "itertools",
        "appstats",
        "sys",
        "version_cl",
        "webapp",
        "datetime",
        "argparse",
        "b",
        "logging",
        "thread",
        "StringIO",
        "util",
        "signal",
        "dev_appserver",
        "urlparse",
        "threading",
        "ext",
        "nose",
        "time",
        "requests",
        "os"
    ]
}