{
    "archive_url": "https://api.github.com/repos/Arachnid/bulkupdate/{archive_format}{/ref}",
    "assignees_url": "https://api.github.com/repos/Arachnid/bulkupdate/assignees{/user}",
    "blobs_url": "https://api.github.com/repos/Arachnid/bulkupdate/git/blobs{/sha}",
    "branches_url": "https://api.github.com/repos/Arachnid/bulkupdate/branches{/branch}",
    "clone_url": "https://github.com/Arachnid/bulkupdate.git",
    "collaborators_url": "https://api.github.com/repos/Arachnid/bulkupdate/collaborators{/collaborator}",
    "comments_url": "https://api.github.com/repos/Arachnid/bulkupdate/comments{/number}",
    "commits_url": "https://api.github.com/repos/Arachnid/bulkupdate/commits{/sha}",
    "compare_url": "https://api.github.com/repos/Arachnid/bulkupdate/compare/{base}...{head}",
    "contents_url": "https://api.github.com/repos/Arachnid/bulkupdate/contents/{+path}",
    "contributors_url": "https://api.github.com/repos/Arachnid/bulkupdate/contributors",
    "created_at": "2010-03-12T12:42:09Z",
    "default_branch": "master",
    "description": "App Engine bulk updater library",
    "downloads_url": "https://api.github.com/repos/Arachnid/bulkupdate/downloads",
    "events_url": "https://api.github.com/repos/Arachnid/bulkupdate/events",
    "fork": false,
    "forks": 6,
    "forks_count": 6,
    "forks_url": "https://api.github.com/repos/Arachnid/bulkupdate/forks",
    "full_name": "Arachnid/bulkupdate",
    "git_commits_url": "https://api.github.com/repos/Arachnid/bulkupdate/git/commits{/sha}",
    "git_refs_url": "https://api.github.com/repos/Arachnid/bulkupdate/git/refs{/sha}",
    "git_tags_url": "https://api.github.com/repos/Arachnid/bulkupdate/git/tags{/sha}",
    "git_url": "git://github.com/Arachnid/bulkupdate.git",
    "has_downloads": true,
    "has_issues": true,
    "has_wiki": true,
    "homepage": "",
    "hooks_url": "https://api.github.com/repos/Arachnid/bulkupdate/hooks",
    "html_url": "https://github.com/Arachnid/bulkupdate",
    "id": 559189,
    "issue_comment_url": "https://api.github.com/repos/Arachnid/bulkupdate/issues/comments/{number}",
    "issue_events_url": "https://api.github.com/repos/Arachnid/bulkupdate/issues/events{/number}",
    "issues_url": "https://api.github.com/repos/Arachnid/bulkupdate/issues{/number}",
    "keys_url": "https://api.github.com/repos/Arachnid/bulkupdate/keys{/key_id}",
    "labels_url": "https://api.github.com/repos/Arachnid/bulkupdate/labels{/name}",
    "language": "Python",
    "languages_url": "https://api.github.com/repos/Arachnid/bulkupdate/languages",
    "merges_url": "https://api.github.com/repos/Arachnid/bulkupdate/merges",
    "milestones_url": "https://api.github.com/repos/Arachnid/bulkupdate/milestones{/number}",
    "mirror_url": null,
    "name": "bulkupdate",
    "notifications_url": "https://api.github.com/repos/Arachnid/bulkupdate/notifications{?since,all,participating}",
    "open_issues": 4,
    "open_issues_count": 4,
    "owner": {
        "avatar_url": "https://avatars.githubusercontent.com/u/17865?",
        "events_url": "https://api.github.com/users/Arachnid/events{/privacy}",
        "followers_url": "https://api.github.com/users/Arachnid/followers",
        "following_url": "https://api.github.com/users/Arachnid/following{/other_user}",
        "gists_url": "https://api.github.com/users/Arachnid/gists{/gist_id}",
        "gravatar_id": "dc69af7dd7151a00843602888638fabb",
        "html_url": "https://github.com/Arachnid",
        "id": 17865,
        "login": "Arachnid",
        "organizations_url": "https://api.github.com/users/Arachnid/orgs",
        "received_events_url": "https://api.github.com/users/Arachnid/received_events",
        "repos_url": "https://api.github.com/users/Arachnid/repos",
        "site_admin": false,
        "starred_url": "https://api.github.com/users/Arachnid/starred{/owner}{/repo}",
        "subscriptions_url": "https://api.github.com/users/Arachnid/subscriptions",
        "type": "User",
        "url": "https://api.github.com/users/Arachnid"
    },
    "private": false,
    "pulls_url": "https://api.github.com/repos/Arachnid/bulkupdate/pulls{/number}",
    "pushed_at": "2010-03-24T14:47:47Z",
    "releases_url": "https://api.github.com/repos/Arachnid/bulkupdate/releases{/id}",
    "score": 1.0,
    "size": 102,
    "ssh_url": "git@github.com:Arachnid/bulkupdate.git",
    "stargazers_count": 40,
    "stargazers_url": "https://api.github.com/repos/Arachnid/bulkupdate/stargazers",
    "statuses_url": "https://api.github.com/repos/Arachnid/bulkupdate/statuses/{sha}",
    "subscribers_url": "https://api.github.com/repos/Arachnid/bulkupdate/subscribers",
    "subscription_url": "https://api.github.com/repos/Arachnid/bulkupdate/subscription",
    "svn_url": "https://github.com/Arachnid/bulkupdate",
    "tags_url": "https://api.github.com/repos/Arachnid/bulkupdate/tags",
    "teams_url": "https://api.github.com/repos/Arachnid/bulkupdate/teams",
    "trees_url": "https://api.github.com/repos/Arachnid/bulkupdate/git/trees{/sha}",
    "updated_at": "2013-10-08T21:09:38Z",
    "url": "https://api.github.com/repos/Arachnid/bulkupdate",
    "watchers": 40,
    "watchers_count": 40
}