{
    "libs": [
        "backendcompiler",
        "unittest",
        "random",
        "__builtin__",
        "Tool",
        "operator",
        "shutil",
        "backendtypes",
        "timeit",
        "re",
        "tempfile",
        "pyplot",
        "py",
        "urllib",
        "platform",
        "tags",
        "collections",
        "ph",
        "numpy",
        "image",
        "math",
        "doctest",
        "division",
        "C",
        "string",
        "cgen",
        "Builder",
        "inspect",
        "matplotlib",
        "sys",
        "absolute_import",
        "Defaults",
        "plac",
        "path",
        "copy",
        "backendsyntax",
        "functools",
        "_",
        "pickle",
        "bpl",
        "itertools",
        "cuda",
        "time",
        "fnmatch",
        "os",
        "pdb"
    ]
}