{
    "archive_url": "https://api.github.com/repos/esacteksab/learning-salt/{archive_format}{/ref}",
    "assignees_url": "https://api.github.com/repos/esacteksab/learning-salt/assignees{/user}",
    "blobs_url": "https://api.github.com/repos/esacteksab/learning-salt/git/blobs{/sha}",
    "branches_url": "https://api.github.com/repos/esacteksab/learning-salt/branches{/branch}",
    "clone_url": "https://github.com/esacteksab/learning-salt.git",
    "collaborators_url": "https://api.github.com/repos/esacteksab/learning-salt/collaborators{/collaborator}",
    "comments_url": "https://api.github.com/repos/esacteksab/learning-salt/comments{/number}",
    "commits_url": "https://api.github.com/repos/esacteksab/learning-salt/commits{/sha}",
    "compare_url": "https://api.github.com/repos/esacteksab/learning-salt/compare/{base}...{head}",
    "contents_url": "https://api.github.com/repos/esacteksab/learning-salt/contents/{+path}",
    "contributors_url": "https://api.github.com/repos/esacteksab/learning-salt/contributors",
    "created_at": "2013-03-12T19:49:27Z",
    "default_branch": "master",
    "description": "A repo used for learning Salt Stack by deploying a Django Project",
    "downloads_url": "https://api.github.com/repos/esacteksab/learning-salt/downloads",
    "events_url": "https://api.github.com/repos/esacteksab/learning-salt/events",
    "fork": false,
    "forks": 13,
    "forks_count": 13,
    "forks_url": "https://api.github.com/repos/esacteksab/learning-salt/forks",
    "full_name": "esacteksab/learning-salt",
    "git_commits_url": "https://api.github.com/repos/esacteksab/learning-salt/git/commits{/sha}",
    "git_refs_url": "https://api.github.com/repos/esacteksab/learning-salt/git/refs{/sha}",
    "git_tags_url": "https://api.github.com/repos/esacteksab/learning-salt/git/tags{/sha}",
    "git_url": "git://github.com/esacteksab/learning-salt.git",
    "has_downloads": true,
    "has_issues": true,
    "has_wiki": true,
    "homepage": "http://www.barrymorrison.com/2013/Mar/11/deploying-django-with-salt-stack/ ",
    "hooks_url": "https://api.github.com/repos/esacteksab/learning-salt/hooks",
    "html_url": "https://github.com/esacteksab/learning-salt",
    "id": 8736861,
    "issue_comment_url": "https://api.github.com/repos/esacteksab/learning-salt/issues/comments/{number}",
    "issue_events_url": "https://api.github.com/repos/esacteksab/learning-salt/issues/events{/number}",
    "issues_url": "https://api.github.com/repos/esacteksab/learning-salt/issues{/number}",
    "keys_url": "https://api.github.com/repos/esacteksab/learning-salt/keys{/key_id}",
    "labels_url": "https://api.github.com/repos/esacteksab/learning-salt/labels{/name}",
    "language": "Ruby",
    "languages_url": "https://api.github.com/repos/esacteksab/learning-salt/languages",
    "merges_url": "https://api.github.com/repos/esacteksab/learning-salt/merges",
    "milestones_url": "https://api.github.com/repos/esacteksab/learning-salt/milestones{/number}",
    "mirror_url": null,
    "name": "learning-salt",
    "notifications_url": "https://api.github.com/repos/esacteksab/learning-salt/notifications{?since,all,participating}",
    "open_issues": 0,
    "open_issues_count": 0,
    "owner": {
        "avatar_url": "https://avatars.githubusercontent.com/u/689591?",
        "events_url": "https://api.github.com/users/esacteksab/events{/privacy}",
        "followers_url": "https://api.github.com/users/esacteksab/followers",
        "following_url": "https://api.github.com/users/esacteksab/following{/other_user}",
        "gists_url": "https://api.github.com/users/esacteksab/gists{/gist_id}",
        "gravatar_id": "0e5e12d5c4f89ee43527f80ad545e5b3",
        "html_url": "https://github.com/esacteksab",
        "id": 689591,
        "login": "esacteksab",
        "organizations_url": "https://api.github.com/users/esacteksab/orgs",
        "received_events_url": "https://api.github.com/users/esacteksab/received_events",
        "repos_url": "https://api.github.com/users/esacteksab/repos",
        "site_admin": false,
        "starred_url": "https://api.github.com/users/esacteksab/starred{/owner}{/repo}",
        "subscriptions_url": "https://api.github.com/users/esacteksab/subscriptions",
        "type": "User",
        "url": "https://api.github.com/users/esacteksab"
    },
    "private": false,
    "pulls_url": "https://api.github.com/repos/esacteksab/learning-salt/pulls{/number}",
    "pushed_at": "2014-01-17T22:58:24Z",
    "releases_url": "https://api.github.com/repos/esacteksab/learning-salt/releases{/id}",
    "score": 1.0,
    "size": 170,
    "ssh_url": "git@github.com:esacteksab/learning-salt.git",
    "stargazers_count": 57,
    "stargazers_url": "https://api.github.com/repos/esacteksab/learning-salt/stargazers",
    "statuses_url": "https://api.github.com/repos/esacteksab/learning-salt/statuses/{sha}",
    "subscribers_url": "https://api.github.com/repos/esacteksab/learning-salt/subscribers",
    "subscription_url": "https://api.github.com/repos/esacteksab/learning-salt/subscription",
    "svn_url": "https://github.com/esacteksab/learning-salt",
    "tags_url": "https://api.github.com/repos/esacteksab/learning-salt/tags",
    "teams_url": "https://api.github.com/repos/esacteksab/learning-salt/teams",
    "trees_url": "https://api.github.com/repos/esacteksab/learning-salt/git/trees{/sha}",
    "updated_at": "2014-01-17T22:58:24Z",
    "url": "https://api.github.com/repos/esacteksab/learning-salt",
    "watchers": 57,
    "watchers_count": 57
}