[
    "badger.validate_jsonp",
    "badger.tests.test_feeds",
    "badger.management.commands.rebake_awards",
    "rebake_awards",
    "badger.printing",
    "badger.utils",
    "badger.admin",
    "badger_tags",
    "badges",
    "badger",
    "migrations.0006_auto__add_field_nomination_rejecter__add_field_nomination_rejection_re",
    "forms",
    "management",
    "0005_auto__add_field_award_description",
    "test_feeds",
    "badger.migrations.0002_auto__add_deferredaward__add_field_badge_nominations_accepted",
    "signals",
    "badger.models",
    "commands.update_badges",
    "badger_example.badges",
    "migrations.0002_auto__add_deferredaward__add_field_badge_nominations_accepted",
    "badger.tests.test_models",
    "badger.forms",
    "badger.tests.test_badges_py",
    "manage",
    "badger.views",
    "views",
    "docs",
    "migrations.0005_auto__add_field_award_description",
    "migrations.0001_initial",
    "badger.templatetags",
    "badger.feeds",
    "badger.tests.test_views",
    "0004_auto__add_nomination",
    "docs.conf",
    "update_badges",
    "0002_auto__add_deferredaward__add_field_badge_nominations_accepted",
    "test_views",
    "badger.helpers",
    "middleware",
    "printing",
    "test_settings",
    "badger.management.commands.update_badges",
    "feeds",
    "management.commands",
    "badger.signals",
    "badger.migrations.0005_auto__add_field_award_description",
    "tests.test_badges_py",
    "badger.migrations.0003_auto__add_field_award_claim_code__chg_field_deferredaward_claim_code",
    "utils",
    "migrations.0003_auto__add_field_award_claim_code__chg_field_deferredaward_claim_code",
    "tests",
    "tests.test_views",
    "conf",
    "badger_example",
    "0007_auto__add_field_badge_nominations_autoapproved",
    "badger.templatetags.badger_tags",
    "badger.migrations.0007_auto__add_field_badge_nominations_autoapproved",
    "badger_example.models",
    "tests.test_feeds",
    "test_middleware",
    "migrations",
    "test_badges_py",
    "management.commands.rebake_awards",
    "badger.migrations.0004_auto__add_nomination",
    "badger.migrations",
    "badger.tests.test_middleware",
    "badger.urls",
    "badger.migrations.0001_initial",
    "0006_auto__add_field_nomination_rejecter__add_field_nomination_rejection_re",
    "tests.test_middleware",
    "commands.rebake_awards",
    "models",
    "badger.middleware",
    "management.commands.update_badges",
    "badger_example.urls",
    "badger.urls_simple",
    "badger.tests",
    "badger.management.commands",
    "validate_jsonp",
    "urls_simple",
    "migrations.0004_auto__add_nomination",
    "badger.migrations.0006_auto__add_field_nomination_rejecter__add_field_nomination_rejection_re",
    "commands",
    "templatetags.badger_tags",
    "admin",
    "migrations.0007_auto__add_field_badge_nominations_autoapproved",
    "templatetags",
    "test_models",
    "tests.test_models",
    "helpers",
    "urls",
    "0001_initial",
    "0003_auto__add_field_award_claim_code__chg_field_deferredaward_claim_code",
    "badger.management"
]