[
    "protocol",
    "kazoo.tests.test_queue",
    "recipe",
    "kazoo.protocol.connection",
    "testing.common",
    "kazoo.tests.test_lock",
    "kazoo.exceptions",
    "tests.test_queue",
    "kazoo.tests.test_watchers",
    "recipe.barrier",
    "tests",
    "docs",
    "util",
    "kazoo.recipe.election",
    "party",
    "docs.conf",
    "tests.test_watchers",
    "kazoo.client",
    "test_threading_handler",
    "kazoo.interfaces",
    "tests.test_security",
    "test_security",
    "handlers.gevent",
    "tests.test_build",
    "kazoo.tests.test_retry",
    "kazoo.handlers",
    "hosts",
    "common",
    "test_barrier",
    "security",
    "tests.test_retry",
    "tests.test_barrier",
    "kazoo.recipe.party",
    "testing",
    "gevent",
    "election",
    "kazoo.retry",
    "protocol.paths",
    "tests.test_partitioner",
    "kazoo.hosts",
    "recipe.election",
    "retry",
    "kazoo.testing.harness",
    "threading",
    "tests.test_client",
    "test_queue",
    "tests.test_threading_handler",
    "recipe.lock",
    "harness",
    "test_connection",
    "barrier",
    "run_failure",
    "kazoo.recipe",
    "interfaces",
    "sw.virtualenv",
    "kazoo.tests",
    "kazoo.tests.test_build",
    "serialization",
    "kazoo.handlers.threading",
    "watchers",
    "handlers",
    "kazoo.recipe.lock",
    "kazoo.recipe.barrier",
    "queue",
    "connection",
    "test_gevent_handler",
    "kazoo.tests.test_paths",
    "recipe.party",
    "kazoo",
    "loggingsupport",
    "kazoo.recipe.watchers",
    "handlers.threading",
    "protocol.connection",
    "tests.test_paths",
    "tests.test_election",
    "recipe.queue",
    "kazoo.tests.test_client",
    "kazoo.testing",
    "test_client",
    "kazoo.recipe.counter",
    "kazoo.protocol.paths",
    "recipe.partitioner",
    "test_party",
    "kazoo.security",
    "kazoo.handlers.gevent",
    "kazoo.protocol",
    "tests.test_party",
    "kazoo.tests.test_counter",
    "kazoo.tests.test_exceptions",
    "test_paths",
    "test_watchers",
    "protocol.serialization",
    "kazoo.tests.test_partitioner",
    "kazoo.recipe.partitioner",
    "kazoo.tests.test_connection",
    "testing.harness",
    "kazoo.loggingsupport",
    "kazoo.tests.test_security",
    "tests.test_counter",
    "exceptions",
    "kazoo.tests.test_threading_handler",
    "test_build",
    "kazoo.protocol.serialization",
    "kazoo.tests.test_barrier",
    "kazoo.protocol.states",
    "kazoo.handlers.utils",
    "lock",
    "utils",
    "kazoo.tests.test_election",
    "tests.test_exceptions",
    "test_election",
    "states",
    "recipe.counter",
    "conf",
    "tests.test_connection",
    "kazoo.tests.util",
    "paths",
    "kazoo.tests.test_party",
    "test_retry",
    "test_exceptions",
    "protocol.states",
    "test_counter",
    "tests.test_gevent_handler",
    "virtualenv",
    "kazoo.recipe.queue",
    "kazoo.testing.common",
    "tests.test_lock",
    "recipe.watchers",
    "handlers.utils",
    "test_partitioner",
    "tests.util",
    "kazoo.tests.test_gevent_handler",
    "test_lock",
    "counter",
    "sw",
    "partitioner",
    "client"
]