{
    "archive_url": "https://api.github.com/repos/gkmngrgn/django-voice/{archive_format}{/ref}",
    "assignees_url": "https://api.github.com/repos/gkmngrgn/django-voice/assignees{/user}",
    "blobs_url": "https://api.github.com/repos/gkmngrgn/django-voice/git/blobs{/sha}",
    "branches_url": "https://api.github.com/repos/gkmngrgn/django-voice/branches{/branch}",
    "clone_url": "https://github.com/gkmngrgn/django-voice.git",
    "collaborators_url": "https://api.github.com/repos/gkmngrgn/django-voice/collaborators{/collaborator}",
    "comments_url": "https://api.github.com/repos/gkmngrgn/django-voice/comments{/number}",
    "commits_url": "https://api.github.com/repos/gkmngrgn/django-voice/commits{/sha}",
    "compare_url": "https://api.github.com/repos/gkmngrgn/django-voice/compare/{base}...{head}",
    "contents_url": "https://api.github.com/repos/gkmngrgn/django-voice/contents/{+path}",
    "contributors_url": "https://api.github.com/repos/gkmngrgn/django-voice/contributors",
    "created_at": "2011-06-30T21:00:06Z",
    "default_branch": "develop",
    "description": "A simple user feedback application for your Django project",
    "downloads_url": "https://api.github.com/repos/gkmngrgn/django-voice/downloads",
    "events_url": "https://api.github.com/repos/gkmngrgn/django-voice/events",
    "fork": false,
    "forks": 27,
    "forks_count": 27,
    "forks_url": "https://api.github.com/repos/gkmngrgn/django-voice/forks",
    "full_name": "gkmngrgn/django-voice",
    "git_commits_url": "https://api.github.com/repos/gkmngrgn/django-voice/git/commits{/sha}",
    "git_refs_url": "https://api.github.com/repos/gkmngrgn/django-voice/git/refs{/sha}",
    "git_tags_url": "https://api.github.com/repos/gkmngrgn/django-voice/git/tags{/sha}",
    "git_url": "git://github.com/gkmngrgn/django-voice.git",
    "has_downloads": true,
    "has_issues": true,
    "has_wiki": true,
    "homepage": "http://github.com/gkmngrgn/django-voice",
    "hooks_url": "https://api.github.com/repos/gkmngrgn/django-voice/hooks",
    "html_url": "https://github.com/gkmngrgn/django-voice",
    "id": 1980273,
    "issue_comment_url": "https://api.github.com/repos/gkmngrgn/django-voice/issues/comments/{number}",
    "issue_events_url": "https://api.github.com/repos/gkmngrgn/django-voice/issues/events{/number}",
    "issues_url": "https://api.github.com/repos/gkmngrgn/django-voice/issues{/number}",
    "keys_url": "https://api.github.com/repos/gkmngrgn/django-voice/keys{/key_id}",
    "labels_url": "https://api.github.com/repos/gkmngrgn/django-voice/labels{/name}",
    "language": "Python",
    "languages_url": "https://api.github.com/repos/gkmngrgn/django-voice/languages",
    "merges_url": "https://api.github.com/repos/gkmngrgn/django-voice/merges",
    "milestones_url": "https://api.github.com/repos/gkmngrgn/django-voice/milestones{/number}",
    "mirror_url": null,
    "name": "django-voice",
    "notifications_url": "https://api.github.com/repos/gkmngrgn/django-voice/notifications{?since,all,participating}",
    "open_issues": 5,
    "open_issues_count": 5,
    "owner": {
        "avatar_url": "https://avatars.githubusercontent.com/u/72323?",
        "events_url": "https://api.github.com/users/gkmngrgn/events{/privacy}",
        "followers_url": "https://api.github.com/users/gkmngrgn/followers",
        "following_url": "https://api.github.com/users/gkmngrgn/following{/other_user}",
        "gists_url": "https://api.github.com/users/gkmngrgn/gists{/gist_id}",
        "gravatar_id": "09fbe9dcb1b3d1635ceb63600d328f3b",
        "html_url": "https://github.com/gkmngrgn",
        "id": 72323,
        "login": "gkmngrgn",
        "organizations_url": "https://api.github.com/users/gkmngrgn/orgs",
        "received_events_url": "https://api.github.com/users/gkmngrgn/received_events",
        "repos_url": "https://api.github.com/users/gkmngrgn/repos",
        "site_admin": false,
        "starred_url": "https://api.github.com/users/gkmngrgn/starred{/owner}{/repo}",
        "subscriptions_url": "https://api.github.com/users/gkmngrgn/subscriptions",
        "type": "User",
        "url": "https://api.github.com/users/gkmngrgn"
    },
    "private": false,
    "pulls_url": "https://api.github.com/repos/gkmngrgn/django-voice/pulls{/number}",
    "pushed_at": "2014-04-22T09:02:22Z",
    "releases_url": "https://api.github.com/repos/gkmngrgn/django-voice/releases{/id}",
    "score": 1.0,
    "size": 869,
    "ssh_url": "git@github.com:gkmngrgn/django-voice.git",
    "stargazers_count": 70,
    "stargazers_url": "https://api.github.com/repos/gkmngrgn/django-voice/stargazers",
    "statuses_url": "https://api.github.com/repos/gkmngrgn/django-voice/statuses/{sha}",
    "subscribers_url": "https://api.github.com/repos/gkmngrgn/django-voice/subscribers",
    "subscription_url": "https://api.github.com/repos/gkmngrgn/django-voice/subscription",
    "svn_url": "https://github.com/gkmngrgn/django-voice",
    "tags_url": "https://api.github.com/repos/gkmngrgn/django-voice/tags",
    "teams_url": "https://api.github.com/repos/gkmngrgn/django-voice/teams",
    "trees_url": "https://api.github.com/repos/gkmngrgn/django-voice/git/trees{/sha}",
    "updated_at": "2014-04-22T09:02:24Z",
    "url": "https://api.github.com/repos/gkmngrgn/django-voice",
    "watchers": 70,
    "watchers_count": 70
}