{
    "libs": [
        "wsgi",
        "traceback",
        "functools",
        "random",
        "Queue",
        "fqdns",
        "datetime",
        "parse",
        "EVP",
        "gevent",
        "contextlib",
        "io",
        "frames",
        "shutil",
        "event",
        "select",
        "string",
        "queue",
        "monkey",
        "errno",
        "urllib",
        "tlslite",
        "re",
        "json",
        "paramiko",
        "zlib",
        "math",
        "cgi",
        "fqlan",
        "gzip",
        "netfilterqueue",
        "Rand",
        "urllib2",
        "dpkt",
        "sys",
        "ssl",
        "jinja2",
        "path",
        "copy",
        "struct",
        "ARC4",
        "argparse",
        "httplib",
        "b",
        "logging",
        "socket",
        "handlers",
        "h",
        "StringIO",
        "request",
        "uuid",
        "server",
        "urlparse",
        "threading",
        "client",
        "context",
        "time",
        "fnmatch",
        "os"
    ]
}