{
    "libs": [
        "main",
        "http",
        "defaults",
        "shortcuts",
        "functools",
        "cache",
        "functional",
        "django",
        "re",
        "template",
        "exceptions",
        "translation",
        "loader",
        "os",
        "admin"
    ]
}