{
    "libs": [
        "code",
        "random",
        "subprocess",
        "gc",
        "struct",
        "tempfile",
        "entities",
        "feedparser",
        "collections",
        "etree",
        "string",
        "SocketServer",
        "H",
        "textwrap",
        "netlib",
        "sqlite3",
        "dnet",
        "datetime",
        "geo",
        "cookielib",
        "h",
        "signal",
        "cmd",
        "sha",
        "cStringIO",
        "p",
        "with_statement",
        "atexit",
        "HTMLParser",
        "abc",
        "threading",
        "urllib",
        "re",
        "new",
        "math",
        "fcntl",
        "ftplib",
        "pcapy",
        "optparse",
        "inspect",
        "Me",
        "Queue",
        "codecs",
        "path",
        "pcap",
        "importlib",
        "commands",
        "logging",
        "socket",
        "thread",
        "traceback",
        "weakref",
        "itertools",
        "telnetlib",
        "os",
        "pdb",
        "urwid",
        "__builtin__",
        "default_p",
        "array",
        "select",
        "imp",
        "sre_constants",
        "json",
        "Cipher",
        "Cookie",
        "generators",
        "md5",
        "cPickle",
        "B",
        "popen2",
        "pwd",
        "copy",
        "RegEx",
        "b",
        "zlib",
        "chardet",
        "pyamf",
        "parser",
        "parse",
        "shutil",
        "paramiko",
        "bz2",
        "OpenSSL",
        "html",
        "getp",
        "getopt",
        "pyx",
        "warnings",
        "glob",
        "htmlentitydefs",
        "urllib2",
        "sys",
        "readline",
        "fl",
        "types",
        "argparse",
        "request",
        "visual",
        "datab",
        "urlparse",
        "PublicKey",
        "time",
        "gzip",
        "rlcompleter",
        "hmac"
    ]
}