{
    "libs": [
        "socket",
        "UserDict",
        "unittest",
        "datetime",
        "sys",
        "re",
        "pytest",
        "collections",
        "copy",
        "os",
        "decimal"
    ]
}