{
    "archive_url": "https://api.github.com/repos/zedshaw/librelist/{archive_format}{/ref}",
    "assignees_url": "https://api.github.com/repos/zedshaw/librelist/assignees{/user}",
    "blobs_url": "https://api.github.com/repos/zedshaw/librelist/git/blobs{/sha}",
    "branches_url": "https://api.github.com/repos/zedshaw/librelist/branches{/branch}",
    "clone_url": "https://github.com/zedshaw/librelist.git",
    "collaborators_url": "https://api.github.com/repos/zedshaw/librelist/collaborators{/collaborator}",
    "comments_url": "https://api.github.com/repos/zedshaw/librelist/comments{/number}",
    "commits_url": "https://api.github.com/repos/zedshaw/librelist/commits{/sha}",
    "compare_url": "https://api.github.com/repos/zedshaw/librelist/compare/{base}...{head}",
    "contents_url": "https://api.github.com/repos/zedshaw/librelist/contents/{+path}",
    "contributors_url": "https://api.github.com/repos/zedshaw/librelist/contributors",
    "created_at": "2012-11-28T17:16:43Z",
    "default_branch": "master",
    "description": "The code for the librelist.com free email service.",
    "downloads_url": "https://api.github.com/repos/zedshaw/librelist/downloads",
    "events_url": "https://api.github.com/repos/zedshaw/librelist/events",
    "fork": false,
    "forks": 8,
    "forks_count": 8,
    "forks_url": "https://api.github.com/repos/zedshaw/librelist/forks",
    "full_name": "zedshaw/librelist",
    "git_commits_url": "https://api.github.com/repos/zedshaw/librelist/git/commits{/sha}",
    "git_refs_url": "https://api.github.com/repos/zedshaw/librelist/git/refs{/sha}",
    "git_tags_url": "https://api.github.com/repos/zedshaw/librelist/git/tags{/sha}",
    "git_url": "git://github.com/zedshaw/librelist.git",
    "has_downloads": true,
    "has_issues": true,
    "has_wiki": true,
    "homepage": null,
    "hooks_url": "https://api.github.com/repos/zedshaw/librelist/hooks",
    "html_url": "https://github.com/zedshaw/librelist",
    "id": 6906192,
    "issue_comment_url": "https://api.github.com/repos/zedshaw/librelist/issues/comments/{number}",
    "issue_events_url": "https://api.github.com/repos/zedshaw/librelist/issues/events{/number}",
    "issues_url": "https://api.github.com/repos/zedshaw/librelist/issues{/number}",
    "keys_url": "https://api.github.com/repos/zedshaw/librelist/keys{/key_id}",
    "labels_url": "https://api.github.com/repos/zedshaw/librelist/labels{/name}",
    "language": "Python",
    "languages_url": "https://api.github.com/repos/zedshaw/librelist/languages",
    "merges_url": "https://api.github.com/repos/zedshaw/librelist/merges",
    "milestones_url": "https://api.github.com/repos/zedshaw/librelist/milestones{/number}",
    "mirror_url": null,
    "name": "librelist",
    "notifications_url": "https://api.github.com/repos/zedshaw/librelist/notifications{?since,all,participating}",
    "open_issues": 4,
    "open_issues_count": 4,
    "owner": {
        "avatar_url": "https://avatars.githubusercontent.com/u/358171?",
        "events_url": "https://api.github.com/users/zedshaw/events{/privacy}",
        "followers_url": "https://api.github.com/users/zedshaw/followers",
        "following_url": "https://api.github.com/users/zedshaw/following{/other_user}",
        "gists_url": "https://api.github.com/users/zedshaw/gists{/gist_id}",
        "gravatar_id": "8c43ed7f065406bf171c0f3eb32cf615",
        "html_url": "https://github.com/zedshaw",
        "id": 358171,
        "login": "zedshaw",
        "organizations_url": "https://api.github.com/users/zedshaw/orgs",
        "received_events_url": "https://api.github.com/users/zedshaw/received_events",
        "repos_url": "https://api.github.com/users/zedshaw/repos",
        "site_admin": false,
        "starred_url": "https://api.github.com/users/zedshaw/starred{/owner}{/repo}",
        "subscriptions_url": "https://api.github.com/users/zedshaw/subscriptions",
        "type": "User",
        "url": "https://api.github.com/users/zedshaw"
    },
    "private": false,
    "pulls_url": "https://api.github.com/repos/zedshaw/librelist/pulls{/number}",
    "pushed_at": "2012-11-28T17:50:21Z",
    "releases_url": "https://api.github.com/repos/zedshaw/librelist/releases{/id}",
    "score": 1.0,
    "size": 194,
    "ssh_url": "git@github.com:zedshaw/librelist.git",
    "stargazers_count": 53,
    "stargazers_url": "https://api.github.com/repos/zedshaw/librelist/stargazers",
    "statuses_url": "https://api.github.com/repos/zedshaw/librelist/statuses/{sha}",
    "subscribers_url": "https://api.github.com/repos/zedshaw/librelist/subscribers",
    "subscription_url": "https://api.github.com/repos/zedshaw/librelist/subscription",
    "svn_url": "https://github.com/zedshaw/librelist",
    "tags_url": "https://api.github.com/repos/zedshaw/librelist/tags",
    "teams_url": "https://api.github.com/repos/zedshaw/librelist/teams",
    "trees_url": "https://api.github.com/repos/zedshaw/librelist/git/trees{/sha}",
    "updated_at": "2014-04-27T13:20:09Z",
    "url": "https://api.github.com/repos/zedshaw/librelist",
    "watchers": 53,
    "watchers_count": 53
}