[
    "benchmark.benchmark_all",
    "cudatree.random_forest",
    "random_tree",
    "test.helpers",
    "test.test_diabetes_classify",
    "hybridforest.builder",
    "benchmark",
    "test.test_iris",
    "util",
    "hybridforest",
    "cudatree.base_tree",
    "test_covtype",
    "test_iris",
    "estimate_threshold",
    "cudatree.util",
    "test.test_digits",
    "builder",
    "test_diabetes_classify",
    "hybridforest.hybridforest",
    "cudatree",
    "helpers",
    "datasource",
    "random_forest",
    "cudatree.random_tree",
    "test",
    "cudatree.datasource",
    "test_digits",
    "benchmark_all",
    "test.test_covtype",
    "base_tree"
]