{
    "libs": [
        "autobahn",
        "random",
        "absolute_import",
        "datetime",
        "crossbard",
        "isodate",
        "web",
        "uuid",
        "tempfile",
        "psycopg2",
        "pprint",
        "imp",
        "Cipher",
        "collections",
        "crossbarmanual",
        "cred",
        "bin",
        "zipfile",
        "util",
        "ssl",
        "jinja2",
        "crossbardemo",
        "credentials",
        "deprecate",
        "h",
        "Random",
        "server",
        "psutil",
        "utf8validator",
        "setproctitle",
        "static",
        "tldextract",
        "pyodbc",
        "ftp",
        "checkers",
        "ujson",
        "urllib",
        "twcgi",
        "re",
        "internet",
        "math",
        "cgi",
        "inspect",
        "threads",
        "interface",
        "importlib",
        "sys",
        "logging",
        "socket",
        "thread",
        "traceback",
        "pkg_resources",
        "extensions",
        "runtime",
        "os",
        "or",
        "number",
        "__builtin__",
        "message",
        "select",
        "http_headers",
        "fl",
        "json",
        "Cookie",
        "reactors",
        "failure",
        "exception",
        "b",
        "versions",
        "cx_Oracle",
        "error",
        "endpoints",
        "defer",
        "websocket",
        "ip",
        "io",
        "moves",
        "crossbarcodelab",
        "shutil",
        "filepath",
        "six",
        "OpenSSL",
        "Util",
        "application",
        "sqlite3",
        "crossbarcontrolcenter",
        "enterprise",
        "compress",
        "reflect",
        "portal",
        "wamp",
        "xorm",
        "argparse",
        "iweb",
        "netaddr",
        "datab",
        "urlparse",
        "PublicKey",
        "client",
        "rawsocket",
        "time",
        "hmac",
        "serializer"
    ]
}