{
    "archive_url": "https://api.github.com/repos/isnowfy/pydown/{archive_format}{/ref}",
    "assignees_url": "https://api.github.com/repos/isnowfy/pydown/assignees{/user}",
    "blobs_url": "https://api.github.com/repos/isnowfy/pydown/git/blobs{/sha}",
    "branches_url": "https://api.github.com/repos/isnowfy/pydown/branches{/branch}",
    "clone_url": "https://github.com/isnowfy/pydown.git",
    "collaborators_url": "https://api.github.com/repos/isnowfy/pydown/collaborators{/collaborator}",
    "comments_url": "https://api.github.com/repos/isnowfy/pydown/comments{/number}",
    "commits_url": "https://api.github.com/repos/isnowfy/pydown/commits{/sha}",
    "compare_url": "https://api.github.com/repos/isnowfy/pydown/compare/{base}...{head}",
    "contents_url": "https://api.github.com/repos/isnowfy/pydown/contents/{+path}",
    "contributors_url": "https://api.github.com/repos/isnowfy/pydown/contributors",
    "created_at": "2013-04-14T11:28:07Z",
    "default_branch": "master",
    "description": "An HTML5 presentation builder written by python",
    "downloads_url": "https://api.github.com/repos/isnowfy/pydown/downloads",
    "events_url": "https://api.github.com/repos/isnowfy/pydown/events",
    "fork": false,
    "forks": 52,
    "forks_count": 52,
    "forks_url": "https://api.github.com/repos/isnowfy/pydown/forks",
    "full_name": "isnowfy/pydown",
    "git_commits_url": "https://api.github.com/repos/isnowfy/pydown/git/commits{/sha}",
    "git_refs_url": "https://api.github.com/repos/isnowfy/pydown/git/refs{/sha}",
    "git_tags_url": "https://api.github.com/repos/isnowfy/pydown/git/tags{/sha}",
    "git_url": "git://github.com/isnowfy/pydown.git",
    "has_downloads": true,
    "has_issues": true,
    "has_wiki": true,
    "homepage": null,
    "hooks_url": "https://api.github.com/repos/isnowfy/pydown/hooks",
    "html_url": "https://github.com/isnowfy/pydown",
    "id": 9428060,
    "issue_comment_url": "https://api.github.com/repos/isnowfy/pydown/issues/comments/{number}",
    "issue_events_url": "https://api.github.com/repos/isnowfy/pydown/issues/events{/number}",
    "issues_url": "https://api.github.com/repos/isnowfy/pydown/issues{/number}",
    "keys_url": "https://api.github.com/repos/isnowfy/pydown/keys{/key_id}",
    "labels_url": "https://api.github.com/repos/isnowfy/pydown/labels{/name}",
    "language": "Python",
    "languages_url": "https://api.github.com/repos/isnowfy/pydown/languages",
    "merges_url": "https://api.github.com/repos/isnowfy/pydown/merges",
    "milestones_url": "https://api.github.com/repos/isnowfy/pydown/milestones{/number}",
    "mirror_url": null,
    "name": "pydown",
    "notifications_url": "https://api.github.com/repos/isnowfy/pydown/notifications{?since,all,participating}",
    "open_issues": 2,
    "open_issues_count": 2,
    "owner": {
        "avatar_url": "https://avatars.githubusercontent.com/u/596274?",
        "events_url": "https://api.github.com/users/isnowfy/events{/privacy}",
        "followers_url": "https://api.github.com/users/isnowfy/followers",
        "following_url": "https://api.github.com/users/isnowfy/following{/other_user}",
        "gists_url": "https://api.github.com/users/isnowfy/gists{/gist_id}",
        "gravatar_id": "993d1103b852c98742c1943131f71ba5",
        "html_url": "https://github.com/isnowfy",
        "id": 596274,
        "login": "isnowfy",
        "organizations_url": "https://api.github.com/users/isnowfy/orgs",
        "received_events_url": "https://api.github.com/users/isnowfy/received_events",
        "repos_url": "https://api.github.com/users/isnowfy/repos",
        "site_admin": false,
        "starred_url": "https://api.github.com/users/isnowfy/starred{/owner}{/repo}",
        "subscriptions_url": "https://api.github.com/users/isnowfy/subscriptions",
        "type": "User",
        "url": "https://api.github.com/users/isnowfy"
    },
    "private": false,
    "pulls_url": "https://api.github.com/repos/isnowfy/pydown/pulls{/number}",
    "pushed_at": "2013-09-05T04:46:40Z",
    "releases_url": "https://api.github.com/repos/isnowfy/pydown/releases{/id}",
    "score": 1.0,
    "size": 160,
    "ssh_url": "git@github.com:isnowfy/pydown.git",
    "stargazers_count": 573,
    "stargazers_url": "https://api.github.com/repos/isnowfy/pydown/stargazers",
    "statuses_url": "https://api.github.com/repos/isnowfy/pydown/statuses/{sha}",
    "subscribers_url": "https://api.github.com/repos/isnowfy/pydown/subscribers",
    "subscription_url": "https://api.github.com/repos/isnowfy/pydown/subscription",
    "svn_url": "https://github.com/isnowfy/pydown",
    "tags_url": "https://api.github.com/repos/isnowfy/pydown/tags",
    "teams_url": "https://api.github.com/repos/isnowfy/pydown/teams",
    "trees_url": "https://api.github.com/repos/isnowfy/pydown/git/trees{/sha}",
    "updated_at": "2014-05-05T16:44:35Z",
    "url": "https://api.github.com/repos/isnowfy/pydown",
    "watchers": 573,
    "watchers_count": 573
}