{
    "archive_url": "https://api.github.com/repos/tualatrix/ubuntu-tweak/{archive_format}{/ref}",
    "assignees_url": "https://api.github.com/repos/tualatrix/ubuntu-tweak/assignees{/user}",
    "blobs_url": "https://api.github.com/repos/tualatrix/ubuntu-tweak/git/blobs{/sha}",
    "branches_url": "https://api.github.com/repos/tualatrix/ubuntu-tweak/branches{/branch}",
    "clone_url": "https://github.com/tualatrix/ubuntu-tweak.git",
    "collaborators_url": "https://api.github.com/repos/tualatrix/ubuntu-tweak/collaborators{/collaborator}",
    "comments_url": "https://api.github.com/repos/tualatrix/ubuntu-tweak/comments{/number}",
    "commits_url": "https://api.github.com/repos/tualatrix/ubuntu-tweak/commits{/sha}",
    "compare_url": "https://api.github.com/repos/tualatrix/ubuntu-tweak/compare/{base}...{head}",
    "contents_url": "https://api.github.com/repos/tualatrix/ubuntu-tweak/contents/{+path}",
    "contributors_url": "https://api.github.com/repos/tualatrix/ubuntu-tweak/contributors",
    "created_at": "2009-04-11T02:10:36Z",
    "default_branch": "master",
    "description": "Ubuntu Tweak is a tool that makes it easy to configure your system and desktop settings. ",
    "downloads_url": "https://api.github.com/repos/tualatrix/ubuntu-tweak/downloads",
    "events_url": "https://api.github.com/repos/tualatrix/ubuntu-tweak/events",
    "fork": false,
    "forks": 121,
    "forks_count": 121,
    "forks_url": "https://api.github.com/repos/tualatrix/ubuntu-tweak/forks",
    "full_name": "tualatrix/ubuntu-tweak",
    "git_commits_url": "https://api.github.com/repos/tualatrix/ubuntu-tweak/git/commits{/sha}",
    "git_refs_url": "https://api.github.com/repos/tualatrix/ubuntu-tweak/git/refs{/sha}",
    "git_tags_url": "https://api.github.com/repos/tualatrix/ubuntu-tweak/git/tags{/sha}",
    "git_url": "git://github.com/tualatrix/ubuntu-tweak.git",
    "has_downloads": true,
    "has_issues": true,
    "has_wiki": true,
    "homepage": "http://ubuntu-tweak.com",
    "hooks_url": "https://api.github.com/repos/tualatrix/ubuntu-tweak/hooks",
    "html_url": "https://github.com/tualatrix/ubuntu-tweak",
    "id": 173216,
    "issue_comment_url": "https://api.github.com/repos/tualatrix/ubuntu-tweak/issues/comments/{number}",
    "issue_events_url": "https://api.github.com/repos/tualatrix/ubuntu-tweak/issues/events{/number}",
    "issues_url": "https://api.github.com/repos/tualatrix/ubuntu-tweak/issues{/number}",
    "keys_url": "https://api.github.com/repos/tualatrix/ubuntu-tweak/keys{/key_id}",
    "labels_url": "https://api.github.com/repos/tualatrix/ubuntu-tweak/labels{/name}",
    "language": "Python",
    "languages_url": "https://api.github.com/repos/tualatrix/ubuntu-tweak/languages",
    "merges_url": "https://api.github.com/repos/tualatrix/ubuntu-tweak/merges",
    "milestones_url": "https://api.github.com/repos/tualatrix/ubuntu-tweak/milestones{/number}",
    "mirror_url": null,
    "name": "ubuntu-tweak",
    "notifications_url": "https://api.github.com/repos/tualatrix/ubuntu-tweak/notifications{?since,all,participating}",
    "open_issues": 8,
    "open_issues_count": 8,
    "owner": {
        "avatar_url": "https://avatars.githubusercontent.com/u/35811?",
        "events_url": "https://api.github.com/users/tualatrix/events{/privacy}",
        "followers_url": "https://api.github.com/users/tualatrix/followers",
        "following_url": "https://api.github.com/users/tualatrix/following{/other_user}",
        "gists_url": "https://api.github.com/users/tualatrix/gists{/gist_id}",
        "gravatar_id": "3aa394e5aef22274b9d36a74adb787e9",
        "html_url": "https://github.com/tualatrix",
        "id": 35811,
        "login": "tualatrix",
        "organizations_url": "https://api.github.com/users/tualatrix/orgs",
        "received_events_url": "https://api.github.com/users/tualatrix/received_events",
        "repos_url": "https://api.github.com/users/tualatrix/repos",
        "site_admin": false,
        "starred_url": "https://api.github.com/users/tualatrix/starred{/owner}{/repo}",
        "subscriptions_url": "https://api.github.com/users/tualatrix/subscriptions",
        "type": "User",
        "url": "https://api.github.com/users/tualatrix"
    },
    "private": false,
    "pulls_url": "https://api.github.com/repos/tualatrix/ubuntu-tweak/pulls{/number}",
    "pushed_at": "2014-05-04T10:42:17Z",
    "releases_url": "https://api.github.com/repos/tualatrix/ubuntu-tweak/releases{/id}",
    "score": 1.0,
    "size": 25541,
    "ssh_url": "git@github.com:tualatrix/ubuntu-tweak.git",
    "stargazers_count": 286,
    "stargazers_url": "https://api.github.com/repos/tualatrix/ubuntu-tweak/stargazers",
    "statuses_url": "https://api.github.com/repos/tualatrix/ubuntu-tweak/statuses/{sha}",
    "subscribers_url": "https://api.github.com/repos/tualatrix/ubuntu-tweak/subscribers",
    "subscription_url": "https://api.github.com/repos/tualatrix/ubuntu-tweak/subscription",
    "svn_url": "https://github.com/tualatrix/ubuntu-tweak",
    "tags_url": "https://api.github.com/repos/tualatrix/ubuntu-tweak/tags",
    "teams_url": "https://api.github.com/repos/tualatrix/ubuntu-tweak/teams",
    "trees_url": "https://api.github.com/repos/tualatrix/ubuntu-tweak/git/trees{/sha}",
    "updated_at": "2014-05-04T10:42:20Z",
    "url": "https://api.github.com/repos/tualatrix/ubuntu-tweak",
    "watchers": 286,
    "watchers_count": 286
}