{
    "libs": [
        "core",
        "management",
        "conf",
        "encoding",
        "util",
        "safestring",
        "db",
        "modelsinspector",
        "sys",
        "imp",
        "defaults",
        "forms",
        "test",
        "contrib"
    ]
}