{
    "archive_url": "https://api.github.com/repos/mitsuhiko/fungiform/{archive_format}{/ref}",
    "assignees_url": "https://api.github.com/repos/mitsuhiko/fungiform/assignees{/user}",
    "blobs_url": "https://api.github.com/repos/mitsuhiko/fungiform/git/blobs{/sha}",
    "branches_url": "https://api.github.com/repos/mitsuhiko/fungiform/branches{/branch}",
    "clone_url": "https://github.com/mitsuhiko/fungiform.git",
    "collaborators_url": "https://api.github.com/repos/mitsuhiko/fungiform/collaborators{/collaborator}",
    "comments_url": "https://api.github.com/repos/mitsuhiko/fungiform/comments{/number}",
    "commits_url": "https://api.github.com/repos/mitsuhiko/fungiform/commits{/sha}",
    "compare_url": "https://api.github.com/repos/mitsuhiko/fungiform/compare/{base}...{head}",
    "contents_url": "https://api.github.com/repos/mitsuhiko/fungiform/contents/{+path}",
    "contributors_url": "https://api.github.com/repos/mitsuhiko/fungiform/contributors",
    "created_at": "2010-06-20T11:39:32Z",
    "default_branch": "master",
    "description": "A form library for Python based on Zine's form system.",
    "downloads_url": "https://api.github.com/repos/mitsuhiko/fungiform/downloads",
    "events_url": "https://api.github.com/repos/mitsuhiko/fungiform/events",
    "fork": false,
    "forks": 6,
    "forks_count": 6,
    "forks_url": "https://api.github.com/repos/mitsuhiko/fungiform/forks",
    "full_name": "mitsuhiko/fungiform",
    "git_commits_url": "https://api.github.com/repos/mitsuhiko/fungiform/git/commits{/sha}",
    "git_refs_url": "https://api.github.com/repos/mitsuhiko/fungiform/git/refs{/sha}",
    "git_tags_url": "https://api.github.com/repos/mitsuhiko/fungiform/git/tags{/sha}",
    "git_url": "git://github.com/mitsuhiko/fungiform.git",
    "has_downloads": true,
    "has_issues": true,
    "has_wiki": true,
    "homepage": "",
    "hooks_url": "https://api.github.com/repos/mitsuhiko/fungiform/hooks",
    "html_url": "https://github.com/mitsuhiko/fungiform",
    "id": 730417,
    "issue_comment_url": "https://api.github.com/repos/mitsuhiko/fungiform/issues/comments/{number}",
    "issue_events_url": "https://api.github.com/repos/mitsuhiko/fungiform/issues/events{/number}",
    "issues_url": "https://api.github.com/repos/mitsuhiko/fungiform/issues{/number}",
    "keys_url": "https://api.github.com/repos/mitsuhiko/fungiform/keys{/key_id}",
    "labels_url": "https://api.github.com/repos/mitsuhiko/fungiform/labels{/name}",
    "language": "Python",
    "languages_url": "https://api.github.com/repos/mitsuhiko/fungiform/languages",
    "merges_url": "https://api.github.com/repos/mitsuhiko/fungiform/merges",
    "milestones_url": "https://api.github.com/repos/mitsuhiko/fungiform/milestones{/number}",
    "mirror_url": null,
    "name": "fungiform",
    "notifications_url": "https://api.github.com/repos/mitsuhiko/fungiform/notifications{?since,all,participating}",
    "open_issues": 3,
    "open_issues_count": 3,
    "owner": {
        "avatar_url": "https://avatars.githubusercontent.com/u/7396?",
        "events_url": "https://api.github.com/users/mitsuhiko/events{/privacy}",
        "followers_url": "https://api.github.com/users/mitsuhiko/followers",
        "following_url": "https://api.github.com/users/mitsuhiko/following{/other_user}",
        "gists_url": "https://api.github.com/users/mitsuhiko/gists{/gist_id}",
        "gravatar_id": "181de1fb11dffe39774f3e2e23cda3b6",
        "html_url": "https://github.com/mitsuhiko",
        "id": 7396,
        "login": "mitsuhiko",
        "organizations_url": "https://api.github.com/users/mitsuhiko/orgs",
        "received_events_url": "https://api.github.com/users/mitsuhiko/received_events",
        "repos_url": "https://api.github.com/users/mitsuhiko/repos",
        "site_admin": false,
        "starred_url": "https://api.github.com/users/mitsuhiko/starred{/owner}{/repo}",
        "subscriptions_url": "https://api.github.com/users/mitsuhiko/subscriptions",
        "type": "User",
        "url": "https://api.github.com/users/mitsuhiko"
    },
    "private": false,
    "pulls_url": "https://api.github.com/repos/mitsuhiko/fungiform/pulls{/number}",
    "pushed_at": "2010-12-06T02:01:54Z",
    "releases_url": "https://api.github.com/repos/mitsuhiko/fungiform/releases{/id}",
    "score": 1.0,
    "size": 138,
    "ssh_url": "git@github.com:mitsuhiko/fungiform.git",
    "stargazers_count": 43,
    "stargazers_url": "https://api.github.com/repos/mitsuhiko/fungiform/stargazers",
    "statuses_url": "https://api.github.com/repos/mitsuhiko/fungiform/statuses/{sha}",
    "subscribers_url": "https://api.github.com/repos/mitsuhiko/fungiform/subscribers",
    "subscription_url": "https://api.github.com/repos/mitsuhiko/fungiform/subscription",
    "svn_url": "https://github.com/mitsuhiko/fungiform",
    "tags_url": "https://api.github.com/repos/mitsuhiko/fungiform/tags",
    "teams_url": "https://api.github.com/repos/mitsuhiko/fungiform/teams",
    "trees_url": "https://api.github.com/repos/mitsuhiko/fungiform/git/trees{/sha}",
    "updated_at": "2014-02-18T13:34:42Z",
    "url": "https://api.github.com/repos/mitsuhiko/fungiform",
    "watchers": 43,
    "watchers_count": 43
}