[
    "graph.box",
    "test_pie",
    "moulinrouge.tests",
    "pygal.graph.box",
    "pygal.test.test_frenchmap",
    "test.test_sparktext",
    "radar",
    "colors",
    "gauge",
    "test_util",
    "pygal.serie",
    "cabaret",
    "pygal.test.test_sparktext",
    "pygal.graph.pie",
    "test.test_config",
    "graph",
    "test.test_util",
    "pygal.graph.xy",
    "pygal.interpolate",
    "moulinrouge",
    "pygal.table",
    "graph.line",
    "stackedline",
    "pygal.graph.histogram",
    "test_sparktext",
    "tests",
    "pygal.util",
    "util",
    "pygal.test.test_map",
    "pygal.test.test_stacked",
    "pygal.graph.funnel",
    "pygal.graph.pyramid",
    "test_box",
    "bar",
    "graph.base",
    "pygal.graph.graph",
    "graph.horizontalstackedbar",
    "pygal.svg",
    "pygal.graph.bar",
    "pygal",
    "stackedbar",
    "test_colors",
    "view",
    "moulinrouge.data",
    "pygal.graph.supranationalworldmap",
    "pyramid",
    "pygal.view",
    "pygal.style",
    "pygal.graph.line",
    "test.test_stacked",
    "test.test_frenchmap",
    "test.utils",
    "pygal.graph.horizontal",
    "test_config",
    "demo.moulinrouge.tests",
    "horizontalstackedbar",
    "test_xml_filters",
    "graph.gauge",
    "pygal.test.test_histogram",
    "pygal.graph.base",
    "frenchmap",
    "pygal.test.test_util",
    "pygal.test.test_table",
    "demo.moulinrouge.data",
    "interpolate",
    "base",
    "graph.stackedline",
    "pygal.test.test_box",
    "graph.frenchmap",
    "box",
    "pygal.config",
    "test_bar",
    "graph.xy",
    "datey",
    "adapters",
    "pygal.ghost",
    "test.test_colors",
    "pygal.i18n",
    "test_histogram",
    "graph.histogram",
    "test_style",
    "pygal.graph.horizontalbar",
    "pygal.graph.verticalpyramid",
    "test_line",
    "test_table",
    "test_interpolate",
    "test.test_line",
    "test_graph",
    "pygal.graph.radar",
    "test_stacked",
    "xy",
    "table",
    "pygal.test.test_pie",
    "pygal.graph.frenchmap",
    "perf",
    "pygal.colors",
    "pygal.test",
    "test.test_serie_config",
    "pygal.test.test_colors",
    "pygal.test.test_line",
    "graph.supranationalworldmap",
    "test.test_xml_filters",
    "horizontalbar",
    "test.test_date",
    "pygal.graph.stackedbar",
    "graph.stackedbar",
    "funnel",
    "pygal.test.test_date",
    "pygal.graph.datey",
    "histogram",
    "serie",
    "graph.pyramid",
    "pygal.test.test_xml_filters",
    "i18n",
    "graph.radar",
    "line",
    "demo.cabaret",
    "graph.verticalpyramid",
    "graph.dot",
    "graph.pie",
    "graph.graph",
    "supranationalworldmap",
    "pygal.test.test_bar",
    "pygal.graph.horizontalstackedbar",
    "test_date",
    "pygal.test.test_graph",
    "test.test_interpolate",
    "test.test_table",
    "test_donut",
    "test.test_view",
    "pygal.graph.stackedline",
    "demo",
    "utils",
    "test.test_graph",
    "pie",
    "pygal.test.utils",
    "style",
    "pygal.graph.dot",
    "test.test_pie",
    "test_serie_config",
    "graph.bar",
    "worldmap",
    "pygal.test.test_donut",
    "pygal.test.test_view",
    "pygal.graph",
    "test",
    "test.test_histogram",
    "config",
    "test_view",
    "demo.moulinrouge",
    "pygal_gen",
    "pygal.graph.worldmap",
    "pygal.graph.gauge",
    "test.test_box",
    "pygal.test.test_config",
    "pygal.test.test_serie_config",
    "verticalpyramid",
    "graph.horizontal",
    "test_map",
    "graph.datey",
    "pygal.adapters",
    "horizontal",
    "data",
    "ghost",
    "svg",
    "_compat",
    "test.test_style",
    "test.test_bar",
    "graph.horizontalbar",
    "pygal.test.test_interpolate",
    "graph.funnel",
    "test.test_map",
    "pygal.test.test_style",
    "test_frenchmap",
    "graph.worldmap",
    "test.test_donut",
    "pygal._compat",
    "dot"
]