{
    "archive_url": "https://api.github.com/repos/MongoEngine/mongoengine/{archive_format}{/ref}",
    "assignees_url": "https://api.github.com/repos/MongoEngine/mongoengine/assignees{/user}",
    "blobs_url": "https://api.github.com/repos/MongoEngine/mongoengine/git/blobs{/sha}",
    "branches_url": "https://api.github.com/repos/MongoEngine/mongoengine/branches{/branch}",
    "clone_url": "https://github.com/MongoEngine/mongoengine.git",
    "collaborators_url": "https://api.github.com/repos/MongoEngine/mongoengine/collaborators{/collaborator}",
    "comments_url": "https://api.github.com/repos/MongoEngine/mongoengine/comments{/number}",
    "commits_url": "https://api.github.com/repos/MongoEngine/mongoengine/commits{/sha}",
    "compare_url": "https://api.github.com/repos/MongoEngine/mongoengine/compare/{base}...{head}",
    "contents_url": "https://api.github.com/repos/MongoEngine/mongoengine/contents/{+path}",
    "contributors_url": "https://api.github.com/repos/MongoEngine/mongoengine/contributors",
    "created_at": "2012-03-05T12:10:20Z",
    "default_branch": "master",
    "description": "A Python Object-Document-Mapper for working with MongoDB",
    "downloads_url": "https://api.github.com/repos/MongoEngine/mongoengine/downloads",
    "events_url": "https://api.github.com/repos/MongoEngine/mongoengine/events",
    "fork": false,
    "forks": 463,
    "forks_count": 463,
    "forks_url": "https://api.github.com/repos/MongoEngine/mongoengine/forks",
    "full_name": "MongoEngine/mongoengine",
    "git_commits_url": "https://api.github.com/repos/MongoEngine/mongoengine/git/commits{/sha}",
    "git_refs_url": "https://api.github.com/repos/MongoEngine/mongoengine/git/refs{/sha}",
    "git_tags_url": "https://api.github.com/repos/MongoEngine/mongoengine/git/tags{/sha}",
    "git_url": "git://github.com/MongoEngine/mongoengine.git",
    "has_downloads": true,
    "has_issues": true,
    "has_wiki": false,
    "homepage": "http://mongoengine.org",
    "hooks_url": "https://api.github.com/repos/MongoEngine/mongoengine/hooks",
    "html_url": "https://github.com/MongoEngine/mongoengine",
    "id": 3626679,
    "issue_comment_url": "https://api.github.com/repos/MongoEngine/mongoengine/issues/comments/{number}",
    "issue_events_url": "https://api.github.com/repos/MongoEngine/mongoengine/issues/events{/number}",
    "issues_url": "https://api.github.com/repos/MongoEngine/mongoengine/issues{/number}",
    "keys_url": "https://api.github.com/repos/MongoEngine/mongoengine/keys{/key_id}",
    "labels_url": "https://api.github.com/repos/MongoEngine/mongoengine/labels{/name}",
    "language": "Python",
    "languages_url": "https://api.github.com/repos/MongoEngine/mongoengine/languages",
    "merges_url": "https://api.github.com/repos/MongoEngine/mongoengine/merges",
    "milestones_url": "https://api.github.com/repos/MongoEngine/mongoengine/milestones{/number}",
    "mirror_url": null,
    "name": "mongoengine",
    "notifications_url": "https://api.github.com/repos/MongoEngine/mongoengine/notifications{?since,all,participating}",
    "open_issues": 184,
    "open_issues_count": 184,
    "owner": {
        "avatar_url": "https://avatars.githubusercontent.com/u/1502485?",
        "events_url": "https://api.github.com/users/MongoEngine/events{/privacy}",
        "followers_url": "https://api.github.com/users/MongoEngine/followers",
        "following_url": "https://api.github.com/users/MongoEngine/following{/other_user}",
        "gists_url": "https://api.github.com/users/MongoEngine/gists{/gist_id}",
        "gravatar_id": "ca0b94f4c957e75e7316221e445ec667",
        "html_url": "https://github.com/MongoEngine",
        "id": 1502485,
        "login": "MongoEngine",
        "organizations_url": "https://api.github.com/users/MongoEngine/orgs",
        "received_events_url": "https://api.github.com/users/MongoEngine/received_events",
        "repos_url": "https://api.github.com/users/MongoEngine/repos",
        "site_admin": false,
        "starred_url": "https://api.github.com/users/MongoEngine/starred{/owner}{/repo}",
        "subscriptions_url": "https://api.github.com/users/MongoEngine/subscriptions",
        "type": "Organization",
        "url": "https://api.github.com/users/MongoEngine"
    },
    "private": false,
    "pulls_url": "https://api.github.com/repos/MongoEngine/mongoengine/pulls{/number}",
    "pushed_at": "2014-04-10T12:53:32Z",
    "releases_url": "https://api.github.com/repos/MongoEngine/mongoengine/releases{/id}",
    "score": 1.0,
    "size": 10372,
    "ssh_url": "git@github.com:MongoEngine/mongoengine.git",
    "stargazers_count": 628,
    "stargazers_url": "https://api.github.com/repos/MongoEngine/mongoengine/stargazers",
    "statuses_url": "https://api.github.com/repos/MongoEngine/mongoengine/statuses/{sha}",
    "subscribers_url": "https://api.github.com/repos/MongoEngine/mongoengine/subscribers",
    "subscription_url": "https://api.github.com/repos/MongoEngine/mongoengine/subscription",
    "svn_url": "https://github.com/MongoEngine/mongoengine",
    "tags_url": "https://api.github.com/repos/MongoEngine/mongoengine/tags",
    "teams_url": "https://api.github.com/repos/MongoEngine/mongoengine/teams",
    "trees_url": "https://api.github.com/repos/MongoEngine/mongoengine/git/trees{/sha}",
    "updated_at": "2014-05-07T05:22:31Z",
    "url": "https://api.github.com/repos/MongoEngine/mongoengine",
    "watchers": 628,
    "watchers_count": 628
}