[
    "honeypot.templatetags.honeypot",
    "templatetags.honeypot",
    "honeypot.tests",
    "models",
    "test_settings",
    "middleware",
    "honeypot.templatetags",
    "templatetags",
    "tests",
    "honeypot.models",
    "honeypot",
    "honeypot.middleware",
    "decorators",
    "honeypot.decorators"
]