{
    "archive_url": "https://api.github.com/repos/phunt/zk-smoketest/{archive_format}{/ref}",
    "assignees_url": "https://api.github.com/repos/phunt/zk-smoketest/assignees{/user}",
    "blobs_url": "https://api.github.com/repos/phunt/zk-smoketest/git/blobs{/sha}",
    "branches_url": "https://api.github.com/repos/phunt/zk-smoketest/branches{/branch}",
    "clone_url": "https://github.com/phunt/zk-smoketest.git",
    "collaborators_url": "https://api.github.com/repos/phunt/zk-smoketest/collaborators{/collaborator}",
    "comments_url": "https://api.github.com/repos/phunt/zk-smoketest/comments{/number}",
    "commits_url": "https://api.github.com/repos/phunt/zk-smoketest/commits{/sha}",
    "compare_url": "https://api.github.com/repos/phunt/zk-smoketest/compare/{base}...{head}",
    "contents_url": "https://api.github.com/repos/phunt/zk-smoketest/contents/{+path}",
    "contributors_url": "https://api.github.com/repos/phunt/zk-smoketest/contributors",
    "created_at": "2009-09-29T20:38:21Z",
    "default_branch": "master",
    "description": "zk-smoketest.py provides a simple smoketest client for a ZooKeeper ensemble",
    "downloads_url": "https://api.github.com/repos/phunt/zk-smoketest/downloads",
    "events_url": "https://api.github.com/repos/phunt/zk-smoketest/events",
    "fork": false,
    "forks": 25,
    "forks_count": 25,
    "forks_url": "https://api.github.com/repos/phunt/zk-smoketest/forks",
    "full_name": "phunt/zk-smoketest",
    "git_commits_url": "https://api.github.com/repos/phunt/zk-smoketest/git/commits{/sha}",
    "git_refs_url": "https://api.github.com/repos/phunt/zk-smoketest/git/refs{/sha}",
    "git_tags_url": "https://api.github.com/repos/phunt/zk-smoketest/git/tags{/sha}",
    "git_url": "git://github.com/phunt/zk-smoketest.git",
    "has_downloads": true,
    "has_issues": true,
    "has_wiki": true,
    "homepage": "http://hadoop.apache.org/zookeeper/",
    "hooks_url": "https://api.github.com/repos/phunt/zk-smoketest/hooks",
    "html_url": "https://github.com/phunt/zk-smoketest",
    "id": 321477,
    "issue_comment_url": "https://api.github.com/repos/phunt/zk-smoketest/issues/comments/{number}",
    "issue_events_url": "https://api.github.com/repos/phunt/zk-smoketest/issues/events{/number}",
    "issues_url": "https://api.github.com/repos/phunt/zk-smoketest/issues{/number}",
    "keys_url": "https://api.github.com/repos/phunt/zk-smoketest/keys{/key_id}",
    "labels_url": "https://api.github.com/repos/phunt/zk-smoketest/labels{/name}",
    "language": "Python",
    "languages_url": "https://api.github.com/repos/phunt/zk-smoketest/languages",
    "merges_url": "https://api.github.com/repos/phunt/zk-smoketest/merges",
    "milestones_url": "https://api.github.com/repos/phunt/zk-smoketest/milestones{/number}",
    "mirror_url": null,
    "name": "zk-smoketest",
    "notifications_url": "https://api.github.com/repos/phunt/zk-smoketest/notifications{?since,all,participating}",
    "open_issues": 0,
    "open_issues_count": 0,
    "owner": {
        "avatar_url": "https://avatars.githubusercontent.com/u/15702?",
        "events_url": "https://api.github.com/users/phunt/events{/privacy}",
        "followers_url": "https://api.github.com/users/phunt/followers",
        "following_url": "https://api.github.com/users/phunt/following{/other_user}",
        "gists_url": "https://api.github.com/users/phunt/gists{/gist_id}",
        "gravatar_id": "9f04e3ba03c828002bcc03bea4add15d",
        "html_url": "https://github.com/phunt",
        "id": 15702,
        "login": "phunt",
        "organizations_url": "https://api.github.com/users/phunt/orgs",
        "received_events_url": "https://api.github.com/users/phunt/received_events",
        "repos_url": "https://api.github.com/users/phunt/repos",
        "site_admin": false,
        "starred_url": "https://api.github.com/users/phunt/starred{/owner}{/repo}",
        "subscriptions_url": "https://api.github.com/users/phunt/subscriptions",
        "type": "User",
        "url": "https://api.github.com/users/phunt"
    },
    "private": false,
    "pulls_url": "https://api.github.com/repos/phunt/zk-smoketest/pulls{/number}",
    "pushed_at": "2013-08-18T17:34:48Z",
    "releases_url": "https://api.github.com/repos/phunt/zk-smoketest/releases{/id}",
    "score": 1.0,
    "size": 893,
    "ssh_url": "git@github.com:phunt/zk-smoketest.git",
    "stargazers_count": 94,
    "stargazers_url": "https://api.github.com/repos/phunt/zk-smoketest/stargazers",
    "statuses_url": "https://api.github.com/repos/phunt/zk-smoketest/statuses/{sha}",
    "subscribers_url": "https://api.github.com/repos/phunt/zk-smoketest/subscribers",
    "subscription_url": "https://api.github.com/repos/phunt/zk-smoketest/subscription",
    "svn_url": "https://github.com/phunt/zk-smoketest",
    "tags_url": "https://api.github.com/repos/phunt/zk-smoketest/tags",
    "teams_url": "https://api.github.com/repos/phunt/zk-smoketest/teams",
    "trees_url": "https://api.github.com/repos/phunt/zk-smoketest/git/trees{/sha}",
    "updated_at": "2014-05-05T15:05:32Z",
    "url": "https://api.github.com/repos/phunt/zk-smoketest",
    "watchers": 94,
    "watchers_count": 94
}