{
    "archive_url": "https://api.github.com/repos/BinPy/BinPy/{archive_format}{/ref}",
    "assignees_url": "https://api.github.com/repos/BinPy/BinPy/assignees{/user}",
    "blobs_url": "https://api.github.com/repos/BinPy/BinPy/git/blobs{/sha}",
    "branches_url": "https://api.github.com/repos/BinPy/BinPy/branches{/branch}",
    "clone_url": "https://github.com/BinPy/BinPy.git",
    "collaborators_url": "https://api.github.com/repos/BinPy/BinPy/collaborators{/collaborator}",
    "comments_url": "https://api.github.com/repos/BinPy/BinPy/comments{/number}",
    "commits_url": "https://api.github.com/repos/BinPy/BinPy/commits{/sha}",
    "compare_url": "https://api.github.com/repos/BinPy/BinPy/compare/{base}...{head}",
    "contents_url": "https://api.github.com/repos/BinPy/BinPy/contents/{+path}",
    "contributors_url": "https://api.github.com/repos/BinPy/BinPy/contributors",
    "created_at": "2013-09-06T13:59:49Z",
    "default_branch": "develop",
    "description": "An electronic simulation library written in pure Python",
    "downloads_url": "https://api.github.com/repos/BinPy/BinPy/downloads",
    "events_url": "https://api.github.com/repos/BinPy/BinPy/events",
    "fork": false,
    "forks": 71,
    "forks_count": 71,
    "forks_url": "https://api.github.com/repos/BinPy/BinPy/forks",
    "full_name": "BinPy/BinPy",
    "git_commits_url": "https://api.github.com/repos/BinPy/BinPy/git/commits{/sha}",
    "git_refs_url": "https://api.github.com/repos/BinPy/BinPy/git/refs{/sha}",
    "git_tags_url": "https://api.github.com/repos/BinPy/BinPy/git/tags{/sha}",
    "git_url": "git://github.com/BinPy/BinPy.git",
    "has_downloads": true,
    "has_issues": true,
    "has_wiki": true,
    "homepage": "http://www.binpy.org",
    "hooks_url": "https://api.github.com/repos/BinPy/BinPy/hooks",
    "html_url": "https://github.com/BinPy/BinPy",
    "id": 12645366,
    "issue_comment_url": "https://api.github.com/repos/BinPy/BinPy/issues/comments/{number}",
    "issue_events_url": "https://api.github.com/repos/BinPy/BinPy/issues/events{/number}",
    "issues_url": "https://api.github.com/repos/BinPy/BinPy/issues{/number}",
    "keys_url": "https://api.github.com/repos/BinPy/BinPy/keys{/key_id}",
    "labels_url": "https://api.github.com/repos/BinPy/BinPy/labels{/name}",
    "language": "Python",
    "languages_url": "https://api.github.com/repos/BinPy/BinPy/languages",
    "merges_url": "https://api.github.com/repos/BinPy/BinPy/merges",
    "milestones_url": "https://api.github.com/repos/BinPy/BinPy/milestones{/number}",
    "mirror_url": null,
    "name": "BinPy",
    "notifications_url": "https://api.github.com/repos/BinPy/BinPy/notifications{?since,all,participating}",
    "open_issues": 9,
    "open_issues_count": 9,
    "owner": {
        "avatar_url": "https://avatars.githubusercontent.com/u/5413579?",
        "events_url": "https://api.github.com/users/BinPy/events{/privacy}",
        "followers_url": "https://api.github.com/users/BinPy/followers",
        "following_url": "https://api.github.com/users/BinPy/following{/other_user}",
        "gists_url": "https://api.github.com/users/BinPy/gists{/gist_id}",
        "gravatar_id": null,
        "html_url": "https://github.com/BinPy",
        "id": 5413579,
        "login": "BinPy",
        "organizations_url": "https://api.github.com/users/BinPy/orgs",
        "received_events_url": "https://api.github.com/users/BinPy/received_events",
        "repos_url": "https://api.github.com/users/BinPy/repos",
        "site_admin": false,
        "starred_url": "https://api.github.com/users/BinPy/starred{/owner}{/repo}",
        "subscriptions_url": "https://api.github.com/users/BinPy/subscriptions",
        "type": "Organization",
        "url": "https://api.github.com/users/BinPy"
    },
    "private": false,
    "pulls_url": "https://api.github.com/repos/BinPy/BinPy/pulls{/number}",
    "pushed_at": "2014-05-06T16:16:26Z",
    "releases_url": "https://api.github.com/repos/BinPy/BinPy/releases{/id}",
    "score": 1.0,
    "size": 5671,
    "ssh_url": "git@github.com:BinPy/BinPy.git",
    "stargazers_count": 70,
    "stargazers_url": "https://api.github.com/repos/BinPy/BinPy/stargazers",
    "statuses_url": "https://api.github.com/repos/BinPy/BinPy/statuses/{sha}",
    "subscribers_url": "https://api.github.com/repos/BinPy/BinPy/subscribers",
    "subscription_url": "https://api.github.com/repos/BinPy/BinPy/subscription",
    "svn_url": "https://github.com/BinPy/BinPy",
    "tags_url": "https://api.github.com/repos/BinPy/BinPy/tags",
    "teams_url": "https://api.github.com/repos/BinPy/BinPy/teams",
    "trees_url": "https://api.github.com/repos/BinPy/BinPy/git/trees{/sha}",
    "updated_at": "2014-05-06T19:49:48Z",
    "url": "https://api.github.com/repos/BinPy/BinPy",
    "watchers": 70,
    "watchers_count": 70
}