{
    "archive_url": "https://api.github.com/repos/stocyr/Deflectouch/{archive_format}{/ref}",
    "assignees_url": "https://api.github.com/repos/stocyr/Deflectouch/assignees{/user}",
    "blobs_url": "https://api.github.com/repos/stocyr/Deflectouch/git/blobs{/sha}",
    "branches_url": "https://api.github.com/repos/stocyr/Deflectouch/branches{/branch}",
    "clone_url": "https://github.com/stocyr/Deflectouch.git",
    "collaborators_url": "https://api.github.com/repos/stocyr/Deflectouch/collaborators{/collaborator}",
    "comments_url": "https://api.github.com/repos/stocyr/Deflectouch/comments{/number}",
    "commits_url": "https://api.github.com/repos/stocyr/Deflectouch/commits{/sha}",
    "compare_url": "https://api.github.com/repos/stocyr/Deflectouch/compare/{base}...{head}",
    "contents_url": "https://api.github.com/repos/stocyr/Deflectouch/contents/{+path}",
    "contributors_url": "https://api.github.com/repos/stocyr/Deflectouch/contributors",
    "created_at": "2012-01-12T17:55:03Z",
    "default_branch": "master",
    "description": "A multitouch game for, with and because of Kivy",
    "downloads_url": "https://api.github.com/repos/stocyr/Deflectouch/downloads",
    "events_url": "https://api.github.com/repos/stocyr/Deflectouch/events",
    "fork": false,
    "forks": 22,
    "forks_count": 22,
    "forks_url": "https://api.github.com/repos/stocyr/Deflectouch/forks",
    "full_name": "stocyr/Deflectouch",
    "git_commits_url": "https://api.github.com/repos/stocyr/Deflectouch/git/commits{/sha}",
    "git_refs_url": "https://api.github.com/repos/stocyr/Deflectouch/git/refs{/sha}",
    "git_tags_url": "https://api.github.com/repos/stocyr/Deflectouch/git/tags{/sha}",
    "git_url": "git://github.com/stocyr/Deflectouch.git",
    "has_downloads": true,
    "has_issues": true,
    "has_wiki": false,
    "homepage": "http://youtu.be/1Qa98oSPgi0",
    "hooks_url": "https://api.github.com/repos/stocyr/Deflectouch/hooks",
    "html_url": "https://github.com/stocyr/Deflectouch",
    "id": 3164292,
    "issue_comment_url": "https://api.github.com/repos/stocyr/Deflectouch/issues/comments/{number}",
    "issue_events_url": "https://api.github.com/repos/stocyr/Deflectouch/issues/events{/number}",
    "issues_url": "https://api.github.com/repos/stocyr/Deflectouch/issues{/number}",
    "keys_url": "https://api.github.com/repos/stocyr/Deflectouch/keys{/key_id}",
    "labels_url": "https://api.github.com/repos/stocyr/Deflectouch/labels{/name}",
    "language": "Python",
    "languages_url": "https://api.github.com/repos/stocyr/Deflectouch/languages",
    "merges_url": "https://api.github.com/repos/stocyr/Deflectouch/merges",
    "milestones_url": "https://api.github.com/repos/stocyr/Deflectouch/milestones{/number}",
    "mirror_url": null,
    "name": "Deflectouch",
    "notifications_url": "https://api.github.com/repos/stocyr/Deflectouch/notifications{?since,all,participating}",
    "open_issues": 7,
    "open_issues_count": 7,
    "owner": {
        "avatar_url": "https://avatars.githubusercontent.com/u/1016946?",
        "events_url": "https://api.github.com/users/stocyr/events{/privacy}",
        "followers_url": "https://api.github.com/users/stocyr/followers",
        "following_url": "https://api.github.com/users/stocyr/following{/other_user}",
        "gists_url": "https://api.github.com/users/stocyr/gists{/gist_id}",
        "gravatar_id": "a8c4c1ebd315c151674843712e43ea82",
        "html_url": "https://github.com/stocyr",
        "id": 1016946,
        "login": "stocyr",
        "organizations_url": "https://api.github.com/users/stocyr/orgs",
        "received_events_url": "https://api.github.com/users/stocyr/received_events",
        "repos_url": "https://api.github.com/users/stocyr/repos",
        "site_admin": false,
        "starred_url": "https://api.github.com/users/stocyr/starred{/owner}{/repo}",
        "subscriptions_url": "https://api.github.com/users/stocyr/subscriptions",
        "type": "User",
        "url": "https://api.github.com/users/stocyr"
    },
    "private": false,
    "pulls_url": "https://api.github.com/repos/stocyr/Deflectouch/pulls{/number}",
    "pushed_at": "2013-06-17T11:04:43Z",
    "releases_url": "https://api.github.com/repos/stocyr/Deflectouch/releases{/id}",
    "score": 1.0,
    "size": 13128,
    "ssh_url": "git@github.com:stocyr/Deflectouch.git",
    "stargazers_count": 78,
    "stargazers_url": "https://api.github.com/repos/stocyr/Deflectouch/stargazers",
    "statuses_url": "https://api.github.com/repos/stocyr/Deflectouch/statuses/{sha}",
    "subscribers_url": "https://api.github.com/repos/stocyr/Deflectouch/subscribers",
    "subscription_url": "https://api.github.com/repos/stocyr/Deflectouch/subscription",
    "svn_url": "https://github.com/stocyr/Deflectouch",
    "tags_url": "https://api.github.com/repos/stocyr/Deflectouch/tags",
    "teams_url": "https://api.github.com/repos/stocyr/Deflectouch/teams",
    "trees_url": "https://api.github.com/repos/stocyr/Deflectouch/git/trees{/sha}",
    "updated_at": "2014-05-04T22:06:18Z",
    "url": "https://api.github.com/repos/stocyr/Deflectouch",
    "watchers": 78,
    "watchers_count": 78
}