{
    "archive_url": "https://api.github.com/repos/aparo/django-elasticsearch/{archive_format}{/ref}",
    "assignees_url": "https://api.github.com/repos/aparo/django-elasticsearch/assignees{/user}",
    "blobs_url": "https://api.github.com/repos/aparo/django-elasticsearch/git/blobs{/sha}",
    "branches_url": "https://api.github.com/repos/aparo/django-elasticsearch/branches{/branch}",
    "clone_url": "https://github.com/aparo/django-elasticsearch.git",
    "collaborators_url": "https://api.github.com/repos/aparo/django-elasticsearch/collaborators{/collaborator}",
    "comments_url": "https://api.github.com/repos/aparo/django-elasticsearch/comments{/number}",
    "commits_url": "https://api.github.com/repos/aparo/django-elasticsearch/commits{/sha}",
    "compare_url": "https://api.github.com/repos/aparo/django-elasticsearch/compare/{base}...{head}",
    "contents_url": "https://api.github.com/repos/aparo/django-elasticsearch/contents/{+path}",
    "contributors_url": "https://api.github.com/repos/aparo/django-elasticsearch/contributors",
    "created_at": "2010-07-22T16:36:37Z",
    "default_branch": "master",
    "description": "Django ElasticSearch Backend",
    "downloads_url": "https://api.github.com/repos/aparo/django-elasticsearch/downloads",
    "events_url": "https://api.github.com/repos/aparo/django-elasticsearch/events",
    "fork": false,
    "forks": 17,
    "forks_count": 17,
    "forks_url": "https://api.github.com/repos/aparo/django-elasticsearch/forks",
    "full_name": "aparo/django-elasticsearch",
    "git_commits_url": "https://api.github.com/repos/aparo/django-elasticsearch/git/commits{/sha}",
    "git_refs_url": "https://api.github.com/repos/aparo/django-elasticsearch/git/refs{/sha}",
    "git_tags_url": "https://api.github.com/repos/aparo/django-elasticsearch/git/tags{/sha}",
    "git_url": "git://github.com/aparo/django-elasticsearch.git",
    "has_downloads": true,
    "has_issues": true,
    "has_wiki": true,
    "homepage": "",
    "hooks_url": "https://api.github.com/repos/aparo/django-elasticsearch/hooks",
    "html_url": "https://github.com/aparo/django-elasticsearch",
    "id": 791382,
    "issue_comment_url": "https://api.github.com/repos/aparo/django-elasticsearch/issues/comments/{number}",
    "issue_events_url": "https://api.github.com/repos/aparo/django-elasticsearch/issues/events{/number}",
    "issues_url": "https://api.github.com/repos/aparo/django-elasticsearch/issues{/number}",
    "keys_url": "https://api.github.com/repos/aparo/django-elasticsearch/keys{/key_id}",
    "labels_url": "https://api.github.com/repos/aparo/django-elasticsearch/labels{/name}",
    "language": "Python",
    "languages_url": "https://api.github.com/repos/aparo/django-elasticsearch/languages",
    "merges_url": "https://api.github.com/repos/aparo/django-elasticsearch/merges",
    "milestones_url": "https://api.github.com/repos/aparo/django-elasticsearch/milestones{/number}",
    "mirror_url": null,
    "name": "django-elasticsearch",
    "notifications_url": "https://api.github.com/repos/aparo/django-elasticsearch/notifications{?since,all,participating}",
    "open_issues": 3,
    "open_issues_count": 3,
    "owner": {
        "avatar_url": "https://avatars.githubusercontent.com/u/28075?",
        "events_url": "https://api.github.com/users/aparo/events{/privacy}",
        "followers_url": "https://api.github.com/users/aparo/followers",
        "following_url": "https://api.github.com/users/aparo/following{/other_user}",
        "gists_url": "https://api.github.com/users/aparo/gists{/gist_id}",
        "gravatar_id": "fa2cccaf17ac73f48f64376f81156839",
        "html_url": "https://github.com/aparo",
        "id": 28075,
        "login": "aparo",
        "organizations_url": "https://api.github.com/users/aparo/orgs",
        "received_events_url": "https://api.github.com/users/aparo/received_events",
        "repos_url": "https://api.github.com/users/aparo/repos",
        "site_admin": false,
        "starred_url": "https://api.github.com/users/aparo/starred{/owner}{/repo}",
        "subscriptions_url": "https://api.github.com/users/aparo/subscriptions",
        "type": "User",
        "url": "https://api.github.com/users/aparo"
    },
    "private": false,
    "pulls_url": "https://api.github.com/repos/aparo/django-elasticsearch/pulls{/number}",
    "pushed_at": "2011-09-02T21:46:33Z",
    "releases_url": "https://api.github.com/repos/aparo/django-elasticsearch/releases{/id}",
    "score": 1.0,
    "size": 245,
    "ssh_url": "git@github.com:aparo/django-elasticsearch.git",
    "stargazers_count": 92,
    "stargazers_url": "https://api.github.com/repos/aparo/django-elasticsearch/stargazers",
    "statuses_url": "https://api.github.com/repos/aparo/django-elasticsearch/statuses/{sha}",
    "subscribers_url": "https://api.github.com/repos/aparo/django-elasticsearch/subscribers",
    "subscription_url": "https://api.github.com/repos/aparo/django-elasticsearch/subscription",
    "svn_url": "https://github.com/aparo/django-elasticsearch",
    "tags_url": "https://api.github.com/repos/aparo/django-elasticsearch/tags",
    "teams_url": "https://api.github.com/repos/aparo/django-elasticsearch/teams",
    "trees_url": "https://api.github.com/repos/aparo/django-elasticsearch/git/trees{/sha}",
    "updated_at": "2014-01-15T16:40:32Z",
    "url": "https://api.github.com/repos/aparo/django-elasticsearch",
    "watchers": 92,
    "watchers_count": 92
}