[
    "tests",
    "taggit_suggest.tests",
    "taggit_suggest.models",
    "utils",
    "taggit_suggest.admin",
    "taggit_suggest",
    "taggit_suggest.utils",
    "models",
    "admin",
    "runtests"
]