{
    "archive_url": "https://api.github.com/repos/05bit/django-smarter/{archive_format}{/ref}",
    "assignees_url": "https://api.github.com/repos/05bit/django-smarter/assignees{/user}",
    "blobs_url": "https://api.github.com/repos/05bit/django-smarter/git/blobs{/sha}",
    "branches_url": "https://api.github.com/repos/05bit/django-smarter/branches{/branch}",
    "clone_url": "https://github.com/05bit/django-smarter.git",
    "collaborators_url": "https://api.github.com/repos/05bit/django-smarter/collaborators{/collaborator}",
    "comments_url": "https://api.github.com/repos/05bit/django-smarter/comments{/number}",
    "commits_url": "https://api.github.com/repos/05bit/django-smarter/commits{/sha}",
    "compare_url": "https://api.github.com/repos/05bit/django-smarter/compare/{base}...{head}",
    "contents_url": "https://api.github.com/repos/05bit/django-smarter/contents/{+path}",
    "contributors_url": "https://api.github.com/repos/05bit/django-smarter/contributors",
    "created_at": "2012-03-05T11:54:35Z",
    "default_branch": "master",
    "description": "Declarative style generic views for Django.",
    "downloads_url": "https://api.github.com/repos/05bit/django-smarter/downloads",
    "events_url": "https://api.github.com/repos/05bit/django-smarter/events",
    "fork": false,
    "forks": 6,
    "forks_count": 6,
    "forks_url": "https://api.github.com/repos/05bit/django-smarter/forks",
    "full_name": "05bit/django-smarter",
    "git_commits_url": "https://api.github.com/repos/05bit/django-smarter/git/commits{/sha}",
    "git_refs_url": "https://api.github.com/repos/05bit/django-smarter/git/refs{/sha}",
    "git_tags_url": "https://api.github.com/repos/05bit/django-smarter/git/tags{/sha}",
    "git_url": "git://github.com/05bit/django-smarter.git",
    "has_downloads": true,
    "has_issues": true,
    "has_wiki": true,
    "homepage": "",
    "hooks_url": "https://api.github.com/repos/05bit/django-smarter/hooks",
    "html_url": "https://github.com/05bit/django-smarter",
    "id": 3626558,
    "issue_comment_url": "https://api.github.com/repos/05bit/django-smarter/issues/comments/{number}",
    "issue_events_url": "https://api.github.com/repos/05bit/django-smarter/issues/events{/number}",
    "issues_url": "https://api.github.com/repos/05bit/django-smarter/issues{/number}",
    "keys_url": "https://api.github.com/repos/05bit/django-smarter/keys{/key_id}",
    "labels_url": "https://api.github.com/repos/05bit/django-smarter/labels{/name}",
    "language": "Python",
    "languages_url": "https://api.github.com/repos/05bit/django-smarter/languages",
    "merges_url": "https://api.github.com/repos/05bit/django-smarter/merges",
    "milestones_url": "https://api.github.com/repos/05bit/django-smarter/milestones{/number}",
    "mirror_url": null,
    "name": "django-smarter",
    "notifications_url": "https://api.github.com/repos/05bit/django-smarter/notifications{?since,all,participating}",
    "open_issues": 2,
    "open_issues_count": 2,
    "owner": {
        "avatar_url": "https://avatars.githubusercontent.com/u/1001999?",
        "events_url": "https://api.github.com/users/05bit/events{/privacy}",
        "followers_url": "https://api.github.com/users/05bit/followers",
        "following_url": "https://api.github.com/users/05bit/following{/other_user}",
        "gists_url": "https://api.github.com/users/05bit/gists{/gist_id}",
        "gravatar_id": "02fb4a26d8db253a290255786b6a39c2",
        "html_url": "https://github.com/05bit",
        "id": 1001999,
        "login": "05bit",
        "organizations_url": "https://api.github.com/users/05bit/orgs",
        "received_events_url": "https://api.github.com/users/05bit/received_events",
        "repos_url": "https://api.github.com/users/05bit/repos",
        "site_admin": false,
        "starred_url": "https://api.github.com/users/05bit/starred{/owner}{/repo}",
        "subscriptions_url": "https://api.github.com/users/05bit/subscriptions",
        "type": "Organization",
        "url": "https://api.github.com/users/05bit"
    },
    "private": false,
    "pulls_url": "https://api.github.com/repos/05bit/django-smarter/pulls{/number}",
    "pushed_at": "2013-09-20T11:40:53Z",
    "releases_url": "https://api.github.com/repos/05bit/django-smarter/releases{/id}",
    "score": 1.0,
    "size": 415,
    "ssh_url": "git@github.com:05bit/django-smarter.git",
    "stargazers_count": 71,
    "stargazers_url": "https://api.github.com/repos/05bit/django-smarter/stargazers",
    "statuses_url": "https://api.github.com/repos/05bit/django-smarter/statuses/{sha}",
    "subscribers_url": "https://api.github.com/repos/05bit/django-smarter/subscribers",
    "subscription_url": "https://api.github.com/repos/05bit/django-smarter/subscription",
    "svn_url": "https://github.com/05bit/django-smarter",
    "tags_url": "https://api.github.com/repos/05bit/django-smarter/tags",
    "teams_url": "https://api.github.com/repos/05bit/django-smarter/teams",
    "trees_url": "https://api.github.com/repos/05bit/django-smarter/git/trees{/sha}",
    "updated_at": "2014-05-02T17:32:06Z",
    "url": "https://api.github.com/repos/05bit/django-smarter",
    "watchers": 71,
    "watchers_count": 71
}