{
    "archive_url": "https://api.github.com/repos/openstack/oslo-incubator/{archive_format}{/ref}",
    "assignees_url": "https://api.github.com/repos/openstack/oslo-incubator/assignees{/user}",
    "blobs_url": "https://api.github.com/repos/openstack/oslo-incubator/git/blobs{/sha}",
    "branches_url": "https://api.github.com/repos/openstack/oslo-incubator/branches{/branch}",
    "clone_url": "https://github.com/openstack/oslo-incubator.git",
    "collaborators_url": "https://api.github.com/repos/openstack/oslo-incubator/collaborators{/collaborator}",
    "comments_url": "https://api.github.com/repos/openstack/oslo-incubator/comments{/number}",
    "commits_url": "https://api.github.com/repos/openstack/oslo-incubator/commits{/sha}",
    "compare_url": "https://api.github.com/repos/openstack/oslo-incubator/compare/{base}...{head}",
    "contents_url": "https://api.github.com/repos/openstack/oslo-incubator/contents/{+path}",
    "contributors_url": "https://api.github.com/repos/openstack/oslo-incubator/contributors",
    "created_at": "2012-01-07T23:20:21Z",
    "default_branch": "master",
    "description": "Part of OpenStack's Oslo project. New Oslo APIs go through an incubation phase in this repository before being released as part of a proper Python library.",
    "downloads_url": "https://api.github.com/repos/openstack/oslo-incubator/downloads",
    "events_url": "https://api.github.com/repos/openstack/oslo-incubator/events",
    "fork": false,
    "forks": 72,
    "forks_count": 72,
    "forks_url": "https://api.github.com/repos/openstack/oslo-incubator/forks",
    "full_name": "openstack/oslo-incubator",
    "git_commits_url": "https://api.github.com/repos/openstack/oslo-incubator/git/commits{/sha}",
    "git_refs_url": "https://api.github.com/repos/openstack/oslo-incubator/git/refs{/sha}",
    "git_tags_url": "https://api.github.com/repos/openstack/oslo-incubator/git/tags{/sha}",
    "git_url": "git://github.com/openstack/oslo-incubator.git",
    "has_downloads": false,
    "has_issues": false,
    "has_wiki": false,
    "homepage": "http://openstack.org",
    "hooks_url": "https://api.github.com/repos/openstack/oslo-incubator/hooks",
    "html_url": "https://github.com/openstack/oslo-incubator",
    "id": 3127308,
    "issue_comment_url": "https://api.github.com/repos/openstack/oslo-incubator/issues/comments/{number}",
    "issue_events_url": "https://api.github.com/repos/openstack/oslo-incubator/issues/events{/number}",
    "issues_url": "https://api.github.com/repos/openstack/oslo-incubator/issues{/number}",
    "keys_url": "https://api.github.com/repos/openstack/oslo-incubator/keys{/key_id}",
    "labels_url": "https://api.github.com/repos/openstack/oslo-incubator/labels{/name}",
    "language": "Python",
    "languages_url": "https://api.github.com/repos/openstack/oslo-incubator/languages",
    "merges_url": "https://api.github.com/repos/openstack/oslo-incubator/merges",
    "milestones_url": "https://api.github.com/repos/openstack/oslo-incubator/milestones{/number}",
    "mirror_url": null,
    "name": "oslo-incubator",
    "notifications_url": "https://api.github.com/repos/openstack/oslo-incubator/notifications{?since,all,participating}",
    "open_issues": 0,
    "open_issues_count": 0,
    "owner": {
        "avatar_url": "https://avatars.githubusercontent.com/u/324574?",
        "events_url": "https://api.github.com/users/openstack/events{/privacy}",
        "followers_url": "https://api.github.com/users/openstack/followers",
        "following_url": "https://api.github.com/users/openstack/following{/other_user}",
        "gists_url": "https://api.github.com/users/openstack/gists{/gist_id}",
        "gravatar_id": "319605a7b6f36f2cd80214b2fc4d0e92",
        "html_url": "https://github.com/openstack",
        "id": 324574,
        "login": "openstack",
        "organizations_url": "https://api.github.com/users/openstack/orgs",
        "received_events_url": "https://api.github.com/users/openstack/received_events",
        "repos_url": "https://api.github.com/users/openstack/repos",
        "site_admin": false,
        "starred_url": "https://api.github.com/users/openstack/starred{/owner}{/repo}",
        "subscriptions_url": "https://api.github.com/users/openstack/subscriptions",
        "type": "Organization",
        "url": "https://api.github.com/users/openstack"
    },
    "private": false,
    "pulls_url": "https://api.github.com/repos/openstack/oslo-incubator/pulls{/number}",
    "pushed_at": "2014-05-06T22:08:55Z",
    "releases_url": "https://api.github.com/repos/openstack/oslo-incubator/releases{/id}",
    "score": 1.0,
    "size": 30893,
    "ssh_url": "git@github.com:openstack/oslo-incubator.git",
    "stargazers_count": 76,
    "stargazers_url": "https://api.github.com/repos/openstack/oslo-incubator/stargazers",
    "statuses_url": "https://api.github.com/repos/openstack/oslo-incubator/statuses/{sha}",
    "subscribers_url": "https://api.github.com/repos/openstack/oslo-incubator/subscribers",
    "subscription_url": "https://api.github.com/repos/openstack/oslo-incubator/subscription",
    "svn_url": "https://github.com/openstack/oslo-incubator",
    "tags_url": "https://api.github.com/repos/openstack/oslo-incubator/tags",
    "teams_url": "https://api.github.com/repos/openstack/oslo-incubator/teams",
    "trees_url": "https://api.github.com/repos/openstack/oslo-incubator/git/trees{/sha}",
    "updated_at": "2014-05-06T22:08:55Z",
    "url": "https://api.github.com/repos/openstack/oslo-incubator",
    "watchers": 76,
    "watchers_count": 76
}