{
    "libs": [
        "supybot",
        "questions",
        "utils",
        "ircmsgs",
        "conf",
        "plugins",
        "git",
        "log",
        "functools",
        "mock",
        "schedule",
        "inspect",
        "callbacks",
        "registry",
        "world",
        "ConfigParser",
        "commands",
        "traceback",
        "threading",
        "time",
        "os",
        "ircutils"
    ]
}