{
    "libs": [
        "styles",
        "unicodedata",
        "enums",
        "http",
        "lib",
        "pdfb",
        "fonts",
        "platypus",
        "sys",
        "re",
        "html",
        "conf",
        "graphics",
        "units",
        "svglib",
        "flowables",
        "copy",
        "os",
        "soupparser"
    ]
}