{
    "archive_url": "https://api.github.com/repos/chriskiehl/pyrobot/{archive_format}{/ref}",
    "assignees_url": "https://api.github.com/repos/chriskiehl/pyrobot/assignees{/user}",
    "blobs_url": "https://api.github.com/repos/chriskiehl/pyrobot/git/blobs{/sha}",
    "branches_url": "https://api.github.com/repos/chriskiehl/pyrobot/branches{/branch}",
    "clone_url": "https://github.com/chriskiehl/pyrobot.git",
    "collaborators_url": "https://api.github.com/repos/chriskiehl/pyrobot/collaborators{/collaborator}",
    "comments_url": "https://api.github.com/repos/chriskiehl/pyrobot/comments{/number}",
    "commits_url": "https://api.github.com/repos/chriskiehl/pyrobot/commits{/sha}",
    "compare_url": "https://api.github.com/repos/chriskiehl/pyrobot/compare/{base}...{head}",
    "contents_url": "https://api.github.com/repos/chriskiehl/pyrobot/contents/{+path}",
    "contributors_url": "https://api.github.com/repos/chriskiehl/pyrobot/contributors",
    "created_at": "2013-09-02T03:21:07Z",
    "default_branch": "master",
    "description": "A pure python windows automation library loosely modeled after Java's Robot Class. ",
    "downloads_url": "https://api.github.com/repos/chriskiehl/pyrobot/downloads",
    "events_url": "https://api.github.com/repos/chriskiehl/pyrobot/events",
    "fork": false,
    "forks": 11,
    "forks_count": 11,
    "forks_url": "https://api.github.com/repos/chriskiehl/pyrobot/forks",
    "full_name": "chriskiehl/pyrobot",
    "git_commits_url": "https://api.github.com/repos/chriskiehl/pyrobot/git/commits{/sha}",
    "git_refs_url": "https://api.github.com/repos/chriskiehl/pyrobot/git/refs{/sha}",
    "git_tags_url": "https://api.github.com/repos/chriskiehl/pyrobot/git/tags{/sha}",
    "git_url": "git://github.com/chriskiehl/pyrobot.git",
    "has_downloads": true,
    "has_issues": true,
    "has_wiki": true,
    "homepage": null,
    "hooks_url": "https://api.github.com/repos/chriskiehl/pyrobot/hooks",
    "html_url": "https://github.com/chriskiehl/pyrobot",
    "id": 12531160,
    "issue_comment_url": "https://api.github.com/repos/chriskiehl/pyrobot/issues/comments/{number}",
    "issue_events_url": "https://api.github.com/repos/chriskiehl/pyrobot/issues/events{/number}",
    "issues_url": "https://api.github.com/repos/chriskiehl/pyrobot/issues{/number}",
    "keys_url": "https://api.github.com/repos/chriskiehl/pyrobot/keys{/key_id}",
    "labels_url": "https://api.github.com/repos/chriskiehl/pyrobot/labels{/name}",
    "language": "Python",
    "languages_url": "https://api.github.com/repos/chriskiehl/pyrobot/languages",
    "merges_url": "https://api.github.com/repos/chriskiehl/pyrobot/merges",
    "milestones_url": "https://api.github.com/repos/chriskiehl/pyrobot/milestones{/number}",
    "mirror_url": null,
    "name": "pyrobot",
    "notifications_url": "https://api.github.com/repos/chriskiehl/pyrobot/notifications{?since,all,participating}",
    "open_issues": 3,
    "open_issues_count": 3,
    "owner": {
        "avatar_url": "https://avatars.githubusercontent.com/u/1408720?",
        "events_url": "https://api.github.com/users/chriskiehl/events{/privacy}",
        "followers_url": "https://api.github.com/users/chriskiehl/followers",
        "following_url": "https://api.github.com/users/chriskiehl/following{/other_user}",
        "gists_url": "https://api.github.com/users/chriskiehl/gists{/gist_id}",
        "gravatar_id": "5b07183c1d5224270b32a64f5c997b50",
        "html_url": "https://github.com/chriskiehl",
        "id": 1408720,
        "login": "chriskiehl",
        "organizations_url": "https://api.github.com/users/chriskiehl/orgs",
        "received_events_url": "https://api.github.com/users/chriskiehl/received_events",
        "repos_url": "https://api.github.com/users/chriskiehl/repos",
        "site_admin": false,
        "starred_url": "https://api.github.com/users/chriskiehl/starred{/owner}{/repo}",
        "subscriptions_url": "https://api.github.com/users/chriskiehl/subscriptions",
        "type": "User",
        "url": "https://api.github.com/users/chriskiehl"
    },
    "private": false,
    "pulls_url": "https://api.github.com/repos/chriskiehl/pyrobot/pulls{/number}",
    "pushed_at": "2014-02-18T19:22:06Z",
    "releases_url": "https://api.github.com/repos/chriskiehl/pyrobot/releases{/id}",
    "score": 1.0,
    "size": 384,
    "ssh_url": "git@github.com:chriskiehl/pyrobot.git",
    "stargazers_count": 137,
    "stargazers_url": "https://api.github.com/repos/chriskiehl/pyrobot/stargazers",
    "statuses_url": "https://api.github.com/repos/chriskiehl/pyrobot/statuses/{sha}",
    "subscribers_url": "https://api.github.com/repos/chriskiehl/pyrobot/subscribers",
    "subscription_url": "https://api.github.com/repos/chriskiehl/pyrobot/subscription",
    "svn_url": "https://github.com/chriskiehl/pyrobot",
    "tags_url": "https://api.github.com/repos/chriskiehl/pyrobot/tags",
    "teams_url": "https://api.github.com/repos/chriskiehl/pyrobot/teams",
    "trees_url": "https://api.github.com/repos/chriskiehl/pyrobot/git/trees{/sha}",
    "updated_at": "2014-05-06T01:24:00Z",
    "url": "https://api.github.com/repos/chriskiehl/pyrobot",
    "watchers": 137,
    "watchers_count": 137
}