{
    "libs": [
        "random",
        "datetime",
        "freeform",
        "PIL",
        "struct",
        "tempfile",
        "psycopg2",
        "pprint",
        "imp",
        "feedparser",
        "collections",
        "mail",
        "etree",
        "string",
        "zipfile",
        "dat",
        "getp",
        "httplib2",
        "subprocess",
        "sysconfig",
        "magic",
        "settings",
        "decimal",
        "uuid",
        "p",
        "t",
        "defaults",
        "signal",
        "logs",
        "atexit",
        "calendar",
        "virtualenv",
        "serializers",
        "threading",
        "geos",
        "urllib",
        "re",
        "math",
        "cgi",
        "core",
        "optparse",
        "inspect",
        "django_testc",
        "path",
        "gdal",
        "importlib",
        "logging",
        "socket",
        "handlers",
        "geometry",
        "adapter",
        "traceback",
        "pkg_resources",
        "itertools",
        "doctest",
        "flickrapi",
        "os",
        "south",
        "win32api",
        "cache",
        "encoding",
        "simple",
        "unittest",
        "codecs",
        "functional",
        "dispatch",
        "contrib",
        "gis",
        "posixpath",
        "errno",
        "BeautifulSoup",
        "json",
        "Cookie",
        "topology",
        "libgeos",
        "pytz",
        "translation",
        "copy",
        "ExifTags",
        "b",
        "zlib",
        "defaultfilters",
        "chardet",
        "error",
        "exceptions",
        "soupparser",
        "shortcuts",
        "site",
        "shutil",
        "xlrd",
        "lxml",
        "html",
        "test",
        "getopt",
        "csv",
        "mock",
        "mimetypes",
        "http",
        "context",
        "warnings",
        "glob",
        "pyrfc3339",
        "urllib2",
        "sys",
        "v2",
        "saxutils",
        "background_t",
        "e",
        "sets",
        "doc",
        "safestring",
        "django",
        "urlparse",
        "feedgenerator",
        "client",
        "time"
    ]
}