[
    "show_urls",
    "ebpub.bin",
    "db.migrations.0025_auto__add_more_indexes",
    "textmining.tests",
    "templatetags.eb_json",
    "ebpub.ebpub.moderation.forms",
    "ebdata.scrapers.general",
    "ebdata.ebdata.templatemaker.tests.run_all",
    "obdemo.management.commands.import_boston_hoods",
    "widgets.admin",
    "obadmin.project_templates",
    "bin.import_hoods",
    "openblock",
    "accounts.management.commands.createsuperuser",
    "ebdata.ebdata.scrapers.general.open311",
    "ebdata.scrapers.general.flickr",
    "ebdata.templatemaker.tests.textlist",
    "ebdata.scrapers.us.ma.boston.restaurants",
    "script_utils",
    "ebpub.ebpub.richmaps.tests",
    "0002_add_place_misspellings",
    "import_zips",
    "db.management",
    "ebpub.ebpub.streets.migrations",
    "ebdata.ebdata.geotagger.tests",
    "neighbornews.forms",
    "ebpub.ebpub.accounts.migrations.0001_initial",
    "ebdata.scrapers.general.seeclickfix.seeclickfix_retrieval",
    "ebdata.ebdata.nlp.tests.test_datelines",
    "parser.tests",
    "ebdata.ebdata.parsing.excel",
    "obdemo.management.commands.import_boston_meetups",
    "ebpub.ebpub.streets.migrations.0002_add_place_misspellings",
    "obdemo.migrations.0006_disable_broken_schemas",
    "ebdata.blobs.manual",
    "blobs.migrations.0001_initial",
    "neighbornews.migrations.0002_add_is_event",
    "ebdata.ebdata.scrapers.general.spreadsheet.tests",
    "blobs.migrations",
    "ebdata.scrapers.general.spreadsheet.tests",
    "templatemaker.listdiff",
    "utils.models",
    "ebpub.openblockapi.tests",
    "db.bin.alphabetize_locations",
    "0002_auto__add_field_savedplace_block_center",
    "test_utils",
    "ebdata.ebdata.retrieval.log",
    "0013__undo_0010",
    "obadmin.obadmin.admin.views",
    "ebpub.ebpub.streets.models",
    "htmlutils",
    "add_news",
    "ebpub.ebpub.streets.bin.populate_suburbs",
    "db.migrations.0021_auto__add_unique_lookup_code_schema_field",
    "db.migrations.0002_initial_statistics",
    "obdemo.obdemo.views",
    "streets",
    "ebpub.db",
    "ebpub.streets.bin.fix_block_numbers",
    "ebpub.alerts.admin",
    "ebpub.ebpub.accounts.management.commands",
    "allmetros",
    "export_schema",
    "ebdata.ebdata.templatemaker.tests.clean",
    "us.ma.boston",
    "test_templatetags",
    "blobs.scrapers",
    "ebdata.ebdata.scrapers.general",
    "utils.logutils",
    "preferences",
    "scrapers.general.spreadsheet",
    "migrations.0004_fix_block_numbers",
    "ebpub.db.bin.delete_newsitems",
    "utils.tests",
    "ebdata.scrapers.us.ma.boston.businesses",
    "openblock.+project+.urls",
    "ebpub.widgets.migrations.0002_auto__del_field_widget_extra_link_parameters__add_field_widget_item_li",
    "restaurants.retrieval",
    "ebdata.templatemaker",
    "ebpub.db.migrations.0026_make_unique_lookup_names",
    "articletext",
    "ebdata.ebdata.parsing.mdb",
    "ebpub.ebpub.db.views",
    "ebpub.ebpub.accounts.models",
    "ebdata.textmining.tests.treeutils",
    "ebdata.ebdata.nlp.tests",
    "db.migrations.0007_load_default_schemas",
    "schemafilters",
    "ebpub.utils.script_utils",
    "obadmin.obadmin.admin.forms",
    "blockimport.esri.management.commands.importesri",
    "0028_auto__add_unique_schemafield_name_schema__add_field_schema_edit_window",
    "ebpub.ebpub.geocoder.migrations.0001_initial",
    "ebpub.ebpub.geocoder.parser.cities",
    "ebpub.db.management.commands",
    "migrations.0004_auto__del_field_savedplace_block",
    "ebpub.ebpub.moderation.models",
    "base",
    "db.bin",
    "ebpub.widgets.admin",
    "ebpub.ebpub.geocoder.parser.prefixes",
    "import_boston_zips",
    "ebdata.ebdata.scrapers.general.spreadsheet.retrieval",
    "ebpub.db.context_processors",
    "ebpub.ebpub.geocoder.parser",
    "general.open311.georeportv2",
    "ebdata.blobs.auto_purge",
    "ebpub.moderation.migrations",
    "0012__undo_0011",
    "migrations.0002_auto__add_field_savedplace_block_center",
    "ebpub.streets.bin.populate_suburbs",
    "esri",
    "prefixes",
    "ebpub.ebpub.alerts.migrations.0003_populate_block_center",
    "ma.boston.businesses",
    "ebdata.ebdata.retrieval.updaterdaemon",
    "ebpub.db.migrations.0012__undo_0011",
    "ebdata.geotagger.urls",
    "alerts.migrations",
    "ebpub.db.templatetags.mapping",
    "templatemaker.sst",
    "us.ma.boston.businesses.retrieval",
    "open311",
    "0003_refactor_misspellings",
    "ebpub.db.templatetags",
    "ebpub.ebpub.db.migrations.0022_auto__del_field_newsitem_block",
    "ebpub.ebpub.db.migrations.0001_initial",
    "tests.textlist",
    "ebpub.openblockapi.models",
    "ebpub.ebpub.streets.migrations.0006_initial_place_types",
    "streets.bin.populate_suburbs",
    "db.admin",
    "accounts.models",
    "ebpub.ebpub.utils.script_utils",
    "scrapers.newsitem_list_detail",
    "hole",
    "savedplaces.migrations.0001_initial",
    "migrations.0016_use_slug_fields_for_slugs",
    "openblockapi.itemquery",
    "itemquery",
    "migrations.0003_populate_profiles",
    "ma",
    "ebpub.ebpub.settings_default",
    "utils.daemon",
    "obdemo.migrations.0001_initial",
    "misc.bin.fix_newsitem_locations",
    "ebpub.preferences.migrations.0003_populate_profiles",
    "ebpub.urls",
    "db.forms",
    "ebpub.geocoder.migrations",
    "import_locations",
    "ebpub.db.migrations.0004_st_intersects_patch",
    "0005_load_flickr_schema",
    "ebpub.alerts.migrations",
    "templatemaker.hole",
    "ebpub.moderation.forms",
    "ebpub.ebpub.accounts.callbacks",
    "ebpub.ebpub.widgets.views",
    "scrapers.base",
    "states",
    "db.templatetags.eb",
    "ebpub.streets.admin",
    "apikey.urls",
    "tests.brain",
    "ebdata.scrapers.general.meetup",
    "ebpub.utils.multidb",
    "spreadsheet",
    "ebpub.streets.blockimport.esri.importers.zipcodes",
    "make_bootstrap",
    "ebpub.ebpub.widgets.migrations",
    "0018_add_newsitem_last_modification",
    "ebdata.ebdata.templatemaker.articletext",
    "ebpub.db.migrations.0003_attribute_indices",
    "ebpub.neighbornews.forms",
    "ebpub.db.migrations.0019_auto__add_field_schema_allow_comments",
    "config",
    "ebpub.ebpub.neighbornews.admin",
    "ebpub.ebpub.preferences.migrations.0003_populate_profiles",
    "ebdata.ebdata.utils",
    "management.commands.import_boston_hoods",
    "mapping",
    "ebdata.ebdata.scrapers.us.ma.boston.restaurants.retrieval",
    "ebdata.blobs.geotagging",
    "project_templates.openblock",
    "monkeypatches",
    "db.bin.activate_schema",
    "constants",
    "ebpub.streets.utils",
    "ebdata.retrieval.scrapers.newsitem_list_detail",
    "ebpub.db.migrations.0010_populate_schemafield_slugs",
    "bootstrap",
    "ebpub.ebpub.db.migrations.0015_auto__add_field_schema_map_icon_url__add_field_schema_map_color",
    "parsing.pdftotext",
    "ebdata.templatemaker.tests",
    "ebpub.ebpub.streets.blockimport.tiger",
    "ebdata.ebdata.templatemaker.tests.webmining",
    "retrieval",
    "esri.importers.zipcodes",
    "ebdata.geotagger.models",
    "0002_auto__add_profile",
    "fix_block_numbers",
    "ebpub.db.migrations.0006_add_location_synonym",
    "ma.boston.restaurants.retrieval",
    "ebpub.ebpub.openblockapi",
    "ebdata.parsing.unicodecsv",
    "ebpub.ebpub.metros.migrations",
    "ebpub.ebpub.accounts.migrations",
    "ebdata.retrieval.scrapers.base",
    "ebpub.ebpub.streets.migrations.0003_refactor_misspellings",
    "db.migrations.0009_add_real_slug_to_schemafield",
    "ebpub.openblockapi",
    "treeutils",
    "admin.sites",
    "populate_streets",
    "ebpub.streets.models",
    "ebdata.scrapers.general.open311",
    "migrations.0022_auto__del_field_newsitem_block",
    "db.templatetags.eb_json",
    "db.bin.export_schema",
    "ebpub.utils.uploadhandler",
    "db.templatetags.recaptcha_tags",
    "ebpub.ebpub.widgets.migrations.0003_auto__add_pinneditem",
    "ebdata.retrieval.updaterdaemon",
    "0007_auto__add_field_place_place_type",
    "obdemo.migrations.0005_load_flickr_schema",
    "ebpub.widgets.models",
    "ebpub.ebpub.db.bin.update_aggregates",
    "retrieval.scrapers.newsitem_list_detail",
    "examples.crime_report_schema",
    "docs.conf",
    "tiger.import_blocks",
    "ebpub.db.bin",
    "templatemaker.tests.listdiffc",
    "newsitem_list_detail",
    "ebpub.ebpub.richmaps",
    "settings_default",
    "ebpub.ebpub.streets.blockimport.tiger.import_blocks",
    "migrations.0011_delete_schemafield_name",
    "ebpub.ebpub.richmaps.models",
    "ebpub.richmaps.models",
    "ebpub.streets.migrations.0006_initial_place_types",
    "parsing.excel",
    "retrievers",
    "tests.test_models",
    "ebdata.ebdata.blobs.update_feeds",
    "ebpub.ebpub.neighbornews.migrations.0004_chartable_categories",
    "obadmin.obadmin.pavement",
    "ebdata.ebdata.templatemaker.textlist",
    "mdb",
    "0010_auto__add_field_placetype_map_icon_url__add_field_placetype_map_color",
    "obdemo.management.commands.import_boston_news",
    "apikey.views",
    "ebpub.db.migrations",
    "ebdata.ebdata.nlp.models",
    "apikey.admin",
    "ebpub.db.breadcrumbs",
    "0009_add_real_slug_to_schemafield",
    "openblock.+project+",
    "admin.models",
    "0017_del_location_centroid",
    "moderation.admin",
    "ebpub.ebpub.neighbornews.urls",
    "ebpub.ebpub.utils.view_utils",
    "geocode_newsitems",
    "commands.import_boston_zips",
    "ebpub.ebpub.streets.migrations.0011_fix_missing_suffixes",
    "ebpub.ebpub.preferences.migrations.0005_auto__add_field_profile_properties",
    "scrapers.us.ma.boston.businesses",
    "ebdata.parsing.excel",
    "ebpub.ebpub.openblockapi.apikey.admin",
    "ebpub.neighbornews.models",
    "ebdata.ebdata.geotagger.urls",
    "ebdata.parsing.dbf",
    "migrations.0002_add_place_misspellings",
    "db.management.commands.show_urls",
    "alerts.admin",
    "db.feeds",
    "migrations.0019_auto__add_field_schema_allow_comments",
    "ebdata.scrapers.us.ma.boston.restaurants.retrieval",
    "ebpub.neighbornews.migrations.0002_add_is_event",
    "ebpub.ebpub.urls",
    "scrapers.general.georss",
    "ebpub.ebpub.db.bin.import_locations",
    "streets.blockimport.esri.importers.blocks",
    "obadmin.obadmin.project_templates.openblock",
    "ebdata.templatemaker.template",
    "streets.utils",
    "richmaps",
    "ebdata.nlp.tests.tests",
    "templatemaker.articletext",
    "ebpub.ebpub.accounts.constants",
    "misc",
    "templatetags.mapping",
    "obdemo.settings_background",
    "admin.forms",
    "ebpub.metros.loader",
    "blockimport",
    "view_utils",
    "retrieval.updaterdaemon",
    "ebdata.blobs.scrapers",
    "ebpub.ebpub.openblockapi.apikey.signals",
    "db.migrations.0028_auto__add_unique_schemafield_name_schema__add_field_schema_edit_window",
    "ebdata.ebdata",
    "ebpub.db.management",
    "geotagger",
    "nlp.addresses",
    "openblock.+project+.models",
    "ebdata.nlp.tests",
    "0007_add_meetup_and_neighbornews",
    "meetup.meetup_retrieval",
    "ebdata.geotagger.views",
    "ebdata.ebdata.textmining.tests",
    "ebpub.accounts",
    "obadmin.obadmin",
    "ebdata.ebdata.textmining.treeutils",
    "scrapers.general.spreadsheet.retrieval",
    "db.context_processors",
    "ebpub.db.templatetags.full_links",
    "ebdata.ebdata.scrapers.us.ma.boston.events.retrieval",
    "geocoder.models",
    "db.migrations.0013__undo_0010",
    "ebpub.ebpub.streets.tests",
    "obdemo.obdemo.management.commands.import_boston_news",
    "migrations.0002_initial_statistics",
    "ebdata.ebdata.retrieval.updaterdaemon.runner",
    "ebpub.streets.migrations.0007_auto__add_field_place_place_type",
    "apikey.migrations.0001_initial",
    "ebpub.openblockapi.apikey.signals",
    "obdemo.obdemo.migrations.0007_add_meetup_and_neighbornews",
    "obdemo.obdemo.migrations.0008_make_events_eventish",
    "ebpub.db.migrations.0014__undo_0009",
    "admin.urls",
    "ma.boston.businesses.retrieval",
    "us.ma.boston.restaurants",
    "savedplaces.models",
    "runner",
    "boston",
    "ebdata.templatemaker.tests.sst",
    "apikey.signals",
    "ebdata.retrieval.log",
    "raw",
    "ebpub.ebpub.db.bin",
    "ebpub.streets.migrations.0005_auto__add_placetype",
    "ebpub.ebpub.db.migrations.0025_auto__add_more_indexes",
    "ebpub.ebpub.preferences.migrations.0004_auto__add_field_profile_max_keys",
    "ebdata.ebdata.retrieval.scrapers.tests",
    "ebpub.geocoder.tests.parser",
    "ebpub.openblockapi.apikey.admin",
    "ebdata.ebdata.textmining.models",
    "db.templatetags.eb_filter",
    "obadmin.admin.tasks",
    "obdemo.management.commands.import_boston_blocks",
    "ma.boston.events",
    "ebdata.ebdata.scrapers.general.meetup.meetup_retrieval",
    "ebpub.openblockapi.itemquery",
    "ebpub.preferences.migrations.0004_auto__add_field_profile_max_keys",
    "management.commands.import_boston_restaurants",
    "accounts.admin",
    "ebdata.ebdata.parsing.dbf",
    "context_processors",
    "ebpub.widgets.migrations",
    "ebpub.ebpub.db.bin.delete_newsitems",
    "ebpub.ebpub.utils.mapmath",
    "migrations.0008_auto__add_field_place_url",
    "migrations.0008_make_events_eventish",
    "commands.createsuperuser",
    "ebdata.geotagger.tests",
    "ebdata.ebdata.scrapers.us",
    "misc.bin.make_bootstrap",
    "ebpub.db.migrations.0009_add_real_slug_to_schemafield",
    "geocoder.parser.cities",
    "0008_auto__add_field_place_url",
    "blobs",
    "bin.populate_streets",
    "ebdata.templatemaker.clean",
    "ebpub.alerts",
    "neighbornews.migrations.0004_chartable_categories",
    "migrations.0005_load_flickr_schema",
    "ebpub.db.schemafilters",
    "parsing.mdb",
    "createsuperuser",
    "unicodecsv",
    "clean",
    "us.ma.boston.police_reports",
    "bin.fix_block_numbers",
    "ebpub.streets.bin.populate_streets",
    "ma.boston.events.retrieval",
    "populate_suburbs",
    "ebpub.savedplaces",
    "ebdata.ebdata.templatemaker.template",
    "ebdata.ebdata.nlp.tests.tests",
    "obdemo.obdemo.management.commands",
    "retrieval.scrapers.list_detail",
    "accounts.middleware",
    "ebdata.ebdata.blobs.auto_purge",
    "businesses",
    "georeportv2",
    "ebpub.ebpub.db.migrations.0019_auto__add_field_schema_allow_comments",
    "obadmin.admin",
    "ebpub.ebpub.neighbornews.views",
    "openblockapi.urls",
    "ebdata.nlp",
    "accounts.management",
    "ebpub.ebpub.db.tests.test_utils",
    "db.templatetags.dateutils",
    "scrapers.us.ma",
    "neighbornews.admin",
    "ebdata.blobs.migrations",
    "ebdata.retrieval.scrapers.tests",
    "scrapers.general.georss.retrieval",
    "db.schemafilters",
    "0003_populate_profiles",
    "ebpub.moderation.urls",
    "ebpub.ebpub.db.bin.import_zips",
    "ebpub.ebpub.petitions.migrations",
    "db",
    "obadmin.obadmin.skel",
    "ebpub.streets.blockimport.esri.management",
    "0003_allow_flagging",
    "templatemaker.tests.run_all",
    "ebpub.geocoder.parser.cities",
    "updaterdaemon.runner",
    "project_templates.openblock.+project+.urls",
    "throttle",
    "ebpub.ebpub.geocoder.migrations",
    "ebpub.savedplaces.views",
    "ebpub.ebpub.db.migrations.0026_make_unique_lookup_names",
    "boston.businesses.retrieval",
    "widgets.migrations.0002_auto__del_field_widget_extra_link_parameters__add_field_widget_item_li",
    "ebdata.ebdata.templatemaker.tests.brain",
    "metros.migrations.0001_initial",
    "streets.migrations.0005_auto__add_placetype",
    "fields",
    "ebpub.openblockapi.apikey.urls",
    "ebpub.ebpub.db.bin.activate_schema",
    "0011_delete_schemafield_name",
    "obdemo.scrapers",
    "db.migrations.0018_add_newsitem_last_modification",
    "ebdata.ebdata.templatemaker.webmining",
    "streets.bin.update_block_pretty_names",
    "commands.show_urls",
    "restaurants",
    "ebdata.retrieval",
    "ebdata.scrapers.general.spreadsheet",
    "ebpub.savedplaces.migrations.0001_initial",
    "testing",
    "widgets.migrations.0001_initial",
    "ebpub.ebpub.geocoder.tests",
    "ebpub.ebpub.streets.bin.fix_block_numbers",
    "esri.management",
    "multidb",
    "ebdata.ebdata.retrieval.utils",
    "boston.building_permits.retrieval",
    "ebdata.nlp.datelines",
    "ebpub.alerts.migrations.0001_initial",
    "0006_initial_place_types",
    "migrations.0018_add_newsitem_last_modification",
    "scrapers.us.ma.boston.events.retrieval",
    "ebpub.ebpub.moderation.admin",
    "migrations.0020_auto__add_field_schema_is_event",
    "ebpub.db.migrations.0028_auto__add_unique_schemafield_name_schema__add_field_schema_edit_window",
    "retrieval.models",
    "sites",
    "migrations.0026_make_unique_lookup_names",
    "utils.view_utils",
    "db.breadcrumbs",
    "templatemaker.tests.listdiff",
    "ebdata.scrapers.us.ma.boston.police_reports.retrieval",
    "streets.blockimport.tiger",
    "ebpub.streets.migrations.0002_add_place_misspellings",
    "ebpub.ebpub.streets.migrations.0001_initial",
    "obdemo.migrations.0007_add_meetup_and_neighbornews",
    "ebpub.ebpub.neighbornews.migrations.0002_add_is_event",
    "ebpub.db.templatetags.eb_filter",
    "importers",
    "0004_chartable_categories",
    "0004_load_more_schemas",
    "create_seeds",
    "reverse",
    "geocoder",
    "ebpub.geocoder",
    "ebpub.widgets.tests",
    "management.commands.import_boston_meetups",
    "tests.listdiffc",
    "tests.geocoder",
    "ebpub.moderation",
    "updaterdaemon.config",
    "ebpub.ebpub.alerts.models",
    "ebdata.templatemaker.tests.articletext",
    "urls",
    "obdemo.scrapers.add_news",
    "migrations.0004_auto__add_field_profile_max_keys",
    "ebdata.ebdata.textmining",
    "db.migrations.0026_make_unique_lookup_names",
    "ebpub.utils.bunch",
    "management.commands.importesri",
    "police_reports",
    "ebpub.streets.blockimport.esri",
    "ebpub.ebpub.streets.migrations.0008_auto__add_field_place_url",
    "ebdata.ebdata.scrapers.general.meetup",
    "loader",
    "ebpub.ebpub.db.tests.test_models",
    "webmining",
    "migrations.0014__undo_0009",
    "ebpub.metros.migrations",
    "ebpub.ebpub.petitions.migrations.0001_initial",
    "metros.models",
    "seeclickfix.seeclickfix_retrieval",
    "management.commands.import_boston_news",
    "0007_load_default_schemas",
    "obadmin.project_templates.openblock.+project+.urls",
    "ebdata.ebdata.templatemaker.tests",
    "retrieval.scrapers",
    "ma.boston.restaurants",
    "streets.migrations.0003_refactor_misspellings",
    "ebdata",
    "ebdata.templatemaker.tests.listdiff",
    "flickr.flickr_retrieval",
    "ebdata.scrapers.us.ma.boston.building_permits",
    "migrations.0001_initial",
    "neighbornews",
    "templatemaker.template",
    "moderation",
    "migrations.0010_tweak_restaurants",
    "ebpub.petitions",
    "ebpub.ebpub.geocoder.tests.parser",
    "templatemaker.tests.template",
    "ebpub.ebpub.db.migrations.0014__undo_0009",
    "widgets.migrations.0003_auto__add_pinneditem",
    "ebdata.scrapers.general.spreadsheet.retrieval",
    "blobs.create_seeds",
    "name_utils",
    "spreadsheet.tests",
    "apikey",
    "0004_auto__del_field_emailalert_block",
    "ebpub.ebpub.savedplaces.migrations.0004_auto__del_field_savedplace_block",
    "migrations.0003_refactor_misspellings",
    "metros.allmetros",
    "boston.restaurants.retrieval",
    "ebpub.db.migrations.0023_auto__add_newsitemimage",
    "utils.bunch",
    "ebpub.savedplaces.migrations",
    "ebpub.utils.dates",
    "ebpub.ebpub.alerts.migrations.0004_auto__del_field_emailalert_block",
    "ebpub.alerts.migrations.0004_auto__del_field_emailalert_block",
    "ebdata.ebdata.scrapers.us.ma.boston.building_permits.retrieval",
    "ebpub.ebpub.db.tests.test_schemafilters",
    "preferences.models",
    "ebdata.templatemaker.htmlutils",
    "ebpub.ebpub.widgets.migrations.0002_auto__del_field_widget_extra_link_parameters__add_field_widget_item_li",
    "delete_blocks_outside_city",
    "neighbornews.migrations.0001_initial",
    "conf",
    "auto_purge",
    "ebpub.ebpub.db.migrations.0020_auto__add_field_schema_is_event",
    "0022_auto__del_field_newsitem_block",
    "ebpub.ebpub.streets",
    "boston.police_reports.retrieval",
    "ebpub.ebpub.openblockapi.apikey",
    "ebpub.ebpub.streets.blockimport.esri",
    "meetup",
    "geocoder.tests.geocoder",
    "ebpub.db.migrations.0005_newsitem_location_trigger",
    "esri.importers",
    "ebpub.ebpub.savedplaces.admin",
    "scrapers.general.meetup.meetup_retrieval",
    "ebpub.streets.blockimport.tiger.import_blocks",
    "ebpub.db.migrations.0016_use_slug_fields_for_slugs",
    "ebpub.ebpub.accounts.views",
    "migrations.0002_auto__add_field_emailalert_block_center",
    "0019_auto__add_field_schema_allow_comments",
    "ebdata.templatemaker.tests.brain",
    "db.migrations.0006_add_location_synonym",
    "geocoder.migrations",
    "alerts.migrations.0002_auto__add_field_emailalert_block_center",
    "migrations.0002_auto__del_field_widget_extra_link_parameters__add_field_widget_item_li",
    "parsing.unicodecsv",
    "utils.multidb",
    "db.tests",
    "templatemaker.webmining",
    "ebdata.ebdata.scrapers.us.ma.boston",
    "streets.migrations.0010_auto__add_field_placetype_map_icon_url__add_field_placetype_map_color",
    "obdemo.obdemo.migrations.0002_noop",
    "streets.bin",
    "savedplaces.migrations.0002_auto__add_field_savedplace_block_center",
    "import_boston_news",
    "ebdata.ebdata.templatemaker.hole",
    "ebpub.ebpub.openblockapi.apikey.models",
    "ebdata.ebdata.retrieval.scrapers",
    "ebpub.streets.migrations.0011_fix_missing_suffixes",
    "management.commands.createsuperuser",
    "commands.importesri",
    "migrations.0012_add_prefix_to_block_and_intersection",
    "ebpub.savedplaces.admin",
    "general.open311",
    "tests.listdiff",
    "ebdata.ebdata.utils.daemon",
    "ebpub.geocoder.parser.states",
    "obdemo.obdemo.models",
    "savedplaces.migrations.0004_auto__del_field_savedplace_block",
    "ebpub.ebpub.neighbornews.migrations.0003_allow_flagging",
    "zipcodes",
    "ebpub.constants",
    "general.spreadsheet.retrieval",
    "ebdata.ebdata.nlp.datelines",
    "ebpub.accounts.management.commands.createsuperuser",
    "ebpub.openblockapi.apikey.auth",
    "ebpub.ebpub.widgets.tests",
    "ebpub.ebpub.streets.bin.delete_blocks_outside_city",
    "signals",
    "blobs.update_feeds",
    "preferences.migrations.0005_auto__add_field_profile_properties",
    "scrapers.list_detail",
    "ebpub.ebpub.db.templatetags.dateutils",
    "preferences.views",
    "ebpub.ebpub.streets.blockimport.esri.importers",
    "db.tests.test_schemafilters",
    "bin",
    "migrations.0007_load_default_schemas",
    "0005_auto__add_field_profile_properties",
    "manage",
    "streets.tests",
    "preferences.migrations.0004_auto__add_field_profile_max_keys",
    "migrations.0027_add_field_lookup_featured__add_unique_lookup_schema_field_name",
    "bin.delete_newsitems",
    "migrations.0003_attribute_indices",
    "ebpub.ebpub.metros.migrations.0001_initial",
    "ebpub.ebpub.db.templatetags.recaptcha_tags",
    "boston.businesses",
    "ebpub.ebpub.openblockapi.itemquery",
    "ebpub.ebpub.savedplaces.migrations.0001_initial",
    "ebpub.openblockapi.apikey.migrations.0001_initial",
    "bin.fix_newsitem_locations",
    "test_views",
    "daemon",
    "geocoder.tests.parser",
    "ebdata.geotagger",
    "ebdata.ebdata.nlp.places",
    "ebpub.accounts.forms",
    "0015_auto__add_field_schema_map_icon_url__add_field_schema_map_color",
    "templatemaker.clean",
    "manual",
    "ebdata.scrapers.general.open311.georeportv2",
    "0026_make_unique_lookup_names",
    "alerts.sending",
    "obdemo.obdemo.management",
    "pavement",
    "ebdata.retrieval.log_debug",
    "ebdata.ebdata.retrieval.log_debug",
    "ebdata.ebdata.templatemaker.sst",
    "ebpub.ebpub.openblockapi.models",
    "ebpub.ebpub.db.forms",
    "ebdata.textmining.tests",
    "savedplaces.admin",
    "examples",
    "importers.zipcodes",
    "streets.blockimport.esri",
    "openblock.+project+.manage",
    "ebpub.ebpub.db.migrations.0010_populate_schemafield_slugs",
    "geoadmin",
    "boston.events.retrieval",
    "ebpub.ebpub.db.migrations.0028_auto__add_unique_schemafield_name_schema__add_field_schema_edit_window",
    "migrations.0002_auto__add_profile",
    "db.tests.test_models",
    "ebdata.templatemaker.sst",
    "metros.tests",
    "obadmin.obadmin.testrunner",
    "neighbornews.views",
    "ebpub.ebpub.db.templatetags",
    "tests.run_all",
    "ebpub.monkeypatches",
    "ebdata.parsing.pdftotext",
    "ebdata.ebdata.scrapers.general.seeclickfix",
    "building_permits.retrieval",
    "ebpub.ebpub.streets.name_utils",
    "migrations.0003_populate_block_center",
    "ebpub.ebpub.preferences.migrations.0002_auto__add_profile",
    "ebpub.db.tests.test_utils",
    "ebpub.ebpub.constants",
    "openblockapi.apikey.urls",
    "commands.import_boston_blocks",
    "obadmin.obadmin.project_templates.openblock.+project+",
    "ebpub.db.migrations.0022_auto__del_field_newsitem_block",
    "fix_newsitem_locations",
    "migrations.0009_add_real_slug_to_schemafield",
    "mapmath",
    "project_templates.openblock.+project+.models",
    "ebpub.ebpub.accounts.urls",
    "ebpub.ebpub.widgets.urls",
    "ebpub.ebpub.alerts.sending",
    "us.ma.boston.events",
    "activate_schema",
    "ebpub.ebpub.geocoder.reverse",
    "templatemaker.tests",
    "ebpub.db.migrations.0027_add_field_lookup_featured__add_unique_lookup_schema_field_name",
    "metros.test_urls",
    "templatemaker.models",
    "ebdata.ebdata.scrapers.general.flickr.flickr_retrieval",
    "ebdata.templatemaker.models",
    "db.fields",
    "ebpub.ebpub.db.urlresolvers",
    "db.migrations.0001_initial",
    "ebpub.ebpub.accounts.admin",
    "ebpub.accounts.views",
    "ebpub.ebpub.widgets.admin",
    "scrapers.us.ma.boston.restaurants",
    "ebpub.ebpub.db.bin.export_schema",
    "streets.migrations.0011_fix_missing_suffixes",
    "ebpub.ebpub.accounts",
    "ebdata.scrapers.general.meetup.meetup_retrieval",
    "ebdata.templatemaker.textlist",
    "ebpub.geocoder.parser.prefixes",
    "parsing",
    "ebpub.ebpub.db.templatetags.eb_filter",
    "ebpub.ebpub.alerts.views",
    "moderation.views",
    "streets.migrations.0009_auto__del_field_placetype_map_icon",
    "ebpub.ebpub.db.migrations.0005_newsitem_location_trigger",
    "ebpub.db.templatetags.eb",
    "geodjango",
    "templatemaker.tests.clean",
    "streets.blockimport",
    "obdemo.migrations",
    "db.migrations.0027_add_field_lookup_featured__add_unique_lookup_schema_field_name",
    "general.seeclickfix",
    "ebpub.ebpub.openblockapi.urls",
    "ebpub.db.bin.export_schema",
    "moderation.urls",
    "ebdata.ebdata.blobs.migrations",
    "obadmin.admin.views",
    "parser.states",
    "scrapers.general.seeclickfix.seeclickfix_retrieval",
    "ebpub.savedplaces.migrations.0003_populate_block_center",
    "savedplaces",
    "ebpub.streets.migrations.0003_refactor_misspellings",
    "ebdata.blobs.models",
    "ebpub.ebpub.db.bin.import_hoods",
    "bin.make_bootstrap",
    "ebpub.accounts.admin",
    "ebpub.ebpub.db.breadcrumbs",
    "ebdata.blobs.create_seeds",
    "openblockapi.apikey.migrations.0001_initial",
    "savedplaces.views",
    "db.migrations.0015_auto__add_field_schema_map_icon_url__add_field_schema_map_color",
    "ebpub.accounts.management.commands",
    "ebpub.ebpub.metros.allmetros",
    "ebpub.db.utils",
    "ebpub.ebpub.alerts.migrations.0001_initial",
    "middleware",
    "0006_disable_broken_schemas",
    "ebpub.db.templatetags.eb_json",
    "us",
    "ebdata.ebdata.parsing.unicodecsv",
    "ebpub.streets.blockimport.base",
    "ebpub.accounts.constants",
    "ebpub.db.migrations.0002_initial_statistics",
    "ebpub.ebpub.geocoder.parser.tests",
    "streets.blockimport.esri.management",
    "obdemo.management.commands.import_boston_zips",
    "ebpub.ebpub.utils.dates",
    "dateutils",
    "geocoder.tests",
    "accounts.utils",
    "ebpub.ebpub.neighbornews.models",
    "parser",
    "ebpub.ebpub.openblockapi.tests",
    "geotagging",
    "nlp.tests",
    "moderation.migrations.0001_initial",
    "utils.testing",
    "migrations.0004_auto__del_field_emailalert_block",
    "accounts.context_processors",
    "alerts.views",
    "migrations.0004_chartable_categories",
    "streets.bin.fix_block_numbers",
    "alerts",
    "excel",
    "ebpub.accounts.urls",
    "pdftotext",
    "esri.importers.blocks",
    "ebpub.preferences.views",
    "obadmin.project_templates.openblock.+project+",
    "ebpub.ebpub.preferences.views",
    "0002_initial_statistics",
    "ebpub.ebpub.monkeypatches",
    "0003_auto__add_pinneditem",
    "obadmin.obadmin.admin.sites",
    "models",
    "ebpub.savedplaces.migrations.0002_auto__add_field_savedplace_block_center",
    "textmining",
    "widgets.models",
    "ebpub.ebpub.db.admin",
    "ebpub.ebpub.utils.geodjango",
    "us.ma.boston.events.retrieval",
    "ebpub.ebpub.db.migrations.0012__undo_0011",
    "migrations.0012__undo_0011",
    "richmaps.models",
    "scrapers.us.ma.boston.restaurants.retrieval",
    "general.seeclickfix.seeclickfix_retrieval",
    "db.templatetags.mapping",
    "db.utils",
    "ebpub.db.feeds",
    "geocoder.reverse",
    "ebpub.db.migrations.0001_initial",
    "migrations.0011_add_police_precinct",
    "ebpub.ebpub.db.migrations.0018_add_newsitem_last_modification",
    "ebpub.streets.blockimport.esri.importers.blocks",
    "ebpub.ebpub.openblockapi.apikey.urls",
    "add_events",
    "obdemo.obdemo.settings_background",
    "0011_fix_missing_suffixes",
    "bin.export_schema",
    "preferences.migrations",
    "ebdata.ebdata.scrapers.general.georss.retrieval",
    "streets.migrations.0008_auto__add_field_place_url",
    "ebpub.neighbornews.migrations",
    "obdemo.obdemo.migrations.0011_add_police_precinct",
    "ebpub.ebpub.accounts.management.commands.createsuperuser",
    "ebdata.templatemaker.tests.htmlutils",
    "scrapers.us",
    "ebpub.metros.models",
    "ebdata.templatemaker.tests.run_all",
    "obdemo.obdemo.migrations.0010_tweak_restaurants",
    "openblockapi.apikey.signals",
    "django_testcase_backports",
    "tests.parser",
    "commands.import_boston_meetups",
    "migrations.0005_auto__add_field_profile_properties",
    "preferences.migrations.0003_populate_profiles",
    "update_feeds",
    "misc.bin",
    "accounts.migrations.0001_initial",
    "admin.tasks",
    "ebpub.widgets.urls",
    "ebdata.scrapers",
    "import_boston_meetups",
    "parser.parsing",
    "ebpub.ebpub.widgets.models",
    "ebpub.ebpub.db.context_processors",
    "ebpub.ebpub.db.migrations.0007_load_default_schemas",
    "tests.webmining",
    "parser.models",
    "obdemo.migrations.0002_noop",
    "ebdata.ebdata.retrieval.scrapers.newsitem_list_detail",
    "ebpub.db.admin",
    "geocoder.parser.tests",
    "ebpub.alerts.migrations.0003_populate_block_center",
    "blobs.manual",
    "ebpub.neighbornews.utils",
    "0009_auto__del_field_placetype_map_icon",
    "obadmin.obadmin.admin",
    "petitions",
    "obdemo.obdemo.manage",
    "ebpub.streets.bin.delete_blocks_outside_city",
    "0002_auto__add_field_emailalert_block_center",
    "ebdata.ebdata.scrapers",
    "obdemo.obdemo.scrapers.add_events",
    "openblockapi.apikey.auth",
    "scrapers",
    "ebpub.utils.logutils",
    "obadmin.project_templates.openblock.+project+.models",
    "blockimport.esri.management.commands",
    "db.migrations.0004_st_intersects_patch",
    "ebpub.richmaps.views",
    "ebpub.ebpub.openblockapi.views",
    "ebdata.ebdata.geotagger",
    "events.retrieval",
    "ebdata.ebdata.blobs.geotagging",
    "ebdata.ebdata.blobs.create_seeds",
    "ebpub.streets.bin.update_block_pretty_names",
    "ebpub.alerts.migrations.0002_auto__add_field_emailalert_block_center",
    "obadmin.obadmin.project_templates.openblock.+project+.urls",
    "ebpub.openblockapi.apikey",
    "delete_newsitems",
    "obadmin.admin.forms",
    "ebpub.db.bin.update_aggregates",
    "ebdata.ebdata.templatemaker.htmlutils",
    "db.migrations.0005_newsitem_location_trigger",
    "ebdata.ebdata.scrapers.us.ma.boston.events",
    "scrapers.us.ma.boston.building_permits",
    "ebpub.geocoder.parser.tests",
    "ebpub.geocoder.tests.geocoder",
    "ebpub.ebpub.streets.migrations.0010_auto__add_field_placetype_map_icon_url__add_field_placetype_map_color",
    "ebpub.utils.models",
    "project_templates.openblock.+project+.manage",
    "datelines",
    "accounts.management.commands",
    "richmaps.views",
    "ebpub.preferences.migrations.0001_initial",
    "templatetags.eb",
    "obdemo.manage",
    "ebpub.db.models",
    "ebpub.utils.mapmath",
    "ebdata.ebdata.nlp.addresses",
    "template",
    "obadmin.obadmin.project_templates.openblock.+project+.manage",
    "flickr_retrieval",
    "ebpub.ebpub.metros.tests",
    "db.migrations.0017_del_location_centroid",
    "migrations.0005_auto__add_placetype",
    "tests.clean",
    "test_urls",
    "ebdata.textmining.models",
    "migrations.0010_auto__add_field_placetype_map_icon_url__add_field_placetype_map_color",
    "ebdata.scrapers.us.ma.boston.businesses.retrieval",
    "georss",
    "streets.blockimport.tiger.import_blocks",
    "esri.management.commands",
    "ebdata.scrapers.us.ma.boston.events",
    "seeclickfix_retrieval",
    "geocoder.parser.parsing",
    "sending",
    "ebpub.ebpub.db.templatetags.full_links",
    "metros.loader",
    "textmining.tests.treeutils",
    "ebpub.neighbornews.migrations.0001_initial",
    "ebpub.ebpub.db.migrations.0008_bigger_attributes",
    "test_models",
    "ebdata.ebdata.blobs.manual",
    "obdemo.management",
    "bin.export_newsitems",
    "0002_noop",
    "breadcrumbs",
    "ebpub.ebpub.utils.image_utils",
    "ebpub.ebpub.utils.testing",
    "ebpub.ebpub.metros.test_urls",
    "db.migrations.0024_auto__add_field_schema_allow_flagging",
    "richmaps.urls",
    "tasks",
    "addresses",
    "ebdata.retrieval.retrievers",
    "update_aggregates",
    "nlp.models",
    "commands.import_boston_news",
    "ebpub.ebpub.geocoder.parser.states",
    "ebpub.ebpub.moderation.views",
    "migrations.0002_noop",
    "obdemo.obdemo.management.commands.import_boston_hoods",
    "bin.random_news",
    "metros",
    "ebpub.db.bin.import_locations",
    "ebpub.ebpub.alerts.migrations",
    "ebpub.savedplaces.models",
    "ebpub.neighbornews.views",
    "nlp.places",
    "accounts.urls",
    "neighbornews.migrations",
    "alerts.migrations.0003_populate_block_center",
    "migrations.0008_bigger_attributes",
    "streets.migrations",
    "ebdata.textmining",
    "obadmin",
    "savedplaces.migrations",
    "general.meetup",
    "+project+.urls",
    "ebpub.ebpub.streets.blockimport.esri.management.commands",
    "ebpub.ebpub.db.feeds",
    "0024_auto__add_field_schema_allow_flagging",
    "ebpub.streets.migrations.0001_initial",
    "us.ma.boston.restaurants.retrieval",
    "general.spreadsheet.tests",
    "ebpub.ebpub.db.migrations.0023_auto__add_newsitemimage",
    "ebpub.ebpub.openblockapi.apikey.auth",
    "ebpub.ebpub.db.management.commands.show_urls",
    "streets.migrations.0002_add_place_misspellings",
    "ebpub.ebpub.neighbornews",
    "streets.models",
    "eb_filter",
    "templatemaker.tests.textlist",
    "ebpub.streets.migrations",
    "ebpub.ebpub.streets.blockimport.esri.importers.zipcodes",
    "blockimport.base",
    "ebpub.streets.blockimport.tiger",
    "ebpub.ebpub.db.management.commands",
    "ebpub.ebpub.streets.migrations.0005_auto__add_placetype",
    "migrations.0009_add_map_icons",
    "ebpub.utils",
    "accounts.callbacks",
    "tests.tests",
    "ebdata.templatemaker.tests.webmining",
    "ebpub.db.migrations.0024_auto__add_field_schema_allow_flagging",
    "us.ma.boston.businesses",
    "blockimport.esri",
    "ebpub.ebpub.db.templatetags.eb_json",
    "bin.delete_blocks_outside_city",
    "scrapers.add_events",
    "ebpub.accounts.callbacks",
    "ebdata.templatemaker.listdiff",
    "tests.test_views",
    "ebpub.ebpub.moderation.migrations.0001_initial",
    "ebdata.parsing.mdb",
    "ebpub.alerts.sending",
    "ebpub.ebpub.neighbornews.utils",
    "migrations.0007_add_meetup_and_neighbornews",
    "ebpub.utils.image_utils",
    "ebpub.db.constants",
    "ebpub.ebpub.utils.uploadhandler",
    "ebpub.ebpub.geocoder.parser.models",
    "testrunner",
    "ebdata.blobs",
    "callbacks",
    "petitions.models",
    "test_schemafilters",
    "ebpub.ebpub.db.migrations.0009_add_real_slug_to_schemafield",
    "ebpub.db.templatetags.raw",
    "db.tests.test_templatetags",
    "moderation.migrations",
    "db.bin.import_zips",
    "richmaps.tests",
    "templatetags.recaptcha_tags",
    "blocks",
    "ebdata.blobs.migrations.0001_initial",
    "utils.mapmath",
    "utils.geodjango",
    "ebpub.widgets.migrations.0003_auto__add_pinneditem",
    "management.commands.import_boston_blocks",
    "templatetags.dateutils",
    "openblockapi.apikey.views",
    "geotagger.models",
    "scrapers.us.ma.boston.events",
    "obdemo.migrations.0010_tweak_restaurants",
    "ebpub.utils.geodjango",
    "ebpub.db.urlresolvers",
    "0006_add_location_synonym",
    "ebpub.ebpub.streets.bin.populate_streets",
    "templatemaker.tests.htmlutils",
    "urlresolvers",
    "ebpub.ebpub.geocoder",
    "retrieval.updaterdaemon.config",
    "import_boston_restaurants",
    "ebdata.ebdata.templatemaker.tests.listdiffc",
    "ebpub.ebpub.savedplaces.migrations.0003_populate_block_center",
    "ebpub.ebpub.preferences.models",
    "obdemo.obdemo.migrations.0006_disable_broken_schemas",
    "tests.test_utils",
    "ebpub.geocoder.parser.suffixes",
    "petitions.migrations.0001_initial",
    "ma.boston.building_permits",
    "templatetags.eb_filter",
    "ebpub.ebpub.accounts.forms",
    "ebpub.geocoder.parser.numbered_streets",
    "streets.name_utils",
    "general.flickr.flickr_retrieval",
    "ebpub.ebpub.streets.migrations.0004_fix_block_numbers",
    "metros.urls",
    "ebpub.savedplaces.migrations.0004_auto__del_field_savedplace_block",
    "bunch",
    "general.georss.retrieval",
    "migrations.0006_initial_place_types",
    "ebdata.templatemaker.tests.clean",
    "ebpub.metros.migrations.0001_initial",
    "ebpub.ebpub.utils.django_testcase_backports",
    "importesri",
    "ebpub.ebpub.widgets",
    "petitions.views",
    "forms",
    "ebpub.metros.allmetros",
    "ebpub.ebpub.db.constants",
    "templatemaker.htmlutils",
    "migrations.0013__undo_0010",
    "ebpub.ebpub.petitions.models",
    "migrations.0007_auto__add_field_place_place_type",
    "ebpub.preferences.migrations.0005_auto__add_field_profile_properties",
    "ebpub.ebpub.geocoder.models",
    "ebpub.ebpub.metros.urls",
    "geocoder.parser.suffixes",
    "views",
    "police_reports.retrieval",
    "ebpub.geocoder.migrations.0001_initial",
    "ebdata.scrapers.us.ma.boston",
    "scrapers.us.ma.boston.police_reports.retrieval",
    "db.views",
    "ebdata.ebdata.scrapers.us.ma",
    "ebdata.ebdata.blobs.models",
    "ebpub.streets.blockimport",
    "templatemaker.tests.sst",
    "ebpub.utils.django_testcase_backports",
    "ebpub.ebpub.streets.blockimport.esri.management.commands.importesri",
    "ebpub.db.migrations.0025_auto__add_more_indexes",
    "retrieval.updaterdaemon.runner",
    "scrapers.us.ma.boston.building_permits.retrieval",
    "ebpub.ebpub.streets.migrations.0007_auto__add_field_place_place_type",
    "ebpub.ebpub.db.fields",
    "ebpub.metros.views",
    "ebpub.ebpub.db.migrations.0003_attribute_indices",
    "ebpub.ebpub.db.templatetags.raw",
    "import_blocks",
    "ebdata.ebdata.templatemaker.tests.template",
    "accounts",
    "ebpub.ebpub.neighbornews.migrations.0001_initial",
    "db.migrations.0008_bigger_attributes",
    "suffixes",
    "db.migrations.0029_auto__del_fields_schema__intro__grab_bag__grab_bag_headline",
    "ebpub.openblockapi.throttle",
    "import_boston_hoods",
    "tests.test_datelines",
    "ebpub.ebpub.savedplaces.views",
    "eb",
    "ebpub.alerts.models",
    "obadmin.project_templates.openblock.+project+.manage",
    "ebpub.geocoder.models",
    "ebpub.ebpub.petitions",
    "widgets.views",
    "log_debug",
    "numbered_streets",
    "ebpub.db.bin.alphabetize_locations",
    "blockimport.esri.importers",
    "0025_auto__add_more_indexes",
    "0020_auto__add_field_schema_is_event",
    "ebpub.db.bin.import_hoods",
    "ebdata.ebdata.geotagger.models",
    "ebpub.db.tests.test_models",
    "metros.views",
    "openblockapi.apikey",
    "ebdata.nlp.models",
    "ebpub.ebpub.db.migrations",
    "ebpub.ebpub.streets.utils",
    "0002_add_is_event",
    "ebpub.geocoder.parser.parsing",
    "ebdata.ebdata.scrapers.us.ma.boston.restaurants",
    "ebpub.ebpub.alerts.admin",
    "ebpub.petitions.migrations.0001_initial",
    "0012_add_prefix_to_block_and_intersection",
    "ebpub.db.migrations.0021_auto__add_unique_lookup_code_schema_field",
    "ebdata.nlp.tests.test_datelines",
    "ebpub.ebpub.db.schemafilters",
    "ebdata.ebdata.templatemaker.listdiff",
    "ebpub.db.migrations.0013__undo_0010",
    "ebpub.moderation.admin",
    "ebpub.preferences.migrations",
    "obdemo.migrations.0008_make_events_eventish",
    "0023_auto__add_newsitemimage",
    "us.ma.boston.building_permits.retrieval",
    "db.templatetags.raw",
    "ebpub.db.bin.add_location",
    "ebdata.templatemaker.tests.hole",
    "obdemo.scrapers.add_events",
    "migrations.0005_newsitem_location_trigger",
    "retrieval.scrapers.base",
    "ebpub.ebpub.db.bin.alphabetize_locations",
    "ebpub.ebpub.streets.bin",
    "ebpub.ebpub.db.tests.test_templatetags",
    "ebpub.openblockapi.apikey.migrations",
    "ebpub.ebpub.savedplaces.migrations.0002_auto__add_field_savedplace_block_center",
    "streets.migrations.0012_add_prefix_to_block_and_intersection",
    "moderation.models",
    "management.commands.import_boston_zips",
    "accounts.constants",
    "ebpub.ebpub.metros",
    "misc.bin.random_news",
    "ebpub.ebpub.streets.migrations.0012_add_prefix_to_block_and_intersection",
    "obdemo",
    "db.migrations.0010_populate_schemafield_slugs",
    "ebdata.ebdata.scrapers.us.ma.boston.businesses.retrieval",
    "boston.police_reports",
    "ebpub.db.migrations.0020_auto__add_field_schema_is_event",
    "db.migrations.0020_auto__add_field_schema_is_event",
    "run_all",
    "streets.migrations.0007_auto__add_field_place_place_type",
    "ebpub.accounts.context_processors",
    "nlp.tests.tests",
    "bin.alphabetize_locations",
    "management",
    "db.management.commands",
    "ebpub.richmaps.tests",
    "ebpub.openblockapi.apikey.models",
    "ebdata.ebdata.templatemaker.tests.listdiff",
    "boston.restaurants",
    "0004_auto__add_field_profile_max_keys",
    "ebpub.ebpub.metros.models",
    "widgets",
    "ebdata.ebdata.scrapers.general.flickr",
    "0010_tweak_restaurants",
    "ebpub.neighbornews.urls",
    "ebdata.ebdata.templatemaker.tests.hole",
    "ma.boston",
    "scrapers.general.open311",
    "ebpub.db.migrations.0007_load_default_schemas",
    "bin.populate_suburbs",
    "obdemo.obdemo.scrapers.add_news",
    "streets.blockimport.esri.importers.zipcodes",
    "db.bin.import_locations",
    "migrations.0006_disable_broken_schemas",
    "ebdata.textmining.treeutils",
    "ebpub.ebpub.savedplaces.migrations",
    "0010_populate_schemafield_slugs",
    "us.ma",
    "obdemo.management.commands",
    "textmining.models",
    "bin.import_zips",
    "misc.examples",
    "templatemaker",
    "ebpub.ebpub.streets.blockimport.esri.importers.blocks",
    "general.flickr",
    "obdemo.obdemo",
    "ebdata.templatemaker.tests.template",
    "ebpub.ebpub.geoadmin",
    "ebdata.retrieval.updaterdaemon.runner",
    "openblockapi.models",
    "building_permits",
    "ebdata.retrieval.utils",
    "ebdata.retrieval.scrapers.list_detail",
    "logutils",
    "obadmin.admin.urls",
    "ebpub.ebpub.db.migrations.0024_auto__add_field_schema_allow_flagging",
    "0004_fix_block_numbers",
    "tests.htmlutils",
    "db.migrations.0014__undo_0009",
    "full_links",
    "geotagger.urls",
    "ebdata.retrieval.models",
    "us.ma.boston.building_permits",
    "ebpub.ebpub.db.management",
    "ebpub.accounts.utils",
    "db.constants",
    "0011_add_police_precinct",
    "ebpub.metros.urls",
    "ebdata.ebdata.retrieval.scrapers.base",
    "migrations.0025_auto__add_more_indexes",
    "ebdata.ebdata.retrieval",
    "updaterdaemon",
    "image_utils",
    "obadmin.project_templates.openblock",
    "ebdata.ebdata.templatemaker.tests.textlist",
    "widgets.urls",
    "ebpub.ebpub.utils.text",
    "obadmin.admin.tests",
    "boston.events",
    "ebpub.ebpub.db.bin.add_location",
    "ebdata.ebdata.templatemaker.tests.htmlutils",
    "ebdata.scrapers.us.ma",
    "obadmin.pavement",
    "ebpub.ebpub.moderation",
    "ebdata.retrieval.scrapers",
    "ebpub.preferences.models",
    "templatemaker.brain",
    "+project+.manage",
    "ebpub.db.tests.test_templatetags",
    "geocoder.migrations.0001_initial",
    "ebpub.petitions.models",
    "ebpub.ebpub.db.migrations.0002_initial_statistics",
    "0021_auto__add_unique_lookup_code_schema_field",
    "templatetags",
    "ebdata.blobs.update_feeds",
    "uploadhandler",
    "ebdata.ebdata.blobs.scrapers",
    "test_datelines",
    "geocoder.parser.models",
    "migrations.0028_auto__add_unique_schemafield_name_schema__add_field_schema_edit_window",
    "ebpub.db.tests.test_schemafilters",
    "obdemo.obdemo.migrations",
    "ebpub.accounts.migrations",
    "parser.cities",
    "petitions.migrations",
    "db.migrations.0003_attribute_indices",
    "nlp",
    "ebpub.db.tests",
    "retrieval.retrievers",
    "blockimport.tiger",
    "ebdata.scrapers.us",
    "text",
    "ebpub.preferences",
    "dbf",
    "streets.bin.populate_streets",
    "ebpub.streets.migrations.0010_auto__add_field_placetype_map_icon_url__add_field_placetype_map_color",
    "ebdata.ebdata.retrieval.scrapers.list_detail",
    "metros.migrations",
    "ebdata.utils",
    "project_templates.openblock.+project+",
    "ebpub.ebpub.accounts.middleware",
    "ebpub.ebpub.db.templatetags.eb",
    "accounts.forms",
    "nlp.datelines",
    "geocoder.parser.states",
    "ebpub.ebpub.accounts.management",
    "ebpub.ebpub.streets.blockimport",
    "neighbornews.utils",
    "parser.suffixes",
    "ebpub.ebpub.richmaps.views",
    "db.tests.test_utils",
    "db.models",
    "ma.boston.building_permits.retrieval",
    "ebpub.alerts.views",
    "geocoder.parser.prefixes",
    "ebpub.db.bin.activate_schema",
    "0016_use_slug_fields_for_slugs",
    "sst",
    "ebpub.ebpub.db.migrations.0004_st_intersects_patch",
    "scrapers.us.ma.boston.police_reports",
    "openblockapi.views",
    "ebpub.ebpub.savedplaces",
    "migrations.0029_auto__del_fields_schema__intro__grab_bag__grab_bag_headline",
    "streets.migrations.0006_initial_place_types",
    "ebpub.widgets",
    "ebpub.geocoder.parser",
    "brain",
    "us.ma.boston.police_reports.retrieval",
    "scrapers.general.spreadsheet.tests",
    "db.migrations.0012__undo_0011",
    "geocoder.parser.numbered_streets",
    "ebpub.ebpub.streets.blockimport.esri.management",
    "seeclickfix",
    "obadmin.obadmin.project_templates",
    "eb_json",
    "ebpub.ebpub.streets.blockimport.base",
    "management.commands",
    "blockimport.tiger.import_blocks",
    "ebpub.ebpub.db.tests",
    "ebpub.utils.view_utils",
    "tests.template",
    "ebpub.ebpub.geocoder.tests.geocoder",
    "ebpub.ebpub.neighbornews.migrations",
    "0029_auto__del_fields_schema__intro__grab_bag__grab_bag_headline",
    "ebdata.templatemaker.tests.listdiffc",
    "ebdata.scrapers.us.ma.boston.police_reports",
    "openblockapi.throttle",
    "0009_add_map_icons",
    "ebpub.ebpub.neighbornews.tests",
    "parser.numbered_streets",
    "ebpub.ebpub.geocoder.parser.numbered_streets",
    "scrapers.tests",
    "savedplaces.migrations.0003_populate_block_center",
    "ebpub.ebpub.streets.migrations.0013_auto__add_field_street_prefix",
    "ebpub.db.migrations.0011_delete_schemafield_name",
    "migrations",
    "general.spreadsheet",
    "tests.hole",
    "ebpub.ebpub",
    "ebpub.streets.blockimport.esri.importers",
    "ebpub.db.bin.import_zips",
    "migrations.0004_load_more_schemas",
    "templatetags.full_links",
    "ebpub.ebpub.metros.views",
    "flickr",
    "migrations.0011_fix_missing_suffixes",
    "ebpub.ebpub.db.migrations.0027_add_field_lookup_featured__add_unique_lookup_schema_field_name",
    "widgets.migrations",
    "ebpub.metros.test_urls",
    "obdemo.views",
    "openblockapi.apikey.models",
    "migrations.0013_auto__add_field_street_prefix",
    "ebdata.ebdata.scrapers.general.georss",
    "ebdata.ebdata.templatemaker",
    "templatemaker.tests.webmining",
    "parser.prefixes",
    "ebpub.ebpub.openblockapi.apikey.views",
    "cities",
    "obdemo.migrations.0011_add_police_precinct",
    "commands",
    "streets.blockimport.esri.management.commands",
    "alerts.models",
    "admin",
    "0003_populate_block_center",
    "utils.script_utils",
    "ebdata.ebdata.blobs.migrations.0001_initial",
    "0005_newsitem_location_trigger",
    "ebdata.retrieval.updaterdaemon.config",
    "obdemo.obdemo.management.commands.import_boston_meetups",
    "ebpub.streets",
    "ebdata.ebdata.scrapers.general.spreadsheet",
    "export_newsitems",
    "0004_auto__del_field_savedplace_block",
    "ebdata.ebdata.templatemaker.clean",
    "businesses.retrieval",
    "ebdata.ebdata.templatemaker.brain",
    "ebpub.db.views",
    "ebdata.templatemaker.brain",
    "ebpub.ebpub.db.migrations.0029_auto__del_fields_schema__intro__grab_bag__grab_bag_headline",
    "accounts.migrations",
    "ebpub.geocoder.base",
    "tests.articletext",
    "scrapers.general.flickr.flickr_retrieval",
    "ebpub.geocoder.reverse",
    "nlp.tests.test_datelines",
    "0005_auto__add_placetype",
    "ebpub.ebpub.moderation.urls",
    "ebdata.utils.daemon",
    "ebpub.geocoder.tests",
    "crime_report_schema",
    "preferences.migrations.0002_auto__add_profile",
    "skel",
    "import_hoods",
    "ebpub.ebpub.utils.models",
    "ebpub.petitions.migrations",
    "obdemo.obdemo.migrations.0005_load_flickr_schema",
    "list_detail",
    "ebpub.ebpub.geocoder.base",
    "textmining.treeutils",
    "dates",
    "tiger",
    "open311.georeportv2",
    "ebpub.ebpub.db.migrations.0006_add_location_synonym",
    "ebpub.geocoder.parser.models",
    "ebpub.widgets.views",
    "geotagger.views",
    "ebpub.db.management.commands.show_urls",
    "ebpub.streets.bin",
    "blobs.geotagging",
    "ebpub.db.migrations.0015_auto__add_field_schema_map_icon_url__add_field_schema_map_color",
    "tests.test_schemafilters",
    "ebpub.ebpub.streets.admin",
    "docs",
    "ebpub.streets.migrations.0013_auto__add_field_street_prefix",
    "ebdata.ebdata.templatemaker.tests.articletext",
    "ebdata.nlp.places",
    "ebpub.db.tests.test_views",
    "migrations.0010_populate_schemafield_slugs",
    "geotagger.tests",
    "neighbornews.migrations.0003_allow_flagging",
    "streets.blockimport.base",
    "0003_attribute_indices",
    "ebdata.ebdata.templatemaker.tests.sst",
    "settings_background",
    "utils",
    "migrations.0003_allow_flagging",
    "retrieval.log",
    "ebpub.streets.tests",
    "ebdata.ebdata.nlp",
    "utils.dates",
    "0027_add_field_lookup_featured__add_unique_lookup_schema_field_name",
    "ebdata.ebdata.parsing",
    "ebpub.ebpub.openblockapi.apikey.migrations.0001_initial",
    "ebpub.settings_default",
    "ebpub.ebpub.streets.bin.update_block_pretty_names",
    "ebpub.ebpub.alerts.migrations.0002_auto__add_field_emailalert_block_center",
    "obadmin.admin.models",
    "0014__undo_0009",
    "ebpub.ebpub.utils",
    "ebpub.ebpub.neighbornews.forms",
    "db.migrations.0022_auto__del_field_newsitem_block",
    "ebpub.streets.migrations.0008_auto__add_field_place_url",
    "scrapers.general.open311.georeportv2",
    "events",
    "ebpub.accounts.migrations.0001_initial",
    "ebpub.db.fields",
    "obadmin.obadmin.admin.tasks",
    "migrations.0024_auto__add_field_schema_allow_flagging",
    "tests.treeutils",
    "ebpub.openblockapi.urls",
    "accounts.views",
    "utils.text",
    "auth",
    "bin.geocode_newsitems",
    "+project+.models",
    "ebpub.db.migrations.0008_bigger_attributes",
    "ebpub.ebpub.openblockapi.throttle",
    "bin.update_aggregates",
    "ebpub.db.migrations.0017_del_location_centroid",
    "templatemaker.tests.articletext",
    "commands.import_boston_restaurants",
    "bin.activate_schema",
    "ebdata.ebdata.scrapers.general.seeclickfix.seeclickfix_retrieval",
    "ebpub.db.migrations.0029_auto__del_fields_schema__intro__grab_bag__grab_bag_headline",
    "db.migrations.0019_auto__add_field_schema_allow_comments",
    "scrapers.general.meetup",
    "blobs.models",
    "ebdata.ebdata.scrapers.us.ma.boston.building_permits",
    "obdemo.obdemo.management.commands.import_boston_restaurants",
    "migrations.0003_load_demo_schemas",
    "ma.boston.police_reports.retrieval",
    "alerts.migrations.0004_auto__del_field_emailalert_block",
    "0003_load_demo_schemas",
    "+project+",
    "scrapers.general",
    "geocoder.base",
    "parsing.dbf",
    "scrapers.us.ma.boston",
    "ebpub.db.bin.geocode_newsitems",
    "obdemo.management.commands.import_boston_restaurants",
    "ebpub.streets.migrations.0009_auto__del_field_placetype_map_icon",
    "moderation.forms",
    "ebpub.ebpub.db.migrations.0016_use_slug_fields_for_slugs",
    "obadmin.testrunner",
    "obdemo.obdemo.migrations.0009_add_map_icons",
    "ebpub.ebpub.widgets.migrations.0001_initial",
    "tests.test_templatetags",
    "commands.import_boston_hoods",
    "ebpub.ebpub.db.models",
    "ebpub.petitions.views",
    "ebdata.ebdata.templatemaker.models",
    "ebpub.ebpub.db.migrations.0011_delete_schemafield_name",
    "neighbornews.urls",
    "ebpub.ebpub.db.tests.test_views",
    "ebpub.streets.blockimport.esri.management.commands.importesri",
    "ebdata.ebdata.blobs",
    "general.georss",
    "ebpub.accounts.middleware",
    "ebpub.bin.export_newsitems",
    "ebpub.db.migrations.0018_add_newsitem_last_modification",
    "streets.migrations.0004_fix_block_numbers",
    "ebdata.ebdata.scrapers.us.ma.boston.businesses",
    "ebpub.ebpub.preferences",
    "ebpub.neighbornews.tests",
    "tests",
    "db.bin.delete_newsitems",
    "apikey.auth",
    "ebpub.utils.text",
    "ebpub.db.templatetags.dateutils",
    "0008_make_events_eventish",
    "ebdata.scrapers.general.georss.retrieval",
    "ebpub.richmaps",
    "esri.management.commands.importesri",
    "templatemaker.tests.brain",
    "templatemaker.textlist",
    "obdemo.migrations.0004_load_more_schemas",
    "spreadsheet.retrieval",
    "migrations.0015_auto__add_field_schema_map_icon_url__add_field_schema_map_color",
    "ebpub.ebpub.streets.migrations.0009_auto__del_field_placetype_map_icon",
    "scrapers.us.ma.boston.businesses.retrieval",
    "utils.django_testcase_backports",
    "db.bin.update_aggregates",
    "ebpub.ebpub.db.utils",
    "ebdata.ebdata.scrapers.general.open311.georeportv2",
    "scrapers.add_news",
    "openblockapi.tests",
    "obadmin.skel",
    "ebdata.scrapers.us.ma.boston.building_permits.retrieval",
    "ebpub.ebpub.db.migrations.0021_auto__add_unique_lookup_code_schema_field",
    "ebdata.templatemaker.hole",
    "obadmin.obadmin.admin.models",
    "ebdata.ebdata.geotagger.views",
    "meetup_retrieval",
    "migrations.0004_st_intersects_patch",
    "ebdata.templatemaker.webmining",
    "geocoder.parser",
    "management.commands.show_urls",
    "obadmin.admin.sites",
    "obdemo.obdemo.migrations.0003_load_demo_schemas",
    "ebpub.moderation.views",
    "blockimport.esri.importers.zipcodes",
    "ebpub.db.forms",
    "ebpub.ebpub.utils.logutils",
    "obdemo.migrations.0003_load_demo_schemas",
    "ebpub.moderation.models",
    "apikey.models",
    "ebpub.streets.migrations.0012_add_prefix_to_block_and_intersection",
    "importers.blocks",
    "0004_st_intersects_patch",
    "ebpub.openblockapi.apikey.views",
    "ebpub.neighbornews",
    "ebpub.ebpub.db",
    "ebpub.streets.name_utils",
    "openblockapi.apikey.migrations",
    "ebpub.ebpub.preferences.migrations",
    "ebpub.neighbornews.migrations.0004_chartable_categories",
    "db.migrations.0023_auto__add_newsitemimage",
    "ebpub.ebpub.utils.tests",
    "ebdata.ebdata.retrieval.retrievers",
    "obdemo.migrations.0009_add_map_icons",
    "obdemo.models",
    "ebdata.ebdata.scrapers.us.ma.boston.police_reports.retrieval",
    "listdiffc",
    "general.meetup.meetup_retrieval",
    "db.tests.test_views",
    "obdemo.obdemo.management.commands.import_boston_blocks",
    "feeds",
    "ebpub.utils.testing",
    "db.bin.geocode_newsitems",
    "tests.sst",
    "streets.blockimport.esri.management.commands.importesri",
    "retrieval.scrapers.tests",
    "admin.views",
    "admin.tests",
    "ebpub.ebpub.db.migrations.0013__undo_0010",
    "ebpub.ebpub.metros.loader",
    "ebpub.ebpub.preferences.migrations.0001_initial",
    "recaptcha_tags",
    "utils.image_utils",
    "apikey.migrations",
    "scrapers.general.seeclickfix",
    "0001_initial",
    "migrations.0003_auto__add_pinneditem",
    "obdemo.obdemo.scrapers",
    "retrieval.utils",
    "templatemaker.tests.hole",
    "misc.examples.crime_report_schema",
    "random_news",
    "boston.building_permits",
    "neighbornews.models",
    "0008_bigger_attributes",
    "bin.add_location",
    "ebpub.db.templatetags.recaptcha_tags",
    "neighbornews.tests",
    "migrations.0021_auto__add_unique_lookup_code_schema_field",
    "ma.boston.police_reports",
    "db.bin.import_hoods",
    "obdemo.obdemo.urls",
    "migrations.0002_add_is_event",
    "log",
    "obadmin.obadmin.admin.urls",
    "ebpub.utils.tests",
    "import_boston_blocks",
    "db.migrations",
    "alphabetize_locations",
    "streets.blockimport.esri.importers",
    "ebpub.ebpub.savedplaces.models",
    "db.templatetags",
    "streets.bin.delete_blocks_outside_city",
    "ebpub.accounts.management",
    "widgets.tests",
    "ebpub.streets.migrations.0004_fix_block_numbers",
    "ebpub",
    "migrations.0009_auto__del_field_placetype_map_icon",
    "ebpub.preferences.migrations.0002_auto__add_profile",
    "obdemo.obdemo.migrations.0001_initial",
    "ebpub.streets.blockimport.esri.management.commands",
    "openblockapi",
    "alerts.migrations.0001_initial",
    "ebpub.richmaps.urls",
    "obdemo.obdemo.management.commands.import_boston_zips",
    "ebdata.scrapers.general.seeclickfix",
    "ebpub.ebpub.db.migrations.0017_del_location_centroid",
    "ebpub.metros.tests",
    "ebpub.ebpub.db.templatetags.mapping",
    "ebpub.ebpub.utils.bunch",
    "ebdata.nlp.addresses",
    "blockimport.esri.importers.blocks",
    "places",
    "db.urlresolvers",
    "ebpub.accounts.models",
    "georss.retrieval",
    "ebpub.ebpub.geocoder.parser.suffixes",
    "ebdata.ebdata.scrapers.us.ma.boston.police_reports",
    "templatetags.raw",
    "ebpub.metros",
    "ebpub.widgets.migrations.0001_initial",
    "ebpub.neighbornews.migrations.0003_allow_flagging",
    "obadmin.obadmin.admin.tests",
    "general",
    "obdemo.obdemo.migrations.0004_load_more_schemas",
    "ebpub.ebpub.accounts.utils",
    "ebpub.ebpub.richmaps.urls",
    "db.migrations.0011_delete_schemafield_name",
    "ebdata.templatemaker.articletext",
    "ebpub.openblockapi.views",
    "db.migrations.0016_use_slug_fields_for_slugs",
    "ebdata.ebdata.textmining.tests.treeutils",
    "ebpub.ebpub.accounts.context_processors",
    "preferences.migrations.0001_initial",
    "ebpub.moderation.migrations.0001_initial",
    "utils.uploadhandler",
    "streets.admin",
    "bin.update_block_pretty_names",
    "ebpub.ebpub.db.bin.geocode_newsitems",
    "migrations.0023_auto__add_newsitemimage",
    "blockimport.esri.management",
    "obadmin.obadmin.project_templates.openblock.+project+.models",
    "update_block_pretty_names",
    "ebpub.ebpub.petitions.views",
    "bin.import_locations",
    "ebpub.ebpub.alerts",
    "db.bin.add_location",
    "obdemo.urls",
    "ebpub.ebpub.openblockapi.apikey.migrations",
    "ebdata.ebdata.parsing.pdftotext",
    "add_location",
    "migrations.0017_del_location_centroid",
    "ebdata.scrapers.us.ma.boston.events.retrieval",
    "ebpub.ebpub.geocoder.parser.parsing",
    "ebdata.parsing",
    "ebdata.scrapers.general.georss",
    "listdiff",
    "ebdata.ebdata.retrieval.models",
    "ebpub.neighbornews.admin",
    "ebpub.geoadmin",
    "0013_auto__add_field_street_prefix",
    "streets.migrations.0013_auto__add_field_street_prefix",
    "migrations.0006_add_location_synonym",
    "project_templates",
    "retrieval.log_debug",
    "ebpub.ebpub.moderation.migrations",
    "ebdata.ebdata.retrieval.updaterdaemon.config",
    "ebdata.scrapers.general.flickr.flickr_retrieval",
    "0002_auto__del_field_widget_extra_link_parameters__add_field_widget_item_li",
    "ebpub.ebpub.utils.multidb",
    "openblockapi.apikey.admin",
    "blobs.auto_purge",
    "db.templatetags.full_links",
    "textlist",
    "streets.migrations.0001_initial",
    "scrapers.general.flickr"
]