[
    "flaskbb.utils",
    "wsgi",
    "fixtures.user",
    "app",
    "manage",
    "flaskbb.extensions",
    "auth.forms",
    "admin.forms",
    "fixtures",
    "tests.fixtures",
    "configs",
    "unit",
    "unit.utils.test_populate",
    "forms",
    "tests.conftest",
    "utils.permissions",
    "utils.test_permissions",
    "user.models",
    "flaskbb.auth.views",
    "migrations.versions.1862dd9f586c_init",
    "forum.forms",
    "forum.views",
    "flaskbb.forum",
    "unit.utils.test_permissions",
    "widgets",
    "unit.test_forum_models",
    "tests",
    "utils.test_populate",
    "user.forms",
    "env",
    "views",
    "tests.unit.utils",
    "docs",
    "flaskbb",
    "flaskbb.auth",
    "flaskbb.forum.models",
    "auth",
    "flaskbb.forum.forms",
    "configs.default",
    "flaskbb.configs.default",
    "flaskbb.utils.populate",
    "flaskbb.utils.permissions",
    "docs.conf",
    "permissions",
    "tests.fixtures.forum",
    "unit.utils",
    "versions",
    "default",
    "flaskbb.utils.helpers",
    "flaskbb.forum.views",
    "utils.widgets",
    "unit.utils.test_helpers",
    "flaskbb.admin.forms",
    "flaskbb.configs.testing",
    "email",
    "forum.models",
    "flaskbb.admin.views",
    "utils",
    "testing",
    "test_permissions",
    "test_populate",
    "migrations.env",
    "flaskbb.user",
    "flaskbb.configs",
    "conf",
    "plugins",
    "flaskbb.utils.decorators",
    "tests.unit.utils.test_permissions",
    "test_helpers",
    "flaskbb.plugins.portal.views",
    "plugins.portal.views",
    "user.views",
    "tests.unit.utils.test_populate",
    "flaskbb.email",
    "utils.test_helpers",
    "tests.fixtures.user",
    "admin.views",
    "auth.views",
    "extensions",
    "flaskbb.auth.forms",
    "decorators",
    "migrations",
    "flaskbb.user.models",
    "flaskbb.utils.widgets",
    "flaskbb.user.forms",
    "populate",
    "models",
    "tests.unit.test_forum_models",
    "fixtures.forum",
    "tests.unit",
    "portal",
    "versions.1862dd9f586c_init",
    "portal.views",
    "flaskbb.user.views",
    "configs.testing",
    "fixtures.app",
    "test_forum_models",
    "flaskbb.plugins.portal",
    "flaskbb.app",
    "utils.populate",
    "1862dd9f586c_init",
    "forum",
    "admin",
    "plugins.portal",
    "tests.fixtures.app",
    "utils.decorators",
    "conftest",
    "flaskbb.admin",
    "helpers",
    "utils.helpers",
    "tests.unit.utils.test_helpers",
    "migrations.versions",
    "flaskbb.plugins",
    "user"
]