{
    "archive_url": "https://api.github.com/repos/LiuLang/bcloud/{archive_format}{/ref}",
    "assignees_url": "https://api.github.com/repos/LiuLang/bcloud/assignees{/user}",
    "blobs_url": "https://api.github.com/repos/LiuLang/bcloud/git/blobs{/sha}",
    "branches_url": "https://api.github.com/repos/LiuLang/bcloud/branches{/branch}",
    "clone_url": "https://github.com/LiuLang/bcloud.git",
    "collaborators_url": "https://api.github.com/repos/LiuLang/bcloud/collaborators{/collaborator}",
    "comments_url": "https://api.github.com/repos/LiuLang/bcloud/comments{/number}",
    "commits_url": "https://api.github.com/repos/LiuLang/bcloud/commits{/sha}",
    "compare_url": "https://api.github.com/repos/LiuLang/bcloud/compare/{base}...{head}",
    "contents_url": "https://api.github.com/repos/LiuLang/bcloud/contents/{+path}",
    "contributors_url": "https://api.github.com/repos/LiuLang/bcloud/contributors",
    "created_at": "2014-03-05T15:07:47Z",
    "default_branch": "master",
    "description": "\u767e\u5ea6\u7f51\u76d8\u7684linux\u684c\u9762\u5ba2\u6237\u7aef",
    "downloads_url": "https://api.github.com/repos/LiuLang/bcloud/downloads",
    "events_url": "https://api.github.com/repos/LiuLang/bcloud/events",
    "fork": false,
    "forks": 19,
    "forks_count": 19,
    "forks_url": "https://api.github.com/repos/LiuLang/bcloud/forks",
    "full_name": "LiuLang/bcloud",
    "git_commits_url": "https://api.github.com/repos/LiuLang/bcloud/git/commits{/sha}",
    "git_refs_url": "https://api.github.com/repos/LiuLang/bcloud/git/refs{/sha}",
    "git_tags_url": "https://api.github.com/repos/LiuLang/bcloud/git/tags{/sha}",
    "git_url": "git://github.com/LiuLang/bcloud.git",
    "has_downloads": true,
    "has_issues": true,
    "has_wiki": true,
    "homepage": "",
    "hooks_url": "https://api.github.com/repos/LiuLang/bcloud/hooks",
    "html_url": "https://github.com/LiuLang/bcloud",
    "id": 17444456,
    "issue_comment_url": "https://api.github.com/repos/LiuLang/bcloud/issues/comments/{number}",
    "issue_events_url": "https://api.github.com/repos/LiuLang/bcloud/issues/events{/number}",
    "issues_url": "https://api.github.com/repos/LiuLang/bcloud/issues{/number}",
    "keys_url": "https://api.github.com/repos/LiuLang/bcloud/keys{/key_id}",
    "labels_url": "https://api.github.com/repos/LiuLang/bcloud/labels{/name}",
    "language": "Python",
    "languages_url": "https://api.github.com/repos/LiuLang/bcloud/languages",
    "merges_url": "https://api.github.com/repos/LiuLang/bcloud/merges",
    "milestones_url": "https://api.github.com/repos/LiuLang/bcloud/milestones{/number}",
    "mirror_url": null,
    "name": "bcloud",
    "notifications_url": "https://api.github.com/repos/LiuLang/bcloud/notifications{?since,all,participating}",
    "open_issues": 9,
    "open_issues_count": 9,
    "owner": {
        "avatar_url": "https://avatars.githubusercontent.com/u/4401290?",
        "events_url": "https://api.github.com/users/LiuLang/events{/privacy}",
        "followers_url": "https://api.github.com/users/LiuLang/followers",
        "following_url": "https://api.github.com/users/LiuLang/following{/other_user}",
        "gists_url": "https://api.github.com/users/LiuLang/gists{/gist_id}",
        "gravatar_id": null,
        "html_url": "https://github.com/LiuLang",
        "id": 4401290,
        "login": "LiuLang",
        "organizations_url": "https://api.github.com/users/LiuLang/orgs",
        "received_events_url": "https://api.github.com/users/LiuLang/received_events",
        "repos_url": "https://api.github.com/users/LiuLang/repos",
        "site_admin": false,
        "starred_url": "https://api.github.com/users/LiuLang/starred{/owner}{/repo}",
        "subscriptions_url": "https://api.github.com/users/LiuLang/subscriptions",
        "type": "User",
        "url": "https://api.github.com/users/LiuLang"
    },
    "private": false,
    "pulls_url": "https://api.github.com/repos/LiuLang/bcloud/pulls{/number}",
    "pushed_at": "2014-05-06T06:34:13Z",
    "releases_url": "https://api.github.com/repos/LiuLang/bcloud/releases{/id}",
    "score": 1.0,
    "size": 1799,
    "ssh_url": "git@github.com:LiuLang/bcloud.git",
    "stargazers_count": 53,
    "stargazers_url": "https://api.github.com/repos/LiuLang/bcloud/stargazers",
    "statuses_url": "https://api.github.com/repos/LiuLang/bcloud/statuses/{sha}",
    "subscribers_url": "https://api.github.com/repos/LiuLang/bcloud/subscribers",
    "subscription_url": "https://api.github.com/repos/LiuLang/bcloud/subscription",
    "svn_url": "https://github.com/LiuLang/bcloud",
    "tags_url": "https://api.github.com/repos/LiuLang/bcloud/tags",
    "teams_url": "https://api.github.com/repos/LiuLang/bcloud/teams",
    "trees_url": "https://api.github.com/repos/LiuLang/bcloud/git/trees{/sha}",
    "updated_at": "2014-05-06T15:17:33Z",
    "url": "https://api.github.com/repos/LiuLang/bcloud",
    "watchers": 53,
    "watchers_count": 53
}