{
    "libs": [
        "FeatureExtractorB",
        "code",
        "pylab",
        "datetime",
        "copy",
        "PIL",
        "bpython",
        "tempfile",
        "gtk",
        "zxing",
        "platform",
        "collections",
        "orange",
        "GifImagePlugin",
        "random",
        "pymba",
        "SegmentationB",
        "SocketServer",
        "linear_model",
        "zipfile",
        "textwrap",
        "scipy",
        "subprocess",
        "httplib",
        "stepic",
        "signal",
        "threading",
        "sane",
        "cStringIO",
        "pyfirmata",
        "SimpleHTTPServer",
        "ndimage",
        "PyQt4",
        "IPython",
        "virtualenv",
        "stats",
        "pyplot",
        "svgwrite",
        "urllib",
        "re",
        "werkzeug",
        "orngStat",
        "math",
        "core",
        "mplot3d",
        "Tkinter",
        "repository",
        "backend_agg",
        "interpolate",
        "Queue",
        "ctypes",
        "path",
        "optimize",
        "md5",
        "minidom",
        "logging",
        "socket",
        "handlers",
        "Image",
        "traceback",
        "pkg_resources",
        "filter",
        "itertools",
        "flickrapi",
        "os",
        "pdb",
        "pyscreenshot",
        "HaarC",
        "loader",
        "operator",
        "cv",
        "kernels",
        "cv2",
        "BeautifulSoup",
        "camera",
        "numpy",
        "simplejson",
        "linalg",
        "svm",
        "webbrowser",
        "piggyphoto",
        "webkit",
        "webm",
        "distance",
        "b",
        "pycurl",
        "cluster",
        "colorsys",
        "embed",
        "pickle",
        "sklearn",
        "mimetools",
        "ImageCl",
        "cherrypy",
        "freenect",
        "vq",
        "shutil",
        "__init__",
        "string",
        "html",
        "pygame",
        "spatial",
        "getopt",
        "csv",
        "warnings",
        "glob",
        "urllib2",
        "sys",
        "notebook",
        "gobject",
        "dropbox",
        "fl",
        "types",
        "argparse",
        "tesseract",
        "time",
        "zbar"
    ]
}