[
    "FisherFaceRecognizer",
    "SimpleCV.examples.display.tkinter-example",
    "SimpleCV.examples.display.gtk-example",
    "scripts.install.win.OpenKinect.freenect-examples.frame_convert",
    "examples.detection.MotionTracker",
    "test_haar_cascade",
    "SimpleCV.base",
    "SimpleCV.examples.manipulation.tvexample",
    "SimpleCV.Tracking.TrackClass",
    "SimpleCV.examples.detection.dealwithit",
    "win.OpenKinect.freenect-examples.demo_tilt",
    "freenect-examples.demo_cv_sync_multi",
    "install.win.OpenKinect.freenect-examples.demo_tilt",
    "OpenKinect",
    "scripts.mkvirt",
    "SimpleCV.examples.detection.optical_flow",
    "SimpleCV.examples.display.gtk-example-camera",
    "examples.display.qt-example",
    "Least-Squares-Circle",
    "SimpleCV.tests",
    "web-based.cloudanimator.images2gif",
    "examples.detection.TrainFacialRecognition",
    "freenect-examples.demo_cv_thresh_sweep",
    "SimpleCV.MachineLearning.query_imgs",
    "util",
    "kinect.kinect-motion",
    "SimpleCV.examples.detection.barcode_reader",
    "SimpleCV.examples.detection.CoinDetector",
    "demo_mp_sync",
    "LineScan",
    "demo_cv_thresh_sweep",
    "SimpleCV.MachineLearning.query_imgs.flickrapi2",
    "cloudanimator.cloudanimator",
    "SimpleCV.examples.manipulation.motionblur",
    "PlayingCards",
    "SimpleCV.examples.manipulation.MorphologyExample",
    "SimpleCV.examples.web-based",
    "cloudcam",
    "SimpleCV.examples.display",
    "MotionTracker",
    "examples.detection.Least-Squares-Circle",
    "face-substition",
    "arduino.CannyStream-arduino",
    "Camera",
    "SimpleCV.examples.tracking.camshift",
    "EdgeSnap",
    "SVMClassifier",
    "SimpleCV.examples.kinect.kinect-coloring",
    "web-based",
    "FeatureDetection",
    "examples.display.gtk-example",
    "motionblur",
    "SimpleCV.examples.detection.TemplateMatching",
    "install.win.OpenKinect.freenect-examples.demo_mp_async",
    "win.OpenKinect.freenect-examples.demo_cv_sync_multi",
    "test_multi",
    "examples.web-based.webdisplay.webkit-gtk",
    "SimpleCV.Features.BOFFeatureExtractor",
    "Segmentation.MOGSegmentation",
    "SimpleCV.tests.test_vimba_manyshots",
    "TreeClassifier",
    "BOFFeatureExtractor",
    "Calibrate",
    "MachineLearning.TurkingModuleExample",
    "Features.Features",
    "examples.detection.FisherFaceRecognizer",
    "SimpleCV.examples.manipulation.GreenScreen",
    "tests.test_display",
    "tests.test_vimba",
    "SimpleCV.Features.PlayingCards.PlayingCardFactory",
    "tools.Calibrate",
    "display.gtk-example-camera",
    "ColorModel",
    "scripts.install.win.OpenKinect.freenect-examples.demo_cv_sync",
    "scripts.install.win.OpenKinect.freenect-examples.demo_cv_thresh_sweep",
    "SimpleCV.tests.test_display",
    "machine-learning_nuts-vs-bolts",
    "kinect-coloring",
    "OpenKinect.freenect-examples",
    "OpenKinect.freenect-examples.frame_convert",
    "Shell.Tutorial",
    "PlayingCards.CardDataCollection",
    "win",
    "examples.detection.pills",
    "examples.web-based.webdisplay.flask-server",
    "SimpleCV.Features.Blob",
    "SimpleCV.Features.FeatureExtractorBase",
    "tools",
    "demo_cv_sync",
    "SimpleCV.examples.detection.CannyCam",
    "examples.display",
    "doc.conf",
    "SimpleCV.examples.web-based.cloudcam.cloudcam",
    "examples.detection.MOGSegmentation",
    "SimpleCV.examples.manipulation.threedee",
    "SimpleCV.tests.test_vimba_async",
    "SimpleCV.Features.Detection",
    "MachineLearning.ShapeContextClassifier",
    "Features.PlayingCards.TestScript",
    "gtk-example",
    "manipulation.GreenScreen",
    "DFT",
    "SimpleCV.examples.detection.balltrack",
    "SimpleCV.examples.arduino",
    "SimpleCV.examples.web-based.cloudcam",
    "install.mac.findmods",
    "examples.display.tkinter-example",
    "examples.manipulation.MorphologyExample",
    "images2gif",
    "detection.facetrack",
    "install",
    "SimpleCV.examples.web-based.cloudanimator.images2gif",
    "SimpleCV.Display",
    "SimpleCV.Shell",
    "win.OpenKinect.freenect-examples.demo_cv_thresh_sweep",
    "tests.tests",
    "examples.util",
    "SimpleCV.tests.ShapeContext",
    "OpenKinect.freenect-examples.demo_cv_threshold",
    "TurkingModuleExample",
    "MachineLearning.TestTemporalColorTracker",
    "SimpleCV.Features.BlobMaker",
    "examples.kinect.kinect-motion-blur",
    "SimpleCV.Features.PlayingCards.TestScript",
    "manipulation.colorsegmentation",
    "scripts.install.win.OpenKinect.freenect-examples.demo_cv_async",
    "HaarLikeFeature",
    "SimpleCV.tests.test_stereovision",
    "SimpleCV.Features.HaarCascade",
    "detection.MotionTracker",
    "install.win.OpenKinect.freenect-examples",
    "manipulation.tvexample",
    "examples.web-based.cloudanimator.images2gif",
    "machine-learning",
    "win.OpenKinect.freenect-examples.frame_convert",
    "detection.ColorSegmentation",
    "examples.kinect",
    "SimpleCV.examples.manipulation.mirror",
    "OpenKinect.freenect-examples.demo_cv_async",
    "install.win.OpenKinect.freenect-examples.frame_convert",
    "mac",
    "Features.MorphologyFeatureExtractor",
    "balltrack",
    "scripts.install.win.OpenKinect.freenect-examples",
    "NaiveBayesClassifier",
    "SimpleCV.Camera",
    "MachineLearning.query_imgs.flickrapi2",
    "barcode_reader",
    "PlayingCards.PlayingCard",
    "SimpleCV.Features.Features",
    "Features.PlayingCards.PlayingCard",
    "examples.detection.face-substition",
    "scripts.install.win.OpenKinect.freenect-examples.demo_cv_sync_multi",
    "detection.face-substition",
    "ShapeContext.test_c",
    "SimpleCV.examples.tracking.surftest",
    "display.RenderExample",
    "KNNClassifier",
    "display.gtk-example",
    "Shell",
    "get_imgs_geo_gps_search",
    "SimpleCV.examples.detection.ColorSegmentation",
    "demo_tilt",
    "lk",
    "Display",
    "tests.test_haar_cascade",
    "vcamera_tests",
    "Features.PlayingCards.PlayingCardFactory",
    "ColorCube",
    "win.OpenKinect.freenect-examples.demo_cv_sync",
    "examples.detection.barcode_reader",
    "ShapeContext.test_sc",
    "SimpleCV.tests.ShapeContext.test_multi",
    "RotationExample",
    "Features.HaarLikeFeatureExtractor",
    "scripts.install.win.OpenKinect.freenect-examples.demo_cv_threshold",
    "SimpleCV.examples.web-based.cloudanimator",
    "scripts.install.win.OpenKinect.freenect-examples.demo_tilt",
    "SimpleCV.tools.Calibrate",
    "examples.manipulation.GreenScreen",
    "win.OpenKinect.freenect-examples.demo_mp_async",
    "DiffSegmentation",
    "web-based.cloudanimator",
    "SimpleCV.Features.PlayingCards.cards",
    "manipulation.ImageMotionBlur",
    "Features.Detection",
    "Tracking.LKTracker",
    "dealwithit",
    "SimpleCV.Features.FaceRecognizer",
    "OpenKinect.freenect-examples.demo_cv_sync_multi",
    "examples.arduino",
    "scripts.install.win.OpenKinect.freenect-examples.demo_mp_sync",
    "SimpleCV.Segmentation",
    "examples.manipulation.mustachinator",
    "examples.web-based",
    "MachineLearning.query_imgs",
    "SimpleCV.examples.kinect.kinect-depthinedges",
    "GreenScreen",
    "MachineLearning.BOFTester",
    "qt-example",
    "pills",
    "SimpleCV.Features.HueHistogramFeatureExtractor",
    "install.mac",
    "SimpleCV.Features",
    "flask-server",
    "kinect.kinect-motion-blur",
    "test_vimba_manyshots",
    "examples.display.simplecam",
    "MachineLearning.TemporalColorTracker",
    "examples.web-based.cloudanimator.cloudanimator",
    "demo_mp_async",
    "SimpleCV.examples.display.qt-example",
    "ShapeContext",
    "SimpleCV.Features.PlayingCards.CardDataCollection",
    "ShapeContext.test_multi",
    "TurkingModule",
    "web-based.webdisplay.webkit-gtk",
    "win.OpenKinect.freenect-examples",
    "base",
    "tests.test_vimba_manyshots",
    "kinect-motion",
    "manipulation.RotationExample",
    "examples.kinect.kinect-depthinedges",
    "detection.dealwithit",
    "SimpleCV.MachineLearning.SVMClassifier",
    "cloudanimator",
    "install.win.OpenKinect.freenect-examples.demo_cv_sync_multi",
    "TestTemporalColorTracker",
    "SimpleCV.examples.detection.Least-Squares-Circle",
    "SimpleCV.examples.arduino.CannyStream-arduino",
    "install.win.OpenKinect.freenect-examples.demo_cv_thresh_sweep",
    "freenect-examples.demo_cv_sync",
    "MachineLearning.KNNClassifier",
    "examples.web-based.cloudcam",
    "SimpleCV.examples.display.videowriter",
    "Features.PlayingCards.CardDataCollection",
    "manipulation.mirror",
    "examples.tracking.lk",
    "install.win.OpenKinect.freenect-examples.demo_cv_sync",
    "MFTracker",
    "install.win.OpenKinect",
    "demo_cv_threshold",
    "Segmentation.DiffSegmentation",
    "CAMShiftTracker",
    "demo_cv_sync_multi",
    "SimpleCV.tests.test_haar_cascade",
    "MachineLearning.ConfusionMatrix",
    "SimpleCV.tests.ShapeContext.test_c",
    "manipulation.mustachinator",
    "scripts.install.win",
    "SimpleCV.Features.FeatureUtils",
    "SimpleCV.examples.detection.TrainFacialRecognition",
    "color_cluster",
    "examples.detection.ColorSegmentation",
    "examples.detection.EdgeSnap",
    "Segmentation.RunningSegmentation",
    "SimpleCV.MachineLearning.TurkingModule",
    "install.win.OpenKinect.freenect-examples.demo_cv_threshold",
    "freenect-examples.demo_tilt",
    "display.simplecam",
    "SimpleCV.examples.manipulation",
    "kinect-depthinedges",
    "manipulation",
    "Features.HaarLikeFeature",
    "SimpleCV.examples.manipulation.Partycam",
    "examples.manipulation.tvexample",
    "Features",
    "examples.tracking.mftrack",
    "OpenKinect.freenect-examples.demo_cv_thresh_sweep",
    "ConfusionMatrix",
    "Features.HaarCascade",
    "Features.PlayingCards.CardUtil",
    "MachineLearning.TurkingModule",
    "Tracking.TrackClass",
    "cards",
    "scripts.install.win.OpenKinect.freenect-examples.demo_mp_async",
    "videowriter",
    "CardDataCollection",
    "Features.Blob",
    "ColorSegmentation",
    "freenect-examples.demo_mp_sync",
    "SimpleCV.examples.detection.MotionTracker",
    "tracking.lk",
    "Features.PlayingCards.cards",
    "Features.FeatureExtractorBase",
    "MLTestSuite",
    "demo_cv_async",
    "tests.test_optional",
    "SimpleCV.Tracking",
    "SimpleCV.EXIF",
    "LKTracker",
    "detection.FeatureDetection",
    "PlayingCards.CardUtil",
    "display.tkinter-example",
    "FeatureUtils",
    "cloudanimator.images2gif",
    "SimpleCV.examples.detection.MOGSegmentation",
    "ImageClass",
    "CannyStream-arduino",
    "PlayingCards.TestScript",
    "SimpleCV.examples.util.CaptureEncodeUpload",
    "examples.tracking.camshift",
    "SimpleCV.MachineLearning.BOFTester",
    "scripts",
    "SimpleCV.examples.detection.face-substition",
    "MOGSegmentation",
    "SimpleCV.examples.kinect",
    "SimpleCV.Features.EdgeHistogramFeatureExtractor",
    "doc",
    "examples.util.ColorCube",
    "SimpleCV.Features.MorphologyFeatureExtractor",
    "examples.tracking",
    "SimpleCV.examples.detection.FeatureDetection",
    "webdisplay.flask-server",
    "SimpleCV.DrawingLayer",
    "surftest",
    "SimpleCV.Tracking.MFTracker",
    "scripts.install.mac",
    "SimpleCV.examples.display.simplecam",
    "MachineLearning.NaiveBayesClassifier",
    "manipulation.motionblur",
    "SimpleCV.Tracking.LKTracker",
    "MachineLearning.SVMClassifier",
    "Shell.Shell",
    "SimpleCV.examples.machine-learning",
    "util.CaptureEncodeUpload",
    "Shell.Example",
    "ShapeContextClassifier",
    "TrackSet",
    "freenect-examples.frame_convert",
    "SegmentationBase",
    "display.qt-example",
    "SimpleCV.examples.manipulation.mustachinator",
    "detection.FisherFaceRecognizer",
    "HueHistogramFeatureExtractor",
    "SimpleCV.DFT",
    "examples.display.RenderExample",
    "examples.detection.FeatureDetection",
    "tvexample",
    "examples.manipulation.mirror",
    "test_c",
    "EXIF",
    "examples.web-based.webdisplay",
    "SimpleCV.examples.kinect.kinect-motion",
    "tests.ShapeContext.test_sc",
    "threedee",
    "machine-learning.machine-learning_nuts-vs-bolts",
    "detection.Least-Squares-Circle",
    "flickrapi2",
    "examples.kinect.kinect-coloring",
    "SimpleCV.Features.PlayingCards",
    "SimpleCV.examples.manipulation.ImageMotionBlur",
    "detection",
    "examples.machine-learning.color_cluster",
    "SimpleCV.tests.ShapeContext.test_sc",
    "query_imgs.flickrapi2",
    "examples.web-based.cloudcam.cloudcam",
    "SimpleCV.MachineLearning.ShapeContextClassifier",
    "frame_convert",
    "install.win",
    "MorphologyFeatureExtractor",
    "SimpleCV.Tracking.TrackSet",
    "Features.BlobMaker",
    "examples.manipulation",
    "SURFTracker",
    "SimpleCV.Color",
    "ImageMotionBlur",
    "detection.EdgeSnap",
    "BlobMaker",
    "Partycam",
    "display.videowriter",
    "examples.detection.dealwithit",
    "win.OpenKinect.freenect-examples.demo_cv_async",
    "detection.TrainFacialRecognition",
    "Tutorial",
    "Tracking.TrackSet",
    "SimpleCV.Segmentation.SegmentationBase",
    "tracking.surftest",
    "SimpleCV.examples.manipulation.RotationExample",
    "detection.balltrack",
    "simplecam",
    "detection.x-ray",
    "PlayingCard",
    "webdisplay.webkit-gtk",
    "tests.test_cameras",
    "findmods",
    "SimpleCV.MachineLearning.TemporalColorTracker",
    "SimpleCV.examples.detection.EdgeSnap",
    "SimpleCV.examples.tracking.lk",
    "examples.manipulation.motionblur",
    "MachineLearning.TreeClassifier",
    "MachineLearning.query_imgs.get_imgs_geo_gps_search",
    "examples.detection.CoinDetector",
    "colorsegmentation",
    "win.OpenKinect.freenect-examples.demo_cv_threshold",
    "detection.pills",
    "SimpleCV.examples.web-based.webdisplay.webkit-gtk",
    "scripts.install.mac.findmods",
    "Tracking.SURFTracker",
    "CannyCam",
    "web-based.cloudcam.cloudcam",
    "examples.detection.x-ray",
    "SimpleCV.examples.kinect.kinect-motion-blur",
    "Stream",
    "MorphologyExample",
    "FaceRecognizer",
    "machine-learning.color_cluster",
    "examples.manipulation.RotationExample",
    "SimpleCV.examples.display.RenderExample",
    "Detection",
    "SimpleCV.examples.detection.FisherFaceRecognizer",
    "SimpleCV.examples.detection.facetrack",
    "tracking.camshift",
    "tests.YCrCbtests",
    "examples.display.gtk-example-camera",
    "tests",
    "SimpleCV.examples.detection.x-ray",
    "conf",
    "RunningSegmentation",
    "SimpleCV.MachineLearning.query_imgs.get_imgs_geo_gps_search",
    "camshift",
    "mftrack",
    "Features.BOFFeatureExtractor",
    "examples.machine-learning",
    "TemporalColorTracker",
    "SimpleCV.MachineLearning.KNNClassifier",
    "SimpleCV.ImageClass",
    "gtk-example-camera",
    "test_display",
    "examples.detection.TemplateMatching",
    "test_sc",
    "webkit-gtk",
    "examples.manipulation.ImageMotionBlur",
    "BOFTester",
    "web-based.webdisplay",
    "SimpleCV.MachineLearning.ConfusionMatrix",
    "SimpleCV.MachineLearning.TestTemporalColorTracker",
    "SimpleCV.LineScan",
    "SimpleCV.MachineLearning",
    "mkvirt",
    "examples.manipulation.colorsegmentation",
    "SimpleCV.Features.PlayingCards.PlayingCard",
    "OpenKinect.freenect-examples.demo_mp_async",
    "tracking",
    "CoinDetector",
    "query_imgs.get_imgs_geo_gps_search",
    "arduino",
    "examples.manipulation.Partycam",
    "manipulation.threedee",
    "tkinter-example",
    "win.OpenKinect.freenect-examples.demo_mp_sync",
    "SimpleCV.Shell.Example",
    "EdgeHistogramFeatureExtractor",
    "detection.optical_flow",
    "SimpleCV.Segmentation.DiffSegmentation",
    "SimpleCV.Tracking.CAMShiftTracker",
    "Segmentation",
    "TrackClass",
    "SimpleCV.Font",
    "examples.detection",
    "kinect",
    "SimpleCV.tests.YCrCbtests",
    "SimpleCV.MachineLearning.NaiveBayesClassifier",
    "examples.kinect.kinect-motion",
    "PlayingCards.PlayingCardFactory",
    "Tracking",
    "SimpleCV.examples.detection.pills",
    "SimpleCV.MachineLearning.TreeClassifier",
    "SimpleCV.tools",
    "Tracking.CAMShiftTracker",
    "Example",
    "detection.CannyCam",
    "SimpleCV.examples.util.ColorCube",
    "Features.EdgeHistogramFeatureExtractor",
    "TrainFacialRecognition",
    "tests.vcamera_tests",
    "Font",
    "detection.TemplateMatching",
    "SimpleCV.Segmentation.MOGSegmentation",
    "tests.ShapeContext.test_multi",
    "examples.tracking.surftest",
    "examples.machine-learning.machine-learning_nuts-vs-bolts",
    "tests.ShapeContext.test_c",
    "SimpleCV.examples.web-based.webdisplay",
    "manipulation.MorphologyExample",
    "examples",
    "mirror",
    "Features.PlayingCards",
    "win.OpenKinect",
    "util.ColorCube",
    "install.win.OpenKinect.freenect-examples.demo_cv_async",
    "test_vimba_async",
    "Features.FeatureUtils",
    "scripts.install.win.OpenKinect",
    "DrawingLayer",
    "SimpleCV.ColorModel",
    "mustachinator",
    "Features.FaceRecognizer",
    "SimpleCV.tests.test_optional",
    "cloudcam.cloudcam",
    "TestScript",
    "CaptureEncodeUpload",
    "CardUtil",
    "SimpleCV.examples",
    "SimpleCV.Features.HaarLikeFeature",
    "examples.display.videowriter",
    "freenect-examples",
    "SimpleCV.Segmentation.ColorSegmentation",
    "kinect-motion-blur",
    "kinect.kinect-depthinedges",
    "SimpleCV.examples.tracking.mftrack",
    "SimpleCV.Stream",
    "web-based.webdisplay.flask-server",
    "RenderExample",
    "test_vimba",
    "kinect.kinect-coloring",
    "SimpleCV.Shell.Shell",
    "detection.MOGSegmentation",
    "query_imgs",
    "SimpleCV.examples.machine-learning.color_cluster",
    "detection.CoinDetector",
    "HaarLikeFeatureExtractor",
    "mac.findmods",
    "SimpleCV.examples.machine-learning.machine-learning_nuts-vs-bolts",
    "MachineLearning.MLTestSuite",
    "OpenKinect.freenect-examples.demo_tilt",
    "tests.test_vimba_async",
    "OpenKinect.freenect-examples.demo_mp_sync",
    "SimpleCV.tests.test_cameras",
    "tracking.mftrack",
    "Segmentation.SegmentationBase",
    "examples.detection.CannyCam",
    "optical_flow",
    "SimpleCV.examples.manipulation.colorsegmentation",
    "SimpleCV.Features.HaarLikeFeatureExtractor",
    "install.win.OpenKinect.freenect-examples.demo_mp_sync",
    "Tracking.MFTracker",
    "facetrack",
    "Features.HueHistogramFeatureExtractor",
    "examples.detection.balltrack",
    "SimpleCV.Segmentation.RunningSegmentation",
    "SimpleCV.Tracking.SURFTracker",
    "MachineLearning",
    "examples.detection.facetrack",
    "web-based.cloudcam",
    "SimpleCV.tests.vcamera_tests",
    "PlayingCardFactory",
    "display",
    "x-ray",
    "TemplateMatching",
    "detection.barcode_reader",
    "SimpleCV",
    "SimpleCV.examples.web-based.cloudanimator.cloudanimator",
    "SimpleCV.examples.tracking",
    "SimpleCV.Shell.Tutorial",
    "SimpleCV.tests.tests",
    "SimpleCV.examples.util",
    "Blob",
    "webdisplay",
    "SimpleCV.examples.web-based.webdisplay.flask-server",
    "SimpleCV.tests.test_vimba",
    "tests.test_stereovision",
    "test_cameras",
    "examples.manipulation.threedee",
    "OpenKinect.freenect-examples.demo_cv_sync",
    "FeatureExtractorBase",
    "SimpleCV.examples.detection",
    "examples.detection.optical_flow",
    "freenect-examples.demo_cv_async",
    "HaarCascade",
    "examples.arduino.CannyStream-arduino",
    "test_stereovision",
    "scripts.install",
    "Segmentation.ColorSegmentation",
    "examples.util.CaptureEncodeUpload",
    "YCrCbtests",
    "SimpleCV.Features.PlayingCards.CardUtil",
    "freenect-examples.demo_cv_threshold",
    "examples.web-based.cloudanimator",
    "Color",
    "PlayingCards.cards",
    "SimpleCV.MachineLearning.TurkingModuleExample",
    "tests.ShapeContext",
    "SimpleCV.MachineLearning.MLTestSuite",
    "freenect-examples.demo_mp_async",
    "test_optional",
    "web-based.cloudanimator.cloudanimator",
    "manipulation.Partycam"
]