{
    "libs": [
        "logging",
        "QtGui",
        "os",
        "traceback",
        "urllib",
        "sys",
        "json",
        "webbrowser",
        "time",
        "QtCore"
    ]
}