{
    "libs": [
        "cStringIO",
        "zlib",
        "random",
        "psyco",
        "RateMe",
        "punycode",
        "array",
        "msvcrt",
        "__init__",
        "threading",
        "tempfile",
        "errno",
        "urllib",
        "re",
        "select",
        "math",
        "bin",
        "string",
        "warnings",
        "sys",
        "gzip",
        "path",
        "copy",
        "types",
        "wx",
        "argparse",
        "httplib",
        "eventlet",
        "logging",
        "socket",
        "StringIO",
        "bisect",
        "idna",
        "signal",
        "traceback",
        "fcntl",
        "urlparse",
        "sha",
        "client",
        "green",
        "CurrentRateMe",
        "time",
        "pythoncom",
        "os"
    ]
}