[
    "ebpub.bin",
    "textmining.tests",
    "everyblock.states.california.liquor.remove-duplicates",
    "ebgeo.ebgeo.maps.views",
    "everyblock.cities.philly.historical_images",
    "templatetags.eb_json",
    "cities.nyc.liquor.import_codes",
    "houston.crime.retrieval",
    "ebinternal",
    "ebdata.ebdata.templatemaker.tests.run_all",
    "everyblock.cities.nyc.sign_permits.retrieval",
    "everyblock.everyblock.cities.charlotte.police_calls",
    "bin.import_hoods",
    "everyblock.everyblock.cities.seattle.fire_dispatch.retrieval",
    "cities.chicago.restaurants.retrieval",
    "utils.multicity",
    "atlanta",
    "articletext",
    "everyblock.cities.atlanta.building_permits",
    "ebdata.templatemaker.tests.textlist",
    "cities.chicago.foreclosures.retrieval",
    "everyblock.everyblock.cities.atlanta.crime.retrieval",
    "florida.myflorida",
    "washington.liquor",
    "cities.nyc.sign_permits",
    "everyblock.everyblock.cities.houston",
    "ebwiki.ebwiki.wiki.views",
    "ebblog.ebblog.manage",
    "everyblock.everyblock.cities",
    "cities.philly.city_press_releases.retrieval",
    "accounts.models",
    "everyblock.cities.sf.publicway.retrieval",
    "charlotte.restaurants.retrieval",
    "cities.philly.crime.retrieval",
    "templatemaker.tests.webmining",
    "utils.genstaticversions",
    "parser.tests",
    "ebpub.streets.bin",
    "ebdata.ebdata.parsing.excel",
    "everyblock.cities.boston.businesses",
    "ebgeo.maps.tests",
    "publicway.repair",
    "ebdata.blobs.manual",
    "scout",
    "cities.chicago.city_press_releases",
    "templatemaker.listdiff",
    "everyblock.everyblock.cities.boston.businesses",
    "cities.boston.restaurants",
    "states.florida.lodging_inspections",
    "everyblock.cities.chicago.city_press_releases",
    "ebdata.ebdata.retrieval.log",
    "everyblock.everyblock.cities.houston.crime",
    "utils.progressbar",
    "ebpub.ebpub.streets.models",
    "htmlutils",
    "update-buckets",
    "sf.police_calls.retrieval",
    "ebpub.ebpub.streets.bin.populate_suburbs",
    "cities.chicago.bike_racks",
    "ebwiki.wiki.utils",
    "streets",
    "everyblock.everyblock.states.florida.liquor",
    "cities.charlotte.police_calls.retrieval",
    "ebpub.db",
    "nyc.sign_permits",
    "admin.urls",
    "allmetros",
    "cities.houston",
    "everyblock.everyblock.admin.views",
    "export_schema",
    "maps.projections",
    "everyblock.states.florida.condos.retrieval",
    "blobs.scrapers",
    "ebinternal.feedback.views",
    "preferences",
    "charlotte.police_calls.retrieval",
    "lodging_inspections.retrieval",
    "ebgeo.ebgeo",
    "ebdata.nlp.places",
    "restaurants.retrieval",
    "ebdata.templatemaker",
    "everyblock.everyblock.states.florida.plan_reviews.retrieval",
    "ebdata.ebdata.parsing.mdb",
    "sanjose.police_calls",
    "everyblock.everyblock.cities.houston.restaurants.retrieval",
    "ebgeo.utils.clustering",
    "ebpub.ebpub.db.views",
    "ebinternal.ebinternal.feedback",
    "ebdata.textmining.tests.treeutils",
    "ebdata.ebdata.nlp.tests",
    "charlotte.building_permits",
    "blockimport.esri.management.commands.importesri",
    "everyblock.cities.la",
    "everyblock.cities.la.pools.retrieval",
    "everyblock.cities.nyc.building_permits",
    "ebpub.ebpub.geocoder.parser.cities",
    "progressbar",
    "ebblog.blog.feeds",
    "cities.dc.news_articles.retrieval",
    "db.feeds",
    "everyblock.everyblock.cities.chicago.building_permits",
    "city_council.retrieval",
    "everyblock.cities.sf.restaurants.retrieval",
    "db.bin",
    "cities.charlotte.libraries.retrieval",
    "everyblock.everyblock.utils.genstaticversions",
    "everyblock.everyblock.cities.chicago.restaurants.retrieval",
    "maps.views",
    "ebdata.blobs.auto_purge",
    "everyblock.cities.charlotte.police_calls",
    "everyblock.everyblock.cities.charlotte.building_permits.retrieval",
    "ebpub.streets.bin.populate_suburbs",
    "esri",
    "states.florida.condos.retrieval",
    "everyblock.staticmedia.templatetags.staticmedia",
    "ebpub.ebpub.accounts.urls",
    "ebdata.ebdata.retrieval.updaterdaemon",
    "clustering.tests",
    "ebdata.ebdata.templatemaker.tests.sst",
    "templatemaker.sst",
    "everyblock.cities.chicago.property_transfers.retrieval",
    "ebpub.db.templatetags",
    "wiki.markdown",
    "cities.charlotte.restaurants.retrieval",
    "ebblog.blog.admin",
    "tests.textlist",
    "everyblock.everyblock.cities.boston.restaurants",
    "streets.bin.populate_suburbs",
    "ebpub.settings",
    "cache_population",
    "everyblock.everyblock.cities.chicago.building_permits.retrieval",
    "scrapers.newsitem_list_detail",
    "hole",
    "ebpub.geocoder.parser.tests",
    "everyblock.everyblock.cities.nyc",
    "ebwiki.wiki.templatetags",
    "charlotte.police_calls.update-buckets",
    "utils.daemon",
    "everyblock.cities.dc.crime",
    "ebdata.templatemaker.tests.hole",
    "ebpub.urls",
    "everyblock.everyblock.cities.nyc.sign_permits.retrieval",
    "chicago.crime",
    "chicago.city_press_releases.retrieval",
    "building_permit_inspections.retrieval",
    "everyblock.everyblock.cities.chicago.street_closures.retrieval",
    "county_proceedings.retrieval",
    "templatemaker.hole",
    "philly.crime",
    "maps.bin",
    "florida",
    "ebpub.ebpub.accounts.callbacks",
    "scrapers.base",
    "states",
    "sf.building_permits.retrieval",
    "db.templatetags.eb",
    "states.florida.liquor",
    "ebgeo.ebgeo.maps.constants",
    "tests.brain",
    "cities.sf.building_permits",
    "everyblock.cities.boston.city_press_releases",
    "cities.sanjose.police_calls.retrieval",
    "everyblock.everyblock.cities.charlotte.police_calls.update-buckets",
    "utils.clustering.sample",
    "ebpub.streets.blockimport.esri.importers.zipcodes",
    "maps",
    "ebdata.ebdata.templatemaker.articletext",
    "everyblock.cities.sf.zoning.harvester",
    "charlotte.utils",
    "wiki.models",
    "config",
    "everyblock.everyblock.cities.miami.import_miami_blocks",
    "ebdata.ebdata.utils",
    "mapping",
    "ebdata.blobs.geotagging",
    "everyblock.everyblock.cities.la.crime",
    "db.bin.activate_schema",
    "ebgeo.ebgeo.utils.correcting",
    "constants",
    "ebpub.streets.utils",
    "ebdata.retrieval.scrapers.newsitem_list_detail",
    "bike_racks",
    "parsing.pdftotext",
    "cities.nyc.restaurants.retrieval",
    "ebdata.templatemaker.tests",
    "ebpub.ebpub.streets.blockimport.tiger",
    "ebdata.ebdata.templatemaker.tests.webmining",
    "retrieval",
    "charlotte.significant_police_events.retrieval",
    "parsing",
    "esri.importers.zipcodes",
    "accounts.forms",
    "nyc.liquor",
    "ebpub.streets.blockimport.esri.management.commands.importesri",
    "maps.colors",
    "everyblock.cities.dc.news_articles.retrieval",
    "philly.historical_images.retrieval",
    "maps.bin.locator_calcs",
    "everyblock.cities.dallas.crime.normalize-addresses",
    "ebdata.retrieval.scrapers.base",
    "treeutils",
    "everyblock.everyblock.cities.chicago.street_closures",
    "populate_streets",
    "everyblock.cities.sf.police_calls.retrieval",
    "sf.police_calls",
    "maps.constants",
    "charlotte.building_permit_inspections",
    "db.templatetags.eb_json",
    "db.bin.export_schema",
    "ebgeo.utils.shapeindex",
    "everyblock.everyblock.cities.philly.crime.retrieval",
    "everyblock.everyblock.cities.nyc.news_articles.retrieval",
    "zoning",
    "city_council",
    "crime_aggregate.retrieval",
    "retrieval.scrapers.newsitem_list_detail",
    "ebgeo.utils",
    "cities.dc.crime",
    "ebinternal.citypoll.normalize",
    "everyblock.everyblock.cities.charlotte.restaurants",
    "everyblock.cities.sf.zoning",
    "nyc.scout",
    "utils.clustering.shortcuts",
    "ebpub.db.bin",
    "templatemaker.tests.brain",
    "newsitem_list_detail",
    "everyblock.everyblock.states",
    "crime.ucrmapping",
    "liquor.remove-duplicates",
    "sf.zoning.new_retrieval",
    "states.california.liquor.remove-duplicates",
    "la.restaurants.repair",
    "nlp.tests.datelines",
    "property_transfers",
    "feeds",
    "retrievers",
    "ebdata.ebdata.blobs.update_feeds",
    "states.washington",
    "ebgeo.ebgeo.maps.utils",
    "ebdata.ebdata.templatemaker.textlist",
    "mdb",
    "db.templatetags.dateutils",
    "wiki.feeds",
    "run_all",
    "everyblock.cities.seattle.fire_dispatch",
    "dc.news_articles",
    "cities.dallas.restaurants.retrieval",
    "building_permit_inspections",
    "crime.normalize-addresses",
    "cities.chicago.businesses",
    "ebgeo.ebgeo.maps.projections",
    "ebpub.ebpub.utils.view_utils",
    "ebdata.ebdata.blobs.create_seeds",
    "cities.chicago.street_closures.retrieval",
    "everyblock.cities.sf.restaurants",
    "geocode_newsitems",
    "everyblock.everyblock.cities.sf.police_calls.retrieval",
    "everyblock.everyblock.cities.sanjose.restaurants.retrieval",
    "everyblock.cities.dc",
    "everyblock.everyblock.states.california.liquor",
    "ebdata.parsing.mdb",
    "ebdata.retrieval.scrapers.new_newsitem_list_detail",
    "everyblock.cities.chicago.property_transfers",
    "ebdata.parsing.dbf",
    "everyblock.cities.chicago.city_press_releases.retrieval",
    "esri.management.commands.importesri",
    "significant_police_events",
    "ebpub.db.tests",
    "ebpub.ebpub.urls",
    "geotagging",
    "everyblock.everyblock.utils.cache_population",
    "everyblock.cities.dc.construction_projects",
    "streets.blockimport.esri.importers.blocks",
    "cities.chicago.liquor",
    "ebdata.templatemaker.template",
    "cities.la.restaurants.repair",
    "streets.utils",
    "everyblock.everyblock.cities.nyc.landmarks",
    "ebdata.nlp.tests.tests",
    "everyblock.cities.charlotte.restaurants.retrieval",
    "everyblock.everyblock.cities.dallas.crime.retrieval",
    "historical_images.retrieval",
    "everyblock.cities.philly.city_press_releases.retrieval",
    "templatemaker.articletext",
    "ebpub.ebpub.accounts.constants",
    "templatetags.mapping",
    "ebpub.ebpub.utils.stats",
    "ebpub.metros.loader",
    "blockimport",
    "sf.models",
    "view_utils",
    "retrieval.updaterdaemon",
    "ebdata.blobs.scrapers",
    "cities.boston.building_permits.retrieval",
    "ebdata.ebdata",
    "nlp.addresses",
    "sf.publicway",
    "charlotte.building_permits.retrieval",
    "ebdata.nlp.tests",
    "ebdata.ebdata.textmining.tests",
    "everyblock.cities.philly.crime",
    "clustering.bunch",
    "parsing.unicodecsv",
    "everyblock.everyblock.cities.charlotte.significant_police_events",
    "ebdata.ebdata.textmining.treeutils",
    "cities.nyc.news_articles.retrieval",
    "ebpub.db.templatetags.full_links",
    "significant_police_events.retrieval",
    "geocoder.models",
    "everyblock.cities.dc.construction_projects.retrieval",
    "news_articles",
    "ebpub.accounts",
    "everyblock.utils",
    "la.crime.fix_geoms",
    "ebdata.ebdata.retrieval.updaterdaemon.runner",
    "cities.nyc.property_sales.retrieval",
    "maps.cached_image",
    "cities.atlanta.building_permits",
    "nyc.graffiti.retrieval",
    "everyblock.cities.boston.businesses.retrieval",
    "everyblock.everyblock.cities.charlotte.utils",
    "retrieval.updaterdaemon.config",
    "city_press_releases.retrieval",
    "ebdata.ebdata.textmining",
    "charlotte",
    "everyblock.cities.la.restaurants.repair",
    "everyblock.everyblock.cities.seattle.building_permits",
    "nlp",
    "savedplaces.models",
    "runner",
    "retrieval.scrapers",
    "ebdata.templatemaker.tests.sst",
    "cities.nyc.building_permits",
    "everyblock.everyblock.cities.sf.zoning.new_retrieval",
    "ebdata.retrieval.log",
    "raw",
    "graffiti",
    "ebpub.ebpub.db.bin",
    "everyblock.cities.la.crime.fix_geoms",
    "sf.publicway.retrieval",
    "philly",
    "everyblock.everyblock.staticmedia",
    "ebgeo.utils.geodjango",
    "cities.charlotte.significant_police_events.retrieval",
    "ebpub.geocoder.tests.parser",
    "everyblock.states.florida.restaurants.retrieval",
    "cities.la.restaurant_closures",
    "db.templatetags.eb_filter",
    "ebgeo.ebgeo.maps.markers",
    "philly.city_council",
    "everyblock.everyblock.cities.sf.zoning.harvester",
    "everyblock.cities.la.restaurants.retrieval",
    "ebdata.ebdata.parsing.dbf",
    "cities.dallas.crime.ucrmapping",
    "everyblock.cities.la.pool_closures.retrieval",
    "ebpub.ebpub.db.constants",
    "cities.la.restaurants",
    "everyblock.everyblock.cities.philly.crime",
    "foreclosures.retrieval",
    "geocoder.parser.cities",
    "everyblock.everyblock.cities.sanjose.restaurants",
    "cities.la.fire_alerts.retrieval",
    "chicago.foreclosures",
    "everyblock.everyblock.cities.charlotte.city_council",
    "cities.boston",
    "nyc.property_sales",
    "parsing.mdb",
    "citypoll.normalize",
    "unicodecsv",
    "everyblock.everyblock.cities.la.pools.retrieval",
    "nyc.restaurants",
    "cities.seattle.fire_dispatch.retrieval",
    "ebinternal.feedback",
    "everyblock.cities.nyc.property_sales",
    "cities.seattle.city_press_releases.retrieval",
    "lodging_inspections",
    "scrapers.new_newsitem_list_detail",
    "populate_suburbs",
    "ebpub.savedplaces",
    "everyblock.everyblock.cities.la.crime.retrieval",
    "ebgeo.utils.clustering.shortcuts",
    "ebdata.ebdata.nlp.tests.tests",
    "retrieval.scrapers.list_detail",
    "miami.city_press_releases.retrieval",
    "accounts.middleware",
    "colors",
    "everyblock.cities.sanjose.building_permits",
    "businesses",
    "everyblock.everyblock.cities.dc.crime",
    "everyblock.everyblock.cities.nyc.crime_aggregate",
    "everyblock.everyblock.cities.philly.city_press_releases",
    "everyblock.cities.boston.city_press_releases.retrieval",
    "everyblock.states.florida.myflorida",
    "everyblock.everyblock.cities.nyc.graffiti",
    "condos",
    "police_calls.update-buckets",
    "everyblock.everyblock.cities.charlotte.libraries.retrieval",
    "everyblock.everyblock.cities.sanjose.police_calls",
    "everyblock.states.washington.liquor",
    "everyblock.cities.chicago.crime.retrieval",
    "la.restaurant_closures",
    "cities.nyc.restaurants",
    "cities.chicago.foreclosures",
    "dates",
    "db",
    "dc",
    "chicago.businesses",
    "ebpub.streets.blockimport.esri.management",
    "cities.sanjose.building_permits",
    "templatemaker.tests.run_all",
    "updaterdaemon.runner",
    "cities.dallas.crime.retrieval",
    "metros.urls",
    "utils.clustering.cluster",
    "ebpub.savedplaces.views",
    "county_proceedings",
    "ebinternal.ebinternal.citypoll.models",
    "ebdata.ebdata.templatemaker.tests.brain",
    "retrieval.updaterdaemon.runner",
    "ebpub.ebpub.db.bin.activate_schema",
    "cities.atlanta.crime.retrieval",
    "ebpub.ebpub.accounts.utils",
    "everyblock.cities.charlotte.building_permit_inspections.retrieval",
    "everyblock.cities.charlotte.building_permits",
    "cities.houston.crime",
    "dc.construction_projects.retrieval",
    "everyblock.cities.atlanta",
    "chicago.property_transfers",
    "everyblock.everyblock.cities.chicago.filmings.retrieval",
    "philly.historical_images",
    "restaurants",
    "everyblock.cities.charlotte.city_council.retrieval",
    "ebdata.retrieval",
    "ebgeo",
    "liquor",
    "cities.seattle.fire_dispatch",
    "cities.la.restaurants.retrieval",
    "washington.liquor.retrieval",
    "ebpub.ebpub.geocoder.tests",
    "projections",
    "multidb",
    "everyblock.cities.dallas.crime",
    "ebdata.ebdata.retrieval.utils",
    "boston.building_permits.retrieval",
    "ebdata.nlp.datelines",
    "nyc.news_articles.retrieval",
    "ebgeo.maps.colors",
    "states.washington.liquor",
    "retrieval.models",
    "sanjose.building_permits",
    "cities.sf.publicway.retrieval",
    "boston.city_press_releases.retrieval",
    "ebgeo.utils.progressbar",
    "ebwiki.ebwiki.wiki.utils",
    "everyblock.cities.sanjose.police_calls.retrieval",
    "crime.fix_geoms",
    "everyblock.states.washington",
    "templatemaker.tests.listdiff",
    "florida.condos.retrieval",
    "police_calls.retrieval",
    "streets.blockimport.tiger",
    "utils.clustering.tests",
    "db.bin.update_aggregates",
    "restaurant_closures",
    "ebinternal.ebinternal.citypoll.views",
    "charlotte.libraries",
    "ebpub.db.templatetags.eb_filter",
    "chicago.building_permits",
    "importers",
    "extent",
    "cities.charlotte.city_council.retrieval",
    "cities.chicago.building_permits",
    "everyblock.everyblock.states.california.liquor.retrieval",
    "create_seeds",
    "reverse",
    "geocoder",
    "ebpub.geocoder",
    "chicago.liquor",
    "philly.crime.retrieval",
    "tests.listdiffc",
    "la.crime",
    "updaterdaemon.config",
    "ebpub.ebpub.alerts.models",
    "chicago.building_permits.retrieval",
    "urls",
    "ebdata.ebdata.blobs",
    "maps.bins",
    "cities.dc.construction_projects.retrieval",
    "ebpub.utils.bunch",
    "management.commands.importesri",
    "markdown",
    "everyblock.cities.la.fire_alerts.retrieval",
    "ebpub.streets.blockimport.esri",
    "loader",
    "ebdata.retrieval.updaterdaemon.runner",
    "everyblock.cities.dc.crime.retrieval",
    "city_press_releases",
    "everyblock.everyblock.cities.la.restaurants.retrieval",
    "everyblock.utils.genstaticversions",
    "metros.models",
    "locator_calcs",
    "staticmedia",
    "ebgeo.ebgeo.maps.extent",
    "wiki.utils",
    "shapeindex",
    "ebdata.ebdata.templatemaker.tests",
    "boston",
    "nyc.crime_aggregate",
    "ebdata",
    "philly.restaurants",
    "everyblock.cities.atlanta.crime.retrieval",
    "ebdata.templatemaker.tests.listdiff",
    "everyblock.everyblock.cities.boston",
    "new_retrieval",
    "templatemaker.template",
    "ebpub.petitions",
    "ebpub.ebpub.geocoder.tests.parser",
    "templatemaker.tests.template",
    "blobs.create_seeds",
    "name_utils",
    "ebpub.ebpub.db.bin.geocode_newsitems",
    "utils.feature_reducer",
    "retrieval.log",
    "metros.allmetros",
    "cities.charlotte.utils",
    "sf.building_permits",
    "everyblock.states.florida.plan_reviews",
    "ebpub.ebpub.streets.blockimport.esri.base",
    "bin.activate_schema",
    "utils.bunch",
    "restaurants.repair",
    "ebpub.utils.dates",
    "ebpub.ebpub.geocoder.parser",
    "everyblock.everyblock.cities.sf.publicway.repair",
    "ebblog.ebblog.blog.feeds",
    "preferences.models",
    "everyblock.everyblock.cities.sf.zoning.retrieval",
    "ebdata.templatemaker.htmlutils",
    "cities.chicago.city_press_releases.retrieval",
    "seattle.land_use_bulletins.retrieval",
    "everyblock.everyblock.states.florida",
    "everyblock.cities.dallas",
    "ebinternal.citypoll.views",
    "everyblock.admin",
    "auto_purge",
    "seattle",
    "ebwiki.ebwiki.wiki.urls",
    "ebpub.ebpub.streets",
    "states.florida.restaurants",
    "cities.chicago.crime.retrieval",
    "new_newsitem_list_detail",
    "ebgeo.ebgeo.maps.urls",
    "everyblock.cities.charlotte.occupancy",
    "street_closures",
    "landmarks.retrieval",
    "ebpub.ebpub.streets.blockimport.esri",
    "filmings.retrieval",
    "everyblock.cities.chicago.building_permits",
    "everyblock.cities.chicago.businesses",
    "everyblock.cities.nyc.building_permits.retrieval",
    "esri.importers",
    "updaterdaemon",
    "cities.dc.service_requests",
    "chicago.crime.retrieval",
    "cities.sf.police_calls.retrieval",
    "everyblock.everyblock.cities.chicago.crime",
    "ebpub.streets.blockimport.tiger.import_blocks",
    "ebpub.ebpub.accounts.views",
    "ebdata.templatemaker.tests.brain",
    "ebdata.parsing.excel",
    "everyblock.everyblock.cities.nyc.liquor.retrieval",
    "everyblock.everyblock.cities.chicago.city_press_releases.retrieval",
    "charlotte.city_council.retrieval",
    "everyblock.cities.sanjose",
    "everyblock.cities.dc.service_requests.retrieval",
    "cities.boston.businesses",
    "everyblock.cities.charlotte.libraries",
    "utils.multidb",
    "db.tests",
    "templatemaker.webmining",
    "callbacks",
    "db.constants",
    "ebgeo.ebgeo.maps.shortcuts",
    "dallas.restaurants.retrieval",
    "cities.la",
    "ebpub.geocoder.parser.make_cf_tests",
    "ebinternal.citypoll",
    "streets.bin",
    "houston.crime",
    "ebdata.ebdata.templatemaker.hole",
    "cities.sf.police_calls",
    "cities.houston.restaurants.retrieval",
    "everyblock.cities.sanjose.restaurants.retrieval",
    "service_requests.retrieval",
    "commands.importesri",
    "everyblock.cities.sf.building_permits.retrieval",
    "templatetags.staticmedia",
    "california.liquor.remove-duplicates",
    "ebdata.ebdata.utils.daemon",
    "retrieval.scrapers.new_newsitem_list_detail",
    "everyblock.everyblock.cities.la.crime.fix_geoms",
    "ebpub.geocoder.parser.states",
    "zipcodes",
    "cities.nyc.liquor.retrieval",
    "everyblock.cities.charlotte.occupancy.retrieval",
    "tests.datelines",
    "ebdata.ebdata.nlp.datelines",
    "everyblock.everyblock.cities.sanjose.building_permits.retrieval",
    "ebpub.db.bin.import_hoods",
    "everyblock.everyblock.cities.atlanta.building_permits",
    "clustering.json",
    "everyblock.cities.boston.restaurants.retrieval",
    "nyc.news_articles",
    "everyblock.everyblock.states.florida.lodging_inspections",
    "nyc.landmarks.retrieval",
    "everyblock.everyblock.cities.charlotte.building_permit_inspections",
    "blobs.update_feeds",
    "everyblock.everyblock.cities.chicago.bike_racks",
    "scrapers.list_detail",
    "ebpub.ebpub.db.templatetags.dateutils",
    "preferences.views",
    "ebpub.ebpub.streets.blockimport.esri.importers",
    "everyblock.cities.miami",
    "bin",
    "cities.charlotte.police_calls.update-buckets",
    "manage",
    "ebgeo.maps.projections",
    "everyblock.cities.seattle.fire_dispatch.retrieval",
    "everyblock.everyblock.cities.chicago.property_transfers",
    "everyblock.everyblock.cities.charlotte",
    "everyblock.everyblock.staticmedia.templatetags",
    "everyblock.everyblock.cities.sanjose",
    "maps.tests",
    "esri.importers.blocks",
    "everyblock.cities.charlotte.building_permit_inspections",
    "blockimport.esri.base",
    "boston.businesses",
    "ebinternal.ebinternal.feedback.views",
    "tests.listdiff",
    "cities.seattle.city_press_releases",
    "ebpub.utils.stats",
    "daemon",
    "geocoder.tests.parser",
    "sf.zoning",
    "ebdata.ebdata.nlp.places",
    "ebpub.accounts.forms",
    "manual",
    "alerts.sending",
    "everyblock.everyblock.cities.la.restaurants",
    "cities.boston.city_press_releases.retrieval",
    "ebdata.retrieval.log_debug",
    "everyblock.everyblock.cities.seattle.land_use_bulletins.retrieval",
    "everyblock.cities.sf.models",
    "ebdata.ebdata.retrieval.log_debug",
    "miami.city_press_releases",
    "clustering",
    "everyblock.cities.chicago.restaurants.retrieval",
    "ebdata.ebdata.templatemaker.sst",
    "cities.dallas",
    "cities.nyc",
    "ebdata.textmining.tests",
    "florida.plan_reviews.retrieval",
    "everyblock.everyblock.utils.redirecter",
    "everyblock.cities.chicago.liquor",
    "importers.zipcodes",
    "streets.blockimport.esri",
    "feedback.models",
    "normalize-addresses",
    "everyblock.everyblock.utils",
    "everyblock.cities.philly.city_council",
    "ebdata.templatemaker.sst",
    "metros.tests",
    "everyblock.everyblock.states.florida.condos.retrieval",
    "tests.run_all",
    "ebdata.parsing.pdftotext",
    "everyblock.settings",
    "everyblock.everyblock.cities.sanjose.building_permits",
    "building_permits.retrieval",
    "ebpub.ebpub.streets.name_utils",
    "everyblock.cities.philly.restaurants",
    "everyblock.everyblock.cities.sf.publicway",
    "ebgeo.ebgeo.utils.clustering.tests",
    "maps.tile",
    "cities.dc.construction_projects",
    "cities.philly.city_council.retrieval",
    "cities.sf.models",
    "everyblock.everyblock.staticmedia.templatetags.staticmedia",
    "everyblock.cities.seattle.land_use_bulletins",
    "occupancy.retrieval",
    "police_calls",
    "everyblock.everyblock.cities.nyc.graffiti.retrieval",
    "everyblock.cities.nyc.liquor.import_codes",
    "cities.la.fire_alerts",
    "ebpub.ebpub.alerts.views",
    "everyblock.everyblock.cities.la.fire_alerts",
    "activate_schema",
    "templatemaker.tests",
    "everyblock.everyblock.cities.seattle.fire_dispatch",
    "ebpub.db.constants",
    "ebblog.blog.models",
    "ebdata.ebdata.templatemaker.tests.listdiffc",
    "repair",
    "everyblock.everyblock.cities.chicago.foreclosures.retrieval",
    "seattle.building_permits",
    "ebpub.ebpub.accounts",
    "ebdata.templatemaker.textlist",
    "ebpub.ebpub.streets.blockimport.esri.management.commands.importesri",
    "ebpub.geocoder.reverse",
    "cities.nyc.graffiti",
    "cities.dallas.crime",
    "cities.charlotte.occupancy.retrieval",
    "ebgeo.maps.bin",
    "geodjango",
    "ebpub.ebpub.utils.urlresolvers",
    "everyblock.states.florida.lodging_inspections",
    "retrieval.scrapers.base",
    "news_articles.retrieval",
    "everyblock.cities.charlotte.police_calls.retrieval",
    "everyblock.everyblock.cities.dallas",
    "cities.philly.restaurants.retrieval",
    "ebpub.db.bin.export_schema",
    "everyblock.states.california",
    "clustering.sample",
    "parser.make_cf_tests",
    "everyblock.everyblock.cities.chicago.businesses",
    "zoning.harvester",
    "cities.sf.zoning.retrieval",
    "parser.states",
    "everyblock.everyblock.cities.atlanta.building_permits.retrieval",
    "ebblog.ebblog.blog",
    "savedplaces",
    "cities.sf.building_permits.retrieval",
    "everyblock.cities.charlotte",
    "ebpub.ebpub.db.bin.import_hoods",
    "dc.service_requests",
    "everyblock.cities.charlotte.significant_police_events.retrieval",
    "ebgeo.utils.feature_reducer",
    "ebdata.blobs.create_seeds",
    "everyblock.everyblock.cities.boston.restaurants.retrieval",
    "everyblock.everyblock.cities.chicago.liquor.retrieval",
    "everyblock.cities.dc.service_requests",
    "savedplaces.views",
    "ebpub.ebpub.metros.allmetros",
    "ebpub.db.utils",
    "cities.chicago.businesses.retrieval",
    "middleware",
    "ebpub.db.templatetags.eb_json",
    "ebdata.ebdata.parsing.unicodecsv",
    "condos.retrieval",
    "everyblock.cities.miami.city_press_releases",
    "graffiti.retrieval",
    "ebpub.accounts.constants",
    "blockimport.esri.management",
    "ebpub.ebpub.geocoder.parser.tests",
    "everyblock.cities.houston.restaurants",
    "streets.blockimport.esri.management",
    "ebpub.ebpub.utils.dates",
    "dateutils",
    "geocoder.tests",
    "utils.clustering.json",
    "accounts.utils",
    "shortcuts",
    "parser",
    "everyblock.cities.nyc.restaurants.retrieval",
    "everyblock.everyblock.cities.nyc.scout",
    "ebwiki.ebwiki.wiki",
    "everyblock.everyblock.cities.sf.building_permits.retrieval",
    "ebgeo.ebgeo.maps.colors",
    "ebgeo.utils.clustering.json",
    "nlp.tests",
    "ebwiki.wiki.templatetags.wiki",
    "utils.shapeindex",
    "redirecter",
    "everyblock.everyblock.cities.dallas.restaurants.retrieval",
    "accounts.context_processors",
    "ebwiki.ebwiki.wiki.models",
    "land_use_bulletins.retrieval",
    "everyblock.everyblock.cities.houston.crime.retrieval",
    "everyblock.cities.sf.zoning.new_retrieval",
    "alerts",
    "excel",
    "everyblock.cities.nyc.graffiti.retrieval",
    "everyblock.everyblock.cities.charlotte.city_council.retrieval",
    "everyblock.everyblock.cities.boston.building_permits",
    "cities.seattle.land_use_bulletins.retrieval",
    "esri.base",
    "sign_permits.retrieval",
    "ebpub.ebpub.preferences.views",
    "ebgeo.ebgeo.maps.mapserver",
    "tess",
    "cities.nyc.scout.retrieval",
    "ebdata.templatemaker.webmining",
    "clean",
    "models",
    "everyblock.cities.sf",
    "wiki.views",
    "textmining",
    "everyblock.cities.nyc.graffiti",
    "list_detail",
    "templatemaker.tests.hole",
    "ebpub.ebpub.db.feeds",
    "charlotte.significant_police_events",
    "cities.nyc.crime_aggregate",
    "db.templatetags.mapping",
    "db.utils",
    "everyblock.everyblock.cities.sf.police_calls",
    "ebpub.db.feeds",
    "geocoder.reverse",
    "parser.cities",
    "cities.boston.building_permits",
    "ebblog.ebblog.blog.models",
    "everyblock.everyblock.cities.miami",
    "ebgeo.utils.clustering.bunch",
    "everyblock.everyblock.cities.la",
    "ebdata.templatemaker.tests.htmlutils",
    "philly.city_council.retrieval",
    "everyblock.everyblock.cities.sf.restaurants.retrieval",
    "ebpub.ebpub.db.templatetags",
    "ebgeo.utils.clustering.tests",
    "ebdata.templatemaker.tests.run_all",
    "cities.sanjose.restaurants.retrieval",
    "everyblock.everyblock.cities.chicago.foreclosures",
    "cities.charlotte.building_permits.retrieval",
    "tests.parser",
    "cities.sanjose.building_permits.retrieval",
    "cities.boston.businesses.retrieval",
    "cities.dallas.restaurants",
    "cities.charlotte.significant_police_events",
    "everyblock.everyblock.cities.dallas.crime.normalize-addresses",
    "everyblock.cities.la.restaurants",
    "california.liquor",
    "everyblock.everyblock.cities.nyc.landmarks.retrieval",
    "cities.charlotte.city_council",
    "parser.parsing",
    "streets.blockimport.esri.base",
    "ebwiki.wiki.urls",
    "tests.webmining",
    "ebpub.utils.multidb",
    "ebdata.ebdata.retrieval.scrapers.newsitem_list_detail",
    "states.washington.liquor.retrieval",
    "geocoder.parser.tests",
    "cities.charlotte.building_permits",
    "blobs.manual",
    "publicway.retrieval",
    "petitions",
    "everyblock.everyblock.states.florida.lodging_inspections.retrieval",
    "scrapers",
    "bin.locator_calcs",
    "blockimport.esri.management.commands",
    "everyblock.admin.views",
    "everyblock.cities.miami.city_press_releases.retrieval",
    "property_sales",
    "cities.nyc.scout",
    "ebpub.ebpub.streets.update_block_pretty_names",
    "cities.la.pools",
    "ebdata.ebdata.blobs.geotagging",
    "dc.crime.retrieval",
    "everyblock.everyblock.cities.nyc.scout.retrieval",
    "bin.export_schema",
    "cities.seattle.restaurants.retrieval",
    "ebblog.urls",
    "ebgeo.ebgeo.maps.bin.locator_calcs",
    "ebgeo.ebgeo.utils.shapeindex",
    "ebpub.db.bin.update_aggregates",
    "everyblock.cities.seattle.restaurants.retrieval",
    "ebpub.streets.name_utils",
    "citypoll.models",
    "everyblock.everyblock.cities.philly.restaurants.retrieval",
    "ebwiki",
    "ebgeo.ebgeo.maps.tilecache_service",
    "datelines",
    "cities.seattle.land_use_bulletins",
    "everyblock.everyblock.cities.chicago.city_press_releases",
    "context_processors",
    "blobs",
    "ebdata.templatemaker.clean",
    "chicago",
    "everyblock.cities.boston.building_permits.retrieval",
    "templatetags.eb",
    "ebpub.db.models",
    "dc.news_articles.retrieval",
    "ebdata.ebdata.nlp.addresses",
    "template",
    "california.liquor.retrieval",
    "everyblock.everyblock.cities.chicago",
    "ebgeo.maps.utils",
    "ebpub.ebpub.metros.tests",
    "everyblock.cities.dallas.restaurants",
    "retrieval.utils",
    "states.california.liquor.retrieval",
    "tests.clean",
    "everyblock.everyblock.cities.charlotte.county_proceedings",
    "streets.blockimport.tiger.import_blocks",
    "everyblock.everyblock.cities.sf.publicway.retrieval",
    "esri.management.commands",
    "everyblock.cities.charlotte.significant_police_events",
    "ebgeo.ebgeo.utils.progressbar",
    "ebinternal.settings",
    "everyblock.everyblock.cities.sf",
    "states.california",
    "geocoder.parser.parsing",
    "sending",
    "ebpub.ebpub.db.templatetags.full_links",
    "metros.loader",
    "textmining.tests.treeutils",
    "ebwiki.ebwiki.wiki.markdown",
    "everyblock.cities.chicago.liquor.retrieval",
    "ebpub.ebpub.streets.blockimport.esri.importers.zipcodes",
    "maps.markers",
    "cities.sf.restaurants.retrieval",
    "ebdata.nlp.addresses",
    "ebgeo.ebgeo.maps.bins",
    "bin.export_newsitems",
    "everyblock.cities.philly.historical_images.retrieval",
    "everyblock.cities.dc.news_articles",
    "everyblock.everyblock.cities.nyc.crime_aggregate.retrieval",
    "cached_image",
    "everyblock.everyblock.cities.dc.news_articles.retrieval",
    "states.california.liquor",
    "addresses",
    "states.florida.liquor.retrieval",
    "make_cf_tests",
    "ebdata.retrieval.retrievers",
    "update_aggregates",
    "ebgeo.ebgeo.utils.geodjango",
    "boston.city_press_releases",
    "ebpub.ebpub.geocoder.parser.states",
    "cities.charlotte.county_proceedings",
    "ebgeo.ebgeo.maps.tess",
    "metros",
    "everyblock.everyblock.cities.chicago.property_transfers.retrieval",
    "everyblock.states.florida",
    "everyblock.cities.sanjose.building_permits.retrieval",
    "everyblock.everyblock.cities.boston.city_press_releases",
    "ebpub.savedplaces.models",
    "utils.urlresolvers",
    "la.restaurant_closures.retrieval",
    "cities.nyc.sign_permits.retrieval",
    "accounts.urls",
    "seattle.city_press_releases",
    "db.bin.geocode_newsitems",
    "nyc.building_permits.retrieval",
    "everyblock.utils.multicity",
    "ebdata.textmining",
    "pool_closures.retrieval",
    "sanjose.building_permits.retrieval",
    "everyblock.everyblock.cities.dc.crime.retrieval",
    "ebpub.preferences.views",
    "everyblock.cities.chicago.building_permits.retrieval",
    "cities.charlotte.building_permit_inspections",
    "ebpub.ebpub.streets.blockimport.esri.management.commands",
    "import_miami_blocks",
    "everyblock.everyblock.cities.boston.building_permits.retrieval",
    "ebdata.templatemaker.articletext",
    "ebwiki.ebwiki.wiki.templatetags",
    "everyblock.utils.redirecter",
    "everyblock.everyblock.settings",
    "ebpub.metros.models",
    "everyblock.everyblock.cities.philly.city_press_releases.retrieval",
    "sf.zoning.retrieval",
    "streets.models",
    "eb_filter",
    "florida.liquor",
    "ebgeo.maps.mapserver",
    "everyblock.cities.la.restaurant_closures.retrieval",
    "templatemaker.tests.textlist",
    "cities.seattle.building_permits",
    "everyblock.cities.sf.publicway",
    "cities.philly.crime",
    "everyblock.everyblock.cities.philly.city_council.retrieval",
    "blockimport.base",
    "everyblock.cities.chicago.restaurants",
    "ebpub.utils",
    "accounts.callbacks",
    "tests.tests",
    "ebdata.retrieval.scrapers",
    "ebdata.templatemaker.tests.webmining",
    "everyblock.states.florida.restaurants",
    "blockimport.esri",
    "ebpub.ebpub.db.templatetags.eb_json",
    "sample",
    "ebpub.accounts.callbacks",
    "seattle.restaurants.retrieval",
    "ebpub.alerts.sending",
    "normalize",
    "cities.miami.city_press_releases",
    "ebpub.streets.blockimport.tiger",
    "everyblock.cities.chicago.filmings",
    "cities.sf.zoning.harvester",
    "everyblock.cities.nyc.restaurants",
    "everyblock.cities.atlanta.crime",
    "atlanta.crime.retrieval",
    "ebgeo.maps.constants",
    "scout.retrieval",
    "everyblock.everyblock.cities.philly.restaurants",
    "ebdata.blobs",
    "everyblock.cities.sf.zoning.retrieval",
    "petitions.models",
    "tile",
    "nyc",
    "chicago.businesses.retrieval",
    "import_blocks",
    "charlotte.occupancy",
    "cities.atlanta.crime",
    "ebpub.db.templatetags.raw",
    "everyblock.everyblock.urls",
    "ebpub.ebpub.petitions",
    "bin.geocode_newsitems",
    "everyblock.cities.seattle.city_press_releases",
    "pools.retrieval",
    "la.restaurants.retrieval",
    "everyblock.cities.chicago.foreclosures.retrieval",
    "templatemaker.clean",
    "sanjose.restaurants.retrieval",
    "everyblock.staticmedia.templatetags",
    "ebwiki.wiki.models",
    "ebpub.ebpub.geocoder.parser.make_cf_tests",
    "everyblock.cities.chicago.street_closures.retrieval",
    "everyblock.everyblock.cities.philly.historical_images",
    "maps.utils",
    "everyblock.cities.philly.restaurants.retrieval",
    "staticmedia.templatetags",
    "ebwiki.ebwiki",
    "urlresolvers",
    "ebpub.ebpub.geocoder",
    "seattle.fire_dispatch.retrieval",
    "sf",
    "bins",
    "dallas.crime",
    "land_use_bulletins",
    "nyc.building_permits",
    "ebdata.ebdata.retrieval.scrapers.list_detail",
    "ebpub.ebpub.preferences.models",
    "everyblock.everyblock.cities.nyc.liquor",
    "la.pool_closures.retrieval",
    "ebpub.metros.views",
    "update_feeds",
    "fire_dispatch",
    "ebpub.ebpub.accounts.forms",
    "ebpub.geocoder.parser.numbered_streets",
    "streets.name_utils",
    "everyblock.cities.charlotte.restaurants",
    "everyblock.states.california.liquor.retrieval",
    "ebblog.blog",
    "everyblock.everyblock.cities.nyc.sign_permits",
    "bunch",
    "ebdata.templatemaker.tests.clean",
    "chicago.restaurants.retrieval",
    "feature_reducer",
    "cities.chicago.street_closures",
    "importesri",
    "businesses.retrieval",
    "petitions.views",
    "forms",
    "cities.chicago.filmings.retrieval",
    "everyblock.everyblock.states.california.liquor.remove-duplicates",
    "cities.nyc.building_permits.retrieval",
    "templatemaker.htmlutils",
    "everyblock.cities.chicago.bike_racks.retrieval",
    "everyblock.everyblock.states.california",
    "ebpub.ebpub.petitions.models",
    "everyblock.everyblock.cities.seattle.building_permits.retrieval",
    "ebpub.ebpub.geocoder.models",
    "ebpub.ebpub.metros.urls",
    "geocoder.parser.suffixes",
    "views",
    "cities.chicago.restaurants",
    "cities.nyc.liquor",
    "blog.admin",
    "db.views",
    "dallas.crime.normalize-addresses",
    "everyblock.everyblock.cities.la.restaurant_closures",
    "ebdata.ebdata.blobs.models",
    "everyblock.everyblock.cities.nyc.restaurants",
    "base",
    "ebpub.streets.blockimport",
    "cities.philly.city_council",
    "ebpub.geocoder.parser",
    "streets.blockimport.esri.management.commands",
    "ebpub.streets.populate_streets",
    "seattle.fire_dispatch",
    "la.fire_alerts",
    "zoning.retrieval",
    "restaurant_closures.retrieval",
    "ebpub.metros.tests",
    "cities.dc.service_requests.retrieval",
    "ebwiki.wiki",
    "ebpub.ebpub.db.templatetags.raw",
    "construction_projects",
    "cities.sf.publicway.repair",
    "plan_reviews.retrieval",
    "pools",
    "sf.zoning.harvester",
    "everyblock.everyblock.states.florida.myflorida",
    "ebinternal.citypoll.models",
    "fire_alerts",
    "everyblock",
    "suffixes",
    "everyblock.states.florida.plan_reviews.retrieval",
    "ebpub.utils.urlresolvers",
    "la.pool_closures",
    "ebpub.ebpub.savedplaces.views",
    "citypoll",
    "sign_permits",
    "eb",
    "ebpub.alerts.models",
    "everyblock.cities.houston.restaurants.retrieval",
    "everyblock.everyblock.cities.seattle.city_press_releases.retrieval",
    "ebdata.ebdata.parsing",
    "charlotte.occupancy.retrieval",
    "ebpub.geocoder.models",
    "blocks",
    "log_debug",
    "numbered_streets",
    "ebpub.db.bin.alphabetize_locations",
    "blockimport.esri.importers",
    "ebgeo.ebgeo.maps",
    "atlanta.building_permits",
    "everyblock.everyblock.cities.seattle.restaurants",
    "metros.views",
    "multicity",
    "tilecache_service",
    "seattle.building_permits.retrieval",
    "cities.philly.restaurants",
    "everyblock.everyblock.cities.la.pool_closures",
    "ebpub.ebpub.streets.utils",
    "ebpub.db.templatetags.eb",
    "ebpub.geocoder.parser.parsing",
    "cities.dc",
    "ebdata.ebdata.templatemaker.listdiff",
    "maps.extent",
    "california",
    "wiki.templatetags.wiki",
    "geocoder.parser.make_cf_tests",
    "ebdata.ebdata.templatemaker.webmining",
    "templatetags.wiki",
    "feedback.views",
    "ebgeo.ebgeo.utils.clustering.shortcuts",
    "everyblock.cities.nyc.news_articles",
    "streets.blockimport",
    "atlanta.crime",
    "db.templatetags.raw",
    "ebpub.db.bin.add_location",
    "chicago.street_closures",
    "everyblock.everyblock.cities.la.restaurant_closures.retrieval",
    "cities.la.pools.retrieval",
    "ebpub.ebpub.db.bin.alphabetize_locations",
    "ebpub.ebpub.streets.bin",
    "myflorida",
    "cities.la.crime.fix_geoms",
    "everyblock.everyblock.cities.dallas.crime.ucrmapping",
    "everyblock.cities.nyc.sign_permits",
    "everyblock.cities.houston",
    "cities.philly",
    "ebblog.ebblog.urls",
    "accounts.constants",
    "ebpub.ebpub.metros",
    "la.crime.retrieval",
    "ebdata.retrieval.updaterdaemon",
    "everyblock.everyblock.cities.charlotte.occupancy",
    "sanjose",
    "everyblock.everyblock.cities.miami.city_press_releases.retrieval",
    "ebgeo.maps.tilecache_service",
    "everyblock.cities.la.crime.retrieval",
    "everyblock.cities.sanjose.restaurants",
    "dallas.crime.ucrmapping",
    "dallas.restaurants",
    "foreclosures",
    "everyblock.everyblock.cities.philly.historical_images.retrieval",
    "everyblock.cities.nyc.news_articles.retrieval",
    "ebpub.accounts.context_processors",
    "nlp.tests.tests",
    "everyblock.everyblock.cities.dallas.crime",
    "bin.alphabetize_locations",
    "crime_aggregate",
    "management",
    "citypoll.views",
    "clustering.shortcuts",
    "ebinternal.ebinternal.urls",
    "utils.correcting",
    "ebgeo.maps.tess",
    "occupancy",
    "maps.tilecache_service",
    "ebdata.ebdata.templatemaker.tests.listdiff",
    "boston.restaurants",
    "florida.restaurants",
    "florida.restaurants.retrieval",
    "ebpub.ebpub.metros.models",
    "everyblock.everyblock.utils.multicity",
    "ebdata.ebdata.templatemaker.tests.hole",
    "utils.redirecter",
    "florida.lodging_inspections.retrieval",
    "everyblock.everyblock.cities.miami.city_press_releases",
    "ebgeo.maps.bin.locator_calcs",
    "bin.populate_suburbs",
    "everyblock.cities.seattle.land_use_bulletins.retrieval",
    "streets.blockimport.esri.importers.zipcodes",
    "everyblock.everyblock.cities.la.fire_alerts.retrieval",
    "ebdata.templatemaker.listdiff",
    "everyblock.everyblock.states.florida.condos",
    "ebdata.textmining.treeutils",
    "ebdata.nlp",
    "streets.update_block_pretty_names",
    "cities.miami",
    "chicago.restaurants",
    "ebpub.ebpub.savedplaces.models",
    "charlotte.city_council",
    "fire_dispatch.retrieval",
    "templatemaker",
    "ebblog.manage",
    "everyblock.cities.sanjose.police_calls",
    "ebpub.ebpub.streets.blockimport.esri.importers.blocks",
    "everyblock.cities.seattle.restaurants",
    "ebpub.ebpub.db.bin.update_aggregates",
    "ebpub.ebpub.settings",
    "cities.sf.restaurants",
    "esri.management",
    "webmining",
    "building_permits",
    "ebinternal.ebinternal.citypoll.normalize",
    "ebdata.retrieval.utils",
    "ebdata.retrieval.scrapers.list_detail",
    "chicago.property_transfers.retrieval",
    "templatemaker.tests.clean",
    "templatetags.dateutils",
    "boston.restaurants.retrieval",
    "clustering.cluster",
    "cities.philly.city_press_releases",
    "cities.nyc.landmarks.retrieval",
    "ebgeo.ebgeo.utils.clustering.bunch",
    "ebdata.retrieval.models",
    "everyblock.states.florida.condos",
    "ebpub.db.templatetags.mapping",
    "templatemaker.tests.htmlutils",
    "ebpub.accounts.utils",
    "dallas",
    "ebpub.metros.urls",
    "everyblock.cities.seattle.building_permits",
    "ebdata.ebdata.retrieval.scrapers.base",
    "cities.charlotte.county_proceedings.retrieval",
    "nyc.scout.retrieval",
    "ebdata.ebdata.retrieval",
    "ebinternal.urls",
    "ebwiki.settings",
    "tests.htmlutils",
    "cities.dc.crime.retrieval",
    "cities.la.crime",
    "everyblock.cities.dallas.crime.retrieval",
    "ebdata.ebdata.templatemaker.tests.textlist",
    "ebgeo.maps.views",
    "everyblock.everyblock.cities.charlotte.county_proceedings.retrieval",
    "ebpub.ebpub.geocoder.parser.numbered_streets",
    "cities.la.crime.retrieval",
    "charlotte.libraries.retrieval",
    "ebpub.ebpub.utils.text",
    "ebwiki.wiki.markdown",
    "florida.lodging_inspections",
    "utils.clustering",
    "ebdata.ebdata.templatemaker.tests.htmlutils",
    "ebdata.blobs.models",
    "cities.chicago.crime",
    "historical_images",
    "ebpub.preferences.models",
    "templatemaker.brain",
    "everyblock.everyblock.states.florida.plan_reviews",
    "everyblock.cities.miami.import_miami_blocks",
    "ebpub.petitions.models",
    "cities.nyc.property_sales",
    "templatetags",
    "service_requests",
    "ebdata.blobs.update_feeds",
    "ebdata.ebdata.blobs.scrapers",
    "dc.construction_projects",
    "ebblog.ebblog.settings",
    "everyblock.everyblock.cities.dc.construction_projects",
    "everyblock.cities.la.pools",
    "ebdata.templatemaker.brain",
    "fire_alerts.retrieval",
    "everyblock.everyblock.cities.la.pool_closures.retrieval",
    "ebpub.ebpub.db.bin.export_schema",
    "cities.nyc.crime_aggregate.retrieval",
    "cities.nyc.landmarks",
    "houston",
    "text",
    "chicago.filmings",
    "dbf",
    "everyblock.cities.charlotte.police_calls.update-buckets",
    "ebgeo.ebgeo.maps.cached_image",
    "ebdata.utils",
    "cities.sanjose.restaurants",
    "ebpub.ebpub.accounts.middleware",
    "ebpub.ebpub.db.templatetags.eb",
    "feedback",
    "dallas.crime.retrieval",
    "everyblock.cities.la.fire_alerts",
    "geocoder.parser.states",
    "ucrmapping",
    "ebpub.ebpub.streets.blockimport",
    "ebdata.nlp.tests.datelines",
    "crime",
    "cities.atlanta",
    "liquor.import_codes",
    "nlp.places",
    "db.models",
    "charlotte.county_proceedings",
    "ebpub.alerts.views",
    "ebblog.ebblog",
    "ebpub.db.bin.activate_schema",
    "everyblock.everyblock.states.florida.restaurants",
    "nyc.liquor.import_codes",
    "chicago.bike_racks",
    "everyblock.everyblock.states.washington",
    "sf.publicway.repair",
    "libraries",
    "everyblock.cities.charlotte.utils",
    "everyblock.everyblock.cities.nyc.property_sales",
    "markers",
    "everyblock.cities.chicago.businesses.retrieval",
    "nyc.crime_aggregate.retrieval",
    "ebpub.ebpub.savedplaces",
    "db.bin.alphabetize_locations",
    "everyblock.cities.houston.crime",
    "remove-duplicates",
    "ebpub.ebpub.alerts.sending",
    "templatemaker.tests.sst",
    "cities.boston.restaurants.retrieval",
    "settings",
    "harvester",
    "cities.dc.news_articles",
    "ebgeo.maps.extent",
    "ebpub.ebpub.streets.blockimport.esri.management",
    "charlotte.police_calls",
    "utils.view_utils",
    "publicway",
    "eb_json",
    "management.commands",
    "blockimport.tiger.import_blocks",
    "ebpub.ebpub.db.tests",
    "wiki",
    "ebpub.utils.view_utils",
    "tests.template",
    "charlotte.county_proceedings.retrieval",
    "ebwiki.ebwiki.wiki.templatetags.wiki",
    "everyblock.everyblock.utils.queryset",
    "ebdata.templatemaker.tests.listdiffc",
    "everyblock.cities.charlotte.city_council",
    "utils.stats",
    "property_sales.retrieval",
    "ebdata.parsing.unicodecsv",
    "ebinternal.ebinternal",
    "ebgeo.maps",
    "parser.numbered_streets",
    "everyblock.cities.nyc.scout",
    "la.restaurants",
    "ebgeo.maps.markers",
    "everyblock.everyblock.cities.boston.city_press_releases.retrieval",
    "stats",
    "retrieval.retrievers",
    "maps.shortcuts",
    "parser.suffixes",
    "tests.hole",
    "everyblock.cities.philly",
    "ebpub.ebpub",
    "ebpub.streets.blockimport.esri.importers",
    "everyblock.everyblock.cities.philly.city_council",
    "everyblock.everyblock.cities.chicago.liquor",
    "templatetags.full_links",
    "ebpub.ebpub.metros.views",
    "everyblock.everyblock.cities.charlotte.significant_police_events.retrieval",
    "everyblock.utils.middleware",
    "ebpub.ebpub.streets.blockimport.base",
    "ebwiki.wiki.feeds",
    "ebdata.ebdata.templatemaker",
    "wiki.templatetags",
    "ebwiki.ebwiki.settings",
    "everyblock.cities",
    "everyblock.everyblock.cities.chicago.restaurants",
    "everyblock.cities.chicago",
    "everyblock.cities.boston",
    "cities.charlotte.restaurants",
    "cities",
    "everyblock.everyblock.utils.middleware",
    "blockimport.esri.importers.blocks",
    "everyblock.cities.seattle.city_press_releases.retrieval",
    "commands",
    "cities.seattle.building_permits.retrieval",
    "alerts.models",
    "admin",
    "blog.feeds",
    "ebpub.streets.update_block_pretty_names",
    "everyblock.cities.philly.city_press_releases",
    "ebdata.retrieval.updaterdaemon.config",
    "everyblock.cities.sf.building_permits",
    "ebpub.streets",
    "cities.sf.zoning",
    "everyblock.urls",
    "maps.mapserver",
    "chicago.foreclosures.retrieval",
    "export_newsitems",
    "everyblock.everyblock.cities.nyc.liquor.import_codes",
    "sf.restaurants.retrieval",
    "ebdata.ebdata.templatemaker.clean",
    "nyc.liquor.retrieval",
    "ebgeo.maps.urls",
    "ebdata.ebdata.templatemaker.brain",
    "ebpub.db.views",
    "chicago.liquor.retrieval",
    "nyc.landmarks",
    "everyblock.everyblock.cities.sanjose.police_calls.retrieval",
    "ebpub.geocoder.base",
    "everyblock.cities.la.pool_closures",
    "tests.articletext",
    "wiki.urls",
    "templatetags.eb_filter",
    "everyblock.everyblock.cities.dc",
    "ebgeo.ebgeo.maps.tile",
    "everyblock.everyblock.cities.chicago.crime.retrieval",
    "ebgeo.ebgeo.maps.tests",
    "ebpub.metros.allmetros",
    "ebinternal.ebinternal.feedback.models",
    "cities.seattle",
    "json",
    "import_hoods",
    "bin.add_location",
    "chicago.filmings.retrieval",
    "sanjose.restaurants",
    "utils.middleware",
    "cities.sanjose",
    "florida.plan_reviews",
    "construction_projects.retrieval",
    "states.florida.condos",
    "ebpub.ebpub.geocoder.base",
    "sanjose.police_calls.retrieval",
    "textmining.treeutils",
    "ebpub.ebpub.geocoder.reverse",
    "everyblock.cities.sf.publicway.repair",
    "tiger",
    "cities.chicago.filmings",
    "everyblock.cities.chicago.filmings.retrieval",
    "everyblock.everyblock.cities.charlotte.restaurants.retrieval",
    "staticmedia.templatetags.staticmedia",
    "la.pools",
    "cities.philly.historical_images",
    "everyblock.everyblock.cities.sf.models",
    "ebpub.ebpub.accounts.models",
    "blobs.geotagging",
    "zoning.new_retrieval",
    "everyblock.everyblock.cities.dc.service_requests",
    "cities.seattle.restaurants",
    "everyblock.cities.boston.restaurants",
    "ebwiki.ebwiki.wiki.feeds",
    "everyblock.everyblock.cities.charlotte.libraries",
    "ebdata.ebdata.templatemaker.tests.articletext",
    "mapserver",
    "florida.condos",
    "ebdata.ebdata.templatemaker.template",
    "ebgeo.maps.bins",
    "everyblock.everyblock.cities.la.restaurants.repair",
    "everyblock.cities.la.restaurant_closures",
    "streets.blockimport.base",
    "libraries.retrieval",
    "everyblock.everyblock.cities.sf.zoning",
    "nyc.property_sales.retrieval",
    "ebpub.streets.blockimport.esri.base",
    "boston.businesses.retrieval",
    "philly.city_press_releases",
    "utils",
    "cluster",
    "ebdata.ebdata.nlp",
    "everyblock.cities.nyc.liquor.retrieval",
    "bike_racks.retrieval",
    "utils.dates",
    "everyblock.everyblock.cities.dallas.restaurants",
    "everyblock.everyblock.cities.boston.businesses.retrieval",
    "landmarks",
    "everyblock.everyblock.admin.urls",
    "cities.nyc.graffiti.retrieval",
    "everyblock.cities.chicago.crime",
    "ebinternal.ebinternal.settings",
    "dc.service_requests.retrieval",
    "ebdata.templatemaker.tests.articletext",
    "ebpub.streets.models",
    "ebpub.ebpub.utils",
    "nyc.sign_permits.retrieval",
    "everyblock.everyblock.states.florida.liquor.retrieval",
    "cities.chicago.building_permits.retrieval",
    "ebdata.ebdata.textmining.tests.treeutils",
    "charlotte.building_permit_inspections.retrieval",
    "ebpub.ebpub.streets.blockimport.tiger.import_blocks",
    "miami.import_miami_blocks",
    "ebgeo.ebgeo.maps.bin",
    "tests.treeutils",
    "utils.geodjango",
    "accounts.views",
    "blog.models",
    "utils.text",
    "florida.liquor.retrieval",
    "cities.charlotte.occupancy",
    "ebgeo.ebgeo.utils.clustering.cluster",
    "bin.update_aggregates",
    "ebdata.ebdata.nlp.tests.datelines",
    "ebinternal.ebinternal.citypoll",
    "templatemaker.tests.articletext",
    "everyblock.everyblock.cities.nyc.building_permits.retrieval",
    "everyblock.everyblock.cities.charlotte.occupancy.retrieval",
    "philly.city_press_releases.retrieval",
    "everyblock.cities.dallas.crime.ucrmapping",
    "everyblock.cities.philly.city_council.retrieval",
    "blobs.models",
    "cities.sf.publicway",
    "everyblock.everyblock.cities.charlotte.police_calls.retrieval",
    "dc.crime",
    "cities.chicago.property_transfers.retrieval",
    "everyblock.everyblock.cities.dc.news_articles",
    "cities.la.pool_closures.retrieval",
    "cities.charlotte.building_permit_inspections.retrieval",
    "everyblock.cities.la.crime",
    "everyblock.cities.nyc.landmarks",
    "ebwiki.wiki.views",
    "ebpub.db.bin.geocode_newsitems",
    "nyc.restaurants.retrieval",
    "liquor.retrieval",
    "geocoder.parser.numbered_streets",
    "everyblock.utils.cache_population",
    "everyblock.everyblock.cities.atlanta",
    "everyblock.everyblock.cities.chicago.businesses.retrieval",
    "everyblock.cities.charlotte.libraries.retrieval",
    "ebpub.petitions.views",
    "ebgeo.ebgeo.utils.feature_reducer",
    "ebgeo.ebgeo.utils",
    "everyblock.everyblock",
    "everyblock.cities.nyc.landmarks.retrieval",
    "everyblock.cities.nyc.liquor",
    "everyblock.cities.charlotte.county_proceedings.retrieval",
    "ebpub.streets.blockimport.base",
    "everyblock.states.florida.lodging_inspections.retrieval",
    "blog",
    "ebpub.accounts.middleware",
    "ebgeo.utils.clustering.sample",
    "ebpub.bin.export_newsitems",
    "fix_geoms",
    "ebgeo.maps.tile",
    "ebpub.ebpub.preferences",
    "ebpub.ebpub.streets.populate_streets",
    "ebpub.accounts.views",
    "pdftotext",
    "everyblock.utils.queryset",
    "tiger.import_blocks",
    "tests",
    "ebpub.utils.text",
    "ebpub.db.templatetags.dateutils",
    "queryset",
    "everyblock.everyblock.cities.houston.restaurants",
    "everyblock.states",
    "la.fire_alerts.retrieval",
    "ebdata.ebdata.retrieval.scrapers",
    "cities.dallas.crime.normalize-addresses",
    "templatemaker.tests.listdiffc",
    "templatemaker.textlist",
    "cities.chicago.property_transfers",
    "geocoder.base",
    "ebdata.ebdata.templatemaker.tests.clean",
    "everyblock.everyblock.cities.charlotte.building_permits",
    "everyblock.cities.charlotte.building_permits.retrieval",
    "ebblog.settings",
    "miami",
    "street_closures.retrieval",
    "cities.la.pool_closures",
    "everyblock.everyblock.cities.seattle.land_use_bulletins",
    "everyblock.cities.nyc.property_sales.retrieval",
    "everyblock.everyblock.cities.seattle.city_press_releases",
    "ebgeo.utils.clustering.cluster",
    "cities.atlanta.building_permits.retrieval",
    "ebpub.ebpub.db.utils",
    "everyblock.everyblock.cities.philly",
    "seattle.land_use_bulletins",
    "correcting",
    "everyblock.everyblock.cities.chicago.bike_racks.retrieval",
    "cities.sf.zoning.new_retrieval",
    "maps.urls",
    "chicago.city_press_releases",
    "states.florida",
    "states.florida.lodging_inspections.retrieval",
    "cities.miami.city_press_releases.retrieval",
    "db.bin.add_location",
    "ebdata.templatemaker.hole",
    "ebgeo.ebgeo.utils.clustering",
    "ebdata.ebdata.blobs.auto_purge",
    "philly.restaurants.retrieval",
    "utils.clustering.bunch",
    "everyblock.everyblock.cities.nyc.news_articles",
    "la.pools.retrieval",
    "geocoder.parser",
    "everyblock.everyblock.cities.dc.service_requests.retrieval",
    "cities.chicago",
    "everyblock.everyblock.cities.nyc.building_permits",
    "cities.charlotte.libraries",
    "atlanta.building_permits.retrieval",
    "states.florida.restaurants.retrieval",
    "blockimport.esri.importers.zipcodes",
    "everyblock.everyblock.admin",
    "importers.blocks",
    "ebdata.ebdata.retrieval.models",
    "sf.restaurants",
    "ebpub.ebpub.db",
    "ebdata.ebdata.templatemaker.htmlutils",
    "ebdata.ebdata.retrieval.retrievers",
    "everyblock.cities.charlotte.county_proceedings",
    "update_block_pretty_names",
    "everyblock.everyblock.cities.nyc.property_sales.retrieval",
    "everyblock.cities.seattle",
    "everyblock.everyblock.states.florida.restaurants.retrieval",
    "listdiffc",
    "ebpub.accounts.urls",
    "everyblock.everyblock.cities.atlanta.crime",
    "cities.houston.restaurants",
    "everyblock.everyblock.cities.nyc.restaurants.retrieval",
    "ebdata.ebdata.retrieval.scrapers.new_newsitem_list_detail",
    "parsing.excel",
    "ebdata.utils.daemon",
    "states.florida.myflorida",
    "everyblock.everyblock.cities.la.pools",
    "tests.sst",
    "streets.blockimport.esri.management.commands.importesri",
    "everyblock.admin.urls",
    "admin.views",
    "everyblock.everyblock.cities.dc.construction_projects.retrieval",
    "ebpub.geocoder.tests",
    "everyblock.everyblock.cities.sf.building_permits",
    "ebpub.ebpub.metros.loader",
    "alerts.views",
    "maps.tess",
    "everyblock.cities.nyc.crime_aggregate.retrieval",
    "everyblock.everyblock.cities.sf.restaurants",
    "everyblock.states.florida.liquor",
    "everyblock.cities.boston.building_permits",
    "everyblock.cities.nyc.crime_aggregate",
    "charlotte.restaurants",
    "streets.populate_streets",
    "everyblock.states.california.liquor",
    "boston.building_permits",
    "chicago.bike_racks.retrieval",
    "washington",
    "ebgeo.utils.correcting",
    "everyblock.staticmedia",
    "accounts",
    "parsing.dbf",
    "db.bin.import_hoods",
    "genstaticversions",
    "log",
    "ebgeo.maps.shortcuts",
    "cities.sanjose.police_calls",
    "listdiff",
    "cities.chicago.bike_racks.retrieval",
    "streets.blockimport.esri.importers",
    "everyblock.states.florida.liquor.retrieval",
    "ebgeo.ebgeo.utils.clustering.sample",
    "db.templatetags",
    "seattle.city_press_releases.retrieval",
    "ebdata.templatemaker.tests.template",
    "everyblock.cities.nyc.scout.retrieval",
    "ebpub",
    "everyblock.cities.sf.police_calls",
    "cities.la.restaurant_closures.retrieval",
    "everyblock.cities.seattle.building_permits.retrieval",
    "nlp.datelines",
    "ebpub.streets.blockimport.esri.management.commands",
    "ebpub.ebpub.db.bin.add_location",
    "pool_closures",
    "brain",
    "blockimport.tiger",
    "ebpub.preferences",
    "full_links",
    "states.florida.plan_reviews.retrieval",
    "ebpub.ebpub.db.templatetags.mapping",
    "ebpub.ebpub.utils.bunch",
    "cities.miami.import_miami_blocks",
    "everyblock.cities.nyc",
    "ebgeo.maps.cached_image",
    "places",
    "cities.sf",
    "everyblock.cities.chicago.foreclosures",
    "everyblock.cities.houston.crime.retrieval",
    "ebpub.accounts.models",
    "cities.philly.historical_images.retrieval",
    "ebpub.ebpub.geocoder.parser.suffixes",
    "templatetags.raw",
    "ebpub.metros",
    "everyblock.everyblock.cities.seattle",
    "ebdata.ebdata.templatemaker.tests.template",
    "everyblock.cities.atlanta.building_permits.retrieval",
    "retrieval.log_debug",
    "ebpub.alerts",
    "utils.cache_population",
    "houston.restaurants.retrieval",
    "everyblock.everyblock.cities.chicago.filmings",
    "nyc.graffiti",
    "cities.charlotte",
    "ebblog.ebblog.blog.admin",
    "ebpub.geocoder.parser.cities",
    "seattle.restaurants",
    "ebpub.ebpub.db.templatetags.eb_filter",
    "cities.boston.city_press_releases",
    "ebpub.ebpub.accounts.context_processors",
    "chicago.street_closures.retrieval",
    "ebgeo.ebgeo.utils.clustering.json",
    "ebpub.ebpub.db.models",
    "ebinternal.feedback.models",
    "cities.chicago.liquor.retrieval",
    "ebblog",
    "plan_reviews",
    "property_transfers.retrieval",
    "ebpub.ebpub.petitions.views",
    "everyblock.everyblock.states.washington.liquor",
    "ebpub.ebpub.alerts",
    "everyblock.everyblock.cities.seattle.restaurants.retrieval",
    "la",
    "ebpub.geocoder.parser.suffixes",
    "ebpub.streets.blockimport.esri.importers.blocks",
    "everyblock.states.washington.liquor.retrieval",
    "add_location",
    "houston.restaurants",
    "ebpub.ebpub.geocoder.parser.parsing",
    "ebdata.parsing",
    "cities.nyc.news_articles",
    "cities.charlotte.police_calls",
    "states.florida.plan_reviews",
    "alphabetize_locations",
    "everyblock.cities.chicago.street_closures",
    "filmings",
    "everyblock.everyblock.cities.charlotte.building_permit_inspections.retrieval",
    "cities.houston.crime.retrieval",
    "ebdata.ebdata.parsing.pdftotext",
    "everyblock.cities.chicago.bike_racks",
    "ebdata.ebdata.blobs.manual",
    "everyblock.cities.philly.crime.retrieval",
    "everyblock.cities.dallas.restaurants.retrieval",
    "ebdata.ebdata.retrieval.updaterdaemon.config",
    "everyblock.everyblock.states.washington.liquor.retrieval",
    "ebpub.ebpub.utils.multidb",
    "sst",
    "crime.retrieval",
    "utils.queryset",
    "blobs.auto_purge",
    "db.templatetags.full_links",
    "textlist",
    "import_codes"
]