[
    "konira.tests.case_tools",
    "konira.tests.util",
    "case_tokenizer",
    "tokenizer",
    "konira.runner",
    "runner",
    "konira.tests.case_cli",
    "tests",
    "case_argopts",
    "konira",
    "conf",
    "konira.tests.case_util",
    "konira.tests.case_exc",
    "collector",
    "case_runner",
    "docs.konira_syntax",
    "ext.cover",
    "konira.tests.case_runner",
    "tests.util",
    "konira.tests.case_output",
    "konira_syntax",
    "case_output",
    "case_collector",
    "konira.tests.case_tokenizer",
    "konira.ext",
    "konira.tests.case_collector",
    "konira.tools",
    "tests.case_exc",
    "konira.exc",
    "konira.output",
    "tests.case_util",
    "case_tools",
    "konira.argopts",
    "tests.case_argopts",
    "docs",
    "tests.case_tools",
    "case_util",
    "case_exc",
    "util",
    "tools",
    "output",
    "konira.collector",
    "konira.tokenizer",
    "tests.case_output",
    "docs.conf",
    "tests.case_tokenizer",
    "exc",
    "case_cli",
    "tests.case_runner",
    "cover",
    "konira.tests",
    "konira.tests.case_argopts",
    "ext",
    "konira.util",
    "konira.ext.cover",
    "tests.case_cli",
    "argopts",
    "tests.case_collector"
]