{
    "archive_url": "https://api.github.com/repos/nyddle/pystash/{archive_format}{/ref}",
    "assignees_url": "https://api.github.com/repos/nyddle/pystash/assignees{/user}",
    "blobs_url": "https://api.github.com/repos/nyddle/pystash/git/blobs{/sha}",
    "branches_url": "https://api.github.com/repos/nyddle/pystash/branches{/branch}",
    "clone_url": "https://github.com/nyddle/pystash.git",
    "collaborators_url": "https://api.github.com/repos/nyddle/pystash/collaborators{/collaborator}",
    "comments_url": "https://api.github.com/repos/nyddle/pystash/comments{/number}",
    "commits_url": "https://api.github.com/repos/nyddle/pystash/commits{/sha}",
    "compare_url": "https://api.github.com/repos/nyddle/pystash/compare/{base}...{head}",
    "contents_url": "https://api.github.com/repos/nyddle/pystash/contents/{+path}",
    "contributors_url": "https://api.github.com/repos/nyddle/pystash/contributors",
    "created_at": "2014-01-31T22:12:53Z",
    "default_branch": "master",
    "description": "Stash command line client",
    "downloads_url": "https://api.github.com/repos/nyddle/pystash/downloads",
    "events_url": "https://api.github.com/repos/nyddle/pystash/events",
    "fork": false,
    "forks": 7,
    "forks_count": 7,
    "forks_url": "https://api.github.com/repos/nyddle/pystash/forks",
    "full_name": "nyddle/pystash",
    "git_commits_url": "https://api.github.com/repos/nyddle/pystash/git/commits{/sha}",
    "git_refs_url": "https://api.github.com/repos/nyddle/pystash/git/refs{/sha}",
    "git_tags_url": "https://api.github.com/repos/nyddle/pystash/git/tags{/sha}",
    "git_url": "git://github.com/nyddle/pystash.git",
    "has_downloads": true,
    "has_issues": true,
    "has_wiki": true,
    "homepage": null,
    "hooks_url": "https://api.github.com/repos/nyddle/pystash/hooks",
    "html_url": "https://github.com/nyddle/pystash",
    "id": 16422310,
    "issue_comment_url": "https://api.github.com/repos/nyddle/pystash/issues/comments/{number}",
    "issue_events_url": "https://api.github.com/repos/nyddle/pystash/issues/events{/number}",
    "issues_url": "https://api.github.com/repos/nyddle/pystash/issues{/number}",
    "keys_url": "https://api.github.com/repos/nyddle/pystash/keys{/key_id}",
    "labels_url": "https://api.github.com/repos/nyddle/pystash/labels{/name}",
    "language": "Python",
    "languages_url": "https://api.github.com/repos/nyddle/pystash/languages",
    "merges_url": "https://api.github.com/repos/nyddle/pystash/merges",
    "milestones_url": "https://api.github.com/repos/nyddle/pystash/milestones{/number}",
    "mirror_url": null,
    "name": "pystash",
    "notifications_url": "https://api.github.com/repos/nyddle/pystash/notifications{?since,all,participating}",
    "open_issues": 0,
    "open_issues_count": 0,
    "owner": {
        "avatar_url": "https://avatars.githubusercontent.com/u/222468?",
        "events_url": "https://api.github.com/users/nyddle/events{/privacy}",
        "followers_url": "https://api.github.com/users/nyddle/followers",
        "following_url": "https://api.github.com/users/nyddle/following{/other_user}",
        "gists_url": "https://api.github.com/users/nyddle/gists{/gist_id}",
        "gravatar_id": "783c3326adf4b1876a1a41eb8099fd23",
        "html_url": "https://github.com/nyddle",
        "id": 222468,
        "login": "nyddle",
        "organizations_url": "https://api.github.com/users/nyddle/orgs",
        "received_events_url": "https://api.github.com/users/nyddle/received_events",
        "repos_url": "https://api.github.com/users/nyddle/repos",
        "site_admin": false,
        "starred_url": "https://api.github.com/users/nyddle/starred{/owner}{/repo}",
        "subscriptions_url": "https://api.github.com/users/nyddle/subscriptions",
        "type": "User",
        "url": "https://api.github.com/users/nyddle"
    },
    "private": false,
    "pulls_url": "https://api.github.com/repos/nyddle/pystash/pulls{/number}",
    "pushed_at": "2014-05-07T00:06:47Z",
    "releases_url": "https://api.github.com/repos/nyddle/pystash/releases{/id}",
    "score": 1.0,
    "size": 560,
    "ssh_url": "git@github.com:nyddle/pystash.git",
    "stargazers_count": 123,
    "stargazers_url": "https://api.github.com/repos/nyddle/pystash/stargazers",
    "statuses_url": "https://api.github.com/repos/nyddle/pystash/statuses/{sha}",
    "subscribers_url": "https://api.github.com/repos/nyddle/pystash/subscribers",
    "subscription_url": "https://api.github.com/repos/nyddle/pystash/subscription",
    "svn_url": "https://github.com/nyddle/pystash",
    "tags_url": "https://api.github.com/repos/nyddle/pystash/tags",
    "teams_url": "https://api.github.com/repos/nyddle/pystash/teams",
    "trees_url": "https://api.github.com/repos/nyddle/pystash/git/trees{/sha}",
    "updated_at": "2014-05-07T06:50:50Z",
    "url": "https://api.github.com/repos/nyddle/pystash",
    "watchers": 123,
    "watchers_count": 123
}