{
    "libs": [
        "httplib",
        "bs4",
        "fl",
        "urllib2",
        "urllib",
        "sys",
        "json",
        "requests",
        "os",
        "cookielib"
    ]
}