[
    "formats.format_html_chart",
    "python.wrap",
    "urls_root",
    "python.orderedclass",
    "format_xls",
    "paginate",
    "topo_sort",
    "format_url",
    "wrap",
    "urls_model",
    "python.iterkit",
    "formats.format_json",
    "formats.format_text",
    "python",
    "formats.format_xls",
    "urls_model_root",
    "format_html_chart",
    "urls",
    "views",
    "rules",
    "formats.format_url",
    "python.names",
    "format_text",
    "orderedclass",
    "format_html",
    "formats.format_csv",
    "fields",
    "middleware",
    "iterkit",
    "python.topo_sort",
    "formats.format_html",
    "formats",
    "exceptions",
    "format_json",
    "format_csv",
    "names"
]