[
    "nbhttpconnection",
    "rating",
    "trending",
    "sync_update",
    "notification_service",
    "service",
    "default",
    "scrobbler",
    "nbhttpsconnection",
    "utilities",
    "raw_xbmc_database",
    "windows",
    "recommend",
    "watchlist",
    "friends",
    "instant_sync"
]