{
    "libs": [
        "shortcuts",
        "unittest",
        "mockito",
        "with_statement",
        "actions",
        "qrcode",
        "iostream",
        "ioloop",
        "msgpack",
        "state",
        "json",
        "test",
        "decorators",
        "fiber",
        "http",
        "tornado",
        "inspect",
        "db",
        "util",
        "concurrent",
        "management",
        "mocks",
        "print_function",
        "sys",
        "b",
        "logging",
        "socket",
        "StringIO",
        "traceback",
        "itertools",
        "common",
        "defaults",
        "time",
        "os"
    ]
}