[
    "Lib._py3.yaml.resolver",
    "_py3.yaml.nodes",
    "Lib._py3.yaml.reader",
    "yaml.reader",
    "Lib._py3.yaml.parser",
    "view._view",
    "yaml.representer",
    "_py3.yaml.tokens",
    "Lib._py2.yaml.constructor",
    "fileconv",
    "test_sels",
    "_py3.yaml.resolver",
    "_py3.yaml.error",
    "Lib._py3.yaml",
    "yaml",
    "Lib._py3.yaml.representer",
    "_py2.yaml.parser",
    "tests.test_sublime_lib.test_view.test_sels",
    "nodes",
    "yaml.parser",
    "tests",
    "reader",
    "Lib.sublime_lib.edit",
    "yaml.serializer",
    "resolver",
    "fileconv.dumpers",
    "_py3.yaml.emitter",
    "_py2.yaml.resolver",
    "sublime_lib.constants",
    "Lib._py2.yaml.loader",
    "test_sublime_lib",
    "Lib._py3",
    "Lib._py2",
    "edit",
    "Lib._py2.yaml",
    "events",
    "Lib._py2.yaml.error",
    "_py2.yaml.representer",
    "_py2.yaml.composer",
    "_py2.yaml.cyaml",
    "view",
    "Lib.sublime_lib.constants",
    "_py2.yaml.emitter",
    "Lib._py2.yaml.reader",
    "_py2",
    "_py3",
    "commands_file_dev",
    "Lib._py3.yaml.events",
    "tests.test_sublime_lib.test_view",
    "_py3.yaml.cyaml",
    "_py2.yaml.loader",
    "Lib.sublime_lib.view",
    "Lib._py2.yaml.tokens",
    "sublime_lib.path",
    "yaml.events",
    "yaml.emitter",
    "Lib._py2.yaml.cyaml",
    "sublime_lib.view.output_panel",
    "tests.strip_js_comments",
    "completions_dev",
    "sublime_lib",
    "ordereddict_yaml",
    "yaml.constructor",
    "_py2.yaml.dumper",
    "representer",
    "plist_parser",
    "path",
    "sublime_lib.view._view",
    "Lib._py3.yaml.composer",
    "emitter",
    "_py2.yaml.serializer",
    "view.output_panel",
    "_py2.yaml.events",
    "_view",
    "Lib._py2.ordereddict",
    "fileconv.tests",
    "Lib._py3.yaml.emitter",
    "sublime_inspect",
    "output_panel",
    "Lib.sublime_lib",
    "cyaml",
    "constructor",
    "_py2.yaml.reader",
    "_py3.yaml.parser",
    "sublime_lib.edit",
    "Lib._py2.yaml.composer",
    "_py3.yaml.constructor",
    "tests.test_sublime_lib",
    "tests.test_sublime_lib.test_path",
    "_py2.yaml.error",
    "loader",
    "_py3.yaml.events",
    "composer",
    "ordereddict",
    "sublime_lib.view",
    "_py3.yaml.scanner",
    "yaml.composer",
    "file_conversion",
    "yaml.scanner",
    "_py2.yaml.tokens",
    "test_path",
    "Lib._py3.yaml.error",
    "loaders",
    "Lib._py2.yaml.scanner",
    "Lib.ordereddict_yaml",
    "Lib.sublime_lib.view.output_panel",
    "_py3.yaml.serializer",
    "fileconv.tests.strip_js_comments",
    "yaml.error",
    "snippet_dev",
    "tokens",
    "_py2.yaml",
    "Lib.plist_parser",
    "yaml.cyaml",
    "Lib._py2.yaml.events",
    "Lib._py2.yaml.representer",
    "tests.test_sublime_lib.test_view.test_view",
    "yaml.nodes",
    "build_sys_dev",
    "Lib._py3.yaml.serializer",
    "Lib._py2.yaml.dumper",
    "yaml.tokens",
    "_py2.yaml.scanner",
    "test_sublime_lib.test_view",
    "yaml.resolver",
    "_py3.yaml.representer",
    "error",
    "_py3.yaml.dumper",
    "sublime",
    "Lib._py3.yaml.constructor",
    "tests.sublime",
    "yaml.loader",
    "AAA",
    "scanner",
    "Lib",
    "parser",
    "_py3.yaml.composer",
    "Lib._py2.yaml.parser",
    "settings_dev",
    "package_dev",
    "_py3.yaml",
    "dumper",
    "sublime_plugin",
    "Lib._py3.yaml.nodes",
    "Lib.sublime_lib.view._view",
    "Lib._py2.yaml.nodes",
    "Lib._py3.yaml.scanner",
    "_py2.yaml.nodes",
    "fileconv.loaders",
    "_py2.yaml.constructor",
    "Lib._py2.yaml.resolver",
    "test_view",
    "Lib._py2.yaml.serializer",
    "test_sublime_lib.test_view.test_view",
    "strip_js_comments",
    "Lib._py3.yaml.loader",
    "_py3.yaml.reader",
    "yaml.dumper",
    "_py3.yaml.loader",
    "Lib.sublime_lib.path",
    "Lib._py3.yaml.dumper",
    "syntax_def_dev",
    "_py2.ordereddict",
    "Lib._py3.yaml.cyaml",
    "constants",
    "test_view.test_view",
    "dumpers",
    "Lib._py3.yaml.tokens",
    "tests.sublime_plugin",
    "scope_data",
    "test_sublime_lib.test_path",
    "test_view.test_sels",
    "test_sublime_lib.test_view.test_sels",
    "Lib._py2.yaml.emitter",
    "serializer"
]