{
    "libs": [
        "style",
        "logging",
        "re",
        "BeautifulSoup",
        "sys",
        "yaml",
        "token",
        "jinja2",
        "doctest",
        "shutil",
        "os"
    ]
}