[
    "extensions.sreg",
    "html_parse",
    "yadis.xri",
    "openid.store.interface",
    "fetchers",
    "openid.sreg",
    "elementtree.ElementInclude",
    "interface",
    "fetcher",
    "openid.yadis.discover",
    "openid.cryptutil",
    "filters",
    "openid.store.memstore",
    "yadis.filters",
    "consumer.html_parse",
    "ElementTree",
    "openid.dh",
    "openid.oidutil",
    "kvform",
    "TidyHTMLTreeBuilder",
    "xrires",
    "openid.message",
    "SimpleXMLWriter",
    "SimpleXMLTreeBuilder",
    "yadis.xrires",
    "elementtree.ElementTree",
    "openid.consumer.discover",
    "cryptutil",
    "openid.yadis.xrires",
    "pape",
    "yadis.parsehtml",
    "main",
    "ElementPath",
    "nonce",
    "elementtree.SimpleXMLTreeBuilder",
    "dh",
    "store.interface",
    "TidyTools",
    "openid.yadis",
    "yadis.services",
    "yadis.constants",
    "openid.store",
    "elementtree.SgmlopXMLTreeBuilder",
    "yadis.discover",
    "openid.extensions.sreg",
    "consumer.consumer",
    "elementtree.XMLTreeBuilder",
    "association",
    "elementtree.SimpleXMLWriter",
    "extensions.ax",
    "openid.store.nonce",
    "consumer.discover",
    "openid.extension",
    "manager",
    "openid.extensions.ax",
    "store",
    "openid.store.sqlstore",
    "oidutil",
    "store.sqlstore",
    "SgmlopXMLTreeBuilder",
    "ElementInclude",
    "openid.extensions",
    "discover",
    "accept",
    "openid.store.filestore",
    "elementtree.TidyHTMLTreeBuilder",
    "openid.extensions.pape",
    "openid.yadis.constants",
    "openid.kvform",
    "openid.yadis.etxrd",
    "ax",
    "urinorm",
    "message",
    "parsehtml",
    "xri",
    "openid.fetchers",
    "HTMLTreeBuilder",
    "openid.urinorm",
    "openid.yadis.parsehtml",
    "openid.association",
    "store.memstore",
    "elementtree.HTMLTreeBuilder",
    "memstore",
    "etxrd",
    "store.nonce",
    "openid",
    "models",
    "openid.yadis.accept",
    "openid.yadis.manager",
    "openid.yadis.services",
    "sreg",
    "yadis.etxrd",
    "store.filestore",
    "filestore",
    "extensions.pape",
    "services",
    "elementtree",
    "openid.yadis.filters",
    "constants",
    "openid.consumer.consumer",
    "openid.consumer",
    "XMLTreeBuilder",
    "yadis",
    "yadis.accept",
    "extension",
    "openid.yadis.xri",
    "elementtree.ElementPath",
    "extensions",
    "sqlstore",
    "yadis.manager",
    "consumer",
    "openid.consumer.html_parse",
    "elementtree.TidyTools"
]