[
    "hashes.simhash",
    "hashes.hashtype",
    "hashes.nilsimsa",
    "hashtype",
    "geohash",
    "hashes",
    "hashes.geohash",
    "bloom",
    "simhash",
    "nilsimsa",
    "hashes.bloom"
]