{
    "archive_url": "https://api.github.com/repos/mtigas/django-twofactor/{archive_format}{/ref}",
    "assignees_url": "https://api.github.com/repos/mtigas/django-twofactor/assignees{/user}",
    "blobs_url": "https://api.github.com/repos/mtigas/django-twofactor/git/blobs{/sha}",
    "branches_url": "https://api.github.com/repos/mtigas/django-twofactor/branches{/branch}",
    "clone_url": "https://github.com/mtigas/django-twofactor.git",
    "collaborators_url": "https://api.github.com/repos/mtigas/django-twofactor/collaborators{/collaborator}",
    "comments_url": "https://api.github.com/repos/mtigas/django-twofactor/comments{/number}",
    "commits_url": "https://api.github.com/repos/mtigas/django-twofactor/commits{/sha}",
    "compare_url": "https://api.github.com/repos/mtigas/django-twofactor/compare/{base}...{head}",
    "contents_url": "https://api.github.com/repos/mtigas/django-twofactor/contents/{+path}",
    "contributors_url": "https://api.github.com/repos/mtigas/django-twofactor/contributors",
    "created_at": "2011-09-23T21:51:05Z",
    "default_branch": "master",
    "description": "Two factor auth using the TOTP draft spec. Compatible with the Google Authenticator or any other TOTP token.",
    "downloads_url": "https://api.github.com/repos/mtigas/django-twofactor/downloads",
    "events_url": "https://api.github.com/repos/mtigas/django-twofactor/events",
    "fork": false,
    "forks": 8,
    "forks_count": 8,
    "forks_url": "https://api.github.com/repos/mtigas/django-twofactor/forks",
    "full_name": "mtigas/django-twofactor",
    "git_commits_url": "https://api.github.com/repos/mtigas/django-twofactor/git/commits{/sha}",
    "git_refs_url": "https://api.github.com/repos/mtigas/django-twofactor/git/refs{/sha}",
    "git_tags_url": "https://api.github.com/repos/mtigas/django-twofactor/git/tags{/sha}",
    "git_url": "git://github.com/mtigas/django-twofactor.git",
    "has_downloads": true,
    "has_issues": true,
    "has_wiki": true,
    "homepage": "",
    "hooks_url": "https://api.github.com/repos/mtigas/django-twofactor/hooks",
    "html_url": "https://github.com/mtigas/django-twofactor",
    "id": 2447000,
    "issue_comment_url": "https://api.github.com/repos/mtigas/django-twofactor/issues/comments/{number}",
    "issue_events_url": "https://api.github.com/repos/mtigas/django-twofactor/issues/events{/number}",
    "issues_url": "https://api.github.com/repos/mtigas/django-twofactor/issues{/number}",
    "keys_url": "https://api.github.com/repos/mtigas/django-twofactor/keys{/key_id}",
    "labels_url": "https://api.github.com/repos/mtigas/django-twofactor/labels{/name}",
    "language": "Python",
    "languages_url": "https://api.github.com/repos/mtigas/django-twofactor/languages",
    "merges_url": "https://api.github.com/repos/mtigas/django-twofactor/merges",
    "milestones_url": "https://api.github.com/repos/mtigas/django-twofactor/milestones{/number}",
    "mirror_url": null,
    "name": "django-twofactor",
    "notifications_url": "https://api.github.com/repos/mtigas/django-twofactor/notifications{?since,all,participating}",
    "open_issues": 0,
    "open_issues_count": 0,
    "owner": {
        "avatar_url": "https://avatars.githubusercontent.com/u/53129?",
        "events_url": "https://api.github.com/users/mtigas/events{/privacy}",
        "followers_url": "https://api.github.com/users/mtigas/followers",
        "following_url": "https://api.github.com/users/mtigas/following{/other_user}",
        "gists_url": "https://api.github.com/users/mtigas/gists{/gist_id}",
        "gravatar_id": "a8f2d54986b09ad1af109556eb23038f",
        "html_url": "https://github.com/mtigas",
        "id": 53129,
        "login": "mtigas",
        "organizations_url": "https://api.github.com/users/mtigas/orgs",
        "received_events_url": "https://api.github.com/users/mtigas/received_events",
        "repos_url": "https://api.github.com/users/mtigas/repos",
        "site_admin": false,
        "starred_url": "https://api.github.com/users/mtigas/starred{/owner}{/repo}",
        "subscriptions_url": "https://api.github.com/users/mtigas/subscriptions",
        "type": "User",
        "url": "https://api.github.com/users/mtigas"
    },
    "private": false,
    "pulls_url": "https://api.github.com/repos/mtigas/django-twofactor/pulls{/number}",
    "pushed_at": "2013-10-13T22:53:32Z",
    "releases_url": "https://api.github.com/repos/mtigas/django-twofactor/releases{/id}",
    "score": 1.0,
    "size": 138,
    "ssh_url": "git@github.com:mtigas/django-twofactor.git",
    "stargazers_count": 52,
    "stargazers_url": "https://api.github.com/repos/mtigas/django-twofactor/stargazers",
    "statuses_url": "https://api.github.com/repos/mtigas/django-twofactor/statuses/{sha}",
    "subscribers_url": "https://api.github.com/repos/mtigas/django-twofactor/subscribers",
    "subscription_url": "https://api.github.com/repos/mtigas/django-twofactor/subscription",
    "svn_url": "https://github.com/mtigas/django-twofactor",
    "tags_url": "https://api.github.com/repos/mtigas/django-twofactor/tags",
    "teams_url": "https://api.github.com/repos/mtigas/django-twofactor/teams",
    "trees_url": "https://api.github.com/repos/mtigas/django-twofactor/git/trees{/sha}",
    "updated_at": "2014-04-30T05:57:38Z",
    "url": "https://api.github.com/repos/mtigas/django-twofactor",
    "watchers": 52,
    "watchers_count": 52
}