[
    "examples.sni.client",
    "pyOpenSSL-0.13.doc.tools.sgmlconv.latex2esis",
    "utils.cert_print",
    "pyOpenSSL-0.13.doc.tools.buildindex",
    "examples.certgen",
    "build.lib.linux-i686-2.7.OpenSSL.test.test_crypto",
    "pyOpenSSL-0.13.examples",
    "pyOpenSSL-0.13.doc.tools.anno-api",
    "keywords",
    "indfix",
    "pyOpenSSL-0.13.OpenSSL.test.test_crypto",
    "build.lib.linux-i686-2.7.OpenSSL.test.test_ssl",
    "tools.refcounts",
    "lib.linux-i686-2.7.OpenSSL.test.test_crypto",
    "pyOpenSSL-0.13.OpenSSL.version",
    "doc.tools.sgmlconv.esis2sgml",
    "pyOpenSSL-0.13.examples.certgen",
    "doc.tools.toc2bkm",
    "pyOpenSSL-0.13.doc.tools.refcounts",
    "pyOpenSSL-0.13.OpenSSL.test.test_rand",
    "tsafe",
    "examples.simple",
    "test_ssl",
    "pyOpenSSL-0.13.doc.tools.keywords",
    "util",
    "SecureXMLRPCServer",
    "pyOpenSSL-0.13.build.lib.linux-i686-2.7.OpenSSL.test.test_crypto",
    "sgmlconv.docfixer",
    "frankengen.franken_util",
    "tools.sgmlconv",
    "sgmlconv.esistools",
    "doc.tools.anno-api",
    "pyOpenSSL-0.13.build.lib.linux-i686-2.7.OpenSSL.test",
    "pyOpenSSL-0.13.build",
    "lib.linux-i686-2.7.OpenSSL.tsafe",
    "doc.tools.sgmlconv.esistools",
    "mk_simple_certs",
    "server",
    "toc2bkm",
    "tools.sgmlconv.latex2esis",
    "OpenSSL.test.util",
    "franken_core",
    "pyOpenSSL-0.13.examples.mk_simple_certs",
    "pyOpenSSL-0.13.build.lib.linux-i686-2.7.OpenSSL.test.util",
    "pyOpenSSL-0.13",
    "doc.tools.custlib",
    "tools.buildindex",
    "test.util",
    "franken_generate",
    "doc.tools.refcounts",
    "test_ssl_server",
    "examples",
    "examples.SecureXMLRPCServer",
    "sgmlconv.latex2esis",
    "latex2esis",
    "simple.client",
    "pyOpenSSL-0.13.doc.tools.indfix",
    "pyOpenSSL-0.13.examples.simple.server",
    "version",
    "tools.indfix",
    "refcounts",
    "simple.server",
    "pyOpenSSL-0.13.OpenSSL.test",
    "test.test_rand",
    "esistools",
    "doc.tools.buildindex",
    "doc.tools.keywords",
    "build.lib.linux-i686-2.7.OpenSSL.test.util",
    "sgmlconv.esis2sgml",
    "lib.linux-i686-2.7.OpenSSL.test.util",
    "OpenSSL.test.test_crypto",
    "utils.test_ssl_server",
    "pyOpenSSL-0.13.OpenSSL.test.util",
    "pyOpenSSL-0.13.doc",
    "frankengen.franken_generate",
    "OpenSSL.test",
    "examples.simple.server",
    "frankengen.franken_core",
    "build.lib.linux-i686-2.7.OpenSSL.test.test_rand",
    "examples.proxy",
    "pyOpenSSL-0.13.doc.tools.cvsinfo",
    "lib.linux-i686-2.7.OpenSSL",
    "pyOpenSSL-0.13.examples.simple",
    "build.lib.linux-i686-2.7.OpenSSL.version",
    "doc.tools.sgmlconv.docfixer",
    "test_rand",
    "tools.sgmlconv.esis2sgml",
    "simple",
    "sni.server",
    "OpenSSL.version",
    "pyOpenSSL-0.13.examples.sni.server",
    "examples.sni",
    "lib.linux-i686-2.7.OpenSSL.test.test_rand",
    "tools",
    "tools.toc2bkm",
    "pyOpenSSL-0.13.doc.tools.sgmlconv.docfixer",
    "docfixer",
    "support",
    "pyOpenSSL-0.13.doc.tools.sgmlconv",
    "pyOpenSSL-0.13.build.lib.linux-i686-2.7.OpenSSL.version",
    "lib.linux-i686-2.7.OpenSSL.version",
    "pyOpenSSL-0.13.doc.tools.custlib",
    "tools.cvsinfo",
    "examples.simple.client",
    "pyOpenSSL-0.13.examples.simple.client",
    "OpenSSL.tsafe",
    "test_crypto",
    "franken_conf_parse",
    "pyOpenSSL-0.13.doc.tools",
    "lib.linux-i686-2.7",
    "OpenSSL.test.test_rand",
    "anno-api",
    "build.lib.linux-i686-2.7.OpenSSL.tsafe",
    "frankengen.franken_conf_parse",
    "build.lib.linux-i686-2.7.OpenSSL.test",
    "tools.keywords",
    "lib.linux-i686-2.7.OpenSSL.test.test_ssl",
    "pyOpenSSL-0.13.examples.SecureXMLRPCServer",
    "doc.tools.sgmlconv",
    "cvsinfo",
    "pyOpenSSL-0.13.build.lib.linux-i686-2.7.OpenSSL.tsafe",
    "doc.tools.cvsinfo",
    "build.lib.linux-i686-2.7",
    "franken_util",
    "pyOpenSSL-0.13.examples.proxy",
    "pyOpenSSL-0.13.OpenSSL.tsafe",
    "pyOpenSSL-0.13.examples.sni",
    "examples.sni.server",
    "test.test_crypto",
    "cert_print",
    "proxy",
    "pyOpenSSL-0.13.build.lib.linux-i686-2.7.OpenSSL.test.test_rand",
    "certgen",
    "OpenSSL.test.test_ssl",
    "pyOpenSSL-0.13.doc.tools.sgmlconv.esis2sgml",
    "pyOpenSSL-0.13.examples.sni.client",
    "utils",
    "pyOpenSSL-0.13.doc.tools.toc2bkm",
    "pyOpenSSL-0.13.build.lib.linux-i686-2.7.OpenSSL",
    "sni.client",
    "frankengen",
    "OpenSSL",
    "doc.tools.sgmlconv.latex2esis",
    "test.test_ssl",
    "examples.mk_simple_certs",
    "tools.support",
    "build",
    "custlib",
    "test",
    "doc.tools.indfix",
    "doc.tools",
    "tools.custlib",
    "pyOpenSSL-0.13.build.lib.linux-i686-2.7.OpenSSL.test.test_ssl",
    "build.lib.linux-i686-2.7.OpenSSL",
    "pyOpenSSL-0.13.OpenSSL",
    "tools.anno-api",
    "lib.linux-i686-2.7.OpenSSL.test",
    "sni",
    "pyOpenSSL-0.13.doc.tools.support",
    "sgmlconv",
    "pyOpenSSL-0.13.build.lib.linux-i686-2.7",
    "pyOpenSSL-0.13.OpenSSL.test.test_ssl",
    "buildindex",
    "tools.sgmlconv.docfixer",
    "tools.sgmlconv.esistools",
    "doc",
    "esis2sgml",
    "client",
    "pyOpenSSL-0.13.doc.tools.sgmlconv.esistools",
    "doc.tools.support"
]