{
    "archive_url": "https://api.github.com/repos/hlamer/enki/{archive_format}{/ref}",
    "assignees_url": "https://api.github.com/repos/hlamer/enki/assignees{/user}",
    "blobs_url": "https://api.github.com/repos/hlamer/enki/git/blobs{/sha}",
    "branches_url": "https://api.github.com/repos/hlamer/enki/branches{/branch}",
    "clone_url": "https://github.com/hlamer/enki.git",
    "collaborators_url": "https://api.github.com/repos/hlamer/enki/collaborators{/collaborator}",
    "comments_url": "https://api.github.com/repos/hlamer/enki/comments{/number}",
    "commits_url": "https://api.github.com/repos/hlamer/enki/commits{/sha}",
    "compare_url": "https://api.github.com/repos/hlamer/enki/compare/{base}...{head}",
    "contents_url": "https://api.github.com/repos/hlamer/enki/contents/{+path}",
    "contributors_url": "https://api.github.com/repos/hlamer/enki/contributors",
    "created_at": "2010-09-28T19:58:56Z",
    "default_branch": "master",
    "description": "A text editor for programmers",
    "downloads_url": "https://api.github.com/repos/hlamer/enki/downloads",
    "events_url": "https://api.github.com/repos/hlamer/enki/events",
    "fork": false,
    "forks": 10,
    "forks_count": 10,
    "forks_url": "https://api.github.com/repos/hlamer/enki/forks",
    "full_name": "hlamer/enki",
    "git_commits_url": "https://api.github.com/repos/hlamer/enki/git/commits{/sha}",
    "git_refs_url": "https://api.github.com/repos/hlamer/enki/git/refs{/sha}",
    "git_tags_url": "https://api.github.com/repos/hlamer/enki/git/tags{/sha}",
    "git_url": "git://github.com/hlamer/enki.git",
    "has_downloads": true,
    "has_issues": true,
    "has_wiki": true,
    "homepage": "http://enki-editor.org",
    "hooks_url": "https://api.github.com/repos/hlamer/enki/hooks",
    "html_url": "https://github.com/hlamer/enki",
    "id": 946503,
    "issue_comment_url": "https://api.github.com/repos/hlamer/enki/issues/comments/{number}",
    "issue_events_url": "https://api.github.com/repos/hlamer/enki/issues/events{/number}",
    "issues_url": "https://api.github.com/repos/hlamer/enki/issues{/number}",
    "keys_url": "https://api.github.com/repos/hlamer/enki/keys{/key_id}",
    "labels_url": "https://api.github.com/repos/hlamer/enki/labels{/name}",
    "language": "Python",
    "languages_url": "https://api.github.com/repos/hlamer/enki/languages",
    "merges_url": "https://api.github.com/repos/hlamer/enki/merges",
    "milestones_url": "https://api.github.com/repos/hlamer/enki/milestones{/number}",
    "mirror_url": null,
    "name": "enki",
    "notifications_url": "https://api.github.com/repos/hlamer/enki/notifications{?since,all,participating}",
    "open_issues": 29,
    "open_issues_count": 29,
    "owner": {
        "avatar_url": "https://avatars.githubusercontent.com/u/419720?",
        "events_url": "https://api.github.com/users/hlamer/events{/privacy}",
        "followers_url": "https://api.github.com/users/hlamer/followers",
        "following_url": "https://api.github.com/users/hlamer/following{/other_user}",
        "gists_url": "https://api.github.com/users/hlamer/gists{/gist_id}",
        "gravatar_id": "01fb49531d8d7e5f59aa0c00a4b975a7",
        "html_url": "https://github.com/hlamer",
        "id": 419720,
        "login": "hlamer",
        "organizations_url": "https://api.github.com/users/hlamer/orgs",
        "received_events_url": "https://api.github.com/users/hlamer/received_events",
        "repos_url": "https://api.github.com/users/hlamer/repos",
        "site_admin": false,
        "starred_url": "https://api.github.com/users/hlamer/starred{/owner}{/repo}",
        "subscriptions_url": "https://api.github.com/users/hlamer/subscriptions",
        "type": "User",
        "url": "https://api.github.com/users/hlamer"
    },
    "private": false,
    "pulls_url": "https://api.github.com/repos/hlamer/enki/pulls{/number}",
    "pushed_at": "2014-05-06T17:52:08Z",
    "releases_url": "https://api.github.com/repos/hlamer/enki/releases{/id}",
    "score": 1.0,
    "size": 23401,
    "ssh_url": "git@github.com:hlamer/enki.git",
    "stargazers_count": 58,
    "stargazers_url": "https://api.github.com/repos/hlamer/enki/stargazers",
    "statuses_url": "https://api.github.com/repos/hlamer/enki/statuses/{sha}",
    "subscribers_url": "https://api.github.com/repos/hlamer/enki/subscribers",
    "subscription_url": "https://api.github.com/repos/hlamer/enki/subscription",
    "svn_url": "https://github.com/hlamer/enki",
    "tags_url": "https://api.github.com/repos/hlamer/enki/tags",
    "teams_url": "https://api.github.com/repos/hlamer/enki/teams",
    "trees_url": "https://api.github.com/repos/hlamer/enki/git/trees{/sha}",
    "updated_at": "2014-05-06T17:52:10Z",
    "url": "https://api.github.com/repos/hlamer/enki",
    "watchers": 58,
    "watchers_count": 58
}