{
    "libs": [
        "cl",
        "unicode_literals",
        "twitter",
        "datetime",
        "parse",
        "conf",
        "moves",
        "tools",
        "cache",
        "urllib",
        "re",
        "json",
        "template",
        "unittest",
        "mock",
        "sure",
        "warnings",
        "urllib2",
        "appconf",
        "logging",
        "httpretty",
        "django",
        "error"
    ]
}