[
    "tests",
    "templatetags.twitter_tag",
    "models",
    "utils",
    "twitter_tag.templatetags",
    "twitter_tag.utils",
    "test_tag",
    "twitter_tag.models",
    "test_settings",
    "templatetags",
    "tests.test_tag",
    "twitter_tag",
    "tests.utils",
    "twitter_tag.test_settings",
    "test_functional",
    "tests.test_functional",
    "twitter_tag.templatetags.twitter_tag"
]