[
    "gruvi.txdbus",
    "gruvi.dbus",
    "perf_fibers",
    "sslcompat",
    "tests.txdbus.test_message",
    "tests.test_sync",
    "gruvi.jsonrpc_ffi",
    "echoserver1",
    "futures",
    "echoserver2",
    "gruvi.http",
    "test_util",
    "message",
    "jsonrpc_ffi",
    "tests.perf_http",
    "support",
    "txdbus.message",
    "gruvi",
    "tests.perf_ssl",
    "txdbus.authentication",
    "gruvi.txdbus.message",
    "perf_dbus",
    "protocols",
    "memory",
    "gruvi.txdbus.marshal",
    "test_jsonrpc",
    "local",
    "tests.test_util",
    "tests.perf_dbus",
    "examples.echoserver1",
    "tests",
    "examples.netcat1",
    "fibers",
    "hub",
    "gruvi.endpoints",
    "docs",
    "test_ssl",
    "tests.test_fibers",
    "test_fibers",
    "util",
    "gruvi.protocols",
    "tests.memory",
    "gruvi.stream",
    "jsonrpc",
    "gruvi.sync",
    "docs.conf",
    "tests.test_transports",
    "gruvi.errors",
    "test_marshal",
    "netcat2",
    "dbus",
    "netcat1",
    "tests.perf_jsonrpc",
    "gruvi.socketpair",
    "test_http",
    "txdbus.test_message",
    "txdbus.error",
    "error",
    "endpoints",
    "gruvi.txdbus.authentication",
    "gruvi.jsonrpc",
    "txdbus.test_marshal",
    "examples.netcat2",
    "tests.test_dbus",
    "test_futures",
    "stream",
    "gruvi.transports",
    "sync",
    "gruvi.util",
    "examples.webserver",
    "examples.echoserver2",
    "examples",
    "perf_ssl",
    "test_stream",
    "curl",
    "tests.test_hub",
    "compat",
    "tests.perf_fibers",
    "errors",
    "http_ffi",
    "gruvi.hub",
    "tests.support",
    "runtests",
    "txdbus.marshal",
    "gruvi.futures",
    "authentication",
    "test_transports",
    "gruvi.local",
    "socketpair",
    "gruvi.ssl",
    "test_hub",
    "tests.test_futures",
    "tests.test_local",
    "http",
    "perf_http",
    "conf",
    "test_dbus",
    "webserver",
    "logging",
    "test_sync",
    "perf_jsonrpc",
    "tests.test_jsonrpc",
    "txdbus",
    "gruvi.fibers",
    "ssl",
    "tests.test_http",
    "gruvi.sslcompat",
    "documentation",
    "tests.documentation",
    "tests.txdbus.test_marshal",
    "marshal",
    "gruvi.compat",
    "tests.test_ssl",
    "gruvi.txdbus.error",
    "test_message",
    "gruvi.http_ffi",
    "test_local",
    "tests.test_stream",
    "transports",
    "tests.txdbus",
    "examples.curl",
    "gruvi.logging"
]