{
    "archive_url": "https://api.github.com/repos/bigmlcom/python/{archive_format}{/ref}",
    "assignees_url": "https://api.github.com/repos/bigmlcom/python/assignees{/user}",
    "blobs_url": "https://api.github.com/repos/bigmlcom/python/git/blobs{/sha}",
    "branches_url": "https://api.github.com/repos/bigmlcom/python/branches{/branch}",
    "clone_url": "https://github.com/bigmlcom/python.git",
    "collaborators_url": "https://api.github.com/repos/bigmlcom/python/collaborators{/collaborator}",
    "comments_url": "https://api.github.com/repos/bigmlcom/python/comments{/number}",
    "commits_url": "https://api.github.com/repos/bigmlcom/python/commits{/sha}",
    "compare_url": "https://api.github.com/repos/bigmlcom/python/compare/{base}...{head}",
    "contents_url": "https://api.github.com/repos/bigmlcom/python/contents/{+path}",
    "contributors_url": "https://api.github.com/repos/bigmlcom/python/contributors",
    "created_at": "2012-05-01T20:42:24Z",
    "default_branch": "next",
    "description": "Simple Python bindings for BigML.io",
    "downloads_url": "https://api.github.com/repos/bigmlcom/python/downloads",
    "events_url": "https://api.github.com/repos/bigmlcom/python/events",
    "fork": false,
    "forks": 43,
    "forks_count": 43,
    "forks_url": "https://api.github.com/repos/bigmlcom/python/forks",
    "full_name": "bigmlcom/python",
    "git_commits_url": "https://api.github.com/repos/bigmlcom/python/git/commits{/sha}",
    "git_refs_url": "https://api.github.com/repos/bigmlcom/python/git/refs{/sha}",
    "git_tags_url": "https://api.github.com/repos/bigmlcom/python/git/tags{/sha}",
    "git_url": "git://github.com/bigmlcom/python.git",
    "has_downloads": true,
    "has_issues": false,
    "has_wiki": false,
    "homepage": null,
    "hooks_url": "https://api.github.com/repos/bigmlcom/python/hooks",
    "html_url": "https://github.com/bigmlcom/python",
    "id": 4196332,
    "issue_comment_url": "https://api.github.com/repos/bigmlcom/python/issues/comments/{number}",
    "issue_events_url": "https://api.github.com/repos/bigmlcom/python/issues/events{/number}",
    "issues_url": "https://api.github.com/repos/bigmlcom/python/issues{/number}",
    "keys_url": "https://api.github.com/repos/bigmlcom/python/keys{/key_id}",
    "labels_url": "https://api.github.com/repos/bigmlcom/python/labels{/name}",
    "language": "Python",
    "languages_url": "https://api.github.com/repos/bigmlcom/python/languages",
    "merges_url": "https://api.github.com/repos/bigmlcom/python/merges",
    "milestones_url": "https://api.github.com/repos/bigmlcom/python/milestones{/number}",
    "mirror_url": null,
    "name": "python",
    "notifications_url": "https://api.github.com/repos/bigmlcom/python/notifications{?since,all,participating}",
    "open_issues": 0,
    "open_issues_count": 0,
    "owner": {
        "avatar_url": "https://avatars.githubusercontent.com/u/702185?",
        "events_url": "https://api.github.com/users/bigmlcom/events{/privacy}",
        "followers_url": "https://api.github.com/users/bigmlcom/followers",
        "following_url": "https://api.github.com/users/bigmlcom/following{/other_user}",
        "gists_url": "https://api.github.com/users/bigmlcom/gists{/gist_id}",
        "gravatar_id": "eb3ca1595f96014db2fd56a3e4ccfb1b",
        "html_url": "https://github.com/bigmlcom",
        "id": 702185,
        "login": "bigmlcom",
        "organizations_url": "https://api.github.com/users/bigmlcom/orgs",
        "received_events_url": "https://api.github.com/users/bigmlcom/received_events",
        "repos_url": "https://api.github.com/users/bigmlcom/repos",
        "site_admin": false,
        "starred_url": "https://api.github.com/users/bigmlcom/starred{/owner}{/repo}",
        "subscriptions_url": "https://api.github.com/users/bigmlcom/subscriptions",
        "type": "Organization",
        "url": "https://api.github.com/users/bigmlcom"
    },
    "private": false,
    "pulls_url": "https://api.github.com/repos/bigmlcom/python/pulls{/number}",
    "pushed_at": "2014-05-06T23:19:27Z",
    "releases_url": "https://api.github.com/repos/bigmlcom/python/releases{/id}",
    "score": 1.0,
    "size": 1466,
    "ssh_url": "git@github.com:bigmlcom/python.git",
    "stargazers_count": 156,
    "stargazers_url": "https://api.github.com/repos/bigmlcom/python/stargazers",
    "statuses_url": "https://api.github.com/repos/bigmlcom/python/statuses/{sha}",
    "subscribers_url": "https://api.github.com/repos/bigmlcom/python/subscribers",
    "subscription_url": "https://api.github.com/repos/bigmlcom/python/subscription",
    "svn_url": "https://github.com/bigmlcom/python",
    "tags_url": "https://api.github.com/repos/bigmlcom/python/tags",
    "teams_url": "https://api.github.com/repos/bigmlcom/python/teams",
    "trees_url": "https://api.github.com/repos/bigmlcom/python/git/trees{/sha}",
    "updated_at": "2014-05-07T00:38:29Z",
    "url": "https://api.github.com/repos/bigmlcom/python",
    "watchers": 156,
    "watchers_count": 156
}