[
    "backends.file",
    "totpcgi.backends.mysql",
    "utils",
    "gitolite.command",
    "contrib.gitolite.vref",
    "file",
    "mysql",
    "contrib",
    "backends.mysql",
    "vref",
    "totpcgi.backends",
    "contrib.totpprov",
    "totpcgi.backends.ldap",
    "totpprov",
    "totpcgi",
    "backends",
    "totpcgi.backends.pgsql",
    "totpcgi.backends.file",
    "backends.ldap",
    "gitolite",
    "command",
    "totpcgi.utils",
    "ldap",
    "test",
    "contrib.gitolite",
    "backends.pgsql",
    "contrib.gitolite.command",
    "gitolite.vref",
    "pgsql"
]