{
    "libs": [
        "winreg",
        "locale",
        "subprocess",
        "sys",
        "_winreg",
        "ctypes",
        "sublime_plugin",
        "os",
        "sublime"
    ]
}