{
    "archive_url": "https://api.github.com/repos/gtaylor/django-dynamodb-sessions/{archive_format}{/ref}",
    "assignees_url": "https://api.github.com/repos/gtaylor/django-dynamodb-sessions/assignees{/user}",
    "blobs_url": "https://api.github.com/repos/gtaylor/django-dynamodb-sessions/git/blobs{/sha}",
    "branches_url": "https://api.github.com/repos/gtaylor/django-dynamodb-sessions/branches{/branch}",
    "clone_url": "https://github.com/gtaylor/django-dynamodb-sessions.git",
    "collaborators_url": "https://api.github.com/repos/gtaylor/django-dynamodb-sessions/collaborators{/collaborator}",
    "comments_url": "https://api.github.com/repos/gtaylor/django-dynamodb-sessions/comments{/number}",
    "commits_url": "https://api.github.com/repos/gtaylor/django-dynamodb-sessions/commits{/sha}",
    "compare_url": "https://api.github.com/repos/gtaylor/django-dynamodb-sessions/compare/{base}...{head}",
    "contents_url": "https://api.github.com/repos/gtaylor/django-dynamodb-sessions/contents/{+path}",
    "contributors_url": "https://api.github.com/repos/gtaylor/django-dynamodb-sessions/contributors",
    "created_at": "2012-01-18T15:46:56Z",
    "default_branch": "master",
    "description": "A Django session backend for Amazon's DynamoDB",
    "downloads_url": "https://api.github.com/repos/gtaylor/django-dynamodb-sessions/downloads",
    "events_url": "https://api.github.com/repos/gtaylor/django-dynamodb-sessions/events",
    "fork": false,
    "forks": 10,
    "forks_count": 10,
    "forks_url": "https://api.github.com/repos/gtaylor/django-dynamodb-sessions/forks",
    "full_name": "gtaylor/django-dynamodb-sessions",
    "git_commits_url": "https://api.github.com/repos/gtaylor/django-dynamodb-sessions/git/commits{/sha}",
    "git_refs_url": "https://api.github.com/repos/gtaylor/django-dynamodb-sessions/git/refs{/sha}",
    "git_tags_url": "https://api.github.com/repos/gtaylor/django-dynamodb-sessions/git/tags{/sha}",
    "git_url": "git://github.com/gtaylor/django-dynamodb-sessions.git",
    "has_downloads": true,
    "has_issues": true,
    "has_wiki": false,
    "homepage": "http://pypi.python.org/pypi/django-dynamodb-sessions/",
    "hooks_url": "https://api.github.com/repos/gtaylor/django-dynamodb-sessions/hooks",
    "html_url": "https://github.com/gtaylor/django-dynamodb-sessions",
    "id": 3209791,
    "issue_comment_url": "https://api.github.com/repos/gtaylor/django-dynamodb-sessions/issues/comments/{number}",
    "issue_events_url": "https://api.github.com/repos/gtaylor/django-dynamodb-sessions/issues/events{/number}",
    "issues_url": "https://api.github.com/repos/gtaylor/django-dynamodb-sessions/issues{/number}",
    "keys_url": "https://api.github.com/repos/gtaylor/django-dynamodb-sessions/keys{/key_id}",
    "labels_url": "https://api.github.com/repos/gtaylor/django-dynamodb-sessions/labels{/name}",
    "language": "Python",
    "languages_url": "https://api.github.com/repos/gtaylor/django-dynamodb-sessions/languages",
    "merges_url": "https://api.github.com/repos/gtaylor/django-dynamodb-sessions/merges",
    "milestones_url": "https://api.github.com/repos/gtaylor/django-dynamodb-sessions/milestones{/number}",
    "mirror_url": null,
    "name": "django-dynamodb-sessions",
    "notifications_url": "https://api.github.com/repos/gtaylor/django-dynamodb-sessions/notifications{?since,all,participating}",
    "open_issues": 2,
    "open_issues_count": 2,
    "owner": {
        "avatar_url": "https://avatars.githubusercontent.com/u/75556?",
        "events_url": "https://api.github.com/users/gtaylor/events{/privacy}",
        "followers_url": "https://api.github.com/users/gtaylor/followers",
        "following_url": "https://api.github.com/users/gtaylor/following{/other_user}",
        "gists_url": "https://api.github.com/users/gtaylor/gists{/gist_id}",
        "gravatar_id": "ef88574e80c9c4674666ab612e6fa480",
        "html_url": "https://github.com/gtaylor",
        "id": 75556,
        "login": "gtaylor",
        "organizations_url": "https://api.github.com/users/gtaylor/orgs",
        "received_events_url": "https://api.github.com/users/gtaylor/received_events",
        "repos_url": "https://api.github.com/users/gtaylor/repos",
        "site_admin": false,
        "starred_url": "https://api.github.com/users/gtaylor/starred{/owner}{/repo}",
        "subscriptions_url": "https://api.github.com/users/gtaylor/subscriptions",
        "type": "User",
        "url": "https://api.github.com/users/gtaylor"
    },
    "private": false,
    "pulls_url": "https://api.github.com/repos/gtaylor/django-dynamodb-sessions/pulls{/number}",
    "pushed_at": "2013-03-01T15:49:09Z",
    "releases_url": "https://api.github.com/repos/gtaylor/django-dynamodb-sessions/releases{/id}",
    "score": 1.0,
    "size": 132,
    "ssh_url": "git@github.com:gtaylor/django-dynamodb-sessions.git",
    "stargazers_count": 51,
    "stargazers_url": "https://api.github.com/repos/gtaylor/django-dynamodb-sessions/stargazers",
    "statuses_url": "https://api.github.com/repos/gtaylor/django-dynamodb-sessions/statuses/{sha}",
    "subscribers_url": "https://api.github.com/repos/gtaylor/django-dynamodb-sessions/subscribers",
    "subscription_url": "https://api.github.com/repos/gtaylor/django-dynamodb-sessions/subscription",
    "svn_url": "https://github.com/gtaylor/django-dynamodb-sessions",
    "tags_url": "https://api.github.com/repos/gtaylor/django-dynamodb-sessions/tags",
    "teams_url": "https://api.github.com/repos/gtaylor/django-dynamodb-sessions/teams",
    "trees_url": "https://api.github.com/repos/gtaylor/django-dynamodb-sessions/git/trees{/sha}",
    "updated_at": "2013-11-28T13:10:07Z",
    "url": "https://api.github.com/repos/gtaylor/django-dynamodb-sessions",
    "watchers": 51,
    "watchers_count": 51
}