[
    "ffmpeg_tools",
    "moviepy.video",
    "moviepy.video.io.VideoFileClip",
    "ffmpeg_audiowriter",
    "VideoFileClip",
    "masked_credits",
    "io.ffmpeg_audiowriter",
    "moviepy.audio.io.readers",
    "colorx",
    "video.fx",
    "examples.ukulele_concerto",
    "audio.io.readers",
    "version",
    "audio.fx.audio_fadein",
    "audio.fx",
    "audio.AudioClip",
    "video.compositing.transitions",
    "fx.mirror_y",
    "fx.mirror_x",
    "video.io.ImageSequenceClip",
    "fadein",
    "moviepy.video.fx.fadeout",
    "moviepy.video.io.ffmpeg_reader",
    "io.ffmpeg_writer",
    "decorators",
    "video.io.ffmpeg_writer",
    "fadeout",
    "mirror_x",
    "mirror_y",
    "fx.make_loopable",
    "examples.logo",
    "video.fx.fadeout",
    "video.fx.blackwhite",
    "audio.io.AudioFileClip",
    "crop",
    "examples.the_end",
    "video",
    "moviepy.video.io.preview",
    "audio.io",
    "examples.star_worms",
    "video.io.imageMagick_tools",
    "compo_from_image",
    "moviepy.video.fx.rotation",
    "the_end",
    "video.io.ffmpeg_tools",
    "examples.example_with_sound",
    "video.fx.time_mirror",
    "video.fx.colorx",
    "moviepy.video.tools.tracking",
    "concatenate",
    "fx.fadein",
    "moviepy.video.fx.scroll",
    "ukulele_concerto",
    "compositing.transitions",
    "moviepy.audio.io.preview",
    "examples.compo_from_image",
    "credits",
    "moviepy.video.fx.colorx",
    "CompositeVideoClip",
    "moviepy.audio.io.AudioFileClip",
    "fx.time_mirror",
    "video.compositing.CompositeVideoClip",
    "fx.crop",
    "moviepy.video.fx.time_symetrize",
    "moviepy.video.io.sliders",
    "ffmpeg_writer",
    "moviepy.video.fx.headblur",
    "fx.margin",
    "video.fx.mirror_x",
    "video.fx.mirror_y",
    "moviepy.video.compositing.concatenate",
    "video.VideoClip",
    "tools",
    "io.AudioFileClip",
    "moviepy",
    "preview",
    "video.fx.margin",
    "video.io.ffmpeg_reader",
    "even_size",
    "moviepy.video.fx.lum_contrast",
    "tools.segmenting",
    "make_loopable",
    "moviepy.video.tools.segmenting",
    "resize",
    "video.fx.gamma_corr",
    "moviepy.video.fx.even_size",
    "moviepy.video.fx.gamma_corr",
    "fx.even_size",
    "fx.gamma_corr",
    "video.tools",
    "moviepy.video.tools.drawing",
    "moviepy.audio.io.ffmpeg_audiowriter",
    "margin",
    "loop",
    "lum_contrast",
    "examples.clips_array",
    "tests.tests",
    "video.compositing.on_color",
    "freeze_at_end",
    "positioning",
    "video.fx.rotation",
    "video.fx.painting",
    "moviepy.version",
    "fx.blink",
    "io.preview",
    "conf",
    "video.fx.resize",
    "moviepy.video.fx.fadein",
    "fx.freeze_at_end",
    "moviepy.video.fx.resize",
    "sliders",
    "moviepy.video.compositing.transitions",
    "fx.fadeout",
    "audio.fx.audio_fadeout",
    "segmenting",
    "moviepy.tools",
    "io",
    "fx",
    "moviepy.video.fx.loop",
    "soundtrack",
    "moviepy.video.io",
    "video.io",
    "tracking",
    "moviepy.video.fx.make_loopable",
    "fx.headblur",
    "video.compositing.positioning",
    "video.io.VideoFileClip",
    "examples.headblur",
    "moviepy.video.tools",
    "audio",
    "drawing",
    "audio.fx.audio_left_right",
    "video.fx.freeze_at_end",
    "video.fx.scroll",
    "fx.colorx",
    "video.tools.segmenting",
    "test_install",
    "video.fx.time_symetrize",
    "fx.audio_fadein",
    "video.compositing",
    "video.fx.freeze_at_start",
    "ffmpeg_reader",
    "readers",
    "io.ffmpeg_tools",
    "star_worms",
    "moviepy.audio.AudioClip",
    "video.tools.tracking",
    "tools.tracking",
    "moviepy.Clip",
    "tests",
    "examples.moving_letters",
    "docs",
    "moviepy.video.fx.painting",
    "time_symetrize",
    "moviepy.video.fx.blackwhite",
    "io.ImageSequenceClip",
    "example_with_sound",
    "clips_array",
    "moviepy.video.io.ImageSequenceClip",
    "rotation",
    "docs.conf",
    "fx.resize",
    "video.io.preview",
    "AudioClip",
    "fx.painting",
    "video.fx.headblur",
    "fx.blackwhite",
    "on_color",
    "moviepy.video.VideoClip",
    "io.sliders",
    "moviepy.video.fx",
    "VideoClip",
    "moviepy.video.io.ffmpeg_tools",
    "examples",
    "moviepy.video.tools.credits",
    "tests.test_install",
    "moviepy.audio",
    "logo",
    "compositing.concatenate",
    "transitions",
    "painting_effect",
    "fx.volumex",
    "fx.lum_contrast",
    "video.fx.blink",
    "audio.io.ffmpeg_audiowriter",
    "video.fx.speedx",
    "fx.time_symetrize",
    "moviepy.video.compositing.positioning",
    "time_mirror",
    "compositing",
    "fx.loop",
    "compositing.on_color",
    "fx.scroll",
    "Clip",
    "video.fx.crop",
    "audio_fadein",
    "moviepy.editor",
    "examples.painting_effect",
    "speedx",
    "moviepy.video.fx.time_mirror",
    "moviepy.video.fx.blink",
    "audio_left_right",
    "ImageSequenceClip",
    "moviepy.video.fx.mirror_y",
    "moviepy.video.fx.mirror_x",
    "blink",
    "tools.credits",
    "imageMagick_tools",
    "video.fx.fadein",
    "video.fx.lum_contrast",
    "video.io.sliders",
    "video.tools.credits",
    "moviepy.video.fx.freeze_at_start",
    "audio.io.preview",
    "editor",
    "moviepy.video.compositing.on_color",
    "fx.speedx",
    "io.ffmpeg_reader",
    "compositing.positioning",
    "moviepy.video.fx.margin",
    "audio.fx.volumex",
    "moviepy.audio.fx.audio_left_right",
    "moviepy.video.io.imageMagick_tools",
    "fx.audio_fadeout",
    "tools.drawing",
    "video.tools.drawing",
    "fx.audio_left_right",
    "fx.rotation",
    "examples.masked_credits",
    "moviepy.audio.io",
    "audio_fadeout",
    "io.VideoFileClip",
    "video.fx.make_loopable",
    "moviepy.video.fx.crop",
    "moviepy.video.compositing.CompositeVideoClip",
    "video.compositing.concatenate",
    "video.fx.even_size",
    "io.imageMagick_tools",
    "freeze_at_start",
    "moviepy.conf",
    "moving_letters",
    "headblur",
    "moviepy.video.io.ffmpeg_writer",
    "moviepy.audio.fx.audio_fadein",
    "compositing.CompositeVideoClip",
    "moviepy.video.fx.speedx",
    "moviepy.audio.fx.volumex",
    "fx.freeze_at_start",
    "io.readers",
    "gamma_corr",
    "AudioFileClip",
    "moviepy.decorators",
    "moviepy.audio.fx",
    "video.fx.loop",
    "examples.soundtrack",
    "scroll",
    "moviepy.video.compositing",
    "moviepy.audio.fx.audio_fadeout",
    "moviepy.video.fx.freeze_at_end",
    "painting",
    "volumex",
    "blackwhite"
]