[
    "operations",
    "tests.suite",
    "resolver",
    "riak.riak_object",
    "riak_object",
    "riak.resolver",
    "tests.test_btypes",
    "test_comparison",
    "riak.transports.pbc.connection",
    "test_mapreduce",
    "transports.http.search",
    "http.stream",
    "http.codec",
    "tests.pool-grinder",
    "riak.client.multiget",
    "suite",
    "resources",
    "transports.transport",
    "tests",
    "riak.multidict",
    "docs",
    "riak.transports.pbc.codec",
    "util",
    "riak.content",
    "riak.tests.test_mapreduce",
    "tests.test_mapreduce",
    "riak.transports.pbc.stream",
    "docs.conf",
    "riak.mapreduce",
    "test_search",
    "riak.transports.transport",
    "test_yokozuna",
    "mapreduce",
    "http.resources",
    "pbc",
    "transports.pbc",
    "tests.test_filters",
    "test_all",
    "riak.tests.test_search",
    "riak.transports.http.connection",
    "riak.tests.suite",
    "test_server_test",
    "riak.transports.http.codec",
    "client.transport",
    "riak.test_server",
    "transports.http.resources",
    "tests.test_all",
    "transport",
    "http.connection",
    "transports.http.transport",
    "riak.tests.test_yokozuna",
    "tests.test_comparison",
    "riak.benchmark",
    "content",
    "riak.tests.test_pool",
    "version",
    "client.operations",
    "pbc.stream",
    "riak.transports.http.resources",
    "riak.tests.test_feature_detection",
    "riak.tests.pool-grinder",
    "riak.bucket",
    "tests.test_pool",
    "search",
    "tests.test_yokozuna",
    "transports.http.codec",
    "test_feature_detection",
    "transports.http.stream",
    "tests.test_kv",
    "connection",
    "test_pool",
    "client.multiget",
    "riak.tests.test_comparison",
    "transports.pbc.transport",
    "riak.transports.http",
    "client.index_page",
    "pbc.transport",
    "transports.feature_detect",
    "riak.client.transport",
    "riak.tests.test_kv",
    "http.transport",
    "test_2i",
    "pool-grinder",
    "benchmark",
    "commands",
    "test_btypes",
    "riak.client",
    "riak.tests.test_all",
    "riak.tests.test_2i",
    "bucket",
    "http.search",
    "transports.http",
    "tests.test_feature_detection",
    "transports.pbc.codec",
    "riak.transports.feature_detect",
    "tests.test_search",
    "stream",
    "riak.tests.test_filters",
    "transports.pbc.stream",
    "index_page",
    "conf",
    "riak.client.index_page",
    "multiget",
    "transports.http.connection",
    "test_filters",
    "riak.transports.http.transport",
    "riak.tests.test_btypes",
    "riak.transports",
    "riak.util",
    "codec",
    "riak.transports.http.search",
    "riak.transports.pbc",
    "riak.tests",
    "multidict",
    "riak",
    "riak.transports.http.stream",
    "pbc.connection",
    "node",
    "http",
    "riak.search",
    "riak.node",
    "test_kv",
    "transports.pbc.connection",
    "feature_detect",
    "riak.client.operations",
    "tests.test_2i",
    "pool",
    "pbc.codec",
    "transports.pool",
    "tests.test_server_test",
    "riak.transports.pool",
    "client",
    "riak.tests.test_server_test",
    "test_server",
    "transports",
    "riak.transports.pbc.transport"
]