{
    "libs": [
        "mimetools",
        "cStringIO",
        "shortcuts",
        "functools",
        "stat",
        "datetime",
        "datetime_safe",
        "contrib",
        "selenium",
        "urllib",
        "re",
        "json",
        "template",
        "test",
        "mimetypes",
        "http",
        "defaults",
        "simplejson",
        "warnings",
        "keys",
        "db",
        "urllib2",
        "sys",
        "exceptions",
        "translation",
        "util",
        "b",
        "logging",
        "StringIO",
        "h",
        "safestring",
        "modelsinspector",
        "django",
        "urlparse",
        "optparse",
        "defaultfilters",
        "client",
        "context",
        "time",
        "urlresolvers",
        "os",
        "hmac"
    ]
}