{
    "archive_url": "https://api.github.com/repos/dustin/bindir/{archive_format}{/ref}",
    "assignees_url": "https://api.github.com/repos/dustin/bindir/assignees{/user}",
    "blobs_url": "https://api.github.com/repos/dustin/bindir/git/blobs{/sha}",
    "branches_url": "https://api.github.com/repos/dustin/bindir/branches{/branch}",
    "clone_url": "https://github.com/dustin/bindir.git",
    "collaborators_url": "https://api.github.com/repos/dustin/bindir/collaborators{/collaborator}",
    "comments_url": "https://api.github.com/repos/dustin/bindir/comments{/number}",
    "commits_url": "https://api.github.com/repos/dustin/bindir/commits{/sha}",
    "compare_url": "https://api.github.com/repos/dustin/bindir/compare/{base}...{head}",
    "contents_url": "https://api.github.com/repos/dustin/bindir/contents/{+path}",
    "contributors_url": "https://api.github.com/repos/dustin/bindir/contributors",
    "created_at": "2009-01-11T21:12:00Z",
    "default_branch": "master",
    "description": "My ~/bin",
    "downloads_url": "https://api.github.com/repos/dustin/bindir/downloads",
    "events_url": "https://api.github.com/repos/dustin/bindir/events",
    "fork": false,
    "forks": 13,
    "forks_count": 13,
    "forks_url": "https://api.github.com/repos/dustin/bindir/forks",
    "full_name": "dustin/bindir",
    "git_commits_url": "https://api.github.com/repos/dustin/bindir/git/commits{/sha}",
    "git_refs_url": "https://api.github.com/repos/dustin/bindir/git/refs{/sha}",
    "git_tags_url": "https://api.github.com/repos/dustin/bindir/git/tags{/sha}",
    "git_url": "git://github.com/dustin/bindir.git",
    "has_downloads": true,
    "has_issues": true,
    "has_wiki": true,
    "homepage": "",
    "hooks_url": "https://api.github.com/repos/dustin/bindir/hooks",
    "html_url": "https://github.com/dustin/bindir",
    "id": 105435,
    "issue_comment_url": "https://api.github.com/repos/dustin/bindir/issues/comments/{number}",
    "issue_events_url": "https://api.github.com/repos/dustin/bindir/issues/events{/number}",
    "issues_url": "https://api.github.com/repos/dustin/bindir/issues{/number}",
    "keys_url": "https://api.github.com/repos/dustin/bindir/keys{/key_id}",
    "labels_url": "https://api.github.com/repos/dustin/bindir/labels{/name}",
    "language": "Python",
    "languages_url": "https://api.github.com/repos/dustin/bindir/languages",
    "merges_url": "https://api.github.com/repos/dustin/bindir/merges",
    "milestones_url": "https://api.github.com/repos/dustin/bindir/milestones{/number}",
    "mirror_url": null,
    "name": "bindir",
    "notifications_url": "https://api.github.com/repos/dustin/bindir/notifications{?since,all,participating}",
    "open_issues": 2,
    "open_issues_count": 2,
    "owner": {
        "avatar_url": "https://avatars.githubusercontent.com/u/1779?",
        "events_url": "https://api.github.com/users/dustin/events{/privacy}",
        "followers_url": "https://api.github.com/users/dustin/followers",
        "following_url": "https://api.github.com/users/dustin/following{/other_user}",
        "gists_url": "https://api.github.com/users/dustin/gists{/gist_id}",
        "gravatar_id": "995543cb35c3b92a2eb43275116815a7",
        "html_url": "https://github.com/dustin",
        "id": 1779,
        "login": "dustin",
        "organizations_url": "https://api.github.com/users/dustin/orgs",
        "received_events_url": "https://api.github.com/users/dustin/received_events",
        "repos_url": "https://api.github.com/users/dustin/repos",
        "site_admin": false,
        "starred_url": "https://api.github.com/users/dustin/starred{/owner}{/repo}",
        "subscriptions_url": "https://api.github.com/users/dustin/subscriptions",
        "type": "User",
        "url": "https://api.github.com/users/dustin"
    },
    "private": false,
    "pulls_url": "https://api.github.com/repos/dustin/bindir/pulls{/number}",
    "pushed_at": "2014-04-24T03:33:43Z",
    "releases_url": "https://api.github.com/repos/dustin/bindir/releases{/id}",
    "score": 1.0,
    "size": 3259,
    "ssh_url": "git@github.com:dustin/bindir.git",
    "stargazers_count": 93,
    "stargazers_url": "https://api.github.com/repos/dustin/bindir/stargazers",
    "statuses_url": "https://api.github.com/repos/dustin/bindir/statuses/{sha}",
    "subscribers_url": "https://api.github.com/repos/dustin/bindir/subscribers",
    "subscription_url": "https://api.github.com/repos/dustin/bindir/subscription",
    "svn_url": "https://github.com/dustin/bindir",
    "tags_url": "https://api.github.com/repos/dustin/bindir/tags",
    "teams_url": "https://api.github.com/repos/dustin/bindir/teams",
    "trees_url": "https://api.github.com/repos/dustin/bindir/git/trees{/sha}",
    "updated_at": "2014-04-24T03:33:43Z",
    "url": "https://api.github.com/repos/dustin/bindir",
    "watchers": 93,
    "watchers_count": 93
}