[
    "webapptest",
    "onko-mafia",
    "onko-mafia.icalendar.cal",
    "september",
    "film-festival.film-festival",
    "onko-mafia.icalendar.parser",
    "preferencevote",
    "fetcher",
    "lights-out.lights-out",
    "onko-voittoa",
    "feedtask",
    "tools",
    "september.september",
    "path-to-happiness.model",
    "limukassa.model",
    "preferencevote.preferencevote",
    "onko-voittoa.config",
    "good-morning-feeder.model",
    "limukassa.limukassa",
    "BeautifulSoup",
    "feedparser",
    "lottoparser",
    "film-festival",
    "make-schedule",
    "path-to-happiness",
    "parser",
    "formatobjects",
    "onko-voittoa.lottoparser",
    "lottorivitmodel",
    "onko-mafia.onko-mafia",
    "onko-mafia.icalformat",
    "lights-out",
    "util",
    "drinkcounter.drinkcounter",
    "icalendar.interfaces",
    "onko-mafia.formatobjects",
    "tools.quickstart",
    "good-morning-feeder.good-morning-feeder",
    "distributed-social-media",
    "onko-mafia.icalendar.util",
    "notebook.notebook",
    "icalformat",
    "icalendar.util",
    "film-festival.model",
    "cal",
    "good-morning-feeder.feedtask",
    "feeds",
    "itemmodel",
    "onko-mafia.icalendar",
    "film-festival.make-schedule",
    "quickstart",
    "icalendar.prop",
    "ATemplate.application",
    "icalendar.tools",
    "onko-mafia.formats",
    "icalendar.parser",
    "kunnon-kansalainen.kunnon-kansalainen",
    "icalendar.cal",
    "icalendar",
    "meme-factory.meme-factory",
    "onko-mafia.icalendar.tools",
    "notebook.notemodel",
    "limukassa",
    "onko-voittoa.fetcher",
    "prop",
    "application",
    "onko-mafia.icalendar.prop",
    "distributed-social-media.friendmodel",
    "icalendar.caselessdict",
    "config",
    "interfaces",
    "kunnon-kansalainen.model",
    "caselessdict",
    "ATemplate",
    "onko-mafia.icalendar.caselessdict",
    "onko-mafia.feeds",
    "good-morning-feeder.webapptest",
    "distributed-social-media.itemmodel",
    "formats",
    "good-morning-feeder",
    "onko-mafia.icalendar.interfaces",
    "good-morning-feeder.feedparser",
    "notemodel",
    "friendmodel",
    "onko-voittoa.lottorivitmodel",
    "onko-voittoa.tarkista",
    "path-to-happiness.path-to-happiness",
    "kunnon-kansalainen",
    "onko-voittoa.BeautifulSoup",
    "drinkcounter",
    "notebook",
    "onko-voittoa.onko-voittoa",
    "meme-factory",
    "tarkista",
    "model",
    "distributed-social-media.distributed-social-media"
]