{
    "archive_url": "https://api.github.com/repos/ianare/exif-py/{archive_format}{/ref}",
    "assignees_url": "https://api.github.com/repos/ianare/exif-py/assignees{/user}",
    "blobs_url": "https://api.github.com/repos/ianare/exif-py/git/blobs{/sha}",
    "branches_url": "https://api.github.com/repos/ianare/exif-py/branches{/branch}",
    "clone_url": "https://github.com/ianare/exif-py.git",
    "collaborators_url": "https://api.github.com/repos/ianare/exif-py/collaborators{/collaborator}",
    "comments_url": "https://api.github.com/repos/ianare/exif-py/comments{/number}",
    "commits_url": "https://api.github.com/repos/ianare/exif-py/commits{/sha}",
    "compare_url": "https://api.github.com/repos/ianare/exif-py/compare/{base}...{head}",
    "contents_url": "https://api.github.com/repos/ianare/exif-py/contents/{+path}",
    "contributors_url": "https://api.github.com/repos/ianare/exif-py/contributors",
    "created_at": "2012-06-01T00:45:09Z",
    "default_branch": "master",
    "description": "Easy to use Python module to extract Exif metadata from tiff and jpeg files.",
    "downloads_url": "https://api.github.com/repos/ianare/exif-py/downloads",
    "events_url": "https://api.github.com/repos/ianare/exif-py/events",
    "fork": false,
    "forks": 47,
    "forks_count": 47,
    "forks_url": "https://api.github.com/repos/ianare/exif-py/forks",
    "full_name": "ianare/exif-py",
    "git_commits_url": "https://api.github.com/repos/ianare/exif-py/git/commits{/sha}",
    "git_refs_url": "https://api.github.com/repos/ianare/exif-py/git/refs{/sha}",
    "git_tags_url": "https://api.github.com/repos/ianare/exif-py/git/tags{/sha}",
    "git_url": "git://github.com/ianare/exif-py.git",
    "has_downloads": true,
    "has_issues": true,
    "has_wiki": true,
    "homepage": "",
    "hooks_url": "https://api.github.com/repos/ianare/exif-py/hooks",
    "html_url": "https://github.com/ianare/exif-py",
    "id": 4514692,
    "issue_comment_url": "https://api.github.com/repos/ianare/exif-py/issues/comments/{number}",
    "issue_events_url": "https://api.github.com/repos/ianare/exif-py/issues/events{/number}",
    "issues_url": "https://api.github.com/repos/ianare/exif-py/issues{/number}",
    "keys_url": "https://api.github.com/repos/ianare/exif-py/keys{/key_id}",
    "labels_url": "https://api.github.com/repos/ianare/exif-py/labels{/name}",
    "language": "Python",
    "languages_url": "https://api.github.com/repos/ianare/exif-py/languages",
    "merges_url": "https://api.github.com/repos/ianare/exif-py/merges",
    "milestones_url": "https://api.github.com/repos/ianare/exif-py/milestones{/number}",
    "mirror_url": null,
    "name": "exif-py",
    "notifications_url": "https://api.github.com/repos/ianare/exif-py/notifications{?since,all,participating}",
    "open_issues": 10,
    "open_issues_count": 10,
    "owner": {
        "avatar_url": "https://avatars.githubusercontent.com/u/697242?",
        "events_url": "https://api.github.com/users/ianare/events{/privacy}",
        "followers_url": "https://api.github.com/users/ianare/followers",
        "following_url": "https://api.github.com/users/ianare/following{/other_user}",
        "gists_url": "https://api.github.com/users/ianare/gists{/gist_id}",
        "gravatar_id": "a9536185010ebb0532403aea9419b98e",
        "html_url": "https://github.com/ianare",
        "id": 697242,
        "login": "ianare",
        "organizations_url": "https://api.github.com/users/ianare/orgs",
        "received_events_url": "https://api.github.com/users/ianare/received_events",
        "repos_url": "https://api.github.com/users/ianare/repos",
        "site_admin": false,
        "starred_url": "https://api.github.com/users/ianare/starred{/owner}{/repo}",
        "subscriptions_url": "https://api.github.com/users/ianare/subscriptions",
        "type": "User",
        "url": "https://api.github.com/users/ianare"
    },
    "private": false,
    "pulls_url": "https://api.github.com/repos/ianare/exif-py/pulls{/number}",
    "pushed_at": "2014-04-21T23:16:25Z",
    "releases_url": "https://api.github.com/repos/ianare/exif-py/releases{/id}",
    "score": 1.0,
    "size": 622,
    "ssh_url": "git@github.com:ianare/exif-py.git",
    "stargazers_count": 118,
    "stargazers_url": "https://api.github.com/repos/ianare/exif-py/stargazers",
    "statuses_url": "https://api.github.com/repos/ianare/exif-py/statuses/{sha}",
    "subscribers_url": "https://api.github.com/repos/ianare/exif-py/subscribers",
    "subscription_url": "https://api.github.com/repos/ianare/exif-py/subscription",
    "svn_url": "https://github.com/ianare/exif-py",
    "tags_url": "https://api.github.com/repos/ianare/exif-py/tags",
    "teams_url": "https://api.github.com/repos/ianare/exif-py/teams",
    "trees_url": "https://api.github.com/repos/ianare/exif-py/git/trees{/sha}",
    "updated_at": "2014-05-05T09:06:44Z",
    "url": "https://api.github.com/repos/ianare/exif-py",
    "watchers": 118,
    "watchers_count": 118
}