[
    "chartit.exceptions",
    "validation.models",
    "chartit.templatetags",
    "manage",
    "syntax_colorize.views",
    "demoproject.manage",
    "demoproject.homepage",
    "chartit.utils",
    "chartit_tests.validation",
    "homepage.views",
    "demoproject.urls",
    "chartit.validation",
    "demoproject",
    "chartit_tests",
    "charts",
    "chartdemo.models",
    "demoproject.homepage.models",
    "fabfile",
    "homepage",
    "hcoptions",
    "demo.models",
    "tests",
    "syntax_color",
    "chartit_tests.validation.utils",
    "demoproject.chartdemo.models",
    "chartdemo.views",
    "chartit.templatetags.chartit",
    "demoproject.syntax_colorize.models",
    "demoproject.syntax_colorize",
    "chartit.highcharts.hcoptions",
    "chartit.chartdata",
    "docs.conf",
    "syntax_colorize.templatetags",
    "demoproject.pivotdemo.models",
    "demoproject.demo.models",
    "settings",
    "demoproject.utils",
    "syntax_colorize.templatetags.syntax_color",
    "chartit_tests.settings",
    "demoproject.syntax_colorize.templatetags",
    "homepage.models",
    "demoproject.demo.views",
    "exceptions",
    "demoproject.demo",
    "chartdemo",
    "pivotdemo.views",
    "demoproject.pivotdemo.views",
    "demoproject.homepage.views",
    "highcharts.hcoptions",
    "syntax_colorize",
    "demo",
    "utils",
    "templatetags",
    "validation.utils",
    "demoproject.syntax_colorize.views",
    "demoproject.chartdemo",
    "conf",
    "demoproject.utils.decorators",
    "templatetags.syntax_color",
    "chartit",
    "chartit.charts",
    "views",
    "pivotdemo",
    "chartdata",
    "syntax_colorize.models",
    "decorators",
    "docs",
    "models",
    "pivotdemo.models",
    "validation.tests",
    "demoproject.pivotdemo",
    "demo.views",
    "chartit_tests.manage",
    "chartit_tests.validation.tests",
    "chartit.models",
    "demoproject.chartdemo.views",
    "chartit.highcharts",
    "demoproject.syntax_colorize.templatetags.syntax_color",
    "demoproject.settings",
    "utils.decorators",
    "urls",
    "chartit_tests.validation.models",
    "templatetags.chartit",
    "validation",
    "highcharts"
]