[
    "tests.unit.wsgidapp-noinit.app.djangonoinit.manage",
    "tests.unit.django-wsgid-app.app.mydjangoapp.settings",
    "tests.unit.wsgidapp-noinit.app.djangonoinit",
    "unit.app-path.app.djangoapp.urls",
    "filters",
    "tests.functional.wsgid_test",
    "app.djangonoinit.manage",
    "core.command",
    "tests.unit.wsgidapp_test",
    "cli",
    "tests.unit.app-path.app.djangoapp",
    "djangonoinit.manage",
    "init",
    "wsgid.commands.manage",
    "tests.unit.django-wsgid-app.app.mydjangoapp.manage",
    "mydjangoapp.settings",
    "tests",
    "tests.unit.cli_test",
    "unit.wsgidapp-noinit.app.djangonoinit",
    "docs",
    "tests.unit.loaders",
    "app.mydjangoapp",
    "tests.unit.django-wsgid-app",
    "wsgidapp-noinit.app.djangonoinit.urls",
    "tests.unit.app-path.app",
    "app-path.app.djangoapp.settings",
    "docs.conf",
    "wsgidapp-noinit",
    "loaders.djangoloader",
    "extras.filters.timecalc",
    "core.cli",
    "settings",
    "app.djangonoinit.settings",
    "mydjangoapp",
    "commands.status",
    "wsgid.core",
    "mydjangoapp.manage",
    "app.djangonoinit.urls",
    "unit.app-path.app.djangoapp.settings",
    "unit.loaders",
    "unit.django-wsgid-app.app",
    "wsgid.commands.config",
    "app.mydjangoapp.urls",
    "tests.functional",
    "wsgid.loaders",
    "tests.unit.wsgid_test",
    "tests.unit.wsgidapp-noinit",
    "unit.startresponse_test",
    "tests.unit.startresponse_test",
    "unit.django-wsgid-app.app.mydjangoapp",
    "djangonoinit.settings",
    "cli_test",
    "commands.init",
    "wsgid.conf",
    "tests.unit.django-wsgid-app.app.mydjangoapp.urls",
    "app-path.app",
    "app.mydjangoapp.settings",
    "app.djangonoinit",
    "django-wsgid-app.app.mydjangoapp.settings",
    "unit.wsgidapp-noinit.app",
    "core",
    "interfaces",
    "tests.unit.django-wsgid-app.app",
    "wsgidapp-noinit.app.djangonoinit.settings",
    "tests.unit.app-path.app.djangoapp.urls",
    "tests.unit.wsgidapp-noinit.app.djangonoinit.settings",
    "djangoloader",
    "wsgid.commands.status",
    "app.djangoapp.settings",
    "unit.app-path.app.djangoapp",
    "parser_test",
    "commands",
    "unit.parser_test",
    "wsgidapp-noinit.app",
    "unit.message",
    "urls",
    "unit.wsgidapp-noinit.app.djangonoinit.urls",
    "functional.wsgid_test",
    "tests.unit.django-wsgid-app.app.mydjangoapp",
    "unit.wsgid_test",
    "commands.config",
    "app",
    "manage",
    "mydjangoapp.urls",
    "functional",
    "unit.wsgidapp-noinit.app.djangonoinit.manage",
    "extras.filters",
    "tests.unit.message",
    "core.message",
    "message",
    "loaders",
    "unit",
    "extras.filters.workerpid",
    "djangonoinit",
    "wsgid.interfaces.filters",
    "core.parser",
    "app.djangoapp.urls",
    "tests.unit.app-path",
    "app.mydjangoapp.manage",
    "tests.unit.parser_test",
    "filters.timecalc",
    "djangoapp",
    "unit.django-wsgid-app",
    "unit.cli_test",
    "app.djangoapp",
    "unit.app-path.app",
    "wsgidapp_test",
    "tests.unit.core_test",
    "wsgid.commands.init",
    "unit.django-wsgid-app.app.mydjangoapp.settings",
    "unit.django-wsgid-app.app.mydjangoapp.urls",
    "django-wsgid-app",
    "tests.unit.wsgidapp-noinit.app.djangonoinit.urls",
    "core_test",
    "unit.wsgidapp-noinit.app.djangonoinit.settings",
    "unit.wsgidapp_test",
    "django-wsgid-app.app.mydjangoapp.manage",
    "app-path.app.djangoapp",
    "startresponse_test",
    "unit.commands_test",
    "unit.core_test",
    "unit.wsgidapp-noinit",
    "workerpid",
    "unit.app-path",
    "django-wsgid-app.app.mydjangoapp",
    "parser",
    "djangoapp.urls",
    "commands.manage",
    "unit.django-wsgid-app.app.mydjangoapp.manage",
    "conf",
    "wsgid.core.cli",
    "app-path",
    "wsgidapp-noinit.app.djangonoinit",
    "django-wsgid-app.app",
    "timecalc",
    "unit.djangoloader",
    "filters.workerpid",
    "extras",
    "django-wsgid-app.app.mydjangoapp.urls",
    "interfaces.filters",
    "test",
    "config",
    "wsgid.commands",
    "wsgid.interfaces",
    "tests.unit.djangoloader",
    "commands_test",
    "wsgid.core.parser",
    "app-path.app.djangoapp.urls",
    "djangoapp.settings",
    "wsgid.loaders.djangoloader",
    "tests.unit.commands_test",
    "tests.unit",
    "wsgidapp-noinit.app.djangonoinit.manage",
    "wsgid_test",
    "status",
    "wsgid.core.message",
    "tests.unit.app-path.app.djangoapp.settings",
    "tests.unit.wsgidapp-noinit.app",
    "wsgid",
    "command",
    "wsgid.test",
    "wsgid.core.command",
    "djangonoinit.urls"
]