[
    "Selenium2Library.utils.browsercache",
    "Selenium2Library.keywords._selectelement",
    "src.Selenium2Library",
    "lib.mockito.mocking",
    "src.Selenium2Library.keywords._browsermanagement",
    "windowmanager",
    "acceptance.keywords.variables",
    "matchers",
    "keywords",
    "test.unit.locators",
    "src.Selenium2Library.locators",
    "src.Selenium2Library.locators.elementfinder",
    "webdrivermonkeypatches",
    "test.lib.mockito.inorder",
    "browsercache",
    "keywords._javascript",
    "test.unit.locators.test_windowmanager",
    "Selenium2Library",
    "Selenium2Library.keywords._element",
    "src.Selenium2Library.keywords._logging",
    "_runonfailure",
    "test_browsermanagement",
    "invocation",
    "env",
    "variables",
    "resources",
    "Selenium2Library.keywords._browsermanagement",
    "mock_registry",
    "mockito",
    "lib.mockito.verification",
    "testserver",
    "test.resources.testserver.testserver",
    "test.lib.mockito.invocation",
    "test",
    "keywords._formelement",
    "test.acceptance",
    "test.acceptance.keywords.variables",
    "resources.testserver.testserver",
    "utils.test_browsercache",
    "test_browsercache",
    "unit.utils",
    "locators.test_elementfinder",
    "keywords._browsermanagement",
    "src.Selenium2Library.keywords._tableelement",
    "server",
    "demoapp.server",
    "doc.buildhtml",
    "unit.keywords",
    "resources.testserver",
    "test_tableelementfinder",
    "src.Selenium2Library.keywords._runonfailure",
    "rundemo",
    "test.unit.keywords",
    "_cookie",
    "demo.rundemo",
    "src.Selenium2Library.keywords.keywordgroup",
    "lib.mockito.invocation",
    "lib.mockito.mockito",
    "test.lib.mockito.mockito",
    "Selenium2Library.keywords._tableelement",
    "locators.windowmanager",
    "generate_readmes",
    "test.run_tests",
    "mockito.spying",
    "keywords._logging",
    "Selenium2Library.locators.elementfinder",
    "test.lib.mockito.mock_registry",
    "test.lib.mockito.mocking",
    "version",
    "keywords._screenshot",
    "keywords._tableelement",
    "test.resources.statuschecker",
    "locators",
    "lib.mockito.matchers",
    "inorder",
    "locators.elementfinder",
    "test.acceptance.keywords",
    "Selenium2Library.keywords",
    "lib.mockito",
    "doc.generate_readmes",
    "unit.locators.test_windowmanager",
    "test_windowmanager",
    "locators.test_windowmanager",
    "generate",
    "demo.demoapp.server",
    "src",
    "package",
    "mockito.inorder",
    "test.resources.testserver",
    "Selenium2Library.version",
    "test_elementfinder",
    "keywords.test_browsermanagement",
    "acceptance",
    "demo.demoapp",
    "Selenium2Library.locators.windowmanager",
    "mockito.mock_registry",
    "keywords._element",
    "run_tests",
    "keywords.variables",
    "unit.utils.test_package",
    "test.lib.mockito.verification",
    "unit",
    "src.Selenium2Library.version",
    "Selenium2Library.keywords._javascript",
    "src.Selenium2Library.locators.tableelementfinder",
    "unit.keywords.test_browsermanagement",
    "doc.generate",
    "keywords._cookie",
    "Selenium2Library.keywords._cookie",
    "spying",
    "src.Selenium2Library.keywords._waiting",
    "_screenshot",
    "src.Selenium2Library.utils",
    "mockito.verification",
    "mockito.matchers",
    "_logging",
    "src.Selenium2Library.keywords._screenshot",
    "Selenium2Library.utils",
    "mocking",
    "test_package",
    "Selenium2Library.webdrivermonkeypatches",
    "test.unit.utils",
    "src.Selenium2Library.keywords._element",
    "unit.locators.test_tableelementfinder",
    "Selenium2Library.keywords._logging",
    "test.lib.mockito.spying",
    "keywordgroup",
    "test.unit.locators.test_elementfinder",
    "src.Selenium2Library.keywords._javascript",
    "test.unit.keywords.test_browsermanagement",
    "statuschecker",
    "lib.mockito.spying",
    "keywords.keywordgroup",
    "test.unit.utils.test_browsercache",
    "src.Selenium2Library.keywords._cookie",
    "src.Selenium2Library.webdrivermonkeypatches",
    "utils.test_package",
    "verification",
    "_waiting",
    "keywords._waiting",
    "test.run_unit_tests",
    "Selenium2Library.locators.tableelementfinder",
    "src.Selenium2Library.keywords",
    "test.lib",
    "unit.utils.test_browsercache",
    "demo",
    "utils",
    "buildhtml",
    "lib.mockito.inorder",
    "src.Selenium2Library.keywords._formelement",
    "acceptance.keywords",
    "Selenium2Library.keywords.keywordgroup",
    "test.lib.mockito",
    "tableelementfinder",
    "utils.browsercache",
    "Selenium2Library.keywords._waiting",
    "lib",
    "_formelement",
    "run_unit_tests",
    "unit.locators",
    "src.Selenium2Library.utils.browsercache",
    "test.env",
    "mockito.mockito",
    "_browsermanagement",
    "test.unit.locators.test_tableelementfinder",
    "lib.mockito.mock_registry",
    "_tableelement",
    "demo.package",
    "test.lib.mockito.matchers",
    "Selenium2Library.locators",
    "mockito.invocation",
    "build_dist",
    "test.unit",
    "elementfinder",
    "demoapp",
    "Selenium2Library.keywords._runonfailure",
    "test.resources",
    "locators.tableelementfinder",
    "src.Selenium2Library.locators.windowmanager",
    "_selectelement",
    "doc",
    "Selenium2Library.keywords._screenshot",
    "_element",
    "src.Selenium2Library.keywords._selectelement",
    "keywords._runonfailure",
    "test.unit.utils.test_package",
    "resources.statuschecker",
    "Selenium2Library.keywords._formelement",
    "locators.test_tableelementfinder",
    "testserver.testserver",
    "unit.locators.test_elementfinder",
    "keywords._selectelement",
    "_javascript",
    "mockito.mocking"
]