{
    "libs": [
        "cStringIO",
        "cmd",
        "request",
        "unittest",
        "wsgiserver",
        "subprocess",
        "parse",
        "gc",
        "io",
        "curl",
        "shutil",
        "tools",
        "select",
        "imp",
        "tempfile",
        "errno",
        "gtk",
        "urllib",
        "re",
        "json",
        "skip",
        "functools",
        "simple_server",
        "cPickle",
        "simplejson",
        "warnings",
        "optparse",
        "pygtk",
        "sys",
        "path",
        "readline",
        "copy",
        "socket",
        "Queue",
        "pycurl",
        "StringIO",
        "os",
        "signal",
        "traceback",
        "xmlrpclib",
        "netrc",
        "ssl_builtin",
        "threading",
        "client",
        "bottle",
        "time",
        "exceptions",
        "contextlib",
        "attrib",
        "pickle"
    ]
}