{
    "archive_url": "https://api.github.com/repos/pycurl/pycurl/{archive_format}{/ref}",
    "assignees_url": "https://api.github.com/repos/pycurl/pycurl/assignees{/user}",
    "blobs_url": "https://api.github.com/repos/pycurl/pycurl/git/blobs{/sha}",
    "branches_url": "https://api.github.com/repos/pycurl/pycurl/branches{/branch}",
    "clone_url": "https://github.com/pycurl/pycurl.git",
    "collaborators_url": "https://api.github.com/repos/pycurl/pycurl/collaborators{/collaborator}",
    "comments_url": "https://api.github.com/repos/pycurl/pycurl/comments{/number}",
    "commits_url": "https://api.github.com/repos/pycurl/pycurl/commits{/sha}",
    "compare_url": "https://api.github.com/repos/pycurl/pycurl/compare/{base}...{head}",
    "contents_url": "https://api.github.com/repos/pycurl/pycurl/contents/{+path}",
    "contributors_url": "https://api.github.com/repos/pycurl/pycurl/contributors",
    "created_at": "2013-08-03T20:56:39Z",
    "default_branch": "master",
    "description": "PycURL - Python interface to libcurl",
    "downloads_url": "https://api.github.com/repos/pycurl/pycurl/downloads",
    "events_url": "https://api.github.com/repos/pycurl/pycurl/events",
    "fork": false,
    "forks": 39,
    "forks_count": 39,
    "forks_url": "https://api.github.com/repos/pycurl/pycurl/forks",
    "full_name": "pycurl/pycurl",
    "git_commits_url": "https://api.github.com/repos/pycurl/pycurl/git/commits{/sha}",
    "git_refs_url": "https://api.github.com/repos/pycurl/pycurl/git/refs{/sha}",
    "git_tags_url": "https://api.github.com/repos/pycurl/pycurl/git/tags{/sha}",
    "git_url": "git://github.com/pycurl/pycurl.git",
    "has_downloads": true,
    "has_issues": true,
    "has_wiki": true,
    "homepage": "http://pycurl.sourceforge.net/",
    "hooks_url": "https://api.github.com/repos/pycurl/pycurl/hooks",
    "html_url": "https://github.com/pycurl/pycurl",
    "id": 11869469,
    "issue_comment_url": "https://api.github.com/repos/pycurl/pycurl/issues/comments/{number}",
    "issue_events_url": "https://api.github.com/repos/pycurl/pycurl/issues/events{/number}",
    "issues_url": "https://api.github.com/repos/pycurl/pycurl/issues{/number}",
    "keys_url": "https://api.github.com/repos/pycurl/pycurl/keys{/key_id}",
    "labels_url": "https://api.github.com/repos/pycurl/pycurl/labels{/name}",
    "language": "Python",
    "languages_url": "https://api.github.com/repos/pycurl/pycurl/languages",
    "merges_url": "https://api.github.com/repos/pycurl/pycurl/merges",
    "milestones_url": "https://api.github.com/repos/pycurl/pycurl/milestones{/number}",
    "mirror_url": null,
    "name": "pycurl",
    "notifications_url": "https://api.github.com/repos/pycurl/pycurl/notifications{?since,all,participating}",
    "open_issues": 10,
    "open_issues_count": 10,
    "owner": {
        "avatar_url": "https://avatars.githubusercontent.com/u/1510177?",
        "events_url": "https://api.github.com/users/pycurl/events{/privacy}",
        "followers_url": "https://api.github.com/users/pycurl/followers",
        "following_url": "https://api.github.com/users/pycurl/following{/other_user}",
        "gists_url": "https://api.github.com/users/pycurl/gists{/gist_id}",
        "gravatar_id": null,
        "html_url": "https://github.com/pycurl",
        "id": 1510177,
        "login": "pycurl",
        "organizations_url": "https://api.github.com/users/pycurl/orgs",
        "received_events_url": "https://api.github.com/users/pycurl/received_events",
        "repos_url": "https://api.github.com/users/pycurl/repos",
        "site_admin": false,
        "starred_url": "https://api.github.com/users/pycurl/starred{/owner}{/repo}",
        "subscriptions_url": "https://api.github.com/users/pycurl/subscriptions",
        "type": "Organization",
        "url": "https://api.github.com/users/pycurl"
    },
    "private": false,
    "pulls_url": "https://api.github.com/repos/pycurl/pycurl/pulls{/number}",
    "pushed_at": "2014-04-21T14:00:22Z",
    "releases_url": "https://api.github.com/repos/pycurl/pycurl/releases{/id}",
    "score": 1.0,
    "size": 4306,
    "ssh_url": "git@github.com:pycurl/pycurl.git",
    "stargazers_count": 69,
    "stargazers_url": "https://api.github.com/repos/pycurl/pycurl/stargazers",
    "statuses_url": "https://api.github.com/repos/pycurl/pycurl/statuses/{sha}",
    "subscribers_url": "https://api.github.com/repos/pycurl/pycurl/subscribers",
    "subscription_url": "https://api.github.com/repos/pycurl/pycurl/subscription",
    "svn_url": "https://github.com/pycurl/pycurl",
    "tags_url": "https://api.github.com/repos/pycurl/pycurl/tags",
    "teams_url": "https://api.github.com/repos/pycurl/pycurl/teams",
    "trees_url": "https://api.github.com/repos/pycurl/pycurl/git/trees{/sha}",
    "updated_at": "2014-05-01T10:27:59Z",
    "url": "https://api.github.com/repos/pycurl/pycurl",
    "watchers": 69,
    "watchers_count": 69
}