{
    "archive_url": "https://api.github.com/repos/GoogleCloudPlatform/endpoints-proto-datastore/{archive_format}{/ref}",
    "assignees_url": "https://api.github.com/repos/GoogleCloudPlatform/endpoints-proto-datastore/assignees{/user}",
    "blobs_url": "https://api.github.com/repos/GoogleCloudPlatform/endpoints-proto-datastore/git/blobs{/sha}",
    "branches_url": "https://api.github.com/repos/GoogleCloudPlatform/endpoints-proto-datastore/branches{/branch}",
    "clone_url": "https://github.com/GoogleCloudPlatform/endpoints-proto-datastore.git",
    "collaborators_url": "https://api.github.com/repos/GoogleCloudPlatform/endpoints-proto-datastore/collaborators{/collaborator}",
    "comments_url": "https://api.github.com/repos/GoogleCloudPlatform/endpoints-proto-datastore/comments{/number}",
    "commits_url": "https://api.github.com/repos/GoogleCloudPlatform/endpoints-proto-datastore/commits{/sha}",
    "compare_url": "https://api.github.com/repos/GoogleCloudPlatform/endpoints-proto-datastore/compare/{base}...{head}",
    "contents_url": "https://api.github.com/repos/GoogleCloudPlatform/endpoints-proto-datastore/contents/{+path}",
    "contributors_url": "https://api.github.com/repos/GoogleCloudPlatform/endpoints-proto-datastore/contributors",
    "created_at": "2013-04-16T18:10:35Z",
    "default_branch": "master",
    "description": "",
    "downloads_url": "https://api.github.com/repos/GoogleCloudPlatform/endpoints-proto-datastore/downloads",
    "events_url": "https://api.github.com/repos/GoogleCloudPlatform/endpoints-proto-datastore/events",
    "fork": false,
    "forks": 24,
    "forks_count": 24,
    "forks_url": "https://api.github.com/repos/GoogleCloudPlatform/endpoints-proto-datastore/forks",
    "full_name": "GoogleCloudPlatform/endpoints-proto-datastore",
    "git_commits_url": "https://api.github.com/repos/GoogleCloudPlatform/endpoints-proto-datastore/git/commits{/sha}",
    "git_refs_url": "https://api.github.com/repos/GoogleCloudPlatform/endpoints-proto-datastore/git/refs{/sha}",
    "git_tags_url": "https://api.github.com/repos/GoogleCloudPlatform/endpoints-proto-datastore/git/tags{/sha}",
    "git_url": "git://github.com/GoogleCloudPlatform/endpoints-proto-datastore.git",
    "has_downloads": true,
    "has_issues": true,
    "has_wiki": true,
    "homepage": null,
    "hooks_url": "https://api.github.com/repos/GoogleCloudPlatform/endpoints-proto-datastore/hooks",
    "html_url": "https://github.com/GoogleCloudPlatform/endpoints-proto-datastore",
    "id": 9479136,
    "issue_comment_url": "https://api.github.com/repos/GoogleCloudPlatform/endpoints-proto-datastore/issues/comments/{number}",
    "issue_events_url": "https://api.github.com/repos/GoogleCloudPlatform/endpoints-proto-datastore/issues/events{/number}",
    "issues_url": "https://api.github.com/repos/GoogleCloudPlatform/endpoints-proto-datastore/issues{/number}",
    "keys_url": "https://api.github.com/repos/GoogleCloudPlatform/endpoints-proto-datastore/keys{/key_id}",
    "labels_url": "https://api.github.com/repos/GoogleCloudPlatform/endpoints-proto-datastore/labels{/name}",
    "language": "Python",
    "languages_url": "https://api.github.com/repos/GoogleCloudPlatform/endpoints-proto-datastore/languages",
    "merges_url": "https://api.github.com/repos/GoogleCloudPlatform/endpoints-proto-datastore/merges",
    "milestones_url": "https://api.github.com/repos/GoogleCloudPlatform/endpoints-proto-datastore/milestones{/number}",
    "mirror_url": null,
    "name": "endpoints-proto-datastore",
    "notifications_url": "https://api.github.com/repos/GoogleCloudPlatform/endpoints-proto-datastore/notifications{?since,all,participating}",
    "open_issues": 58,
    "open_issues_count": 58,
    "owner": {
        "avatar_url": "https://avatars.githubusercontent.com/u/2810941?",
        "events_url": "https://api.github.com/users/GoogleCloudPlatform/events{/privacy}",
        "followers_url": "https://api.github.com/users/GoogleCloudPlatform/followers",
        "following_url": "https://api.github.com/users/GoogleCloudPlatform/following{/other_user}",
        "gists_url": "https://api.github.com/users/GoogleCloudPlatform/gists{/gist_id}",
        "gravatar_id": "3db02c6238c8b1fb844871330744ec5d",
        "html_url": "https://github.com/GoogleCloudPlatform",
        "id": 2810941,
        "login": "GoogleCloudPlatform",
        "organizations_url": "https://api.github.com/users/GoogleCloudPlatform/orgs",
        "received_events_url": "https://api.github.com/users/GoogleCloudPlatform/received_events",
        "repos_url": "https://api.github.com/users/GoogleCloudPlatform/repos",
        "site_admin": false,
        "starred_url": "https://api.github.com/users/GoogleCloudPlatform/starred{/owner}{/repo}",
        "subscriptions_url": "https://api.github.com/users/GoogleCloudPlatform/subscriptions",
        "type": "Organization",
        "url": "https://api.github.com/users/GoogleCloudPlatform"
    },
    "private": false,
    "pulls_url": "https://api.github.com/repos/GoogleCloudPlatform/endpoints-proto-datastore/pulls{/number}",
    "pushed_at": "2014-04-09T22:48:01Z",
    "releases_url": "https://api.github.com/repos/GoogleCloudPlatform/endpoints-proto-datastore/releases{/id}",
    "score": 1.0,
    "size": 438,
    "ssh_url": "git@github.com:GoogleCloudPlatform/endpoints-proto-datastore.git",
    "stargazers_count": 68,
    "stargazers_url": "https://api.github.com/repos/GoogleCloudPlatform/endpoints-proto-datastore/stargazers",
    "statuses_url": "https://api.github.com/repos/GoogleCloudPlatform/endpoints-proto-datastore/statuses/{sha}",
    "subscribers_url": "https://api.github.com/repos/GoogleCloudPlatform/endpoints-proto-datastore/subscribers",
    "subscription_url": "https://api.github.com/repos/GoogleCloudPlatform/endpoints-proto-datastore/subscription",
    "svn_url": "https://github.com/GoogleCloudPlatform/endpoints-proto-datastore",
    "tags_url": "https://api.github.com/repos/GoogleCloudPlatform/endpoints-proto-datastore/tags",
    "teams_url": "https://api.github.com/repos/GoogleCloudPlatform/endpoints-proto-datastore/teams",
    "trees_url": "https://api.github.com/repos/GoogleCloudPlatform/endpoints-proto-datastore/git/trees{/sha}",
    "updated_at": "2014-05-04T14:35:12Z",
    "url": "https://api.github.com/repos/GoogleCloudPlatform/endpoints-proto-datastore",
    "watchers": 68,
    "watchers_count": 68
}