{
    "archive_url": "https://api.github.com/repos/fortharris/Pcode/{archive_format}{/ref}",
    "assignees_url": "https://api.github.com/repos/fortharris/Pcode/assignees{/user}",
    "blobs_url": "https://api.github.com/repos/fortharris/Pcode/git/blobs{/sha}",
    "branches_url": "https://api.github.com/repos/fortharris/Pcode/branches{/branch}",
    "clone_url": "https://github.com/fortharris/Pcode.git",
    "collaborators_url": "https://api.github.com/repos/fortharris/Pcode/collaborators{/collaborator}",
    "comments_url": "https://api.github.com/repos/fortharris/Pcode/comments{/number}",
    "commits_url": "https://api.github.com/repos/fortharris/Pcode/commits{/sha}",
    "compare_url": "https://api.github.com/repos/fortharris/Pcode/compare/{base}...{head}",
    "contents_url": "https://api.github.com/repos/fortharris/Pcode/contents/{+path}",
    "contributors_url": "https://api.github.com/repos/fortharris/Pcode/contributors",
    "created_at": "2013-07-29T08:55:29Z",
    "default_branch": "master",
    "description": "Python 3 IDE",
    "downloads_url": "https://api.github.com/repos/fortharris/Pcode/downloads",
    "events_url": "https://api.github.com/repos/fortharris/Pcode/events",
    "fork": false,
    "forks": 10,
    "forks_count": 10,
    "forks_url": "https://api.github.com/repos/fortharris/Pcode/forks",
    "full_name": "fortharris/Pcode",
    "git_commits_url": "https://api.github.com/repos/fortharris/Pcode/git/commits{/sha}",
    "git_refs_url": "https://api.github.com/repos/fortharris/Pcode/git/refs{/sha}",
    "git_tags_url": "https://api.github.com/repos/fortharris/Pcode/git/tags{/sha}",
    "git_url": "git://github.com/fortharris/Pcode.git",
    "has_downloads": true,
    "has_issues": true,
    "has_wiki": true,
    "homepage": null,
    "hooks_url": "https://api.github.com/repos/fortharris/Pcode/hooks",
    "html_url": "https://github.com/fortharris/Pcode",
    "id": 11735310,
    "issue_comment_url": "https://api.github.com/repos/fortharris/Pcode/issues/comments/{number}",
    "issue_events_url": "https://api.github.com/repos/fortharris/Pcode/issues/events{/number}",
    "issues_url": "https://api.github.com/repos/fortharris/Pcode/issues{/number}",
    "keys_url": "https://api.github.com/repos/fortharris/Pcode/keys{/key_id}",
    "labels_url": "https://api.github.com/repos/fortharris/Pcode/labels{/name}",
    "language": "Python",
    "languages_url": "https://api.github.com/repos/fortharris/Pcode/languages",
    "merges_url": "https://api.github.com/repos/fortharris/Pcode/merges",
    "milestones_url": "https://api.github.com/repos/fortharris/Pcode/milestones{/number}",
    "mirror_url": null,
    "name": "Pcode",
    "notifications_url": "https://api.github.com/repos/fortharris/Pcode/notifications{?since,all,participating}",
    "open_issues": 2,
    "open_issues_count": 2,
    "owner": {
        "avatar_url": "https://avatars.githubusercontent.com/u/5111602?",
        "events_url": "https://api.github.com/users/fortharris/events{/privacy}",
        "followers_url": "https://api.github.com/users/fortharris/followers",
        "following_url": "https://api.github.com/users/fortharris/following{/other_user}",
        "gists_url": "https://api.github.com/users/fortharris/gists{/gist_id}",
        "gravatar_id": "9fd99ecc0afd6bab18282e0a288e669a",
        "html_url": "https://github.com/fortharris",
        "id": 5111602,
        "login": "fortharris",
        "organizations_url": "https://api.github.com/users/fortharris/orgs",
        "received_events_url": "https://api.github.com/users/fortharris/received_events",
        "repos_url": "https://api.github.com/users/fortharris/repos",
        "site_admin": false,
        "starred_url": "https://api.github.com/users/fortharris/starred{/owner}{/repo}",
        "subscriptions_url": "https://api.github.com/users/fortharris/subscriptions",
        "type": "User",
        "url": "https://api.github.com/users/fortharris"
    },
    "private": false,
    "pulls_url": "https://api.github.com/repos/fortharris/Pcode/pulls{/number}",
    "pushed_at": "2014-04-05T17:16:13Z",
    "releases_url": "https://api.github.com/repos/fortharris/Pcode/releases{/id}",
    "score": 1.0,
    "size": 15575,
    "ssh_url": "git@github.com:fortharris/Pcode.git",
    "stargazers_count": 123,
    "stargazers_url": "https://api.github.com/repos/fortharris/Pcode/stargazers",
    "statuses_url": "https://api.github.com/repos/fortharris/Pcode/statuses/{sha}",
    "subscribers_url": "https://api.github.com/repos/fortharris/Pcode/subscribers",
    "subscription_url": "https://api.github.com/repos/fortharris/Pcode/subscription",
    "svn_url": "https://github.com/fortharris/Pcode",
    "tags_url": "https://api.github.com/repos/fortharris/Pcode/tags",
    "teams_url": "https://api.github.com/repos/fortharris/Pcode/teams",
    "trees_url": "https://api.github.com/repos/fortharris/Pcode/git/trees{/sha}",
    "updated_at": "2014-04-05T17:16:15Z",
    "url": "https://api.github.com/repos/fortharris/Pcode",
    "watchers": 123,
    "watchers_count": 123
}