[
    "dist",
    "hooks",
    "Extensions.About",
    "Extensions.Settings.ColorScheme.Lexers.CssLexer",
    "Extensions.Settings.ColorScheme.ColorScheme",
    "Extensions.Settings.ColorScheme.Lexers",
    "Extensions.Settings.ColorScheme.StyleEditor",
    "rope.base",
    "SnippetsManager",
    "Projects.NewProjectDialog",
    "rope.refactor.similarfinder",
    "rope.contrib.changestack",
    "ExternalLauncher",
    "oi.memorydb",
    "resources",
    "Extensions.Start",
    "Projects.Projects",
    "base.oi.objectdb",
    "Library.Library",
    "rope.refactor.move",
    "base.history",
    "StyleEditor",
    "Resources.build.64bit.initscripts",
    "objectinfo",
    "Settings.ColorScheme.StyleEditor",
    "refactor.suites",
    "EditorWindow.EditorWindow",
    "Xtra.autopep8",
    "Global",
    "refactor.topackage",
    "Projects",
    "Extensions.Settings.SettingsWidget",
    "Extensions.Projects.ProjectManager.ProjectView.ProgressWidget",
    "worder",
    "rope.refactor.inline",
    "default_config",
    "autopep8",
    "contrib.fixmodnames",
    "Extensions.Projects.ProjectManager.ConfigureProject",
    "Resources.build.32bit.initscripts.Console3",
    "memorydb",
    "rope.base.project",
    "Extensions.ZoomWidget",
    "refactor.change_signature",
    "oi.objectdb",
    "introduce_factory",
    "Extensions.Projects.Projects",
    "Resources.build.32bit.initscripts.ConsoleKeepPath3",
    "64bit",
    "base.codeanalyze",
    "pyflakes.test.harness",
    "runmod",
    "Extensions.EditorWindow.BuildStatusWidget",
    "Extensions.BottomWidgets.FindInFiles",
    "ColorScheme.Lexers",
    "Extensions.EditorWindow.EditorWindow",
    "reporter",
    "BottomWidgets.RunWidget",
    "Profiler",
    "rope.base.astutils",
    "ConfigureProject",
    "pyflakes.checker",
    "rope.refactor.suites",
    "change",
    "change_signature",
    "ColorScheme.ColorScheme",
    "autoimport",
    "Projects.ProjectManager.ProjectView.ProgressWidget",
    "Console3",
    "Xtra",
    "localtofield",
    "encapsulate_field",
    "rope.refactor.sourceutils",
    "importinfo",
    "base.pynamesdef",
    "macdist",
    "Extensions.ExternalLauncher",
    "rope.refactor.rename",
    "api",
    "base.simplify",
    "rope.contrib.fixsyntax",
    "pyflakes.scripts",
    "pyflakes.test.test_doctests",
    "cx_Freeze.macdist",
    "rope.base.stdmods",
    "Extensions.CodeSnapshot",
    "Extensions.EditorWindow",
    "ProjectManager.ProjectView.ProgressWidget",
    "refactor.move",
    "test_imports",
    "ProjectManager.ProjectView",
    "Extensions.Favourites",
    "build.32bit",
    "rope.refactor.importutils",
    "Resources.build.32bit",
    "objectdb",
    "Resources.build.64bit.initscripts.Console3",
    "contrib.fixsyntax",
    "Library",
    "StyleSheet",
    "exceptions",
    "ProjectManager.ProjectView.ProjectView",
    "Settings.ColorScheme.Lexers.HtmlLexer",
    "rope.base.builtins",
    "pyflakes.reporter",
    "build.32bit.initscripts.ConsoleKeepPath3",
    "rope.base.change",
    "refactor.sourceutils",
    "pyflakes.test",
    "rope.base.codeanalyze",
    "rope.base.evaluate",
    "freezer",
    "Resources.default_config",
    "Projects.ProjectManager.Build",
    "Settings.ColorScheme.ColorChooser",
    "Settings.ColorScheme.Lexers.XmlLexer",
    "initscripts.ConsoleKeepPath3",
    "rope.base.utils",
    "64bit.initscripts.ConsoleKeepPath3",
    "rope.base.oi",
    "Python.pyclbr",
    "rope.base.oi.doa",
    "ColorScheme.Lexers.HtmlLexer",
    "base.default_config",
    "temp.temp8",
    "base.libutils",
    "test.test_imports",
    "Extensions.CodeEditor",
    "CodeEditor",
    "inline",
    "pyobjects",
    "ProgressWidget",
    "soa",
    "BottomWidgets.Profiler",
    "move",
    "refactor.rename",
    "Refactor",
    "Pcode",
    "stdmods",
    "32bit.initscripts",
    "fixmodnames",
    "rope.base.arguments",
    "BottomWidgets",
    "builtins",
    "base.prefs",
    "Extensions.Diff",
    "contrib.findit",
    "Extensions.EditorTabWidget",
    "contrib.generate",
    "ConsoleKeepPath3",
    "Notification",
    "base.oi.objectinfo",
    "codeanalyze",
    "main",
    "Extensions.StackSwitcher",
    "build.32bit.initscripts.Console3",
    "ProjectView",
    "TextSnapshot",
    "Extensions.BottomWidgets.TasksWidget",
    "base.resourceobserver",
    "BottomWidgets.Assistant",
    "Favourites",
    "test.test_undefined_names",
    "base.fscommands",
    "refactor.encapsulate_field",
    "CssLexer",
    "rope.base.oi.memorydb",
    "base.utils",
    "oi.runmod",
    "Start",
    "rope.base.oi.transform",
    "Settings.ModuleCompletion",
    "Extensions.Settings.ColorScheme.Lexers.XmlLexer",
    "NewProjectDialog",
    "refactor.introduce_factory",
    "rope.base.oi.soa",
    "taskhandle",
    "Extensions.Settings.ColorScheme.Lexers.PythonLexer",
    "Extensions.Notification",
    "rope.base.oi.soi",
    "refactor.multiproject",
    "rope.refactor.localtofield",
    "Extensions.Settings",
    "Build",
    "GeneralSettings",
    "temp8",
    "extract",
    "Projects.ProjectManager",
    "Projects.ProjectManager.ConfigureProject",
    "base.oi",
    "ColorScheme.Lexers.CssLexer",
    "BuildStatusWidget",
    "CodeSnapshot",
    "build.64bit.initscripts.ConsoleKeepPath3",
    "Extensions.Settings.ColorScheme.ColorChooser",
    "pyflakes.test.test_undefined_names",
    "ast",
    "rope.refactor.functionutils",
    "rope.refactor.change_signature",
    "SettingsWidget",
    "base",
    "Settings.ColorScheme.Lexers.PythonLexer",
    "cx_Freeze",
    "generate",
    "refactor.similarfinder",
    "32bit.initscripts.Console3",
    "ColorScheme.Lexers.PythonLexer",
    "messages",
    "oi.doa",
    "rope.refactor.importutils.actions",
    "test_other",
    "importutils.module_imports",
    "Extensions.Refactor",
    "Settings.GeneralSettings",
    "refactor.wildcards",
    "libutils",
    "rope.refactor.patchedast",
    "contrib.changestack",
    "occurrences",
    "rope.base.fscommands",
    "Extensions.Library.LibraryAddDialog",
    "base.astutils",
    "scripts.pyflakes",
    "Extensions.Outline.Outline",
    "oi.transform",
    "checker",
    "Resources.build",
    "ProjectManager.Build",
    "EditorWindow",
    "findit",
    "rope.base.simplify",
    "Extensions.BottomWidgets.RunWidget",
    "EditorWindow.BuildStatusWidget",
    "Extensions.Settings.SnippetsManager",
    "fscommands",
    "astutils",
    "refactor.importutils",
    "project",
    "rope.refactor.multiproject",
    "rope.refactor.encapsulate_field",
    "pyflakes.__main__",
    "BottomWidgets.TasksWidget",
    "base.pyobjects",
    "test_api",
    "Extensions.Projects.NewProjectDialog",
    "__main__",
    "base.oi.transform",
    "pyclbr",
    "Lexers",
    "GotoLineWidget",
    "sourceutils",
    "rope.base.pyscopes",
    "contrib.finderrors",
    "pynames",
    "build",
    "oi.soa",
    "oi.soi",
    "rope.base.oi.objectinfo",
    "AdvancedSearch",
    "simplify",
    "scripts",
    "codeassist",
    "StyleLexer",
    "Extensions.Outline.Python",
    "doa",
    "cx_Freeze.finder",
    "EditorWindow.VerticalSplitter",
    "ZoomWidget",
    "ProjectView.ProjectView",
    "Extensions.Outline.Python.pyclbr",
    "rope.base.oi.objectdb",
    "base.pyobjectsdef",
    "windist",
    "base.pynames",
    "Extensions.Projects.ProjectManager.ProjectManager",
    "finderrors",
    "Xtra.pep8",
    "64bit.initscripts.Console3",
    "method_object",
    "Library.AdvancedSearch",
    "PythonLexer",
    "Resources",
    "ColorScheme",
    "32bit.initscripts.ConsoleKeepPath3",
    "rope.base.pynames",
    "refactor.restructure",
    "TextEditor",
    "Resources.build.32bit.initscripts",
    "UseData",
    "pyscopes",
    "pyflakes.messages",
    "ColorScheme.Lexers.XmlLexer",
    "base.stdmods",
    "similarfinder",
    "TasksWidget",
    "functionutils",
    "rope.contrib",
    "Extensions.Refactor.UsageDialog",
    "importutils.actions",
    "Extensions.BaseScintilla",
    "base.ast",
    "test.test_doctests",
    "rope.base.exceptions",
    "rope.base.worder",
    "test.test_other",
    "topackage",
    "oi.objectinfo",
    "Settings.ColorScheme.StyleLexer",
    "ColorScheme.StyleEditor",
    "Outline",
    "Settings",
    "base.oi.memorydb",
    "BottomWidgets.BookmarkWidget",
    "introduce_parameter",
    "base.project",
    "changestack",
    "Extensions.Global",
    "Extensions.SearchWidget",
    "patchedast",
    "Outline.Python.pyclbr",
    "base.pyscopes",
    "FileExplorer",
    "Lexers.HtmlLexer",
    "base.taskhandle",
    "Settings.SnippetsManager",
    "refactor.inline",
    "ProjectView.ProgressWidget",
    "Extensions.StyleSheet",
    "contrib.codeassist",
    "build.64bit.initscripts",
    "contrib.autoimport",
    "rope.base.history",
    "Extensions.BottomWidgets.Assistant",
    "Projects.ProjectManager.ProjectView.ProjectView",
    "Settings.ColorScheme.ColorScheme",
    "refactor.usefunction",
    "Extensions.BottomWidgets",
    "Library.LibraryAddDialog",
    "Outline.Python",
    "Extensions.Refactor.Refactor",
    "Extensions.EditorSplitter",
    "Extensions.Projects.ProjectManager",
    "Extensions.Settings.ColorScheme",
    "Extensions.UseData",
    "rope.base.resources",
    "Extensions.PathLineEdit",
    "Extensions.Settings.GeneralSettings",
    "StackSwitcher",
    "base.pycore",
    "rope.base.oi.runmod",
    "WritePad",
    "rope",
    "base.oi.soi",
    "base.resources",
    "fixsyntax",
    "base.oi.soa",
    "refactor.localtofield",
    "rename",
    "ViewSwitcher",
    "utils",
    "Settings.SettingsWidget",
    "BaseScintilla",
    "rope.refactor.occurrences",
    "usefunction",
    "refactor.occurrences",
    "cx_Freeze.dist",
    "importutils.importinfo",
    "rope.refactor.introduce_factory",
    "Python",
    "test_doctests",
    "Resources.build.64bit",
    "64bit.initscripts",
    "arguments",
    "PathLineEdit",
    "EditorTabWidget",
    "rope.refactor.restructure",
    "About",
    "rope.base.pynamesdef",
    "Extensions.GotoLineWidget",
    "FindInFiles",
    "rope.base.pycore",
    "pyflakes",
    "BottomWidgets.FindInFiles",
    "Extensions.TextEditor",
    "Projects.ProjectManager.ProjectManager",
    "pep8",
    "Outline.Outline",
    "Extensions",
    "Extensions.Projects.ProjectManager.ProjectView.ProjectView",
    "restructure",
    "actions",
    "cx_Freeze.windist",
    "pyflakes.test.test_imports",
    "Extensions.Settings.Keymap",
    "rope.base.default_config",
    "rope.refactor.introduce_parameter",
    "Extensions.Projects",
    "Extensions.Library.AdvancedSearch",
    "Settings.ColorScheme.Lexers.CssLexer",
    "Extensions.Workspace",
    "cx_Freeze.main",
    "build.64bit.initscripts.Console3",
    "BusyWidget",
    "cx_Freeze.freezer",
    "Extensions.Settings.ModuleCompletion",
    "finder",
    "cx_Freeze.hooks",
    "rope.base.pyobjectsdef",
    "rope.contrib.codeassist",
    "evaluate",
    "Messages",
    "rope.refactor.usefunction",
    "Extensions.Settings.ColorScheme.StyleLexer",
    "refactor.importutils.importinfo",
    "rope.base.pyobjects",
    "base.oi.doa",
    "VerticalSplitter",
    "refactor.importutils.module_imports",
    "32bit",
    "history",
    "Extensions.BottomWidgets.Profiler",
    "LibraryAddDialog",
    "pyflakes.scripts.pyflakes",
    "Refactor.Refactor",
    "rope.refactor.importutils.module_imports",
    "Extensions.Projects.ProjectManager.ProjectView",
    "ProjectManager.ConfigureProject",
    "Extensions.WritePad",
    "module_imports",
    "ModuleCompletion",
    "BottomWidgets.Messages",
    "Lexers.PythonLexer",
    "pyobjectsdef",
    "ColorScheme.StyleLexer",
    "Extensions.FileExplorer",
    "Extensions.TextSnapshot",
    "rope.base.resourceobserver",
    "pycore",
    "Extensions.BottomWidgets.BookmarkWidget",
    "rope.contrib.fixmodnames",
    "rope.base.libutils",
    "rope.refactor.extract",
    "Extensions.Projects.ProjectManager.Build",
    "Settings.ColorScheme",
    "Extensions.EditorWindow.VerticalSplitter",
    "Workspace",
    "rope.refactor.wildcards",
    "pynamesdef",
    "Settings.Keymap",
    "Extensions.BusyWidget",
    "XmlLexer",
    "pyflakes.test.test_other",
    "oi",
    "rope.refactor.method_object",
    "Refactor.UsageDialog",
    "BookmarkWidget",
    "test_undefined_names",
    "test.harness",
    "wildcards",
    "rope.refactor",
    "rope.base.taskhandle",
    "soi",
    "ColorChooser",
    "harness",
    "HtmlLexer",
    "contrib",
    "pyflakes.api",
    "multiproject",
    "Assistant",
    "transform",
    "ColorScheme.ColorChooser",
    "base.arguments",
    "rope.refactor.importutils.importinfo",
    "refactor.patchedast",
    "importutils",
    "SearchWidget",
    "base.evaluate",
    "EditorSplitter",
    "refactor.method_object",
    "Extensions.ViewSwitcher",
    "Settings.ColorScheme.Lexers",
    "Keymap",
    "refactor.extract",
    "UsageDialog",
    "pyflakes.test.test_api",
    "build.64bit",
    "prefs",
    "temp",
    "Lexers.XmlLexer",
    "base.change",
    "initscripts",
    "ProjectManager.ProjectManager",
    "Diff",
    "Extensions.Settings.ColorScheme.Lexers.HtmlLexer",
    "Extensions.Library",
    "Projects.ProjectManager.ProjectView",
    "base.builtins",
    "RunWidget",
    "rope.contrib.generate",
    "refactor.functionutils",
    "ProjectManager",
    "rope.contrib.finderrors",
    "base.worder",
    "refactor",
    "rope.refactor.topackage",
    "base.exceptions",
    "Resources.build.64bit.initscripts.ConsoleKeepPath3",
    "test",
    "Extensions.Outline",
    "suites",
    "rope.base.ast",
    "test.test_api",
    "rope.base.prefs",
    "base.oi.runmod",
    "resourceobserver",
    "refactor.introduce_parameter",
    "initscripts.Console3",
    "Extensions.BottomWidgets.Messages",
    "Extensions.Library.Library",
    "Lexers.CssLexer",
    "rope.contrib.autoimport",
    "build.32bit.initscripts",
    "rope.contrib.findit",
    "refactor.importutils.actions"
]