{
    "archive_url": "https://api.github.com/repos/jlc/envim/{archive_format}{/ref}",
    "assignees_url": "https://api.github.com/repos/jlc/envim/assignees{/user}",
    "blobs_url": "https://api.github.com/repos/jlc/envim/git/blobs{/sha}",
    "branches_url": "https://api.github.com/repos/jlc/envim/branches{/branch}",
    "clone_url": "https://github.com/jlc/envim.git",
    "collaborators_url": "https://api.github.com/repos/jlc/envim/collaborators{/collaborator}",
    "comments_url": "https://api.github.com/repos/jlc/envim/comments{/number}",
    "commits_url": "https://api.github.com/repos/jlc/envim/commits{/sha}",
    "compare_url": "https://api.github.com/repos/jlc/envim/compare/{base}...{head}",
    "contents_url": "https://api.github.com/repos/jlc/envim/contents/{+path}",
    "contributors_url": "https://api.github.com/repos/jlc/envim/contributors",
    "created_at": "2012-03-25T16:50:09Z",
    "default_branch": "master",
    "description": "The ensime for vim",
    "downloads_url": "https://api.github.com/repos/jlc/envim/downloads",
    "events_url": "https://api.github.com/repos/jlc/envim/events",
    "fork": false,
    "forks": 4,
    "forks_count": 4,
    "forks_url": "https://api.github.com/repos/jlc/envim/forks",
    "full_name": "jlc/envim",
    "git_commits_url": "https://api.github.com/repos/jlc/envim/git/commits{/sha}",
    "git_refs_url": "https://api.github.com/repos/jlc/envim/git/refs{/sha}",
    "git_tags_url": "https://api.github.com/repos/jlc/envim/git/tags{/sha}",
    "git_url": "git://github.com/jlc/envim.git",
    "has_downloads": true,
    "has_issues": true,
    "has_wiki": true,
    "homepage": "",
    "hooks_url": "https://api.github.com/repos/jlc/envim/hooks",
    "html_url": "https://github.com/jlc/envim",
    "id": 3825613,
    "issue_comment_url": "https://api.github.com/repos/jlc/envim/issues/comments/{number}",
    "issue_events_url": "https://api.github.com/repos/jlc/envim/issues/events{/number}",
    "issues_url": "https://api.github.com/repos/jlc/envim/issues{/number}",
    "keys_url": "https://api.github.com/repos/jlc/envim/keys{/key_id}",
    "labels_url": "https://api.github.com/repos/jlc/envim/labels{/name}",
    "language": "Python",
    "languages_url": "https://api.github.com/repos/jlc/envim/languages",
    "merges_url": "https://api.github.com/repos/jlc/envim/merges",
    "milestones_url": "https://api.github.com/repos/jlc/envim/milestones{/number}",
    "mirror_url": null,
    "name": "envim",
    "notifications_url": "https://api.github.com/repos/jlc/envim/notifications{?since,all,participating}",
    "open_issues": 11,
    "open_issues_count": 11,
    "owner": {
        "avatar_url": "https://avatars.githubusercontent.com/u/24811?",
        "events_url": "https://api.github.com/users/jlc/events{/privacy}",
        "followers_url": "https://api.github.com/users/jlc/followers",
        "following_url": "https://api.github.com/users/jlc/following{/other_user}",
        "gists_url": "https://api.github.com/users/jlc/gists{/gist_id}",
        "gravatar_id": "fd32f229af90295eef03df39d957956f",
        "html_url": "https://github.com/jlc",
        "id": 24811,
        "login": "jlc",
        "organizations_url": "https://api.github.com/users/jlc/orgs",
        "received_events_url": "https://api.github.com/users/jlc/received_events",
        "repos_url": "https://api.github.com/users/jlc/repos",
        "site_admin": false,
        "starred_url": "https://api.github.com/users/jlc/starred{/owner}{/repo}",
        "subscriptions_url": "https://api.github.com/users/jlc/subscriptions",
        "type": "User",
        "url": "https://api.github.com/users/jlc"
    },
    "private": false,
    "pulls_url": "https://api.github.com/repos/jlc/envim/pulls{/number}",
    "pushed_at": "2014-04-29T19:12:13Z",
    "releases_url": "https://api.github.com/repos/jlc/envim/releases{/id}",
    "score": 1.0,
    "size": 163,
    "ssh_url": "git@github.com:jlc/envim.git",
    "stargazers_count": 56,
    "stargazers_url": "https://api.github.com/repos/jlc/envim/stargazers",
    "statuses_url": "https://api.github.com/repos/jlc/envim/statuses/{sha}",
    "subscribers_url": "https://api.github.com/repos/jlc/envim/subscribers",
    "subscription_url": "https://api.github.com/repos/jlc/envim/subscription",
    "svn_url": "https://github.com/jlc/envim",
    "tags_url": "https://api.github.com/repos/jlc/envim/tags",
    "teams_url": "https://api.github.com/repos/jlc/envim/teams",
    "trees_url": "https://api.github.com/repos/jlc/envim/git/trees{/sha}",
    "updated_at": "2014-04-29T19:12:13Z",
    "url": "https://api.github.com/repos/jlc/envim",
    "watchers": 56,
    "watchers_count": 56
}