[
    "googleplaces.lang",
    "lang",
    "tests",
    "ranking",
    "googleplaces.tests.testfixtures",
    "testfixtures",
    "googleplaces.tests",
    "googleplaces.tests.tests",
    "tests.tests",
    "googleplaces",
    "googleplaces.types",
    "googleplaces.ranking",
    "types",
    "tests.testfixtures"
]