{
    "archive_url": "https://api.github.com/repos/noklesta/SublimeQuickFileCreator/{archive_format}{/ref}",
    "assignees_url": "https://api.github.com/repos/noklesta/SublimeQuickFileCreator/assignees{/user}",
    "blobs_url": "https://api.github.com/repos/noklesta/SublimeQuickFileCreator/git/blobs{/sha}",
    "branches_url": "https://api.github.com/repos/noklesta/SublimeQuickFileCreator/branches{/branch}",
    "clone_url": "https://github.com/noklesta/SublimeQuickFileCreator.git",
    "collaborators_url": "https://api.github.com/repos/noklesta/SublimeQuickFileCreator/collaborators{/collaborator}",
    "comments_url": "https://api.github.com/repos/noklesta/SublimeQuickFileCreator/comments{/number}",
    "commits_url": "https://api.github.com/repos/noklesta/SublimeQuickFileCreator/commits{/sha}",
    "compare_url": "https://api.github.com/repos/noklesta/SublimeQuickFileCreator/compare/{base}...{head}",
    "contents_url": "https://api.github.com/repos/noklesta/SublimeQuickFileCreator/contents/{+path}",
    "contributors_url": "https://api.github.com/repos/noklesta/SublimeQuickFileCreator/contributors",
    "created_at": "2012-02-05T13:56:42Z",
    "default_branch": "master",
    "description": "Quick File Creator plugin for Sublime Text 2",
    "downloads_url": "https://api.github.com/repos/noklesta/SublimeQuickFileCreator/downloads",
    "events_url": "https://api.github.com/repos/noklesta/SublimeQuickFileCreator/events",
    "fork": false,
    "forks": 17,
    "forks_count": 17,
    "forks_url": "https://api.github.com/repos/noklesta/SublimeQuickFileCreator/forks",
    "full_name": "noklesta/SublimeQuickFileCreator",
    "git_commits_url": "https://api.github.com/repos/noklesta/SublimeQuickFileCreator/git/commits{/sha}",
    "git_refs_url": "https://api.github.com/repos/noklesta/SublimeQuickFileCreator/git/refs{/sha}",
    "git_tags_url": "https://api.github.com/repos/noklesta/SublimeQuickFileCreator/git/tags{/sha}",
    "git_url": "git://github.com/noklesta/SublimeQuickFileCreator.git",
    "has_downloads": true,
    "has_issues": true,
    "has_wiki": true,
    "homepage": "",
    "hooks_url": "https://api.github.com/repos/noklesta/SublimeQuickFileCreator/hooks",
    "html_url": "https://github.com/noklesta/SublimeQuickFileCreator",
    "id": 3359641,
    "issue_comment_url": "https://api.github.com/repos/noklesta/SublimeQuickFileCreator/issues/comments/{number}",
    "issue_events_url": "https://api.github.com/repos/noklesta/SublimeQuickFileCreator/issues/events{/number}",
    "issues_url": "https://api.github.com/repos/noklesta/SublimeQuickFileCreator/issues{/number}",
    "keys_url": "https://api.github.com/repos/noklesta/SublimeQuickFileCreator/keys{/key_id}",
    "labels_url": "https://api.github.com/repos/noklesta/SublimeQuickFileCreator/labels{/name}",
    "language": "Python",
    "languages_url": "https://api.github.com/repos/noklesta/SublimeQuickFileCreator/languages",
    "merges_url": "https://api.github.com/repos/noklesta/SublimeQuickFileCreator/merges",
    "milestones_url": "https://api.github.com/repos/noklesta/SublimeQuickFileCreator/milestones{/number}",
    "mirror_url": null,
    "name": "SublimeQuickFileCreator",
    "notifications_url": "https://api.github.com/repos/noklesta/SublimeQuickFileCreator/notifications{?since,all,participating}",
    "open_issues": 2,
    "open_issues_count": 2,
    "owner": {
        "avatar_url": "https://avatars.githubusercontent.com/u/58072?",
        "events_url": "https://api.github.com/users/noklesta/events{/privacy}",
        "followers_url": "https://api.github.com/users/noklesta/followers",
        "following_url": "https://api.github.com/users/noklesta/following{/other_user}",
        "gists_url": "https://api.github.com/users/noklesta/gists{/gist_id}",
        "gravatar_id": "6def2d1a98690065e6b88fc8434b9e72",
        "html_url": "https://github.com/noklesta",
        "id": 58072,
        "login": "noklesta",
        "organizations_url": "https://api.github.com/users/noklesta/orgs",
        "received_events_url": "https://api.github.com/users/noklesta/received_events",
        "repos_url": "https://api.github.com/users/noklesta/repos",
        "site_admin": false,
        "starred_url": "https://api.github.com/users/noklesta/starred{/owner}{/repo}",
        "subscriptions_url": "https://api.github.com/users/noklesta/subscriptions",
        "type": "User",
        "url": "https://api.github.com/users/noklesta"
    },
    "private": false,
    "pulls_url": "https://api.github.com/repos/noklesta/SublimeQuickFileCreator/pulls{/number}",
    "pushed_at": "2013-07-11T11:08:36Z",
    "releases_url": "https://api.github.com/repos/noklesta/SublimeQuickFileCreator/releases{/id}",
    "score": 1.0,
    "size": 126,
    "ssh_url": "git@github.com:noklesta/SublimeQuickFileCreator.git",
    "stargazers_count": 46,
    "stargazers_url": "https://api.github.com/repos/noklesta/SublimeQuickFileCreator/stargazers",
    "statuses_url": "https://api.github.com/repos/noklesta/SublimeQuickFileCreator/statuses/{sha}",
    "subscribers_url": "https://api.github.com/repos/noklesta/SublimeQuickFileCreator/subscribers",
    "subscription_url": "https://api.github.com/repos/noklesta/SublimeQuickFileCreator/subscription",
    "svn_url": "https://github.com/noklesta/SublimeQuickFileCreator",
    "tags_url": "https://api.github.com/repos/noklesta/SublimeQuickFileCreator/tags",
    "teams_url": "https://api.github.com/repos/noklesta/SublimeQuickFileCreator/teams",
    "trees_url": "https://api.github.com/repos/noklesta/SublimeQuickFileCreator/git/trees{/sha}",
    "updated_at": "2014-05-06T18:08:28Z",
    "url": "https://api.github.com/repos/noklesta/SublimeQuickFileCreator",
    "watchers": 46,
    "watchers_count": 46
}