[
    "GetworkSource",
    "detect",
    "log",
    "ioutil",
    "StratumSource",
    "poclbm",
    "Miner",
    "socks",
    "util",
    "Source",
    "Switch",
    "version",
    "OpenCLMiner",
    "sha256",
    "BFLMiner"
]