{
    "archive_url": "https://api.github.com/repos/adulau/Forban/{archive_format}{/ref}",
    "assignees_url": "https://api.github.com/repos/adulau/Forban/assignees{/user}",
    "blobs_url": "https://api.github.com/repos/adulau/Forban/git/blobs{/sha}",
    "branches_url": "https://api.github.com/repos/adulau/Forban/branches{/branch}",
    "clone_url": "https://github.com/adulau/Forban.git",
    "collaborators_url": "https://api.github.com/repos/adulau/Forban/collaborators{/collaborator}",
    "comments_url": "https://api.github.com/repos/adulau/Forban/comments{/number}",
    "commits_url": "https://api.github.com/repos/adulau/Forban/commits{/sha}",
    "compare_url": "https://api.github.com/repos/adulau/Forban/compare/{base}...{head}",
    "contents_url": "https://api.github.com/repos/adulau/Forban/contents/{+path}",
    "contributors_url": "https://api.github.com/repos/adulau/Forban/contributors",
    "created_at": "2010-01-07T22:15:33Z",
    "default_branch": "master",
    "description": "Forban is a p2p application for link-local and local area networks.  Forban works independently from the Internet and uses only the local area capabilities to announce, discover, search or share files. Forban relies on HTTP and it is \"opportunistic\".",
    "downloads_url": "https://api.github.com/repos/adulau/Forban/downloads",
    "events_url": "https://api.github.com/repos/adulau/Forban/events",
    "fork": false,
    "forks": 14,
    "forks_count": 14,
    "forks_url": "https://api.github.com/repos/adulau/Forban/forks",
    "full_name": "adulau/Forban",
    "git_commits_url": "https://api.github.com/repos/adulau/Forban/git/commits{/sha}",
    "git_refs_url": "https://api.github.com/repos/adulau/Forban/git/refs{/sha}",
    "git_tags_url": "https://api.github.com/repos/adulau/Forban/git/tags{/sha}",
    "git_url": "git://github.com/adulau/Forban.git",
    "has_downloads": true,
    "has_issues": true,
    "has_wiki": true,
    "homepage": "http://www.foo.be/forban/",
    "hooks_url": "https://api.github.com/repos/adulau/Forban/hooks",
    "html_url": "https://github.com/adulau/Forban",
    "id": 463016,
    "issue_comment_url": "https://api.github.com/repos/adulau/Forban/issues/comments/{number}",
    "issue_events_url": "https://api.github.com/repos/adulau/Forban/issues/events{/number}",
    "issues_url": "https://api.github.com/repos/adulau/Forban/issues{/number}",
    "keys_url": "https://api.github.com/repos/adulau/Forban/keys{/key_id}",
    "labels_url": "https://api.github.com/repos/adulau/Forban/labels{/name}",
    "language": "Python",
    "languages_url": "https://api.github.com/repos/adulau/Forban/languages",
    "merges_url": "https://api.github.com/repos/adulau/Forban/merges",
    "milestones_url": "https://api.github.com/repos/adulau/Forban/milestones{/number}",
    "mirror_url": null,
    "name": "Forban",
    "notifications_url": "https://api.github.com/repos/adulau/Forban/notifications{?since,all,participating}",
    "open_issues": 7,
    "open_issues_count": 7,
    "owner": {
        "avatar_url": "https://avatars.githubusercontent.com/u/3309?",
        "events_url": "https://api.github.com/users/adulau/events{/privacy}",
        "followers_url": "https://api.github.com/users/adulau/followers",
        "following_url": "https://api.github.com/users/adulau/following{/other_user}",
        "gists_url": "https://api.github.com/users/adulau/gists{/gist_id}",
        "gravatar_id": "a83264249ae0c9457bfa53418cf2345f",
        "html_url": "https://github.com/adulau",
        "id": 3309,
        "login": "adulau",
        "organizations_url": "https://api.github.com/users/adulau/orgs",
        "received_events_url": "https://api.github.com/users/adulau/received_events",
        "repos_url": "https://api.github.com/users/adulau/repos",
        "site_admin": false,
        "starred_url": "https://api.github.com/users/adulau/starred{/owner}{/repo}",
        "subscriptions_url": "https://api.github.com/users/adulau/subscriptions",
        "type": "User",
        "url": "https://api.github.com/users/adulau"
    },
    "private": false,
    "pulls_url": "https://api.github.com/repos/adulau/Forban/pulls{/number}",
    "pushed_at": "2013-08-02T07:16:09Z",
    "releases_url": "https://api.github.com/repos/adulau/Forban/releases{/id}",
    "score": 1.0,
    "size": 2071,
    "ssh_url": "git@github.com:adulau/Forban.git",
    "stargazers_count": 62,
    "stargazers_url": "https://api.github.com/repos/adulau/Forban/stargazers",
    "statuses_url": "https://api.github.com/repos/adulau/Forban/statuses/{sha}",
    "subscribers_url": "https://api.github.com/repos/adulau/Forban/subscribers",
    "subscription_url": "https://api.github.com/repos/adulau/Forban/subscription",
    "svn_url": "https://github.com/adulau/Forban",
    "tags_url": "https://api.github.com/repos/adulau/Forban/tags",
    "teams_url": "https://api.github.com/repos/adulau/Forban/teams",
    "trees_url": "https://api.github.com/repos/adulau/Forban/git/trees{/sha}",
    "updated_at": "2014-04-30T00:51:43Z",
    "url": "https://api.github.com/repos/adulau/Forban",
    "watchers": 62,
    "watchers_count": 62
}