{
    "archive_url": "https://api.github.com/repos/statesofpop/django-cal/{archive_format}{/ref}",
    "assignees_url": "https://api.github.com/repos/statesofpop/django-cal/assignees{/user}",
    "blobs_url": "https://api.github.com/repos/statesofpop/django-cal/git/blobs{/sha}",
    "branches_url": "https://api.github.com/repos/statesofpop/django-cal/branches{/branch}",
    "clone_url": "https://github.com/statesofpop/django-cal.git",
    "collaborators_url": "https://api.github.com/repos/statesofpop/django-cal/collaborators{/collaborator}",
    "comments_url": "https://api.github.com/repos/statesofpop/django-cal/comments{/number}",
    "commits_url": "https://api.github.com/repos/statesofpop/django-cal/commits{/sha}",
    "compare_url": "https://api.github.com/repos/statesofpop/django-cal/compare/{base}...{head}",
    "contents_url": "https://api.github.com/repos/statesofpop/django-cal/contents/{+path}",
    "contributors_url": "https://api.github.com/repos/statesofpop/django-cal/contributors",
    "created_at": "2011-01-25T14:00:26Z",
    "default_branch": "master",
    "description": "Django app to enable exporting of events to iCalendar files.  Imitates behavior of django.contrib.syndication and is based upon vobject",
    "downloads_url": "https://api.github.com/repos/statesofpop/django-cal/downloads",
    "events_url": "https://api.github.com/repos/statesofpop/django-cal/events",
    "fork": false,
    "forks": 9,
    "forks_count": 9,
    "forks_url": "https://api.github.com/repos/statesofpop/django-cal/forks",
    "full_name": "statesofpop/django-cal",
    "git_commits_url": "https://api.github.com/repos/statesofpop/django-cal/git/commits{/sha}",
    "git_refs_url": "https://api.github.com/repos/statesofpop/django-cal/git/refs{/sha}",
    "git_tags_url": "https://api.github.com/repos/statesofpop/django-cal/git/tags{/sha}",
    "git_url": "git://github.com/statesofpop/django-cal.git",
    "has_downloads": true,
    "has_issues": true,
    "has_wiki": true,
    "homepage": "",
    "hooks_url": "https://api.github.com/repos/statesofpop/django-cal/hooks",
    "html_url": "https://github.com/statesofpop/django-cal",
    "id": 1291544,
    "issue_comment_url": "https://api.github.com/repos/statesofpop/django-cal/issues/comments/{number}",
    "issue_events_url": "https://api.github.com/repos/statesofpop/django-cal/issues/events{/number}",
    "issues_url": "https://api.github.com/repos/statesofpop/django-cal/issues{/number}",
    "keys_url": "https://api.github.com/repos/statesofpop/django-cal/keys{/key_id}",
    "labels_url": "https://api.github.com/repos/statesofpop/django-cal/labels{/name}",
    "language": "Python",
    "languages_url": "https://api.github.com/repos/statesofpop/django-cal/languages",
    "merges_url": "https://api.github.com/repos/statesofpop/django-cal/merges",
    "milestones_url": "https://api.github.com/repos/statesofpop/django-cal/milestones{/number}",
    "mirror_url": null,
    "name": "django-cal",
    "notifications_url": "https://api.github.com/repos/statesofpop/django-cal/notifications{?since,all,participating}",
    "open_issues": 2,
    "open_issues_count": 2,
    "owner": {
        "avatar_url": "https://avatars.githubusercontent.com/u/201576?",
        "events_url": "https://api.github.com/users/statesofpop/events{/privacy}",
        "followers_url": "https://api.github.com/users/statesofpop/followers",
        "following_url": "https://api.github.com/users/statesofpop/following{/other_user}",
        "gists_url": "https://api.github.com/users/statesofpop/gists{/gist_id}",
        "gravatar_id": "8f5174c7a5bb884018b94b05cc2e7b41",
        "html_url": "https://github.com/statesofpop",
        "id": 201576,
        "login": "statesofpop",
        "organizations_url": "https://api.github.com/users/statesofpop/orgs",
        "received_events_url": "https://api.github.com/users/statesofpop/received_events",
        "repos_url": "https://api.github.com/users/statesofpop/repos",
        "site_admin": false,
        "starred_url": "https://api.github.com/users/statesofpop/starred{/owner}{/repo}",
        "subscriptions_url": "https://api.github.com/users/statesofpop/subscriptions",
        "type": "User",
        "url": "https://api.github.com/users/statesofpop"
    },
    "private": false,
    "pulls_url": "https://api.github.com/repos/statesofpop/django-cal/pulls{/number}",
    "pushed_at": "2013-01-09T12:02:11Z",
    "releases_url": "https://api.github.com/repos/statesofpop/django-cal/releases{/id}",
    "score": 1.0,
    "size": 194,
    "ssh_url": "git@github.com:statesofpop/django-cal.git",
    "stargazers_count": 46,
    "stargazers_url": "https://api.github.com/repos/statesofpop/django-cal/stargazers",
    "statuses_url": "https://api.github.com/repos/statesofpop/django-cal/statuses/{sha}",
    "subscribers_url": "https://api.github.com/repos/statesofpop/django-cal/subscribers",
    "subscription_url": "https://api.github.com/repos/statesofpop/django-cal/subscription",
    "svn_url": "https://github.com/statesofpop/django-cal",
    "tags_url": "https://api.github.com/repos/statesofpop/django-cal/tags",
    "teams_url": "https://api.github.com/repos/statesofpop/django-cal/teams",
    "trees_url": "https://api.github.com/repos/statesofpop/django-cal/git/trees{/sha}",
    "updated_at": "2014-04-24T12:15:32Z",
    "url": "https://api.github.com/repos/statesofpop/django-cal",
    "watchers": 46,
    "watchers_count": 46
}