[
    "appengine.makenewteam",
    "appengine.acceptInvite",
    "appengine.requests",
    "appengine.userinfo",
    "pyongyang",
    "share",
    "appengine.user_sn",
    "Content",
    "appengine.cache",
    "acceptInvite",
    "makenewteam",
    "appengine.teamadmin",
    "appengine.search",
    "appengine.sneakfiles",
    "sneakernet_config",
    "appengine.cachetalk",
    "cache",
    "resetPW",
    "appengine.team",
    "teamadmin",
    "appengine.request",
    "preflight",
    "userinfo",
    "mail",
    "main",
    "run",
    "appengine.run",
    "user_sn",
    "team",
    "sneak",
    "appengine.mail",
    "appengine.main",
    "appengine.share",
    "preflightcompile",
    "cachetalk",
    "appengine.magic",
    "search",
    "appengine.Content",
    "magic",
    "request",
    "appengine.resetPW",
    "purge",
    "sneakfiles",
    "requests",
    "appengine",
    "appengine.purge"
]