{
    "archive_url": "https://api.github.com/repos/rackerlabs/stacktach/{archive_format}{/ref}",
    "assignees_url": "https://api.github.com/repos/rackerlabs/stacktach/assignees{/user}",
    "blobs_url": "https://api.github.com/repos/rackerlabs/stacktach/git/blobs{/sha}",
    "branches_url": "https://api.github.com/repos/rackerlabs/stacktach/branches{/branch}",
    "clone_url": "https://github.com/rackerlabs/stacktach.git",
    "collaborators_url": "https://api.github.com/repos/rackerlabs/stacktach/collaborators{/collaborator}",
    "comments_url": "https://api.github.com/repos/rackerlabs/stacktach/comments{/number}",
    "commits_url": "https://api.github.com/repos/rackerlabs/stacktach/commits{/sha}",
    "compare_url": "https://api.github.com/repos/rackerlabs/stacktach/compare/{base}...{head}",
    "contents_url": "https://api.github.com/repos/rackerlabs/stacktach/contents/{+path}",
    "contributors_url": "https://api.github.com/repos/rackerlabs/stacktach/contributors",
    "created_at": "2012-09-05T20:16:15Z",
    "default_branch": "master",
    "description": "Event-based Monitoring & Billing solution for OpenStack ",
    "downloads_url": "https://api.github.com/repos/rackerlabs/stacktach/downloads",
    "events_url": "https://api.github.com/repos/rackerlabs/stacktach/events",
    "fork": false,
    "forks": 30,
    "forks_count": 30,
    "forks_url": "https://api.github.com/repos/rackerlabs/stacktach/forks",
    "full_name": "rackerlabs/stacktach",
    "git_commits_url": "https://api.github.com/repos/rackerlabs/stacktach/git/commits{/sha}",
    "git_refs_url": "https://api.github.com/repos/rackerlabs/stacktach/git/refs{/sha}",
    "git_tags_url": "https://api.github.com/repos/rackerlabs/stacktach/git/tags{/sha}",
    "git_url": "git://github.com/rackerlabs/stacktach.git",
    "has_downloads": true,
    "has_issues": true,
    "has_wiki": true,
    "homepage": "",
    "hooks_url": "https://api.github.com/repos/rackerlabs/stacktach/hooks",
    "html_url": "https://github.com/rackerlabs/stacktach",
    "id": 5692885,
    "issue_comment_url": "https://api.github.com/repos/rackerlabs/stacktach/issues/comments/{number}",
    "issue_events_url": "https://api.github.com/repos/rackerlabs/stacktach/issues/events{/number}",
    "issues_url": "https://api.github.com/repos/rackerlabs/stacktach/issues{/number}",
    "keys_url": "https://api.github.com/repos/rackerlabs/stacktach/keys{/key_id}",
    "labels_url": "https://api.github.com/repos/rackerlabs/stacktach/labels{/name}",
    "language": "Python",
    "languages_url": "https://api.github.com/repos/rackerlabs/stacktach/languages",
    "merges_url": "https://api.github.com/repos/rackerlabs/stacktach/merges",
    "milestones_url": "https://api.github.com/repos/rackerlabs/stacktach/milestones{/number}",
    "mirror_url": null,
    "name": "stacktach",
    "notifications_url": "https://api.github.com/repos/rackerlabs/stacktach/notifications{?since,all,participating}",
    "open_issues": 11,
    "open_issues_count": 11,
    "owner": {
        "avatar_url": "https://avatars.githubusercontent.com/u/84293?",
        "events_url": "https://api.github.com/users/rackerlabs/events{/privacy}",
        "followers_url": "https://api.github.com/users/rackerlabs/followers",
        "following_url": "https://api.github.com/users/rackerlabs/following{/other_user}",
        "gists_url": "https://api.github.com/users/rackerlabs/gists{/gist_id}",
        "gravatar_id": "cc2ad66c312c32facaf25a69bc6779cb",
        "html_url": "https://github.com/rackerlabs",
        "id": 84293,
        "login": "rackerlabs",
        "organizations_url": "https://api.github.com/users/rackerlabs/orgs",
        "received_events_url": "https://api.github.com/users/rackerlabs/received_events",
        "repos_url": "https://api.github.com/users/rackerlabs/repos",
        "site_admin": false,
        "starred_url": "https://api.github.com/users/rackerlabs/starred{/owner}{/repo}",
        "subscriptions_url": "https://api.github.com/users/rackerlabs/subscriptions",
        "type": "Organization",
        "url": "https://api.github.com/users/rackerlabs"
    },
    "private": false,
    "pulls_url": "https://api.github.com/repos/rackerlabs/stacktach/pulls{/number}",
    "pushed_at": "2014-05-06T06:21:27Z",
    "releases_url": "https://api.github.com/repos/rackerlabs/stacktach/releases{/id}",
    "score": 1.0,
    "size": 4179,
    "ssh_url": "git@github.com:rackerlabs/stacktach.git",
    "stargazers_count": 57,
    "stargazers_url": "https://api.github.com/repos/rackerlabs/stacktach/stargazers",
    "statuses_url": "https://api.github.com/repos/rackerlabs/stacktach/statuses/{sha}",
    "subscribers_url": "https://api.github.com/repos/rackerlabs/stacktach/subscribers",
    "subscription_url": "https://api.github.com/repos/rackerlabs/stacktach/subscription",
    "svn_url": "https://github.com/rackerlabs/stacktach",
    "tags_url": "https://api.github.com/repos/rackerlabs/stacktach/tags",
    "teams_url": "https://api.github.com/repos/rackerlabs/stacktach/teams",
    "trees_url": "https://api.github.com/repos/rackerlabs/stacktach/git/trees{/sha}",
    "updated_at": "2014-05-06T06:21:28Z",
    "url": "https://api.github.com/repos/rackerlabs/stacktach",
    "watchers": 57,
    "watchers_count": 57
}