{
    "libs": [
        "abc",
        "socket",
        "threading",
        "traceback",
        "subprocess",
        "queue",
        "re",
        "io",
        "time",
        "path",
        "sublime_plugin",
        "os",
        "sublime"
    ]
}