{
    "archive_url": "https://api.github.com/repos/samastur/image-diet/{archive_format}{/ref}",
    "assignees_url": "https://api.github.com/repos/samastur/image-diet/assignees{/user}",
    "blobs_url": "https://api.github.com/repos/samastur/image-diet/git/blobs{/sha}",
    "branches_url": "https://api.github.com/repos/samastur/image-diet/branches{/branch}",
    "clone_url": "https://github.com/samastur/image-diet.git",
    "collaborators_url": "https://api.github.com/repos/samastur/image-diet/collaborators{/collaborator}",
    "comments_url": "https://api.github.com/repos/samastur/image-diet/comments{/number}",
    "commits_url": "https://api.github.com/repos/samastur/image-diet/commits{/sha}",
    "compare_url": "https://api.github.com/repos/samastur/image-diet/compare/{base}...{head}",
    "contents_url": "https://api.github.com/repos/samastur/image-diet/contents/{+path}",
    "contributors_url": "https://api.github.com/repos/samastur/image-diet/contributors",
    "created_at": "2013-01-03T00:24:08Z",
    "default_branch": "master",
    "description": "A Django application for removing unnecessary bytes from images. Integrates seemlessly with Easy Thumbnails.",
    "downloads_url": "https://api.github.com/repos/samastur/image-diet/downloads",
    "events_url": "https://api.github.com/repos/samastur/image-diet/events",
    "fork": false,
    "forks": 4,
    "forks_count": 4,
    "forks_url": "https://api.github.com/repos/samastur/image-diet/forks",
    "full_name": "samastur/image-diet",
    "git_commits_url": "https://api.github.com/repos/samastur/image-diet/git/commits{/sha}",
    "git_refs_url": "https://api.github.com/repos/samastur/image-diet/git/refs{/sha}",
    "git_tags_url": "https://api.github.com/repos/samastur/image-diet/git/tags{/sha}",
    "git_url": "git://github.com/samastur/image-diet.git",
    "has_downloads": true,
    "has_issues": true,
    "has_wiki": true,
    "homepage": null,
    "hooks_url": "https://api.github.com/repos/samastur/image-diet/hooks",
    "html_url": "https://github.com/samastur/image-diet",
    "id": 7415612,
    "issue_comment_url": "https://api.github.com/repos/samastur/image-diet/issues/comments/{number}",
    "issue_events_url": "https://api.github.com/repos/samastur/image-diet/issues/events{/number}",
    "issues_url": "https://api.github.com/repos/samastur/image-diet/issues{/number}",
    "keys_url": "https://api.github.com/repos/samastur/image-diet/keys{/key_id}",
    "labels_url": "https://api.github.com/repos/samastur/image-diet/labels{/name}",
    "language": "Python",
    "languages_url": "https://api.github.com/repos/samastur/image-diet/languages",
    "merges_url": "https://api.github.com/repos/samastur/image-diet/merges",
    "milestones_url": "https://api.github.com/repos/samastur/image-diet/milestones{/number}",
    "mirror_url": null,
    "name": "image-diet",
    "notifications_url": "https://api.github.com/repos/samastur/image-diet/notifications{?since,all,participating}",
    "open_issues": 4,
    "open_issues_count": 4,
    "owner": {
        "avatar_url": "https://avatars.githubusercontent.com/u/572571?",
        "events_url": "https://api.github.com/users/samastur/events{/privacy}",
        "followers_url": "https://api.github.com/users/samastur/followers",
        "following_url": "https://api.github.com/users/samastur/following{/other_user}",
        "gists_url": "https://api.github.com/users/samastur/gists{/gist_id}",
        "gravatar_id": "34d226fcfcba0ed555e9e0905ca75481",
        "html_url": "https://github.com/samastur",
        "id": 572571,
        "login": "samastur",
        "organizations_url": "https://api.github.com/users/samastur/orgs",
        "received_events_url": "https://api.github.com/users/samastur/received_events",
        "repos_url": "https://api.github.com/users/samastur/repos",
        "site_admin": false,
        "starred_url": "https://api.github.com/users/samastur/starred{/owner}{/repo}",
        "subscriptions_url": "https://api.github.com/users/samastur/subscriptions",
        "type": "User",
        "url": "https://api.github.com/users/samastur"
    },
    "private": false,
    "pulls_url": "https://api.github.com/repos/samastur/image-diet/pulls{/number}",
    "pushed_at": "2013-09-10T08:06:11Z",
    "releases_url": "https://api.github.com/repos/samastur/image-diet/releases{/id}",
    "score": 1.0,
    "size": 323,
    "ssh_url": "git@github.com:samastur/image-diet.git",
    "stargazers_count": 41,
    "stargazers_url": "https://api.github.com/repos/samastur/image-diet/stargazers",
    "statuses_url": "https://api.github.com/repos/samastur/image-diet/statuses/{sha}",
    "subscribers_url": "https://api.github.com/repos/samastur/image-diet/subscribers",
    "subscription_url": "https://api.github.com/repos/samastur/image-diet/subscription",
    "svn_url": "https://github.com/samastur/image-diet",
    "tags_url": "https://api.github.com/repos/samastur/image-diet/tags",
    "teams_url": "https://api.github.com/repos/samastur/image-diet/teams",
    "trees_url": "https://api.github.com/repos/samastur/image-diet/git/trees{/sha}",
    "updated_at": "2014-05-03T15:28:14Z",
    "url": "https://api.github.com/repos/samastur/image-diet",
    "watchers": 41,
    "watchers_count": 41
}