{
    "archive_url": "https://api.github.com/repos/erikrose/peep/{archive_format}{/ref}",
    "assignees_url": "https://api.github.com/repos/erikrose/peep/assignees{/user}",
    "blobs_url": "https://api.github.com/repos/erikrose/peep/git/blobs{/sha}",
    "branches_url": "https://api.github.com/repos/erikrose/peep/branches{/branch}",
    "clone_url": "https://github.com/erikrose/peep.git",
    "collaborators_url": "https://api.github.com/repos/erikrose/peep/collaborators{/collaborator}",
    "comments_url": "https://api.github.com/repos/erikrose/peep/comments{/number}",
    "commits_url": "https://api.github.com/repos/erikrose/peep/commits{/sha}",
    "compare_url": "https://api.github.com/repos/erikrose/peep/compare/{base}...{head}",
    "contents_url": "https://api.github.com/repos/erikrose/peep/contents/{+path}",
    "contributors_url": "https://api.github.com/repos/erikrose/peep/contributors",
    "created_at": "2013-06-21T19:44:59Z",
    "default_branch": "master",
    "description": "A \"pip install\" that is cryptographically guaranteed repeatable",
    "downloads_url": "https://api.github.com/repos/erikrose/peep/downloads",
    "events_url": "https://api.github.com/repos/erikrose/peep/events",
    "fork": false,
    "forks": 9,
    "forks_count": 9,
    "forks_url": "https://api.github.com/repos/erikrose/peep/forks",
    "full_name": "erikrose/peep",
    "git_commits_url": "https://api.github.com/repos/erikrose/peep/git/commits{/sha}",
    "git_refs_url": "https://api.github.com/repos/erikrose/peep/git/refs{/sha}",
    "git_tags_url": "https://api.github.com/repos/erikrose/peep/git/tags{/sha}",
    "git_url": "git://github.com/erikrose/peep.git",
    "has_downloads": true,
    "has_issues": true,
    "has_wiki": true,
    "homepage": null,
    "hooks_url": "https://api.github.com/repos/erikrose/peep/hooks",
    "html_url": "https://github.com/erikrose/peep",
    "id": 10850960,
    "issue_comment_url": "https://api.github.com/repos/erikrose/peep/issues/comments/{number}",
    "issue_events_url": "https://api.github.com/repos/erikrose/peep/issues/events{/number}",
    "issues_url": "https://api.github.com/repos/erikrose/peep/issues{/number}",
    "keys_url": "https://api.github.com/repos/erikrose/peep/keys{/key_id}",
    "labels_url": "https://api.github.com/repos/erikrose/peep/labels{/name}",
    "language": "Python",
    "languages_url": "https://api.github.com/repos/erikrose/peep/languages",
    "merges_url": "https://api.github.com/repos/erikrose/peep/merges",
    "milestones_url": "https://api.github.com/repos/erikrose/peep/milestones{/number}",
    "mirror_url": null,
    "name": "peep",
    "notifications_url": "https://api.github.com/repos/erikrose/peep/notifications{?since,all,participating}",
    "open_issues": 14,
    "open_issues_count": 14,
    "owner": {
        "avatar_url": "https://avatars.githubusercontent.com/u/295816?",
        "events_url": "https://api.github.com/users/erikrose/events{/privacy}",
        "followers_url": "https://api.github.com/users/erikrose/followers",
        "following_url": "https://api.github.com/users/erikrose/following{/other_user}",
        "gists_url": "https://api.github.com/users/erikrose/gists{/gist_id}",
        "gravatar_id": "a2e2fa7edec98420c8b87f64b7b80e54",
        "html_url": "https://github.com/erikrose",
        "id": 295816,
        "login": "erikrose",
        "organizations_url": "https://api.github.com/users/erikrose/orgs",
        "received_events_url": "https://api.github.com/users/erikrose/received_events",
        "repos_url": "https://api.github.com/users/erikrose/repos",
        "site_admin": false,
        "starred_url": "https://api.github.com/users/erikrose/starred{/owner}{/repo}",
        "subscriptions_url": "https://api.github.com/users/erikrose/subscriptions",
        "type": "User",
        "url": "https://api.github.com/users/erikrose"
    },
    "private": false,
    "pulls_url": "https://api.github.com/repos/erikrose/peep/pulls{/number}",
    "pushed_at": "2014-04-06T02:26:17Z",
    "releases_url": "https://api.github.com/repos/erikrose/peep/releases{/id}",
    "score": 1.0,
    "size": 535,
    "ssh_url": "git@github.com:erikrose/peep.git",
    "stargazers_count": 67,
    "stargazers_url": "https://api.github.com/repos/erikrose/peep/stargazers",
    "statuses_url": "https://api.github.com/repos/erikrose/peep/statuses/{sha}",
    "subscribers_url": "https://api.github.com/repos/erikrose/peep/subscribers",
    "subscription_url": "https://api.github.com/repos/erikrose/peep/subscription",
    "svn_url": "https://github.com/erikrose/peep",
    "tags_url": "https://api.github.com/repos/erikrose/peep/tags",
    "teams_url": "https://api.github.com/repos/erikrose/peep/teams",
    "trees_url": "https://api.github.com/repos/erikrose/peep/git/trees{/sha}",
    "updated_at": "2014-05-02T14:05:03Z",
    "url": "https://api.github.com/repos/erikrose/peep",
    "watchers": 67,
    "watchers_count": 67
}