{
    "libs": [
        "shortcuts",
        "text",
        "absolute_import",
        "datetime",
        "contrib",
        "api",
        "contextlib",
        "conf",
        "operator",
        "shutil",
        "unipath",
        "indexes",
        "platform",
        "json",
        "html",
        "template",
        "test",
        "haystack",
        "rele",
        "core",
        "http",
        "optparse",
        "zipfile",
        "db",
        "dat",
        "tzinfo",
        "v2",
        "modwsgi",
        "subprocess",
        "sys",
        "b",
        "logging",
        "debug_toolbar",
        "django",
        "os"
    ]
}