{
    "libs": [
        "operations",
        "features",
        "random",
        "api",
        "_paths",
        "stats",
        "pathlib",
        "re",
        "collections",
        "cProfile",
        "math",
        "files",
        "parser",
        "pstats",
        "sys",
        "plac",
        "path",
        "optimise",
        "StringIO",
        "io_parse",
        "itertools",
        "sh",
        "time",
        "os"
    ]
}