{
    "libs": [
        "el",
        "datetime",
        "requestbuilder",
        "io",
        "ElementTree",
        "shutil",
        "uuid",
        "xmlparse",
        "tempfile",
        "six",
        "tarfile",
        "urllib",
        "json",
        "getp",
        "math",
        "bin",
        "division",
        "stat",
        "etree",
        "auth",
        "sys",
        "objectify",
        "path",
        "subprocess",
        "response",
        "argparse",
        "b",
        "logging",
        "socket",
        "h",
        "hmac",
        "threading",
        "itertools",
        "command",
        "time",
        "requests",
        "os",
        "multiprocessing",
        "describeconversiont"
    ]
}