{
    "archive_url": "https://api.github.com/repos/xysec/AFE/{archive_format}{/ref}",
    "assignees_url": "https://api.github.com/repos/xysec/AFE/assignees{/user}",
    "blobs_url": "https://api.github.com/repos/xysec/AFE/git/blobs{/sha}",
    "branches_url": "https://api.github.com/repos/xysec/AFE/branches{/branch}",
    "clone_url": "https://github.com/xysec/AFE.git",
    "collaborators_url": "https://api.github.com/repos/xysec/AFE/collaborators{/collaborator}",
    "comments_url": "https://api.github.com/repos/xysec/AFE/comments{/number}",
    "commits_url": "https://api.github.com/repos/xysec/AFE/commits{/sha}",
    "compare_url": "https://api.github.com/repos/xysec/AFE/compare/{base}...{head}",
    "contents_url": "https://api.github.com/repos/xysec/AFE/contents/{+path}",
    "contributors_url": "https://api.github.com/repos/xysec/AFE/contributors",
    "created_at": "2012-11-18T18:06:57Z",
    "default_branch": "master",
    "description": "Android Framework for Exploitation, is a framework for exploiting android based devices",
    "downloads_url": "https://api.github.com/repos/xysec/AFE/downloads",
    "events_url": "https://api.github.com/repos/xysec/AFE/events",
    "fork": false,
    "forks": 33,
    "forks_count": 33,
    "forks_url": "https://api.github.com/repos/xysec/AFE/forks",
    "full_name": "xysec/AFE",
    "git_commits_url": "https://api.github.com/repos/xysec/AFE/git/commits{/sha}",
    "git_refs_url": "https://api.github.com/repos/xysec/AFE/git/refs{/sha}",
    "git_tags_url": "https://api.github.com/repos/xysec/AFE/git/tags{/sha}",
    "git_url": "git://github.com/xysec/AFE.git",
    "has_downloads": true,
    "has_issues": true,
    "has_wiki": true,
    "homepage": null,
    "hooks_url": "https://api.github.com/repos/xysec/AFE/hooks",
    "html_url": "https://github.com/xysec/AFE",
    "id": 6749508,
    "issue_comment_url": "https://api.github.com/repos/xysec/AFE/issues/comments/{number}",
    "issue_events_url": "https://api.github.com/repos/xysec/AFE/issues/events{/number}",
    "issues_url": "https://api.github.com/repos/xysec/AFE/issues{/number}",
    "keys_url": "https://api.github.com/repos/xysec/AFE/keys{/key_id}",
    "labels_url": "https://api.github.com/repos/xysec/AFE/labels{/name}",
    "language": "Python",
    "languages_url": "https://api.github.com/repos/xysec/AFE/languages",
    "merges_url": "https://api.github.com/repos/xysec/AFE/merges",
    "milestones_url": "https://api.github.com/repos/xysec/AFE/milestones{/number}",
    "mirror_url": null,
    "name": "AFE",
    "notifications_url": "https://api.github.com/repos/xysec/AFE/notifications{?since,all,participating}",
    "open_issues": 1,
    "open_issues_count": 1,
    "owner": {
        "avatar_url": "https://avatars.githubusercontent.com/u/2828422?",
        "events_url": "https://api.github.com/users/xysec/events{/privacy}",
        "followers_url": "https://api.github.com/users/xysec/followers",
        "following_url": "https://api.github.com/users/xysec/following{/other_user}",
        "gists_url": "https://api.github.com/users/xysec/gists{/gist_id}",
        "gravatar_id": "ab9432fd2ad53be9e862c9db5d16002e",
        "html_url": "https://github.com/xysec",
        "id": 2828422,
        "login": "xysec",
        "organizations_url": "https://api.github.com/users/xysec/orgs",
        "received_events_url": "https://api.github.com/users/xysec/received_events",
        "repos_url": "https://api.github.com/users/xysec/repos",
        "site_admin": false,
        "starred_url": "https://api.github.com/users/xysec/starred{/owner}{/repo}",
        "subscriptions_url": "https://api.github.com/users/xysec/subscriptions",
        "type": "User",
        "url": "https://api.github.com/users/xysec"
    },
    "private": false,
    "pulls_url": "https://api.github.com/repos/xysec/AFE/pulls{/number}",
    "pushed_at": "2013-09-01T05:38:33Z",
    "releases_url": "https://api.github.com/repos/xysec/AFE/releases{/id}",
    "score": 1.0,
    "size": 236,
    "ssh_url": "git@github.com:xysec/AFE.git",
    "stargazers_count": 63,
    "stargazers_url": "https://api.github.com/repos/xysec/AFE/stargazers",
    "statuses_url": "https://api.github.com/repos/xysec/AFE/statuses/{sha}",
    "subscribers_url": "https://api.github.com/repos/xysec/AFE/subscribers",
    "subscription_url": "https://api.github.com/repos/xysec/AFE/subscription",
    "svn_url": "https://github.com/xysec/AFE",
    "tags_url": "https://api.github.com/repos/xysec/AFE/tags",
    "teams_url": "https://api.github.com/repos/xysec/AFE/teams",
    "trees_url": "https://api.github.com/repos/xysec/AFE/git/trees{/sha}",
    "updated_at": "2014-04-24T19:55:34Z",
    "url": "https://api.github.com/repos/xysec/AFE",
    "watchers": 63,
    "watchers_count": 63
}