[
    "python.install",
    "python.sp",
    "python.configure",
    "test_versionlower",
    "python.lib.wine",
    "python.lib.Variables",
    "lng",
    "python.test_versionlower",
    "python.wine_versions",
    "playonlinux",
    "lib",
    "python.wrapper",
    "python.lib.irc",
    "wrapper",
    "python.lib",
    "tests.python",
    "python.options",
    "tests.python.test_versionlower",
    "irc",
    "python.lib.lng",
    "python.irc",
    "lib.irc",
    "lib.Variables",
    "tests",
    "python.guiv3",
    "configure",
    "python",
    "lib.lng",
    "python.mainwindow",
    "guiv3",
    "python.debug",
    "wine_versions",
    "python.gui_server",
    "mainwindow",
    "gui_server",
    "lib.playonlinux",
    "Variables",
    "sp",
    "install",
    "debug",
    "python.lib.playonlinux",
    "options",
    "lib.wine",
    "wine"
]