[
    "web_spider_example",
    "test_semaphore",
    "event_example",
    "test.test_condition",
    "test_condition",
    "producer_consumer_example",
    "test.test_lock",
    "test.test_queue",
    "examples.event_example",
    "examples.producer_consumer_example",
    "examples",
    "conf",
    "test.test_async_result",
    "examples.lock_example",
    "test_lock",
    "doc.conf",
    "test.test_event",
    "test_queue",
    "test_event",
    "test_async_result",
    "doc",
    "test",
    "examples.web_spider_example",
    "test.test_semaphore",
    "lock_example"
]