{
    "archive_url": "https://api.github.com/repos/condemil/Gist/{archive_format}{/ref}",
    "assignees_url": "https://api.github.com/repos/condemil/Gist/assignees{/user}",
    "blobs_url": "https://api.github.com/repos/condemil/Gist/git/blobs{/sha}",
    "branches_url": "https://api.github.com/repos/condemil/Gist/branches{/branch}",
    "clone_url": "https://github.com/condemil/Gist.git",
    "collaborators_url": "https://api.github.com/repos/condemil/Gist/collaborators{/collaborator}",
    "comments_url": "https://api.github.com/repos/condemil/Gist/comments{/number}",
    "commits_url": "https://api.github.com/repos/condemil/Gist/commits{/sha}",
    "compare_url": "https://api.github.com/repos/condemil/Gist/compare/{base}...{head}",
    "contents_url": "https://api.github.com/repos/condemil/Gist/contents/{+path}",
    "contributors_url": "https://api.github.com/repos/condemil/Gist/contributors",
    "created_at": "2011-10-16T19:57:36Z",
    "default_branch": "master",
    "description": "Sublime Text plugin for creating new Gists from selected text",
    "downloads_url": "https://api.github.com/repos/condemil/Gist/downloads",
    "events_url": "https://api.github.com/repos/condemil/Gist/events",
    "fork": false,
    "forks": 81,
    "forks_count": 81,
    "forks_url": "https://api.github.com/repos/condemil/Gist/forks",
    "full_name": "condemil/Gist",
    "git_commits_url": "https://api.github.com/repos/condemil/Gist/git/commits{/sha}",
    "git_refs_url": "https://api.github.com/repos/condemil/Gist/git/refs{/sha}",
    "git_tags_url": "https://api.github.com/repos/condemil/Gist/git/tags{/sha}",
    "git_url": "git://github.com/condemil/Gist.git",
    "has_downloads": true,
    "has_issues": true,
    "has_wiki": true,
    "homepage": "",
    "hooks_url": "https://api.github.com/repos/condemil/Gist/hooks",
    "html_url": "https://github.com/condemil/Gist",
    "id": 2587803,
    "issue_comment_url": "https://api.github.com/repos/condemil/Gist/issues/comments/{number}",
    "issue_events_url": "https://api.github.com/repos/condemil/Gist/issues/events{/number}",
    "issues_url": "https://api.github.com/repos/condemil/Gist/issues{/number}",
    "keys_url": "https://api.github.com/repos/condemil/Gist/keys{/key_id}",
    "labels_url": "https://api.github.com/repos/condemil/Gist/labels{/name}",
    "language": "Python",
    "languages_url": "https://api.github.com/repos/condemil/Gist/languages",
    "merges_url": "https://api.github.com/repos/condemil/Gist/merges",
    "milestones_url": "https://api.github.com/repos/condemil/Gist/milestones{/number}",
    "mirror_url": null,
    "name": "Gist",
    "notifications_url": "https://api.github.com/repos/condemil/Gist/notifications{?since,all,participating}",
    "open_issues": 22,
    "open_issues_count": 22,
    "owner": {
        "avatar_url": "https://avatars.githubusercontent.com/u/722990?",
        "events_url": "https://api.github.com/users/condemil/events{/privacy}",
        "followers_url": "https://api.github.com/users/condemil/followers",
        "following_url": "https://api.github.com/users/condemil/following{/other_user}",
        "gists_url": "https://api.github.com/users/condemil/gists{/gist_id}",
        "gravatar_id": "257c19152f9f5edd7a89c80d0225a4f3",
        "html_url": "https://github.com/condemil",
        "id": 722990,
        "login": "condemil",
        "organizations_url": "https://api.github.com/users/condemil/orgs",
        "received_events_url": "https://api.github.com/users/condemil/received_events",
        "repos_url": "https://api.github.com/users/condemil/repos",
        "site_admin": false,
        "starred_url": "https://api.github.com/users/condemil/starred{/owner}{/repo}",
        "subscriptions_url": "https://api.github.com/users/condemil/subscriptions",
        "type": "User",
        "url": "https://api.github.com/users/condemil"
    },
    "private": false,
    "pulls_url": "https://api.github.com/repos/condemil/Gist/pulls{/number}",
    "pushed_at": "2014-03-29T08:40:18Z",
    "releases_url": "https://api.github.com/repos/condemil/Gist/releases{/id}",
    "score": 1.0,
    "size": 509,
    "ssh_url": "git@github.com:condemil/Gist.git",
    "stargazers_count": 405,
    "stargazers_url": "https://api.github.com/repos/condemil/Gist/stargazers",
    "statuses_url": "https://api.github.com/repos/condemil/Gist/statuses/{sha}",
    "subscribers_url": "https://api.github.com/repos/condemil/Gist/subscribers",
    "subscription_url": "https://api.github.com/repos/condemil/Gist/subscription",
    "svn_url": "https://github.com/condemil/Gist",
    "tags_url": "https://api.github.com/repos/condemil/Gist/tags",
    "teams_url": "https://api.github.com/repos/condemil/Gist/teams",
    "trees_url": "https://api.github.com/repos/condemil/Gist/git/trees{/sha}",
    "updated_at": "2014-05-06T18:25:19Z",
    "url": "https://api.github.com/repos/condemil/Gist",
    "watchers": 405,
    "watchers_count": 405
}