[
    "tests.container_test",
    "utils",
    "misc",
    "utils_test",
    "tests.object_test",
    "object_test",
    "cloudfiles.errors",
    "errors",
    "container",
    "storage_object",
    "cloudfiles.authentication",
    "connection_test",
    "tests.utils_test",
    "authentication",
    "connectionpool_test",
    "fjson",
    "cloudfiles.storage_object",
    "container_test",
    "cloudfiles.container",
    "tests",
    "cloudfiles",
    "tests.connectionpool_test",
    "cloudfiles.connection",
    "consts",
    "fakehttp",
    "tests.fakehttp",
    "cloudfiles.consts",
    "tests.authentication_test",
    "tests.misc",
    "cloudfiles.fjson",
    "authentication_test",
    "cloudfiles.utils",
    "connection",
    "tests.connection_test"
]