{
    "archive_url": "https://api.github.com/repos/Pylons/substanced/{archive_format}{/ref}",
    "assignees_url": "https://api.github.com/repos/Pylons/substanced/assignees{/user}",
    "blobs_url": "https://api.github.com/repos/Pylons/substanced/git/blobs{/sha}",
    "branches_url": "https://api.github.com/repos/Pylons/substanced/branches{/branch}",
    "clone_url": "https://github.com/Pylons/substanced.git",
    "collaborators_url": "https://api.github.com/repos/Pylons/substanced/collaborators{/collaborator}",
    "comments_url": "https://api.github.com/repos/Pylons/substanced/comments{/number}",
    "commits_url": "https://api.github.com/repos/Pylons/substanced/commits{/sha}",
    "compare_url": "https://api.github.com/repos/Pylons/substanced/compare/{base}...{head}",
    "contents_url": "https://api.github.com/repos/Pylons/substanced/contents/{+path}",
    "contributors_url": "https://api.github.com/repos/Pylons/substanced/contributors",
    "created_at": "2012-04-02T05:25:31Z",
    "default_branch": "master",
    "description": "An application server based on the Pyramid web framework (http://substanced.net)",
    "downloads_url": "https://api.github.com/repos/Pylons/substanced/downloads",
    "events_url": "https://api.github.com/repos/Pylons/substanced/events",
    "fork": false,
    "forks": 42,
    "forks_count": 42,
    "forks_url": "https://api.github.com/repos/Pylons/substanced/forks",
    "full_name": "Pylons/substanced",
    "git_commits_url": "https://api.github.com/repos/Pylons/substanced/git/commits{/sha}",
    "git_refs_url": "https://api.github.com/repos/Pylons/substanced/git/refs{/sha}",
    "git_tags_url": "https://api.github.com/repos/Pylons/substanced/git/tags{/sha}",
    "git_url": "git://github.com/Pylons/substanced.git",
    "has_downloads": true,
    "has_issues": true,
    "has_wiki": true,
    "homepage": "",
    "hooks_url": "https://api.github.com/repos/Pylons/substanced/hooks",
    "html_url": "https://github.com/Pylons/substanced",
    "id": 3897821,
    "issue_comment_url": "https://api.github.com/repos/Pylons/substanced/issues/comments/{number}",
    "issue_events_url": "https://api.github.com/repos/Pylons/substanced/issues/events{/number}",
    "issues_url": "https://api.github.com/repos/Pylons/substanced/issues{/number}",
    "keys_url": "https://api.github.com/repos/Pylons/substanced/keys{/key_id}",
    "labels_url": "https://api.github.com/repos/Pylons/substanced/labels{/name}",
    "language": "Python",
    "languages_url": "https://api.github.com/repos/Pylons/substanced/languages",
    "merges_url": "https://api.github.com/repos/Pylons/substanced/merges",
    "milestones_url": "https://api.github.com/repos/Pylons/substanced/milestones{/number}",
    "mirror_url": null,
    "name": "substanced",
    "notifications_url": "https://api.github.com/repos/Pylons/substanced/notifications{?since,all,participating}",
    "open_issues": 49,
    "open_issues_count": 49,
    "owner": {
        "avatar_url": "https://avatars.githubusercontent.com/u/452227?",
        "events_url": "https://api.github.com/users/Pylons/events{/privacy}",
        "followers_url": "https://api.github.com/users/Pylons/followers",
        "following_url": "https://api.github.com/users/Pylons/following{/other_user}",
        "gists_url": "https://api.github.com/users/Pylons/gists{/gist_id}",
        "gravatar_id": "58a7ce5173b7cbcd0dad95c2e5c2bd35",
        "html_url": "https://github.com/Pylons",
        "id": 452227,
        "login": "Pylons",
        "organizations_url": "https://api.github.com/users/Pylons/orgs",
        "received_events_url": "https://api.github.com/users/Pylons/received_events",
        "repos_url": "https://api.github.com/users/Pylons/repos",
        "site_admin": false,
        "starred_url": "https://api.github.com/users/Pylons/starred{/owner}{/repo}",
        "subscriptions_url": "https://api.github.com/users/Pylons/subscriptions",
        "type": "Organization",
        "url": "https://api.github.com/users/Pylons"
    },
    "private": false,
    "pulls_url": "https://api.github.com/repos/Pylons/substanced/pulls{/number}",
    "pushed_at": "2014-05-07T06:25:33Z",
    "releases_url": "https://api.github.com/repos/Pylons/substanced/releases{/id}",
    "score": 1.0,
    "size": 14556,
    "ssh_url": "git@github.com:Pylons/substanced.git",
    "stargazers_count": 70,
    "stargazers_url": "https://api.github.com/repos/Pylons/substanced/stargazers",
    "statuses_url": "https://api.github.com/repos/Pylons/substanced/statuses/{sha}",
    "subscribers_url": "https://api.github.com/repos/Pylons/substanced/subscribers",
    "subscription_url": "https://api.github.com/repos/Pylons/substanced/subscription",
    "svn_url": "https://github.com/Pylons/substanced",
    "tags_url": "https://api.github.com/repos/Pylons/substanced/tags",
    "teams_url": "https://api.github.com/repos/Pylons/substanced/teams",
    "trees_url": "https://api.github.com/repos/Pylons/substanced/git/trees{/sha}",
    "updated_at": "2014-05-07T06:25:32Z",
    "url": "https://api.github.com/repos/Pylons/substanced",
    "watchers": 70,
    "watchers_count": 70
}