{
    "archive_url": "https://api.github.com/repos/wolever/pip2pi/{archive_format}{/ref}",
    "assignees_url": "https://api.github.com/repos/wolever/pip2pi/assignees{/user}",
    "blobs_url": "https://api.github.com/repos/wolever/pip2pi/git/blobs{/sha}",
    "branches_url": "https://api.github.com/repos/wolever/pip2pi/branches{/branch}",
    "clone_url": "https://github.com/wolever/pip2pi.git",
    "collaborators_url": "https://api.github.com/repos/wolever/pip2pi/collaborators{/collaborator}",
    "comments_url": "https://api.github.com/repos/wolever/pip2pi/comments{/number}",
    "commits_url": "https://api.github.com/repos/wolever/pip2pi/commits{/sha}",
    "compare_url": "https://api.github.com/repos/wolever/pip2pi/compare/{base}...{head}",
    "contents_url": "https://api.github.com/repos/wolever/pip2pi/contents/{+path}",
    "contributors_url": "https://api.github.com/repos/wolever/pip2pi/contributors",
    "created_at": "2011-12-21T20:26:45Z",
    "default_branch": "master",
    "description": "pip2pi builds a PyPI-compatible package repository from pip requirements",
    "downloads_url": "https://api.github.com/repos/wolever/pip2pi/downloads",
    "events_url": "https://api.github.com/repos/wolever/pip2pi/events",
    "fork": false,
    "forks": 23,
    "forks_count": 23,
    "forks_url": "https://api.github.com/repos/wolever/pip2pi/forks",
    "full_name": "wolever/pip2pi",
    "git_commits_url": "https://api.github.com/repos/wolever/pip2pi/git/commits{/sha}",
    "git_refs_url": "https://api.github.com/repos/wolever/pip2pi/git/refs{/sha}",
    "git_tags_url": "https://api.github.com/repos/wolever/pip2pi/git/tags{/sha}",
    "git_url": "git://github.com/wolever/pip2pi.git",
    "has_downloads": true,
    "has_issues": true,
    "has_wiki": true,
    "homepage": "",
    "hooks_url": "https://api.github.com/repos/wolever/pip2pi/hooks",
    "html_url": "https://github.com/wolever/pip2pi",
    "id": 3029516,
    "issue_comment_url": "https://api.github.com/repos/wolever/pip2pi/issues/comments/{number}",
    "issue_events_url": "https://api.github.com/repos/wolever/pip2pi/issues/events{/number}",
    "issues_url": "https://api.github.com/repos/wolever/pip2pi/issues{/number}",
    "keys_url": "https://api.github.com/repos/wolever/pip2pi/keys{/key_id}",
    "labels_url": "https://api.github.com/repos/wolever/pip2pi/labels{/name}",
    "language": "Python",
    "languages_url": "https://api.github.com/repos/wolever/pip2pi/languages",
    "merges_url": "https://api.github.com/repos/wolever/pip2pi/merges",
    "milestones_url": "https://api.github.com/repos/wolever/pip2pi/milestones{/number}",
    "mirror_url": null,
    "name": "pip2pi",
    "notifications_url": "https://api.github.com/repos/wolever/pip2pi/notifications{?since,all,participating}",
    "open_issues": 5,
    "open_issues_count": 5,
    "owner": {
        "avatar_url": "https://avatars.githubusercontent.com/u/59575?",
        "events_url": "https://api.github.com/users/wolever/events{/privacy}",
        "followers_url": "https://api.github.com/users/wolever/followers",
        "following_url": "https://api.github.com/users/wolever/following{/other_user}",
        "gists_url": "https://api.github.com/users/wolever/gists{/gist_id}",
        "gravatar_id": "f0e286ba0482e57904e89e753a4b36e6",
        "html_url": "https://github.com/wolever",
        "id": 59575,
        "login": "wolever",
        "organizations_url": "https://api.github.com/users/wolever/orgs",
        "received_events_url": "https://api.github.com/users/wolever/received_events",
        "repos_url": "https://api.github.com/users/wolever/repos",
        "site_admin": false,
        "starred_url": "https://api.github.com/users/wolever/starred{/owner}{/repo}",
        "subscriptions_url": "https://api.github.com/users/wolever/subscriptions",
        "type": "User",
        "url": "https://api.github.com/users/wolever"
    },
    "private": false,
    "pulls_url": "https://api.github.com/repos/wolever/pip2pi/pulls{/number}",
    "pushed_at": "2014-03-05T04:21:51Z",
    "releases_url": "https://api.github.com/repos/wolever/pip2pi/releases{/id}",
    "score": 1.0,
    "size": 405,
    "ssh_url": "git@github.com:wolever/pip2pi.git",
    "stargazers_count": 215,
    "stargazers_url": "https://api.github.com/repos/wolever/pip2pi/stargazers",
    "statuses_url": "https://api.github.com/repos/wolever/pip2pi/statuses/{sha}",
    "subscribers_url": "https://api.github.com/repos/wolever/pip2pi/subscribers",
    "subscription_url": "https://api.github.com/repos/wolever/pip2pi/subscription",
    "svn_url": "https://github.com/wolever/pip2pi",
    "tags_url": "https://api.github.com/repos/wolever/pip2pi/tags",
    "teams_url": "https://api.github.com/repos/wolever/pip2pi/teams",
    "trees_url": "https://api.github.com/repos/wolever/pip2pi/git/trees{/sha}",
    "updated_at": "2014-05-04T16:25:47Z",
    "url": "https://api.github.com/repos/wolever/pip2pi",
    "watchers": 215,
    "watchers_count": 215
}