[
    "examples.oauth",
    "conf",
    "facebook.version",
    "tornado",
    "docs",
    "examples.tornado",
    "tornado.example",
    "examples.tornado.example",
    "test_facebook",
    "facebookoauth",
    "examples",
    "examples.appengine",
    "newsfeed",
    "oauth",
    "examples.newsfeed.facebookclient",
    "docs.conf",
    "facebookclient",
    "examples.oauth.facebookoauth",
    "examples.newsfeed",
    "oauth.facebookoauth",
    "examples.appengine.example",
    "version",
    "appengine.example",
    "test",
    "facebook",
    "newsfeed.facebookclient",
    "example",
    "appengine",
    "test.test_facebook"
]