[
    "sigprocessing",
    "helper.perf",
    "query",
    "thunder.classification.classify",
    "python.test.test_factorization",
    "test.test_matrixrdd",
    "python.thunder.factorization.ica",
    "python.thunder.classification.classify",
    "classification.classify",
    "test.test_clustering",
    "thunder.regression.tuning",
    "python.test.test_sigprocessing",
    "clustering.kmeans",
    "test.test_regression",
    "pca",
    "thunder.clustering",
    "python.thunder.regression.regresswithpca",
    "perf.thundertestrunner",
    "python.thunder.regression",
    "python",
    "thunder.sigprocessing.fourier",
    "util",
    "classification.util",
    "test_classification",
    "python.thunder.sigprocessing",
    "test_clustering",
    "crosscorr",
    "test_utils",
    "factorization",
    "streaming.timedTransfer",
    "data.streaming",
    "python.thunder.util",
    "data.streaming.timedTransfer",
    "thunder.regression.regress",
    "python.test",
    "streaming",
    "helper.ec2.thunder-ec2",
    "ec2",
    "python.thunder.classification.util",
    "stats",
    "test_load",
    "thunder",
    "ica",
    "matrixrdd",
    "thunder-ec2",
    "python.thunder.util.load",
    "python.thunder.sigprocessing.fourier",
    "sigprocessing.localcorr",
    "tuning",
    "thunder.sigprocessing.crosscorr",
    "python.thunder.util.matrixrdd",
    "python.thunder.sigprocessing.util",
    "sigprocessing.stats",
    "python.thunder.regression.regress",
    "thunder.factorization.util",
    "thunder.sigprocessing",
    "matdiff",
    "test_sigprocessing",
    "regress",
    "fourier",
    "python.thunder",
    "thunder.classification.util",
    "python.test.matdiff",
    "load",
    "thunder.factorization.pca",
    "classification",
    "python.test.test_regression",
    "timedTransfer",
    "python.thunder.clustering",
    "kmeans",
    "python.thunder.sigprocessing.query",
    "test_regression",
    "test_factorization",
    "thunder.util.save",
    "python.thunder.classification",
    "clustering",
    "sigprocessing.fourier",
    "thunder.util.matrixrdd",
    "perf",
    "thunder.util.load",
    "util.matrixrdd",
    "thunder.classification",
    "util.save",
    "save",
    "localcorr",
    "thunder.regression",
    "test.test_sigprocessing",
    "python.thunder.sigprocessing.localcorr",
    "perf.thunderdatatest",
    "sigprocessing.util",
    "regression.util",
    "test_matrixrdd",
    "regression.tuning",
    "python.test.test_matrixrdd",
    "test.matdiff",
    "regression.regresswithpca",
    "test.test_load",
    "helper.perf.thunderdatatest",
    "helper.ec2",
    "python.thunder.clustering.kmeans",
    "thunder.sigprocessing.localcorr",
    "factorization.ica",
    "thunder.regression.regresswithpca",
    "python.thunder.factorization.pca",
    "factorization.util",
    "test.test_factorization",
    "helper",
    "thundertestrunner",
    "python.thunder.util.save",
    "ec2.thunder-ec2",
    "thunder.util",
    "regression",
    "thunderdatatest",
    "regression.regress",
    "util.load",
    "python.test.test_load",
    "python.test.test_classification",
    "thunder.regression.util",
    "sigprocessing.crosscorr",
    "test",
    "helper.thunder-startup",
    "classify",
    "python.thunder.regression.tuning",
    "test.test_classification",
    "python.thunder.sigprocessing.stats",
    "python.test.test_clustering",
    "thunder.sigprocessing.util",
    "test.test_utils",
    "sigprocessing.query",
    "python.thunder.regression.util",
    "thunder.sigprocessing.query",
    "data",
    "thunder.factorization",
    "thunder.clustering.kmeans",
    "thunder-startup",
    "helper.perf.thundertestrunner",
    "python.test.test_utils",
    "thunder.factorization.ica",
    "python.thunder.sigprocessing.crosscorr",
    "regresswithpca",
    "thunder.sigprocessing.stats",
    "python.thunder.factorization",
    "factorization.pca",
    "python.thunder.factorization.util"
]