{
    "archive_url": "https://api.github.com/repos/ben174/rikeripsum/{archive_format}{/ref}",
    "assignees_url": "https://api.github.com/repos/ben174/rikeripsum/assignees{/user}",
    "blobs_url": "https://api.github.com/repos/ben174/rikeripsum/git/blobs{/sha}",
    "branches_url": "https://api.github.com/repos/ben174/rikeripsum/branches{/branch}",
    "clone_url": "https://github.com/ben174/rikeripsum.git",
    "collaborators_url": "https://api.github.com/repos/ben174/rikeripsum/collaborators{/collaborator}",
    "comments_url": "https://api.github.com/repos/ben174/rikeripsum/comments{/number}",
    "commits_url": "https://api.github.com/repos/ben174/rikeripsum/commits{/sha}",
    "compare_url": "https://api.github.com/repos/ben174/rikeripsum/compare/{base}...{head}",
    "contents_url": "https://api.github.com/repos/ben174/rikeripsum/contents/{+path}",
    "contributors_url": "https://api.github.com/repos/ben174/rikeripsum/contributors",
    "created_at": "2013-06-22T22:26:00Z",
    "default_branch": "master",
    "description": "Generates text - like lorem ipsum - but uses real English. Taken from random samplings of dialog spoken by Commander William Riker in Star Trek: The Next Generation.",
    "downloads_url": "https://api.github.com/repos/ben174/rikeripsum/downloads",
    "events_url": "https://api.github.com/repos/ben174/rikeripsum/events",
    "fork": false,
    "forks": 16,
    "forks_count": 16,
    "forks_url": "https://api.github.com/repos/ben174/rikeripsum/forks",
    "full_name": "ben174/rikeripsum",
    "git_commits_url": "https://api.github.com/repos/ben174/rikeripsum/git/commits{/sha}",
    "git_refs_url": "https://api.github.com/repos/ben174/rikeripsum/git/refs{/sha}",
    "git_tags_url": "https://api.github.com/repos/ben174/rikeripsum/git/tags{/sha}",
    "git_url": "git://github.com/ben174/rikeripsum.git",
    "has_downloads": true,
    "has_issues": true,
    "has_wiki": true,
    "homepage": null,
    "hooks_url": "https://api.github.com/repos/ben174/rikeripsum/hooks",
    "html_url": "https://github.com/ben174/rikeripsum",
    "id": 10873693,
    "issue_comment_url": "https://api.github.com/repos/ben174/rikeripsum/issues/comments/{number}",
    "issue_events_url": "https://api.github.com/repos/ben174/rikeripsum/issues/events{/number}",
    "issues_url": "https://api.github.com/repos/ben174/rikeripsum/issues{/number}",
    "keys_url": "https://api.github.com/repos/ben174/rikeripsum/keys{/key_id}",
    "labels_url": "https://api.github.com/repos/ben174/rikeripsum/labels{/name}",
    "language": "Python",
    "languages_url": "https://api.github.com/repos/ben174/rikeripsum/languages",
    "merges_url": "https://api.github.com/repos/ben174/rikeripsum/merges",
    "milestones_url": "https://api.github.com/repos/ben174/rikeripsum/milestones{/number}",
    "mirror_url": null,
    "name": "rikeripsum",
    "notifications_url": "https://api.github.com/repos/ben174/rikeripsum/notifications{?since,all,participating}",
    "open_issues": 4,
    "open_issues_count": 4,
    "owner": {
        "avatar_url": "https://avatars.githubusercontent.com/u/1502483?",
        "events_url": "https://api.github.com/users/ben174/events{/privacy}",
        "followers_url": "https://api.github.com/users/ben174/followers",
        "following_url": "https://api.github.com/users/ben174/following{/other_user}",
        "gists_url": "https://api.github.com/users/ben174/gists{/gist_id}",
        "gravatar_id": "dee40223b08878fd7423c01723a67531",
        "html_url": "https://github.com/ben174",
        "id": 1502483,
        "login": "ben174",
        "organizations_url": "https://api.github.com/users/ben174/orgs",
        "received_events_url": "https://api.github.com/users/ben174/received_events",
        "repos_url": "https://api.github.com/users/ben174/repos",
        "site_admin": false,
        "starred_url": "https://api.github.com/users/ben174/starred{/owner}{/repo}",
        "subscriptions_url": "https://api.github.com/users/ben174/subscriptions",
        "type": "User",
        "url": "https://api.github.com/users/ben174"
    },
    "private": false,
    "pulls_url": "https://api.github.com/repos/ben174/rikeripsum/pulls{/number}",
    "pushed_at": "2013-11-27T19:27:34Z",
    "releases_url": "https://api.github.com/repos/ben174/rikeripsum/releases{/id}",
    "score": 1.0,
    "size": 6964,
    "ssh_url": "git@github.com:ben174/rikeripsum.git",
    "stargazers_count": 111,
    "stargazers_url": "https://api.github.com/repos/ben174/rikeripsum/stargazers",
    "statuses_url": "https://api.github.com/repos/ben174/rikeripsum/statuses/{sha}",
    "subscribers_url": "https://api.github.com/repos/ben174/rikeripsum/subscribers",
    "subscription_url": "https://api.github.com/repos/ben174/rikeripsum/subscription",
    "svn_url": "https://github.com/ben174/rikeripsum",
    "tags_url": "https://api.github.com/repos/ben174/rikeripsum/tags",
    "teams_url": "https://api.github.com/repos/ben174/rikeripsum/teams",
    "trees_url": "https://api.github.com/repos/ben174/rikeripsum/git/trees{/sha}",
    "updated_at": "2013-11-27T19:27:34Z",
    "url": "https://api.github.com/repos/ben174/rikeripsum",
    "watchers": 111,
    "watchers_count": 111
}