[
    "views",
    "friends.management",
    "friends.importer",
    "friendsdev.manage",
    "manage",
    "friendsdev",
    "friends",
    "friends.forms",
    "management",
    "settings",
    "admin",
    "friendsdev.settings",
    "friends.models",
    "forms",
    "models",
    "importer",
    "urls",
    "friendsdev.urls",
    "friends.admin",
    "friends.views"
]