{
    "libs": [
        "encoding",
        "unicode_literals",
        "text",
        "utils",
        "absolute_import",
        "datetime",
        "parse",
        "validators",
        "timezone",
        "management",
        "generic",
        "urllib",
        "forms",
        "collections",
        "test",
        "mock",
        "db",
        "sys",
        "related",
        "translation",
        "copy",
        "constants",
        "dat",
        "decimal",
        "list",
        "django",
        "itertools",
        "client",
        "exceptions",
        "os",
        "safestring"
    ]
}