[
    "qrdata.qrv1_1",
    "test.code128",
    "qrdata.qrv1_0",
    "hubarcode.qrcode.qrdata.fr15",
    "qrcode.qrdata.qrv18_3",
    "qrcode.qrdata.qrv19_0",
    "qrcode.qrdata.qrv19_1",
    "hubarcode.qrcode.qrdata.fr40",
    "qrcode.qrdata.qrv19_3",
    "hubarcode.qrcode.qrdata.fr17",
    "qrv21_0",
    "qrv21_1",
    "qrv21_2",
    "qrv21_3",
    "experimental.code128decoder.code128encoding",
    "qrcode.qrdata.qrv38_3",
    "qrcode.qrdata.qrv38_2",
    "qrcode.qrdata.qrv38_1",
    "qrcode.qrdata.qrv38_0",
    "rsc26",
    "rsc24",
    "rsc22",
    "rsc20",
    "rsc28",
    "code128.renderer",
    "hubarcode.qrcode.qrdata.qrv3_1",
    "hubarcode.qrcode.qrdata.qrv3_0",
    "hubarcode.qrcode.qrdata.qrv3_3",
    "hubarcode.qrcode.qrdata.qrv3_2",
    "qrv32_2",
    "hubarcode.ean13.encoding",
    "hubarcode.qrcode.isodata",
    "hubarcode.qrcode.qrdata.qrv1_2",
    "hubarcode.qrcode.qrdata.qrv1_1",
    "hubarcode.qrcode.qrdata.qrv1_0",
    "qrdata.qrv15_3",
    "qrdata.qrv17_2",
    "code128",
    "qrdata.qrv15_1",
    "qrdata.qrv7_2",
    "qrcode.qrdata.qrv19_2",
    "matrixtest",
    "hubarcode.code128.encoding",
    "ean13.renderer",
    "hubarcode.qrcode.qrdata.qrv7_1",
    "hubarcode.qrcode.qrdata.qrv7_0",
    "hubarcode.qrcode.qrdata.qrv7_3",
    "hubarcode.qrcode.qrdata.qrv7_2",
    "hubarcode.qrcode.qrdata.qrv5_3",
    "hubarcode.qrcode.qrdata.qrv5_2",
    "hubarcode.qrcode.qrdata.qrv5_1",
    "hubarcode.qrcode.qrdata.qrv5_0",
    "qrcode.qrdata.qrv28_2",
    "qrv25_0",
    "qrv25_1",
    "qrv25_2",
    "qrv25_3",
    "qrdata.qrv28_3",
    "qrdata.qrv28_2",
    "qrdata.qrv28_1",
    "qrdata.qrv28_0",
    "qrdata.qrv5_2",
    "hubarcode.qrcode.qrdata.rsc30",
    "qrv23_2",
    "hubarcode.qrcode.qrdata.qrv9_2",
    "qrv23_0",
    "qrv23_1",
    "fr22",
    "code128test",
    "fr20",
    "fr21",
    "fr26",
    "fr27",
    "fr24",
    "fr25",
    "qrdata.qrv24_3",
    "fr28",
    "fr29",
    "qrcode.qrdata.qrv2_0",
    "qrdata.qrv24_1",
    "qrcode.qrdata.qrv2_2",
    "qrdata.qrv26_1",
    "qrdata.qrv26_0",
    "qrdata.qrv26_3",
    "qrdata.qrv26_2",
    "qrcode.renderer",
    "qrdata.fr15",
    "qrdata.fr14",
    "qrdata.fr17",
    "qrdata.fr16",
    "qrdata.fr11",
    "qrdata.fr10",
    "qrdata.fr13",
    "qrdata.fr12",
    "qrdata.fr19",
    "qrdata.fr18",
    "hubarcode.qrcode.qrdata",
    "examples.datamatrix",
    "qrv15_2",
    "qrv27_2",
    "qrv27_3",
    "qrv27_0",
    "qrv27_1",
    "qrdata.fr21",
    "qrcode.qrdata.qrv28_0",
    "qrcode.qrdata.qrv4_3",
    "qrcode.qrdata.qrv4_2",
    "qrcode.qrdata.qrv4_1",
    "hubarcode.qrcode.qrdata.qrv31_0",
    "hubarcode.qrcode.qrdata.qrv35_1",
    "hubarcode.qrcode.qrdata.qrv35_0",
    "hubarcode.qrcode.qrdata.qrv35_3",
    "hubarcode.qrcode.qrdata.qrv35_2",
    "hubarcode.qrcode.qrdata.fr19",
    "hubarcode.qrcode.qrdata.fr18",
    "qrdata.qrv20_3",
    "hubarcode.qrcode.qrdata.fr14",
    "qrdata.qrv20_1",
    "qrdata.qrv20_0",
    "hubarcode.qrcode.qrdata.fr11",
    "hubarcode.qrcode.qrdata.fr10",
    "hubarcode.qrcode.qrdata.fr13",
    "hubarcode.qrcode.qrdata.fr12",
    "hubarcode.qrcode.qrdata.qrv18_2",
    "hubarcode.qrcode.qrdata.qrv18_3",
    "hubarcode.qrcode.qrdata.qrv18_0",
    "hubarcode.qrcode.qrdata.qrv18_1",
    "qrcode.qrdata.qrv32_0",
    "qrdata.qrv22_1",
    "qrdata.qrv22_0",
    "qrdata.qrv22_3",
    "qrdata.qrv22_2",
    "qrv28_1",
    "qrv28_0",
    "qrv28_3",
    "qrv28_2",
    "qrcode.qrdata.fr8",
    "qrcode.qrdata.qrv2_1",
    "qrdata.qrv24_2",
    "qrcode.qrdata.qrv2_3",
    "qrdata.qrv24_0",
    "hubarcode.qrcode.qrdata.qrv12_0",
    "hubarcode.qrcode.qrdata.qrv12_1",
    "hubarcode.qrcode.qrdata.qrv12_2",
    "hubarcode.qrcode.qrdata.qrv12_3",
    "hubarcode.qrcode.qrdata.qrv31_1",
    "qrcode.qrdata.qrv28_1",
    "hubarcode.qrcode.qrdata.qrv31_3",
    "qrcode.qrdata.qrv28_3",
    "qrcode.qrdata.qrv9_2",
    "qrcode.qrdata.qrv9_3",
    "qrcode.qrdata.qrv9_0",
    "qrcode.qrdata.qrv9_1",
    "hubarcode.qrcode.qrdata.qrv31_2",
    "hubarcode.qrcode.qrdata.qrv33_3",
    "hubarcode.qrcode.qrdata.qrv33_2",
    "hubarcode.qrcode.qrdata.qrv33_1",
    "hubarcode.qrcode.qrdata.qrv33_0",
    "qrcode.qrdata.rsc17",
    "qrcode.qrdata.qrv32_2",
    "qrcode.qrdata.fr18",
    "qrcode.qrdata.fr19",
    "qrcode.qrdata.fr10",
    "qrcode.qrdata.fr11",
    "hubarcode.qrcode.qrdata.fr16",
    "qrv20_2",
    "qrcode.qrdata.fr14",
    "qrcode.qrdata.fr15",
    "qrcode.qrdata.fr16",
    "qrcode.qrdata.fr17",
    "datamatrix",
    "qrdata.qrv23_2",
    "hubarcode.qrcode.qrdata.qrv14_2",
    "hubarcode.qrcode.qrdata.qrv14_3",
    "hubarcode.qrcode.qrdata.qrv14_0",
    "ean13.eantest",
    "qrcode.qrdata.fr7",
    "qrdata.qrv13_0",
    "hubarcode.qrcode.qrdata.qrv10_2",
    "hubarcode.qrcode.qrdata.qrv10_3",
    "hubarcode.qrcode.qrdata.qrv10_0",
    "hubarcode.qrcode.qrdata.qrv10_1",
    "hubarcode.qrcode.qrdata.qrv2_0",
    "hubarcode.qrcode.qrdata.qrv2_1",
    "hubarcode.qrcode.qrdata.qrv2_2",
    "hubarcode.qrcode.qrdata.qrv2_3",
    "hubarcode.qrcode.qrdata.qrv1_3",
    "hubarcode.qrcode.qrdata.qrv16_0",
    "hubarcode.qrcode.qrdata.qrv16_1",
    "hubarcode.qrcode.qrdata.qrv16_2",
    "hubarcode.qrcode.qrdata.qrv16_3",
    "ean13.generate_test",
    "qrcode.qrdata.qrv27_3",
    "qrcode.qrdata.qrv27_2",
    "qrcode.qrdata.qrv27_1",
    "qrcode.qrdata.qrv27_0",
    "code128.code128test",
    "qrcode.qrdata.qrv25_1",
    "qrcode.qrdata.qrv25_0",
    "qrcode.qrdata.qrv25_3",
    "qrcode.qrdata.qrv25_2",
    "hubarcode.qrcode.qrdata.qrv30_1",
    "qrcode.qrdata.qrv23_3",
    "qrcode.qrdata.qrv23_2",
    "qrcode.qrdata.qrv23_1",
    "qrcode.qrdata.qrv23_0",
    "examples.qrcode",
    "hubarcode.qrcode.qrdata.qrv30_2",
    "qrcode.qrdata.qrv29_2",
    "hubarcode.qrcode.qrdata.qrv6_0",
    "hubarcode.qrcode.qrdata.qrv6_1",
    "hubarcode.qrcode.qrdata.qrv6_2",
    "hubarcode.qrcode.qrdata.qrv6_3",
    "hubarcode.qrcode.qrdata.qrv4_2",
    "hubarcode.qrcode.qrdata.qrv4_3",
    "hubarcode.qrcode.qrdata.qrv4_0",
    "hubarcode.qrcode.qrdata.qrv4_1",
    "qrcode.qrdata.qrv21_1",
    "qrcode.qrdata.qrv21_0",
    "qrcode.qrdata.qrv21_3",
    "qrcode.qrdata.qrv21_2",
    "hubarcode.qrcode.qrdata.qrv8_2",
    "hubarcode.qrcode.qrdata.qrv8_3",
    "hubarcode.qrcode.qrdata.qrv8_0",
    "hubarcode.qrcode.qrdata.qrv8_1",
    "qrv20_1",
    "qrv20_0",
    "qrdata.qrv29_2",
    "qrdata.qrv29_3",
    "qrdata.qrv29_0",
    "qrdata.qrv29_1",
    "qrcode.qrdata.fr12",
    "qrcode.qrdata.fr13",
    "qrdata.rsc7",
    "hubarcode.qrcode.qrdata.qrv37_3",
    "code128decoder.decode",
    "hubarcode.qrcode.qrdata.qrv37_2",
    "rsc30",
    "hubarcode.qrcode.qrdata.qrv37_1",
    "qrdata.rsc30",
    "hubarcode.qrcode.qrdata.qrv37_0",
    "code128decoder",
    "hubarcode.qrcode.qrdata.fr24",
    "hubarcode.qrcode.qrdata.fr25",
    "hubarcode.qrcode.qrdata.fr26",
    "hubarcode.qrcode.qrdata.fr27",
    "hubarcode.qrcode.qrdata.fr20",
    "hubarcode.qrcode.qrdata.fr21",
    "qrdata.qrv25_0",
    "code128.generate_test",
    "hubarcode.qrcode.qrdata.fr28",
    "hubarcode.qrcode.qrdata.fr29",
    "datamatrix.renderer",
    "eantest",
    "qrdata.qrv33_2",
    "qrcode.qrdata.qrv1_2",
    "qrcode.qrdata.qrv1_3",
    "qrcode.qrdata.qrv1_0",
    "qrcode.qrdata.qrv1_1",
    "hubarcode.datamatrix.placement",
    "qrdata.qrv13_2",
    "qrcode.qrdata.qrv3_1",
    "qrcode.qrdata.rsc7",
    "test_coverage",
    "qrcode.qrdata.qrv37_2",
    "hubarcode.qrcode.qrdata.qrv14_1",
    "qrcode.qrdata.qrv5_2",
    "qrcode.qrdata.qrv5_3",
    "qrcode.qrdata.qrv5_0",
    "qrcode.qrdata.qrv5_1",
    "hubarcode.qrcode.qrdata.qrv38_0",
    "hubarcode.qrcode.qrdata.qrv38_1",
    "hubarcode.qrcode.qrdata.qrv38_2",
    "hubarcode.qrcode.qrdata.qrv38_3",
    "qrcode.qrdata.qrv7_0",
    "qrcode.qrdata.qrv7_1",
    "qrcode.qrdata.qrv7_2",
    "qrcode.qrdata.qrv7_3",
    "qrv4_2",
    "qrdata.rsc24",
    "qrdata.qrv21_2",
    "qrdata.qrv21_3",
    "qrdata.qrv21_0",
    "qrdata.qrv21_1",
    "hubarcode.datamatrix.textencoder",
    "code128decoder.code128encoding",
    "hubarcode.qrcode.qrdata.qrv19_3",
    "hubarcode.qrcode.qrdata.qrv19_2",
    "hubarcode.qrcode.qrdata.qrv19_1",
    "hubarcode.qrcode.qrdata.qrv19_0",
    "hubarcode.qrcode.qrdata.qrv34_0",
    "qrcode.qrdata.fr40",
    "qrdata.qrv23_0",
    "qrdata.qrv23_1",
    "qrcode.qrdata.qrv3_2",
    "qrdata.qrv23_3",
    "hubarcode.qrcode.qrdata.qrv34_2",
    "qrcode.qrdata.qrv6_0",
    "fr36",
    "qrcode.qrdata.qrv29_1",
    "qrcode.qrdata.qrv29_0",
    "qrcode.qrdata.qrv29_3",
    "encoding",
    "hubarcode.qrcode.qrdata.qrv13_1",
    "hubarcode.qrcode.qrdata.qrv13_0",
    "hubarcode.qrcode.qrdata.qrv13_3",
    "hubarcode.qrcode.qrdata.qrv13_2",
    "qrv36_0",
    "qrv36_1",
    "qrv36_2",
    "qrv36_3",
    "hubarcode.qrcode.qrdata.qrv32_2",
    "hubarcode.qrcode.qrdata.qrv32_3",
    "hubarcode.qrcode.qrdata.qrv32_0",
    "hubarcode.qrcode.qrdata.qrv32_1",
    "hubarcode.qrcode.qrdata.qrv11_3",
    "hubarcode.qrcode.qrdata.qrv11_2",
    "hubarcode.qrcode.qrdata.qrv11_1",
    "hubarcode.qrcode.qrdata.qrv11_0",
    "qrcode",
    "qrcode.qrdata.qrv8_2",
    "qrcode.qrdata.qrv8_1",
    "qrcode.qrdata.qrv8_0",
    "qrv30_2",
    "qrv30_3",
    "qrv30_0",
    "qrv30_1",
    "qrdata.rsc20",
    "qrdata.rsc22",
    "fr39",
    "fr38",
    "qrdata.rsc26",
    "fr35",
    "fr34",
    "fr37",
    "hubarcode.qrcode.qrdata.qrv34_3",
    "fr31",
    "fr30",
    "fr33",
    "hubarcode.datamatrix.reedsolomon",
    "hubarcode.qrcode.qrdata.qrv36_2",
    "hubarcode.qrcode.qrdata.qrv36_3",
    "hubarcode.qrcode.qrdata.qrv36_0",
    "hubarcode.qrcode.qrdata.qrv36_1",
    "qrcode.qrdata.qrv6_2",
    "experimental.code128decoder",
    "qrdata.qrv9_3",
    "qrdata.qrv9_2",
    "qrdata.qrv9_1",
    "qrdata.qrv9_0",
    "hubarcode.ean13.eantest",
    "qrv9_0",
    "qrv9_3",
    "qrv9_2",
    "qrdata.qrv40_1",
    "qrdata.qrv40_0",
    "qrdata.qrv40_3",
    "qrdata.qrv40_2",
    "qrv7_3",
    "qrv7_2",
    "qrv7_1",
    "qrv7_0",
    "hubarcode.qrcode.qrdata.qrv17_1",
    "hubarcode.qrcode.qrdata.qrv17_0",
    "hubarcode.qrcode.qrdata.qrv17_3",
    "hubarcode.qrcode.qrdata.qrv17_2",
    "qrcode_generate_module",
    "qrcode.qrdata.qrv6_1",
    "hubarcode.qrcode.qrdata.qrv15_3",
    "hubarcode.qrcode.qrdata.qrv15_2",
    "hubarcode.qrcode.qrdata.qrv15_1",
    "hubarcode.qrcode.qrdata.qrv15_0",
    "qrv5_1",
    "qrv5_0",
    "qrv5_3",
    "qrv5_2",
    "qrv34_2",
    "qrv34_3",
    "qrv34_0",
    "qrv34_1",
    "hubarcode.ean13.renderer",
    "qrdata.fr1",
    "hubarcode.qrcode.renderer",
    "qrdata.fr3",
    "qrdata.fr2",
    "qrcode.qrdata.qrv20_0",
    "qrdata.fr4",
    "qrcode.qrdata.qrv20_2",
    "qrdata.fr6",
    "qrdata.fr9",
    "qrdata.fr8",
    "qrv18_0",
    "qrv18_1",
    "qrv18_2",
    "qrv18_3",
    "qrcode.qrdata.qrv26_2",
    "qrcode.qrdata.qrv26_3",
    "qrcode.qrdata.qrv26_0",
    "qrcode.qrdata.qrv26_1",
    "examples.code128",
    "qrdata.fr26",
    "hubarcode.datamatrix",
    "qrv24_3",
    "qrcode.qrdata.qrv22_2",
    "qrcode.qrdata.qrv22_3",
    "qrcode.qrdata.qrv22_0",
    "qrcode.qrdata.qrv22_1",
    "hubarcode.qrcode.qrcodetest",
    "qrv39_2",
    "qrv39_1",
    "qrv39_0",
    "hubarcode.qrcode.qrdata.qrv39_1",
    "hubarcode.qrcode.qrdata.qrv39_0",
    "hubarcode.qrcode.qrdata.qrv39_3",
    "hubarcode.qrcode.qrdata.qrv39_2",
    "experimental.code128decoder.decode",
    "qrdata.fr34",
    "qrv3_3",
    "qrv3_2",
    "qrv3_1",
    "qrv3_0",
    "qrcode.qrdata.fr2",
    "qrcode.qrdata.fr3",
    "qrdata.qrv5_1",
    "hubarcode.qrcode.qrdata.qrv26_2",
    "qrdata.qrv6_0",
    "qrdata.qrv6_1",
    "qrdata.qrv6_2",
    "qrdata.qrv6_3",
    "qrcode.qrdata.qrv24_0",
    "qrcode.qrdata.qrv24_1",
    "qrcode.qrdata.qrv24_2",
    "qrcode.qrdata.qrv24_3",
    "placement",
    "qrv1_1",
    "qrv1_0",
    "qrv1_3",
    "qrv1_2",
    "qrcode.qrdata.qrv8_3",
    "qrdata.qrv4_2",
    "qrdata.qrv4_3",
    "qrdata.qrv4_0",
    "qrdata.qrv4_1",
    "qrv33_1",
    "qrv33_0",
    "qrv33_3",
    "qrv33_2",
    "qrv13_3",
    "qrv13_2",
    "qrv13_1",
    "qrv13_0",
    "qrv11_1",
    "qrv11_0",
    "qrv11_3",
    "qrv11_2",
    "hubarcode.qrcode.qrdata.fr1",
    "qrcode.qrdata.qrv6_3",
    "hubarcode.qrcode.qrdata.fr3",
    "hubarcode.qrcode.qrdata.fr2",
    "hubarcode.qrcode.qrdata.fr5",
    "hubarcode.qrcode.qrdata.fr4",
    "hubarcode.qrcode.qrdata.fr7",
    "hubarcode.qrcode.qrdata.fr6",
    "hubarcode.qrcode.qrdata.fr9",
    "hubarcode.qrcode.qrdata.fr8",
    "qrv17_3",
    "qrv17_2",
    "qrv17_1",
    "qrv17_0",
    "qrv15_1",
    "qrv15_0",
    "qrv15_3",
    "qrcode_generate_Data",
    "qrdata.qrv2_0",
    "qrdata.qrv2_1",
    "qrdata.qrv2_2",
    "qrdata.qrv2_3",
    "hubarcode.qrcode.qrdata.fr30",
    "qrcode.qrdata.rsc30",
    "hubarcode",
    "qrdata.fr40",
    "hubarcode.code128.textencoder",
    "qrdata",
    "qrdata.rsc18",
    "qrdata.rsc10",
    "hubarcode.ean13",
    "qrdata.rsc13",
    "qrdata.rsc15",
    "qrdata.rsc16",
    "qrdata.rsc17",
    "qrcode.qrdata.qrv4_0",
    "fr9",
    "qrv37_1",
    "qrv37_0",
    "qrv37_3",
    "qrv37_2",
    "hubarcode.qrcode.qrdata.qrv34_1",
    "generate_test",
    "qrv24_2",
    "qrv31_3",
    "qrv31_2",
    "qrv31_1",
    "qrv31_0",
    "qrdata.qrv8_2",
    "fr8",
    "hubarcode.datamatrix.renderer",
    "qrdata.qrv8_3",
    "qrdata.fr33",
    "qrcode.qrdata.qrv40_2",
    "qrdata.fr31",
    "qrdata.fr30",
    "qrdata.fr37",
    "qrdata.fr36",
    "qrdata.fr35",
    "qrcode.qrdata.qrv40_3",
    "qrdata.fr39",
    "qrdata.fr38",
    "qrcode.qrdata.qrv40_0",
    "qrcode.qrdata.qrv40_1",
    "hubarcode.qrcode.qrdata.qrv40_1",
    "hubarcode.qrcode.qrdata.qrv40_0",
    "hubarcode.qrcode.qrdata.qrv40_3",
    "hubarcode.qrcode.qrdata.qrv40_2",
    "hubarcode.qrcode.qrdata.fr37",
    "hubarcode.qrcode.qrdata.fr36",
    "hubarcode.qrcode.qrdata.fr35",
    "hubarcode.qrcode.qrdata.fr34",
    "hubarcode.qrcode.qrdata.fr33",
    "hubarcode.qrcode.qrdata.fr32",
    "qrdata.qrv8_0",
    "qrdata.qrv8_1",
    "qrcode.qrdata.fr29",
    "hubarcode.qrcode.qrdata.fr39",
    "hubarcode.qrcode.qrdata.fr38",
    "rsc7",
    "hubarcode.qrcode.textencoder",
    "qrv8_0",
    "qrv8_1",
    "qrv8_2",
    "qrv8_3",
    "hubarcode.qrcode.qrdata.qrv20_2",
    "qrv35_3",
    "qrv35_2",
    "qrv35_1",
    "qrv35_0",
    "qrv6_2",
    "qrv6_3",
    "qrv6_0",
    "qrv6_1",
    "experimental",
    "qrcode.qrdata.qrv13_2",
    "qrv19_1",
    "qrv19_0",
    "qrv19_3",
    "qrv19_2",
    "qrdata.qrv19_3",
    "qrdata.qrv19_2",
    "qrdata.qrv19_1",
    "qrdata.qrv19_0",
    "datamatrix.reedsolomon",
    "qrv38_2",
    "qrv38_3",
    "qrv38_0",
    "qrv38_1",
    "qrdata.fr5",
    "qrcode.qrdata.qrv20_1",
    "qrcode.qrdata",
    "ean13.encoding",
    "hubarcode.qrcode.qrdata.rsc7",
    "hubarcode.qrcode.qrdata.qrv9_3",
    "fr32",
    "qrcode.qrdata.qrv20_3",
    "qrdata.qrv38_0",
    "qrdata.qrv38_1",
    "qrdata.qrv38_2",
    "qrdata.qrv38_3",
    "qrcode.qrdata.fr36",
    "qrcode.qrdata.fr37",
    "qrcode.qrdata.fr34",
    "qrcode.qrdata.fr35",
    "qrcode.qrdata.fr32",
    "hubarcode.qrcode.qrdata.qrv9_1",
    "qrcode.qrdata.fr30",
    "qrcode.qrdata.fr31",
    "hubarcode.qrcode.qrdata.qrv9_0",
    "hubarcode.datamatrix.matrixtest",
    "qrcode.qrdata.fr39",
    "qrdata.qrv11_3",
    "qrdata.qrv11_2",
    "qrdata.qrv11_1",
    "qrdata.qrv11_0",
    "qrdata.qrv36_2",
    "qrdata.qrv36_3",
    "qrdata.qrv36_0",
    "fr23",
    "qrv4_0",
    "qrv4_1",
    "reedsolomon",
    "qrv4_3",
    "hubarcode.qrcode.qrdata.rsc10",
    "hubarcode.qrcode.qrdata.rsc13",
    "qrdata.qrv13_1",
    "qrdata.qrv1_2",
    "qrdata.qrv13_3",
    "hubarcode.qrcode.qrdata.rsc17",
    "hubarcode.qrcode.qrdata.rsc18",
    "qrdata.qrv34_1",
    "qrdata.qrv34_2",
    "qrdata.qrv34_3",
    "qrv2_2",
    "qrv2_3",
    "qrv2_0",
    "qrv2_1",
    "qrv32_0",
    "qrv32_1",
    "code128encoding",
    "qrv32_3",
    "qrdata.qrv7_1",
    "qrdata.qrv15_2",
    "qrdata.qrv7_3",
    "qrdata.qrv15_0",
    "fr40",
    "fr3",
    "fr2",
    "fr1",
    "fr7",
    "fr6",
    "fr5",
    "fr4",
    "qrdata.qrv17_1",
    "qrdata.qrv17_0",
    "qrdata.qrv17_3",
    "qrdata.qrv5_0",
    "qrdata.qrv20_2",
    "rsc18",
    "qrv10_0",
    "qrv10_1",
    "qrv10_2",
    "qrv10_3",
    "rsc13",
    "rsc10",
    "rsc16",
    "rsc17",
    "rsc15",
    "qrv16_2",
    "qrv16_3",
    "qrv16_0",
    "qrv16_1",
    "qrv20_3",
    "qrdata.qrv32_2",
    "qrdata.qrv32_3",
    "qrdata.qrv32_0",
    "qrdata.qrv32_1",
    "code128.encoding",
    "hubarcode.code128",
    "qrv23_3",
    "qrdata.qrv30_0",
    "qrdata.qrv30_1",
    "qrdata.qrv30_2",
    "qrdata.qrv30_3",
    "qrv14_0",
    "qrv14_1",
    "hubarcode.qrcode.qrdata.rsc16",
    "qrv14_3",
    "hubarcode.qrcode.qrdata.qrv27_0",
    "hubarcode.qrcode.qrdata.qrv27_1",
    "hubarcode.qrcode.qrdata.qrv27_2",
    "hubarcode.qrcode.qrdata.qrv27_3",
    "datamatrix.placement",
    "hubarcode.qrcode.qrdata.qrv25_2",
    "hubarcode.qrcode.qrdata.qrv25_3",
    "hubarcode.qrcode.qrdata.qrv25_0",
    "hubarcode.qrcode.qrdata.qrv25_1",
    "hubarcode.qrcode.qrdata.qrv30_0",
    "qrcode.qrdata.qrv15_3",
    "hubarcode.qrcode.qrdata.qrv23_0",
    "hubarcode.qrcode.qrdata.qrv23_1",
    "hubarcode.qrcode.qrdata.qrv23_2",
    "hubarcode.qrcode.qrdata.qrv23_3",
    "qrcode.qrdata.qrv16_1",
    "qrv12_2",
    "qrv12_3",
    "qrv12_0",
    "qrv12_1",
    "hubarcode.qrcode.qrdata.qrv21_2",
    "hubarcode.qrcode.qrdata.qrv21_3",
    "hubarcode.qrcode.qrdata.qrv21_0",
    "hubarcode.qrcode.qrdata.qrv21_1",
    "ean13",
    "qrcode.textencoder",
    "qrv39_3",
    "qrcode.qrdata.qrv16_0",
    "isodata",
    "qrdata.qrv7_0",
    "qrcode.qrdata.qrv10_1",
    "qrcode.qrdata.qrv10_0",
    "qrcode.qrdata.qrv10_3",
    "qrcode.qrdata.qrv10_2",
    "decode",
    "qrv26_2",
    "hubarcode.qrcode.qrdata.qrv30_3",
    "qrcode.qrcodetest",
    "qrcode.qrdata.qrv12_3",
    "qrcode.qrdata.qrv12_2",
    "qrcode.qrdata.qrv12_1",
    "qrcode.qrdata.qrv12_0",
    "qrcode.qrdata.qrv33_0",
    "qrcode.qrdata.qrv33_1",
    "qrcode.qrdata.qrv33_2",
    "qrcode.qrdata.qrv33_3",
    "qrcode.qrdata.qrv35_2",
    "qrcode.qrdata.qrv35_3",
    "qrcode.qrdata.qrv35_0",
    "qrcode.qrdata.qrv35_1",
    "test.test_coverage",
    "qrcode.qrdata.qrv16_3",
    "hubarcode.qrcode.qrdata.qrv28_2",
    "hubarcode.qrcode.qrdata.qrv28_3",
    "qrcode.qrdata.qrv16_2",
    "hubarcode.qrcode.qrdata.qrv28_1",
    "hubarcode.qrcode.qrdata.qrv28_0",
    "qrcode.qrdata.qrv31_2",
    "examples.ean13",
    "qrcode.qrdata.qrv31_0",
    "qrcode.qrdata.qrv31_1",
    "qrcode.qrdata.qrv14_1",
    "qrcode.qrdata.qrv14_0",
    "qrcode.qrdata.qrv14_3",
    "qrcode.qrdata.qrv14_2",
    "qrcode.qrdata.qrv31_3",
    "qrdata.qrv34_0",
    "qrdata.qrv16_1",
    "qrdata.qrv16_2",
    "qrdata.qrv16_3",
    "hubarcode.qrcode.qrdata.fr31",
    "qrcode.qrdata.rsc22",
    "qrcode.qrdata.rsc20",
    "qrdata.fr32",
    "qrcode.qrdata.qrv18_0",
    "qrcode.qrdata.rsc24",
    "qrcode.qrdata.qrv18_2",
    "qrdata.qrv18_2",
    "qrdata.qrv18_3",
    "qrdata.qrv18_0",
    "qrdata.qrv18_1",
    "examples",
    "hubarcode.ean13.generate_test",
    "hubarcode.qrcode.qrdata.rsc20",
    "hubarcode.qrcode.qrdata.rsc22",
    "hubarcode.qrcode.qrdata.rsc24",
    "hubarcode.qrcode.qrdata.rsc26",
    "fr17",
    "fr16",
    "fr15",
    "fr14",
    "qrdata.qrv39_1",
    "fr12",
    "fr11",
    "fr10",
    "hubarcode.code128.renderer",
    "qrcode.qrdata.qrv15_1",
    "hubarcode.qrcode.qrdata.fr23",
    "fr19",
    "fr18",
    "qrcode.qrdata.qrv39_2",
    "qrcode.qrdata.qrv39_3",
    "qrcode.qrdata.qrv39_0",
    "qrcode.qrdata.qrv39_1",
    "qrcode.qrdata.qrv3_0",
    "qrv14_2",
    "textencoder",
    "qrdata.qrv10_2",
    "qrdata.qrv10_3",
    "qrdata.qrv10_0",
    "qrdata.qrv10_1",
    "qrdata.qrv35_1",
    "qrdata.qrv35_0",
    "qrdata.qrv35_3",
    "qrdata.qrv35_2",
    "qrdata.qrv12_0",
    "qrdata.qrv12_1",
    "qrdata.qrv12_2",
    "qrdata.qrv12_3",
    "qrdata.fr20",
    "hubarcode.qrcode",
    "qrdata.fr22",
    "qrdata.fr23",
    "qrdata.fr24",
    "qrdata.fr25",
    "qrcode.qrdata.qrv18_1",
    "qrdata.fr27",
    "qrdata.fr28",
    "qrdata.fr29",
    "qrdata.qrv14_2",
    "qrdata.qrv14_3",
    "qrdata.qrv14_0",
    "qrdata.qrv14_1",
    "qrdata.fr7",
    "qrcode.isodata",
    "hubarcode.code128.code128test",
    "qrv9_1",
    "qrdata.qrv16_0",
    "qrcodetest",
    "qrcode.qrdata.rsc28",
    "qrcode.qrdata.qrv3_3",
    "hubarcode.qrcode.qrdata.qrv22_1",
    "hubarcode.qrcode.qrdata.qrv22_0",
    "hubarcode.qrcode.qrdata.qrv22_3",
    "hubarcode.qrcode.qrdata.qrv22_2",
    "renderer",
    "qrcode.qrdata.qrv36_0",
    "qrdata.qrv33_3",
    "qrdata.qrv25_2",
    "qrdata.qrv33_1",
    "qrdata.qrv33_0",
    "qrdata.qrv25_3",
    "qrdata.qrv37_0",
    "hubarcode.qrcode.qrdata.fr22",
    "qrdata.qrv25_1",
    "qrdata.qrv31_1",
    "qrdata.qrv31_0",
    "qrdata.qrv31_3",
    "qrdata.qrv31_2",
    "qrv40_3",
    "qrv40_2",
    "qrv40_1",
    "qrv40_0",
    "qrdata.qrv37_3",
    "qrdata.qrv37_2",
    "qrdata.qrv37_1",
    "qrcode.qrdata.fr33",
    "qrv24_1",
    "qrv24_0",
    "hubarcode.code128.generate_test",
    "qrcode.qrdata.fr9",
    "qrcode.qrdata.fr6",
    "qrcode.qrdata.rsc26",
    "qrcode.qrdata.fr4",
    "qrcode.qrdata.fr5",
    "hubarcode.qrcode.qrdata.qrv26_1",
    "hubarcode.qrcode.qrdata.qrv26_0",
    "hubarcode.qrcode.qrdata.qrv26_3",
    "qrcode.qrdata.fr1",
    "qrv22_3",
    "qrv22_2",
    "qrv22_1",
    "qrv22_0",
    "hubarcode.qrcode.qrdata.qrv24_3",
    "hubarcode.qrcode.qrdata.qrv24_2",
    "hubarcode.qrcode.qrdata.qrv24_1",
    "hubarcode.qrcode.qrdata.qrv24_0",
    "hubarcode.qrcode.qrdata.rsc28",
    "qrdata.rsc28",
    "qrcode.qrdata.fr25",
    "qrcode.qrdata.fr24",
    "qrcode.qrdata.fr27",
    "qrcode.qrdata.fr26",
    "qrcode.qrdata.fr21",
    "qrcode.qrdata.fr20",
    "qrcode.qrdata.fr23",
    "qrcode.qrdata.fr22",
    "hubarcode.qrcode.qrdata.qrv20_3",
    "qrcode.qrdata.fr28",
    "hubarcode.qrcode.qrdata.qrv20_1",
    "hubarcode.qrcode.qrdata.qrv20_0",
    "datamatrix.textencoder",
    "qrcode.qrdata.qrv13_3",
    "qrcode.qrdata.qrv13_0",
    "qrcode.qrdata.qrv13_1",
    "qrdata.qrv3_0",
    "qrdata.qrv3_3",
    "qrdata.qrv27_0",
    "qrdata.qrv3_2",
    "qrdata.qrv27_1",
    "qrcode.qrdata.qrv11_0",
    "qrcode.qrdata.qrv11_1",
    "qrcode.qrdata.qrv11_2",
    "qrcode.qrdata.qrv11_3",
    "qrdata.qrv27_3",
    "qrdata.qrv27_2",
    "qrdata.qrv36_1",
    "qrv26_3",
    "qrdata.qrv5_3",
    "qrv26_1",
    "qrv26_0",
    "test",
    "qrcode.qrdata.rsc13",
    "qrcode.qrdata.qrv37_0",
    "qrcode.qrdata.rsc10",
    "code128.textencoder",
    "qrcode.qrdata.rsc16",
    "qrcode.qrdata.rsc15",
    "qrcode.qrdata.qrv37_1",
    "qrcode.qrdata.rsc18",
    "qrcode.qrdata.qrv34_3",
    "qrcode.qrdata.qrv34_2",
    "qrcode.qrdata.qrv34_1",
    "qrcode.qrdata.qrv34_0",
    "qrv29_0",
    "qrcode.qrdata.qrv37_3",
    "datamatrix.matrixtest",
    "qrv29_1",
    "qrcode.qrdata.qrv36_1",
    "fr13",
    "qrcode.qrdata.qrv36_3",
    "qrcode.qrdata.qrv36_2",
    "qrv29_2",
    "qrdata.qrv39_0",
    "qrcode.qrdata.qrv30_3",
    "qrcode.qrdata.qrv30_2",
    "qrcode.qrdata.qrv30_1",
    "qrcode.qrdata.qrv30_0",
    "qrdata.qrv39_3",
    "hubarcode.qrcode.qrdata.qrv29_2",
    "qrdata.qrv39_2",
    "qrcode.qrdata.qrv17_2",
    "qrcode.qrdata.qrv17_3",
    "qrcode.qrdata.qrv17_0",
    "qrcode.qrdata.qrv17_1",
    "qrdata.qrv3_1",
    "hubarcode.qrcode.qrdata.qrv29_1",
    "qrcode.qrdata.fr38",
    "hubarcode.qrcode.qrdata.qrv29_0",
    "qrcode.qrdata.qrv15_0",
    "qrdata.qrv1_3",
    "qrcode.qrdata.qrv15_2",
    "qrv29_3",
    "qrcode.qrdata.qrv32_1",
    "hubarcode.qrcode.qrdata.qrv29_3",
    "qrcode.qrdata.qrv32_3",
    "hubarcode.qrcode.qrdata.rsc15"
]