{
    "libs": [
        "test1",
        "test2",
        "decimal",
        "figure",
        "OpenGL",
        "pysideuic",
        "functools",
        "random",
        "copy",
        "__builtin__",
        "PyQt4",
        "atexit",
        "ndimage",
        "gc",
        "operator",
        "QtTest",
        "compat",
        "weakref",
        "GL",
        "builtins",
        "struct",
        "re",
        "tempfile",
        "mmap",
        "relativity",
        "itertools",
        "error",
        "docutils",
        "bottleneck",
        "collections",
        "print_function",
        "cProfile",
        "csv",
        "numpy",
        "division",
        "cPickle",
        "testing",
        "ElementTree",
        "PySide",
        "linalg",
        "UserDict",
        "inspect",
        "zipfile",
        "matplotlib",
        "sys",
        "gzip",
        "sip",
        "ctypes",
        "user",
        "subprocess",
        "types",
        "weave",
        "minidom",
        "socket",
        "backend_qt4agg",
        "arrays",
        "pickle",
        "signal",
        "traceback",
        "Canv",
        "threading",
        "connection",
        "faulthandler",
        "math",
        "time",
        "h5py",
        "framebufferobjects",
        "os",
        "multiprocessing"
    ]
}