{
    "libs": [
        "bin",
        "fields",
        "encoding",
        "shortcuts",
        "text",
        "functools",
        "random",
        "functional",
        "datetime",
        "api",
        "multipart",
        "conf",
        "validators",
        "contrib",
        "timezone",
        "template",
        "dateutil",
        "management",
        "uuid",
        "application",
        "image",
        "cache",
        "urllib",
        "re",
        "json",
        "html",
        "collections",
        "cProfile",
        "H",
        "test",
        "email",
        "math",
        "cgi",
        "paginator",
        "bencode",
        "http",
        "string",
        "Deprecated",
        "pstats",
        "db",
        "urllib2",
        "auth",
        "sys",
        "Signature",
        "translation",
        "copy",
        "argparse",
        "b",
        "logging",
        "StringIO",
        "h",
        "safestring",
        "unipath",
        "django",
        "urlparse",
        "PublicKey",
        "itertools",
        "isoerror",
        "isoduration",
        "defaults",
        "time",
        "urlresolvers",
        "jsonfield",
        "os",
        "hmac"
    ]
}