[
    "wsgi",
    "stores",
    "lrs.tests.StatementsMoreTests",
    "AuthTests",
    "util.accept_middleware",
    "util.uri",
    "util.StatementValidator",
    "util.XAPIVersionHeaderMiddleware",
    "lrs.admin",
    "StatementManager",
    "util.Authorization",
    "AgentProfileTests",
    "lrs.views",
    "lrs.tests",
    "lrs.tests.ActivityManagerTests",
    "tests.AgentManagerTests",
    "lrs.util.profile_decorator",
    "oauth_provider.oauth",
    "lrs.util.Authorization",
    "fabfile",
    "req_parse",
    "util.AllowOriginMiddleware",
    "tests",
    "lrs.tests.AuthTests",
    "views",
    "oauth_provider.views",
    "lrs.tests.StatementsTests",
    "util",
    "lrs",
    "tests.ActivityProfileTests",
    "StatementsTests",
    "oauth_provider.consts",
    "settings",
    "decorators",
    "lrs.util.req_validate",
    "tests.StatementsMoreTests",
    "lrs.util",
    "AllowOriginMiddleware",
    "lrs.util.retrieve_statement",
    "objects.AgentProfileManager",
    "tests.ActivityManagerTests",
    "lrs.exceptions",
    "tests.StatementFilterTests",
    "adl_lrs",
    "XAPIVersionHeaderMiddleware",
    "lrs.util.req_process",
    "lrs.objects.AgentProfileManager",
    "util.req_parse",
    "objects.ActivityStateManager",
    "tests.ActivityStateTests",
    "etag",
    "lrs.tests.AgentManagerTests",
    "lrs.objects",
    "oauth_provider.tests",
    "lrs.objects.StatementManager",
    "profile_decorator",
    "ActivityProfileManager",
    "lrs.urls",
    "lrs.forms",
    "routers",
    "oauth_provider.utils",
    "oauth_provider.stores",
    "objects",
    "lrs.tests.AgentsTests",
    "lrs.tests.ActivityTests",
    "adl_lrs.settings",
    "adl_lrs.urls",
    "admin",
    "oauth_provider",
    "objects.StatementManager",
    "jws",
    "StatementFilterTests",
    "tests.AuthTests",
    "urls",
    "ActivityManagerTests",
    "oauth_provider.admin",
    "ActivityStateManager",
    "oauth_provider.decorators",
    "managers",
    "consts",
    "manage",
    "AgentProfileManager",
    "Authorization",
    "forms",
    "lrs.objects.AgentManager",
    "accept_middleware",
    "tests.StatementsTests",
    "StatementManagerTests",
    "StatementsMoreTests",
    "lrs.util.etag",
    "oauth.oauth",
    "lrs.objects.ActivityManager",
    "lrs.util.StatementValidator",
    "AgentsTests",
    "oauth",
    "lrs.tests.StatementFilterTests",
    "lrs.tests.OAuthTests",
    "util.retrieve_statement",
    "oauth_provider.oauth.oauth",
    "util.profile_decorator",
    "ActivityTests",
    "oauth_provider.managers",
    "exceptions",
    "ActivityProfileTests",
    "tests.AgentsTests",
    "lrs.util.req_parse",
    "req_validate",
    "objects.ActivityProfileManager",
    "objects.ActivityManager",
    "utils",
    "oauth_provider.urls",
    "util.req_process",
    "AgentManagerTests",
    "tests.ActivityTests",
    "StatementValidator",
    "lrs.tests.ActivityStateTests",
    "oauth_provider.routers",
    "lrs.objects.ActivityProfileManager",
    "adl_lrs.wsgi",
    "AgentManager",
    "lrs.models",
    "util.req_validate",
    "lrs.tests.ActivityProfileTests",
    "lrs.util.uri",
    "objects.AgentManager",
    "ActivityManager",
    "lrs.util.accept_middleware",
    "models",
    "OAuthTests",
    "tests.OAuthTests",
    "util.jws",
    "lrs.objects.ActivityStateManager",
    "ActivityStateTests",
    "lrs.tests.StatementManagerTests",
    "lrs.util.jws",
    "lrs.util.XAPIVersionHeaderMiddleware",
    "retrieve_statement",
    "tests.AgentProfileTests",
    "lrs.util.AllowOriginMiddleware",
    "lrs.tests.AgentProfileTests",
    "uri",
    "req_process",
    "tests.StatementManagerTests",
    "util.etag"
]