[
    "integration.cli_test",
    "unit.config_test",
    "saltcloud.cloud",
    "clouds.softlayer",
    "salt_cloud.saltcloud.exceptions",
    "salt_cloud.tests.unit",
    "saltcloud.clouds.botocore_aws",
    "loader",
    "clouds.botocore_aws",
    "salt_cloud.saltcloud.clouds.nova",
    "clouds.gogrid",
    "nb_popen",
    "salt_cloud.saltcloud.clouds.softlayer-hw",
    "cloud",
    "clouds.libcloud_aws",
    "saltcloud.libcloudfuncs",
    "cli",
    "salt_cloud.saltcloud.utils.parsers",
    "clouds.openstack",
    "saltcloud.clouds",
    "doc.conf",
    "saltcloud.config",
    "nova",
    "salt_cloud.tests.integration.cli_test",
    "saltcloud.clouds.rackspace",
    "salt_cloud.saltcloud",
    "saltcloud.clouds.joyent",
    "tests.integration.cli_test",
    "saltcloud.exceptions",
    "tests",
    "rackspace",
    "salt_cloud.saltcloud.clouds.openstack",
    "salt_cloud.saltcloud.clouds.ec2",
    "saltcloud.clouds.openstack",
    "saltcloud.clouds.linode",
    "salt_cloud.saltcloud.clouds.rackspace",
    "salt_cloud.saltcloud.loader",
    "salt_cloud.saltcloud.clouds.joyent",
    "saltcloud.clouds.ec2",
    "salt_cloud.saltcloud.utils",
    "saltify",
    "cloudstack",
    "clouds.softlayer-hw",
    "botocore_aws",
    "saltcloud.clouds.ibmsce",
    "clouds.digital_ocean",
    "softlayer-hw",
    "clouds",
    "salt_cloud.saltcloud.config",
    "softlayer",
    "utils.parsers",
    "clouds.joyent",
    "salt_cloud.saltcloud.clouds.parallels",
    "saltcloud.clouds.digital_ocean",
    "saltcloud.clouds.softlayer-hw",
    "salt_cloud",
    "salt_cloud.doc.conf",
    "saltcloud.clouds.softlayer",
    "saltcloud.clouds.cloudstack",
    "config_test",
    "cli_test",
    "salt_cloud.saltcloud.clouds.botocore_aws",
    "tests.unit.config_test",
    "saltcloud",
    "saltcloud.utils",
    "saltcloud.loader",
    "saltcloud.version",
    "utils",
    "salt_cloud.tests",
    "salt_cloud.saltcloud.clouds.softlayer",
    "salt_cloud.saltcloud.utils.nb_popen",
    "salt_cloud.saltcloud.clouds.gogrid",
    "clouds.linode",
    "unit",
    "parsers",
    "ec2",
    "conf",
    "clouds.nova",
    "saltcloud.clouds.gogrid",
    "salt_cloud.saltcloud.clouds.digital_ocean",
    "salt_cloud.saltcloud.cli",
    "salt_cloud.saltcloud._compat",
    "openstack",
    "salt_cloud.saltcloud.version",
    "saltcloud.clouds.libcloud_aws",
    "linode",
    "integration",
    "salt_cloud.saltcloud.clouds.ibmsce",
    "clouds.saltify",
    "salt_cloud.saltcloud.clouds.saltify",
    "version",
    "gogrid",
    "digital_ocean",
    "salt_cloud.saltcloud.clouds",
    "saltcloud.clouds.saltify",
    "saltcloud.utils.nb_popen",
    "salt_cloud.tests.integration",
    "config",
    "clouds.ibmsce",
    "salt_cloud.saltcloud.clouds.linode",
    "ibmsce",
    "clouds.parallels",
    "parallels",
    "clouds.ec2",
    "salt_cloud.tests.unit.config_test",
    "saltcloud.cli",
    "salt_cloud.saltcloud.cloud",
    "exceptions",
    "tests.integration",
    "saltcloud.utils.parsers",
    "salt_cloud.saltcloud.libcloudfuncs",
    "salt_cloud.doc",
    "libcloudfuncs",
    "salt_cloud.saltcloud.clouds.libcloud_aws",
    "clouds.cloudstack",
    "saltcloud.clouds.nova",
    "saltcloud._compat",
    "doc",
    "_compat",
    "salt_cloud.tests.runtests",
    "saltcloud.clouds.parallels",
    "salt_cloud.saltcloud.clouds.cloudstack",
    "joyent",
    "libcloud_aws",
    "tests.unit",
    "utils.nb_popen",
    "tests.runtests",
    "clouds.rackspace",
    "runtests"
]