{
    "libs": [
        "logging",
        "template",
        "shortcuts",
        "inspect",
        "xmlrpclib",
        "SimpleXMLRPCServer",
        "auth",
        "server",
        "client",
        "collections",
        "conf",
        "exceptions",
        "http",
        "translation",
        "csrf"
    ]
}