[
    "cms_plugins.form_designer_form.models",
    "migrations.0008_auto__add_formvalue__del_field_formlog_data__add_field_formlog_created",
    "contrib.cms_plugins",
    "form_designer.migrations.0009_set_data_to_form_log",
    "form_designer.migrations.0007_auto__add_field_formdefinition_mail_uploaded_files",
    "migrations.0005_auto__add_field_formdefinition_require_hash__add_field_formdefinition_",
    "migrations.0003_auto__add_field_formdefinition_display_logged",
    "contrib",
    "signals",
    "form_designer.contrib.cms_plugins.form_designer_form.cms_plugins",
    "0007_auto__add_field_formdefinition_mail_uploaded_files",
    "form_designer.migrations.0003_auto__add_field_formdefinition_display_logged",
    "migrations.0006_auto__add_field_formdefinition_save_uploaded_files",
    "form_designer",
    "form_designer.views",
    "forms",
    "0002_auto__chg_field_formdefinitionfield_initial",
    "form_designer.migrations",
    "cms_plugins.form_designer_form",
    "contrib.cms_plugins.form_designer_form.models",
    "form_designer.contrib.cms_plugins.form_designer_form.models",
    "migrations.0009_set_data_to_form_log",
    "contrib.cms_plugins.form_designer_form",
    "form_designer.signals",
    "views",
    "migrations.0001_initial",
    "migrations.0004_auto__add_field_formdefinition_body",
    "form_designer.contrib.cms_plugins",
    "form_designer.models",
    "form_designer.contrib.exporters.xls_exporter",
    "exporters",
    "contrib.exporters.xls_exporter",
    "templatetags.widget_type",
    "form_designer.migrations.0002_auto__chg_field_formdefinitionfield_initial",
    "settings",
    "fields",
    "friendly",
    "0005_auto__add_field_formdefinition_require_hash__add_field_formdefinition_",
    "form_designer.templatetags.friendly",
    "form_designer.contrib.cms_plugins.form_designer_form",
    "uploads",
    "form_designer.migrations.0005_auto__add_field_formdefinition_require_hash__add_field_formdefinition_",
    "exporters.csv_exporter",
    "form_designer.fields",
    "templatetags.friendly",
    "form_designer.migrations.0001_initial",
    "0008_auto__add_formvalue__del_field_formlog_data__add_field_formlog_created",
    "widget_type",
    "0006_auto__add_field_formdefinition_save_uploaded_files",
    "form_designer_form.cms_plugins",
    "contrib.exporters",
    "form_designer.utils",
    "utils",
    "form_designer.uploads",
    "contrib.cms_plugins.form_designer_form.cms_plugins",
    "cms_plugins",
    "0003_auto__add_field_formdefinition_display_logged",
    "csv_exporter",
    "migrations",
    "form_designer.contrib.exporters",
    "exporters.xls_exporter",
    "form_designer_form",
    "cms_plugins.form_designer_form.cms_plugins",
    "migrations.0007_auto__add_field_formdefinition_mail_uploaded_files",
    "form_designer.settings",
    "models",
    "form_designer.admin",
    "0004_auto__add_field_formdefinition_body",
    "0009_set_data_to_form_log",
    "form_designer.forms",
    "form_designer.migrations.0004_auto__add_field_formdefinition_body",
    "form_designer_form.models",
    "form_designer.templatetags",
    "form_designer.migrations.0006_auto__add_field_formdefinition_save_uploaded_files",
    "migrations.0002_auto__chg_field_formdefinitionfield_initial",
    "admin",
    "form_designer.migrations.0008_auto__add_formvalue__del_field_formlog_data__add_field_formlog_created",
    "templatetags",
    "form_designer.contrib",
    "contrib.exporters.csv_exporter",
    "xls_exporter",
    "urls",
    "0001_initial",
    "form_designer.templatetags.widget_type",
    "form_designer.contrib.exporters.csv_exporter",
    "form_designer.urls"
]