{
    "archive_url": "https://api.github.com/repos/jacobian/openstack.compute/{archive_format}{/ref}",
    "assignees_url": "https://api.github.com/repos/jacobian/openstack.compute/assignees{/user}",
    "blobs_url": "https://api.github.com/repos/jacobian/openstack.compute/git/blobs{/sha}",
    "branches_url": "https://api.github.com/repos/jacobian/openstack.compute/branches{/branch}",
    "clone_url": "https://github.com/jacobian/openstack.compute.git",
    "collaborators_url": "https://api.github.com/repos/jacobian/openstack.compute/collaborators{/collaborator}",
    "comments_url": "https://api.github.com/repos/jacobian/openstack.compute/comments{/number}",
    "commits_url": "https://api.github.com/repos/jacobian/openstack.compute/commits{/sha}",
    "compare_url": "https://api.github.com/repos/jacobian/openstack.compute/compare/{base}...{head}",
    "contents_url": "https://api.github.com/repos/jacobian/openstack.compute/contents/{+path}",
    "contributors_url": "https://api.github.com/repos/jacobian/openstack.compute/contributors",
    "created_at": "2011-03-16T21:03:28Z",
    "default_branch": "master",
    "description": "Python bindings to the OpenStack Compute API (Rackspace Cloud, etc.) ",
    "downloads_url": "https://api.github.com/repos/jacobian/openstack.compute/downloads",
    "events_url": "https://api.github.com/repos/jacobian/openstack.compute/events",
    "fork": false,
    "forks": 29,
    "forks_count": 29,
    "forks_url": "https://api.github.com/repos/jacobian/openstack.compute/forks",
    "full_name": "jacobian/openstack.compute",
    "git_commits_url": "https://api.github.com/repos/jacobian/openstack.compute/git/commits{/sha}",
    "git_refs_url": "https://api.github.com/repos/jacobian/openstack.compute/git/refs{/sha}",
    "git_tags_url": "https://api.github.com/repos/jacobian/openstack.compute/git/tags{/sha}",
    "git_url": "git://github.com/jacobian/openstack.compute.git",
    "has_downloads": true,
    "has_issues": true,
    "has_wiki": true,
    "homepage": "http://openstackcompute.rtfd.org/",
    "hooks_url": "https://api.github.com/repos/jacobian/openstack.compute/hooks",
    "html_url": "https://github.com/jacobian/openstack.compute",
    "id": 1488998,
    "issue_comment_url": "https://api.github.com/repos/jacobian/openstack.compute/issues/comments/{number}",
    "issue_events_url": "https://api.github.com/repos/jacobian/openstack.compute/issues/events{/number}",
    "issues_url": "https://api.github.com/repos/jacobian/openstack.compute/issues{/number}",
    "keys_url": "https://api.github.com/repos/jacobian/openstack.compute/keys{/key_id}",
    "labels_url": "https://api.github.com/repos/jacobian/openstack.compute/labels{/name}",
    "language": "Python",
    "languages_url": "https://api.github.com/repos/jacobian/openstack.compute/languages",
    "merges_url": "https://api.github.com/repos/jacobian/openstack.compute/merges",
    "milestones_url": "https://api.github.com/repos/jacobian/openstack.compute/milestones{/number}",
    "mirror_url": null,
    "name": "openstack.compute",
    "notifications_url": "https://api.github.com/repos/jacobian/openstack.compute/notifications{?since,all,participating}",
    "open_issues": 7,
    "open_issues_count": 7,
    "owner": {
        "avatar_url": "https://avatars.githubusercontent.com/u/21148?",
        "events_url": "https://api.github.com/users/jacobian/events{/privacy}",
        "followers_url": "https://api.github.com/users/jacobian/followers",
        "following_url": "https://api.github.com/users/jacobian/following{/other_user}",
        "gists_url": "https://api.github.com/users/jacobian/gists{/gist_id}",
        "gravatar_id": "2f5463832ccb768ccb4a1ca3607c27ef",
        "html_url": "https://github.com/jacobian",
        "id": 21148,
        "login": "jacobian",
        "organizations_url": "https://api.github.com/users/jacobian/orgs",
        "received_events_url": "https://api.github.com/users/jacobian/received_events",
        "repos_url": "https://api.github.com/users/jacobian/repos",
        "site_admin": false,
        "starred_url": "https://api.github.com/users/jacobian/starred{/owner}{/repo}",
        "subscriptions_url": "https://api.github.com/users/jacobian/subscriptions",
        "type": "User",
        "url": "https://api.github.com/users/jacobian"
    },
    "private": false,
    "pulls_url": "https://api.github.com/repos/jacobian/openstack.compute/pulls{/number}",
    "pushed_at": "2011-08-06T01:20:36Z",
    "releases_url": "https://api.github.com/repos/jacobian/openstack.compute/releases{/id}",
    "score": 1.0,
    "size": 262,
    "ssh_url": "git@github.com:jacobian/openstack.compute.git",
    "stargazers_count": 95,
    "stargazers_url": "https://api.github.com/repos/jacobian/openstack.compute/stargazers",
    "statuses_url": "https://api.github.com/repos/jacobian/openstack.compute/statuses/{sha}",
    "subscribers_url": "https://api.github.com/repos/jacobian/openstack.compute/subscribers",
    "subscription_url": "https://api.github.com/repos/jacobian/openstack.compute/subscription",
    "svn_url": "https://github.com/jacobian/openstack.compute",
    "tags_url": "https://api.github.com/repos/jacobian/openstack.compute/tags",
    "teams_url": "https://api.github.com/repos/jacobian/openstack.compute/teams",
    "trees_url": "https://api.github.com/repos/jacobian/openstack.compute/git/trees{/sha}",
    "updated_at": "2014-01-14T19:14:54Z",
    "url": "https://api.github.com/repos/jacobian/openstack.compute",
    "watchers": 95,
    "watchers_count": 95
}