[
    "tests.hashers",
    "wsgi",
    "feedhq.profiles",
    "profiles.models",
    "0008_auto__add_field_user_ttl",
    "feedhq.feeds.migrations.0008_auto__add_field_entry_author",
    "commands.delete_old",
    "reader.migrations",
    "feedhq.profiles.migrations.0004_auto__add_field_user_oldest_first",
    "feedhq.feeds.views",
    "add_missing",
    "reader.urls",
    "feedhq.core.migrations.0001_initial",
    "test_update_queue",
    "feeds.management.commands.updatefeeds",
    "reader.management",
    "feedhq.core.models",
    "feeds.migrations.0004_auto",
    "test_favicons",
    "management.commands.sync_scheduler",
    "0013_auto__chg_field_feed_name",
    "reader.management.commands.delete_expired_tokens",
    "tests.test_fetching",
    "migrations.0015_auto__del_field_uniquefeed_hub__del_field_uniquefeed_last_loop__del_fi",
    "feedhq.storage",
    "profiles.migrations.0004_auto__add_field_user_oldest_first",
    "feedhq",
    "migrations.0002_auto__add_unique_authtoken_token",
    "feeds_tags",
    "feedhq.reader",
    "commands.sync_scheduler",
    "settings",
    "0010_auto__chg_field_user_ttl",
    "fields",
    "feedhq.feeds.management.commands.favicons",
    "sync_pubsubhubbub",
    "feedhq.reader.renderers",
    "feedhq.feeds.templatetags",
    "feedhq.feeds.admin",
    "core.models",
    "management.commands",
    "feedhq.tasks",
    "feedhq.feeds.migrations.0009_auto__del_field_entry_permalink",
    "migrations.0006_populate_feed_user",
    "feedhq.feeds.migrations.0006_populate_feed_user",
    "migrations.0007_auto__chg_field_feed_category__chg_field_feed_user__chg_field_entry_fe",
    "0002_url_text",
    "feedhq.feeds.migrations.0003_auto__add_unique_category_user_slug__add_unique_category_user_name",
    "clean_rq",
    "feedhq.settings",
    "migrations.0006_auto__add_field_user_font",
    "profiles.urls",
    "rqworker",
    "commands.updatefeeds",
    "0009_auto__add_index_user_is_suspended",
    "migrations.0009_auto__add_index_user_is_suspended",
    "migrations",
    "feedhq.feeds.management.commands",
    "tests.test_update_queue",
    "0016_auto__add_index_feed_url",
    "feedhq.feeds.templatetags.feeds_tags",
    "profiles.migrations.0009_auto__add_index_user_is_suspended",
    "0010_auto__add_field_entry_guid",
    "profiles.migrations.0007_auto__add_field_user_endless_pages",
    "reader.exceptions",
    "feedhq.wsgi",
    "feeds.management.commands.favicons",
    "0007_auto__add_field_user_endless_pages",
    "0014_auto__chg_field_feed_user__chg_field_entry_user__add_index_entry_date_",
    "commands.delete_expired_tokens",
    "migrations.0002_auto__add_user",
    "commands",
    "favicons",
    "0006_auto__add_field_user_font",
    "admin",
    "test_settings",
    "commands.favicons",
    "test_models",
    "0008_auto__add_field_entry_author",
    "feeds.admin",
    "urls",
    "feeds.management.commands",
    "tasks",
    "feedhq.views",
    "feeds.fields",
    "manage",
    "feeds.utils",
    "feedhq.feeds.management.commands.updatefeeds",
    "reader.api_urls",
    "feedhq.reader.management",
    "migrations.0005_auto__add_field_user_is_suspended",
    "feedhq.feeds.migrations.0005_auto__add_field_feed_user",
    "0004_auto",
    "backends",
    "reader.management.commands",
    "feedhq.profiles.migrations.0002_auto__add_user",
    "0002_auto__add_unique_authtoken_token",
    "migrations.0001_initial",
    "0007_auto__chg_field_feed_category__chg_field_feed_user__chg_field_entry_fe",
    "test_reader_api",
    "factories",
    "feeds.views",
    "test_fetching",
    "feeds.tasks",
    "feedhq.profiles.migrations.0009_auto__add_index_user_is_suspended",
    "feedhq.profiles.views",
    "feedhq.core",
    "feedhq.feeds.migrations.0004_auto",
    "feeds.migrations.0002_url_text",
    "profiles",
    "exceptions",
    "feedhq.feeds.migrations.0015_auto__del_field_uniquefeed_hub__del_field_uniquefeed_last_loop__del_fi",
    "feedhq.urls",
    "migrations.0008_auto__add_field_entry_author",
    "utils",
    "profiles.migrations.0005_auto__add_field_user_is_suspended",
    "feeds.migrations.0006_populate_feed_user",
    "tests.test_favicons",
    "profiles.admin",
    "management.commands.add_missing",
    "0003_auto__add_unique_category_user_slug__add_unique_category_user_name",
    "0005_auto__add_field_user_is_suspended",
    "feedhq.reader.migrations.0001_initial",
    "commands.add_missing",
    "authentication",
    "feeds.management.commands.sync_scheduler",
    "feedhq.feeds.management.commands.rqworker",
    "feedhq.profiles.migrations.0007_auto__add_field_user_endless_pages",
    "feeds.migrations.0010_auto__add_field_entry_guid",
    "feedhq.feeds",
    "feedhq.feeds.migrations.0016_auto__add_index_feed_url",
    "feedhq.profiles.urls",
    "feedhq.profiles.forms",
    "0015_auto__del_field_uniquefeed_hub__del_field_uniquefeed_last_loop__del_fi",
    "feedhq.feeds.migrations.0012_auto__chg_field_entry_guid",
    "core.migrations.0001_initial",
    "updatefeeds",
    "commands.rqworker",
    "feedhq.backends",
    "0003_auto__add_field_authtoken_client__add_field_authtoken_user_agent__chg_",
    "management.commands.sync_pubsubhubbub",
    "feedhq.reader.migrations.0002_auto__add_unique_authtoken_token",
    "feedhq.profiles.migrations.0003_auto__add_field_user_allow_media",
    "profiles.migrations.0008_auto__add_field_user_ttl",
    "management.commands.delete_unsubscribed",
    "management.commands.favicons",
    "test_profiles",
    "feedhq.profiles.migrations.0001_initial",
    "forms",
    "delete_old",
    "feedhq.reader.authentication",
    "feeds.forms",
    "migrations.0009_auto__del_field_entry_permalink",
    "tests",
    "api_urls",
    "migrations.0010_auto__add_field_entry_guid",
    "views",
    "tests.factories",
    "core.migrations",
    "feedhq.reader.admin",
    "profiles.migrations.0010_auto__chg_field_user_ttl",
    "templatetags.feeds_tags",
    "reader.migrations.0001_initial",
    "migrations.0004_auto",
    "feedhq.reader.models",
    "feedhq.reader.api_urls",
    "feedhq.feeds.management.commands.delete_old",
    "feedhq.feeds.fields",
    "feedhq.feeds.utils",
    "feedhq.profiles.migrations.0006_auto__add_field_user_font",
    "feedhq.feeds.management.commands.delete_unsubscribed",
    "feeds.management.commands.clean_rq",
    "tests.test_reader_api",
    "management.commands.rqworker",
    "commands.delete_unsubscribed",
    "feeds",
    "migrations.0016_auto__add_index_feed_url",
    "tests.test_models",
    "feedhq.reader.migrations",
    "delete_expired_tokens",
    "feedhq.reader.management.commands.delete_expired_tokens",
    "feedhq.feeds.migrations.0013_auto__chg_field_feed_name",
    "feeds.migrations.0016_auto__add_index_feed_url",
    "0012_auto__chg_field_entry_guid",
    "profiles.migrations.0002_auto__add_user",
    "feedhq.feeds.migrations.0010_auto__add_field_entry_guid",
    "feedhq.feeds.migrations.0002_url_text",
    "feeds.management",
    "feedhq.core.migrations",
    "hashers",
    "feedhq.profiles.migrations.0005_auto__add_field_user_is_suspended",
    "0003_auto__add_field_user_allow_media",
    "migrations.0011_populate_guid",
    "profiles.migrations.0003_auto__add_field_user_allow_media",
    "feedhq.feeds.migrations.0011_populate_guid",
    "reader",
    "decorators",
    "feeds.management.commands.sync_pubsubhubbub",
    "feedhq.feeds.urls",
    "core",
    "migrations.0014_auto__chg_field_feed_user__chg_field_entry_user__add_index_entry_date_",
    "profiles.migrations.0001_initial",
    "0002_auto__add_user",
    "management.commands.clean_rq",
    "migrations.0003_auto__add_field_authtoken_client__add_field_authtoken_user_agent__chg_",
    "feedhq.reader.urls",
    "tests.test_backend",
    "feedhq.reader.management.commands",
    "renderers",
    "feedhq.decorators",
    "feedhq.utils",
    "feedhq.feeds.migrations.0007_auto__chg_field_feed_category__chg_field_feed_user__chg_field_entry_fe",
    "feeds.templatetags.feeds_tags",
    "feedhq.profiles.migrations.0008_auto__add_field_user_ttl",
    "profiles.migrations",
    "migrations.0004_auto__add_field_user_oldest_first",
    "feedhq.feeds.management.commands.add_missing",
    "reader.migrations.0003_auto__add_field_authtoken_client__add_field_authtoken_user_agent__chg_",
    "management.commands.delete_old",
    "feeds.migrations.0008_auto__add_field_entry_author",
    "feedhq.profiles.migrations",
    "reader.models",
    "feeds.migrations.0005_auto__add_field_feed_user",
    "migrations.0003_auto__add_unique_category_user_slug__add_unique_category_user_name",
    "reader.views",
    "commands.clean_rq",
    "feeds.migrations.0003_auto__add_unique_category_user_slug__add_unique_category_user_name",
    "feedhq.feeds.models",
    "feeds.migrations.0012_auto__chg_field_entry_guid",
    "migrations.0012_auto__chg_field_entry_guid",
    "feedhq.feeds.management.commands.sync_pubsubhubbub",
    "feedhq.feeds.management.commands.sync_scheduler",
    "tests.test_profiles",
    "management",
    "feeds.migrations.0009_auto__del_field_entry_permalink",
    "test_feeds",
    "migrations.0013_auto__chg_field_feed_name",
    "0006_populate_feed_user",
    "feedhq.feeds.management",
    "feedhq.reader.views",
    "feeds.management.commands.add_missing",
    "feedhq.feeds.tasks",
    "feeds.migrations.0013_auto__chg_field_feed_name",
    "migrations.0002_url_text",
    "management.commands.updatefeeds",
    "profiles.forms",
    "feedhq.feeds.migrations.0001_initial",
    "migrations.0010_auto__chg_field_user_ttl",
    "feeds.templatetags",
    "test_backend",
    "feeds.models",
    "0005_auto__add_field_feed_user",
    "feedhq.feeds.migrations.0014_auto__chg_field_feed_user__chg_field_entry_user__add_index_entry_date_",
    "commands.sync_pubsubhubbub",
    "feeds.migrations.0015_auto__del_field_uniquefeed_hub__del_field_uniquefeed_last_loop__del_fi",
    "feeds.management.commands.rqworker",
    "migrations.0008_auto__add_field_user_ttl",
    "feeds.migrations",
    "feedhq.feeds.forms",
    "feeds.migrations.0011_populate_guid",
    "feedhq.profiles.migrations.0010_auto__chg_field_user_ttl",
    "feedhq.reader.exceptions",
    "feedhq.feeds.migrations",
    "reader.migrations.0002_auto__add_unique_authtoken_token",
    "storage",
    "sync_scheduler",
    "tests.test_settings",
    "feeds.migrations.0001_initial",
    "management.commands.delete_expired_tokens",
    "feeds.urls",
    "0004_auto__add_field_user_oldest_first",
    "profiles.migrations.0006_auto__add_field_user_font",
    "tests.settings",
    "0011_populate_guid",
    "migrations.0005_auto__add_field_feed_user",
    "feedhq.profiles.models",
    "delete_unsubscribed",
    "feedhq.reader.migrations.0003_auto__add_field_authtoken_client__add_field_authtoken_user_agent__chg_",
    "models",
    "0001_initial",
    "feeds.migrations.0014_auto__chg_field_feed_user__chg_field_entry_user__add_index_entry_date_",
    "migrations.0007_auto__add_field_user_endless_pages",
    "feedhq.feeds.management.commands.clean_rq",
    "migrations.0003_auto__add_field_user_allow_media",
    "feeds.management.commands.delete_unsubscribed",
    "reader.renderers",
    "feeds.migrations.0007_auto__chg_field_feed_category__chg_field_feed_user__chg_field_entry_fe",
    "templatetags",
    "profiles.views",
    "feeds.management.commands.delete_old",
    "feedhq.profiles.admin",
    "0009_auto__del_field_entry_permalink",
    "tests.test_feeds",
    "reader.authentication",
    "reader.admin"
]