{
    "libs": [
        "mimetypes",
        "b",
        "PIL",
        "optparse",
        "unittest",
        "cPickle",
        "collections",
        "sys",
        "atexit",
        "itertools",
        "colorsys",
        "time",
        "path",
        "pyparsing",
        "os",
        "readline",
        "math"
    ]
}