{
    "libs": [
        "urlparse",
        "style",
        "b",
        "werkzeug",
        "warnings",
        "os",
        "functools",
        "local",
        "token",
        "datetime",
        "sys",
        "unittest",
        "parse",
        "contextlib",
        "urls",
        "h",
        "unittest2",
        "collections",
        "security",
        "fl",
        "hmac"
    ]
}