{
    "libs": [
        "argparse",
        "p",
        "datetime",
        "yaml",
        "pwgen",
        "time",
        "re",
        "path",
        "subprocess",
        "smtplib"
    ]
}