{
    "archive_url": "https://api.github.com/repos/bitly/asyncmongo/{archive_format}{/ref}",
    "assignees_url": "https://api.github.com/repos/bitly/asyncmongo/assignees{/user}",
    "blobs_url": "https://api.github.com/repos/bitly/asyncmongo/git/blobs{/sha}",
    "branches_url": "https://api.github.com/repos/bitly/asyncmongo/branches{/branch}",
    "clone_url": "https://github.com/bitly/asyncmongo.git",
    "collaborators_url": "https://api.github.com/repos/bitly/asyncmongo/collaborators{/collaborator}",
    "comments_url": "https://api.github.com/repos/bitly/asyncmongo/comments{/number}",
    "commits_url": "https://api.github.com/repos/bitly/asyncmongo/commits{/sha}",
    "compare_url": "https://api.github.com/repos/bitly/asyncmongo/compare/{base}...{head}",
    "contents_url": "https://api.github.com/repos/bitly/asyncmongo/contents/{+path}",
    "contributors_url": "https://api.github.com/repos/bitly/asyncmongo/contributors",
    "created_at": "2010-10-04T13:45:10Z",
    "default_branch": "master",
    "description": "An asynchronous library for accessing mongo with tornado.ioloop",
    "downloads_url": "https://api.github.com/repos/bitly/asyncmongo/downloads",
    "events_url": "https://api.github.com/repos/bitly/asyncmongo/events",
    "fork": false,
    "forks": 72,
    "forks_count": 72,
    "forks_url": "https://api.github.com/repos/bitly/asyncmongo/forks",
    "full_name": "bitly/asyncmongo",
    "git_commits_url": "https://api.github.com/repos/bitly/asyncmongo/git/commits{/sha}",
    "git_refs_url": "https://api.github.com/repos/bitly/asyncmongo/git/refs{/sha}",
    "git_tags_url": "https://api.github.com/repos/bitly/asyncmongo/git/tags{/sha}",
    "git_url": "git://github.com/bitly/asyncmongo.git",
    "has_downloads": true,
    "has_issues": true,
    "has_wiki": true,
    "homepage": "http://github.com/bitly/asyncmongo",
    "hooks_url": "https://api.github.com/repos/bitly/asyncmongo/hooks",
    "html_url": "https://github.com/bitly/asyncmongo",
    "id": 960617,
    "issue_comment_url": "https://api.github.com/repos/bitly/asyncmongo/issues/comments/{number}",
    "issue_events_url": "https://api.github.com/repos/bitly/asyncmongo/issues/events{/number}",
    "issues_url": "https://api.github.com/repos/bitly/asyncmongo/issues{/number}",
    "keys_url": "https://api.github.com/repos/bitly/asyncmongo/keys{/key_id}",
    "labels_url": "https://api.github.com/repos/bitly/asyncmongo/labels{/name}",
    "language": "Python",
    "languages_url": "https://api.github.com/repos/bitly/asyncmongo/languages",
    "merges_url": "https://api.github.com/repos/bitly/asyncmongo/merges",
    "milestones_url": "https://api.github.com/repos/bitly/asyncmongo/milestones{/number}",
    "mirror_url": null,
    "name": "asyncmongo",
    "notifications_url": "https://api.github.com/repos/bitly/asyncmongo/notifications{?since,all,participating}",
    "open_issues": 21,
    "open_issues_count": 21,
    "owner": {
        "avatar_url": "https://avatars.githubusercontent.com/u/251133?",
        "events_url": "https://api.github.com/users/bitly/events{/privacy}",
        "followers_url": "https://api.github.com/users/bitly/followers",
        "following_url": "https://api.github.com/users/bitly/following{/other_user}",
        "gists_url": "https://api.github.com/users/bitly/gists{/gist_id}",
        "gravatar_id": "a042f971d4be3a88909f8bf82b6130e8",
        "html_url": "https://github.com/bitly",
        "id": 251133,
        "login": "bitly",
        "organizations_url": "https://api.github.com/users/bitly/orgs",
        "received_events_url": "https://api.github.com/users/bitly/received_events",
        "repos_url": "https://api.github.com/users/bitly/repos",
        "site_admin": false,
        "starred_url": "https://api.github.com/users/bitly/starred{/owner}{/repo}",
        "subscriptions_url": "https://api.github.com/users/bitly/subscriptions",
        "type": "Organization",
        "url": "https://api.github.com/users/bitly"
    },
    "private": false,
    "pulls_url": "https://api.github.com/repos/bitly/asyncmongo/pulls{/number}",
    "pushed_at": "2013-05-22T17:18:42Z",
    "releases_url": "https://api.github.com/repos/bitly/asyncmongo/releases{/id}",
    "score": 1.0,
    "size": 419,
    "ssh_url": "git@github.com:bitly/asyncmongo.git",
    "stargazers_count": 465,
    "stargazers_url": "https://api.github.com/repos/bitly/asyncmongo/stargazers",
    "statuses_url": "https://api.github.com/repos/bitly/asyncmongo/statuses/{sha}",
    "subscribers_url": "https://api.github.com/repos/bitly/asyncmongo/subscribers",
    "subscription_url": "https://api.github.com/repos/bitly/asyncmongo/subscription",
    "svn_url": "https://github.com/bitly/asyncmongo",
    "tags_url": "https://api.github.com/repos/bitly/asyncmongo/tags",
    "teams_url": "https://api.github.com/repos/bitly/asyncmongo/teams",
    "trees_url": "https://api.github.com/repos/bitly/asyncmongo/git/trees{/sha}",
    "updated_at": "2014-05-07T01:25:46Z",
    "url": "https://api.github.com/repos/bitly/asyncmongo",
    "watchers": 465,
    "watchers_count": 465
}