{
    "libs": [
        "shutil",
        "bin",
        "copy",
        "uuid",
        "optparse",
        "h",
        "random",
        "Random",
        "datetime",
        "sys",
        "tempfile",
        "Cipher",
        "getp",
        "keep",
        "os",
        "struct"
    ]
}