{
    "archive_url": "https://api.github.com/repos/brettviren/python-keepass/{archive_format}{/ref}",
    "assignees_url": "https://api.github.com/repos/brettviren/python-keepass/assignees{/user}",
    "blobs_url": "https://api.github.com/repos/brettviren/python-keepass/git/blobs{/sha}",
    "branches_url": "https://api.github.com/repos/brettviren/python-keepass/branches{/branch}",
    "clone_url": "https://github.com/brettviren/python-keepass.git",
    "collaborators_url": "https://api.github.com/repos/brettviren/python-keepass/collaborators{/collaborator}",
    "comments_url": "https://api.github.com/repos/brettviren/python-keepass/comments{/number}",
    "commits_url": "https://api.github.com/repos/brettviren/python-keepass/commits{/sha}",
    "compare_url": "https://api.github.com/repos/brettviren/python-keepass/compare/{base}...{head}",
    "contents_url": "https://api.github.com/repos/brettviren/python-keepass/contents/{+path}",
    "contributors_url": "https://api.github.com/repos/brettviren/python-keepass/contributors",
    "created_at": "2010-10-28T15:41:13Z",
    "default_branch": "master",
    "description": "Python interface to KeePass file format v3 (used in KeePass V1.x and KeePassX)",
    "downloads_url": "https://api.github.com/repos/brettviren/python-keepass/downloads",
    "events_url": "https://api.github.com/repos/brettviren/python-keepass/events",
    "fork": false,
    "forks": 16,
    "forks_count": 16,
    "forks_url": "https://api.github.com/repos/brettviren/python-keepass/forks",
    "full_name": "brettviren/python-keepass",
    "git_commits_url": "https://api.github.com/repos/brettviren/python-keepass/git/commits{/sha}",
    "git_refs_url": "https://api.github.com/repos/brettviren/python-keepass/git/refs{/sha}",
    "git_tags_url": "https://api.github.com/repos/brettviren/python-keepass/git/tags{/sha}",
    "git_url": "git://github.com/brettviren/python-keepass.git",
    "has_downloads": true,
    "has_issues": true,
    "has_wiki": true,
    "homepage": "",
    "hooks_url": "https://api.github.com/repos/brettviren/python-keepass/hooks",
    "html_url": "https://github.com/brettviren/python-keepass",
    "id": 1032217,
    "issue_comment_url": "https://api.github.com/repos/brettviren/python-keepass/issues/comments/{number}",
    "issue_events_url": "https://api.github.com/repos/brettviren/python-keepass/issues/events{/number}",
    "issues_url": "https://api.github.com/repos/brettviren/python-keepass/issues{/number}",
    "keys_url": "https://api.github.com/repos/brettviren/python-keepass/keys{/key_id}",
    "labels_url": "https://api.github.com/repos/brettviren/python-keepass/labels{/name}",
    "language": "Python",
    "languages_url": "https://api.github.com/repos/brettviren/python-keepass/languages",
    "merges_url": "https://api.github.com/repos/brettviren/python-keepass/merges",
    "milestones_url": "https://api.github.com/repos/brettviren/python-keepass/milestones{/number}",
    "mirror_url": null,
    "name": "python-keepass",
    "notifications_url": "https://api.github.com/repos/brettviren/python-keepass/notifications{?since,all,participating}",
    "open_issues": 7,
    "open_issues_count": 7,
    "owner": {
        "avatar_url": "https://avatars.githubusercontent.com/u/209537?",
        "events_url": "https://api.github.com/users/brettviren/events{/privacy}",
        "followers_url": "https://api.github.com/users/brettviren/followers",
        "following_url": "https://api.github.com/users/brettviren/following{/other_user}",
        "gists_url": "https://api.github.com/users/brettviren/gists{/gist_id}",
        "gravatar_id": "ad777e00e8c7ed57d37e884a081c26c9",
        "html_url": "https://github.com/brettviren",
        "id": 209537,
        "login": "brettviren",
        "organizations_url": "https://api.github.com/users/brettviren/orgs",
        "received_events_url": "https://api.github.com/users/brettviren/received_events",
        "repos_url": "https://api.github.com/users/brettviren/repos",
        "site_admin": false,
        "starred_url": "https://api.github.com/users/brettviren/starred{/owner}{/repo}",
        "subscriptions_url": "https://api.github.com/users/brettviren/subscriptions",
        "type": "User",
        "url": "https://api.github.com/users/brettviren"
    },
    "private": false,
    "pulls_url": "https://api.github.com/repos/brettviren/python-keepass/pulls{/number}",
    "pushed_at": "2014-01-22T00:36:51Z",
    "releases_url": "https://api.github.com/repos/brettviren/python-keepass/releases{/id}",
    "score": 1.0,
    "size": 259,
    "ssh_url": "git@github.com:brettviren/python-keepass.git",
    "stargazers_count": 90,
    "stargazers_url": "https://api.github.com/repos/brettviren/python-keepass/stargazers",
    "statuses_url": "https://api.github.com/repos/brettviren/python-keepass/statuses/{sha}",
    "subscribers_url": "https://api.github.com/repos/brettviren/python-keepass/subscribers",
    "subscription_url": "https://api.github.com/repos/brettviren/python-keepass/subscription",
    "svn_url": "https://github.com/brettviren/python-keepass",
    "tags_url": "https://api.github.com/repos/brettviren/python-keepass/tags",
    "teams_url": "https://api.github.com/repos/brettviren/python-keepass/teams",
    "trees_url": "https://api.github.com/repos/brettviren/python-keepass/git/trees{/sha}",
    "updated_at": "2014-05-06T12:58:42Z",
    "url": "https://api.github.com/repos/brettviren/python-keepass",
    "watchers": 90,
    "watchers_count": 90
}