[
    "tests",
    "kpdb",
    "python",
    "python.keepass.infoblock",
    "keepass.hier",
    "keepass",
    "python.keepass.header",
    "test_de",
    "python.keepass.cli",
    "header",
    "tests.test_hier",
    "keepass.kpdb",
    "infoblock",
    "test_io",
    "cli",
    "python.keepass.hier",
    "python.keepass.kpdb",
    "keepass.header",
    "tests.test_de",
    "tests.test_io",
    "test_hier",
    "keepassc",
    "keepass.infoblock",
    "python.keepass",
    "hier",
    "tests.test_cli",
    "keepass.cli",
    "test_cli"
]