{
    "archive_url": "https://api.github.com/repos/ouyangzhiping/metacourse/{archive_format}{/ref}",
    "assignees_url": "https://api.github.com/repos/ouyangzhiping/metacourse/assignees{/user}",
    "blobs_url": "https://api.github.com/repos/ouyangzhiping/metacourse/git/blobs{/sha}",
    "branches_url": "https://api.github.com/repos/ouyangzhiping/metacourse/branches{/branch}",
    "clone_url": "https://github.com/ouyangzhiping/metacourse.git",
    "collaborators_url": "https://api.github.com/repos/ouyangzhiping/metacourse/collaborators{/collaborator}",
    "comments_url": "https://api.github.com/repos/ouyangzhiping/metacourse/comments{/number}",
    "commits_url": "https://api.github.com/repos/ouyangzhiping/metacourse/commits{/sha}",
    "compare_url": "https://api.github.com/repos/ouyangzhiping/metacourse/compare/{base}...{head}",
    "contents_url": "https://api.github.com/repos/ouyangzhiping/metacourse/contents/{+path}",
    "contributors_url": "https://api.github.com/repos/ouyangzhiping/metacourse/contributors",
    "created_at": "2013-08-12T09:16:41Z",
    "default_branch": "master",
    "description": "\u6279\u91cf\u4e0b\u8f7d\u4f18\u8d28\u8bfe\u7a0b\u7684\u65b9\u6cd5\u6536\u96c6",
    "downloads_url": "https://api.github.com/repos/ouyangzhiping/metacourse/downloads",
    "events_url": "https://api.github.com/repos/ouyangzhiping/metacourse/events",
    "fork": false,
    "forks": 16,
    "forks_count": 16,
    "forks_url": "https://api.github.com/repos/ouyangzhiping/metacourse/forks",
    "full_name": "ouyangzhiping/metacourse",
    "git_commits_url": "https://api.github.com/repos/ouyangzhiping/metacourse/git/commits{/sha}",
    "git_refs_url": "https://api.github.com/repos/ouyangzhiping/metacourse/git/refs{/sha}",
    "git_tags_url": "https://api.github.com/repos/ouyangzhiping/metacourse/git/tags{/sha}",
    "git_url": "git://github.com/ouyangzhiping/metacourse.git",
    "has_downloads": true,
    "has_issues": true,
    "has_wiki": true,
    "homepage": "",
    "hooks_url": "https://api.github.com/repos/ouyangzhiping/metacourse/hooks",
    "html_url": "https://github.com/ouyangzhiping/metacourse",
    "id": 12052207,
    "issue_comment_url": "https://api.github.com/repos/ouyangzhiping/metacourse/issues/comments/{number}",
    "issue_events_url": "https://api.github.com/repos/ouyangzhiping/metacourse/issues/events{/number}",
    "issues_url": "https://api.github.com/repos/ouyangzhiping/metacourse/issues{/number}",
    "keys_url": "https://api.github.com/repos/ouyangzhiping/metacourse/keys{/key_id}",
    "labels_url": "https://api.github.com/repos/ouyangzhiping/metacourse/labels{/name}",
    "language": "Python",
    "languages_url": "https://api.github.com/repos/ouyangzhiping/metacourse/languages",
    "merges_url": "https://api.github.com/repos/ouyangzhiping/metacourse/merges",
    "milestones_url": "https://api.github.com/repos/ouyangzhiping/metacourse/milestones{/number}",
    "mirror_url": null,
    "name": "metacourse",
    "notifications_url": "https://api.github.com/repos/ouyangzhiping/metacourse/notifications{?since,all,participating}",
    "open_issues": 0,
    "open_issues_count": 0,
    "owner": {
        "avatar_url": "https://avatars.githubusercontent.com/u/457349?",
        "events_url": "https://api.github.com/users/ouyangzhiping/events{/privacy}",
        "followers_url": "https://api.github.com/users/ouyangzhiping/followers",
        "following_url": "https://api.github.com/users/ouyangzhiping/following{/other_user}",
        "gists_url": "https://api.github.com/users/ouyangzhiping/gists{/gist_id}",
        "gravatar_id": "b361b0bc6e090771c4e282e44c64ce2f",
        "html_url": "https://github.com/ouyangzhiping",
        "id": 457349,
        "login": "ouyangzhiping",
        "organizations_url": "https://api.github.com/users/ouyangzhiping/orgs",
        "received_events_url": "https://api.github.com/users/ouyangzhiping/received_events",
        "repos_url": "https://api.github.com/users/ouyangzhiping/repos",
        "site_admin": false,
        "starred_url": "https://api.github.com/users/ouyangzhiping/starred{/owner}{/repo}",
        "subscriptions_url": "https://api.github.com/users/ouyangzhiping/subscriptions",
        "type": "User",
        "url": "https://api.github.com/users/ouyangzhiping"
    },
    "private": false,
    "pulls_url": "https://api.github.com/repos/ouyangzhiping/metacourse/pulls{/number}",
    "pushed_at": "2013-08-20T03:04:01Z",
    "releases_url": "https://api.github.com/repos/ouyangzhiping/metacourse/releases{/id}",
    "score": 1.0,
    "size": 93,
    "ssh_url": "git@github.com:ouyangzhiping/metacourse.git",
    "stargazers_count": 63,
    "stargazers_url": "https://api.github.com/repos/ouyangzhiping/metacourse/stargazers",
    "statuses_url": "https://api.github.com/repos/ouyangzhiping/metacourse/statuses/{sha}",
    "subscribers_url": "https://api.github.com/repos/ouyangzhiping/metacourse/subscribers",
    "subscription_url": "https://api.github.com/repos/ouyangzhiping/metacourse/subscription",
    "svn_url": "https://github.com/ouyangzhiping/metacourse",
    "tags_url": "https://api.github.com/repos/ouyangzhiping/metacourse/tags",
    "teams_url": "https://api.github.com/repos/ouyangzhiping/metacourse/teams",
    "trees_url": "https://api.github.com/repos/ouyangzhiping/metacourse/git/trees{/sha}",
    "updated_at": "2014-05-06T06:08:23Z",
    "url": "https://api.github.com/repos/ouyangzhiping/metacourse",
    "watchers": 63,
    "watchers_count": 63
}