{
    "archive_url": "https://api.github.com/repos/elasticsales/flask-mongorest/{archive_format}{/ref}",
    "assignees_url": "https://api.github.com/repos/elasticsales/flask-mongorest/assignees{/user}",
    "blobs_url": "https://api.github.com/repos/elasticsales/flask-mongorest/git/blobs{/sha}",
    "branches_url": "https://api.github.com/repos/elasticsales/flask-mongorest/branches{/branch}",
    "clone_url": "https://github.com/elasticsales/flask-mongorest.git",
    "collaborators_url": "https://api.github.com/repos/elasticsales/flask-mongorest/collaborators{/collaborator}",
    "comments_url": "https://api.github.com/repos/elasticsales/flask-mongorest/comments{/number}",
    "commits_url": "https://api.github.com/repos/elasticsales/flask-mongorest/commits{/sha}",
    "compare_url": "https://api.github.com/repos/elasticsales/flask-mongorest/compare/{base}...{head}",
    "contents_url": "https://api.github.com/repos/elasticsales/flask-mongorest/contents/{+path}",
    "contributors_url": "https://api.github.com/repos/elasticsales/flask-mongorest/contributors",
    "created_at": "2012-06-12T18:40:14Z",
    "default_branch": "master",
    "description": "Restful API framework wrapped around MongoEngine",
    "downloads_url": "https://api.github.com/repos/elasticsales/flask-mongorest/downloads",
    "events_url": "https://api.github.com/repos/elasticsales/flask-mongorest/events",
    "fork": false,
    "forks": 30,
    "forks_count": 30,
    "forks_url": "https://api.github.com/repos/elasticsales/flask-mongorest/forks",
    "full_name": "elasticsales/flask-mongorest",
    "git_commits_url": "https://api.github.com/repos/elasticsales/flask-mongorest/git/commits{/sha}",
    "git_refs_url": "https://api.github.com/repos/elasticsales/flask-mongorest/git/refs{/sha}",
    "git_tags_url": "https://api.github.com/repos/elasticsales/flask-mongorest/git/tags{/sha}",
    "git_url": "git://github.com/elasticsales/flask-mongorest.git",
    "has_downloads": true,
    "has_issues": true,
    "has_wiki": true,
    "homepage": null,
    "hooks_url": "https://api.github.com/repos/elasticsales/flask-mongorest/hooks",
    "html_url": "https://github.com/elasticsales/flask-mongorest",
    "id": 4641343,
    "issue_comment_url": "https://api.github.com/repos/elasticsales/flask-mongorest/issues/comments/{number}",
    "issue_events_url": "https://api.github.com/repos/elasticsales/flask-mongorest/issues/events{/number}",
    "issues_url": "https://api.github.com/repos/elasticsales/flask-mongorest/issues{/number}",
    "keys_url": "https://api.github.com/repos/elasticsales/flask-mongorest/keys{/key_id}",
    "labels_url": "https://api.github.com/repos/elasticsales/flask-mongorest/labels{/name}",
    "language": "Python",
    "languages_url": "https://api.github.com/repos/elasticsales/flask-mongorest/languages",
    "merges_url": "https://api.github.com/repos/elasticsales/flask-mongorest/merges",
    "milestones_url": "https://api.github.com/repos/elasticsales/flask-mongorest/milestones{/number}",
    "mirror_url": null,
    "name": "flask-mongorest",
    "notifications_url": "https://api.github.com/repos/elasticsales/flask-mongorest/notifications{?since,all,participating}",
    "open_issues": 16,
    "open_issues_count": 16,
    "owner": {
        "avatar_url": "https://avatars.githubusercontent.com/u/437267?",
        "events_url": "https://api.github.com/users/elasticsales/events{/privacy}",
        "followers_url": "https://api.github.com/users/elasticsales/followers",
        "following_url": "https://api.github.com/users/elasticsales/following{/other_user}",
        "gists_url": "https://api.github.com/users/elasticsales/gists{/gist_id}",
        "gravatar_id": "1c45af514723d1307bd5f00089e7dfcc",
        "html_url": "https://github.com/elasticsales",
        "id": 437267,
        "login": "elasticsales",
        "organizations_url": "https://api.github.com/users/elasticsales/orgs",
        "received_events_url": "https://api.github.com/users/elasticsales/received_events",
        "repos_url": "https://api.github.com/users/elasticsales/repos",
        "site_admin": false,
        "starred_url": "https://api.github.com/users/elasticsales/starred{/owner}{/repo}",
        "subscriptions_url": "https://api.github.com/users/elasticsales/subscriptions",
        "type": "Organization",
        "url": "https://api.github.com/users/elasticsales"
    },
    "private": false,
    "pulls_url": "https://api.github.com/repos/elasticsales/flask-mongorest/pulls{/number}",
    "pushed_at": "2014-03-13T03:55:23Z",
    "releases_url": "https://api.github.com/repos/elasticsales/flask-mongorest/releases{/id}",
    "score": 1.0,
    "size": 850,
    "ssh_url": "git@github.com:elasticsales/flask-mongorest.git",
    "stargazers_count": 265,
    "stargazers_url": "https://api.github.com/repos/elasticsales/flask-mongorest/stargazers",
    "statuses_url": "https://api.github.com/repos/elasticsales/flask-mongorest/statuses/{sha}",
    "subscribers_url": "https://api.github.com/repos/elasticsales/flask-mongorest/subscribers",
    "subscription_url": "https://api.github.com/repos/elasticsales/flask-mongorest/subscription",
    "svn_url": "https://github.com/elasticsales/flask-mongorest",
    "tags_url": "https://api.github.com/repos/elasticsales/flask-mongorest/tags",
    "teams_url": "https://api.github.com/repos/elasticsales/flask-mongorest/teams",
    "trees_url": "https://api.github.com/repos/elasticsales/flask-mongorest/git/trees{/sha}",
    "updated_at": "2014-05-02T13:30:42Z",
    "url": "https://api.github.com/repos/elasticsales/flask-mongorest",
    "watchers": 265,
    "watchers_count": 265
}