[
    "cache",
    "viewlet.tests.test_viewlet",
    "viewlet.views",
    "viewlet.exceptions",
    "run_tests",
    "library",
    "api",
    "jinja2_loader",
    "conf",
    "viewlet.cache",
    "viewlet.library",
    "loaders",
    "test_viewlet",
    "viewlet.loaders.jinja2_loader",
    "templatetags.viewlets",
    "viewlet.loaders",
    "django_loader",
    "viewlet.api",
    "loaders.django_loader",
    "viewlet.conf",
    "tests.urls",
    "viewlet.templatetags",
    "tests",
    "tests.test_viewlet",
    "views",
    "models",
    "viewlets",
    "viewlet",
    "viewlet.urls",
    "viewlet.loaders.django_loader",
    "viewlet.models",
    "viewlet.tests.urls",
    "loaders.jinja2_loader",
    "templatetags",
    "viewlet.tests",
    "urls",
    "exceptions",
    "viewlet.templatetags.viewlets"
]