{
    "archive_url": "https://api.github.com/repos/renfredxh/pylletTown/{archive_format}{/ref}",
    "assignees_url": "https://api.github.com/repos/renfredxh/pylletTown/assignees{/user}",
    "blobs_url": "https://api.github.com/repos/renfredxh/pylletTown/git/blobs{/sha}",
    "branches_url": "https://api.github.com/repos/renfredxh/pylletTown/branches{/branch}",
    "clone_url": "https://github.com/renfredxh/pylletTown.git",
    "collaborators_url": "https://api.github.com/repos/renfredxh/pylletTown/collaborators{/collaborator}",
    "comments_url": "https://api.github.com/repos/renfredxh/pylletTown/comments{/number}",
    "commits_url": "https://api.github.com/repos/renfredxh/pylletTown/commits{/sha}",
    "compare_url": "https://api.github.com/repos/renfredxh/pylletTown/compare/{base}...{head}",
    "contents_url": "https://api.github.com/repos/renfredxh/pylletTown/contents/{+path}",
    "contributors_url": "https://api.github.com/repos/renfredxh/pylletTown/contributors",
    "created_at": "2013-07-07T01:49:52Z",
    "default_branch": "master",
    "description": "a TMX based demo of the video game Pok\u00e9mon Blue running in python 3 ",
    "downloads_url": "https://api.github.com/repos/renfredxh/pylletTown/downloads",
    "events_url": "https://api.github.com/repos/renfredxh/pylletTown/events",
    "fork": false,
    "forks": 1,
    "forks_count": 1,
    "forks_url": "https://api.github.com/repos/renfredxh/pylletTown/forks",
    "full_name": "renfredxh/pylletTown",
    "git_commits_url": "https://api.github.com/repos/renfredxh/pylletTown/git/commits{/sha}",
    "git_refs_url": "https://api.github.com/repos/renfredxh/pylletTown/git/refs{/sha}",
    "git_tags_url": "https://api.github.com/repos/renfredxh/pylletTown/git/tags{/sha}",
    "git_url": "git://github.com/renfredxh/pylletTown.git",
    "has_downloads": true,
    "has_issues": true,
    "has_wiki": true,
    "homepage": null,
    "hooks_url": "https://api.github.com/repos/renfredxh/pylletTown/hooks",
    "html_url": "https://github.com/renfredxh/pylletTown",
    "id": 11227026,
    "issue_comment_url": "https://api.github.com/repos/renfredxh/pylletTown/issues/comments/{number}",
    "issue_events_url": "https://api.github.com/repos/renfredxh/pylletTown/issues/events{/number}",
    "issues_url": "https://api.github.com/repos/renfredxh/pylletTown/issues{/number}",
    "keys_url": "https://api.github.com/repos/renfredxh/pylletTown/keys{/key_id}",
    "labels_url": "https://api.github.com/repos/renfredxh/pylletTown/labels{/name}",
    "language": "Python",
    "languages_url": "https://api.github.com/repos/renfredxh/pylletTown/languages",
    "merges_url": "https://api.github.com/repos/renfredxh/pylletTown/merges",
    "milestones_url": "https://api.github.com/repos/renfredxh/pylletTown/milestones{/number}",
    "mirror_url": null,
    "name": "pylletTown",
    "notifications_url": "https://api.github.com/repos/renfredxh/pylletTown/notifications{?since,all,participating}",
    "open_issues": 0,
    "open_issues_count": 0,
    "owner": {
        "avatar_url": "https://avatars.githubusercontent.com/u/3800339?",
        "events_url": "https://api.github.com/users/renfredxh/events{/privacy}",
        "followers_url": "https://api.github.com/users/renfredxh/followers",
        "following_url": "https://api.github.com/users/renfredxh/following{/other_user}",
        "gists_url": "https://api.github.com/users/renfredxh/gists{/gist_id}",
        "gravatar_id": "46d2e5807d5038b8701ccc9f5db4ce11",
        "html_url": "https://github.com/renfredxh",
        "id": 3800339,
        "login": "renfredxh",
        "organizations_url": "https://api.github.com/users/renfredxh/orgs",
        "received_events_url": "https://api.github.com/users/renfredxh/received_events",
        "repos_url": "https://api.github.com/users/renfredxh/repos",
        "site_admin": false,
        "starred_url": "https://api.github.com/users/renfredxh/starred{/owner}{/repo}",
        "subscriptions_url": "https://api.github.com/users/renfredxh/subscriptions",
        "type": "User",
        "url": "https://api.github.com/users/renfredxh"
    },
    "private": false,
    "pulls_url": "https://api.github.com/repos/renfredxh/pylletTown/pulls{/number}",
    "pushed_at": "2014-02-05T17:21:14Z",
    "releases_url": "https://api.github.com/repos/renfredxh/pylletTown/releases{/id}",
    "score": 1.0,
    "size": 221,
    "ssh_url": "git@github.com:renfredxh/pylletTown.git",
    "stargazers_count": 43,
    "stargazers_url": "https://api.github.com/repos/renfredxh/pylletTown/stargazers",
    "statuses_url": "https://api.github.com/repos/renfredxh/pylletTown/statuses/{sha}",
    "subscribers_url": "https://api.github.com/repos/renfredxh/pylletTown/subscribers",
    "subscription_url": "https://api.github.com/repos/renfredxh/pylletTown/subscription",
    "svn_url": "https://github.com/renfredxh/pylletTown",
    "tags_url": "https://api.github.com/repos/renfredxh/pylletTown/tags",
    "teams_url": "https://api.github.com/repos/renfredxh/pylletTown/teams",
    "trees_url": "https://api.github.com/repos/renfredxh/pylletTown/git/trees{/sha}",
    "updated_at": "2014-05-03T01:37:20Z",
    "url": "https://api.github.com/repos/renfredxh/pylletTown",
    "watchers": 43,
    "watchers_count": 43
}