{
    "archive_url": "https://api.github.com/repos/dcrosta/flask-pymongo/{archive_format}{/ref}",
    "assignees_url": "https://api.github.com/repos/dcrosta/flask-pymongo/assignees{/user}",
    "blobs_url": "https://api.github.com/repos/dcrosta/flask-pymongo/git/blobs{/sha}",
    "branches_url": "https://api.github.com/repos/dcrosta/flask-pymongo/branches{/branch}",
    "clone_url": "https://github.com/dcrosta/flask-pymongo.git",
    "collaborators_url": "https://api.github.com/repos/dcrosta/flask-pymongo/collaborators{/collaborator}",
    "comments_url": "https://api.github.com/repos/dcrosta/flask-pymongo/comments{/number}",
    "commits_url": "https://api.github.com/repos/dcrosta/flask-pymongo/commits{/sha}",
    "compare_url": "https://api.github.com/repos/dcrosta/flask-pymongo/compare/{base}...{head}",
    "contents_url": "https://api.github.com/repos/dcrosta/flask-pymongo/contents/{+path}",
    "contributors_url": "https://api.github.com/repos/dcrosta/flask-pymongo/contributors",
    "created_at": "2011-12-26T15:14:22Z",
    "default_branch": "master",
    "description": "PyMongo support for Flask applications",
    "downloads_url": "https://api.github.com/repos/dcrosta/flask-pymongo/downloads",
    "events_url": "https://api.github.com/repos/dcrosta/flask-pymongo/events",
    "fork": false,
    "forks": 33,
    "forks_count": 33,
    "forks_url": "https://api.github.com/repos/dcrosta/flask-pymongo/forks",
    "full_name": "dcrosta/flask-pymongo",
    "git_commits_url": "https://api.github.com/repos/dcrosta/flask-pymongo/git/commits{/sha}",
    "git_refs_url": "https://api.github.com/repos/dcrosta/flask-pymongo/git/refs{/sha}",
    "git_tags_url": "https://api.github.com/repos/dcrosta/flask-pymongo/git/tags{/sha}",
    "git_url": "git://github.com/dcrosta/flask-pymongo.git",
    "has_downloads": true,
    "has_issues": true,
    "has_wiki": true,
    "homepage": "",
    "hooks_url": "https://api.github.com/repos/dcrosta/flask-pymongo/hooks",
    "html_url": "https://github.com/dcrosta/flask-pymongo",
    "id": 3052083,
    "issue_comment_url": "https://api.github.com/repos/dcrosta/flask-pymongo/issues/comments/{number}",
    "issue_events_url": "https://api.github.com/repos/dcrosta/flask-pymongo/issues/events{/number}",
    "issues_url": "https://api.github.com/repos/dcrosta/flask-pymongo/issues{/number}",
    "keys_url": "https://api.github.com/repos/dcrosta/flask-pymongo/keys{/key_id}",
    "labels_url": "https://api.github.com/repos/dcrosta/flask-pymongo/labels{/name}",
    "language": "Python",
    "languages_url": "https://api.github.com/repos/dcrosta/flask-pymongo/languages",
    "merges_url": "https://api.github.com/repos/dcrosta/flask-pymongo/merges",
    "milestones_url": "https://api.github.com/repos/dcrosta/flask-pymongo/milestones{/number}",
    "mirror_url": null,
    "name": "flask-pymongo",
    "notifications_url": "https://api.github.com/repos/dcrosta/flask-pymongo/notifications{?since,all,participating}",
    "open_issues": 16,
    "open_issues_count": 16,
    "owner": {
        "avatar_url": "https://avatars.githubusercontent.com/u/35122?",
        "events_url": "https://api.github.com/users/dcrosta/events{/privacy}",
        "followers_url": "https://api.github.com/users/dcrosta/followers",
        "following_url": "https://api.github.com/users/dcrosta/following{/other_user}",
        "gists_url": "https://api.github.com/users/dcrosta/gists{/gist_id}",
        "gravatar_id": "84c6cbd836b65fbb4661ff6ae56359ba",
        "html_url": "https://github.com/dcrosta",
        "id": 35122,
        "login": "dcrosta",
        "organizations_url": "https://api.github.com/users/dcrosta/orgs",
        "received_events_url": "https://api.github.com/users/dcrosta/received_events",
        "repos_url": "https://api.github.com/users/dcrosta/repos",
        "site_admin": false,
        "starred_url": "https://api.github.com/users/dcrosta/starred{/owner}{/repo}",
        "subscriptions_url": "https://api.github.com/users/dcrosta/subscriptions",
        "type": "User",
        "url": "https://api.github.com/users/dcrosta"
    },
    "private": false,
    "pulls_url": "https://api.github.com/repos/dcrosta/flask-pymongo/pulls{/number}",
    "pushed_at": "2013-12-01T20:01:24Z",
    "releases_url": "https://api.github.com/repos/dcrosta/flask-pymongo/releases{/id}",
    "score": 1.0,
    "size": 224,
    "ssh_url": "git@github.com:dcrosta/flask-pymongo.git",
    "stargazers_count": 125,
    "stargazers_url": "https://api.github.com/repos/dcrosta/flask-pymongo/stargazers",
    "statuses_url": "https://api.github.com/repos/dcrosta/flask-pymongo/statuses/{sha}",
    "subscribers_url": "https://api.github.com/repos/dcrosta/flask-pymongo/subscribers",
    "subscription_url": "https://api.github.com/repos/dcrosta/flask-pymongo/subscription",
    "svn_url": "https://github.com/dcrosta/flask-pymongo",
    "tags_url": "https://api.github.com/repos/dcrosta/flask-pymongo/tags",
    "teams_url": "https://api.github.com/repos/dcrosta/flask-pymongo/teams",
    "trees_url": "https://api.github.com/repos/dcrosta/flask-pymongo/git/trees{/sha}",
    "updated_at": "2014-01-07T16:06:59Z",
    "url": "https://api.github.com/repos/dcrosta/flask-pymongo",
    "watchers": 125,
    "watchers_count": 125
}