[
    "tests",
    "socketpool.pool",
    "backend_thread",
    "backend_gevent",
    "examples.test_threaded",
    "util",
    "examples.test_gevent",
    "socketpool.backend_thread",
    "tests.test_pool_01",
    "examples",
    "test_threaded",
    "conn",
    "backend_eventlet",
    "socketpool.util",
    "test_pool_01",
    "test_backend_finding",
    "socketpool.conn",
    "examples.test_eventlet",
    "socketpool",
    "test_gevent",
    "pool",
    "socketpool.backend_eventlet",
    "test_eventlet",
    "tests.test_backend_finding",
    "socketpool.backend_gevent"
]