{
    "libs": [
        "wsgi",
        "shortcuts",
        "functools",
        "conf",
        "select",
        "management",
        "struct",
        "errno",
        "collections",
        "template",
        "test",
        "mock",
        "http",
        "string",
        "sys",
        "md5",
        "socket",
        "h",
        "django",
        "client",
        "defaults",
        "urlresolvers",
        "os"
    ]
}