{
    "archive_url": "https://api.github.com/repos/jorgenschaefer/elpy/{archive_format}{/ref}",
    "assignees_url": "https://api.github.com/repos/jorgenschaefer/elpy/assignees{/user}",
    "blobs_url": "https://api.github.com/repos/jorgenschaefer/elpy/git/blobs{/sha}",
    "branches_url": "https://api.github.com/repos/jorgenschaefer/elpy/branches{/branch}",
    "clone_url": "https://github.com/jorgenschaefer/elpy.git",
    "collaborators_url": "https://api.github.com/repos/jorgenschaefer/elpy/collaborators{/collaborator}",
    "comments_url": "https://api.github.com/repos/jorgenschaefer/elpy/comments{/number}",
    "commits_url": "https://api.github.com/repos/jorgenschaefer/elpy/commits{/sha}",
    "compare_url": "https://api.github.com/repos/jorgenschaefer/elpy/compare/{base}...{head}",
    "contents_url": "https://api.github.com/repos/jorgenschaefer/elpy/contents/{+path}",
    "contributors_url": "https://api.github.com/repos/jorgenschaefer/elpy/contributors",
    "created_at": "2012-10-29T22:28:49Z",
    "default_branch": "master",
    "description": "Emacs Python Development Environment",
    "downloads_url": "https://api.github.com/repos/jorgenschaefer/elpy/downloads",
    "events_url": "https://api.github.com/repos/jorgenschaefer/elpy/events",
    "fork": false,
    "forks": 25,
    "forks_count": 25,
    "forks_url": "https://api.github.com/repos/jorgenschaefer/elpy/forks",
    "full_name": "jorgenschaefer/elpy",
    "git_commits_url": "https://api.github.com/repos/jorgenschaefer/elpy/git/commits{/sha}",
    "git_refs_url": "https://api.github.com/repos/jorgenschaefer/elpy/git/refs{/sha}",
    "git_tags_url": "https://api.github.com/repos/jorgenschaefer/elpy/git/tags{/sha}",
    "git_url": "git://github.com/jorgenschaefer/elpy.git",
    "has_downloads": true,
    "has_issues": true,
    "has_wiki": true,
    "homepage": "",
    "hooks_url": "https://api.github.com/repos/jorgenschaefer/elpy/hooks",
    "html_url": "https://github.com/jorgenschaefer/elpy",
    "id": 6448654,
    "issue_comment_url": "https://api.github.com/repos/jorgenschaefer/elpy/issues/comments/{number}",
    "issue_events_url": "https://api.github.com/repos/jorgenschaefer/elpy/issues/events{/number}",
    "issues_url": "https://api.github.com/repos/jorgenschaefer/elpy/issues{/number}",
    "keys_url": "https://api.github.com/repos/jorgenschaefer/elpy/keys{/key_id}",
    "labels_url": "https://api.github.com/repos/jorgenschaefer/elpy/labels{/name}",
    "language": "Emacs Lisp",
    "languages_url": "https://api.github.com/repos/jorgenschaefer/elpy/languages",
    "merges_url": "https://api.github.com/repos/jorgenschaefer/elpy/merges",
    "milestones_url": "https://api.github.com/repos/jorgenschaefer/elpy/milestones{/number}",
    "mirror_url": null,
    "name": "elpy",
    "notifications_url": "https://api.github.com/repos/jorgenschaefer/elpy/notifications{?since,all,participating}",
    "open_issues": 42,
    "open_issues_count": 42,
    "owner": {
        "avatar_url": "https://avatars.githubusercontent.com/u/2500270?",
        "events_url": "https://api.github.com/users/jorgenschaefer/events{/privacy}",
        "followers_url": "https://api.github.com/users/jorgenschaefer/followers",
        "following_url": "https://api.github.com/users/jorgenschaefer/following{/other_user}",
        "gists_url": "https://api.github.com/users/jorgenschaefer/gists{/gist_id}",
        "gravatar_id": "2b7a1d06c082c4aa8804103c17392c2a",
        "html_url": "https://github.com/jorgenschaefer",
        "id": 2500270,
        "login": "jorgenschaefer",
        "organizations_url": "https://api.github.com/users/jorgenschaefer/orgs",
        "received_events_url": "https://api.github.com/users/jorgenschaefer/received_events",
        "repos_url": "https://api.github.com/users/jorgenschaefer/repos",
        "site_admin": false,
        "starred_url": "https://api.github.com/users/jorgenschaefer/starred{/owner}{/repo}",
        "subscriptions_url": "https://api.github.com/users/jorgenschaefer/subscriptions",
        "type": "User",
        "url": "https://api.github.com/users/jorgenschaefer"
    },
    "private": false,
    "pulls_url": "https://api.github.com/repos/jorgenschaefer/elpy/pulls{/number}",
    "pushed_at": "2014-05-04T15:37:38Z",
    "releases_url": "https://api.github.com/repos/jorgenschaefer/elpy/releases{/id}",
    "score": 1.0,
    "size": 1828,
    "ssh_url": "git@github.com:jorgenschaefer/elpy.git",
    "stargazers_count": 257,
    "stargazers_url": "https://api.github.com/repos/jorgenschaefer/elpy/stargazers",
    "statuses_url": "https://api.github.com/repos/jorgenschaefer/elpy/statuses/{sha}",
    "subscribers_url": "https://api.github.com/repos/jorgenschaefer/elpy/subscribers",
    "subscription_url": "https://api.github.com/repos/jorgenschaefer/elpy/subscription",
    "svn_url": "https://github.com/jorgenschaefer/elpy",
    "tags_url": "https://api.github.com/repos/jorgenschaefer/elpy/tags",
    "teams_url": "https://api.github.com/repos/jorgenschaefer/elpy/teams",
    "trees_url": "https://api.github.com/repos/jorgenschaefer/elpy/git/trees{/sha}",
    "updated_at": "2014-05-07T02:41:28Z",
    "url": "https://api.github.com/repos/jorgenschaefer/elpy",
    "watchers": 257,
    "watchers_count": 257
}