{
    "archive_url": "https://api.github.com/repos/Mirantis/openstack-lbaas/{archive_format}{/ref}",
    "assignees_url": "https://api.github.com/repos/Mirantis/openstack-lbaas/assignees{/user}",
    "blobs_url": "https://api.github.com/repos/Mirantis/openstack-lbaas/git/blobs{/sha}",
    "branches_url": "https://api.github.com/repos/Mirantis/openstack-lbaas/branches{/branch}",
    "clone_url": "https://github.com/Mirantis/openstack-lbaas.git",
    "collaborators_url": "https://api.github.com/repos/Mirantis/openstack-lbaas/collaborators{/collaborator}",
    "comments_url": "https://api.github.com/repos/Mirantis/openstack-lbaas/comments{/number}",
    "commits_url": "https://api.github.com/repos/Mirantis/openstack-lbaas/commits{/sha}",
    "compare_url": "https://api.github.com/repos/Mirantis/openstack-lbaas/compare/{base}...{head}",
    "contents_url": "https://api.github.com/repos/Mirantis/openstack-lbaas/contents/{+path}",
    "contributors_url": "https://api.github.com/repos/Mirantis/openstack-lbaas/contributors",
    "created_at": "2012-05-29T21:19:17Z",
    "default_branch": "master",
    "description": "Load balancing service for OpenStack",
    "downloads_url": "https://api.github.com/repos/Mirantis/openstack-lbaas/downloads",
    "events_url": "https://api.github.com/repos/Mirantis/openstack-lbaas/events",
    "fork": false,
    "forks": 19,
    "forks_count": 19,
    "forks_url": "https://api.github.com/repos/Mirantis/openstack-lbaas/forks",
    "full_name": "Mirantis/openstack-lbaas",
    "git_commits_url": "https://api.github.com/repos/Mirantis/openstack-lbaas/git/commits{/sha}",
    "git_refs_url": "https://api.github.com/repos/Mirantis/openstack-lbaas/git/refs{/sha}",
    "git_tags_url": "https://api.github.com/repos/Mirantis/openstack-lbaas/git/tags{/sha}",
    "git_url": "git://github.com/Mirantis/openstack-lbaas.git",
    "has_downloads": true,
    "has_issues": true,
    "has_wiki": true,
    "homepage": null,
    "hooks_url": "https://api.github.com/repos/Mirantis/openstack-lbaas/hooks",
    "html_url": "https://github.com/Mirantis/openstack-lbaas",
    "id": 4487684,
    "issue_comment_url": "https://api.github.com/repos/Mirantis/openstack-lbaas/issues/comments/{number}",
    "issue_events_url": "https://api.github.com/repos/Mirantis/openstack-lbaas/issues/events{/number}",
    "issues_url": "https://api.github.com/repos/Mirantis/openstack-lbaas/issues{/number}",
    "keys_url": "https://api.github.com/repos/Mirantis/openstack-lbaas/keys{/key_id}",
    "labels_url": "https://api.github.com/repos/Mirantis/openstack-lbaas/labels{/name}",
    "language": "Python",
    "languages_url": "https://api.github.com/repos/Mirantis/openstack-lbaas/languages",
    "merges_url": "https://api.github.com/repos/Mirantis/openstack-lbaas/merges",
    "milestones_url": "https://api.github.com/repos/Mirantis/openstack-lbaas/milestones{/number}",
    "mirror_url": null,
    "name": "openstack-lbaas",
    "notifications_url": "https://api.github.com/repos/Mirantis/openstack-lbaas/notifications{?since,all,participating}",
    "open_issues": 4,
    "open_issues_count": 4,
    "owner": {
        "avatar_url": "https://avatars.githubusercontent.com/u/609319?",
        "events_url": "https://api.github.com/users/Mirantis/events{/privacy}",
        "followers_url": "https://api.github.com/users/Mirantis/followers",
        "following_url": "https://api.github.com/users/Mirantis/following{/other_user}",
        "gists_url": "https://api.github.com/users/Mirantis/gists{/gist_id}",
        "gravatar_id": "7fffececed7c9e257d42634b463dbdd1",
        "html_url": "https://github.com/Mirantis",
        "id": 609319,
        "login": "Mirantis",
        "organizations_url": "https://api.github.com/users/Mirantis/orgs",
        "received_events_url": "https://api.github.com/users/Mirantis/received_events",
        "repos_url": "https://api.github.com/users/Mirantis/repos",
        "site_admin": false,
        "starred_url": "https://api.github.com/users/Mirantis/starred{/owner}{/repo}",
        "subscriptions_url": "https://api.github.com/users/Mirantis/subscriptions",
        "type": "Organization",
        "url": "https://api.github.com/users/Mirantis"
    },
    "private": false,
    "pulls_url": "https://api.github.com/repos/Mirantis/openstack-lbaas/pulls{/number}",
    "pushed_at": "2013-06-10T13:30:34Z",
    "releases_url": "https://api.github.com/repos/Mirantis/openstack-lbaas/releases{/id}",
    "score": 1.0,
    "size": 3487,
    "ssh_url": "git@github.com:Mirantis/openstack-lbaas.git",
    "stargazers_count": 60,
    "stargazers_url": "https://api.github.com/repos/Mirantis/openstack-lbaas/stargazers",
    "statuses_url": "https://api.github.com/repos/Mirantis/openstack-lbaas/statuses/{sha}",
    "subscribers_url": "https://api.github.com/repos/Mirantis/openstack-lbaas/subscribers",
    "subscription_url": "https://api.github.com/repos/Mirantis/openstack-lbaas/subscription",
    "svn_url": "https://github.com/Mirantis/openstack-lbaas",
    "tags_url": "https://api.github.com/repos/Mirantis/openstack-lbaas/tags",
    "teams_url": "https://api.github.com/repos/Mirantis/openstack-lbaas/teams",
    "trees_url": "https://api.github.com/repos/Mirantis/openstack-lbaas/git/trees{/sha}",
    "updated_at": "2014-05-02T17:33:01Z",
    "url": "https://api.github.com/repos/Mirantis/openstack-lbaas",
    "watchers": 60,
    "watchers_count": 60
}