{
    "archive_url": "https://api.github.com/repos/eriwen/lcov-to-cobertura-xml/{archive_format}{/ref}",
    "assignees_url": "https://api.github.com/repos/eriwen/lcov-to-cobertura-xml/assignees{/user}",
    "blobs_url": "https://api.github.com/repos/eriwen/lcov-to-cobertura-xml/git/blobs{/sha}",
    "branches_url": "https://api.github.com/repos/eriwen/lcov-to-cobertura-xml/branches{/branch}",
    "clone_url": "https://github.com/eriwen/lcov-to-cobertura-xml.git",
    "collaborators_url": "https://api.github.com/repos/eriwen/lcov-to-cobertura-xml/collaborators{/collaborator}",
    "comments_url": "https://api.github.com/repos/eriwen/lcov-to-cobertura-xml/comments{/number}",
    "commits_url": "https://api.github.com/repos/eriwen/lcov-to-cobertura-xml/commits{/sha}",
    "compare_url": "https://api.github.com/repos/eriwen/lcov-to-cobertura-xml/compare/{base}...{head}",
    "contents_url": "https://api.github.com/repos/eriwen/lcov-to-cobertura-xml/contents/{+path}",
    "contributors_url": "https://api.github.com/repos/eriwen/lcov-to-cobertura-xml/contributors",
    "created_at": "2011-11-12T19:02:23Z",
    "default_branch": "master",
    "description": "Converts lcov output to Cobertura-compatible XML for CI",
    "downloads_url": "https://api.github.com/repos/eriwen/lcov-to-cobertura-xml/downloads",
    "events_url": "https://api.github.com/repos/eriwen/lcov-to-cobertura-xml/events",
    "fork": false,
    "forks": 13,
    "forks_count": 13,
    "forks_url": "https://api.github.com/repos/eriwen/lcov-to-cobertura-xml/forks",
    "full_name": "eriwen/lcov-to-cobertura-xml",
    "git_commits_url": "https://api.github.com/repos/eriwen/lcov-to-cobertura-xml/git/commits{/sha}",
    "git_refs_url": "https://api.github.com/repos/eriwen/lcov-to-cobertura-xml/git/refs{/sha}",
    "git_tags_url": "https://api.github.com/repos/eriwen/lcov-to-cobertura-xml/git/tags{/sha}",
    "git_url": "git://github.com/eriwen/lcov-to-cobertura-xml.git",
    "has_downloads": true,
    "has_issues": true,
    "has_wiki": false,
    "homepage": "http://eriwen.github.com/lcov-to-cobertura-xml",
    "hooks_url": "https://api.github.com/repos/eriwen/lcov-to-cobertura-xml/hooks",
    "html_url": "https://github.com/eriwen/lcov-to-cobertura-xml",
    "id": 2763056,
    "issue_comment_url": "https://api.github.com/repos/eriwen/lcov-to-cobertura-xml/issues/comments/{number}",
    "issue_events_url": "https://api.github.com/repos/eriwen/lcov-to-cobertura-xml/issues/events{/number}",
    "issues_url": "https://api.github.com/repos/eriwen/lcov-to-cobertura-xml/issues{/number}",
    "keys_url": "https://api.github.com/repos/eriwen/lcov-to-cobertura-xml/keys{/key_id}",
    "labels_url": "https://api.github.com/repos/eriwen/lcov-to-cobertura-xml/labels{/name}",
    "language": "Python",
    "languages_url": "https://api.github.com/repos/eriwen/lcov-to-cobertura-xml/languages",
    "merges_url": "https://api.github.com/repos/eriwen/lcov-to-cobertura-xml/merges",
    "milestones_url": "https://api.github.com/repos/eriwen/lcov-to-cobertura-xml/milestones{/number}",
    "mirror_url": null,
    "name": "lcov-to-cobertura-xml",
    "notifications_url": "https://api.github.com/repos/eriwen/lcov-to-cobertura-xml/notifications{?since,all,participating}",
    "open_issues": 1,
    "open_issues_count": 1,
    "owner": {
        "avatar_url": "https://avatars.githubusercontent.com/u/51534?",
        "events_url": "https://api.github.com/users/eriwen/events{/privacy}",
        "followers_url": "https://api.github.com/users/eriwen/followers",
        "following_url": "https://api.github.com/users/eriwen/following{/other_user}",
        "gists_url": "https://api.github.com/users/eriwen/gists{/gist_id}",
        "gravatar_id": "bca89ff7612c074bbe1a77d2cf0a4fb0",
        "html_url": "https://github.com/eriwen",
        "id": 51534,
        "login": "eriwen",
        "organizations_url": "https://api.github.com/users/eriwen/orgs",
        "received_events_url": "https://api.github.com/users/eriwen/received_events",
        "repos_url": "https://api.github.com/users/eriwen/repos",
        "site_admin": false,
        "starred_url": "https://api.github.com/users/eriwen/starred{/owner}{/repo}",
        "subscriptions_url": "https://api.github.com/users/eriwen/subscriptions",
        "type": "User",
        "url": "https://api.github.com/users/eriwen"
    },
    "private": false,
    "pulls_url": "https://api.github.com/repos/eriwen/lcov-to-cobertura-xml/pulls{/number}",
    "pushed_at": "2013-11-24T23:01:22Z",
    "releases_url": "https://api.github.com/repos/eriwen/lcov-to-cobertura-xml/releases{/id}",
    "score": 1.0,
    "size": 265,
    "ssh_url": "git@github.com:eriwen/lcov-to-cobertura-xml.git",
    "stargazers_count": 44,
    "stargazers_url": "https://api.github.com/repos/eriwen/lcov-to-cobertura-xml/stargazers",
    "statuses_url": "https://api.github.com/repos/eriwen/lcov-to-cobertura-xml/statuses/{sha}",
    "subscribers_url": "https://api.github.com/repos/eriwen/lcov-to-cobertura-xml/subscribers",
    "subscription_url": "https://api.github.com/repos/eriwen/lcov-to-cobertura-xml/subscription",
    "svn_url": "https://github.com/eriwen/lcov-to-cobertura-xml",
    "tags_url": "https://api.github.com/repos/eriwen/lcov-to-cobertura-xml/tags",
    "teams_url": "https://api.github.com/repos/eriwen/lcov-to-cobertura-xml/teams",
    "trees_url": "https://api.github.com/repos/eriwen/lcov-to-cobertura-xml/git/trees{/sha}",
    "updated_at": "2014-01-16T11:31:08Z",
    "url": "https://api.github.com/repos/eriwen/lcov-to-cobertura-xml",
    "watchers": 44,
    "watchers_count": 44
}