{
    "archive_url": "https://api.github.com/repos/myano/jenni/{archive_format}{/ref}",
    "assignees_url": "https://api.github.com/repos/myano/jenni/assignees{/user}",
    "blobs_url": "https://api.github.com/repos/myano/jenni/git/blobs{/sha}",
    "branches_url": "https://api.github.com/repos/myano/jenni/branches{/branch}",
    "clone_url": "https://github.com/myano/jenni.git",
    "collaborators_url": "https://api.github.com/repos/myano/jenni/collaborators{/collaborator}",
    "comments_url": "https://api.github.com/repos/myano/jenni/comments{/number}",
    "commits_url": "https://api.github.com/repos/myano/jenni/commits{/sha}",
    "compare_url": "https://api.github.com/repos/myano/jenni/compare/{base}...{head}",
    "contents_url": "https://api.github.com/repos/myano/jenni/contents/{+path}",
    "contributors_url": "https://api.github.com/repos/myano/jenni/contributors",
    "created_at": "2009-12-12T01:00:31Z",
    "default_branch": "master",
    "description": "jenni is a python IRC bot maintained and developed by Michael Yanovich. This project was created by Sean B. Palmer.",
    "downloads_url": "https://api.github.com/repos/myano/jenni/downloads",
    "events_url": "https://api.github.com/repos/myano/jenni/events",
    "fork": false,
    "forks": 171,
    "forks_count": 171,
    "forks_url": "https://api.github.com/repos/myano/jenni/forks",
    "full_name": "myano/jenni",
    "git_commits_url": "https://api.github.com/repos/myano/jenni/git/commits{/sha}",
    "git_refs_url": "https://api.github.com/repos/myano/jenni/git/refs{/sha}",
    "git_tags_url": "https://api.github.com/repos/myano/jenni/git/tags{/sha}",
    "git_url": "git://github.com/myano/jenni.git",
    "has_downloads": true,
    "has_issues": true,
    "has_wiki": true,
    "homepage": "",
    "hooks_url": "https://api.github.com/repos/myano/jenni/hooks",
    "html_url": "https://github.com/myano/jenni",
    "id": 422097,
    "issue_comment_url": "https://api.github.com/repos/myano/jenni/issues/comments/{number}",
    "issue_events_url": "https://api.github.com/repos/myano/jenni/issues/events{/number}",
    "issues_url": "https://api.github.com/repos/myano/jenni/issues{/number}",
    "keys_url": "https://api.github.com/repos/myano/jenni/keys{/key_id}",
    "labels_url": "https://api.github.com/repos/myano/jenni/labels{/name}",
    "language": "Python",
    "languages_url": "https://api.github.com/repos/myano/jenni/languages",
    "merges_url": "https://api.github.com/repos/myano/jenni/merges",
    "milestones_url": "https://api.github.com/repos/myano/jenni/milestones{/number}",
    "mirror_url": null,
    "name": "jenni",
    "notifications_url": "https://api.github.com/repos/myano/jenni/notifications{?since,all,participating}",
    "open_issues": 35,
    "open_issues_count": 35,
    "owner": {
        "avatar_url": "https://avatars.githubusercontent.com/u/166297?",
        "events_url": "https://api.github.com/users/myano/events{/privacy}",
        "followers_url": "https://api.github.com/users/myano/followers",
        "following_url": "https://api.github.com/users/myano/following{/other_user}",
        "gists_url": "https://api.github.com/users/myano/gists{/gist_id}",
        "gravatar_id": "0adb84ab46ad8dc15c9ce0c51dacc650",
        "html_url": "https://github.com/myano",
        "id": 166297,
        "login": "myano",
        "organizations_url": "https://api.github.com/users/myano/orgs",
        "received_events_url": "https://api.github.com/users/myano/received_events",
        "repos_url": "https://api.github.com/users/myano/repos",
        "site_admin": false,
        "starred_url": "https://api.github.com/users/myano/starred{/owner}{/repo}",
        "subscriptions_url": "https://api.github.com/users/myano/subscriptions",
        "type": "User",
        "url": "https://api.github.com/users/myano"
    },
    "private": false,
    "pulls_url": "https://api.github.com/repos/myano/jenni/pulls{/number}",
    "pushed_at": "2014-03-19T01:55:26Z",
    "releases_url": "https://api.github.com/repos/myano/jenni/releases{/id}",
    "score": 1.0,
    "size": 6952,
    "ssh_url": "git@github.com:myano/jenni.git",
    "stargazers_count": 132,
    "stargazers_url": "https://api.github.com/repos/myano/jenni/stargazers",
    "statuses_url": "https://api.github.com/repos/myano/jenni/statuses/{sha}",
    "subscribers_url": "https://api.github.com/repos/myano/jenni/subscribers",
    "subscription_url": "https://api.github.com/repos/myano/jenni/subscription",
    "svn_url": "https://github.com/myano/jenni",
    "tags_url": "https://api.github.com/repos/myano/jenni/tags",
    "teams_url": "https://api.github.com/repos/myano/jenni/teams",
    "trees_url": "https://api.github.com/repos/myano/jenni/git/trees{/sha}",
    "updated_at": "2014-03-19T01:55:25Z",
    "url": "https://api.github.com/repos/myano/jenni",
    "watchers": 132,
    "watchers_count": 132
}