{
    "archive_url": "https://api.github.com/repos/sricola/socode/{archive_format}{/ref}",
    "assignees_url": "https://api.github.com/repos/sricola/socode/assignees{/user}",
    "blobs_url": "https://api.github.com/repos/sricola/socode/git/blobs{/sha}",
    "branches_url": "https://api.github.com/repos/sricola/socode/branches{/branch}",
    "clone_url": "https://github.com/sricola/socode.git",
    "collaborators_url": "https://api.github.com/repos/sricola/socode/collaborators{/collaborator}",
    "comments_url": "https://api.github.com/repos/sricola/socode/comments{/number}",
    "commits_url": "https://api.github.com/repos/sricola/socode/commits{/sha}",
    "compare_url": "https://api.github.com/repos/sricola/socode/compare/{base}...{head}",
    "contents_url": "https://api.github.com/repos/sricola/socode/contents/{+path}",
    "contributors_url": "https://api.github.com/repos/sricola/socode/contributors",
    "created_at": "2012-10-14T22:48:39Z",
    "default_branch": "master",
    "description": "A Coding Social Experiment",
    "downloads_url": "https://api.github.com/repos/sricola/socode/downloads",
    "events_url": "https://api.github.com/repos/sricola/socode/events",
    "fork": false,
    "forks": 266,
    "forks_count": 266,
    "forks_url": "https://api.github.com/repos/sricola/socode/forks",
    "full_name": "sricola/socode",
    "git_commits_url": "https://api.github.com/repos/sricola/socode/git/commits{/sha}",
    "git_refs_url": "https://api.github.com/repos/sricola/socode/git/refs{/sha}",
    "git_tags_url": "https://api.github.com/repos/sricola/socode/git/tags{/sha}",
    "git_url": "git://github.com/sricola/socode.git",
    "has_downloads": true,
    "has_issues": true,
    "has_wiki": true,
    "homepage": null,
    "hooks_url": "https://api.github.com/repos/sricola/socode/hooks",
    "html_url": "https://github.com/sricola/socode",
    "id": 6219026,
    "issue_comment_url": "https://api.github.com/repos/sricola/socode/issues/comments/{number}",
    "issue_events_url": "https://api.github.com/repos/sricola/socode/issues/events{/number}",
    "issues_url": "https://api.github.com/repos/sricola/socode/issues{/number}",
    "keys_url": "https://api.github.com/repos/sricola/socode/keys{/key_id}",
    "labels_url": "https://api.github.com/repos/sricola/socode/labels{/name}",
    "language": "Python",
    "languages_url": "https://api.github.com/repos/sricola/socode/languages",
    "merges_url": "https://api.github.com/repos/sricola/socode/merges",
    "milestones_url": "https://api.github.com/repos/sricola/socode/milestones{/number}",
    "mirror_url": null,
    "name": "socode",
    "notifications_url": "https://api.github.com/repos/sricola/socode/notifications{?since,all,participating}",
    "open_issues": 62,
    "open_issues_count": 62,
    "owner": {
        "avatar_url": "https://avatars.githubusercontent.com/u/1133290?",
        "events_url": "https://api.github.com/users/sricola/events{/privacy}",
        "followers_url": "https://api.github.com/users/sricola/followers",
        "following_url": "https://api.github.com/users/sricola/following{/other_user}",
        "gists_url": "https://api.github.com/users/sricola/gists{/gist_id}",
        "gravatar_id": "618ce196c88beefeb15b99420da6a8c6",
        "html_url": "https://github.com/sricola",
        "id": 1133290,
        "login": "sricola",
        "organizations_url": "https://api.github.com/users/sricola/orgs",
        "received_events_url": "https://api.github.com/users/sricola/received_events",
        "repos_url": "https://api.github.com/users/sricola/repos",
        "site_admin": false,
        "starred_url": "https://api.github.com/users/sricola/starred{/owner}{/repo}",
        "subscriptions_url": "https://api.github.com/users/sricola/subscriptions",
        "type": "User",
        "url": "https://api.github.com/users/sricola"
    },
    "private": false,
    "pulls_url": "https://api.github.com/repos/sricola/socode/pulls{/number}",
    "pushed_at": "2014-04-22T02:08:22Z",
    "releases_url": "https://api.github.com/repos/sricola/socode/releases{/id}",
    "score": 1.0,
    "size": 2762,
    "ssh_url": "git@github.com:sricola/socode.git",
    "stargazers_count": 250,
    "stargazers_url": "https://api.github.com/repos/sricola/socode/stargazers",
    "statuses_url": "https://api.github.com/repos/sricola/socode/statuses/{sha}",
    "subscribers_url": "https://api.github.com/repos/sricola/socode/subscribers",
    "subscription_url": "https://api.github.com/repos/sricola/socode/subscription",
    "svn_url": "https://github.com/sricola/socode",
    "tags_url": "https://api.github.com/repos/sricola/socode/tags",
    "teams_url": "https://api.github.com/repos/sricola/socode/teams",
    "trees_url": "https://api.github.com/repos/sricola/socode/git/trees{/sha}",
    "updated_at": "2014-05-06T23:13:35Z",
    "url": "https://api.github.com/repos/sricola/socode",
    "watchers": 250,
    "watchers_count": 250
}