{
    "archive_url": "https://api.github.com/repos/schmir/pypiserver/{archive_format}{/ref}",
    "assignees_url": "https://api.github.com/repos/schmir/pypiserver/assignees{/user}",
    "blobs_url": "https://api.github.com/repos/schmir/pypiserver/git/blobs{/sha}",
    "branches_url": "https://api.github.com/repos/schmir/pypiserver/branches{/branch}",
    "clone_url": "https://github.com/schmir/pypiserver.git",
    "collaborators_url": "https://api.github.com/repos/schmir/pypiserver/collaborators{/collaborator}",
    "comments_url": "https://api.github.com/repos/schmir/pypiserver/comments{/number}",
    "commits_url": "https://api.github.com/repos/schmir/pypiserver/commits{/sha}",
    "compare_url": "https://api.github.com/repos/schmir/pypiserver/compare/{base}...{head}",
    "contents_url": "https://api.github.com/repos/schmir/pypiserver/contents/{+path}",
    "contributors_url": "https://api.github.com/repos/schmir/pypiserver/contributors",
    "created_at": "2011-07-29T00:02:35Z",
    "default_branch": "master",
    "description": "minimal pypi server",
    "downloads_url": "https://api.github.com/repos/schmir/pypiserver/downloads",
    "events_url": "https://api.github.com/repos/schmir/pypiserver/events",
    "fork": false,
    "forks": 32,
    "forks_count": 32,
    "forks_url": "https://api.github.com/repos/schmir/pypiserver/forks",
    "full_name": "schmir/pypiserver",
    "git_commits_url": "https://api.github.com/repos/schmir/pypiserver/git/commits{/sha}",
    "git_refs_url": "https://api.github.com/repos/schmir/pypiserver/git/refs{/sha}",
    "git_tags_url": "https://api.github.com/repos/schmir/pypiserver/git/tags{/sha}",
    "git_url": "git://github.com/schmir/pypiserver.git",
    "has_downloads": true,
    "has_issues": true,
    "has_wiki": true,
    "homepage": "",
    "hooks_url": "https://api.github.com/repos/schmir/pypiserver/hooks",
    "html_url": "https://github.com/schmir/pypiserver",
    "id": 2121420,
    "issue_comment_url": "https://api.github.com/repos/schmir/pypiserver/issues/comments/{number}",
    "issue_events_url": "https://api.github.com/repos/schmir/pypiserver/issues/events{/number}",
    "issues_url": "https://api.github.com/repos/schmir/pypiserver/issues{/number}",
    "keys_url": "https://api.github.com/repos/schmir/pypiserver/keys{/key_id}",
    "labels_url": "https://api.github.com/repos/schmir/pypiserver/labels{/name}",
    "language": "Python",
    "languages_url": "https://api.github.com/repos/schmir/pypiserver/languages",
    "merges_url": "https://api.github.com/repos/schmir/pypiserver/merges",
    "milestones_url": "https://api.github.com/repos/schmir/pypiserver/milestones{/number}",
    "mirror_url": null,
    "name": "pypiserver",
    "notifications_url": "https://api.github.com/repos/schmir/pypiserver/notifications{?since,all,participating}",
    "open_issues": 4,
    "open_issues_count": 4,
    "owner": {
        "avatar_url": "https://avatars.githubusercontent.com/u/40620?",
        "events_url": "https://api.github.com/users/schmir/events{/privacy}",
        "followers_url": "https://api.github.com/users/schmir/followers",
        "following_url": "https://api.github.com/users/schmir/following{/other_user}",
        "gists_url": "https://api.github.com/users/schmir/gists{/gist_id}",
        "gravatar_id": "1548e13088e0f8e55c25f4c543ad9140",
        "html_url": "https://github.com/schmir",
        "id": 40620,
        "login": "schmir",
        "organizations_url": "https://api.github.com/users/schmir/orgs",
        "received_events_url": "https://api.github.com/users/schmir/received_events",
        "repos_url": "https://api.github.com/users/schmir/repos",
        "site_admin": false,
        "starred_url": "https://api.github.com/users/schmir/starred{/owner}{/repo}",
        "subscriptions_url": "https://api.github.com/users/schmir/subscriptions",
        "type": "User",
        "url": "https://api.github.com/users/schmir"
    },
    "private": false,
    "pulls_url": "https://api.github.com/repos/schmir/pypiserver/pulls{/number}",
    "pushed_at": "2014-04-20T19:35:09Z",
    "releases_url": "https://api.github.com/repos/schmir/pypiserver/releases{/id}",
    "score": 1.0,
    "size": 3185,
    "ssh_url": "git@github.com:schmir/pypiserver.git",
    "stargazers_count": 121,
    "stargazers_url": "https://api.github.com/repos/schmir/pypiserver/stargazers",
    "statuses_url": "https://api.github.com/repos/schmir/pypiserver/statuses/{sha}",
    "subscribers_url": "https://api.github.com/repos/schmir/pypiserver/subscribers",
    "subscription_url": "https://api.github.com/repos/schmir/pypiserver/subscription",
    "svn_url": "https://github.com/schmir/pypiserver",
    "tags_url": "https://api.github.com/repos/schmir/pypiserver/tags",
    "teams_url": "https://api.github.com/repos/schmir/pypiserver/teams",
    "trees_url": "https://api.github.com/repos/schmir/pypiserver/git/trees{/sha}",
    "updated_at": "2014-05-06T18:19:08Z",
    "url": "https://api.github.com/repos/schmir/pypiserver",
    "watchers": 121,
    "watchers_count": 121
}