[
    "betterhandler",
    "scanner",
    "parser",
    "yaml.cyaml",
    "composer",
    "Simplenote",
    "yaml.representer",
    "dumper",
    "yaml.composer",
    "error",
    "yaml.events",
    "yaml.emitter",
    "yaml.scanner",
    "yaml",
    "reader",
    "nodes",
    "main",
    "events",
    "yaml.parser",
    "yaml.error",
    "yaml.dumper",
    "yaml.constructor",
    "representer",
    "tokens",
    "yaml.serializer",
    "resolver",
    "yaml.nodes",
    "loader",
    "emitter",
    "yaml.reader",
    "yaml.loader",
    "yaml.tokens",
    "yaml.resolver",
    "cyaml",
    "constructor",
    "serializer"
]