{
    "archive_url": "https://api.github.com/repos/fedora-infra/fedmsg/{archive_format}{/ref}",
    "assignees_url": "https://api.github.com/repos/fedora-infra/fedmsg/assignees{/user}",
    "blobs_url": "https://api.github.com/repos/fedora-infra/fedmsg/git/blobs{/sha}",
    "branches_url": "https://api.github.com/repos/fedora-infra/fedmsg/branches{/branch}",
    "clone_url": "https://github.com/fedora-infra/fedmsg.git",
    "collaborators_url": "https://api.github.com/repos/fedora-infra/fedmsg/collaborators{/collaborator}",
    "comments_url": "https://api.github.com/repos/fedora-infra/fedmsg/comments{/number}",
    "commits_url": "https://api.github.com/repos/fedora-infra/fedmsg/commits{/sha}",
    "compare_url": "https://api.github.com/repos/fedora-infra/fedmsg/compare/{base}...{head}",
    "contents_url": "https://api.github.com/repos/fedora-infra/fedmsg/contents/{+path}",
    "contributors_url": "https://api.github.com/repos/fedora-infra/fedmsg/contributors",
    "created_at": "2012-02-01T21:50:18Z",
    "default_branch": "develop",
    "description": "Fedora Messaging",
    "downloads_url": "https://api.github.com/repos/fedora-infra/fedmsg/downloads",
    "events_url": "https://api.github.com/repos/fedora-infra/fedmsg/events",
    "fork": false,
    "forks": 33,
    "forks_count": 33,
    "forks_url": "https://api.github.com/repos/fedora-infra/fedmsg/forks",
    "full_name": "fedora-infra/fedmsg",
    "git_commits_url": "https://api.github.com/repos/fedora-infra/fedmsg/git/commits{/sha}",
    "git_refs_url": "https://api.github.com/repos/fedora-infra/fedmsg/git/refs{/sha}",
    "git_tags_url": "https://api.github.com/repos/fedora-infra/fedmsg/git/tags{/sha}",
    "git_url": "git://github.com/fedora-infra/fedmsg.git",
    "has_downloads": true,
    "has_issues": true,
    "has_wiki": false,
    "homepage": "http://fedmsg.com",
    "hooks_url": "https://api.github.com/repos/fedora-infra/fedmsg/hooks",
    "html_url": "https://github.com/fedora-infra/fedmsg",
    "id": 3329386,
    "issue_comment_url": "https://api.github.com/repos/fedora-infra/fedmsg/issues/comments/{number}",
    "issue_events_url": "https://api.github.com/repos/fedora-infra/fedmsg/issues/events{/number}",
    "issues_url": "https://api.github.com/repos/fedora-infra/fedmsg/issues{/number}",
    "keys_url": "https://api.github.com/repos/fedora-infra/fedmsg/keys{/key_id}",
    "labels_url": "https://api.github.com/repos/fedora-infra/fedmsg/labels{/name}",
    "language": "Python",
    "languages_url": "https://api.github.com/repos/fedora-infra/fedmsg/languages",
    "merges_url": "https://api.github.com/repos/fedora-infra/fedmsg/merges",
    "milestones_url": "https://api.github.com/repos/fedora-infra/fedmsg/milestones{/number}",
    "mirror_url": null,
    "name": "fedmsg",
    "notifications_url": "https://api.github.com/repos/fedora-infra/fedmsg/notifications{?since,all,participating}",
    "open_issues": 16,
    "open_issues_count": 16,
    "owner": {
        "avatar_url": "https://avatars.githubusercontent.com/u/3316637?",
        "events_url": "https://api.github.com/users/fedora-infra/events{/privacy}",
        "followers_url": "https://api.github.com/users/fedora-infra/followers",
        "following_url": "https://api.github.com/users/fedora-infra/following{/other_user}",
        "gists_url": "https://api.github.com/users/fedora-infra/gists{/gist_id}",
        "gravatar_id": "ebdef1eaaa4b1c1cb01f5570efbb3cc4",
        "html_url": "https://github.com/fedora-infra",
        "id": 3316637,
        "login": "fedora-infra",
        "organizations_url": "https://api.github.com/users/fedora-infra/orgs",
        "received_events_url": "https://api.github.com/users/fedora-infra/received_events",
        "repos_url": "https://api.github.com/users/fedora-infra/repos",
        "site_admin": false,
        "starred_url": "https://api.github.com/users/fedora-infra/starred{/owner}{/repo}",
        "subscriptions_url": "https://api.github.com/users/fedora-infra/subscriptions",
        "type": "Organization",
        "url": "https://api.github.com/users/fedora-infra"
    },
    "private": false,
    "pulls_url": "https://api.github.com/repos/fedora-infra/fedmsg/pulls{/number}",
    "pushed_at": "2014-05-02T14:28:28Z",
    "releases_url": "https://api.github.com/repos/fedora-infra/fedmsg/releases{/id}",
    "score": 1.0,
    "size": 4410,
    "ssh_url": "git@github.com:fedora-infra/fedmsg.git",
    "stargazers_count": 47,
    "stargazers_url": "https://api.github.com/repos/fedora-infra/fedmsg/stargazers",
    "statuses_url": "https://api.github.com/repos/fedora-infra/fedmsg/statuses/{sha}",
    "subscribers_url": "https://api.github.com/repos/fedora-infra/fedmsg/subscribers",
    "subscription_url": "https://api.github.com/repos/fedora-infra/fedmsg/subscription",
    "svn_url": "https://github.com/fedora-infra/fedmsg",
    "tags_url": "https://api.github.com/repos/fedora-infra/fedmsg/tags",
    "teams_url": "https://api.github.com/repos/fedora-infra/fedmsg/teams",
    "trees_url": "https://api.github.com/repos/fedora-infra/fedmsg/git/trees{/sha}",
    "updated_at": "2014-05-02T14:28:29Z",
    "url": "https://api.github.com/repos/fedora-infra/fedmsg",
    "watchers": 47,
    "watchers_count": 47
}