[
    "reporter.logger",
    "test_graphite",
    "periodic",
    "instruments",
    "stats.sample",
    "metrology.reporter.librato",
    "metrology.instruments.healthcheck",
    "meter",
    "reporter.base",
    "test_sample",
    "gauge",
    "utils.periodic",
    "metrology.instruments.counter",
    "test_meter",
    "metrology.instruments.derive",
    "tests.instruments.test_histogram",
    "metrology.reporter.base",
    "tests.instruments.test_healthcheck",
    "derive",
    "reporter.test_graphite",
    "reporter.test_librato",
    "test_gauge",
    "test_histogram",
    "instruments.histogram",
    "ganglia",
    "metrology.registry",
    "tests.instruments.test_derive",
    "metrology.stats.sample",
    "metrology.exceptions",
    "tests.reporter.test_librato",
    "tests",
    "metrology.stats.snapshot",
    "metrology.reporter.graphite",
    "tests.instruments.test_gauge",
    "docs",
    "ewma",
    "histogram",
    "tests.reporter",
    "metrology.instruments.timer",
    "metrology.instruments.meter",
    "instruments.counter",
    "tests.test_metrology",
    "metrology.reporter",
    "test_ewma",
    "logger",
    "docs.conf",
    "tests.reporter.test_ganglia",
    "test_graphite_pickle",
    "reporter.test_logger",
    "metrology.stats.ewma",
    "tests.stats.test_sample",
    "reporter.ganglia",
    "stats.test_ewma",
    "tests.instruments.test_timer",
    "test_counter",
    "graphite",
    "exceptions",
    "stats.snapshot",
    "metrology.instruments.gauge",
    "instruments.healthcheck",
    "instruments.test_gauge",
    "instruments.test_healthcheck",
    "tests.stats.test_snapshot",
    "instruments.test_histogram",
    "test_healthcheck",
    "utils",
    "tests.stats",
    "instruments.derive",
    "sample",
    "stats.ewma",
    "instruments.timer",
    "metrology.reporter.ganglia",
    "instruments.test_counter",
    "conf",
    "instruments.gauge",
    "tests.reporter.test_logger",
    "reporter.librato",
    "stats.test_sample",
    "stats",
    "metrology",
    "reporter.test_graphite_pickle",
    "metrology.instruments",
    "tests.reporter.test_graphite_pickle",
    "metrology.stats",
    "stats.test_snapshot",
    "tests.stats.test_ewma",
    "tests.instruments.test_counter",
    "instruments.test_derive",
    "metrology.reporter.logger",
    "test_derive",
    "tests.test_registry",
    "instruments.meter",
    "test_snapshot",
    "reporter",
    "test_ganglia",
    "healthcheck",
    "instruments.test_meter",
    "test_metrology",
    "instruments.test_timer",
    "registry",
    "reporter.test_ganglia",
    "test_logger",
    "metrology.utils.periodic",
    "tests.reporter.test_graphite",
    "test_timer",
    "tests.instruments",
    "test_registry",
    "librato",
    "counter",
    "timer",
    "reporter.graphite",
    "base",
    "snapshot",
    "metrology.utils",
    "test_librato",
    "metrology.instruments.histogram",
    "tests.instruments.test_meter"
]