[
    "tests.filter_test",
    "tests",
    "conf",
    "tests.lendingclub_test",
    "docs",
    "lendingclub.tests.filter_test",
    "lendingclub.tests",
    "tests.server",
    "tests.logger",
    "tests.session_test",
    "session",
    "lendingclub_test",
    "filters",
    "session_test",
    "tests.live_session_test",
    "filter_test",
    "lendingclub.tests.live_session_test",
    "docs.conf",
    "lendingclub.filters",
    "tests.live_tests",
    "lendingclub.tests.lendingclub_test",
    "lendingclub.tests.server",
    "order_test",
    "server",
    "tests.order_test",
    "lendingclub.session",
    "lendingclub.tests.logger",
    "lendingclub.tests.order_test",
    "logger",
    "live_session_test",
    "lendingclub",
    "live_tests",
    "lendingclub.tests.live_tests",
    "lendingclub.tests.session_test"
]