[
    "vobject.hcalendar",
    "series.templatetags",
    "tzwin",
    "seriesly.series.urls",
    "series.models",
    "pytz.reference",
    "seriesly.pytz.tests.test_docs",
    "tests.test_tzinfo",
    "pytz.tests.test_docs",
    "series.tvrage_quick",
    "forms",
    "vobject.base",
    "vobject.win32tz",
    "tzinfo",
    "main",
    "easter",
    "seriesly.pytz.reference",
    "serieslytags",
    "tests",
    "views",
    "seriesly.pytz.tzinfo",
    "seriesly.vobject.hcalendar",
    "pytz.tzinfo",
    "tvrage_quick",
    "seriesly.dateutil.easter",
    "seriesly.series.models",
    "seriesly.pytz.tests.test_tzinfo",
    "relativedelta",
    "seriesly.helper.html",
    "settings",
    "pytz.tests.test_tzinfo",
    "helper.html",
    "dateutil.easter",
    "helper.string_utils",
    "test_docs",
    "seriesly.urls",
    "pytz.tzfile",
    "series.templatetags.serieslytags",
    "series.urls",
    "vobject",
    "reference",
    "helper.context_processors",
    "series",
    "series.views",
    "seriesly.statistics.urls",
    "rrule",
    "icalendar",
    "vobject.behavior",
    "seriesly.pytz.tzfile",
    "dateutil",
    "context_processors",
    "seriesly.helper.context_processors",
    "seriesly.dateutil",
    "series.series_list",
    "ics_diff",
    "seriesly.vobject.change_tz",
    "subscription.forms",
    "seriesly.helper.string_utils",
    "seriesly.pytz",
    "test_tzinfo",
    "base",
    "tz",
    "seriesly.vobject.ics_diff",
    "admin",
    "seriesly.series.tvrage_quick",
    "urls",
    "seriesly.settings",
    "vobject.icalendar",
    "seriesly.series",
    "statistics.urls",
    "seriesly.series.templatetags.serieslytags",
    "seriesly.dateutil.rrule",
    "tests.test_docs",
    "seriesly.series.views",
    "dateutil.rrule",
    "subscription.views",
    "seriesly.series.tvrage",
    "seriesly.vobject.win32tz",
    "statistics",
    "series.admin",
    "statistics.views",
    "seriesly.vobject.base",
    "seriesly",
    "seriesly.series.series_list",
    "seriesly.subscription.forms",
    "pytz",
    "seriesly.subscription.models",
    "string_utils",
    "tzfile",
    "vcard",
    "subscription",
    "pytz.tests",
    "dateutil.tz",
    "hcalendar",
    "behavior",
    "seriesly.subscription.urls",
    "vobject.change_tz",
    "dateutils",
    "helper",
    "seriesly.pytz.tests",
    "parser",
    "seriesly.dateutil.tz",
    "series_list",
    "seriesly.helper",
    "seriesly.subscription.views",
    "templatetags.serieslytags",
    "seriesly.vobject",
    "seriesly.vobject.behavior",
    "seriesly.series.templatetags",
    "seriesly.statistics.views",
    "dateutil.parser",
    "seriesly.main",
    "html",
    "seriesly.statistics",
    "series.tvrage",
    "seriesly.series.admin",
    "seriesly.dateutil.parser",
    "change_tz",
    "seriesly.dateutil.relativedelta",
    "http",
    "seriesly.dateutil.tzwin",
    "seriesly.subscription",
    "models",
    "dateutil.relativedelta",
    "seriesly.helper.dateutils",
    "vobject.ics_diff",
    "helper.dateutils",
    "subscription.models",
    "tvrage",
    "dateutil.tzwin",
    "seriesly.helper.http",
    "vobject.vcard",
    "win32tz",
    "templatetags",
    "seriesly.vobject.icalendar",
    "seriesly.vobject.vcard",
    "subscription.urls",
    "helper.http"
]