{
    "libs": [
        "verlib",
        "functools",
        "wsgi",
        "datetime",
        "contextlib",
        "operator",
        "monkey",
        "errno",
        "json",
        "config",
        "unittest",
        "mock",
        "sqlalchemy",
        "pystmark",
        "fl",
        "types",
        "b",
        "logging",
        "traceback",
        "xmlrpclib",
        "pkg_resources",
        "os"
    ]
}