{
    "libs": [
        "simple_httpclient",
        "host_pool",
        "functools",
        "random",
        "with_statement",
        "subprocess",
        "snappy",
        "ioloop",
        "struct",
        "errno",
        "urllib",
        "re",
        "pytest",
        "collections",
        "mock",
        "httpclient",
        "testing",
        "iostream",
        "simplejson",
        "warnings",
        "sys",
        "ssl",
        "logging",
        "socket",
        "signal",
        "decimal",
        "ignore",
        "time",
        "os",
        "options"
    ]
}