{
    "archive_url": "https://api.github.com/repos/clalancette/oz/{archive_format}{/ref}",
    "assignees_url": "https://api.github.com/repos/clalancette/oz/assignees{/user}",
    "blobs_url": "https://api.github.com/repos/clalancette/oz/git/blobs{/sha}",
    "branches_url": "https://api.github.com/repos/clalancette/oz/branches{/branch}",
    "clone_url": "https://github.com/clalancette/oz.git",
    "collaborators_url": "https://api.github.com/repos/clalancette/oz/collaborators{/collaborator}",
    "comments_url": "https://api.github.com/repos/clalancette/oz/comments{/number}",
    "commits_url": "https://api.github.com/repos/clalancette/oz/commits{/sha}",
    "compare_url": "https://api.github.com/repos/clalancette/oz/compare/{base}...{head}",
    "contents_url": "https://api.github.com/repos/clalancette/oz/contents/{+path}",
    "contributors_url": "https://api.github.com/repos/clalancette/oz/contributors",
    "created_at": "2010-11-03T19:13:32Z",
    "default_branch": "master",
    "description": "Automated installation for guest images",
    "downloads_url": "https://api.github.com/repos/clalancette/oz/downloads",
    "events_url": "https://api.github.com/repos/clalancette/oz/events",
    "fork": false,
    "forks": 57,
    "forks_count": 57,
    "forks_url": "https://api.github.com/repos/clalancette/oz/forks",
    "full_name": "clalancette/oz",
    "git_commits_url": "https://api.github.com/repos/clalancette/oz/git/commits{/sha}",
    "git_refs_url": "https://api.github.com/repos/clalancette/oz/git/refs{/sha}",
    "git_tags_url": "https://api.github.com/repos/clalancette/oz/git/tags{/sha}",
    "git_url": "git://github.com/clalancette/oz.git",
    "has_downloads": true,
    "has_issues": true,
    "has_wiki": true,
    "homepage": "",
    "hooks_url": "https://api.github.com/repos/clalancette/oz/hooks",
    "html_url": "https://github.com/clalancette/oz",
    "id": 1048872,
    "issue_comment_url": "https://api.github.com/repos/clalancette/oz/issues/comments/{number}",
    "issue_events_url": "https://api.github.com/repos/clalancette/oz/issues/events{/number}",
    "issues_url": "https://api.github.com/repos/clalancette/oz/issues{/number}",
    "keys_url": "https://api.github.com/repos/clalancette/oz/keys{/key_id}",
    "labels_url": "https://api.github.com/repos/clalancette/oz/labels{/name}",
    "language": "Python",
    "languages_url": "https://api.github.com/repos/clalancette/oz/languages",
    "merges_url": "https://api.github.com/repos/clalancette/oz/merges",
    "milestones_url": "https://api.github.com/repos/clalancette/oz/milestones{/number}",
    "mirror_url": null,
    "name": "oz",
    "notifications_url": "https://api.github.com/repos/clalancette/oz/notifications{?since,all,participating}",
    "open_issues": 28,
    "open_issues_count": 28,
    "owner": {
        "avatar_url": "https://avatars.githubusercontent.com/u/163000?",
        "events_url": "https://api.github.com/users/clalancette/events{/privacy}",
        "followers_url": "https://api.github.com/users/clalancette/followers",
        "following_url": "https://api.github.com/users/clalancette/following{/other_user}",
        "gists_url": "https://api.github.com/users/clalancette/gists{/gist_id}",
        "gravatar_id": "831e767ce70a01cfaac8b4acf1dde27f",
        "html_url": "https://github.com/clalancette",
        "id": 163000,
        "login": "clalancette",
        "organizations_url": "https://api.github.com/users/clalancette/orgs",
        "received_events_url": "https://api.github.com/users/clalancette/received_events",
        "repos_url": "https://api.github.com/users/clalancette/repos",
        "site_admin": false,
        "starred_url": "https://api.github.com/users/clalancette/starred{/owner}{/repo}",
        "subscriptions_url": "https://api.github.com/users/clalancette/subscriptions",
        "type": "User",
        "url": "https://api.github.com/users/clalancette"
    },
    "private": false,
    "pulls_url": "https://api.github.com/repos/clalancette/oz/pulls{/number}",
    "pushed_at": "2014-05-01T00:03:33Z",
    "releases_url": "https://api.github.com/repos/clalancette/oz/releases{/id}",
    "score": 1.0,
    "size": 6666,
    "ssh_url": "git@github.com:clalancette/oz.git",
    "stargazers_count": 150,
    "stargazers_url": "https://api.github.com/repos/clalancette/oz/stargazers",
    "statuses_url": "https://api.github.com/repos/clalancette/oz/statuses/{sha}",
    "subscribers_url": "https://api.github.com/repos/clalancette/oz/subscribers",
    "subscription_url": "https://api.github.com/repos/clalancette/oz/subscription",
    "svn_url": "https://github.com/clalancette/oz",
    "tags_url": "https://api.github.com/repos/clalancette/oz/tags",
    "teams_url": "https://api.github.com/repos/clalancette/oz/teams",
    "trees_url": "https://api.github.com/repos/clalancette/oz/git/trees{/sha}",
    "updated_at": "2014-05-01T00:03:33Z",
    "url": "https://api.github.com/repos/clalancette/oz",
    "watchers": 150,
    "watchers_count": 150
}