{
    "archive_url": "https://api.github.com/repos/jeffkit/apnsagent/{archive_format}{/ref}",
    "assignees_url": "https://api.github.com/repos/jeffkit/apnsagent/assignees{/user}",
    "blobs_url": "https://api.github.com/repos/jeffkit/apnsagent/git/blobs{/sha}",
    "branches_url": "https://api.github.com/repos/jeffkit/apnsagent/branches{/branch}",
    "clone_url": "https://github.com/jeffkit/apnsagent.git",
    "collaborators_url": "https://api.github.com/repos/jeffkit/apnsagent/collaborators{/collaborator}",
    "comments_url": "https://api.github.com/repos/jeffkit/apnsagent/comments{/number}",
    "commits_url": "https://api.github.com/repos/jeffkit/apnsagent/commits{/sha}",
    "compare_url": "https://api.github.com/repos/jeffkit/apnsagent/compare/{base}...{head}",
    "contents_url": "https://api.github.com/repos/jeffkit/apnsagent/contents/{+path}",
    "contributors_url": "https://api.github.com/repos/jeffkit/apnsagent/contributors",
    "created_at": "2011-11-01T14:59:08Z",
    "default_branch": "develop",
    "description": "A simple apns agent server and client lib in python",
    "downloads_url": "https://api.github.com/repos/jeffkit/apnsagent/downloads",
    "events_url": "https://api.github.com/repos/jeffkit/apnsagent/events",
    "fork": false,
    "forks": 6,
    "forks_count": 6,
    "forks_url": "https://api.github.com/repos/jeffkit/apnsagent/forks",
    "full_name": "jeffkit/apnsagent",
    "git_commits_url": "https://api.github.com/repos/jeffkit/apnsagent/git/commits{/sha}",
    "git_refs_url": "https://api.github.com/repos/jeffkit/apnsagent/git/refs{/sha}",
    "git_tags_url": "https://api.github.com/repos/jeffkit/apnsagent/git/tags{/sha}",
    "git_url": "git://github.com/jeffkit/apnsagent.git",
    "has_downloads": true,
    "has_issues": true,
    "has_wiki": true,
    "homepage": "",
    "hooks_url": "https://api.github.com/repos/jeffkit/apnsagent/hooks",
    "html_url": "https://github.com/jeffkit/apnsagent",
    "id": 2688227,
    "issue_comment_url": "https://api.github.com/repos/jeffkit/apnsagent/issues/comments/{number}",
    "issue_events_url": "https://api.github.com/repos/jeffkit/apnsagent/issues/events{/number}",
    "issues_url": "https://api.github.com/repos/jeffkit/apnsagent/issues{/number}",
    "keys_url": "https://api.github.com/repos/jeffkit/apnsagent/keys{/key_id}",
    "labels_url": "https://api.github.com/repos/jeffkit/apnsagent/labels{/name}",
    "language": "Python",
    "languages_url": "https://api.github.com/repos/jeffkit/apnsagent/languages",
    "merges_url": "https://api.github.com/repos/jeffkit/apnsagent/merges",
    "milestones_url": "https://api.github.com/repos/jeffkit/apnsagent/milestones{/number}",
    "mirror_url": null,
    "name": "apnsagent",
    "notifications_url": "https://api.github.com/repos/jeffkit/apnsagent/notifications{?since,all,participating}",
    "open_issues": 2,
    "open_issues_count": 2,
    "owner": {
        "avatar_url": "https://avatars.githubusercontent.com/u/252377?",
        "events_url": "https://api.github.com/users/jeffkit/events{/privacy}",
        "followers_url": "https://api.github.com/users/jeffkit/followers",
        "following_url": "https://api.github.com/users/jeffkit/following{/other_user}",
        "gists_url": "https://api.github.com/users/jeffkit/gists{/gist_id}",
        "gravatar_id": "2135354ff097e1e0fdf7c6048cade51f",
        "html_url": "https://github.com/jeffkit",
        "id": 252377,
        "login": "jeffkit",
        "organizations_url": "https://api.github.com/users/jeffkit/orgs",
        "received_events_url": "https://api.github.com/users/jeffkit/received_events",
        "repos_url": "https://api.github.com/users/jeffkit/repos",
        "site_admin": false,
        "starred_url": "https://api.github.com/users/jeffkit/starred{/owner}{/repo}",
        "subscriptions_url": "https://api.github.com/users/jeffkit/subscriptions",
        "type": "User",
        "url": "https://api.github.com/users/jeffkit"
    },
    "private": false,
    "pulls_url": "https://api.github.com/repos/jeffkit/apnsagent/pulls{/number}",
    "pushed_at": "2013-06-12T12:27:52Z",
    "releases_url": "https://api.github.com/repos/jeffkit/apnsagent/releases{/id}",
    "score": 1.0,
    "size": 227,
    "ssh_url": "git@github.com:jeffkit/apnsagent.git",
    "stargazers_count": 51,
    "stargazers_url": "https://api.github.com/repos/jeffkit/apnsagent/stargazers",
    "statuses_url": "https://api.github.com/repos/jeffkit/apnsagent/statuses/{sha}",
    "subscribers_url": "https://api.github.com/repos/jeffkit/apnsagent/subscribers",
    "subscription_url": "https://api.github.com/repos/jeffkit/apnsagent/subscription",
    "svn_url": "https://github.com/jeffkit/apnsagent",
    "tags_url": "https://api.github.com/repos/jeffkit/apnsagent/tags",
    "teams_url": "https://api.github.com/repos/jeffkit/apnsagent/teams",
    "trees_url": "https://api.github.com/repos/jeffkit/apnsagent/git/trees{/sha}",
    "updated_at": "2013-11-26T14:16:28Z",
    "url": "https://api.github.com/repos/jeffkit/apnsagent",
    "watchers": 51,
    "watchers_count": 51
}