[
    "bin",
    "apnsagent.utils",
    "apnsagent.bin.apnsagent-server",
    "utils",
    "web_daemon",
    "apnsagent.web_daemon",
    "apnsagent.constants",
    "apnsagent.logger",
    "guard",
    "apnsagent.webserver",
    "apnsagent",
    "apnsagent.notification",
    "constants",
    "apnsagent-server",
    "apnsagent.client",
    "apnsagent.guard",
    "notification",
    "webserver",
    "client",
    "bin.apnsagent-server",
    "apnsagent.bin",
    "logger"
]