{
    "libs": [
        "filecmp",
        "servicesauth",
        "functools",
        "random",
        "unicodedata",
        "absolute_import",
        "datetime",
        "colors",
        "query",
        "ElementTree",
        "clear_index",
        "loading",
        "PIL",
        "struct",
        "tempfile",
        "pprint",
        "selenium",
        "termcolor",
        "math_captcha",
        "feedparser",
        "collections",
        "cProfile",
        "mail",
        "haystack",
        "importlib",
        "lexers",
        "settings_local",
        "trans_real",
        "string",
        "dateformat",
        "db",
        "textwrap",
        "dat",
        "testc",
        "httplib2",
        "hotshot",
        "schedules",
        "subprocess",
        "httplib",
        "d",
        "h",
        "imaplib",
        "api",
        "t",
        "multiprocessing",
        "cStringIO",
        "dfxp",
        "ted",
        "plugins",
        "unilangs",
        "calendar",
        "transport",
        "page",
        "dateutil",
        "gdata",
        "stats",
        "tools",
        "integration_settings",
        "redis",
        "factory",
        "urllib",
        "re",
        "bernhard",
        "template",
        "bleach",
        "formatter",
        "email",
        "math",
        "cgi",
        "core",
        "clickjacking",
        "global_settings",
        "inspect",
        "integration_periodic_t",
        "Queue",
        "codecs",
        "tz",
        "uuid",
        "url_manager",
        "logging",
        "socket",
        "boto",
        "StringIO",
        "traceback",
        "M2Crypto",
        "formatters",
        "itertools",
        "doctest",
        "pstats",
        "commit",
        "requests",
        "anyjson",
        "os",
        "options",
        "encoding",
        "simple",
        "unittest",
        "functional",
        "dispatch",
        "loader",
        "pygments",
        "path",
        "operator",
        "array",
        "webdriver_b",
        "service",
        "BeautifulSoup",
        "pysolr",
        "json",
        "Cipher",
        "periodic_t",
        "widgets",
        "generators",
        "files",
        "miro",
        "gzip",
        "simplejson",
        "tidy",
        "babelsubs",
        "fileb",
        "Client",
        "_rjsmin",
        "atom",
        "oauth",
        "copy",
        "unidecode",
        "exception",
        "b",
        "apiv2",
        "itercompat",
        "debug_toolbar",
        "defaultfilters",
        "panels",
        "shortcuts",
        "expat",
        "smtp",
        "update_index",
        "contextlib",
        "Cookie",
        "defaulttags",
        "shutil",
        "lxml",
        "storage",
        "connection",
        "indexes",
        "server_local_settings",
        "Deprecated",
        "dev_settings_test_local",
        "csv",
        "unittest2",
        "mock",
        "mimetypes",
        "warnings",
        "keys",
        "htmlentitydefs",
        "urllib2",
        "sys",
        "cElementTree",
        "v2",
        "services",
        "serializers",
        "constants",
        "transaction",
        "e",
        "dom",
        "safestring",
        "register",
        "modelsinspector",
        "django",
        "urlparse",
        "htmllib",
        "time",
        "urlresolvers",
        "optparse",
        "hmac"
    ]
}