{
    "archive_url": "https://api.github.com/repos/djangonauts/djorm-ext-pgfulltext/{archive_format}{/ref}",
    "assignees_url": "https://api.github.com/repos/djangonauts/djorm-ext-pgfulltext/assignees{/user}",
    "blobs_url": "https://api.github.com/repos/djangonauts/djorm-ext-pgfulltext/git/blobs{/sha}",
    "branches_url": "https://api.github.com/repos/djangonauts/djorm-ext-pgfulltext/branches{/branch}",
    "clone_url": "https://github.com/djangonauts/djorm-ext-pgfulltext.git",
    "collaborators_url": "https://api.github.com/repos/djangonauts/djorm-ext-pgfulltext/collaborators{/collaborator}",
    "comments_url": "https://api.github.com/repos/djangonauts/djorm-ext-pgfulltext/comments{/number}",
    "commits_url": "https://api.github.com/repos/djangonauts/djorm-ext-pgfulltext/commits{/sha}",
    "compare_url": "https://api.github.com/repos/djangonauts/djorm-ext-pgfulltext/compare/{base}...{head}",
    "contents_url": "https://api.github.com/repos/djangonauts/djorm-ext-pgfulltext/contents/{+path}",
    "contributors_url": "https://api.github.com/repos/djangonauts/djorm-ext-pgfulltext/contributors",
    "created_at": "2012-09-15T18:41:41Z",
    "default_branch": "master",
    "description": "PostgreSQL full-text search integration with django orm.",
    "downloads_url": "https://api.github.com/repos/djangonauts/djorm-ext-pgfulltext/downloads",
    "events_url": "https://api.github.com/repos/djangonauts/djorm-ext-pgfulltext/events",
    "fork": false,
    "forks": 18,
    "forks_count": 18,
    "forks_url": "https://api.github.com/repos/djangonauts/djorm-ext-pgfulltext/forks",
    "full_name": "djangonauts/djorm-ext-pgfulltext",
    "git_commits_url": "https://api.github.com/repos/djangonauts/djorm-ext-pgfulltext/git/commits{/sha}",
    "git_refs_url": "https://api.github.com/repos/djangonauts/djorm-ext-pgfulltext/git/refs{/sha}",
    "git_tags_url": "https://api.github.com/repos/djangonauts/djorm-ext-pgfulltext/git/tags{/sha}",
    "git_url": "git://github.com/djangonauts/djorm-ext-pgfulltext.git",
    "has_downloads": true,
    "has_issues": true,
    "has_wiki": true,
    "homepage": "",
    "hooks_url": "https://api.github.com/repos/djangonauts/djorm-ext-pgfulltext/hooks",
    "html_url": "https://github.com/djangonauts/djorm-ext-pgfulltext",
    "id": 5822968,
    "issue_comment_url": "https://api.github.com/repos/djangonauts/djorm-ext-pgfulltext/issues/comments/{number}",
    "issue_events_url": "https://api.github.com/repos/djangonauts/djorm-ext-pgfulltext/issues/events{/number}",
    "issues_url": "https://api.github.com/repos/djangonauts/djorm-ext-pgfulltext/issues{/number}",
    "keys_url": "https://api.github.com/repos/djangonauts/djorm-ext-pgfulltext/keys{/key_id}",
    "labels_url": "https://api.github.com/repos/djangonauts/djorm-ext-pgfulltext/labels{/name}",
    "language": "Python",
    "languages_url": "https://api.github.com/repos/djangonauts/djorm-ext-pgfulltext/languages",
    "merges_url": "https://api.github.com/repos/djangonauts/djorm-ext-pgfulltext/merges",
    "milestones_url": "https://api.github.com/repos/djangonauts/djorm-ext-pgfulltext/milestones{/number}",
    "mirror_url": null,
    "name": "djorm-ext-pgfulltext",
    "notifications_url": "https://api.github.com/repos/djangonauts/djorm-ext-pgfulltext/notifications{?since,all,participating}",
    "open_issues": 4,
    "open_issues_count": 4,
    "owner": {
        "avatar_url": "https://avatars.githubusercontent.com/u/6310186?",
        "events_url": "https://api.github.com/users/djangonauts/events{/privacy}",
        "followers_url": "https://api.github.com/users/djangonauts/followers",
        "following_url": "https://api.github.com/users/djangonauts/following{/other_user}",
        "gists_url": "https://api.github.com/users/djangonauts/gists{/gist_id}",
        "gravatar_id": "c0347f4f5c4f6bcfc32ccb8e6c762d10",
        "html_url": "https://github.com/djangonauts",
        "id": 6310186,
        "login": "djangonauts",
        "organizations_url": "https://api.github.com/users/djangonauts/orgs",
        "received_events_url": "https://api.github.com/users/djangonauts/received_events",
        "repos_url": "https://api.github.com/users/djangonauts/repos",
        "site_admin": false,
        "starred_url": "https://api.github.com/users/djangonauts/starred{/owner}{/repo}",
        "subscriptions_url": "https://api.github.com/users/djangonauts/subscriptions",
        "type": "Organization",
        "url": "https://api.github.com/users/djangonauts"
    },
    "private": false,
    "pulls_url": "https://api.github.com/repos/djangonauts/djorm-ext-pgfulltext/pulls{/number}",
    "pushed_at": "2014-05-01T08:23:31Z",
    "releases_url": "https://api.github.com/repos/djangonauts/djorm-ext-pgfulltext/releases{/id}",
    "score": 1.0,
    "size": 228,
    "ssh_url": "git@github.com:djangonauts/djorm-ext-pgfulltext.git",
    "stargazers_count": 75,
    "stargazers_url": "https://api.github.com/repos/djangonauts/djorm-ext-pgfulltext/stargazers",
    "statuses_url": "https://api.github.com/repos/djangonauts/djorm-ext-pgfulltext/statuses/{sha}",
    "subscribers_url": "https://api.github.com/repos/djangonauts/djorm-ext-pgfulltext/subscribers",
    "subscription_url": "https://api.github.com/repos/djangonauts/djorm-ext-pgfulltext/subscription",
    "svn_url": "https://github.com/djangonauts/djorm-ext-pgfulltext",
    "tags_url": "https://api.github.com/repos/djangonauts/djorm-ext-pgfulltext/tags",
    "teams_url": "https://api.github.com/repos/djangonauts/djorm-ext-pgfulltext/teams",
    "trees_url": "https://api.github.com/repos/djangonauts/djorm-ext-pgfulltext/git/trees{/sha}",
    "updated_at": "2014-05-02T01:07:18Z",
    "url": "https://api.github.com/repos/djangonauts/djorm-ext-pgfulltext",
    "watchers": 75,
    "watchers_count": 75
}