{
    "archive_url": "https://api.github.com/repos/dropbox/pyxl/{archive_format}{/ref}",
    "assignees_url": "https://api.github.com/repos/dropbox/pyxl/assignees{/user}",
    "blobs_url": "https://api.github.com/repos/dropbox/pyxl/git/blobs{/sha}",
    "branches_url": "https://api.github.com/repos/dropbox/pyxl/branches{/branch}",
    "clone_url": "https://github.com/dropbox/pyxl.git",
    "collaborators_url": "https://api.github.com/repos/dropbox/pyxl/collaborators{/collaborator}",
    "comments_url": "https://api.github.com/repos/dropbox/pyxl/comments{/number}",
    "commits_url": "https://api.github.com/repos/dropbox/pyxl/commits{/sha}",
    "compare_url": "https://api.github.com/repos/dropbox/pyxl/compare/{base}...{head}",
    "contents_url": "https://api.github.com/repos/dropbox/pyxl/contents/{+path}",
    "contributors_url": "https://api.github.com/repos/dropbox/pyxl/contributors",
    "created_at": "2013-02-24T00:13:50Z",
    "default_branch": "master",
    "description": "A Python extension for writing structured and reusable inline HTML.",
    "downloads_url": "https://api.github.com/repos/dropbox/pyxl/downloads",
    "events_url": "https://api.github.com/repos/dropbox/pyxl/events",
    "fork": false,
    "forks": 11,
    "forks_count": 11,
    "forks_url": "https://api.github.com/repos/dropbox/pyxl/forks",
    "full_name": "dropbox/pyxl",
    "git_commits_url": "https://api.github.com/repos/dropbox/pyxl/git/commits{/sha}",
    "git_refs_url": "https://api.github.com/repos/dropbox/pyxl/git/refs{/sha}",
    "git_tags_url": "https://api.github.com/repos/dropbox/pyxl/git/tags{/sha}",
    "git_url": "git://github.com/dropbox/pyxl.git",
    "has_downloads": true,
    "has_issues": false,
    "has_wiki": false,
    "homepage": "",
    "hooks_url": "https://api.github.com/repos/dropbox/pyxl/hooks",
    "html_url": "https://github.com/dropbox/pyxl",
    "id": 8384094,
    "issue_comment_url": "https://api.github.com/repos/dropbox/pyxl/issues/comments/{number}",
    "issue_events_url": "https://api.github.com/repos/dropbox/pyxl/issues/events{/number}",
    "issues_url": "https://api.github.com/repos/dropbox/pyxl/issues{/number}",
    "keys_url": "https://api.github.com/repos/dropbox/pyxl/keys{/key_id}",
    "labels_url": "https://api.github.com/repos/dropbox/pyxl/labels{/name}",
    "language": "Python",
    "languages_url": "https://api.github.com/repos/dropbox/pyxl/languages",
    "merges_url": "https://api.github.com/repos/dropbox/pyxl/merges",
    "milestones_url": "https://api.github.com/repos/dropbox/pyxl/milestones{/number}",
    "mirror_url": null,
    "name": "pyxl",
    "notifications_url": "https://api.github.com/repos/dropbox/pyxl/notifications{?since,all,participating}",
    "open_issues": 0,
    "open_issues_count": 0,
    "owner": {
        "avatar_url": "https://avatars.githubusercontent.com/u/559357?",
        "events_url": "https://api.github.com/users/dropbox/events{/privacy}",
        "followers_url": "https://api.github.com/users/dropbox/followers",
        "following_url": "https://api.github.com/users/dropbox/following{/other_user}",
        "gists_url": "https://api.github.com/users/dropbox/gists{/gist_id}",
        "gravatar_id": "9d1478f2f390c79a303c6082b7fc08c4",
        "html_url": "https://github.com/dropbox",
        "id": 559357,
        "login": "dropbox",
        "organizations_url": "https://api.github.com/users/dropbox/orgs",
        "received_events_url": "https://api.github.com/users/dropbox/received_events",
        "repos_url": "https://api.github.com/users/dropbox/repos",
        "site_admin": false,
        "starred_url": "https://api.github.com/users/dropbox/starred{/owner}{/repo}",
        "subscriptions_url": "https://api.github.com/users/dropbox/subscriptions",
        "type": "Organization",
        "url": "https://api.github.com/users/dropbox"
    },
    "private": false,
    "pulls_url": "https://api.github.com/repos/dropbox/pyxl/pulls{/number}",
    "pushed_at": "2014-04-23T20:39:34Z",
    "releases_url": "https://api.github.com/repos/dropbox/pyxl/releases{/id}",
    "score": 1.0,
    "size": 417,
    "ssh_url": "git@github.com:dropbox/pyxl.git",
    "stargazers_count": 151,
    "stargazers_url": "https://api.github.com/repos/dropbox/pyxl/stargazers",
    "statuses_url": "https://api.github.com/repos/dropbox/pyxl/statuses/{sha}",
    "subscribers_url": "https://api.github.com/repos/dropbox/pyxl/subscribers",
    "subscription_url": "https://api.github.com/repos/dropbox/pyxl/subscription",
    "svn_url": "https://github.com/dropbox/pyxl",
    "tags_url": "https://api.github.com/repos/dropbox/pyxl/tags",
    "teams_url": "https://api.github.com/repos/dropbox/pyxl/teams",
    "trees_url": "https://api.github.com/repos/dropbox/pyxl/git/trees{/sha}",
    "updated_at": "2014-05-03T17:23:15Z",
    "url": "https://api.github.com/repos/dropbox/pyxl",
    "watchers": 151,
    "watchers_count": 151
}