{
    "archive_url": "https://api.github.com/repos/bmuller/twistar/{archive_format}{/ref}",
    "assignees_url": "https://api.github.com/repos/bmuller/twistar/assignees{/user}",
    "blobs_url": "https://api.github.com/repos/bmuller/twistar/git/blobs{/sha}",
    "branches_url": "https://api.github.com/repos/bmuller/twistar/branches{/branch}",
    "clone_url": "https://github.com/bmuller/twistar.git",
    "collaborators_url": "https://api.github.com/repos/bmuller/twistar/collaborators{/collaborator}",
    "comments_url": "https://api.github.com/repos/bmuller/twistar/comments{/number}",
    "commits_url": "https://api.github.com/repos/bmuller/twistar/commits{/sha}",
    "compare_url": "https://api.github.com/repos/bmuller/twistar/compare/{base}...{head}",
    "contents_url": "https://api.github.com/repos/bmuller/twistar/contents/{+path}",
    "contributors_url": "https://api.github.com/repos/bmuller/twistar/contributors",
    "created_at": "2010-10-26T21:18:07Z",
    "default_branch": "master",
    "description": "Twistar is an object-relational mapper (ORM) for Python that uses the Twisted library to provide asynchronous DB interaction.",
    "downloads_url": "https://api.github.com/repos/bmuller/twistar/downloads",
    "events_url": "https://api.github.com/repos/bmuller/twistar/events",
    "fork": false,
    "forks": 22,
    "forks_count": 22,
    "forks_url": "https://api.github.com/repos/bmuller/twistar/forks",
    "full_name": "bmuller/twistar",
    "git_commits_url": "https://api.github.com/repos/bmuller/twistar/git/commits{/sha}",
    "git_refs_url": "https://api.github.com/repos/bmuller/twistar/git/refs{/sha}",
    "git_tags_url": "https://api.github.com/repos/bmuller/twistar/git/tags{/sha}",
    "git_url": "git://github.com/bmuller/twistar.git",
    "has_downloads": true,
    "has_issues": true,
    "has_wiki": true,
    "homepage": "http://findingscience.com/twistar",
    "hooks_url": "https://api.github.com/repos/bmuller/twistar/hooks",
    "html_url": "https://github.com/bmuller/twistar",
    "id": 1026828,
    "issue_comment_url": "https://api.github.com/repos/bmuller/twistar/issues/comments/{number}",
    "issue_events_url": "https://api.github.com/repos/bmuller/twistar/issues/events{/number}",
    "issues_url": "https://api.github.com/repos/bmuller/twistar/issues{/number}",
    "keys_url": "https://api.github.com/repos/bmuller/twistar/keys{/key_id}",
    "labels_url": "https://api.github.com/repos/bmuller/twistar/labels{/name}",
    "language": "Python",
    "languages_url": "https://api.github.com/repos/bmuller/twistar/languages",
    "merges_url": "https://api.github.com/repos/bmuller/twistar/merges",
    "milestones_url": "https://api.github.com/repos/bmuller/twistar/milestones{/number}",
    "mirror_url": null,
    "name": "twistar",
    "notifications_url": "https://api.github.com/repos/bmuller/twistar/notifications{?since,all,participating}",
    "open_issues": 7,
    "open_issues_count": 7,
    "owner": {
        "avatar_url": "https://avatars.githubusercontent.com/u/182344?",
        "events_url": "https://api.github.com/users/bmuller/events{/privacy}",
        "followers_url": "https://api.github.com/users/bmuller/followers",
        "following_url": "https://api.github.com/users/bmuller/following{/other_user}",
        "gists_url": "https://api.github.com/users/bmuller/gists{/gist_id}",
        "gravatar_id": "c3fef93ba498fc8092210db2fb565364",
        "html_url": "https://github.com/bmuller",
        "id": 182344,
        "login": "bmuller",
        "organizations_url": "https://api.github.com/users/bmuller/orgs",
        "received_events_url": "https://api.github.com/users/bmuller/received_events",
        "repos_url": "https://api.github.com/users/bmuller/repos",
        "site_admin": false,
        "starred_url": "https://api.github.com/users/bmuller/starred{/owner}{/repo}",
        "subscriptions_url": "https://api.github.com/users/bmuller/subscriptions",
        "type": "User",
        "url": "https://api.github.com/users/bmuller"
    },
    "private": false,
    "pulls_url": "https://api.github.com/repos/bmuller/twistar/pulls{/number}",
    "pushed_at": "2013-10-18T14:44:45Z",
    "releases_url": "https://api.github.com/repos/bmuller/twistar/releases{/id}",
    "score": 1.0,
    "size": 824,
    "ssh_url": "git@github.com:bmuller/twistar.git",
    "stargazers_count": 67,
    "stargazers_url": "https://api.github.com/repos/bmuller/twistar/stargazers",
    "statuses_url": "https://api.github.com/repos/bmuller/twistar/statuses/{sha}",
    "subscribers_url": "https://api.github.com/repos/bmuller/twistar/subscribers",
    "subscription_url": "https://api.github.com/repos/bmuller/twistar/subscription",
    "svn_url": "https://github.com/bmuller/twistar",
    "tags_url": "https://api.github.com/repos/bmuller/twistar/tags",
    "teams_url": "https://api.github.com/repos/bmuller/twistar/teams",
    "trees_url": "https://api.github.com/repos/bmuller/twistar/git/trees{/sha}",
    "updated_at": "2014-05-05T19:50:22Z",
    "url": "https://api.github.com/repos/bmuller/twistar",
    "watchers": 67,
    "watchers_count": 67
}