{
    "libs": [
        "prettytable",
        "subprocess",
        "progressbar",
        "json",
        "getp",
        "bin",
        "sqlalchemy",
        "sys",
        "pydeep",
        "orm",
        "datetime",
        "pool",
        "ConfigParser",
        "argparse",
        "magic",
        "exc",
        "h",
        "datab",
        "declarative",
        "bottle",
        "requests",
        "os"
    ]
}