{
    "archive_url": "https://api.github.com/repos/idan/epio_skel/{archive_format}{/ref}",
    "assignees_url": "https://api.github.com/repos/idan/epio_skel/assignees{/user}",
    "blobs_url": "https://api.github.com/repos/idan/epio_skel/git/blobs{/sha}",
    "branches_url": "https://api.github.com/repos/idan/epio_skel/branches{/branch}",
    "clone_url": "https://github.com/idan/epio_skel.git",
    "collaborators_url": "https://api.github.com/repos/idan/epio_skel/collaborators{/collaborator}",
    "comments_url": "https://api.github.com/repos/idan/epio_skel/comments{/number}",
    "commits_url": "https://api.github.com/repos/idan/epio_skel/commits{/sha}",
    "compare_url": "https://api.github.com/repos/idan/epio_skel/compare/{base}...{head}",
    "contents_url": "https://api.github.com/repos/idan/epio_skel/contents/{+path}",
    "contributors_url": "https://api.github.com/repos/idan/epio_skel/contributors",
    "created_at": "2011-04-07T11:28:50Z",
    "default_branch": "master",
    "description": "A skeleton django project setup for ep.io",
    "downloads_url": "https://api.github.com/repos/idan/epio_skel/downloads",
    "events_url": "https://api.github.com/repos/idan/epio_skel/events",
    "fork": false,
    "forks": 7,
    "forks_count": 7,
    "forks_url": "https://api.github.com/repos/idan/epio_skel/forks",
    "full_name": "idan/epio_skel",
    "git_commits_url": "https://api.github.com/repos/idan/epio_skel/git/commits{/sha}",
    "git_refs_url": "https://api.github.com/repos/idan/epio_skel/git/refs{/sha}",
    "git_tags_url": "https://api.github.com/repos/idan/epio_skel/git/tags{/sha}",
    "git_url": "git://github.com/idan/epio_skel.git",
    "has_downloads": true,
    "has_issues": true,
    "has_wiki": true,
    "homepage": "",
    "hooks_url": "https://api.github.com/repos/idan/epio_skel/hooks",
    "html_url": "https://github.com/idan/epio_skel",
    "id": 1581952,
    "issue_comment_url": "https://api.github.com/repos/idan/epio_skel/issues/comments/{number}",
    "issue_events_url": "https://api.github.com/repos/idan/epio_skel/issues/events{/number}",
    "issues_url": "https://api.github.com/repos/idan/epio_skel/issues{/number}",
    "keys_url": "https://api.github.com/repos/idan/epio_skel/keys{/key_id}",
    "labels_url": "https://api.github.com/repos/idan/epio_skel/labels{/name}",
    "language": "Python",
    "languages_url": "https://api.github.com/repos/idan/epio_skel/languages",
    "merges_url": "https://api.github.com/repos/idan/epio_skel/merges",
    "milestones_url": "https://api.github.com/repos/idan/epio_skel/milestones{/number}",
    "mirror_url": null,
    "name": "epio_skel",
    "notifications_url": "https://api.github.com/repos/idan/epio_skel/notifications{?since,all,participating}",
    "open_issues": 3,
    "open_issues_count": 3,
    "owner": {
        "avatar_url": "https://avatars.githubusercontent.com/u/22723?",
        "events_url": "https://api.github.com/users/idan/events{/privacy}",
        "followers_url": "https://api.github.com/users/idan/followers",
        "following_url": "https://api.github.com/users/idan/following{/other_user}",
        "gists_url": "https://api.github.com/users/idan/gists{/gist_id}",
        "gravatar_id": "0d877f80c535471ede57c7a4c0f487de",
        "html_url": "https://github.com/idan",
        "id": 22723,
        "login": "idan",
        "organizations_url": "https://api.github.com/users/idan/orgs",
        "received_events_url": "https://api.github.com/users/idan/received_events",
        "repos_url": "https://api.github.com/users/idan/repos",
        "site_admin": false,
        "starred_url": "https://api.github.com/users/idan/starred{/owner}{/repo}",
        "subscriptions_url": "https://api.github.com/users/idan/subscriptions",
        "type": "User",
        "url": "https://api.github.com/users/idan"
    },
    "private": false,
    "pulls_url": "https://api.github.com/repos/idan/epio_skel/pulls{/number}",
    "pushed_at": "2012-01-04T08:46:55Z",
    "releases_url": "https://api.github.com/repos/idan/epio_skel/releases{/id}",
    "score": 1.0,
    "size": 473,
    "ssh_url": "git@github.com:idan/epio_skel.git",
    "stargazers_count": 53,
    "stargazers_url": "https://api.github.com/repos/idan/epio_skel/stargazers",
    "statuses_url": "https://api.github.com/repos/idan/epio_skel/statuses/{sha}",
    "subscribers_url": "https://api.github.com/repos/idan/epio_skel/subscribers",
    "subscription_url": "https://api.github.com/repos/idan/epio_skel/subscription",
    "svn_url": "https://github.com/idan/epio_skel",
    "tags_url": "https://api.github.com/repos/idan/epio_skel/tags",
    "teams_url": "https://api.github.com/repos/idan/epio_skel/teams",
    "trees_url": "https://api.github.com/repos/idan/epio_skel/git/trees{/sha}",
    "updated_at": "2014-04-20T17:36:25Z",
    "url": "https://api.github.com/repos/idan/epio_skel",
    "watchers": 53,
    "watchers_count": 53
}