{
    "archive_url": "https://api.github.com/repos/cbumgard/GitCommitMsg/{archive_format}{/ref}",
    "assignees_url": "https://api.github.com/repos/cbumgard/GitCommitMsg/assignees{/user}",
    "blobs_url": "https://api.github.com/repos/cbumgard/GitCommitMsg/git/blobs{/sha}",
    "branches_url": "https://api.github.com/repos/cbumgard/GitCommitMsg/branches{/branch}",
    "clone_url": "https://github.com/cbumgard/GitCommitMsg.git",
    "collaborators_url": "https://api.github.com/repos/cbumgard/GitCommitMsg/collaborators{/collaborator}",
    "comments_url": "https://api.github.com/repos/cbumgard/GitCommitMsg/comments{/number}",
    "commits_url": "https://api.github.com/repos/cbumgard/GitCommitMsg/commits{/sha}",
    "compare_url": "https://api.github.com/repos/cbumgard/GitCommitMsg/compare/{base}...{head}",
    "contents_url": "https://api.github.com/repos/cbumgard/GitCommitMsg/contents/{+path}",
    "contributors_url": "https://api.github.com/repos/cbumgard/GitCommitMsg/contributors",
    "created_at": "2014-02-10T09:37:53Z",
    "default_branch": "master",
    "description": "Sublime Text plugin \"git_commit_msg plugin\": shows the git commit history for one or more lines of code.",
    "downloads_url": "https://api.github.com/repos/cbumgard/GitCommitMsg/downloads",
    "events_url": "https://api.github.com/repos/cbumgard/GitCommitMsg/events",
    "fork": false,
    "forks": 8,
    "forks_count": 8,
    "forks_url": "https://api.github.com/repos/cbumgard/GitCommitMsg/forks",
    "full_name": "cbumgard/GitCommitMsg",
    "git_commits_url": "https://api.github.com/repos/cbumgard/GitCommitMsg/git/commits{/sha}",
    "git_refs_url": "https://api.github.com/repos/cbumgard/GitCommitMsg/git/refs{/sha}",
    "git_tags_url": "https://api.github.com/repos/cbumgard/GitCommitMsg/git/tags{/sha}",
    "git_url": "git://github.com/cbumgard/GitCommitMsg.git",
    "has_downloads": true,
    "has_issues": true,
    "has_wiki": true,
    "homepage": null,
    "hooks_url": "https://api.github.com/repos/cbumgard/GitCommitMsg/hooks",
    "html_url": "https://github.com/cbumgard/GitCommitMsg",
    "id": 16690750,
    "issue_comment_url": "https://api.github.com/repos/cbumgard/GitCommitMsg/issues/comments/{number}",
    "issue_events_url": "https://api.github.com/repos/cbumgard/GitCommitMsg/issues/events{/number}",
    "issues_url": "https://api.github.com/repos/cbumgard/GitCommitMsg/issues{/number}",
    "keys_url": "https://api.github.com/repos/cbumgard/GitCommitMsg/keys{/key_id}",
    "labels_url": "https://api.github.com/repos/cbumgard/GitCommitMsg/labels{/name}",
    "language": "Python",
    "languages_url": "https://api.github.com/repos/cbumgard/GitCommitMsg/languages",
    "merges_url": "https://api.github.com/repos/cbumgard/GitCommitMsg/merges",
    "milestones_url": "https://api.github.com/repos/cbumgard/GitCommitMsg/milestones{/number}",
    "mirror_url": null,
    "name": "GitCommitMsg",
    "notifications_url": "https://api.github.com/repos/cbumgard/GitCommitMsg/notifications{?since,all,participating}",
    "open_issues": 3,
    "open_issues_count": 3,
    "owner": {
        "avatar_url": "https://avatars.githubusercontent.com/u/89447?",
        "events_url": "https://api.github.com/users/cbumgard/events{/privacy}",
        "followers_url": "https://api.github.com/users/cbumgard/followers",
        "following_url": "https://api.github.com/users/cbumgard/following{/other_user}",
        "gists_url": "https://api.github.com/users/cbumgard/gists{/gist_id}",
        "gravatar_id": "090c06dba3d6c121c00c147f9e74f23e",
        "html_url": "https://github.com/cbumgard",
        "id": 89447,
        "login": "cbumgard",
        "organizations_url": "https://api.github.com/users/cbumgard/orgs",
        "received_events_url": "https://api.github.com/users/cbumgard/received_events",
        "repos_url": "https://api.github.com/users/cbumgard/repos",
        "site_admin": false,
        "starred_url": "https://api.github.com/users/cbumgard/starred{/owner}{/repo}",
        "subscriptions_url": "https://api.github.com/users/cbumgard/subscriptions",
        "type": "User",
        "url": "https://api.github.com/users/cbumgard"
    },
    "private": false,
    "pulls_url": "https://api.github.com/repos/cbumgard/GitCommitMsg/pulls{/number}",
    "pushed_at": "2014-02-27T22:55:13Z",
    "releases_url": "https://api.github.com/repos/cbumgard/GitCommitMsg/releases{/id}",
    "score": 1.0,
    "size": 444,
    "ssh_url": "git@github.com:cbumgard/GitCommitMsg.git",
    "stargazers_count": 356,
    "stargazers_url": "https://api.github.com/repos/cbumgard/GitCommitMsg/stargazers",
    "statuses_url": "https://api.github.com/repos/cbumgard/GitCommitMsg/statuses/{sha}",
    "subscribers_url": "https://api.github.com/repos/cbumgard/GitCommitMsg/subscribers",
    "subscription_url": "https://api.github.com/repos/cbumgard/GitCommitMsg/subscription",
    "svn_url": "https://github.com/cbumgard/GitCommitMsg",
    "tags_url": "https://api.github.com/repos/cbumgard/GitCommitMsg/tags",
    "teams_url": "https://api.github.com/repos/cbumgard/GitCommitMsg/teams",
    "trees_url": "https://api.github.com/repos/cbumgard/GitCommitMsg/git/trees{/sha}",
    "updated_at": "2014-04-27T15:48:31Z",
    "url": "https://api.github.com/repos/cbumgard/GitCommitMsg",
    "watchers": 356,
    "watchers_count": 356
}