{
    "libs": [
        "mock",
        "activate",
        "encoding",
        "shortcuts",
        "unittest",
        "random",
        "related",
        "datetime",
        "quotes",
        "static",
        "operator",
        "query",
        "abc",
        "uuid",
        "cl",
        "urllib",
        "macros",
        "exporters",
        "collections",
        "template",
        "decorators",
        "utils",
        "math",
        "contrib",
        "B",
        "http",
        "string",
        "OpenmrsCl",
        "sets",
        "db",
        "auth",
        "sys",
        "loading",
        "management",
        "pickle",
        "copy",
        "z3",
        "c",
        "b",
        "logging",
        "f",
        "h",
        "traceback",
        "threading",
        "itertools",
        "formsets",
        "fields",
        "os"
    ]
}