{
    "archive_url": "https://api.github.com/repos/FanfouAPI/FanFouAPIDoc/{archive_format}{/ref}",
    "assignees_url": "https://api.github.com/repos/FanfouAPI/FanFouAPIDoc/assignees{/user}",
    "blobs_url": "https://api.github.com/repos/FanfouAPI/FanFouAPIDoc/git/blobs{/sha}",
    "branches_url": "https://api.github.com/repos/FanfouAPI/FanFouAPIDoc/branches{/branch}",
    "clone_url": "https://github.com/FanfouAPI/FanFouAPIDoc.git",
    "collaborators_url": "https://api.github.com/repos/FanfouAPI/FanFouAPIDoc/collaborators{/collaborator}",
    "comments_url": "https://api.github.com/repos/FanfouAPI/FanFouAPIDoc/comments{/number}",
    "commits_url": "https://api.github.com/repos/FanfouAPI/FanFouAPIDoc/commits{/sha}",
    "compare_url": "https://api.github.com/repos/FanfouAPI/FanFouAPIDoc/compare/{base}...{head}",
    "contents_url": "https://api.github.com/repos/FanfouAPI/FanFouAPIDoc/contents/{+path}",
    "contributors_url": "https://api.github.com/repos/FanfouAPI/FanFouAPIDoc/contributors",
    "created_at": "2011-11-08T06:49:08Z",
    "default_branch": "master",
    "description": "\u996d\u5426API\u6587\u6863",
    "downloads_url": "https://api.github.com/repos/FanfouAPI/FanFouAPIDoc/downloads",
    "events_url": "https://api.github.com/repos/FanfouAPI/FanFouAPIDoc/events",
    "fork": false,
    "forks": 24,
    "forks_count": 24,
    "forks_url": "https://api.github.com/repos/FanfouAPI/FanFouAPIDoc/forks",
    "full_name": "FanfouAPI/FanFouAPIDoc",
    "git_commits_url": "https://api.github.com/repos/FanfouAPI/FanFouAPIDoc/git/commits{/sha}",
    "git_refs_url": "https://api.github.com/repos/FanfouAPI/FanFouAPIDoc/git/refs{/sha}",
    "git_tags_url": "https://api.github.com/repos/FanfouAPI/FanFouAPIDoc/git/tags{/sha}",
    "git_url": "git://github.com/FanfouAPI/FanFouAPIDoc.git",
    "has_downloads": true,
    "has_issues": true,
    "has_wiki": true,
    "homepage": "http://fanfou.com",
    "hooks_url": "https://api.github.com/repos/FanfouAPI/FanFouAPIDoc/hooks",
    "html_url": "https://github.com/FanfouAPI/FanFouAPIDoc",
    "id": 2731991,
    "issue_comment_url": "https://api.github.com/repos/FanfouAPI/FanFouAPIDoc/issues/comments/{number}",
    "issue_events_url": "https://api.github.com/repos/FanfouAPI/FanFouAPIDoc/issues/events{/number}",
    "issues_url": "https://api.github.com/repos/FanfouAPI/FanFouAPIDoc/issues{/number}",
    "keys_url": "https://api.github.com/repos/FanfouAPI/FanFouAPIDoc/keys{/key_id}",
    "labels_url": "https://api.github.com/repos/FanfouAPI/FanFouAPIDoc/labels{/name}",
    "language": "Python",
    "languages_url": "https://api.github.com/repos/FanfouAPI/FanFouAPIDoc/languages",
    "merges_url": "https://api.github.com/repos/FanfouAPI/FanFouAPIDoc/merges",
    "milestones_url": "https://api.github.com/repos/FanfouAPI/FanFouAPIDoc/milestones{/number}",
    "mirror_url": null,
    "name": "FanFouAPIDoc",
    "notifications_url": "https://api.github.com/repos/FanfouAPI/FanFouAPIDoc/notifications{?since,all,participating}",
    "open_issues": 3,
    "open_issues_count": 3,
    "owner": {
        "avatar_url": "https://avatars.githubusercontent.com/u/1147455?",
        "events_url": "https://api.github.com/users/FanfouAPI/events{/privacy}",
        "followers_url": "https://api.github.com/users/FanfouAPI/followers",
        "following_url": "https://api.github.com/users/FanfouAPI/following{/other_user}",
        "gists_url": "https://api.github.com/users/FanfouAPI/gists{/gist_id}",
        "gravatar_id": "fac251b1d87639cf20bf168f2c7b941d",
        "html_url": "https://github.com/FanfouAPI",
        "id": 1147455,
        "login": "FanfouAPI",
        "organizations_url": "https://api.github.com/users/FanfouAPI/orgs",
        "received_events_url": "https://api.github.com/users/FanfouAPI/received_events",
        "repos_url": "https://api.github.com/users/FanfouAPI/repos",
        "site_admin": false,
        "starred_url": "https://api.github.com/users/FanfouAPI/starred{/owner}{/repo}",
        "subscriptions_url": "https://api.github.com/users/FanfouAPI/subscriptions",
        "type": "Organization",
        "url": "https://api.github.com/users/FanfouAPI"
    },
    "private": false,
    "pulls_url": "https://api.github.com/repos/FanfouAPI/FanFouAPIDoc/pulls{/number}",
    "pushed_at": "2012-04-13T07:58:54Z",
    "releases_url": "https://api.github.com/repos/FanfouAPI/FanFouAPIDoc/releases{/id}",
    "score": 1.0,
    "size": 2304,
    "ssh_url": "git@github.com:FanfouAPI/FanFouAPIDoc.git",
    "stargazers_count": 110,
    "stargazers_url": "https://api.github.com/repos/FanfouAPI/FanFouAPIDoc/stargazers",
    "statuses_url": "https://api.github.com/repos/FanfouAPI/FanFouAPIDoc/statuses/{sha}",
    "subscribers_url": "https://api.github.com/repos/FanfouAPI/FanFouAPIDoc/subscribers",
    "subscription_url": "https://api.github.com/repos/FanfouAPI/FanFouAPIDoc/subscription",
    "svn_url": "https://github.com/FanfouAPI/FanFouAPIDoc",
    "tags_url": "https://api.github.com/repos/FanfouAPI/FanFouAPIDoc/tags",
    "teams_url": "https://api.github.com/repos/FanfouAPI/FanFouAPIDoc/teams",
    "trees_url": "https://api.github.com/repos/FanfouAPI/FanFouAPIDoc/git/trees{/sha}",
    "updated_at": "2014-05-03T14:37:33Z",
    "url": "https://api.github.com/repos/FanfouAPI/FanFouAPIDoc",
    "watchers": 110,
    "watchers_count": 110
}