[
    "django-fanfou.contrib.fanfouapi.binder",
    "django-fanfou.apitestprj.app",
    "contrib.fanfouapi.error",
    "apitestprj.settings",
    "management.commands.xauth",
    "app",
    "manage",
    "objs",
    "fanfouapi.error",
    "apitestprj.app.views",
    "django-fanfou.contrib.fanfouapi.parsers",
    "api",
    "contrib",
    "django-fanfou.contrib.fanfouapi.error",
    "management",
    "contrib.fanfouapi.oauth",
    "app.models",
    "contrib.fanfouapi.views",
    "contrib.fanfouapi.utils",
    "cache",
    "fanfouapi.management.commands.oauth_pin",
    "fanfouapi.parsers",
    "contrib.fanfouapi.management.commands.oauth_pin",
    "apitestprj.manage",
    "django-fanfou.apitestprj.settings",
    "commands.oauth_pin",
    "contrib.fanfouapi.models",
    "django-fanfou.apitestprj.manage",
    "commands.callapi",
    "apitestprj.app.tests",
    "fanfouapi.management",
    "views",
    "fanfouapi.auth",
    "contrib.fanfouapi.management.commands.callapi",
    "apitestprj.app",
    "auth",
    "contrib.fanfouapi.api",
    "contrib.fanfouapi.cursor",
    "fanfouapi.cursor",
    "contrib.fanfouapi.admin",
    "posturl",
    "contrib.fanfouapi.management",
    "oauth",
    "django-fanfou.apitestprj.app.tests",
    "fanfouapi.management.commands.posturl",
    "contrib.fanfouapi.management.commands.xauth",
    "django-fanfou.contrib.fanfouapi",
    "django-fanfou.apitestprj",
    "django-fanfou.contrib.fanfouapi.api",
    "contrib.fanfouapi.management.commands.posturl",
    "django-fanfou.contrib.fanfouapi.cache",
    "settings",
    "apitestprj",
    "django-fanfou.contrib.fanfouapi.oauth",
    "cursor",
    "fanfouapi.oauth",
    "django-fanfou.contrib.fanfouapi.views",
    "contrib.fanfouapi.binder",
    "django-fanfou.apitestprj.app.urls",
    "management.commands",
    "django-fanfou.contrib",
    "management.commands.callapi",
    "django-fanfou.contrib.fanfouapi.management.commands.xauth",
    "fanfouapi.tests",
    "django-fanfou.contrib.fanfouapi.auth",
    "django-fanfou.apitestprj.urls",
    "callapi",
    "commands.xauth",
    "utils",
    "fanfouapi.views",
    "tests",
    "apitestprj.app.urls",
    "app.views",
    "parsers",
    "django-fanfou.apitestprj.app.views",
    "xauth",
    "fanfouapi",
    "fanfouapi.models",
    "contrib.fanfouapi.management.commands",
    "django-fanfou.contrib.fanfouapi.urls",
    "contrib.fanfouapi.cache",
    "django-fanfou.contrib.fanfouapi.management",
    "contrib.fanfouapi",
    "fanfouapi.utils",
    "django-fanfou.apitestprj.app.models",
    "django-fanfou.contrib.fanfouapi.management.commands.callapi",
    "django-fanfou.contrib.fanfouapi.management.commands.oauth_pin",
    "fanfouapi.management.commands",
    "management.commands.oauth_pin",
    "django-fanfou.contrib.fanfouapi.models",
    "contrib.fanfouapi.tests",
    "app.tests",
    "commands.posturl",
    "contrib.fanfouapi.urls",
    "fanfouapi.binder",
    "models",
    "django-fanfou.contrib.fanfouapi.objs",
    "error",
    "fanfouapi.objs",
    "binder",
    "fanfouapi.management.commands.callapi",
    "django-fanfou.contrib.fanfouapi.management.commands",
    "django-fanfou.contrib.fanfouapi.cursor",
    "django-fanfou.contrib.fanfouapi.management.commands.posturl",
    "apitestprj.urls",
    "commands",
    "app.urls",
    "contrib.fanfouapi.auth",
    "contrib.fanfouapi.objs",
    "admin",
    "django-fanfou.contrib.fanfouapi.utils",
    "fanfouapi.cache",
    "apitestprj.app.models",
    "django-fanfou",
    "fanfouapi.admin",
    "fanfouapi.urls",
    "fanfouapi.api",
    "urls",
    "contrib.fanfouapi.parsers",
    "oauth_pin",
    "fanfouapi.management.commands.xauth",
    "django-fanfou.contrib.fanfouapi.admin",
    "django-fanfou.contrib.fanfouapi.tests",
    "management.commands.posturl"
]