{
    "archive_url": "https://api.github.com/repos/tonysyu/mpltools/{archive_format}{/ref}",
    "assignees_url": "https://api.github.com/repos/tonysyu/mpltools/assignees{/user}",
    "blobs_url": "https://api.github.com/repos/tonysyu/mpltools/git/blobs{/sha}",
    "branches_url": "https://api.github.com/repos/tonysyu/mpltools/branches{/branch}",
    "clone_url": "https://github.com/tonysyu/mpltools.git",
    "collaborators_url": "https://api.github.com/repos/tonysyu/mpltools/collaborators{/collaborator}",
    "comments_url": "https://api.github.com/repos/tonysyu/mpltools/comments{/number}",
    "commits_url": "https://api.github.com/repos/tonysyu/mpltools/commits{/sha}",
    "compare_url": "https://api.github.com/repos/tonysyu/mpltools/compare/{base}...{head}",
    "contents_url": "https://api.github.com/repos/tonysyu/mpltools/contents/{+path}",
    "contributors_url": "https://api.github.com/repos/tonysyu/mpltools/contributors",
    "created_at": "2012-02-13T05:46:09Z",
    "default_branch": "master",
    "description": "Tools for Matplotlib",
    "downloads_url": "https://api.github.com/repos/tonysyu/mpltools/downloads",
    "events_url": "https://api.github.com/repos/tonysyu/mpltools/events",
    "fork": false,
    "forks": 18,
    "forks_count": 18,
    "forks_url": "https://api.github.com/repos/tonysyu/mpltools/forks",
    "full_name": "tonysyu/mpltools",
    "git_commits_url": "https://api.github.com/repos/tonysyu/mpltools/git/commits{/sha}",
    "git_refs_url": "https://api.github.com/repos/tonysyu/mpltools/git/refs{/sha}",
    "git_tags_url": "https://api.github.com/repos/tonysyu/mpltools/git/tags{/sha}",
    "git_url": "git://github.com/tonysyu/mpltools.git",
    "has_downloads": true,
    "has_issues": true,
    "has_wiki": true,
    "homepage": "",
    "hooks_url": "https://api.github.com/repos/tonysyu/mpltools/hooks",
    "html_url": "https://github.com/tonysyu/mpltools",
    "id": 3427531,
    "issue_comment_url": "https://api.github.com/repos/tonysyu/mpltools/issues/comments/{number}",
    "issue_events_url": "https://api.github.com/repos/tonysyu/mpltools/issues/events{/number}",
    "issues_url": "https://api.github.com/repos/tonysyu/mpltools/issues{/number}",
    "keys_url": "https://api.github.com/repos/tonysyu/mpltools/keys{/key_id}",
    "labels_url": "https://api.github.com/repos/tonysyu/mpltools/labels{/name}",
    "language": "Python",
    "languages_url": "https://api.github.com/repos/tonysyu/mpltools/languages",
    "merges_url": "https://api.github.com/repos/tonysyu/mpltools/merges",
    "milestones_url": "https://api.github.com/repos/tonysyu/mpltools/milestones{/number}",
    "mirror_url": null,
    "name": "mpltools",
    "notifications_url": "https://api.github.com/repos/tonysyu/mpltools/notifications{?since,all,participating}",
    "open_issues": 4,
    "open_issues_count": 4,
    "owner": {
        "avatar_url": "https://avatars.githubusercontent.com/u/133031?",
        "events_url": "https://api.github.com/users/tonysyu/events{/privacy}",
        "followers_url": "https://api.github.com/users/tonysyu/followers",
        "following_url": "https://api.github.com/users/tonysyu/following{/other_user}",
        "gists_url": "https://api.github.com/users/tonysyu/gists{/gist_id}",
        "gravatar_id": "b80364cc6fbb2eac7dcfdb7738bae083",
        "html_url": "https://github.com/tonysyu",
        "id": 133031,
        "login": "tonysyu",
        "organizations_url": "https://api.github.com/users/tonysyu/orgs",
        "received_events_url": "https://api.github.com/users/tonysyu/received_events",
        "repos_url": "https://api.github.com/users/tonysyu/repos",
        "site_admin": false,
        "starred_url": "https://api.github.com/users/tonysyu/starred{/owner}{/repo}",
        "subscriptions_url": "https://api.github.com/users/tonysyu/subscriptions",
        "type": "User",
        "url": "https://api.github.com/users/tonysyu"
    },
    "private": false,
    "pulls_url": "https://api.github.com/repos/tonysyu/mpltools/pulls{/number}",
    "pushed_at": "2014-05-04T04:32:02Z",
    "releases_url": "https://api.github.com/repos/tonysyu/mpltools/releases{/id}",
    "score": 1.0,
    "size": 6200,
    "ssh_url": "git@github.com:tonysyu/mpltools.git",
    "stargazers_count": 59,
    "stargazers_url": "https://api.github.com/repos/tonysyu/mpltools/stargazers",
    "statuses_url": "https://api.github.com/repos/tonysyu/mpltools/statuses/{sha}",
    "subscribers_url": "https://api.github.com/repos/tonysyu/mpltools/subscribers",
    "subscription_url": "https://api.github.com/repos/tonysyu/mpltools/subscription",
    "svn_url": "https://github.com/tonysyu/mpltools",
    "tags_url": "https://api.github.com/repos/tonysyu/mpltools/tags",
    "teams_url": "https://api.github.com/repos/tonysyu/mpltools/teams",
    "trees_url": "https://api.github.com/repos/tonysyu/mpltools/git/trees{/sha}",
    "updated_at": "2014-05-04T12:29:55Z",
    "url": "https://api.github.com/repos/tonysyu/mpltools",
    "watchers": 59,
    "watchers_count": 59
}