{
    "archive_url": "https://api.github.com/repos/frankban/django-endless-pagination/{archive_format}{/ref}",
    "assignees_url": "https://api.github.com/repos/frankban/django-endless-pagination/assignees{/user}",
    "blobs_url": "https://api.github.com/repos/frankban/django-endless-pagination/git/blobs{/sha}",
    "branches_url": "https://api.github.com/repos/frankban/django-endless-pagination/branches{/branch}",
    "clone_url": "https://github.com/frankban/django-endless-pagination.git",
    "collaborators_url": "https://api.github.com/repos/frankban/django-endless-pagination/collaborators{/collaborator}",
    "comments_url": "https://api.github.com/repos/frankban/django-endless-pagination/comments{/number}",
    "commits_url": "https://api.github.com/repos/frankban/django-endless-pagination/commits{/sha}",
    "compare_url": "https://api.github.com/repos/frankban/django-endless-pagination/compare/{base}...{head}",
    "contents_url": "https://api.github.com/repos/frankban/django-endless-pagination/contents/{+path}",
    "contributors_url": "https://api.github.com/repos/frankban/django-endless-pagination/contributors",
    "created_at": "2012-10-10T20:14:33Z",
    "default_branch": "master",
    "description": "Django pagination tools supporting Ajax, multiple and lazy pagination, Twitter-style and Digg-style pagination. This is the official Git repository.",
    "downloads_url": "https://api.github.com/repos/frankban/django-endless-pagination/downloads",
    "events_url": "https://api.github.com/repos/frankban/django-endless-pagination/events",
    "fork": false,
    "forks": 32,
    "forks_count": 32,
    "forks_url": "https://api.github.com/repos/frankban/django-endless-pagination/forks",
    "full_name": "frankban/django-endless-pagination",
    "git_commits_url": "https://api.github.com/repos/frankban/django-endless-pagination/git/commits{/sha}",
    "git_refs_url": "https://api.github.com/repos/frankban/django-endless-pagination/git/refs{/sha}",
    "git_tags_url": "https://api.github.com/repos/frankban/django-endless-pagination/git/tags{/sha}",
    "git_url": "git://github.com/frankban/django-endless-pagination.git",
    "has_downloads": true,
    "has_issues": true,
    "has_wiki": true,
    "homepage": null,
    "hooks_url": "https://api.github.com/repos/frankban/django-endless-pagination/hooks",
    "html_url": "https://github.com/frankban/django-endless-pagination",
    "id": 6163709,
    "issue_comment_url": "https://api.github.com/repos/frankban/django-endless-pagination/issues/comments/{number}",
    "issue_events_url": "https://api.github.com/repos/frankban/django-endless-pagination/issues/events{/number}",
    "issues_url": "https://api.github.com/repos/frankban/django-endless-pagination/issues{/number}",
    "keys_url": "https://api.github.com/repos/frankban/django-endless-pagination/keys{/key_id}",
    "labels_url": "https://api.github.com/repos/frankban/django-endless-pagination/labels{/name}",
    "language": "Python",
    "languages_url": "https://api.github.com/repos/frankban/django-endless-pagination/languages",
    "merges_url": "https://api.github.com/repos/frankban/django-endless-pagination/merges",
    "milestones_url": "https://api.github.com/repos/frankban/django-endless-pagination/milestones{/number}",
    "mirror_url": null,
    "name": "django-endless-pagination",
    "notifications_url": "https://api.github.com/repos/frankban/django-endless-pagination/notifications{?since,all,participating}",
    "open_issues": 28,
    "open_issues_count": 28,
    "owner": {
        "avatar_url": "https://avatars.githubusercontent.com/u/1408172?",
        "events_url": "https://api.github.com/users/frankban/events{/privacy}",
        "followers_url": "https://api.github.com/users/frankban/followers",
        "following_url": "https://api.github.com/users/frankban/following{/other_user}",
        "gists_url": "https://api.github.com/users/frankban/gists{/gist_id}",
        "gravatar_id": "0624f29cc29fb11d86e11ce07f0353e9",
        "html_url": "https://github.com/frankban",
        "id": 1408172,
        "login": "frankban",
        "organizations_url": "https://api.github.com/users/frankban/orgs",
        "received_events_url": "https://api.github.com/users/frankban/received_events",
        "repos_url": "https://api.github.com/users/frankban/repos",
        "site_admin": false,
        "starred_url": "https://api.github.com/users/frankban/starred{/owner}{/repo}",
        "subscriptions_url": "https://api.github.com/users/frankban/subscriptions",
        "type": "User",
        "url": "https://api.github.com/users/frankban"
    },
    "private": false,
    "pulls_url": "https://api.github.com/repos/frankban/django-endless-pagination/pulls{/number}",
    "pushed_at": "2013-04-05T14:35:44Z",
    "releases_url": "https://api.github.com/repos/frankban/django-endless-pagination/releases{/id}",
    "score": 1.0,
    "size": 768,
    "ssh_url": "git@github.com:frankban/django-endless-pagination.git",
    "stargazers_count": 150,
    "stargazers_url": "https://api.github.com/repos/frankban/django-endless-pagination/stargazers",
    "statuses_url": "https://api.github.com/repos/frankban/django-endless-pagination/statuses/{sha}",
    "subscribers_url": "https://api.github.com/repos/frankban/django-endless-pagination/subscribers",
    "subscription_url": "https://api.github.com/repos/frankban/django-endless-pagination/subscription",
    "svn_url": "https://github.com/frankban/django-endless-pagination",
    "tags_url": "https://api.github.com/repos/frankban/django-endless-pagination/tags",
    "teams_url": "https://api.github.com/repos/frankban/django-endless-pagination/teams",
    "trees_url": "https://api.github.com/repos/frankban/django-endless-pagination/git/trees{/sha}",
    "updated_at": "2014-04-29T19:02:02Z",
    "url": "https://api.github.com/repos/frankban/django-endless-pagination",
    "watchers": 150,
    "watchers_count": 150
}