{
    "libs": [
        "stat",
        "thread",
        "threading",
        "functools",
        "subprocess",
        "re",
        "sublime_plugin",
        "os",
        "sublime"
    ]
}