{
    "archive_url": "https://api.github.com/repos/jaybaird/python-bloomfilter/{archive_format}{/ref}",
    "assignees_url": "https://api.github.com/repos/jaybaird/python-bloomfilter/assignees{/user}",
    "blobs_url": "https://api.github.com/repos/jaybaird/python-bloomfilter/git/blobs{/sha}",
    "branches_url": "https://api.github.com/repos/jaybaird/python-bloomfilter/branches{/branch}",
    "clone_url": "https://github.com/jaybaird/python-bloomfilter.git",
    "collaborators_url": "https://api.github.com/repos/jaybaird/python-bloomfilter/collaborators{/collaborator}",
    "comments_url": "https://api.github.com/repos/jaybaird/python-bloomfilter/comments{/number}",
    "commits_url": "https://api.github.com/repos/jaybaird/python-bloomfilter/commits{/sha}",
    "compare_url": "https://api.github.com/repos/jaybaird/python-bloomfilter/compare/{base}...{head}",
    "contents_url": "https://api.github.com/repos/jaybaird/python-bloomfilter/contents/{+path}",
    "contributors_url": "https://api.github.com/repos/jaybaird/python-bloomfilter/contributors",
    "created_at": "2008-12-12T00:46:27Z",
    "default_branch": "master",
    "description": "Scalable Bloom Filter implemented in Python",
    "downloads_url": "https://api.github.com/repos/jaybaird/python-bloomfilter/downloads",
    "events_url": "https://api.github.com/repos/jaybaird/python-bloomfilter/events",
    "fork": false,
    "forks": 36,
    "forks_count": 36,
    "forks_url": "https://api.github.com/repos/jaybaird/python-bloomfilter/forks",
    "full_name": "jaybaird/python-bloomfilter",
    "git_commits_url": "https://api.github.com/repos/jaybaird/python-bloomfilter/git/commits{/sha}",
    "git_refs_url": "https://api.github.com/repos/jaybaird/python-bloomfilter/git/refs{/sha}",
    "git_tags_url": "https://api.github.com/repos/jaybaird/python-bloomfilter/git/tags{/sha}",
    "git_url": "git://github.com/jaybaird/python-bloomfilter.git",
    "has_downloads": true,
    "has_issues": true,
    "has_wiki": true,
    "homepage": "",
    "hooks_url": "https://api.github.com/repos/jaybaird/python-bloomfilter/hooks",
    "html_url": "https://github.com/jaybaird/python-bloomfilter",
    "id": 89242,
    "issue_comment_url": "https://api.github.com/repos/jaybaird/python-bloomfilter/issues/comments/{number}",
    "issue_events_url": "https://api.github.com/repos/jaybaird/python-bloomfilter/issues/events{/number}",
    "issues_url": "https://api.github.com/repos/jaybaird/python-bloomfilter/issues{/number}",
    "keys_url": "https://api.github.com/repos/jaybaird/python-bloomfilter/keys{/key_id}",
    "labels_url": "https://api.github.com/repos/jaybaird/python-bloomfilter/labels{/name}",
    "language": "Python",
    "languages_url": "https://api.github.com/repos/jaybaird/python-bloomfilter/languages",
    "merges_url": "https://api.github.com/repos/jaybaird/python-bloomfilter/merges",
    "milestones_url": "https://api.github.com/repos/jaybaird/python-bloomfilter/milestones{/number}",
    "mirror_url": null,
    "name": "python-bloomfilter",
    "notifications_url": "https://api.github.com/repos/jaybaird/python-bloomfilter/notifications{?since,all,participating}",
    "open_issues": 4,
    "open_issues_count": 4,
    "owner": {
        "avatar_url": "https://avatars.githubusercontent.com/u/38354?",
        "events_url": "https://api.github.com/users/jaybaird/events{/privacy}",
        "followers_url": "https://api.github.com/users/jaybaird/followers",
        "following_url": "https://api.github.com/users/jaybaird/following{/other_user}",
        "gists_url": "https://api.github.com/users/jaybaird/gists{/gist_id}",
        "gravatar_id": "3cf970040269519a7d9fc1707fa0bfff",
        "html_url": "https://github.com/jaybaird",
        "id": 38354,
        "login": "jaybaird",
        "organizations_url": "https://api.github.com/users/jaybaird/orgs",
        "received_events_url": "https://api.github.com/users/jaybaird/received_events",
        "repos_url": "https://api.github.com/users/jaybaird/repos",
        "site_admin": false,
        "starred_url": "https://api.github.com/users/jaybaird/starred{/owner}{/repo}",
        "subscriptions_url": "https://api.github.com/users/jaybaird/subscriptions",
        "type": "User",
        "url": "https://api.github.com/users/jaybaird"
    },
    "private": false,
    "pulls_url": "https://api.github.com/repos/jaybaird/python-bloomfilter/pulls{/number}",
    "pushed_at": "2013-07-11T00:47:53Z",
    "releases_url": "https://api.github.com/repos/jaybaird/python-bloomfilter/releases{/id}",
    "score": 1.0,
    "size": 344,
    "ssh_url": "git@github.com:jaybaird/python-bloomfilter.git",
    "stargazers_count": 256,
    "stargazers_url": "https://api.github.com/repos/jaybaird/python-bloomfilter/stargazers",
    "statuses_url": "https://api.github.com/repos/jaybaird/python-bloomfilter/statuses/{sha}",
    "subscribers_url": "https://api.github.com/repos/jaybaird/python-bloomfilter/subscribers",
    "subscription_url": "https://api.github.com/repos/jaybaird/python-bloomfilter/subscription",
    "svn_url": "https://github.com/jaybaird/python-bloomfilter",
    "tags_url": "https://api.github.com/repos/jaybaird/python-bloomfilter/tags",
    "teams_url": "https://api.github.com/repos/jaybaird/python-bloomfilter/teams",
    "trees_url": "https://api.github.com/repos/jaybaird/python-bloomfilter/git/trees{/sha}",
    "updated_at": "2014-04-24T13:14:36Z",
    "url": "https://api.github.com/repos/jaybaird/python-bloomfilter",
    "watchers": 256,
    "watchers_count": 256
}