[
    "cookies",
    "middleware.file",
    "pump.middleware.content_type",
    "wsgi",
    "pump.util",
    "nested_params",
    "static",
    "file",
    "pump.util.wsgi",
    "pump.adapters",
    "pump.middleware.session",
    "pump",
    "pump.util.codec",
    "params",
    "codec",
    "middleware.content_type",
    "util.wsgi",
    "pump.middleware.cookies",
    "middleware.params",
    "util.codec",
    "util",
    "content_type",
    "middleware.session",
    "pump.middleware.file",
    "response",
    "pump.middleware.params",
    "middleware.nested_params",
    "pump.util.response",
    "middleware.cookies",
    "middleware",
    "pump.middleware.nested_params",
    "session",
    "middleware.static",
    "pump.middleware.static",
    "pump.middleware",
    "adapters",
    "util.response"
]