{
    "archive_url": "https://api.github.com/repos/plivo/plivoframework/{archive_format}{/ref}",
    "assignees_url": "https://api.github.com/repos/plivo/plivoframework/assignees{/user}",
    "blobs_url": "https://api.github.com/repos/plivo/plivoframework/git/blobs{/sha}",
    "branches_url": "https://api.github.com/repos/plivo/plivoframework/branches{/branch}",
    "clone_url": "https://github.com/plivo/plivoframework.git",
    "collaborators_url": "https://api.github.com/repos/plivo/plivoframework/collaborators{/collaborator}",
    "comments_url": "https://api.github.com/repos/plivo/plivoframework/comments{/number}",
    "commits_url": "https://api.github.com/repos/plivo/plivoframework/commits{/sha}",
    "compare_url": "https://api.github.com/repos/plivo/plivoframework/compare/{base}...{head}",
    "contents_url": "https://api.github.com/repos/plivo/plivoframework/contents/{+path}",
    "contributors_url": "https://api.github.com/repos/plivo/plivoframework/contributors",
    "created_at": "2011-05-18T15:45:09Z",
    "default_branch": "master",
    "description": "Open Source Telephony Application Prototyping Framework",
    "downloads_url": "https://api.github.com/repos/plivo/plivoframework/downloads",
    "events_url": "https://api.github.com/repos/plivo/plivoframework/events",
    "fork": false,
    "forks": 88,
    "forks_count": 88,
    "forks_url": "https://api.github.com/repos/plivo/plivoframework/forks",
    "full_name": "plivo/plivoframework",
    "git_commits_url": "https://api.github.com/repos/plivo/plivoframework/git/commits{/sha}",
    "git_refs_url": "https://api.github.com/repos/plivo/plivoframework/git/refs{/sha}",
    "git_tags_url": "https://api.github.com/repos/plivo/plivoframework/git/tags{/sha}",
    "git_url": "git://github.com/plivo/plivoframework.git",
    "has_downloads": true,
    "has_issues": true,
    "has_wiki": true,
    "homepage": "http://www.plivo.com/open-source/",
    "hooks_url": "https://api.github.com/repos/plivo/plivoframework/hooks",
    "html_url": "https://github.com/plivo/plivoframework",
    "id": 1766718,
    "issue_comment_url": "https://api.github.com/repos/plivo/plivoframework/issues/comments/{number}",
    "issue_events_url": "https://api.github.com/repos/plivo/plivoframework/issues/events{/number}",
    "issues_url": "https://api.github.com/repos/plivo/plivoframework/issues{/number}",
    "keys_url": "https://api.github.com/repos/plivo/plivoframework/keys{/key_id}",
    "labels_url": "https://api.github.com/repos/plivo/plivoframework/labels{/name}",
    "language": "Python",
    "languages_url": "https://api.github.com/repos/plivo/plivoframework/languages",
    "merges_url": "https://api.github.com/repos/plivo/plivoframework/merges",
    "milestones_url": "https://api.github.com/repos/plivo/plivoframework/milestones{/number}",
    "mirror_url": null,
    "name": "plivoframework",
    "notifications_url": "https://api.github.com/repos/plivo/plivoframework/notifications{?since,all,participating}",
    "open_issues": 16,
    "open_issues_count": 16,
    "owner": {
        "avatar_url": "https://avatars.githubusercontent.com/u/795996?",
        "events_url": "https://api.github.com/users/plivo/events{/privacy}",
        "followers_url": "https://api.github.com/users/plivo/followers",
        "following_url": "https://api.github.com/users/plivo/following{/other_user}",
        "gists_url": "https://api.github.com/users/plivo/gists{/gist_id}",
        "gravatar_id": "7550ca3ae64a804c77468abf64a6955a",
        "html_url": "https://github.com/plivo",
        "id": 795996,
        "login": "plivo",
        "organizations_url": "https://api.github.com/users/plivo/orgs",
        "received_events_url": "https://api.github.com/users/plivo/received_events",
        "repos_url": "https://api.github.com/users/plivo/repos",
        "site_admin": false,
        "starred_url": "https://api.github.com/users/plivo/starred{/owner}{/repo}",
        "subscriptions_url": "https://api.github.com/users/plivo/subscriptions",
        "type": "Organization",
        "url": "https://api.github.com/users/plivo"
    },
    "private": false,
    "pulls_url": "https://api.github.com/repos/plivo/plivoframework/pulls{/number}",
    "pushed_at": "2014-03-10T08:32:14Z",
    "releases_url": "https://api.github.com/repos/plivo/plivoframework/releases{/id}",
    "score": 1.0,
    "size": 2135,
    "ssh_url": "git@github.com:plivo/plivoframework.git",
    "stargazers_count": 259,
    "stargazers_url": "https://api.github.com/repos/plivo/plivoframework/stargazers",
    "statuses_url": "https://api.github.com/repos/plivo/plivoframework/statuses/{sha}",
    "subscribers_url": "https://api.github.com/repos/plivo/plivoframework/subscribers",
    "subscription_url": "https://api.github.com/repos/plivo/plivoframework/subscription",
    "svn_url": "https://github.com/plivo/plivoframework",
    "tags_url": "https://api.github.com/repos/plivo/plivoframework/tags",
    "teams_url": "https://api.github.com/repos/plivo/plivoframework/teams",
    "trees_url": "https://api.github.com/repos/plivo/plivoframework/git/trees{/sha}",
    "updated_at": "2014-05-06T13:19:15Z",
    "url": "https://api.github.com/repos/plivo/plivoframework",
    "watchers": 259,
    "watchers_count": 259
}