{
    "archive_url": "https://api.github.com/repos/SublimeText/Tag/{archive_format}{/ref}",
    "assignees_url": "https://api.github.com/repos/SublimeText/Tag/assignees{/user}",
    "blobs_url": "https://api.github.com/repos/SublimeText/Tag/git/blobs{/sha}",
    "branches_url": "https://api.github.com/repos/SublimeText/Tag/branches{/branch}",
    "clone_url": "https://github.com/SublimeText/Tag.git",
    "collaborators_url": "https://api.github.com/repos/SublimeText/Tag/collaborators{/collaborator}",
    "comments_url": "https://api.github.com/repos/SublimeText/Tag/comments{/number}",
    "commits_url": "https://api.github.com/repos/SublimeText/Tag/commits{/sha}",
    "compare_url": "https://api.github.com/repos/SublimeText/Tag/compare/{base}...{head}",
    "contents_url": "https://api.github.com/repos/SublimeText/Tag/contents/{+path}",
    "contributors_url": "https://api.github.com/repos/SublimeText/Tag/contributors",
    "created_at": "2011-08-09T18:07:57Z",
    "default_branch": "st3",
    "description": "Collection of packages about HTML/XML tags.",
    "downloads_url": "https://api.github.com/repos/SublimeText/Tag/downloads",
    "events_url": "https://api.github.com/repos/SublimeText/Tag/events",
    "fork": false,
    "forks": 40,
    "forks_count": 40,
    "forks_url": "https://api.github.com/repos/SublimeText/Tag/forks",
    "full_name": "SublimeText/Tag",
    "git_commits_url": "https://api.github.com/repos/SublimeText/Tag/git/commits{/sha}",
    "git_refs_url": "https://api.github.com/repos/SublimeText/Tag/git/refs{/sha}",
    "git_tags_url": "https://api.github.com/repos/SublimeText/Tag/git/tags{/sha}",
    "git_url": "git://github.com/SublimeText/Tag.git",
    "has_downloads": true,
    "has_issues": true,
    "has_wiki": false,
    "homepage": "",
    "hooks_url": "https://api.github.com/repos/SublimeText/Tag/hooks",
    "html_url": "https://github.com/SublimeText/Tag",
    "id": 2180796,
    "issue_comment_url": "https://api.github.com/repos/SublimeText/Tag/issues/comments/{number}",
    "issue_events_url": "https://api.github.com/repos/SublimeText/Tag/issues/events{/number}",
    "issues_url": "https://api.github.com/repos/SublimeText/Tag/issues{/number}",
    "keys_url": "https://api.github.com/repos/SublimeText/Tag/keys{/key_id}",
    "labels_url": "https://api.github.com/repos/SublimeText/Tag/labels{/name}",
    "language": "Python",
    "languages_url": "https://api.github.com/repos/SublimeText/Tag/languages",
    "merges_url": "https://api.github.com/repos/SublimeText/Tag/merges",
    "milestones_url": "https://api.github.com/repos/SublimeText/Tag/milestones{/number}",
    "mirror_url": null,
    "name": "Tag",
    "notifications_url": "https://api.github.com/repos/SublimeText/Tag/notifications{?since,all,participating}",
    "open_issues": 4,
    "open_issues_count": 4,
    "owner": {
        "avatar_url": "https://avatars.githubusercontent.com/u/684879?",
        "events_url": "https://api.github.com/users/SublimeText/events{/privacy}",
        "followers_url": "https://api.github.com/users/SublimeText/followers",
        "following_url": "https://api.github.com/users/SublimeText/following{/other_user}",
        "gists_url": "https://api.github.com/users/SublimeText/gists{/gist_id}",
        "gravatar_id": "e050e5a2f8ee78a967c87e12e935e250",
        "html_url": "https://github.com/SublimeText",
        "id": 684879,
        "login": "SublimeText",
        "organizations_url": "https://api.github.com/users/SublimeText/orgs",
        "received_events_url": "https://api.github.com/users/SublimeText/received_events",
        "repos_url": "https://api.github.com/users/SublimeText/repos",
        "site_admin": false,
        "starred_url": "https://api.github.com/users/SublimeText/starred{/owner}{/repo}",
        "subscriptions_url": "https://api.github.com/users/SublimeText/subscriptions",
        "type": "Organization",
        "url": "https://api.github.com/users/SublimeText"
    },
    "private": false,
    "pulls_url": "https://api.github.com/repos/SublimeText/Tag/pulls{/number}",
    "pushed_at": "2014-02-07T11:21:02Z",
    "releases_url": "https://api.github.com/repos/SublimeText/Tag/releases{/id}",
    "score": 1.0,
    "size": 296,
    "ssh_url": "git@github.com:SublimeText/Tag.git",
    "stargazers_count": 263,
    "stargazers_url": "https://api.github.com/repos/SublimeText/Tag/stargazers",
    "statuses_url": "https://api.github.com/repos/SublimeText/Tag/statuses/{sha}",
    "subscribers_url": "https://api.github.com/repos/SublimeText/Tag/subscribers",
    "subscription_url": "https://api.github.com/repos/SublimeText/Tag/subscription",
    "svn_url": "https://github.com/SublimeText/Tag",
    "tags_url": "https://api.github.com/repos/SublimeText/Tag/tags",
    "teams_url": "https://api.github.com/repos/SublimeText/Tag/teams",
    "trees_url": "https://api.github.com/repos/SublimeText/Tag/git/trees{/sha}",
    "updated_at": "2014-05-06T17:03:27Z",
    "url": "https://api.github.com/repos/SublimeText/Tag",
    "watchers": 263,
    "watchers_count": 263
}