[
    "zcms.directives.navtree",
    "views",
    "models",
    "utils",
    "zcms.views",
    "blog_views",
    "navtree",
    "zcms.frs",
    "directives.news",
    "news",
    "directives.navtree",
    "nginx_conf",
    "directives.codeblock",
    "codeblock",
    "zcms.models",
    "directives.blogs",
    "zcms.directives",
    "zcms.utils",
    "zcms",
    "blogs",
    "zcms.directives.codeblock",
    "zcms.directives.blogs",
    "frs",
    "docker.nginx_conf",
    "directives",
    "zcms.directives.news",
    "zcms.blog_views",
    "docker"
]