{
    "archive_url": "https://api.github.com/repos/luispedro/BuildingMachineLearningSystemsWithPython/{archive_format}{/ref}",
    "assignees_url": "https://api.github.com/repos/luispedro/BuildingMachineLearningSystemsWithPython/assignees{/user}",
    "blobs_url": "https://api.github.com/repos/luispedro/BuildingMachineLearningSystemsWithPython/git/blobs{/sha}",
    "branches_url": "https://api.github.com/repos/luispedro/BuildingMachineLearningSystemsWithPython/branches{/branch}",
    "clone_url": "https://github.com/luispedro/BuildingMachineLearningSystemsWithPython.git",
    "collaborators_url": "https://api.github.com/repos/luispedro/BuildingMachineLearningSystemsWithPython/collaborators{/collaborator}",
    "comments_url": "https://api.github.com/repos/luispedro/BuildingMachineLearningSystemsWithPython/comments{/number}",
    "commits_url": "https://api.github.com/repos/luispedro/BuildingMachineLearningSystemsWithPython/commits{/sha}",
    "compare_url": "https://api.github.com/repos/luispedro/BuildingMachineLearningSystemsWithPython/compare/{base}...{head}",
    "contents_url": "https://api.github.com/repos/luispedro/BuildingMachineLearningSystemsWithPython/contents/{+path}",
    "contributors_url": "https://api.github.com/repos/luispedro/BuildingMachineLearningSystemsWithPython/contributors",
    "created_at": "2013-09-25T07:10:26Z",
    "default_branch": "master",
    "description": "Source Code for the book Machine Learning Systems with Python",
    "downloads_url": "https://api.github.com/repos/luispedro/BuildingMachineLearningSystemsWithPython/downloads",
    "events_url": "https://api.github.com/repos/luispedro/BuildingMachineLearningSystemsWithPython/events",
    "fork": false,
    "forks": 121,
    "forks_count": 121,
    "forks_url": "https://api.github.com/repos/luispedro/BuildingMachineLearningSystemsWithPython/forks",
    "full_name": "luispedro/BuildingMachineLearningSystemsWithPython",
    "git_commits_url": "https://api.github.com/repos/luispedro/BuildingMachineLearningSystemsWithPython/git/commits{/sha}",
    "git_refs_url": "https://api.github.com/repos/luispedro/BuildingMachineLearningSystemsWithPython/git/refs{/sha}",
    "git_tags_url": "https://api.github.com/repos/luispedro/BuildingMachineLearningSystemsWithPython/git/tags{/sha}",
    "git_url": "git://github.com/luispedro/BuildingMachineLearningSystemsWithPython.git",
    "has_downloads": true,
    "has_issues": true,
    "has_wiki": true,
    "homepage": "http://www.packtpub.com/building-machine-learning-systems-with-python/book",
    "hooks_url": "https://api.github.com/repos/luispedro/BuildingMachineLearningSystemsWithPython/hooks",
    "html_url": "https://github.com/luispedro/BuildingMachineLearningSystemsWithPython",
    "id": 13086750,
    "issue_comment_url": "https://api.github.com/repos/luispedro/BuildingMachineLearningSystemsWithPython/issues/comments/{number}",
    "issue_events_url": "https://api.github.com/repos/luispedro/BuildingMachineLearningSystemsWithPython/issues/events{/number}",
    "issues_url": "https://api.github.com/repos/luispedro/BuildingMachineLearningSystemsWithPython/issues{/number}",
    "keys_url": "https://api.github.com/repos/luispedro/BuildingMachineLearningSystemsWithPython/keys{/key_id}",
    "labels_url": "https://api.github.com/repos/luispedro/BuildingMachineLearningSystemsWithPython/labels{/name}",
    "language": "Python",
    "languages_url": "https://api.github.com/repos/luispedro/BuildingMachineLearningSystemsWithPython/languages",
    "merges_url": "https://api.github.com/repos/luispedro/BuildingMachineLearningSystemsWithPython/merges",
    "milestones_url": "https://api.github.com/repos/luispedro/BuildingMachineLearningSystemsWithPython/milestones{/number}",
    "mirror_url": null,
    "name": "BuildingMachineLearningSystemsWithPython",
    "notifications_url": "https://api.github.com/repos/luispedro/BuildingMachineLearningSystemsWithPython/notifications{?since,all,participating}",
    "open_issues": 2,
    "open_issues_count": 2,
    "owner": {
        "avatar_url": "https://avatars.githubusercontent.com/u/79334?",
        "events_url": "https://api.github.com/users/luispedro/events{/privacy}",
        "followers_url": "https://api.github.com/users/luispedro/followers",
        "following_url": "https://api.github.com/users/luispedro/following{/other_user}",
        "gists_url": "https://api.github.com/users/luispedro/gists{/gist_id}",
        "gravatar_id": "9cf2d31c7d0354a055a19c15a94ca73c",
        "html_url": "https://github.com/luispedro",
        "id": 79334,
        "login": "luispedro",
        "organizations_url": "https://api.github.com/users/luispedro/orgs",
        "received_events_url": "https://api.github.com/users/luispedro/received_events",
        "repos_url": "https://api.github.com/users/luispedro/repos",
        "site_admin": false,
        "starred_url": "https://api.github.com/users/luispedro/starred{/owner}{/repo}",
        "subscriptions_url": "https://api.github.com/users/luispedro/subscriptions",
        "type": "User",
        "url": "https://api.github.com/users/luispedro"
    },
    "private": false,
    "pulls_url": "https://api.github.com/repos/luispedro/BuildingMachineLearningSystemsWithPython/pulls{/number}",
    "pushed_at": "2014-01-30T19:56:14Z",
    "releases_url": "https://api.github.com/repos/luispedro/BuildingMachineLearningSystemsWithPython/releases{/id}",
    "score": 1.0,
    "size": 140680,
    "ssh_url": "git@github.com:luispedro/BuildingMachineLearningSystemsWithPython.git",
    "stargazers_count": 749,
    "stargazers_url": "https://api.github.com/repos/luispedro/BuildingMachineLearningSystemsWithPython/stargazers",
    "statuses_url": "https://api.github.com/repos/luispedro/BuildingMachineLearningSystemsWithPython/statuses/{sha}",
    "subscribers_url": "https://api.github.com/repos/luispedro/BuildingMachineLearningSystemsWithPython/subscribers",
    "subscription_url": "https://api.github.com/repos/luispedro/BuildingMachineLearningSystemsWithPython/subscription",
    "svn_url": "https://github.com/luispedro/BuildingMachineLearningSystemsWithPython",
    "tags_url": "https://api.github.com/repos/luispedro/BuildingMachineLearningSystemsWithPython/tags",
    "teams_url": "https://api.github.com/repos/luispedro/BuildingMachineLearningSystemsWithPython/teams",
    "trees_url": "https://api.github.com/repos/luispedro/BuildingMachineLearningSystemsWithPython/git/trees{/sha}",
    "updated_at": "2014-05-06T18:37:08Z",
    "url": "https://api.github.com/repos/luispedro/BuildingMachineLearningSystemsWithPython",
    "watchers": 749,
    "watchers_count": 749
}