{
    "archive_url": "https://api.github.com/repos/knownsec/rtcp/{archive_format}{/ref}",
    "assignees_url": "https://api.github.com/repos/knownsec/rtcp/assignees{/user}",
    "blobs_url": "https://api.github.com/repos/knownsec/rtcp/git/blobs{/sha}",
    "branches_url": "https://api.github.com/repos/knownsec/rtcp/branches{/branch}",
    "clone_url": "https://github.com/knownsec/rtcp.git",
    "collaborators_url": "https://api.github.com/repos/knownsec/rtcp/collaborators{/collaborator}",
    "comments_url": "https://api.github.com/repos/knownsec/rtcp/comments{/number}",
    "commits_url": "https://api.github.com/repos/knownsec/rtcp/commits{/sha}",
    "compare_url": "https://api.github.com/repos/knownsec/rtcp/compare/{base}...{head}",
    "contents_url": "https://api.github.com/repos/knownsec/rtcp/contents/{+path}",
    "contributors_url": "https://api.github.com/repos/knownsec/rtcp/contributors",
    "created_at": "2012-02-24T06:07:17Z",
    "default_branch": "master",
    "description": "\u5229\u7528Python\u7684Socket\u7aef\u53e3\u8f6c\u53d1\uff0c\u7528\u4e8e\u8fdc\u7a0b\u7ef4\u62a4",
    "downloads_url": "https://api.github.com/repos/knownsec/rtcp/downloads",
    "events_url": "https://api.github.com/repos/knownsec/rtcp/events",
    "fork": false,
    "forks": 22,
    "forks_count": 22,
    "forks_url": "https://api.github.com/repos/knownsec/rtcp/forks",
    "full_name": "knownsec/rtcp",
    "git_commits_url": "https://api.github.com/repos/knownsec/rtcp/git/commits{/sha}",
    "git_refs_url": "https://api.github.com/repos/knownsec/rtcp/git/refs{/sha}",
    "git_tags_url": "https://api.github.com/repos/knownsec/rtcp/git/tags{/sha}",
    "git_url": "git://github.com/knownsec/rtcp.git",
    "has_downloads": true,
    "has_issues": true,
    "has_wiki": true,
    "homepage": "www.knownsec.com",
    "hooks_url": "https://api.github.com/repos/knownsec/rtcp/hooks",
    "html_url": "https://github.com/knownsec/rtcp",
    "id": 3533238,
    "issue_comment_url": "https://api.github.com/repos/knownsec/rtcp/issues/comments/{number}",
    "issue_events_url": "https://api.github.com/repos/knownsec/rtcp/issues/events{/number}",
    "issues_url": "https://api.github.com/repos/knownsec/rtcp/issues{/number}",
    "keys_url": "https://api.github.com/repos/knownsec/rtcp/keys{/key_id}",
    "labels_url": "https://api.github.com/repos/knownsec/rtcp/labels{/name}",
    "language": "Python",
    "languages_url": "https://api.github.com/repos/knownsec/rtcp/languages",
    "merges_url": "https://api.github.com/repos/knownsec/rtcp/merges",
    "milestones_url": "https://api.github.com/repos/knownsec/rtcp/milestones{/number}",
    "mirror_url": null,
    "name": "rtcp",
    "notifications_url": "https://api.github.com/repos/knownsec/rtcp/notifications{?since,all,participating}",
    "open_issues": 0,
    "open_issues_count": 0,
    "owner": {
        "avatar_url": "https://avatars.githubusercontent.com/u/1442423?",
        "events_url": "https://api.github.com/users/knownsec/events{/privacy}",
        "followers_url": "https://api.github.com/users/knownsec/followers",
        "following_url": "https://api.github.com/users/knownsec/following{/other_user}",
        "gists_url": "https://api.github.com/users/knownsec/gists{/gist_id}",
        "gravatar_id": "91a78bc6689a1ed69f85508ff029a967",
        "html_url": "https://github.com/knownsec",
        "id": 1442423,
        "login": "knownsec",
        "organizations_url": "https://api.github.com/users/knownsec/orgs",
        "received_events_url": "https://api.github.com/users/knownsec/received_events",
        "repos_url": "https://api.github.com/users/knownsec/repos",
        "site_admin": false,
        "starred_url": "https://api.github.com/users/knownsec/starred{/owner}{/repo}",
        "subscriptions_url": "https://api.github.com/users/knownsec/subscriptions",
        "type": "Organization",
        "url": "https://api.github.com/users/knownsec"
    },
    "private": false,
    "pulls_url": "https://api.github.com/repos/knownsec/rtcp/pulls{/number}",
    "pushed_at": "2012-02-25T12:09:15Z",
    "releases_url": "https://api.github.com/repos/knownsec/rtcp/releases{/id}",
    "score": 1.0,
    "size": 167,
    "ssh_url": "git@github.com:knownsec/rtcp.git",
    "stargazers_count": 46,
    "stargazers_url": "https://api.github.com/repos/knownsec/rtcp/stargazers",
    "statuses_url": "https://api.github.com/repos/knownsec/rtcp/statuses/{sha}",
    "subscribers_url": "https://api.github.com/repos/knownsec/rtcp/subscribers",
    "subscription_url": "https://api.github.com/repos/knownsec/rtcp/subscription",
    "svn_url": "https://github.com/knownsec/rtcp",
    "tags_url": "https://api.github.com/repos/knownsec/rtcp/tags",
    "teams_url": "https://api.github.com/repos/knownsec/rtcp/teams",
    "trees_url": "https://api.github.com/repos/knownsec/rtcp/git/trees{/sha}",
    "updated_at": "2014-05-06T04:46:19Z",
    "url": "https://api.github.com/repos/knownsec/rtcp",
    "watchers": 46,
    "watchers_count": 46
}