{
    "libs": [
        "management",
        "http",
        "shortcuts",
        "db",
        "functional",
        "modelsinspector",
        "datetime",
        "sys",
        "test",
        "client",
        "template",
        "contrib",
        "timezone",
        "translation",
        "copy",
        "os"
    ]
}