{
    "libs": [
        "StringIO",
        "unittest",
        "filepath",
        "textwrap",
        "__builtin__",
        "sys",
        "trial",
        "path",
        "os",
        "_"
    ]
}