[
    "dryapp.jinja2.sandbox",
    "lib.json",
    "visitor",
    "core.model",
    "decoder",
    "dbg",
    "yaml.reader",
    "session",
    "app.core.events",
    "yaml.representer",
    "styles.default",
    "dryapp.drydrop.lib.walker",
    "pygments.formatters._mapping",
    "dryapp.drydrop.app.models.settings",
    "jinja2.tests",
    "dryapp.pygments.styles",
    "dryapp.drydrop.app.controllers",
    "dryapp.yaml.scanner",
    "models.resource",
    "environment",
    "text",
    "nodes",
    "yaml.parser",
    "drydrop.app.meta.yaml_errors",
    "controllers.admin",
    "dryapp.jinja2.optimizer",
    "dryapp.drydrop.lib.nice_traceback",
    "helpers.cacher",
    "pygments.lexer",
    "compiler",
    "dryapp.drydrop.lib.json",
    "app.models.event",
    "dryapp.drydrop.app.controllers.admin",
    "resource",
    "app.core.vfs",
    "app.controllers.admin",
    "settings",
    "drydrop.app.meta.yaml_builder",
    "drydrop.lib.utils",
    "dryapp.jinja2.visitor",
    "lib.nice_traceback",
    "yaml.tokens",
    "dryapp.jinja2.defaults",
    "lexers.text",
    "defaults",
    "jinja2.exceptions",
    "dryapp.routes.mapper",
    "cacher",
    "appceptions",
    "dryapp.drydrop.app.core.model",
    "jinja2.parser",
    "drydrop.app.core.model",
    "dryapp.jinja2.loaders",
    "routes.base",
    "dryapp.drydrop.app.meta.yaml_object",
    "dryapp.yaml.serializer",
    "drydrop.lib.walker",
    "controllers.static",
    "lib.dbg",
    "dryapp.drydrop.app.helpers",
    "drydrop.app",
    "jinja2.defaults",
    "app.core.model",
    "app.meta",
    "dryapp.yaml.resolver",
    "dryapp.pygments.lexer",
    "dryapp.drydrop.app.models.event",
    "dryapp.jinja2.runtime",
    "jinja2.loaders",
    "pygments.plugin",
    "formatter",
    "_ipysupport",
    "routes.threadinglocal",
    "dryapp.drydrop.app.core.controller",
    "bccache",
    "simplejson.decoder",
    "pygments.lexers.text",
    "error",
    "representer",
    "dryapp.drydrop.lib.dbg",
    "dryapp.drydrop.app.helpers.buster",
    "jinja2.lexer",
    "dryapp.drydrop.app.meta.appinfo_errors",
    "emitter",
    "buster",
    "drydrop.app.controllers.admin",
    "plugin",
    "admin",
    "dryapp.jinja2._ipysupport",
    "yaml.loader",
    "cyaml",
    "helpers",
    "lexers._mapping",
    "drydrop.app.meta.server",
    "drydrop.lib",
    "dryapp.drydrop.app.meta.server",
    "app",
    "pygments.formatters.html",
    "loader",
    "pygments",
    "composer",
    "app.helpers.cacher",
    "drydrop.lib.json",
    "yaml.composer",
    "app.models",
    "routes.route",
    "drydrop.app.models.session",
    "dryapp.routes.base",
    "drydrop.app.meta.validation",
    "json",
    "meta.yaml_builder",
    "dryapp.drydrop.app.core",
    "meta.server",
    "parser",
    "dryapp.yaml.emitter",
    "drydrop",
    "dryapp.drydrop",
    "dryapp.pygments.lexers",
    "dryapp.yaml.representer",
    "dryapp.drydrop.app.meta.appinfo",
    "drydrop.app.models.resource",
    "controller",
    "jinja2.bccache",
    "lib.walker",
    "yaml.nodes",
    "dryapp.drydrop.app",
    "drydrop.app.core.controller",
    "dryapp.drydrop.lib.utils",
    "dryapp.jinja2.debug",
    "dryapp.drydrop.app.models.resource",
    "yaml.resolver",
    "dryapp.jinja2.compiler",
    "exceptions",
    "jinja_loaders",
    "dryapp.drydrop.app.meta.validation",
    "lib.utils",
    "dryapp.pygments.formatters",
    "models.event",
    "dryapp.yaml.tokens",
    "dryapp.jinja2.nodes",
    "drydrop.app.models.event",
    "lexers",
    "utils",
    "tests",
    "yaml.cyaml",
    "dryapp.yaml",
    "dryapp.pygments",
    "drydrop.app.controllers",
    "jinja2.utils",
    "dryapp.drydrop.app.core.appceptions",
    "dryapp.drydrop.lib.jinja_loaders",
    "filter",
    "pygments.util",
    "dumper",
    "html",
    "formatters.html",
    "core.appceptions",
    "dryapp.yaml.parser",
    "app.meta.yaml_listener",
    "events",
    "jinja2.nodes",
    "yaml_object",
    "yaml.dumper",
    "drydrop.app.models",
    "dryapp.drydrop_handler",
    "dryapp.jinja2.bccache",
    "app.models.settings",
    "dryapp.yaml.error",
    "drydrop.app.helpers.cacher",
    "pygments.formatter",
    "constants",
    "dryapp.pygments.filter",
    "runtime",
    "dryapp.pygments.plugin",
    "jinja2.visitor",
    "dryapp.drydrop.app.controllers.hook",
    "pygments.filter",
    "sandbox",
    "jinja2.optimizer",
    "model",
    "vfs",
    "meta.appinfo_errors",
    "app.controllers.static",
    "pygments.styles",
    "dryapp.drydrop.app.models.session",
    "drydrop.app.helpers.buster",
    "drydrop.app.core.appceptions",
    "jinja2.debug",
    "app.meta.validation",
    "filters",
    "app.core.controller",
    "lib.jinja_loaders",
    "style",
    "core.controller",
    "jinja2._ipysupport",
    "app.helpers.buster",
    "core.vfs",
    "yaml",
    "pygments.styles.default",
    "dryapp.jinja2.utils",
    "routes.mapper",
    "dryapp.simplejson",
    "threadinglocal",
    "styles",
    "dryapp.drydrop.app.meta.yaml_builder",
    "drydrop.lib.properties",
    "dryapp.jinja2.lexer",
    "dryapp.drydrop.app.core.events",
    "dryapp",
    "yaml.serializer",
    "jinja2",
    "resolver",
    "dryapp.yaml.loader",
    "app.controllers.welcome",
    "dryapp.pygments.scanner",
    "jinja2.constants",
    "dryapp.pygments.lexers._mapping",
    "app.meta.yaml_errors",
    "dryapp.yaml.nodes",
    "dryapp.pygments.styles.default",
    "drydrop.app.helpers",
    "server",
    "controllers",
    "token",
    "debug",
    "app.models.session",
    "dryapp.yaml.constructor",
    "dryapp.drydrop.app.meta.yaml_errors",
    "jinja2.sandbox",
    "dryapp.pygments.formatter",
    "dryapp.drydrop.app.controllers.static",
    "dryapp.yaml.dumper",
    "drydrop.app.models.settings",
    "dryapp.pygments.util",
    "meta",
    "static",
    "pygments.lexers._mapping",
    "event",
    "pygments.style",
    "dryapp.yaml.events",
    "meta.appinfo",
    "yaml.events",
    "drydrop.app.controllers.welcome",
    "yaml.emitter",
    "reader",
    "dryapp.yaml.reader",
    "meta.validation",
    "jinja2.compiler",
    "core",
    "appinfo",
    "jinja2.ext",
    "dryapp.simplejson.decoder",
    "dryapp.routes.middleware",
    "mapper",
    "dryapp.jinja2.tests",
    "yaml.constructor",
    "simplejson.scanner",
    "lib.properties",
    "app.meta.appinfo",
    "base",
    "meta.yaml_object",
    "jinja2.filters",
    "drydrop.app.meta.appinfo_errors",
    "properties",
    "app.meta.server",
    "route",
    "lexer",
    "formatters",
    "app.models.resource",
    "dryapp.simplejson.encoder",
    "constructor",
    "routes",
    "dryapp.routes.route",
    "dryapp.jinja2.parser",
    "drydrop.lib.jinja_loaders",
    "dryapp.drydrop.app.models",
    "app.core",
    "formatters._mapping",
    "dryapp.pygments.formatters._mapping",
    "dryapp.jinja2.exceptions",
    "drydrop.app.core.vfs",
    "meta.yaml_errors",
    "hook",
    "dryapp.jinja2.environment",
    "jinja2.runtime",
    "dryapp.jinja2",
    "dryapp.jinja2.constants",
    "pygments.token",
    "dryapp.yaml.cyaml",
    "loaders",
    "dryapp.drydrop.app.meta.yaml_listener",
    "drydrop.lib.nice_traceback",
    "appinfo_errors",
    "drydrop.app.meta.yaml_listener",
    "dryapp.yaml.composer",
    "dryapp.routes.threadinglocal",
    "dryapp.drydrop.app.controllers.welcome",
    "yaml.error",
    "dryapp.pygments.lexers.text",
    "dryapp.drydrop.app.meta",
    "models.session",
    "drydrop.app.meta",
    "drydrop.app.core",
    "_mapping",
    "pygments.formatters",
    "encoder",
    "tokens",
    "dryapp.drydrop.lib.properties",
    "app.controllers",
    "yaml_builder",
    "app.meta.yaml_builder",
    "default",
    "simplejson.encoder",
    "middleware",
    "jinja2.environment",
    "yaml.scanner",
    "app.controllers.hook",
    "app.meta.yaml_object",
    "helpers.buster",
    "dryapp.drydrop.app.core.vfs",
    "scanner",
    "controllers.hook",
    "meta.yaml_listener",
    "controllers.welcome",
    "routes.util",
    "nice_traceback",
    "drydrop.app.controllers.static",
    "dryapp.simplejson.scanner",
    "app.meta.appinfo_errors",
    "drydrop.app.meta.appinfo",
    "simplejson",
    "lib",
    "dryapp.jinja2.ext",
    "yaml_errors",
    "pygments.scanner",
    "dryapp.drydrop.app.helpers.cacher",
    "dryapp.pygments.formatters.html",
    "core.events",
    "dryapp.jinja2.filters",
    "drydrop.lib.dbg",
    "optimizer",
    "pygments.lexers",
    "models",
    "welcome",
    "drydrop.app.core.events",
    "dryapp.pygments.token",
    "dryapp.pygments.style",
    "dryapp.drydrop.lib",
    "yaml_listener",
    "dryapp.routes.util",
    "routes.middleware",
    "drydrop.app.controllers.hook",
    "app.core.appceptions",
    "drydrop_handler",
    "util",
    "dryapp.routes",
    "ext",
    "app.helpers",
    "models.settings",
    "drydrop.app.meta.yaml_object",
    "walker",
    "validation",
    "serializer"
]