[
    "bootstrap3.bootstrap",
    "wsgi",
    "bootstrap3.templatetags",
    "text",
    "manage",
    "renderers",
    "bootstrap3.text",
    "conf",
    "bootstrap3",
    "demo.forms",
    "bootstrap3.html",
    "demo.demo.wsgi",
    "forms",
    "html",
    "bootstrap3.tests",
    "demo.urls",
    "demo",
    "demo.demo",
    "templatetags.bootstrap3",
    "templates",
    "tests",
    "bootstrap3.templates",
    "views",
    "models",
    "docs",
    "bootstrap3.exceptions",
    "bootstrap3.components",
    "bootstrap3.models",
    "demo.views",
    "bootstrap3.renderers",
    "docs.conf",
    "demo.demo.views",
    "demo.demo.forms",
    "bootstrap3.forms",
    "demo.wsgi",
    "settings",
    "urls",
    "bootstrap",
    "templatetags",
    "demo.settings",
    "bootstrap3.templatetags.bootstrap3",
    "components",
    "demo.demo.settings",
    "exceptions",
    "testsettings",
    "demo.demo.urls",
    "demo.manage"
]