{
    "libs": [
        "lxml",
        "console",
        "template",
        "boto",
        "urllib2",
        "datetime",
        "re",
        "json",
        "api",
        "webbrowser",
        "key",
        "exceptions",
        "os"
    ]
}