{
    "archive_url": "https://api.github.com/repos/liut/imsto/{archive_format}{/ref}",
    "assignees_url": "https://api.github.com/repos/liut/imsto/assignees{/user}",
    "blobs_url": "https://api.github.com/repos/liut/imsto/git/blobs{/sha}",
    "branches_url": "https://api.github.com/repos/liut/imsto/branches{/branch}",
    "clone_url": "https://github.com/liut/imsto.git",
    "collaborators_url": "https://api.github.com/repos/liut/imsto/collaborators{/collaborator}",
    "comments_url": "https://api.github.com/repos/liut/imsto/comments{/number}",
    "commits_url": "https://api.github.com/repos/liut/imsto/commits{/sha}",
    "compare_url": "https://api.github.com/repos/liut/imsto/compare/{base}...{head}",
    "contents_url": "https://api.github.com/repos/liut/imsto/contents/{+path}",
    "contributors_url": "https://api.github.com/repos/liut/imsto/contributors",
    "created_at": "2010-12-14T02:43:05Z",
    "default_branch": "master",
    "description": "a little Image Storage [Obsoleted, see imsto-go]",
    "downloads_url": "https://api.github.com/repos/liut/imsto/downloads",
    "events_url": "https://api.github.com/repos/liut/imsto/events",
    "fork": false,
    "forks": 6,
    "forks_count": 6,
    "forks_url": "https://api.github.com/repos/liut/imsto/forks",
    "full_name": "liut/imsto",
    "git_commits_url": "https://api.github.com/repos/liut/imsto/git/commits{/sha}",
    "git_refs_url": "https://api.github.com/repos/liut/imsto/git/refs{/sha}",
    "git_tags_url": "https://api.github.com/repos/liut/imsto/git/tags{/sha}",
    "git_url": "git://github.com/liut/imsto.git",
    "has_downloads": true,
    "has_issues": true,
    "has_wiki": true,
    "homepage": "",
    "hooks_url": "https://api.github.com/repos/liut/imsto/hooks",
    "html_url": "https://github.com/liut/imsto",
    "id": 1166881,
    "issue_comment_url": "https://api.github.com/repos/liut/imsto/issues/comments/{number}",
    "issue_events_url": "https://api.github.com/repos/liut/imsto/issues/events{/number}",
    "issues_url": "https://api.github.com/repos/liut/imsto/issues{/number}",
    "keys_url": "https://api.github.com/repos/liut/imsto/keys{/key_id}",
    "labels_url": "https://api.github.com/repos/liut/imsto/labels{/name}",
    "language": "Python",
    "languages_url": "https://api.github.com/repos/liut/imsto/languages",
    "merges_url": "https://api.github.com/repos/liut/imsto/merges",
    "milestones_url": "https://api.github.com/repos/liut/imsto/milestones{/number}",
    "mirror_url": null,
    "name": "imsto",
    "notifications_url": "https://api.github.com/repos/liut/imsto/notifications{?since,all,participating}",
    "open_issues": 0,
    "open_issues_count": 0,
    "owner": {
        "avatar_url": "https://avatars.githubusercontent.com/u/114243?",
        "events_url": "https://api.github.com/users/liut/events{/privacy}",
        "followers_url": "https://api.github.com/users/liut/followers",
        "following_url": "https://api.github.com/users/liut/following{/other_user}",
        "gists_url": "https://api.github.com/users/liut/gists{/gist_id}",
        "gravatar_id": "6cfb3e10726633846813e9eceebfa696",
        "html_url": "https://github.com/liut",
        "id": 114243,
        "login": "liut",
        "organizations_url": "https://api.github.com/users/liut/orgs",
        "received_events_url": "https://api.github.com/users/liut/received_events",
        "repos_url": "https://api.github.com/users/liut/repos",
        "site_admin": false,
        "starred_url": "https://api.github.com/users/liut/starred{/owner}{/repo}",
        "subscriptions_url": "https://api.github.com/users/liut/subscriptions",
        "type": "User",
        "url": "https://api.github.com/users/liut"
    },
    "private": false,
    "pulls_url": "https://api.github.com/repos/liut/imsto/pulls{/number}",
    "pushed_at": "2013-10-18T08:48:42Z",
    "releases_url": "https://api.github.com/repos/liut/imsto/releases{/id}",
    "score": 1.0,
    "size": 526,
    "ssh_url": "git@github.com:liut/imsto.git",
    "stargazers_count": 76,
    "stargazers_url": "https://api.github.com/repos/liut/imsto/stargazers",
    "statuses_url": "https://api.github.com/repos/liut/imsto/statuses/{sha}",
    "subscribers_url": "https://api.github.com/repos/liut/imsto/subscribers",
    "subscription_url": "https://api.github.com/repos/liut/imsto/subscription",
    "svn_url": "https://github.com/liut/imsto",
    "tags_url": "https://api.github.com/repos/liut/imsto/tags",
    "teams_url": "https://api.github.com/repos/liut/imsto/teams",
    "trees_url": "https://api.github.com/repos/liut/imsto/git/trees{/sha}",
    "updated_at": "2014-01-08T07:29:03Z",
    "url": "https://api.github.com/repos/liut/imsto",
    "watchers": 76,
    "watchers_count": 76
}