[
    "potr.proto",
    "convertkey",
    "utils",
    "potr.crypt",
    "potr.compatcrypto",
    "src.potr.crypt",
    "src.potr.context",
    "tools",
    "potr.context",
    "src.potr.proto",
    "proto",
    "compatcrypto",
    "src.potr.compatcrypto.pycrypto",
    "tools.convertkey",
    "potr",
    "tests",
    "compatcrypto.pycrypto",
    "potr.compatcrypto.pycrypto",
    "src.tools.convertkey",
    "potr.compatcrypto.common",
    "src.potr.compatcrypto",
    "potr.utils",
    "compatcrypto.common",
    "src.tools",
    "tests.testBasic",
    "src.potr",
    "src.potr.utils",
    "src",
    "pycrypto",
    "tests.testCommunicate",
    "src.potr.compatcrypto.common",
    "common",
    "context",
    "crypt",
    "testCommunicate",
    "testBasic"
]