{
    "archive_url": "https://api.github.com/repos/tillig/SublimeMSBuild/{archive_format}{/ref}",
    "assignees_url": "https://api.github.com/repos/tillig/SublimeMSBuild/assignees{/user}",
    "blobs_url": "https://api.github.com/repos/tillig/SublimeMSBuild/git/blobs{/sha}",
    "branches_url": "https://api.github.com/repos/tillig/SublimeMSBuild/branches{/branch}",
    "clone_url": "https://github.com/tillig/SublimeMSBuild.git",
    "collaborators_url": "https://api.github.com/repos/tillig/SublimeMSBuild/collaborators{/collaborator}",
    "comments_url": "https://api.github.com/repos/tillig/SublimeMSBuild/comments{/number}",
    "commits_url": "https://api.github.com/repos/tillig/SublimeMSBuild/commits{/sha}",
    "compare_url": "https://api.github.com/repos/tillig/SublimeMSBuild/compare/{base}...{head}",
    "contents_url": "https://api.github.com/repos/tillig/SublimeMSBuild/contents/{+path}",
    "contributors_url": "https://api.github.com/repos/tillig/SublimeMSBuild/contributors",
    "created_at": "2012-06-04T16:54:55Z",
    "default_branch": "master",
    "description": "Sublime Text package for editing and executing MSBuild scripts.",
    "downloads_url": "https://api.github.com/repos/tillig/SublimeMSBuild/downloads",
    "events_url": "https://api.github.com/repos/tillig/SublimeMSBuild/events",
    "fork": false,
    "forks": 6,
    "forks_count": 6,
    "forks_url": "https://api.github.com/repos/tillig/SublimeMSBuild/forks",
    "full_name": "tillig/SublimeMSBuild",
    "git_commits_url": "https://api.github.com/repos/tillig/SublimeMSBuild/git/commits{/sha}",
    "git_refs_url": "https://api.github.com/repos/tillig/SublimeMSBuild/git/refs{/sha}",
    "git_tags_url": "https://api.github.com/repos/tillig/SublimeMSBuild/git/tags{/sha}",
    "git_url": "git://github.com/tillig/SublimeMSBuild.git",
    "has_downloads": true,
    "has_issues": true,
    "has_wiki": true,
    "homepage": "",
    "hooks_url": "https://api.github.com/repos/tillig/SublimeMSBuild/hooks",
    "html_url": "https://github.com/tillig/SublimeMSBuild",
    "id": 4549668,
    "issue_comment_url": "https://api.github.com/repos/tillig/SublimeMSBuild/issues/comments/{number}",
    "issue_events_url": "https://api.github.com/repos/tillig/SublimeMSBuild/issues/events{/number}",
    "issues_url": "https://api.github.com/repos/tillig/SublimeMSBuild/issues{/number}",
    "keys_url": "https://api.github.com/repos/tillig/SublimeMSBuild/keys{/key_id}",
    "labels_url": "https://api.github.com/repos/tillig/SublimeMSBuild/labels{/name}",
    "language": "Python",
    "languages_url": "https://api.github.com/repos/tillig/SublimeMSBuild/languages",
    "merges_url": "https://api.github.com/repos/tillig/SublimeMSBuild/merges",
    "milestones_url": "https://api.github.com/repos/tillig/SublimeMSBuild/milestones{/number}",
    "mirror_url": null,
    "name": "SublimeMSBuild",
    "notifications_url": "https://api.github.com/repos/tillig/SublimeMSBuild/notifications{?since,all,participating}",
    "open_issues": 0,
    "open_issues_count": 0,
    "owner": {
        "avatar_url": "https://avatars.githubusercontent.com/u/1156571?",
        "events_url": "https://api.github.com/users/tillig/events{/privacy}",
        "followers_url": "https://api.github.com/users/tillig/followers",
        "following_url": "https://api.github.com/users/tillig/following{/other_user}",
        "gists_url": "https://api.github.com/users/tillig/gists{/gist_id}",
        "gravatar_id": "5b473ad19f5781cd5f17a65a670f3b37",
        "html_url": "https://github.com/tillig",
        "id": 1156571,
        "login": "tillig",
        "organizations_url": "https://api.github.com/users/tillig/orgs",
        "received_events_url": "https://api.github.com/users/tillig/received_events",
        "repos_url": "https://api.github.com/users/tillig/repos",
        "site_admin": false,
        "starred_url": "https://api.github.com/users/tillig/starred{/owner}{/repo}",
        "subscriptions_url": "https://api.github.com/users/tillig/subscriptions",
        "type": "User",
        "url": "https://api.github.com/users/tillig"
    },
    "private": false,
    "pulls_url": "https://api.github.com/repos/tillig/SublimeMSBuild/pulls{/number}",
    "pushed_at": "2014-01-29T00:19:44Z",
    "releases_url": "https://api.github.com/repos/tillig/SublimeMSBuild/releases{/id}",
    "score": 1.0,
    "size": 481,
    "ssh_url": "git@github.com:tillig/SublimeMSBuild.git",
    "stargazers_count": 67,
    "stargazers_url": "https://api.github.com/repos/tillig/SublimeMSBuild/stargazers",
    "statuses_url": "https://api.github.com/repos/tillig/SublimeMSBuild/statuses/{sha}",
    "subscribers_url": "https://api.github.com/repos/tillig/SublimeMSBuild/subscribers",
    "subscription_url": "https://api.github.com/repos/tillig/SublimeMSBuild/subscription",
    "svn_url": "https://github.com/tillig/SublimeMSBuild",
    "tags_url": "https://api.github.com/repos/tillig/SublimeMSBuild/tags",
    "teams_url": "https://api.github.com/repos/tillig/SublimeMSBuild/teams",
    "trees_url": "https://api.github.com/repos/tillig/SublimeMSBuild/git/trees{/sha}",
    "updated_at": "2014-01-29T00:19:45Z",
    "url": "https://api.github.com/repos/tillig/SublimeMSBuild",
    "watchers": 67,
    "watchers_count": 67
}