{
    "archive_url": "https://api.github.com/repos/mikeknapp/AppEngine-OAuth-Library/{archive_format}{/ref}",
    "assignees_url": "https://api.github.com/repos/mikeknapp/AppEngine-OAuth-Library/assignees{/user}",
    "blobs_url": "https://api.github.com/repos/mikeknapp/AppEngine-OAuth-Library/git/blobs{/sha}",
    "branches_url": "https://api.github.com/repos/mikeknapp/AppEngine-OAuth-Library/branches{/branch}",
    "clone_url": "https://github.com/mikeknapp/AppEngine-OAuth-Library.git",
    "collaborators_url": "https://api.github.com/repos/mikeknapp/AppEngine-OAuth-Library/collaborators{/collaborator}",
    "comments_url": "https://api.github.com/repos/mikeknapp/AppEngine-OAuth-Library/comments{/number}",
    "commits_url": "https://api.github.com/repos/mikeknapp/AppEngine-OAuth-Library/commits{/sha}",
    "compare_url": "https://api.github.com/repos/mikeknapp/AppEngine-OAuth-Library/compare/{base}...{head}",
    "contents_url": "https://api.github.com/repos/mikeknapp/AppEngine-OAuth-Library/contents/{+path}",
    "contributors_url": "https://api.github.com/repos/mikeknapp/AppEngine-OAuth-Library/contributors",
    "created_at": "2009-07-10T11:04:32Z",
    "default_branch": "master",
    "description": "An OAuth library for interacting with Twitter, MySpace, LinkedIn and Yahoo on AppEngine",
    "downloads_url": "https://api.github.com/repos/mikeknapp/AppEngine-OAuth-Library/downloads",
    "events_url": "https://api.github.com/repos/mikeknapp/AppEngine-OAuth-Library/events",
    "fork": false,
    "forks": 75,
    "forks_count": 75,
    "forks_url": "https://api.github.com/repos/mikeknapp/AppEngine-OAuth-Library/forks",
    "full_name": "mikeknapp/AppEngine-OAuth-Library",
    "git_commits_url": "https://api.github.com/repos/mikeknapp/AppEngine-OAuth-Library/git/commits{/sha}",
    "git_refs_url": "https://api.github.com/repos/mikeknapp/AppEngine-OAuth-Library/git/refs{/sha}",
    "git_tags_url": "https://api.github.com/repos/mikeknapp/AppEngine-OAuth-Library/git/tags{/sha}",
    "git_url": "git://github.com/mikeknapp/AppEngine-OAuth-Library.git",
    "has_downloads": true,
    "has_issues": true,
    "has_wiki": true,
    "homepage": "",
    "hooks_url": "https://api.github.com/repos/mikeknapp/AppEngine-OAuth-Library/hooks",
    "html_url": "https://github.com/mikeknapp/AppEngine-OAuth-Library",
    "id": 247926,
    "issue_comment_url": "https://api.github.com/repos/mikeknapp/AppEngine-OAuth-Library/issues/comments/{number}",
    "issue_events_url": "https://api.github.com/repos/mikeknapp/AppEngine-OAuth-Library/issues/events{/number}",
    "issues_url": "https://api.github.com/repos/mikeknapp/AppEngine-OAuth-Library/issues{/number}",
    "keys_url": "https://api.github.com/repos/mikeknapp/AppEngine-OAuth-Library/keys{/key_id}",
    "labels_url": "https://api.github.com/repos/mikeknapp/AppEngine-OAuth-Library/labels{/name}",
    "language": "Python",
    "languages_url": "https://api.github.com/repos/mikeknapp/AppEngine-OAuth-Library/languages",
    "merges_url": "https://api.github.com/repos/mikeknapp/AppEngine-OAuth-Library/merges",
    "milestones_url": "https://api.github.com/repos/mikeknapp/AppEngine-OAuth-Library/milestones{/number}",
    "mirror_url": null,
    "name": "AppEngine-OAuth-Library",
    "notifications_url": "https://api.github.com/repos/mikeknapp/AppEngine-OAuth-Library/notifications{?since,all,participating}",
    "open_issues": 1,
    "open_issues_count": 1,
    "owner": {
        "avatar_url": "https://avatars.githubusercontent.com/u/103593?",
        "events_url": "https://api.github.com/users/mikeknapp/events{/privacy}",
        "followers_url": "https://api.github.com/users/mikeknapp/followers",
        "following_url": "https://api.github.com/users/mikeknapp/following{/other_user}",
        "gists_url": "https://api.github.com/users/mikeknapp/gists{/gist_id}",
        "gravatar_id": "41f7659d85a8a9625d2b9eb1aa95ced8",
        "html_url": "https://github.com/mikeknapp",
        "id": 103593,
        "login": "mikeknapp",
        "organizations_url": "https://api.github.com/users/mikeknapp/orgs",
        "received_events_url": "https://api.github.com/users/mikeknapp/received_events",
        "repos_url": "https://api.github.com/users/mikeknapp/repos",
        "site_admin": false,
        "starred_url": "https://api.github.com/users/mikeknapp/starred{/owner}{/repo}",
        "subscriptions_url": "https://api.github.com/users/mikeknapp/subscriptions",
        "type": "User",
        "url": "https://api.github.com/users/mikeknapp"
    },
    "private": false,
    "pulls_url": "https://api.github.com/repos/mikeknapp/AppEngine-OAuth-Library/pulls{/number}",
    "pushed_at": "2014-03-19T17:19:49Z",
    "releases_url": "https://api.github.com/repos/mikeknapp/AppEngine-OAuth-Library/releases{/id}",
    "score": 1.0,
    "size": 170,
    "ssh_url": "git@github.com:mikeknapp/AppEngine-OAuth-Library.git",
    "stargazers_count": 252,
    "stargazers_url": "https://api.github.com/repos/mikeknapp/AppEngine-OAuth-Library/stargazers",
    "statuses_url": "https://api.github.com/repos/mikeknapp/AppEngine-OAuth-Library/statuses/{sha}",
    "subscribers_url": "https://api.github.com/repos/mikeknapp/AppEngine-OAuth-Library/subscribers",
    "subscription_url": "https://api.github.com/repos/mikeknapp/AppEngine-OAuth-Library/subscription",
    "svn_url": "https://github.com/mikeknapp/AppEngine-OAuth-Library",
    "tags_url": "https://api.github.com/repos/mikeknapp/AppEngine-OAuth-Library/tags",
    "teams_url": "https://api.github.com/repos/mikeknapp/AppEngine-OAuth-Library/teams",
    "trees_url": "https://api.github.com/repos/mikeknapp/AppEngine-OAuth-Library/git/trees{/sha}",
    "updated_at": "2014-05-05T23:50:51Z",
    "url": "https://api.github.com/repos/mikeknapp/AppEngine-OAuth-Library",
    "watchers": 252,
    "watchers_count": 252
}