{
    "archive_url": "https://api.github.com/repos/initpy/go-book/{archive_format}{/ref}",
    "assignees_url": "https://api.github.com/repos/initpy/go-book/assignees{/user}",
    "blobs_url": "https://api.github.com/repos/initpy/go-book/git/blobs{/sha}",
    "branches_url": "https://api.github.com/repos/initpy/go-book/branches{/branch}",
    "clone_url": "https://github.com/initpy/go-book.git",
    "collaborators_url": "https://api.github.com/repos/initpy/go-book/collaborators{/collaborator}",
    "comments_url": "https://api.github.com/repos/initpy/go-book/comments{/number}",
    "commits_url": "https://api.github.com/repos/initpy/go-book/commits{/sha}",
    "compare_url": "https://api.github.com/repos/initpy/go-book/compare/{base}...{head}",
    "contents_url": "https://api.github.com/repos/initpy/go-book/contents/{+path}",
    "contributors_url": "https://api.github.com/repos/initpy/go-book/contributors",
    "created_at": "2011-12-13T20:54:04Z",
    "default_branch": "master",
    "description": "A book for learning the Go Programming Language",
    "downloads_url": "https://api.github.com/repos/initpy/go-book/downloads",
    "events_url": "https://api.github.com/repos/initpy/go-book/events",
    "fork": false,
    "forks": 15,
    "forks_count": 15,
    "forks_url": "https://api.github.com/repos/initpy/go-book/forks",
    "full_name": "initpy/go-book",
    "git_commits_url": "https://api.github.com/repos/initpy/go-book/git/commits{/sha}",
    "git_refs_url": "https://api.github.com/repos/initpy/go-book/git/refs{/sha}",
    "git_tags_url": "https://api.github.com/repos/initpy/go-book/git/tags{/sha}",
    "git_url": "git://github.com/initpy/go-book.git",
    "has_downloads": true,
    "has_issues": true,
    "has_wiki": true,
    "homepage": "http://go-book.appspot.com/",
    "hooks_url": "https://api.github.com/repos/initpy/go-book/hooks",
    "html_url": "https://github.com/initpy/go-book",
    "id": 2975273,
    "issue_comment_url": "https://api.github.com/repos/initpy/go-book/issues/comments/{number}",
    "issue_events_url": "https://api.github.com/repos/initpy/go-book/issues/events{/number}",
    "issues_url": "https://api.github.com/repos/initpy/go-book/issues{/number}",
    "keys_url": "https://api.github.com/repos/initpy/go-book/keys{/key_id}",
    "labels_url": "https://api.github.com/repos/initpy/go-book/labels{/name}",
    "language": "Python",
    "languages_url": "https://api.github.com/repos/initpy/go-book/languages",
    "merges_url": "https://api.github.com/repos/initpy/go-book/merges",
    "milestones_url": "https://api.github.com/repos/initpy/go-book/milestones{/number}",
    "mirror_url": null,
    "name": "go-book",
    "notifications_url": "https://api.github.com/repos/initpy/go-book/notifications{?since,all,participating}",
    "open_issues": 13,
    "open_issues_count": 13,
    "owner": {
        "avatar_url": "https://avatars.githubusercontent.com/u/496959?",
        "events_url": "https://api.github.com/users/initpy/events{/privacy}",
        "followers_url": "https://api.github.com/users/initpy/followers",
        "following_url": "https://api.github.com/users/initpy/following{/other_user}",
        "gists_url": "https://api.github.com/users/initpy/gists{/gist_id}",
        "gravatar_id": "dbc01616c8b12b6d8d98aa03d177af13",
        "html_url": "https://github.com/initpy",
        "id": 496959,
        "login": "initpy",
        "organizations_url": "https://api.github.com/users/initpy/orgs",
        "received_events_url": "https://api.github.com/users/initpy/received_events",
        "repos_url": "https://api.github.com/users/initpy/repos",
        "site_admin": false,
        "starred_url": "https://api.github.com/users/initpy/starred{/owner}{/repo}",
        "subscriptions_url": "https://api.github.com/users/initpy/subscriptions",
        "type": "User",
        "url": "https://api.github.com/users/initpy"
    },
    "private": false,
    "pulls_url": "https://api.github.com/repos/initpy/go-book/pulls{/number}",
    "pushed_at": "2012-11-27T17:39:19Z",
    "releases_url": "https://api.github.com/repos/initpy/go-book/releases{/id}",
    "score": 1.0,
    "size": 291,
    "ssh_url": "git@github.com:initpy/go-book.git",
    "stargazers_count": 50,
    "stargazers_url": "https://api.github.com/repos/initpy/go-book/stargazers",
    "statuses_url": "https://api.github.com/repos/initpy/go-book/statuses/{sha}",
    "subscribers_url": "https://api.github.com/repos/initpy/go-book/subscribers",
    "subscription_url": "https://api.github.com/repos/initpy/go-book/subscription",
    "svn_url": "https://github.com/initpy/go-book",
    "tags_url": "https://api.github.com/repos/initpy/go-book/tags",
    "teams_url": "https://api.github.com/repos/initpy/go-book/teams",
    "trees_url": "https://api.github.com/repos/initpy/go-book/git/trees{/sha}",
    "updated_at": "2014-01-12T03:00:03Z",
    "url": "https://api.github.com/repos/initpy/go-book",
    "watchers": 50,
    "watchers_count": 50
}