{
    "libs": [
        "random",
        "os",
        "tempfile",
        "numpy",
        "decimal",
        "six",
        "zipfile",
        "datetime",
        "sys",
        "moves",
        "jinja2",
        "nose",
        "saxutils",
        "time",
        "workbook",
        "xlrd",
        "shutil",
        "tools",
        "openpyxl"
    ]
}