{
    "archive_url": "https://api.github.com/repos/numenta/nupic/{archive_format}{/ref}",
    "assignees_url": "https://api.github.com/repos/numenta/nupic/assignees{/user}",
    "blobs_url": "https://api.github.com/repos/numenta/nupic/git/blobs{/sha}",
    "branches_url": "https://api.github.com/repos/numenta/nupic/branches{/branch}",
    "clone_url": "https://github.com/numenta/nupic.git",
    "collaborators_url": "https://api.github.com/repos/numenta/nupic/collaborators{/collaborator}",
    "comments_url": "https://api.github.com/repos/numenta/nupic/comments{/number}",
    "commits_url": "https://api.github.com/repos/numenta/nupic/commits{/sha}",
    "compare_url": "https://api.github.com/repos/numenta/nupic/compare/{base}...{head}",
    "contents_url": "https://api.github.com/repos/numenta/nupic/contents/{+path}",
    "contributors_url": "https://api.github.com/repos/numenta/nupic/contributors",
    "created_at": "2013-04-05T23:14:27Z",
    "default_branch": "master",
    "description": "Numenta Platform for Intelligent Computing: a brain-inspired machine intelligence platform, and biologically accurate neural network based on cortical learning algorithms.",
    "downloads_url": "https://api.github.com/repos/numenta/nupic/downloads",
    "events_url": "https://api.github.com/repos/numenta/nupic/events",
    "fork": false,
    "forks": 410,
    "forks_count": 410,
    "forks_url": "https://api.github.com/repos/numenta/nupic/forks",
    "full_name": "numenta/nupic",
    "git_commits_url": "https://api.github.com/repos/numenta/nupic/git/commits{/sha}",
    "git_refs_url": "https://api.github.com/repos/numenta/nupic/git/refs{/sha}",
    "git_tags_url": "https://api.github.com/repos/numenta/nupic/git/tags{/sha}",
    "git_url": "git://github.com/numenta/nupic.git",
    "has_downloads": true,
    "has_issues": true,
    "has_wiki": true,
    "homepage": "http://numenta.org/",
    "hooks_url": "https://api.github.com/repos/numenta/nupic/hooks",
    "html_url": "https://github.com/numenta/nupic",
    "id": 9252533,
    "issue_comment_url": "https://api.github.com/repos/numenta/nupic/issues/comments/{number}",
    "issue_events_url": "https://api.github.com/repos/numenta/nupic/issues/events{/number}",
    "issues_url": "https://api.github.com/repos/numenta/nupic/issues{/number}",
    "keys_url": "https://api.github.com/repos/numenta/nupic/keys{/key_id}",
    "labels_url": "https://api.github.com/repos/numenta/nupic/labels{/name}",
    "language": "Python",
    "languages_url": "https://api.github.com/repos/numenta/nupic/languages",
    "merges_url": "https://api.github.com/repos/numenta/nupic/merges",
    "milestones_url": "https://api.github.com/repos/numenta/nupic/milestones{/number}",
    "mirror_url": null,
    "name": "nupic",
    "notifications_url": "https://api.github.com/repos/numenta/nupic/notifications{?since,all,participating}",
    "open_issues": 164,
    "open_issues_count": 164,
    "owner": {
        "avatar_url": "https://avatars.githubusercontent.com/u/1039191?",
        "events_url": "https://api.github.com/users/numenta/events{/privacy}",
        "followers_url": "https://api.github.com/users/numenta/followers",
        "following_url": "https://api.github.com/users/numenta/following{/other_user}",
        "gists_url": "https://api.github.com/users/numenta/gists{/gist_id}",
        "gravatar_id": "faac04630eba5ec1aeda8bcbca3ff018",
        "html_url": "https://github.com/numenta",
        "id": 1039191,
        "login": "numenta",
        "organizations_url": "https://api.github.com/users/numenta/orgs",
        "received_events_url": "https://api.github.com/users/numenta/received_events",
        "repos_url": "https://api.github.com/users/numenta/repos",
        "site_admin": false,
        "starred_url": "https://api.github.com/users/numenta/starred{/owner}{/repo}",
        "subscriptions_url": "https://api.github.com/users/numenta/subscriptions",
        "type": "Organization",
        "url": "https://api.github.com/users/numenta"
    },
    "private": false,
    "pulls_url": "https://api.github.com/repos/numenta/nupic/pulls{/number}",
    "pushed_at": "2014-05-05T17:45:20Z",
    "releases_url": "https://api.github.com/repos/numenta/nupic/releases{/id}",
    "score": 1.0,
    "size": 261158,
    "ssh_url": "git@github.com:numenta/nupic.git",
    "stargazers_count": 1416,
    "stargazers_url": "https://api.github.com/repos/numenta/nupic/stargazers",
    "statuses_url": "https://api.github.com/repos/numenta/nupic/statuses/{sha}",
    "subscribers_url": "https://api.github.com/repos/numenta/nupic/subscribers",
    "subscription_url": "https://api.github.com/repos/numenta/nupic/subscription",
    "svn_url": "https://github.com/numenta/nupic",
    "tags_url": "https://api.github.com/repos/numenta/nupic/tags",
    "teams_url": "https://api.github.com/repos/numenta/nupic/teams",
    "trees_url": "https://api.github.com/repos/numenta/nupic/git/trees{/sha}",
    "updated_at": "2014-05-06T23:42:00Z",
    "url": "https://api.github.com/repos/numenta/nupic",
    "watchers": 1416,
    "watchers_count": 1416
}