{
    "archive_url": "https://api.github.com/repos/alex/pyvcs/{archive_format}{/ref}",
    "assignees_url": "https://api.github.com/repos/alex/pyvcs/assignees{/user}",
    "blobs_url": "https://api.github.com/repos/alex/pyvcs/git/blobs{/sha}",
    "branches_url": "https://api.github.com/repos/alex/pyvcs/branches{/branch}",
    "clone_url": "https://github.com/alex/pyvcs.git",
    "collaborators_url": "https://api.github.com/repos/alex/pyvcs/collaborators{/collaborator}",
    "comments_url": "https://api.github.com/repos/alex/pyvcs/comments{/number}",
    "commits_url": "https://api.github.com/repos/alex/pyvcs/commits{/sha}",
    "compare_url": "https://api.github.com/repos/alex/pyvcs/compare/{base}...{head}",
    "contents_url": "https://api.github.com/repos/alex/pyvcs/contents/{+path}",
    "contributors_url": "https://api.github.com/repos/alex/pyvcs/contributors",
    "created_at": "2009-07-02T02:34:52Z",
    "default_branch": "master",
    "description": "A pure python abstraction layer of multiple VCS, very lightweight.",
    "downloads_url": "https://api.github.com/repos/alex/pyvcs/downloads",
    "events_url": "https://api.github.com/repos/alex/pyvcs/events",
    "fork": false,
    "forks": 12,
    "forks_count": 12,
    "forks_url": "https://api.github.com/repos/alex/pyvcs/forks",
    "full_name": "alex/pyvcs",
    "git_commits_url": "https://api.github.com/repos/alex/pyvcs/git/commits{/sha}",
    "git_refs_url": "https://api.github.com/repos/alex/pyvcs/git/refs{/sha}",
    "git_tags_url": "https://api.github.com/repos/alex/pyvcs/git/tags{/sha}",
    "git_url": "git://github.com/alex/pyvcs.git",
    "has_downloads": true,
    "has_issues": true,
    "has_wiki": true,
    "homepage": "",
    "hooks_url": "https://api.github.com/repos/alex/pyvcs/hooks",
    "html_url": "https://github.com/alex/pyvcs",
    "id": 241232,
    "issue_comment_url": "https://api.github.com/repos/alex/pyvcs/issues/comments/{number}",
    "issue_events_url": "https://api.github.com/repos/alex/pyvcs/issues/events{/number}",
    "issues_url": "https://api.github.com/repos/alex/pyvcs/issues{/number}",
    "keys_url": "https://api.github.com/repos/alex/pyvcs/keys{/key_id}",
    "labels_url": "https://api.github.com/repos/alex/pyvcs/labels{/name}",
    "language": "Python",
    "languages_url": "https://api.github.com/repos/alex/pyvcs/languages",
    "merges_url": "https://api.github.com/repos/alex/pyvcs/merges",
    "milestones_url": "https://api.github.com/repos/alex/pyvcs/milestones{/number}",
    "mirror_url": null,
    "name": "pyvcs",
    "notifications_url": "https://api.github.com/repos/alex/pyvcs/notifications{?since,all,participating}",
    "open_issues": 11,
    "open_issues_count": 11,
    "owner": {
        "avatar_url": "https://avatars.githubusercontent.com/u/772?",
        "events_url": "https://api.github.com/users/alex/events{/privacy}",
        "followers_url": "https://api.github.com/users/alex/followers",
        "following_url": "https://api.github.com/users/alex/following{/other_user}",
        "gists_url": "https://api.github.com/users/alex/gists{/gist_id}",
        "gravatar_id": "edcdfd5affb524e0f88ec1a00ed3fe5d",
        "html_url": "https://github.com/alex",
        "id": 772,
        "login": "alex",
        "organizations_url": "https://api.github.com/users/alex/orgs",
        "received_events_url": "https://api.github.com/users/alex/received_events",
        "repos_url": "https://api.github.com/users/alex/repos",
        "site_admin": false,
        "starred_url": "https://api.github.com/users/alex/starred{/owner}{/repo}",
        "subscriptions_url": "https://api.github.com/users/alex/subscriptions",
        "type": "User",
        "url": "https://api.github.com/users/alex"
    },
    "private": false,
    "pulls_url": "https://api.github.com/repos/alex/pyvcs/pulls{/number}",
    "pushed_at": "2011-09-09T23:02:56Z",
    "releases_url": "https://api.github.com/repos/alex/pyvcs/releases{/id}",
    "score": 1.0,
    "size": 165,
    "ssh_url": "git@github.com:alex/pyvcs.git",
    "stargazers_count": 106,
    "stargazers_url": "https://api.github.com/repos/alex/pyvcs/stargazers",
    "statuses_url": "https://api.github.com/repos/alex/pyvcs/statuses/{sha}",
    "subscribers_url": "https://api.github.com/repos/alex/pyvcs/subscribers",
    "subscription_url": "https://api.github.com/repos/alex/pyvcs/subscription",
    "svn_url": "https://github.com/alex/pyvcs",
    "tags_url": "https://api.github.com/repos/alex/pyvcs/tags",
    "teams_url": "https://api.github.com/repos/alex/pyvcs/teams",
    "trees_url": "https://api.github.com/repos/alex/pyvcs/git/trees{/sha}",
    "updated_at": "2014-02-10T19:51:36Z",
    "url": "https://api.github.com/repos/alex/pyvcs",
    "watchers": 106,
    "watchers_count": 106
}