{
    "libs": [
        "calculate_z",
        "pp",
        "os",
        "Image",
        "driver",
        "datetime",
        "sys",
        "itertools",
        "elementwise",
        "gpuarray",
        "autoinit",
        "numexpr",
        "numpy",
        "math",
        "compiler"
    ]
}