{
    "archive_url": "https://api.github.com/repos/pkrumins/hacker-top/{archive_format}{/ref}",
    "assignees_url": "https://api.github.com/repos/pkrumins/hacker-top/assignees{/user}",
    "blobs_url": "https://api.github.com/repos/pkrumins/hacker-top/git/blobs{/sha}",
    "branches_url": "https://api.github.com/repos/pkrumins/hacker-top/branches{/branch}",
    "clone_url": "https://github.com/pkrumins/hacker-top.git",
    "collaborators_url": "https://api.github.com/repos/pkrumins/hacker-top/collaborators{/collaborator}",
    "comments_url": "https://api.github.com/repos/pkrumins/hacker-top/comments{/number}",
    "commits_url": "https://api.github.com/repos/pkrumins/hacker-top/commits{/sha}",
    "compare_url": "https://api.github.com/repos/pkrumins/hacker-top/compare/{base}...{head}",
    "contents_url": "https://api.github.com/repos/pkrumins/hacker-top/contents/{+path}",
    "contributors_url": "https://api.github.com/repos/pkrumins/hacker-top/contributors",
    "created_at": "2009-11-28T17:12:05Z",
    "default_branch": "master",
    "description": "A top-like program for monitoring hacker news from the console",
    "downloads_url": "https://api.github.com/repos/pkrumins/hacker-top/downloads",
    "events_url": "https://api.github.com/repos/pkrumins/hacker-top/events",
    "fork": false,
    "forks": 16,
    "forks_count": 16,
    "forks_url": "https://api.github.com/repos/pkrumins/hacker-top/forks",
    "full_name": "pkrumins/hacker-top",
    "git_commits_url": "https://api.github.com/repos/pkrumins/hacker-top/git/commits{/sha}",
    "git_refs_url": "https://api.github.com/repos/pkrumins/hacker-top/git/refs{/sha}",
    "git_tags_url": "https://api.github.com/repos/pkrumins/hacker-top/git/tags{/sha}",
    "git_url": "git://github.com/pkrumins/hacker-top.git",
    "has_downloads": true,
    "has_issues": true,
    "has_wiki": true,
    "homepage": "http://www.catonmat.net/blog/follow-hacker-news-from-the-console/",
    "hooks_url": "https://api.github.com/repos/pkrumins/hacker-top/hooks",
    "html_url": "https://github.com/pkrumins/hacker-top",
    "id": 388500,
    "issue_comment_url": "https://api.github.com/repos/pkrumins/hacker-top/issues/comments/{number}",
    "issue_events_url": "https://api.github.com/repos/pkrumins/hacker-top/issues/events{/number}",
    "issues_url": "https://api.github.com/repos/pkrumins/hacker-top/issues{/number}",
    "keys_url": "https://api.github.com/repos/pkrumins/hacker-top/keys{/key_id}",
    "labels_url": "https://api.github.com/repos/pkrumins/hacker-top/labels{/name}",
    "language": "Python",
    "languages_url": "https://api.github.com/repos/pkrumins/hacker-top/languages",
    "merges_url": "https://api.github.com/repos/pkrumins/hacker-top/merges",
    "milestones_url": "https://api.github.com/repos/pkrumins/hacker-top/milestones{/number}",
    "mirror_url": null,
    "name": "hacker-top",
    "notifications_url": "https://api.github.com/repos/pkrumins/hacker-top/notifications{?since,all,participating}",
    "open_issues": 3,
    "open_issues_count": 3,
    "owner": {
        "avatar_url": "https://avatars.githubusercontent.com/u/41087?",
        "events_url": "https://api.github.com/users/pkrumins/events{/privacy}",
        "followers_url": "https://api.github.com/users/pkrumins/followers",
        "following_url": "https://api.github.com/users/pkrumins/following{/other_user}",
        "gists_url": "https://api.github.com/users/pkrumins/gists{/gist_id}",
        "gravatar_id": "9055b6c1d07708555ec584d03c387f15",
        "html_url": "https://github.com/pkrumins",
        "id": 41087,
        "login": "pkrumins",
        "organizations_url": "https://api.github.com/users/pkrumins/orgs",
        "received_events_url": "https://api.github.com/users/pkrumins/received_events",
        "repos_url": "https://api.github.com/users/pkrumins/repos",
        "site_admin": false,
        "starred_url": "https://api.github.com/users/pkrumins/starred{/owner}{/repo}",
        "subscriptions_url": "https://api.github.com/users/pkrumins/subscriptions",
        "type": "User",
        "url": "https://api.github.com/users/pkrumins"
    },
    "private": false,
    "pulls_url": "https://api.github.com/repos/pkrumins/hacker-top/pulls{/number}",
    "pushed_at": "2011-12-11T03:08:07Z",
    "releases_url": "https://api.github.com/repos/pkrumins/hacker-top/releases{/id}",
    "score": 1.0,
    "size": 283,
    "ssh_url": "git@github.com:pkrumins/hacker-top.git",
    "stargazers_count": 119,
    "stargazers_url": "https://api.github.com/repos/pkrumins/hacker-top/stargazers",
    "statuses_url": "https://api.github.com/repos/pkrumins/hacker-top/statuses/{sha}",
    "subscribers_url": "https://api.github.com/repos/pkrumins/hacker-top/subscribers",
    "subscription_url": "https://api.github.com/repos/pkrumins/hacker-top/subscription",
    "svn_url": "https://github.com/pkrumins/hacker-top",
    "tags_url": "https://api.github.com/repos/pkrumins/hacker-top/tags",
    "teams_url": "https://api.github.com/repos/pkrumins/hacker-top/teams",
    "trees_url": "https://api.github.com/repos/pkrumins/hacker-top/git/trees{/sha}",
    "updated_at": "2014-01-11T23:23:58Z",
    "url": "https://api.github.com/repos/pkrumins/hacker-top",
    "watchers": 119,
    "watchers_count": 119
}