{
    "archive_url": "https://api.github.com/repos/Arachnid/netboot.me/{archive_format}{/ref}",
    "assignees_url": "https://api.github.com/repos/Arachnid/netboot.me/assignees{/user}",
    "blobs_url": "https://api.github.com/repos/Arachnid/netboot.me/git/blobs{/sha}",
    "branches_url": "https://api.github.com/repos/Arachnid/netboot.me/branches{/branch}",
    "clone_url": "https://github.com/Arachnid/netboot.me.git",
    "collaborators_url": "https://api.github.com/repos/Arachnid/netboot.me/collaborators{/collaborator}",
    "comments_url": "https://api.github.com/repos/Arachnid/netboot.me/comments{/number}",
    "commits_url": "https://api.github.com/repos/Arachnid/netboot.me/commits{/sha}",
    "compare_url": "https://api.github.com/repos/Arachnid/netboot.me/compare/{base}...{head}",
    "contents_url": "https://api.github.com/repos/Arachnid/netboot.me/contents/{+path}",
    "contributors_url": "https://api.github.com/repos/Arachnid/netboot.me/contributors",
    "created_at": "2009-08-16T00:08:26Z",
    "default_branch": "master",
    "description": "Boot anything, anywhere, anytime",
    "downloads_url": "https://api.github.com/repos/Arachnid/netboot.me/downloads",
    "events_url": "https://api.github.com/repos/Arachnid/netboot.me/events",
    "fork": false,
    "forks": 6,
    "forks_count": 6,
    "forks_url": "https://api.github.com/repos/Arachnid/netboot.me/forks",
    "full_name": "Arachnid/netboot.me",
    "git_commits_url": "https://api.github.com/repos/Arachnid/netboot.me/git/commits{/sha}",
    "git_refs_url": "https://api.github.com/repos/Arachnid/netboot.me/git/refs{/sha}",
    "git_tags_url": "https://api.github.com/repos/Arachnid/netboot.me/git/tags{/sha}",
    "git_url": "git://github.com/Arachnid/netboot.me.git",
    "has_downloads": true,
    "has_issues": true,
    "has_wiki": true,
    "homepage": "http://netboot.me/",
    "hooks_url": "https://api.github.com/repos/Arachnid/netboot.me/hooks",
    "html_url": "https://github.com/Arachnid/netboot.me",
    "id": 278968,
    "issue_comment_url": "https://api.github.com/repos/Arachnid/netboot.me/issues/comments/{number}",
    "issue_events_url": "https://api.github.com/repos/Arachnid/netboot.me/issues/events{/number}",
    "issues_url": "https://api.github.com/repos/Arachnid/netboot.me/issues{/number}",
    "keys_url": "https://api.github.com/repos/Arachnid/netboot.me/keys{/key_id}",
    "labels_url": "https://api.github.com/repos/Arachnid/netboot.me/labels{/name}",
    "language": "Python",
    "languages_url": "https://api.github.com/repos/Arachnid/netboot.me/languages",
    "merges_url": "https://api.github.com/repos/Arachnid/netboot.me/merges",
    "milestones_url": "https://api.github.com/repos/Arachnid/netboot.me/milestones{/number}",
    "mirror_url": null,
    "name": "netboot.me",
    "notifications_url": "https://api.github.com/repos/Arachnid/netboot.me/notifications{?since,all,participating}",
    "open_issues": 36,
    "open_issues_count": 36,
    "owner": {
        "avatar_url": "https://avatars.githubusercontent.com/u/17865?",
        "events_url": "https://api.github.com/users/Arachnid/events{/privacy}",
        "followers_url": "https://api.github.com/users/Arachnid/followers",
        "following_url": "https://api.github.com/users/Arachnid/following{/other_user}",
        "gists_url": "https://api.github.com/users/Arachnid/gists{/gist_id}",
        "gravatar_id": "dc69af7dd7151a00843602888638fabb",
        "html_url": "https://github.com/Arachnid",
        "id": 17865,
        "login": "Arachnid",
        "organizations_url": "https://api.github.com/users/Arachnid/orgs",
        "received_events_url": "https://api.github.com/users/Arachnid/received_events",
        "repos_url": "https://api.github.com/users/Arachnid/repos",
        "site_admin": false,
        "starred_url": "https://api.github.com/users/Arachnid/starred{/owner}{/repo}",
        "subscriptions_url": "https://api.github.com/users/Arachnid/subscriptions",
        "type": "User",
        "url": "https://api.github.com/users/Arachnid"
    },
    "private": false,
    "pulls_url": "https://api.github.com/repos/Arachnid/netboot.me/pulls{/number}",
    "pushed_at": "2009-09-02T15:05:30Z",
    "releases_url": "https://api.github.com/repos/Arachnid/netboot.me/releases{/id}",
    "score": 1.0,
    "size": 467,
    "ssh_url": "git@github.com:Arachnid/netboot.me.git",
    "stargazers_count": 46,
    "stargazers_url": "https://api.github.com/repos/Arachnid/netboot.me/stargazers",
    "statuses_url": "https://api.github.com/repos/Arachnid/netboot.me/statuses/{sha}",
    "subscribers_url": "https://api.github.com/repos/Arachnid/netboot.me/subscribers",
    "subscription_url": "https://api.github.com/repos/Arachnid/netboot.me/subscription",
    "svn_url": "https://github.com/Arachnid/netboot.me",
    "tags_url": "https://api.github.com/repos/Arachnid/netboot.me/tags",
    "teams_url": "https://api.github.com/repos/Arachnid/netboot.me/teams",
    "trees_url": "https://api.github.com/repos/Arachnid/netboot.me/git/trees{/sha}",
    "updated_at": "2014-05-07T02:45:53Z",
    "url": "https://api.github.com/repos/Arachnid/netboot.me",
    "watchers": 46,
    "watchers_count": 46
}