{
    "archive_url": "https://api.github.com/repos/invisibleroads/crosscompute-tutorials/{archive_format}{/ref}",
    "assignees_url": "https://api.github.com/repos/invisibleroads/crosscompute-tutorials/assignees{/user}",
    "blobs_url": "https://api.github.com/repos/invisibleroads/crosscompute-tutorials/git/blobs{/sha}",
    "branches_url": "https://api.github.com/repos/invisibleroads/crosscompute-tutorials/branches{/branch}",
    "clone_url": "https://github.com/invisibleroads/crosscompute-tutorials.git",
    "collaborators_url": "https://api.github.com/repos/invisibleroads/crosscompute-tutorials/collaborators{/collaborator}",
    "comments_url": "https://api.github.com/repos/invisibleroads/crosscompute-tutorials/comments{/number}",
    "commits_url": "https://api.github.com/repos/invisibleroads/crosscompute-tutorials/commits{/sha}",
    "compare_url": "https://api.github.com/repos/invisibleroads/crosscompute-tutorials/compare/{base}...{head}",
    "contents_url": "https://api.github.com/repos/invisibleroads/crosscompute-tutorials/contents/{+path}",
    "contributors_url": "https://api.github.com/repos/invisibleroads/crosscompute-tutorials/contributors",
    "created_at": "2012-06-03T20:29:32Z",
    "default_branch": "master",
    "description": "Interactive notebooks you can use to learn how to analyze lots of data",
    "downloads_url": "https://api.github.com/repos/invisibleroads/crosscompute-tutorials/downloads",
    "events_url": "https://api.github.com/repos/invisibleroads/crosscompute-tutorials/events",
    "fork": false,
    "forks": 16,
    "forks_count": 16,
    "forks_url": "https://api.github.com/repos/invisibleroads/crosscompute-tutorials/forks",
    "full_name": "invisibleroads/crosscompute-tutorials",
    "git_commits_url": "https://api.github.com/repos/invisibleroads/crosscompute-tutorials/git/commits{/sha}",
    "git_refs_url": "https://api.github.com/repos/invisibleroads/crosscompute-tutorials/git/refs{/sha}",
    "git_tags_url": "https://api.github.com/repos/invisibleroads/crosscompute-tutorials/git/tags{/sha}",
    "git_url": "git://github.com/invisibleroads/crosscompute-tutorials.git",
    "has_downloads": true,
    "has_issues": true,
    "has_wiki": true,
    "homepage": "http://news.crosscompute.com",
    "hooks_url": "https://api.github.com/repos/invisibleroads/crosscompute-tutorials/hooks",
    "html_url": "https://github.com/invisibleroads/crosscompute-tutorials",
    "id": 4540380,
    "issue_comment_url": "https://api.github.com/repos/invisibleroads/crosscompute-tutorials/issues/comments/{number}",
    "issue_events_url": "https://api.github.com/repos/invisibleroads/crosscompute-tutorials/issues/events{/number}",
    "issues_url": "https://api.github.com/repos/invisibleroads/crosscompute-tutorials/issues{/number}",
    "keys_url": "https://api.github.com/repos/invisibleroads/crosscompute-tutorials/keys{/key_id}",
    "labels_url": "https://api.github.com/repos/invisibleroads/crosscompute-tutorials/labels{/name}",
    "language": "Python",
    "languages_url": "https://api.github.com/repos/invisibleroads/crosscompute-tutorials/languages",
    "merges_url": "https://api.github.com/repos/invisibleroads/crosscompute-tutorials/merges",
    "milestones_url": "https://api.github.com/repos/invisibleroads/crosscompute-tutorials/milestones{/number}",
    "mirror_url": null,
    "name": "crosscompute-tutorials",
    "notifications_url": "https://api.github.com/repos/invisibleroads/crosscompute-tutorials/notifications{?since,all,participating}",
    "open_issues": 0,
    "open_issues_count": 0,
    "owner": {
        "avatar_url": "https://avatars.githubusercontent.com/u/266668?",
        "events_url": "https://api.github.com/users/invisibleroads/events{/privacy}",
        "followers_url": "https://api.github.com/users/invisibleroads/followers",
        "following_url": "https://api.github.com/users/invisibleroads/following{/other_user}",
        "gists_url": "https://api.github.com/users/invisibleroads/gists{/gist_id}",
        "gravatar_id": "718d90f9642377e5ad78fe2be1b67895",
        "html_url": "https://github.com/invisibleroads",
        "id": 266668,
        "login": "invisibleroads",
        "organizations_url": "https://api.github.com/users/invisibleroads/orgs",
        "received_events_url": "https://api.github.com/users/invisibleroads/received_events",
        "repos_url": "https://api.github.com/users/invisibleroads/repos",
        "site_admin": false,
        "starred_url": "https://api.github.com/users/invisibleroads/starred{/owner}{/repo}",
        "subscriptions_url": "https://api.github.com/users/invisibleroads/subscriptions",
        "type": "User",
        "url": "https://api.github.com/users/invisibleroads"
    },
    "private": false,
    "pulls_url": "https://api.github.com/repos/invisibleroads/crosscompute-tutorials/pulls{/number}",
    "pushed_at": "2013-01-23T12:00:32Z",
    "releases_url": "https://api.github.com/repos/invisibleroads/crosscompute-tutorials/releases{/id}",
    "score": 1.0,
    "size": 13712,
    "ssh_url": "git@github.com:invisibleroads/crosscompute-tutorials.git",
    "stargazers_count": 122,
    "stargazers_url": "https://api.github.com/repos/invisibleroads/crosscompute-tutorials/stargazers",
    "statuses_url": "https://api.github.com/repos/invisibleroads/crosscompute-tutorials/statuses/{sha}",
    "subscribers_url": "https://api.github.com/repos/invisibleroads/crosscompute-tutorials/subscribers",
    "subscription_url": "https://api.github.com/repos/invisibleroads/crosscompute-tutorials/subscription",
    "svn_url": "https://github.com/invisibleroads/crosscompute-tutorials",
    "tags_url": "https://api.github.com/repos/invisibleroads/crosscompute-tutorials/tags",
    "teams_url": "https://api.github.com/repos/invisibleroads/crosscompute-tutorials/teams",
    "trees_url": "https://api.github.com/repos/invisibleroads/crosscompute-tutorials/git/trees{/sha}",
    "updated_at": "2014-05-06T17:29:47Z",
    "url": "https://api.github.com/repos/invisibleroads/crosscompute-tutorials",
    "watchers": 122,
    "watchers_count": 122
}