{
    "archive_url": "https://api.github.com/repos/livid/v2ex/{archive_format}{/ref}",
    "assignees_url": "https://api.github.com/repos/livid/v2ex/assignees{/user}",
    "blobs_url": "https://api.github.com/repos/livid/v2ex/git/blobs{/sha}",
    "branches_url": "https://api.github.com/repos/livid/v2ex/branches{/branch}",
    "clone_url": "https://github.com/livid/v2ex.git",
    "collaborators_url": "https://api.github.com/repos/livid/v2ex/collaborators{/collaborator}",
    "comments_url": "https://api.github.com/repos/livid/v2ex/comments{/number}",
    "commits_url": "https://api.github.com/repos/livid/v2ex/commits{/sha}",
    "compare_url": "https://api.github.com/repos/livid/v2ex/compare/{base}...{head}",
    "contents_url": "https://api.github.com/repos/livid/v2ex/contents/{+path}",
    "contributors_url": "https://api.github.com/repos/livid/v2ex/contributors",
    "created_at": "2010-07-16T14:43:49Z",
    "default_branch": "master",
    "description": "Community running on Google App Engine",
    "downloads_url": "https://api.github.com/repos/livid/v2ex/downloads",
    "events_url": "https://api.github.com/repos/livid/v2ex/events",
    "fork": false,
    "forks": 227,
    "forks_count": 227,
    "forks_url": "https://api.github.com/repos/livid/v2ex/forks",
    "full_name": "livid/v2ex",
    "git_commits_url": "https://api.github.com/repos/livid/v2ex/git/commits{/sha}",
    "git_refs_url": "https://api.github.com/repos/livid/v2ex/git/refs{/sha}",
    "git_tags_url": "https://api.github.com/repos/livid/v2ex/git/tags{/sha}",
    "git_url": "git://github.com/livid/v2ex.git",
    "has_downloads": true,
    "has_issues": true,
    "has_wiki": true,
    "homepage": "http://www.v2ex.com/",
    "hooks_url": "https://api.github.com/repos/livid/v2ex/hooks",
    "html_url": "https://github.com/livid/v2ex",
    "id": 778981,
    "issue_comment_url": "https://api.github.com/repos/livid/v2ex/issues/comments/{number}",
    "issue_events_url": "https://api.github.com/repos/livid/v2ex/issues/events{/number}",
    "issues_url": "https://api.github.com/repos/livid/v2ex/issues{/number}",
    "keys_url": "https://api.github.com/repos/livid/v2ex/keys{/key_id}",
    "labels_url": "https://api.github.com/repos/livid/v2ex/labels{/name}",
    "language": "Python",
    "languages_url": "https://api.github.com/repos/livid/v2ex/languages",
    "merges_url": "https://api.github.com/repos/livid/v2ex/merges",
    "milestones_url": "https://api.github.com/repos/livid/v2ex/milestones{/number}",
    "mirror_url": null,
    "name": "v2ex",
    "notifications_url": "https://api.github.com/repos/livid/v2ex/notifications{?since,all,participating}",
    "open_issues": 18,
    "open_issues_count": 18,
    "owner": {
        "avatar_url": "https://avatars.githubusercontent.com/u/11427?",
        "events_url": "https://api.github.com/users/livid/events{/privacy}",
        "followers_url": "https://api.github.com/users/livid/followers",
        "following_url": "https://api.github.com/users/livid/following{/other_user}",
        "gists_url": "https://api.github.com/users/livid/gists{/gist_id}",
        "gravatar_id": "9d208c7fa1e7afa739ced76bc134bfba",
        "html_url": "https://github.com/livid",
        "id": 11427,
        "login": "livid",
        "organizations_url": "https://api.github.com/users/livid/orgs",
        "received_events_url": "https://api.github.com/users/livid/received_events",
        "repos_url": "https://api.github.com/users/livid/repos",
        "site_admin": false,
        "starred_url": "https://api.github.com/users/livid/starred{/owner}{/repo}",
        "subscriptions_url": "https://api.github.com/users/livid/subscriptions",
        "type": "User",
        "url": "https://api.github.com/users/livid"
    },
    "private": false,
    "pulls_url": "https://api.github.com/repos/livid/v2ex/pulls{/number}",
    "pushed_at": "2014-01-05T07:47:35Z",
    "releases_url": "https://api.github.com/repos/livid/v2ex/releases{/id}",
    "score": 1.0,
    "size": 3926,
    "ssh_url": "git@github.com:livid/v2ex.git",
    "stargazers_count": 1143,
    "stargazers_url": "https://api.github.com/repos/livid/v2ex/stargazers",
    "statuses_url": "https://api.github.com/repos/livid/v2ex/statuses/{sha}",
    "subscribers_url": "https://api.github.com/repos/livid/v2ex/subscribers",
    "subscription_url": "https://api.github.com/repos/livid/v2ex/subscription",
    "svn_url": "https://github.com/livid/v2ex",
    "tags_url": "https://api.github.com/repos/livid/v2ex/tags",
    "teams_url": "https://api.github.com/repos/livid/v2ex/teams",
    "trees_url": "https://api.github.com/repos/livid/v2ex/git/trees{/sha}",
    "updated_at": "2014-05-07T01:41:33Z",
    "url": "https://api.github.com/repos/livid/v2ex",
    "watchers": 1143,
    "watchers_count": 1143
}