[
    "djangobb_forum.migrations.0002_auto__add_field_profile_show_smilies",
    "djangobb_forum.migrations.0007_auto__chg_field_post_user_ip",
    "djangobb_forum.migrations",
    "tests.test_profile",
    "djangobb_forum.migrations.0004_auto__add_field_profile_auto_subscribe",
    "djangobb_forum.tests.test_profile",
    "tests.test_templatetags",
    "djangobb_forum.tests.test_utils",
    "djangobb_forum.search_indexes",
    "test_reputation",
    "djangobb_forum.fields",
    "signals",
    "management",
    "djangobb_forum.util",
    "migrations.0003_auto__add_field_profile_signature_html",
    "djangobb_forum.management.commands.djangobb_unban",
    "forms",
    "djangobb_forum.tests.urls",
    "djangobb_forum.management.commands",
    "djangobb_forum.tests",
    "djangobb_forum.urls",
    "djangobb_forum.templatetags.forum_extras",
    "tests",
    "views",
    "test_profile",
    "djangobb_forum.settings",
    "migrations.0001_initial",
    "djangobb_forum.tests.test_templatetags",
    "0004_auto__add_field_profile_auto_subscribe",
    "djangobb_forum.migrations.0001_initial",
    "djangobb_forum.admin",
    "search_sites",
    "forum_extras",
    "templatetags.forum_extras",
    "test_utils",
    "settings",
    "djangobb_forum.tests.search_sites",
    "fields",
    "middleware",
    "djangobb_unban",
    "tests.test_utils",
    "feeds",
    "management.commands",
    "djangobb_forum.context_processors",
    "tests.test_forum",
    "djangobb_forum.subscription",
    "migrations.0006_auto__add_field_forum_forum_logo",
    "djangobb_forum.migrations.0006_auto__add_field_forum_forum_logo",
    "migrations.0005_auto__add_pollchoice__add_poll",
    "migrations.0004_auto__add_field_profile_auto_subscribe",
    "0005_auto__add_pollchoice__add_poll",
    "migrations.0002_auto__add_field_profile_show_smilies",
    "commands.djangobb_unban",
    "test_templatetags",
    "migrations.0007_auto__chg_field_post_user_ip",
    "djangobb_forum",
    "djangobb_forum.migrations.0005_auto__add_pollchoice__add_poll",
    "migrations",
    "djangobb_forum.views",
    "djangobb_forum.forms",
    "0003_auto__add_field_profile_signature_html",
    "tests.urls",
    "djangobb_forum.templatetags",
    "djangobb_forum.signals",
    "search_indexes",
    "context_processors",
    "models",
    "0006_auto__add_field_forum_forum_logo",
    "tests.test_reputation",
    "djangobb_forum.middleware",
    "0002_auto__add_field_profile_show_smilies",
    "djangobb_forum.tests.test_reputation",
    "djangobb_forum.tests.test_forum",
    "djangobb_forum.models",
    "0001_initial",
    "djangobb_forum.feeds",
    "util",
    "commands",
    "test_forum",
    "djangobb_forum.management",
    "admin",
    "templatetags",
    "management.commands.djangobb_unban",
    "0007_auto__chg_field_post_user_ip",
    "subscription",
    "tests.search_sites",
    "urls",
    "djangobb_forum.migrations.0003_auto__add_field_profile_signature_html",
    "runtests"
]