[
    "bin",
    "headset",
    "tests",
    "pymindwave",
    "feedback",
    "tests.test_parser",
    "pymindwave.tests.test_parser",
    "pymindwave.parser",
    "sdl_viewer",
    "parser",
    "pymindwave.headset",
    "bin.sdl_viewer",
    "test_parser",
    "mind_echo",
    "bin.feedback",
    "pymindwave.tests",
    "bin.mind_echo",
    "pymindwave.pyeeg",
    "pyeeg"
]