{
    "libs": [
        "fcntl",
        "loader",
        "SimpleHTTPServer",
        "unittest",
        "Signature",
        "subprocess",
        "win32file",
        "api",
        "types",
        "shutil",
        "select",
        "uritemplate",
        "copy",
        "struct",
        "PublicKey",
        "tempfile",
        "errno",
        "OpenSSL",
        "urllib",
        "re",
        "json",
        "simplejson",
        "print_function",
        "template",
        "h",
        "getopt",
        "utils",
        "realsocket",
        "cgi",
        "division",
        "stat",
        "B",
        "string",
        "SocketServer",
        "H",
        "inspect",
        "win32con",
        "db",
        "termios",
        "sys",
        "webbrowser",
        "saxutils",
        "webapp",
        "pywintypes",
        "datetime",
        "minidom",
        "b",
        "logging",
        "StringIO",
        "webapp2",
        "os",
        "signal",
        "keyring",
        "pkg_resources",
        "django",
        "urlparse",
        "threading",
        "ext",
        "nose",
        "time",
        "cStringIO",
        "pickle",
        "hmac"
    ]
}