{
    "archive_url": "https://api.github.com/repos/codeinthehole/purl/{archive_format}{/ref}",
    "assignees_url": "https://api.github.com/repos/codeinthehole/purl/assignees{/user}",
    "blobs_url": "https://api.github.com/repos/codeinthehole/purl/git/blobs{/sha}",
    "branches_url": "https://api.github.com/repos/codeinthehole/purl/branches{/branch}",
    "clone_url": "https://github.com/codeinthehole/purl.git",
    "collaborators_url": "https://api.github.com/repos/codeinthehole/purl/collaborators{/collaborator}",
    "comments_url": "https://api.github.com/repos/codeinthehole/purl/comments{/number}",
    "commits_url": "https://api.github.com/repos/codeinthehole/purl/commits{/sha}",
    "compare_url": "https://api.github.com/repos/codeinthehole/purl/compare/{base}...{head}",
    "contents_url": "https://api.github.com/repos/codeinthehole/purl/contents/{+path}",
    "contributors_url": "https://api.github.com/repos/codeinthehole/purl/contributors",
    "created_at": "2012-03-27T21:18:43Z",
    "default_branch": "master",
    "description": "A simple, immutable URL class with a clean API for interrogation and manipulation.",
    "downloads_url": "https://api.github.com/repos/codeinthehole/purl/downloads",
    "events_url": "https://api.github.com/repos/codeinthehole/purl/events",
    "fork": false,
    "forks": 11,
    "forks_count": 11,
    "forks_url": "https://api.github.com/repos/codeinthehole/purl/forks",
    "full_name": "codeinthehole/purl",
    "git_commits_url": "https://api.github.com/repos/codeinthehole/purl/git/commits{/sha}",
    "git_refs_url": "https://api.github.com/repos/codeinthehole/purl/git/refs{/sha}",
    "git_tags_url": "https://api.github.com/repos/codeinthehole/purl/git/tags{/sha}",
    "git_url": "git://github.com/codeinthehole/purl.git",
    "has_downloads": true,
    "has_issues": true,
    "has_wiki": true,
    "homepage": "http://codeinthehole.com/writing/purl-immutable-url-objects-for-python/",
    "hooks_url": "https://api.github.com/repos/codeinthehole/purl/hooks",
    "html_url": "https://github.com/codeinthehole/purl",
    "id": 3848656,
    "issue_comment_url": "https://api.github.com/repos/codeinthehole/purl/issues/comments/{number}",
    "issue_events_url": "https://api.github.com/repos/codeinthehole/purl/issues/events{/number}",
    "issues_url": "https://api.github.com/repos/codeinthehole/purl/issues{/number}",
    "keys_url": "https://api.github.com/repos/codeinthehole/purl/keys{/key_id}",
    "labels_url": "https://api.github.com/repos/codeinthehole/purl/labels{/name}",
    "language": "Python",
    "languages_url": "https://api.github.com/repos/codeinthehole/purl/languages",
    "merges_url": "https://api.github.com/repos/codeinthehole/purl/merges",
    "milestones_url": "https://api.github.com/repos/codeinthehole/purl/milestones{/number}",
    "mirror_url": null,
    "name": "purl",
    "notifications_url": "https://api.github.com/repos/codeinthehole/purl/notifications{?since,all,participating}",
    "open_issues": 0,
    "open_issues_count": 0,
    "owner": {
        "avatar_url": "https://avatars.githubusercontent.com/u/80975?",
        "events_url": "https://api.github.com/users/codeinthehole/events{/privacy}",
        "followers_url": "https://api.github.com/users/codeinthehole/followers",
        "following_url": "https://api.github.com/users/codeinthehole/following{/other_user}",
        "gists_url": "https://api.github.com/users/codeinthehole/gists{/gist_id}",
        "gravatar_id": "52d39c7b27386ca98bc016119d95b8b8",
        "html_url": "https://github.com/codeinthehole",
        "id": 80975,
        "login": "codeinthehole",
        "organizations_url": "https://api.github.com/users/codeinthehole/orgs",
        "received_events_url": "https://api.github.com/users/codeinthehole/received_events",
        "repos_url": "https://api.github.com/users/codeinthehole/repos",
        "site_admin": false,
        "starred_url": "https://api.github.com/users/codeinthehole/starred{/owner}{/repo}",
        "subscriptions_url": "https://api.github.com/users/codeinthehole/subscriptions",
        "type": "User",
        "url": "https://api.github.com/users/codeinthehole"
    },
    "private": false,
    "pulls_url": "https://api.github.com/repos/codeinthehole/purl/pulls{/number}",
    "pushed_at": "2014-03-11T09:28:49Z",
    "releases_url": "https://api.github.com/repos/codeinthehole/purl/releases{/id}",
    "score": 1.0,
    "size": 260,
    "ssh_url": "git@github.com:codeinthehole/purl.git",
    "stargazers_count": 72,
    "stargazers_url": "https://api.github.com/repos/codeinthehole/purl/stargazers",
    "statuses_url": "https://api.github.com/repos/codeinthehole/purl/statuses/{sha}",
    "subscribers_url": "https://api.github.com/repos/codeinthehole/purl/subscribers",
    "subscription_url": "https://api.github.com/repos/codeinthehole/purl/subscription",
    "svn_url": "https://github.com/codeinthehole/purl",
    "tags_url": "https://api.github.com/repos/codeinthehole/purl/tags",
    "teams_url": "https://api.github.com/repos/codeinthehole/purl/teams",
    "trees_url": "https://api.github.com/repos/codeinthehole/purl/git/trees{/sha}",
    "updated_at": "2014-04-30T20:54:45Z",
    "url": "https://api.github.com/repos/codeinthehole/purl",
    "watchers": 72,
    "watchers_count": 72
}