[
    "lib.python.babel.util",
    "frontend",
    "vendor.lib.python.babel.messages.plurals",
    "lib.python.babel.messages.pofile",
    "lib.python.babel.support",
    "manage",
    "vendor.lib.python.babel.messages.extract",
    "python.babel.messages",
    "vendor.lib.python.babel.messages.checkers",
    "hb",
    "python.argparse",
    "python.babel.util",
    "python.babel.core",
    "path",
    "hbase",
    "lib.python",
    "python.babel.messages.plurals",
    "vendor.lib.python.babel.messages.mofile",
    "python.babel.messages.jslexer",
    "babel.messages.checkers",
    "plurals",
    "lib.python.babel.dates",
    "vendor.lib.python.babel.messages.catalog",
    "lib.python.dictconfig",
    "log_settings",
    "vendor.lib.python",
    "babel.messages.extract",
    "glow",
    "vendor.lib.python.babel.numbers",
    "vendor.lib.python.argparse",
    "lib.python.path",
    "babel.support",
    "lib.python.babel.messages.frontend",
    "vendor",
    "hbase.Hbase",
    "python",
    "messages.jslexer",
    "util",
    "babel.dates",
    "python.babel.messages.pofile",
    "lib.python.babel.messages",
    "messages.plurals",
    "python.hbase.Hbase",
    "lib.python.babel",
    "po2js",
    "babel.numbers",
    "python.babel.messages.extract",
    "settings",
    "babel.messages.catalog",
    "hbase.constants",
    "pofile",
    "python.babel.localedata",
    "vendor.lib.python.babel.localedata",
    "babel.messages.plurals",
    "lib.python.babel.localedata",
    "mofile",
    "lib.python.babel.messages.extract",
    "vendor.lib.python.babel.support",
    "vendor.lib.python.path",
    "vendor.lib.python.babel.messages.jslexer",
    "babel.messages.jslexer",
    "lib.python.babel.core",
    "core",
    "babel.messages.pofile",
    "vendor.lib.python.dictconfig",
    "python.path",
    "lib.python.babel.messages.catalog",
    "babel.localedata",
    "vendor.lib.python.babel",
    "lib.python.babel.messages.checkers",
    "localedata",
    "numbers",
    "vendor.lib",
    "python.babel.numbers",
    "python.babel",
    "extract",
    "python.hbase",
    "babel.messages",
    "babel.core",
    "messages.checkers",
    "checkers",
    "lib.python.hbase.constants",
    "lib",
    "python.babel.messages.catalog",
    "babel",
    "python.hbase.ttypes",
    "python.dictconfig",
    "jslexer",
    "python.hbase.constants",
    "lib.python.argparse",
    "babel.messages.mofile",
    "lib.python.hbase.ttypes",
    "lib.python.babel.messages.plurals",
    "vendor.lib.python.babel.dates",
    "babel.messages.frontend",
    "hbase.ttypes",
    "ttypes",
    "vendor.lib.python.hbase.Hbase",
    "vendor.lib.python.babel.core",
    "python.babel.messages.mofile",
    "python.babel.dates",
    "vendor.lib.python.babel.messages",
    "python.babel.messages.checkers",
    "vendor.lib.python.hbase",
    "lib.python.babel.messages.mofile",
    "vendor.lib.python.babel.util",
    "catalog",
    "lib.python.babel.messages.jslexer",
    "vendor.lib.python.hbase.constants",
    "messages.extract",
    "babel.util",
    "lib.python.hbase",
    "messages.pofile",
    "lib.python.hbase.Hbase",
    "constants",
    "messages.catalog",
    "lib.python.babel.numbers",
    "dates",
    "messages.frontend",
    "messages.mofile",
    "vendor.lib.python.babel.messages.pofile",
    "messages",
    "dictconfig",
    "python.babel.messages.frontend",
    "argparse",
    "vendor.lib.python.hbase.ttypes",
    "Hbase",
    "python.babel.support",
    "support",
    "vendor.lib.python.babel.messages.frontend"
]