{
    "libs": [
        "el",
        "unittest",
        "random",
        "with_statement",
        "pprint",
        "urllib",
        "re",
        "json",
        "cgi",
        "mimetypes",
        "etree",
        "simplejson",
        "warnings",
        "sys",
        "ssl",
        "path",
        "copy",
        "httplib",
        "b",
        "socket",
        "secrets",
        "h",
        "xmlrpclib",
        "urlparse",
        "doctest",
        "exceptions",
        "os"
    ]
}