{
    "libs": [
        "mock",
        "wsgi",
        "pyramid",
        "fields",
        "renderers",
        "text",
        "unittest",
        "random",
        "with_statement",
        "absolute_import",
        "datetime",
        "sqlalchemy",
        "multipart",
        "operator",
        "config",
        "dateutil",
        "index",
        "lxml",
        "log",
        "whoosh",
        "webtest",
        "urllib",
        "writing",
        "re",
        "json",
        "feedparser",
        "collections",
        "apachelog",
        "smtplib",
        "ConfigParser",
        "httpexceptions",
        "store",
        "B",
        "etree",
        "string",
        "urllib2",
        "sys",
        "pyinotify",
        "orm",
        "pytest",
        "gzip",
        "subprocess",
        "decorator",
        "exc",
        "argparse",
        "httplib",
        "transaction",
        "logging",
        "socket",
        "StringIO",
        "url",
        "h",
        "settings",
        "request",
        "urlh",
        "analysis",
        "urlparse",
        "p",
        "meta",
        "inbox",
        "BeautifulSoup",
        "time",
        "beanstalkc",
        "security",
        "os",
        "alembic",
        "view"
    ]
}