[
    "tests.tests",
    "tests",
    "urls",
    "jogging.tests.urls",
    "views",
    "models",
    "jogging.tests",
    "jogging.middleware",
    "jogging.tests.views",
    "jogging.tests.tests",
    "handlers",
    "admin",
    "middleware",
    "jogging.admin",
    "jogging.models",
    "jogging",
    "tests.views",
    "jogging.handlers",
    "tests.urls"
]