{
    "archive_url": "https://api.github.com/repos/erh/mongo-munin/{archive_format}{/ref}",
    "assignees_url": "https://api.github.com/repos/erh/mongo-munin/assignees{/user}",
    "blobs_url": "https://api.github.com/repos/erh/mongo-munin/git/blobs{/sha}",
    "branches_url": "https://api.github.com/repos/erh/mongo-munin/branches{/branch}",
    "clone_url": "https://github.com/erh/mongo-munin.git",
    "collaborators_url": "https://api.github.com/repos/erh/mongo-munin/collaborators{/collaborator}",
    "comments_url": "https://api.github.com/repos/erh/mongo-munin/comments{/number}",
    "commits_url": "https://api.github.com/repos/erh/mongo-munin/commits{/sha}",
    "compare_url": "https://api.github.com/repos/erh/mongo-munin/compare/{base}...{head}",
    "contents_url": "https://api.github.com/repos/erh/mongo-munin/contents/{+path}",
    "contributors_url": "https://api.github.com/repos/erh/mongo-munin/contributors",
    "created_at": "2010-03-23T21:20:30Z",
    "default_branch": "master",
    "description": "Munin plugins for MongoDB",
    "downloads_url": "https://api.github.com/repos/erh/mongo-munin/downloads",
    "events_url": "https://api.github.com/repos/erh/mongo-munin/events",
    "fork": false,
    "forks": 35,
    "forks_count": 35,
    "forks_url": "https://api.github.com/repos/erh/mongo-munin/forks",
    "full_name": "erh/mongo-munin",
    "git_commits_url": "https://api.github.com/repos/erh/mongo-munin/git/commits{/sha}",
    "git_refs_url": "https://api.github.com/repos/erh/mongo-munin/git/refs{/sha}",
    "git_tags_url": "https://api.github.com/repos/erh/mongo-munin/git/tags{/sha}",
    "git_url": "git://github.com/erh/mongo-munin.git",
    "has_downloads": true,
    "has_issues": true,
    "has_wiki": true,
    "homepage": "",
    "hooks_url": "https://api.github.com/repos/erh/mongo-munin/hooks",
    "html_url": "https://github.com/erh/mongo-munin",
    "id": 576448,
    "issue_comment_url": "https://api.github.com/repos/erh/mongo-munin/issues/comments/{number}",
    "issue_events_url": "https://api.github.com/repos/erh/mongo-munin/issues/events{/number}",
    "issues_url": "https://api.github.com/repos/erh/mongo-munin/issues{/number}",
    "keys_url": "https://api.github.com/repos/erh/mongo-munin/keys{/key_id}",
    "labels_url": "https://api.github.com/repos/erh/mongo-munin/labels{/name}",
    "language": "Python",
    "languages_url": "https://api.github.com/repos/erh/mongo-munin/languages",
    "merges_url": "https://api.github.com/repos/erh/mongo-munin/merges",
    "milestones_url": "https://api.github.com/repos/erh/mongo-munin/milestones{/number}",
    "mirror_url": null,
    "name": "mongo-munin",
    "notifications_url": "https://api.github.com/repos/erh/mongo-munin/notifications{?since,all,participating}",
    "open_issues": 9,
    "open_issues_count": 9,
    "owner": {
        "avatar_url": "https://avatars.githubusercontent.com/u/12109?",
        "events_url": "https://api.github.com/users/erh/events{/privacy}",
        "followers_url": "https://api.github.com/users/erh/followers",
        "following_url": "https://api.github.com/users/erh/following{/other_user}",
        "gists_url": "https://api.github.com/users/erh/gists{/gist_id}",
        "gravatar_id": "3a65e56654f15efab9adabf24d96d9c8",
        "html_url": "https://github.com/erh",
        "id": 12109,
        "login": "erh",
        "organizations_url": "https://api.github.com/users/erh/orgs",
        "received_events_url": "https://api.github.com/users/erh/received_events",
        "repos_url": "https://api.github.com/users/erh/repos",
        "site_admin": false,
        "starred_url": "https://api.github.com/users/erh/starred{/owner}{/repo}",
        "subscriptions_url": "https://api.github.com/users/erh/subscriptions",
        "type": "User",
        "url": "https://api.github.com/users/erh"
    },
    "private": false,
    "pulls_url": "https://api.github.com/repos/erh/mongo-munin/pulls{/number}",
    "pushed_at": "2012-02-24T00:12:10Z",
    "releases_url": "https://api.github.com/repos/erh/mongo-munin/releases{/id}",
    "score": 1.0,
    "size": 257,
    "ssh_url": "git@github.com:erh/mongo-munin.git",
    "stargazers_count": 135,
    "stargazers_url": "https://api.github.com/repos/erh/mongo-munin/stargazers",
    "statuses_url": "https://api.github.com/repos/erh/mongo-munin/statuses/{sha}",
    "subscribers_url": "https://api.github.com/repos/erh/mongo-munin/subscribers",
    "subscription_url": "https://api.github.com/repos/erh/mongo-munin/subscription",
    "svn_url": "https://github.com/erh/mongo-munin",
    "tags_url": "https://api.github.com/repos/erh/mongo-munin/tags",
    "teams_url": "https://api.github.com/repos/erh/mongo-munin/teams",
    "trees_url": "https://api.github.com/repos/erh/mongo-munin/git/trees{/sha}",
    "updated_at": "2013-12-19T11:01:25Z",
    "url": "https://api.github.com/repos/erh/mongo-munin",
    "watchers": 135,
    "watchers_count": 135
}