{
    "libs": [
        "cStringIO",
        "io",
        "random",
        "unicodedata",
        "_winreg",
        "filters",
        "shutil",
        "copy",
        "PIL",
        "bz2",
        "tempfile",
        "pprint",
        "tarfile",
        "urllib",
        "desktop",
        "re",
        "getopt",
        "string",
        "glob",
        "textwrap",
        "sys",
        "codecs",
        "builtins",
        "sublime_plugin",
        "_",
        "commands",
        "StringIO",
        "bisect",
        "h",
        "traceback",
        "pkg_resources",
        "sha",
        "chardet",
        "time",
        "gzip",
        "os",
        "sublime"
    ]
}