{
    "archive_url": "https://api.github.com/repos/joelpt/sublimetext-print-to-html/{archive_format}{/ref}",
    "assignees_url": "https://api.github.com/repos/joelpt/sublimetext-print-to-html/assignees{/user}",
    "blobs_url": "https://api.github.com/repos/joelpt/sublimetext-print-to-html/git/blobs{/sha}",
    "branches_url": "https://api.github.com/repos/joelpt/sublimetext-print-to-html/branches{/branch}",
    "clone_url": "https://github.com/joelpt/sublimetext-print-to-html.git",
    "collaborators_url": "https://api.github.com/repos/joelpt/sublimetext-print-to-html/collaborators{/collaborator}",
    "comments_url": "https://api.github.com/repos/joelpt/sublimetext-print-to-html/comments{/number}",
    "commits_url": "https://api.github.com/repos/joelpt/sublimetext-print-to-html/commits{/sha}",
    "compare_url": "https://api.github.com/repos/joelpt/sublimetext-print-to-html/compare/{base}...{head}",
    "contents_url": "https://api.github.com/repos/joelpt/sublimetext-print-to-html/contents/{+path}",
    "contributors_url": "https://api.github.com/repos/joelpt/sublimetext-print-to-html/contributors",
    "created_at": "2012-04-10T20:44:09Z",
    "default_branch": "master",
    "description": "Sublime Text 2 plugin to print colorized files as HTML via your browser.",
    "downloads_url": "https://api.github.com/repos/joelpt/sublimetext-print-to-html/downloads",
    "events_url": "https://api.github.com/repos/joelpt/sublimetext-print-to-html/events",
    "fork": false,
    "forks": 6,
    "forks_count": 6,
    "forks_url": "https://api.github.com/repos/joelpt/sublimetext-print-to-html/forks",
    "full_name": "joelpt/sublimetext-print-to-html",
    "git_commits_url": "https://api.github.com/repos/joelpt/sublimetext-print-to-html/git/commits{/sha}",
    "git_refs_url": "https://api.github.com/repos/joelpt/sublimetext-print-to-html/git/refs{/sha}",
    "git_tags_url": "https://api.github.com/repos/joelpt/sublimetext-print-to-html/git/tags{/sha}",
    "git_url": "git://github.com/joelpt/sublimetext-print-to-html.git",
    "has_downloads": true,
    "has_issues": true,
    "has_wiki": true,
    "homepage": "",
    "hooks_url": "https://api.github.com/repos/joelpt/sublimetext-print-to-html/hooks",
    "html_url": "https://github.com/joelpt/sublimetext-print-to-html",
    "id": 3986893,
    "issue_comment_url": "https://api.github.com/repos/joelpt/sublimetext-print-to-html/issues/comments/{number}",
    "issue_events_url": "https://api.github.com/repos/joelpt/sublimetext-print-to-html/issues/events{/number}",
    "issues_url": "https://api.github.com/repos/joelpt/sublimetext-print-to-html/issues{/number}",
    "keys_url": "https://api.github.com/repos/joelpt/sublimetext-print-to-html/keys{/key_id}",
    "labels_url": "https://api.github.com/repos/joelpt/sublimetext-print-to-html/labels{/name}",
    "language": "Python",
    "languages_url": "https://api.github.com/repos/joelpt/sublimetext-print-to-html/languages",
    "merges_url": "https://api.github.com/repos/joelpt/sublimetext-print-to-html/merges",
    "milestones_url": "https://api.github.com/repos/joelpt/sublimetext-print-to-html/milestones{/number}",
    "mirror_url": null,
    "name": "sublimetext-print-to-html",
    "notifications_url": "https://api.github.com/repos/joelpt/sublimetext-print-to-html/notifications{?since,all,participating}",
    "open_issues": 6,
    "open_issues_count": 6,
    "owner": {
        "avatar_url": "https://avatars.githubusercontent.com/u/127942?",
        "events_url": "https://api.github.com/users/joelpt/events{/privacy}",
        "followers_url": "https://api.github.com/users/joelpt/followers",
        "following_url": "https://api.github.com/users/joelpt/following{/other_user}",
        "gists_url": "https://api.github.com/users/joelpt/gists{/gist_id}",
        "gravatar_id": "60645faedba87fbdf3a11f6f35d53824",
        "html_url": "https://github.com/joelpt",
        "id": 127942,
        "login": "joelpt",
        "organizations_url": "https://api.github.com/users/joelpt/orgs",
        "received_events_url": "https://api.github.com/users/joelpt/received_events",
        "repos_url": "https://api.github.com/users/joelpt/repos",
        "site_admin": false,
        "starred_url": "https://api.github.com/users/joelpt/starred{/owner}{/repo}",
        "subscriptions_url": "https://api.github.com/users/joelpt/subscriptions",
        "type": "User",
        "url": "https://api.github.com/users/joelpt"
    },
    "private": false,
    "pulls_url": "https://api.github.com/repos/joelpt/sublimetext-print-to-html/pulls{/number}",
    "pushed_at": "2013-01-23T02:07:29Z",
    "releases_url": "https://api.github.com/repos/joelpt/sublimetext-print-to-html/releases{/id}",
    "score": 1.0,
    "size": 749,
    "ssh_url": "git@github.com:joelpt/sublimetext-print-to-html.git",
    "stargazers_count": 44,
    "stargazers_url": "https://api.github.com/repos/joelpt/sublimetext-print-to-html/stargazers",
    "statuses_url": "https://api.github.com/repos/joelpt/sublimetext-print-to-html/statuses/{sha}",
    "subscribers_url": "https://api.github.com/repos/joelpt/sublimetext-print-to-html/subscribers",
    "subscription_url": "https://api.github.com/repos/joelpt/sublimetext-print-to-html/subscription",
    "svn_url": "https://github.com/joelpt/sublimetext-print-to-html",
    "tags_url": "https://api.github.com/repos/joelpt/sublimetext-print-to-html/tags",
    "teams_url": "https://api.github.com/repos/joelpt/sublimetext-print-to-html/teams",
    "trees_url": "https://api.github.com/repos/joelpt/sublimetext-print-to-html/git/trees{/sha}",
    "updated_at": "2014-05-06T16:16:57Z",
    "url": "https://api.github.com/repos/joelpt/sublimetext-print-to-html",
    "watchers": 44,
    "watchers_count": 44
}