[
    "driver.webkit",
    "docs",
    "examples.google",
    "driver",
    "dryscrape.driver.webkit",
    "session",
    "dryscrape.session",
    "examples",
    "conf",
    "webkit",
    "google",
    "dryscrape.driver",
    "docs.conf",
    "gmail",
    "mixins",
    "dryscrape",
    "examples.gmail",
    "dryscrape.mixins"
]