[
    "djblets.cache.context_processors",
    "siteconfig.management.commands.get-siteconfig",
    "djblets.siteconfig.forms",
    "djblets.cache.backend_compat",
    "util.tests",
    "datagrid",
    "manager",
    "query",
    "djblets.log.middleware",
    "util.templatetags.djblets_images",
    "djblets.extensions.admin",
    "cache",
    "siteconfig.forms",
    "djblets.urls.root",
    "log.views",
    "djblets.webapi.encoders",
    "djblets.extensions.resources",
    "djblets.cache.backend",
    "resources",
    "djblets.util.templatetags",
    "backend_compat",
    "db",
    "djblets.feedview.templatetags",
    "util",
    "feedview.views",
    "extensions.urls",
    "djblets.urls.resolvers",
    "djblets.siteconfig.management.commands",
    "djblets.db.validators",
    "evolution",
    "djblets.extensions.hooks",
    "util.templatetags.djblets_utils",
    "settings",
    "fields",
    "testing.decorators",
    "templatetags.djblets_extensions",
    "djblets.datagrid.templatetags.datagrid",
    "djblets.db.managers",
    "release",
    "management.commands",
    "djblets.forms.fields",
    "feedview.templatetags.feedtags",
    "djblets.auth.forms",
    "siteconfig.models",
    "feedview.test_urls",
    "testing",
    "contextmanagers",
    "extensions.signals",
    "extensions.hooks",
    "djblets.datagrid.grids",
    "djblets.siteconfig.admin",
    "context_processors",
    "errors",
    "feedview.tests",
    "djblets.extensions.test.urls",
    "util.templatetags.djblets_email",
    "djblets_forms",
    "auth.views",
    "djblets.util.contextmanagers",
    "djblets.util.templatetags.djblets_images",
    "webapi",
    "djblets.configforms.forms",
    "dbevolution",
    "test_urls",
    "siteconfig.admin",
    "djblets.extensions.templatetags.djblets_extensions",
    "djblets.siteconfig",
    "feedtags",
    "djblets.gravatars",
    "hooks",
    "commands.set-siteconfig",
    "datagrid.templatetags",
    "djblets.webapi",
    "djblets.extensions.forms",
    "dates",
    "admin",
    "siteconfig",
    "djblets.testing.urls",
    "feedview",
    "urls",
    "djblets.util.filesystem",
    "siteconfig.views",
    "extensions.loaders",
    "extensions.test.admin_urls",
    "db.evolution",
    "extensions.test.urls",
    "auth.forms",
    "packaging",
    "util.rooturl",
    "djblets.feedview",
    "djblets.util.humanize",
    "util.testing",
    "djblets.testing.decorators",
    "backend",
    "djblets",
    "djblets.util.cache",
    "siteconfig.context_processors",
    "djblets.datagrid.templatetags",
    "management.commands.list-siteconfig",
    "templatetags.djblets_deco",
    "testing.testcases",
    "contrib.internal.release",
    "resolvers",
    "djblets.extensions.test.admin_urls",
    "djblets.extensions.models",
    "extensions.tests",
    "commands",
    "configforms.views",
    "util.db",
    "djblets.util.fields",
    "siteconfig.management",
    "util.dates",
    "datagrid.tests",
    "djblets.util.decorators",
    "datagrid.templatetags.datagrid",
    "util.urlresolvers",
    "internal.release",
    "djblets.feedview.test_urls",
    "cache.backend",
    "djblets.util.tests",
    "djblets.datagrid",
    "templatetags.djblets_images",
    "djblets.db.fields",
    "extensions.forms",
    "djblets.datagrid.tests",
    "root",
    "djblets.gravatars.templatetags.gravatars",
    "djblets.siteconfig.managers",
    "util.templatetags.djblets_forms",
    "webapi.core",
    "get-siteconfig",
    "djblets.extensions.middleware",
    "build-i18n",
    "internal.build-media",
    "urls.root",
    "webapi.decorators",
    "djblets.extensions.loaders",
    "djblets.util.testing",
    "webapi.encoders",
    "extensions.manager",
    "djblets.gravatars.templatetags",
    "djblets.db",
    "djblets.util.rooturl",
    "djblets.settings",
    "http",
    "djblets.urls.patterns",
    "siteconfig.managers",
    "siteconfig.middleware",
    "djblets.util.urlresolvers",
    "test.urls",
    "djblets.db.query",
    "webapi.auth",
    "djblets.webapi.core",
    "siteconfig.django_settings",
    "djblets_images",
    "djblets.testing.testcases",
    "log.urls",
    "patterns",
    "extensions.resources",
    "urlresolvers",
    "util.fields",
    "extensions.models",
    "urls.resolvers",
    "urls.decorators",
    "templatetags.feedtags",
    "util.context_processors",
    "siteconfig.management.commands",
    "configforms.forms",
    "gravatars",
    "djblets.extensions.tests",
    "djblets.extensions.packaging",
    "validators",
    "util.forms",
    "djblets_email",
    "util.cache",
    "djblets.util.dates",
    "djblets.siteconfig.views",
    "signals",
    "internal",
    "djblets_deco",
    "list-siteconfig",
    "djblets.webapi.errors",
    "contrib.internal.build-i18n",
    "util.views",
    "configforms",
    "util.serializers",
    "tests",
    "views",
    "cache.serials",
    "siteconfig.management.commands.list-siteconfig",
    "build-media",
    "util.templatetags.djblets_js",
    "djblets.extensions.urls",
    "datagrid.grids",
    "extensions.settings",
    "djblets.extensions.signals",
    "djblets.urls.decorators",
    "db.query",
    "djblets.configforms",
    "commands.get-siteconfig",
    "gravatars.templatetags",
    "djblets.extensions.views",
    "djblets.db.evolution",
    "webapi.resources",
    "djblets_utils",
    "templatetags.gravatars",
    "rooturl",
    "grids",
    "djblets.siteconfig.context_processors",
    "log.middleware",
    "forms.fields",
    "djblets.feedview.views",
    "djblets.configforms.views",
    "djblets.testing",
    "djblets.extensions",
    "configforms.pages",
    "templatetags.djblets_forms",
    "templatetags.djblets_utils",
    "djblets.util.context_processors",
    "serializers",
    "webapi.errors",
    "djblets.extensions.templatetags",
    "djblets.extensions.base",
    "staticfiles",
    "util.filesystem",
    "internal.build-i18n",
    "util.humanize",
    "djblets.feedview.templatetags.feedtags",
    "djblets.auth",
    "djblets.webapi.tests",
    "decorators",
    "djblets_js",
    "core",
    "djblets.cache.serials",
    "djblets.siteconfig.tests",
    "feedview.templatetags",
    "djblets.forms",
    "auth.util",
    "log.siteconfig",
    "base",
    "djblets.webapi.resources",
    "djblets.util.db",
    "testing.urls",
    "contrib.internal.build-media",
    "djblets.util.dbevolution",
    "extension",
    "util.contextmanagers",
    "djblets.log.urls",
    "test.admin_urls",
    "db.managers",
    "extensions",
    "forms",
    "db.fields",
    "auth",
    "extensions.extension",
    "managers",
    "djblets.siteconfig.middleware",
    "djblets.auth.util",
    "gravatars.templatetags.gravatars",
    "misc",
    "admin_urls",
    "util.http",
    "util.templatetags.djblets_deco",
    "contrib",
    "djblets.extensions.settings",
    "management.commands.set-siteconfig",
    "djblets.util.http",
    "djblets.urls.context_processors",
    "management",
    "log",
    "loaders",
    "extensions.templatetags",
    "djblets.feedview.tests",
    "extensions.packaging",
    "djblets.util.templatetags.djblets_js",
    "djblets.cache.errors",
    "djblets.extensions.extension",
    "db.validators",
    "util.dbevolution",
    "set-siteconfig",
    "djblets.util.templatetags.djblets_utils",
    "extensions.errors",
    "management.commands.get-siteconfig",
    "templatetags.datagrid",
    "djblets.siteconfig.models",
    "urls.context_processors",
    "djblets.log",
    "siteconfig.tests",
    "util.decorators",
    "middleware",
    "djblets.util.templatetags.djblets_deco",
    "commands.list-siteconfig",
    "djblets.extensions.manager",
    "djblets.webapi.decorators",
    "extensions.views",
    "extensions.base",
    "djblets.extensions.errors",
    "siteconfig.management.commands.set-siteconfig",
    "djblets.util.serializers",
    "templatetags.djblets_email",
    "djblets.siteconfig.management.commands.set-siteconfig",
    "djblets.siteconfig.django_settings",
    "webapi.tests",
    "serials",
    "extensions.admin",
    "encoders",
    "djblets.util",
    "djblets.util.views",
    "djblets.log.views",
    "djblets.log.siteconfig",
    "testcases",
    "djblets.util.misc",
    "extensions.templatetags.djblets_extensions",
    "humanize",
    "extensions.test",
    "test",
    "tests.settings",
    "tests.runtests",
    "cache.errors",
    "djblets_extensions",
    "djblets.cache",
    "models",
    "templatetags.djblets_js",
    "filesystem",
    "djblets.util.templatetags.djblets_email",
    "djblets.extensions.staticfiles",
    "djblets.util.templatetags.djblets_forms",
    "extensions.staticfiles",
    "django_settings",
    "extensions.middleware",
    "djblets.extensions.test",
    "pages",
    "djblets.webapi.auth",
    "djblets.urls",
    "run-pyflakes",
    "cache.backend_compat",
    "cache.context_processors",
    "djblets.configforms.pages",
    "tests.run-pyflakes",
    "djblets.siteconfig.management.commands.get-siteconfig",
    "urls.patterns",
    "templatetags",
    "djblets.siteconfig.management",
    "djblets.siteconfig.management.commands.list-siteconfig",
    "djblets.util.forms",
    "contrib.internal",
    "util.templatetags",
    "util.misc",
    "djblets.auth.views",
    "runtests"
]