{
    "archive_url": "https://api.github.com/repos/Scarygami/mirror-api/{archive_format}{/ref}",
    "assignees_url": "https://api.github.com/repos/Scarygami/mirror-api/assignees{/user}",
    "blobs_url": "https://api.github.com/repos/Scarygami/mirror-api/git/blobs{/sha}",
    "branches_url": "https://api.github.com/repos/Scarygami/mirror-api/branches{/branch}",
    "clone_url": "https://github.com/Scarygami/mirror-api.git",
    "collaborators_url": "https://api.github.com/repos/Scarygami/mirror-api/collaborators{/collaborator}",
    "comments_url": "https://api.github.com/repos/Scarygami/mirror-api/comments{/number}",
    "commits_url": "https://api.github.com/repos/Scarygami/mirror-api/commits{/sha}",
    "compare_url": "https://api.github.com/repos/Scarygami/mirror-api/compare/{base}...{head}",
    "contents_url": "https://api.github.com/repos/Scarygami/mirror-api/contents/{+path}",
    "contributors_url": "https://api.github.com/repos/Scarygami/mirror-api/contributors",
    "created_at": "2013-04-02T12:53:54Z",
    "default_branch": "master",
    "description": "Trying to reproduce the mirror-api behaviour using Google Cloud Endpoints to enable non-glass-explorers to get an idea of what will be possible.",
    "downloads_url": "https://api.github.com/repos/Scarygami/mirror-api/downloads",
    "events_url": "https://api.github.com/repos/Scarygami/mirror-api/events",
    "fork": false,
    "forks": 74,
    "forks_count": 74,
    "forks_url": "https://api.github.com/repos/Scarygami/mirror-api/forks",
    "full_name": "Scarygami/mirror-api",
    "git_commits_url": "https://api.github.com/repos/Scarygami/mirror-api/git/commits{/sha}",
    "git_refs_url": "https://api.github.com/repos/Scarygami/mirror-api/git/refs{/sha}",
    "git_tags_url": "https://api.github.com/repos/Scarygami/mirror-api/git/tags{/sha}",
    "git_url": "git://github.com/Scarygami/mirror-api.git",
    "has_downloads": true,
    "has_issues": true,
    "has_wiki": true,
    "homepage": null,
    "hooks_url": "https://api.github.com/repos/Scarygami/mirror-api/hooks",
    "html_url": "https://github.com/Scarygami/mirror-api",
    "id": 9170177,
    "issue_comment_url": "https://api.github.com/repos/Scarygami/mirror-api/issues/comments/{number}",
    "issue_events_url": "https://api.github.com/repos/Scarygami/mirror-api/issues/events{/number}",
    "issues_url": "https://api.github.com/repos/Scarygami/mirror-api/issues{/number}",
    "keys_url": "https://api.github.com/repos/Scarygami/mirror-api/keys{/key_id}",
    "labels_url": "https://api.github.com/repos/Scarygami/mirror-api/labels{/name}",
    "language": "Python",
    "languages_url": "https://api.github.com/repos/Scarygami/mirror-api/languages",
    "merges_url": "https://api.github.com/repos/Scarygami/mirror-api/merges",
    "milestones_url": "https://api.github.com/repos/Scarygami/mirror-api/milestones{/number}",
    "mirror_url": null,
    "name": "mirror-api",
    "notifications_url": "https://api.github.com/repos/Scarygami/mirror-api/notifications{?since,all,participating}",
    "open_issues": 2,
    "open_issues_count": 2,
    "owner": {
        "avatar_url": "https://avatars.githubusercontent.com/u/809528?",
        "events_url": "https://api.github.com/users/Scarygami/events{/privacy}",
        "followers_url": "https://api.github.com/users/Scarygami/followers",
        "following_url": "https://api.github.com/users/Scarygami/following{/other_user}",
        "gists_url": "https://api.github.com/users/Scarygami/gists{/gist_id}",
        "gravatar_id": "360437019047a4c8f2bc84eb8ba709fe",
        "html_url": "https://github.com/Scarygami",
        "id": 809528,
        "login": "Scarygami",
        "organizations_url": "https://api.github.com/users/Scarygami/orgs",
        "received_events_url": "https://api.github.com/users/Scarygami/received_events",
        "repos_url": "https://api.github.com/users/Scarygami/repos",
        "site_admin": false,
        "starred_url": "https://api.github.com/users/Scarygami/starred{/owner}{/repo}",
        "subscriptions_url": "https://api.github.com/users/Scarygami/subscriptions",
        "type": "User",
        "url": "https://api.github.com/users/Scarygami"
    },
    "private": false,
    "pulls_url": "https://api.github.com/repos/Scarygami/mirror-api/pulls{/number}",
    "pushed_at": "2014-04-29T22:30:34Z",
    "releases_url": "https://api.github.com/repos/Scarygami/mirror-api/releases{/id}",
    "score": 1.0,
    "size": 3979,
    "ssh_url": "git@github.com:Scarygami/mirror-api.git",
    "stargazers_count": 259,
    "stargazers_url": "https://api.github.com/repos/Scarygami/mirror-api/stargazers",
    "statuses_url": "https://api.github.com/repos/Scarygami/mirror-api/statuses/{sha}",
    "subscribers_url": "https://api.github.com/repos/Scarygami/mirror-api/subscribers",
    "subscription_url": "https://api.github.com/repos/Scarygami/mirror-api/subscription",
    "svn_url": "https://github.com/Scarygami/mirror-api",
    "tags_url": "https://api.github.com/repos/Scarygami/mirror-api/tags",
    "teams_url": "https://api.github.com/repos/Scarygami/mirror-api/teams",
    "trees_url": "https://api.github.com/repos/Scarygami/mirror-api/git/trees{/sha}",
    "updated_at": "2014-05-02T08:05:38Z",
    "url": "https://api.github.com/repos/Scarygami/mirror-api",
    "watchers": 259,
    "watchers_count": 259
}