[
    "lib.apiclient.channel",
    "cloudstorage",
    "oauth2client.old_run",
    "django_orm",
    "apiclient.mimeparse",
    "apiclient.errors",
    "lib.oauth2client.client",
    "apiclient.channel",
    "mirror_api.models",
    "lib.apiclient.schema",
    "old_run",
    "lib.cloudstorage.common",
    "httplib2.socks",
    "cloudstorage.errors",
    "auth",
    "util",
    "lib.cloudstorage.test_utils",
    "httplib2.iri2uri",
    "lib.oauth2client.multistore_file",
    "apiclient.discovery",
    "oauth2client.locked_file",
    "test_utils",
    "lib.apiclient.mimeparse",
    "lib.oauth2client.appengine",
    "anyjson",
    "apiclient.sample_tools",
    "lib.oauth2client.locked_file",
    "upload",
    "oauth2client.multistore_file",
    "common",
    "mirror_api.upload",
    "lib.oauth2client.file",
    "lib.apiclient.sample_tools",
    "mirror_api",
    "emulator.glass",
    "hodor",
    "mirror_api.api",
    "cloudstorage.common",
    "lib.oauth2client",
    "check_in",
    "errors",
    "lib.oauth2client.keyring_storage",
    "sample_tools",
    "oauth2client.client",
    "xsrfutil",
    "add_a_cat",
    "lib.oauth2client.xsrfutil",
    "discovery",
    "oauth2client.gce",
    "multistore_file",
    "keyring_storage",
    "lib.httplib2.iri2uri",
    "lib.oauth2client.clientsecrets",
    "lib.apiclient.model",
    "lib.cloudstorage.rest_api",
    "lib.apiclient.http",
    "cloudstorage.cloudstorage_api",
    "lib.apiclient",
    "emulator",
    "mirror_api.mirror_api",
    "instaglass",
    "oauth2client.appengine",
    "locked_file",
    "socks",
    "api",
    "oauth2client.crypt",
    "notify",
    "tools",
    "oauth2client.anyjson",
    "oauth2client.file",
    "storage_api",
    "oauth2client.tools",
    "service",
    "lib.oauth2client.util",
    "apiclient.schema",
    "lib.httplib2.socks",
    "lib.oauth2client.gce",
    "lib.cloudstorage.storage_api",
    "lib.apiclient.errors",
    "schema",
    "oauth2client.django_orm",
    "lib.oauth2client.django_orm",
    "service.service",
    "service.notify",
    "glass",
    "demos.hodor",
    "cloudstorage.test_utils",
    "main",
    "lib.cloudstorage.errors",
    "cloudstorage_api",
    "lib.oauth2client.tools",
    "mimeparse",
    "demos.add_a_cat",
    "oauth2client.xsrfutil",
    "demos.check_in",
    "oauth2client.util",
    "appengine",
    "apiclient.http",
    "lib.oauth2client.anyjson",
    "lib.oauth2client.crypt",
    "cloudstorage.storage_api",
    "utils",
    "lib.cloudstorage.api_utils",
    "demos",
    "lib.cloudstorage",
    "file",
    "oauth2client",
    "lib.cloudstorage.cloudstorage_api",
    "lib.httplib2",
    "lib.apiclient.discovery",
    "lib",
    "service.auth",
    "cloudstorage.api_utils",
    "crypt",
    "apiclient.model",
    "demos.friend_finder",
    "channel",
    "lib.oauth2client.old_run",
    "http",
    "iri2uri",
    "models",
    "demos.instaglass",
    "oauth2client.clientsecrets",
    "clientsecrets",
    "gce",
    "oauth2client.keyring_storage",
    "rest_api",
    "api_utils",
    "apiclient",
    "friend_finder",
    "service.upload",
    "cloudstorage.rest_api",
    "client",
    "model",
    "httplib2"
]