{
    "libs": [
        "pynliner",
        "shortcuts",
        "loader",
        "notification",
        "re",
        "template",
        "test",
        "mail",
        "http",
        "loader_tags",
        "db",
        "textwrap",
        "auth",
        "sys",
        "translation",
        "b",
        "logging",
        "threading",
        "t",
        "defaults",
        "exceptions",
        "os"
    ]
}