{
    "archive_url": "https://api.github.com/repos/saebyn/django-classifieds/{archive_format}{/ref}",
    "assignees_url": "https://api.github.com/repos/saebyn/django-classifieds/assignees{/user}",
    "blobs_url": "https://api.github.com/repos/saebyn/django-classifieds/git/blobs{/sha}",
    "branches_url": "https://api.github.com/repos/saebyn/django-classifieds/branches{/branch}",
    "clone_url": "https://github.com/saebyn/django-classifieds.git",
    "collaborators_url": "https://api.github.com/repos/saebyn/django-classifieds/collaborators{/collaborator}",
    "comments_url": "https://api.github.com/repos/saebyn/django-classifieds/comments{/number}",
    "commits_url": "https://api.github.com/repos/saebyn/django-classifieds/commits{/sha}",
    "compare_url": "https://api.github.com/repos/saebyn/django-classifieds/compare/{base}...{head}",
    "contents_url": "https://api.github.com/repos/saebyn/django-classifieds/contents/{+path}",
    "contributors_url": "https://api.github.com/repos/saebyn/django-classifieds/contributors",
    "created_at": "2010-10-15T17:58:47Z",
    "default_branch": "master",
    "description": "A Django app for classified ad creation, payment, management, viewing, and searching.",
    "downloads_url": "https://api.github.com/repos/saebyn/django-classifieds/downloads",
    "events_url": "https://api.github.com/repos/saebyn/django-classifieds/events",
    "fork": false,
    "forks": 15,
    "forks_count": 15,
    "forks_url": "https://api.github.com/repos/saebyn/django-classifieds/forks",
    "full_name": "saebyn/django-classifieds",
    "git_commits_url": "https://api.github.com/repos/saebyn/django-classifieds/git/commits{/sha}",
    "git_refs_url": "https://api.github.com/repos/saebyn/django-classifieds/git/refs{/sha}",
    "git_tags_url": "https://api.github.com/repos/saebyn/django-classifieds/git/tags{/sha}",
    "git_url": "git://github.com/saebyn/django-classifieds.git",
    "has_downloads": true,
    "has_issues": true,
    "has_wiki": true,
    "homepage": "",
    "hooks_url": "https://api.github.com/repos/saebyn/django-classifieds/hooks",
    "html_url": "https://github.com/saebyn/django-classifieds",
    "id": 990855,
    "issue_comment_url": "https://api.github.com/repos/saebyn/django-classifieds/issues/comments/{number}",
    "issue_events_url": "https://api.github.com/repos/saebyn/django-classifieds/issues/events{/number}",
    "issues_url": "https://api.github.com/repos/saebyn/django-classifieds/issues{/number}",
    "keys_url": "https://api.github.com/repos/saebyn/django-classifieds/keys{/key_id}",
    "labels_url": "https://api.github.com/repos/saebyn/django-classifieds/labels{/name}",
    "language": "Python",
    "languages_url": "https://api.github.com/repos/saebyn/django-classifieds/languages",
    "merges_url": "https://api.github.com/repos/saebyn/django-classifieds/merges",
    "milestones_url": "https://api.github.com/repos/saebyn/django-classifieds/milestones{/number}",
    "mirror_url": null,
    "name": "django-classifieds",
    "notifications_url": "https://api.github.com/repos/saebyn/django-classifieds/notifications{?since,all,participating}",
    "open_issues": 1,
    "open_issues_count": 1,
    "owner": {
        "avatar_url": "https://avatars.githubusercontent.com/u/185030?",
        "events_url": "https://api.github.com/users/saebyn/events{/privacy}",
        "followers_url": "https://api.github.com/users/saebyn/followers",
        "following_url": "https://api.github.com/users/saebyn/following{/other_user}",
        "gists_url": "https://api.github.com/users/saebyn/gists{/gist_id}",
        "gravatar_id": "f2b5c7bee7f0379959edcc7a39594f04",
        "html_url": "https://github.com/saebyn",
        "id": 185030,
        "login": "saebyn",
        "organizations_url": "https://api.github.com/users/saebyn/orgs",
        "received_events_url": "https://api.github.com/users/saebyn/received_events",
        "repos_url": "https://api.github.com/users/saebyn/repos",
        "site_admin": false,
        "starred_url": "https://api.github.com/users/saebyn/starred{/owner}{/repo}",
        "subscriptions_url": "https://api.github.com/users/saebyn/subscriptions",
        "type": "User",
        "url": "https://api.github.com/users/saebyn"
    },
    "private": false,
    "pulls_url": "https://api.github.com/repos/saebyn/django-classifieds/pulls{/number}",
    "pushed_at": "2012-09-01T00:00:08Z",
    "releases_url": "https://api.github.com/repos/saebyn/django-classifieds/releases{/id}",
    "score": 1.0,
    "size": 975,
    "ssh_url": "git@github.com:saebyn/django-classifieds.git",
    "stargazers_count": 49,
    "stargazers_url": "https://api.github.com/repos/saebyn/django-classifieds/stargazers",
    "statuses_url": "https://api.github.com/repos/saebyn/django-classifieds/statuses/{sha}",
    "subscribers_url": "https://api.github.com/repos/saebyn/django-classifieds/subscribers",
    "subscription_url": "https://api.github.com/repos/saebyn/django-classifieds/subscription",
    "svn_url": "https://github.com/saebyn/django-classifieds",
    "tags_url": "https://api.github.com/repos/saebyn/django-classifieds/tags",
    "teams_url": "https://api.github.com/repos/saebyn/django-classifieds/teams",
    "trees_url": "https://api.github.com/repos/saebyn/django-classifieds/git/trees{/sha}",
    "updated_at": "2013-12-26T14:09:37Z",
    "url": "https://api.github.com/repos/saebyn/django-classifieds",
    "watchers": 49,
    "watchers_count": 49
}