{
    "libs": [
        "functools",
        "random",
        "with_statement",
        "absolute_import",
        "datetime",
        "parse",
        "urlparse",
        "tempfile",
        "pprint",
        "urllib",
        "re",
        "json",
        "collections",
        "dat",
        "unittest",
        "mock",
        "bin",
        "http",
        "string",
        "schem",
        "iso8601",
        "tokens",
        "fl",
        "types",
        "sys",
        "b",
        "logging",
        "_compat",
        "datab",
        "colander",
        "time",
        "exceptions",
        "os"
    ]
}