{
    "archive_url": "https://api.github.com/repos/orcasgit/python-fitbit/{archive_format}{/ref}",
    "assignees_url": "https://api.github.com/repos/orcasgit/python-fitbit/assignees{/user}",
    "blobs_url": "https://api.github.com/repos/orcasgit/python-fitbit/git/blobs{/sha}",
    "branches_url": "https://api.github.com/repos/orcasgit/python-fitbit/branches{/branch}",
    "clone_url": "https://github.com/orcasgit/python-fitbit.git",
    "collaborators_url": "https://api.github.com/repos/orcasgit/python-fitbit/collaborators{/collaborator}",
    "comments_url": "https://api.github.com/repos/orcasgit/python-fitbit/comments{/number}",
    "commits_url": "https://api.github.com/repos/orcasgit/python-fitbit/commits{/sha}",
    "compare_url": "https://api.github.com/repos/orcasgit/python-fitbit/compare/{base}...{head}",
    "contents_url": "https://api.github.com/repos/orcasgit/python-fitbit/contents/{+path}",
    "contributors_url": "https://api.github.com/repos/orcasgit/python-fitbit/contributors",
    "created_at": "2012-02-17T18:54:14Z",
    "default_branch": "master",
    "description": "Fitbit API Python Client Implementation",
    "downloads_url": "https://api.github.com/repos/orcasgit/python-fitbit/downloads",
    "events_url": "https://api.github.com/repos/orcasgit/python-fitbit/events",
    "fork": false,
    "forks": 33,
    "forks_count": 33,
    "forks_url": "https://api.github.com/repos/orcasgit/python-fitbit/forks",
    "full_name": "orcasgit/python-fitbit",
    "git_commits_url": "https://api.github.com/repos/orcasgit/python-fitbit/git/commits{/sha}",
    "git_refs_url": "https://api.github.com/repos/orcasgit/python-fitbit/git/refs{/sha}",
    "git_tags_url": "https://api.github.com/repos/orcasgit/python-fitbit/git/tags{/sha}",
    "git_url": "git://github.com/orcasgit/python-fitbit.git",
    "has_downloads": true,
    "has_issues": true,
    "has_wiki": true,
    "homepage": "",
    "hooks_url": "https://api.github.com/repos/orcasgit/python-fitbit/hooks",
    "html_url": "https://github.com/orcasgit/python-fitbit",
    "id": 3472837,
    "issue_comment_url": "https://api.github.com/repos/orcasgit/python-fitbit/issues/comments/{number}",
    "issue_events_url": "https://api.github.com/repos/orcasgit/python-fitbit/issues/events{/number}",
    "issues_url": "https://api.github.com/repos/orcasgit/python-fitbit/issues{/number}",
    "keys_url": "https://api.github.com/repos/orcasgit/python-fitbit/keys{/key_id}",
    "labels_url": "https://api.github.com/repos/orcasgit/python-fitbit/labels{/name}",
    "language": "Python",
    "languages_url": "https://api.github.com/repos/orcasgit/python-fitbit/languages",
    "merges_url": "https://api.github.com/repos/orcasgit/python-fitbit/merges",
    "milestones_url": "https://api.github.com/repos/orcasgit/python-fitbit/milestones{/number}",
    "mirror_url": null,
    "name": "python-fitbit",
    "notifications_url": "https://api.github.com/repos/orcasgit/python-fitbit/notifications{?since,all,participating}",
    "open_issues": 4,
    "open_issues_count": 4,
    "owner": {
        "avatar_url": "https://avatars.githubusercontent.com/u/9833?",
        "events_url": "https://api.github.com/users/orcasgit/events{/privacy}",
        "followers_url": "https://api.github.com/users/orcasgit/followers",
        "following_url": "https://api.github.com/users/orcasgit/following{/other_user}",
        "gists_url": "https://api.github.com/users/orcasgit/gists{/gist_id}",
        "gravatar_id": "6ba18f8d96a11d5cbcdaa78ce8d8bb55",
        "html_url": "https://github.com/orcasgit",
        "id": 9833,
        "login": "orcasgit",
        "organizations_url": "https://api.github.com/users/orcasgit/orgs",
        "received_events_url": "https://api.github.com/users/orcasgit/received_events",
        "repos_url": "https://api.github.com/users/orcasgit/repos",
        "site_admin": false,
        "starred_url": "https://api.github.com/users/orcasgit/starred{/owner}{/repo}",
        "subscriptions_url": "https://api.github.com/users/orcasgit/subscriptions",
        "type": "Organization",
        "url": "https://api.github.com/users/orcasgit"
    },
    "private": false,
    "pulls_url": "https://api.github.com/repos/orcasgit/python-fitbit/pulls{/number}",
    "pushed_at": "2014-05-01T14:41:06Z",
    "releases_url": "https://api.github.com/repos/orcasgit/python-fitbit/releases{/id}",
    "score": 1.0,
    "size": 781,
    "ssh_url": "git@github.com:orcasgit/python-fitbit.git",
    "stargazers_count": 64,
    "stargazers_url": "https://api.github.com/repos/orcasgit/python-fitbit/stargazers",
    "statuses_url": "https://api.github.com/repos/orcasgit/python-fitbit/statuses/{sha}",
    "subscribers_url": "https://api.github.com/repos/orcasgit/python-fitbit/subscribers",
    "subscription_url": "https://api.github.com/repos/orcasgit/python-fitbit/subscription",
    "svn_url": "https://github.com/orcasgit/python-fitbit",
    "tags_url": "https://api.github.com/repos/orcasgit/python-fitbit/tags",
    "teams_url": "https://api.github.com/repos/orcasgit/python-fitbit/teams",
    "trees_url": "https://api.github.com/repos/orcasgit/python-fitbit/git/trees{/sha}",
    "updated_at": "2014-05-01T14:41:07Z",
    "url": "https://api.github.com/repos/orcasgit/python-fitbit",
    "watchers": 64,
    "watchers_count": 64
}