{
    "libs": [
        "urlparse",
        "httplib",
        "logging",
        "simplejson",
        "thread",
        "yaml",
        "unittest",
        "StringIO",
        "htmlentitydefs",
        "urllib2",
        "urllib",
        "datetime",
        "sys",
        "re",
        "json",
        "time",
        "gzip",
        "math",
        "operator"
    ]
}