{
    "archive_url": "https://api.github.com/repos/lucjon/Py-StackExchange/{archive_format}{/ref}",
    "assignees_url": "https://api.github.com/repos/lucjon/Py-StackExchange/assignees{/user}",
    "blobs_url": "https://api.github.com/repos/lucjon/Py-StackExchange/git/blobs{/sha}",
    "branches_url": "https://api.github.com/repos/lucjon/Py-StackExchange/branches{/branch}",
    "clone_url": "https://github.com/lucjon/Py-StackExchange.git",
    "collaborators_url": "https://api.github.com/repos/lucjon/Py-StackExchange/collaborators{/collaborator}",
    "comments_url": "https://api.github.com/repos/lucjon/Py-StackExchange/comments{/number}",
    "commits_url": "https://api.github.com/repos/lucjon/Py-StackExchange/commits{/sha}",
    "compare_url": "https://api.github.com/repos/lucjon/Py-StackExchange/compare/{base}...{head}",
    "contents_url": "https://api.github.com/repos/lucjon/Py-StackExchange/contents/{+path}",
    "contributors_url": "https://api.github.com/repos/lucjon/Py-StackExchange/contributors",
    "created_at": "2010-05-23T02:08:02Z",
    "default_branch": "master",
    "description": "A Python binding for the StackExchange API",
    "downloads_url": "https://api.github.com/repos/lucjon/Py-StackExchange/downloads",
    "events_url": "https://api.github.com/repos/lucjon/Py-StackExchange/events",
    "fork": false,
    "forks": 25,
    "forks_count": 25,
    "forks_url": "https://api.github.com/repos/lucjon/Py-StackExchange/forks",
    "full_name": "lucjon/Py-StackExchange",
    "git_commits_url": "https://api.github.com/repos/lucjon/Py-StackExchange/git/commits{/sha}",
    "git_refs_url": "https://api.github.com/repos/lucjon/Py-StackExchange/git/refs{/sha}",
    "git_tags_url": "https://api.github.com/repos/lucjon/Py-StackExchange/git/tags{/sha}",
    "git_url": "git://github.com/lucjon/Py-StackExchange.git",
    "has_downloads": true,
    "has_issues": true,
    "has_wiki": true,
    "homepage": "http://stackapps.com/questions/198/py-stackexchange-an-api-wrapper-for-python",
    "hooks_url": "https://api.github.com/repos/lucjon/Py-StackExchange/hooks",
    "html_url": "https://github.com/lucjon/Py-StackExchange",
    "id": 681300,
    "issue_comment_url": "https://api.github.com/repos/lucjon/Py-StackExchange/issues/comments/{number}",
    "issue_events_url": "https://api.github.com/repos/lucjon/Py-StackExchange/issues/events{/number}",
    "issues_url": "https://api.github.com/repos/lucjon/Py-StackExchange/issues{/number}",
    "keys_url": "https://api.github.com/repos/lucjon/Py-StackExchange/keys{/key_id}",
    "labels_url": "https://api.github.com/repos/lucjon/Py-StackExchange/labels{/name}",
    "language": "Python",
    "languages_url": "https://api.github.com/repos/lucjon/Py-StackExchange/languages",
    "merges_url": "https://api.github.com/repos/lucjon/Py-StackExchange/merges",
    "milestones_url": "https://api.github.com/repos/lucjon/Py-StackExchange/milestones{/number}",
    "mirror_url": null,
    "name": "Py-StackExchange",
    "notifications_url": "https://api.github.com/repos/lucjon/Py-StackExchange/notifications{?since,all,participating}",
    "open_issues": 6,
    "open_issues_count": 6,
    "owner": {
        "avatar_url": "https://avatars.githubusercontent.com/u/42328?",
        "events_url": "https://api.github.com/users/lucjon/events{/privacy}",
        "followers_url": "https://api.github.com/users/lucjon/followers",
        "following_url": "https://api.github.com/users/lucjon/following{/other_user}",
        "gists_url": "https://api.github.com/users/lucjon/gists{/gist_id}",
        "gravatar_id": "7af33908a4aa18412430e704ca6c1253",
        "html_url": "https://github.com/lucjon",
        "id": 42328,
        "login": "lucjon",
        "organizations_url": "https://api.github.com/users/lucjon/orgs",
        "received_events_url": "https://api.github.com/users/lucjon/received_events",
        "repos_url": "https://api.github.com/users/lucjon/repos",
        "site_admin": false,
        "starred_url": "https://api.github.com/users/lucjon/starred{/owner}{/repo}",
        "subscriptions_url": "https://api.github.com/users/lucjon/subscriptions",
        "type": "User",
        "url": "https://api.github.com/users/lucjon"
    },
    "private": false,
    "pulls_url": "https://api.github.com/repos/lucjon/Py-StackExchange/pulls{/number}",
    "pushed_at": "2014-05-01T20:57:24Z",
    "releases_url": "https://api.github.com/repos/lucjon/Py-StackExchange/releases{/id}",
    "score": 1.0,
    "size": 1445,
    "ssh_url": "git@github.com:lucjon/Py-StackExchange.git",
    "stargazers_count": 82,
    "stargazers_url": "https://api.github.com/repos/lucjon/Py-StackExchange/stargazers",
    "statuses_url": "https://api.github.com/repos/lucjon/Py-StackExchange/statuses/{sha}",
    "subscribers_url": "https://api.github.com/repos/lucjon/Py-StackExchange/subscribers",
    "subscription_url": "https://api.github.com/repos/lucjon/Py-StackExchange/subscription",
    "svn_url": "https://github.com/lucjon/Py-StackExchange",
    "tags_url": "https://api.github.com/repos/lucjon/Py-StackExchange/tags",
    "teams_url": "https://api.github.com/repos/lucjon/Py-StackExchange/teams",
    "trees_url": "https://api.github.com/repos/lucjon/Py-StackExchange/git/trees{/sha}",
    "updated_at": "2014-05-01T20:57:27Z",
    "url": "https://api.github.com/repos/lucjon/Py-StackExchange",
    "watchers": 82,
    "watchers_count": 82
}