[
    "versus",
    "tools.makedoc",
    "tools.se_inter",
    "demo.stats",
    "demo",
    "demo.narcissism",
    "highest_voted",
    "demo.recent_questions",
    "demo.experience",
    "demo.search",
    "tools",
    "web",
    "stats",
    "question",
    "sites",
    "demo.versus",
    "demo.object_explorer",
    "narcissism",
    "core",
    "stackexchange.web",
    "demo.question",
    "makedoc",
    "stackexchange.core",
    "tools._genconsts",
    "recent_questions",
    "demo.highest_voted",
    "object_explorer",
    "stackexchange",
    "testsuite",
    "search",
    "experience",
    "se_inter",
    "_genconsts",
    "stackexchange.sites",
    "stackauth"
]