{
    "libs": [
        "sys",
        "random",
        "logging",
        "inspect",
        "line_iterator",
        "cssutils",
        "unittest",
        "pgm",
        "textwrap",
        "tokens",
        "re",
        "operator",
        "utils",
        "special"
    ]
}