[
    "clevercss.ctranslator",
    "clevercss.errors",
    "ctranslator",
    "clevercss.consts",
    "tests.one_liners",
    "tests.spritemap_test",
    "tests.parsing",
    "tests",
    "spritemap_test",
    "parsing",
    "translator",
    "color_convert",
    "backwards",
    "clevercss.grammar",
    "consts",
    "magictest",
    "clevercss.translator",
    "clevercss.backwards",
    "tests.color_convert",
    "tests.ccss_to_css",
    "errors",
    "grammar",
    "minify",
    "tokenize_",
    "one_liners",
    "clevercss.values",
    "tests.tokenize_",
    "tests.magictest",
    "values",
    "tests.minify",
    "clevercss",
    "extract_sprites",
    "ccss_to_css"
]