[
    "test.test_plugin",
    "docs._themes",
    "bakthat.backends",
    "docs._themes.flask_theme_support",
    "models",
    "docs",
    "utils",
    "sync",
    "test.test_plugin2",
    "flask_theme_support",
    "conf",
    "bakthat.models",
    "test_plugin",
    "docs.conf",
    "bakthat.conf",
    "test_bakthat_swift",
    "bakthat",
    "helper",
    "plugin",
    "bakthat.plugin",
    "bakthat.sync",
    "_themes.flask_theme_support",
    "test_plugin2",
    "backends",
    "_themes",
    "test",
    "test_bakthat",
    "bakthat.utils",
    "bakthat.helper"
]