{
    "libs": [
        "cStringIO",
        "unittest",
        "random",
        "subprocess",
        "gc",
        "struct",
        "tempfile",
        "mmap",
        "collections",
        "types",
        "functools",
        "math",
        "fcntl",
        "distorm3",
        "sys",
        "logging",
        "copy",
        "elffile",
        "argparse",
        "resource",
        "pickle",
        "traceback",
        "weakref",
        "time",
        "contextlib",
        "os",
        "pdb"
    ]
}