[
    "conda.progressbar.compat",
    "cli.main_help",
    "main_install",
    "help",
    "conda.cli.main_config",
    "test_install",
    "test_activate",
    "cli.main_clean",
    "conda.bundle",
    "conda.cli.conda_argparse",
    "tests.test_misc",
    "conda.cli.main_bundle",
    "cli",
    "progressbar.compat",
    "main_clean",
    "cli.pscheck",
    "tests.test_activate",
    "conda.cli.main_help",
    "conda.cli.find_commands",
    "main",
    "tests",
    "conda.lock",
    "conda_argparse",
    "conda.progressbar",
    "conda.cli.main_remove",
    "win_batlink",
    "test_import",
    "main_update",
    "conda.install",
    "execute",
    "resolve",
    "cli.main_package",
    "tests.test_install",
    "conda.utils",
    "conda.cli.main_clean",
    "common",
    "test_misc",
    "tests.test_plan",
    "tests.test_cli",
    "cli.install",
    "activate",
    "main_remove",
    "main_search",
    "conda._version",
    "find_commands",
    "main_init",
    "conda.connection",
    "compat",
    "test_config",
    "main_info",
    "conda.cli.main_package",
    "cli.main_list",
    "conda.share",
    "cli.main_install",
    "conda.cli.main_create",
    "packup",
    "conda.progressbar.widgets",
    "main_package",
    "conda.cli.main_update",
    "cli.main_init",
    "cli.main_bundle",
    "test_info",
    "cli.main_info",
    "conda",
    "cli.main_search",
    "console",
    "conda.plan",
    "tests.test_config",
    "tests.execute",
    "cli.find_commands",
    "utils.win_batlink",
    "_version",
    "progressbar",
    "cli.main",
    "utils.smoketest",
    "connection",
    "test_plan",
    "helpers",
    "logic",
    "test_logic",
    "conda.cli.main_init",
    "plan",
    "conda.verlib",
    "misc",
    "verlib",
    "pscheck",
    "tests.mk_index",
    "api",
    "conda.cli.install",
    "conda.console",
    "widgets",
    "conda.cli.main_search",
    "conda.cli.main_install",
    "conda.config",
    "cli.main_create",
    "conda.api",
    "conda.compat",
    "cli.activate",
    "conda.cli.main_list",
    "conda.history",
    "tests.helpers",
    "cli.main_config",
    "install",
    "test_resolve",
    "conda.cli.activate",
    "fetch",
    "history",
    "conda.fetch",
    "conda.cli.common",
    "lock",
    "utils",
    "main_config",
    "share",
    "versioneer",
    "tests.test_resolve",
    "__main__",
    "tests.test_logic",
    "conda.misc",
    "mk_index",
    "conda.cli.help",
    "conda.cli.main_info",
    "tests.test_info",
    "cli.misc",
    "conda.cli.misc",
    "conda.packup",
    "progressbar.widgets",
    "config",
    "main_create",
    "test_cli",
    "smoketest",
    "bundle",
    "conda.cli.main",
    "cli.main_remove",
    "tests.test_import",
    "cli.conda_argparse",
    "cli.help",
    "main_bundle",
    "conda.cli",
    "conda.logic",
    "conda.__main__",
    "conda.resolve",
    "cli.common",
    "main_help",
    "conda.cli.pscheck",
    "cli.main_update",
    "main_list"
]