{
    "archive_url": "https://api.github.com/repos/timmyomahony/django-pagedown/{archive_format}{/ref}",
    "assignees_url": "https://api.github.com/repos/timmyomahony/django-pagedown/assignees{/user}",
    "blobs_url": "https://api.github.com/repos/timmyomahony/django-pagedown/git/blobs{/sha}",
    "branches_url": "https://api.github.com/repos/timmyomahony/django-pagedown/branches{/branch}",
    "clone_url": "https://github.com/timmyomahony/django-pagedown.git",
    "collaborators_url": "https://api.github.com/repos/timmyomahony/django-pagedown/collaborators{/collaborator}",
    "comments_url": "https://api.github.com/repos/timmyomahony/django-pagedown/comments{/number}",
    "commits_url": "https://api.github.com/repos/timmyomahony/django-pagedown/commits{/sha}",
    "compare_url": "https://api.github.com/repos/timmyomahony/django-pagedown/compare/{base}...{head}",
    "contents_url": "https://api.github.com/repos/timmyomahony/django-pagedown/contents/{+path}",
    "contributors_url": "https://api.github.com/repos/timmyomahony/django-pagedown/contributors",
    "created_at": "2012-04-20T14:06:17Z",
    "default_branch": "master",
    "description": "A django app that allows the easy addition of Stack Overflow's \"PageDown\" markdown editor to a django form field, whether in a custom app or the Django Admin",
    "downloads_url": "https://api.github.com/repos/timmyomahony/django-pagedown/downloads",
    "events_url": "https://api.github.com/repos/timmyomahony/django-pagedown/events",
    "fork": false,
    "forks": 25,
    "forks_count": 25,
    "forks_url": "https://api.github.com/repos/timmyomahony/django-pagedown/forks",
    "full_name": "timmyomahony/django-pagedown",
    "git_commits_url": "https://api.github.com/repos/timmyomahony/django-pagedown/git/commits{/sha}",
    "git_refs_url": "https://api.github.com/repos/timmyomahony/django-pagedown/git/refs{/sha}",
    "git_tags_url": "https://api.github.com/repos/timmyomahony/django-pagedown/git/tags{/sha}",
    "git_url": "git://github.com/timmyomahony/django-pagedown.git",
    "has_downloads": true,
    "has_issues": true,
    "has_wiki": true,
    "homepage": null,
    "hooks_url": "https://api.github.com/repos/timmyomahony/django-pagedown/hooks",
    "html_url": "https://github.com/timmyomahony/django-pagedown",
    "id": 4087186,
    "issue_comment_url": "https://api.github.com/repos/timmyomahony/django-pagedown/issues/comments/{number}",
    "issue_events_url": "https://api.github.com/repos/timmyomahony/django-pagedown/issues/events{/number}",
    "issues_url": "https://api.github.com/repos/timmyomahony/django-pagedown/issues{/number}",
    "keys_url": "https://api.github.com/repos/timmyomahony/django-pagedown/keys{/key_id}",
    "labels_url": "https://api.github.com/repos/timmyomahony/django-pagedown/labels{/name}",
    "language": "Python",
    "languages_url": "https://api.github.com/repos/timmyomahony/django-pagedown/languages",
    "merges_url": "https://api.github.com/repos/timmyomahony/django-pagedown/merges",
    "milestones_url": "https://api.github.com/repos/timmyomahony/django-pagedown/milestones{/number}",
    "mirror_url": null,
    "name": "django-pagedown",
    "notifications_url": "https://api.github.com/repos/timmyomahony/django-pagedown/notifications{?since,all,participating}",
    "open_issues": 2,
    "open_issues_count": 2,
    "owner": {
        "avatar_url": "https://avatars.githubusercontent.com/u/615149?",
        "events_url": "https://api.github.com/users/timmyomahony/events{/privacy}",
        "followers_url": "https://api.github.com/users/timmyomahony/followers",
        "following_url": "https://api.github.com/users/timmyomahony/following{/other_user}",
        "gists_url": "https://api.github.com/users/timmyomahony/gists{/gist_id}",
        "gravatar_id": "4cea512a42427b4ea5bd9771e3f3d62c",
        "html_url": "https://github.com/timmyomahony",
        "id": 615149,
        "login": "timmyomahony",
        "organizations_url": "https://api.github.com/users/timmyomahony/orgs",
        "received_events_url": "https://api.github.com/users/timmyomahony/received_events",
        "repos_url": "https://api.github.com/users/timmyomahony/repos",
        "site_admin": false,
        "starred_url": "https://api.github.com/users/timmyomahony/starred{/owner}{/repo}",
        "subscriptions_url": "https://api.github.com/users/timmyomahony/subscriptions",
        "type": "User",
        "url": "https://api.github.com/users/timmyomahony"
    },
    "private": false,
    "pulls_url": "https://api.github.com/repos/timmyomahony/django-pagedown/pulls{/number}",
    "pushed_at": "2014-04-24T09:49:15Z",
    "releases_url": "https://api.github.com/repos/timmyomahony/django-pagedown/releases{/id}",
    "score": 1.0,
    "size": 661,
    "ssh_url": "git@github.com:timmyomahony/django-pagedown.git",
    "stargazers_count": 101,
    "stargazers_url": "https://api.github.com/repos/timmyomahony/django-pagedown/stargazers",
    "statuses_url": "https://api.github.com/repos/timmyomahony/django-pagedown/statuses/{sha}",
    "subscribers_url": "https://api.github.com/repos/timmyomahony/django-pagedown/subscribers",
    "subscription_url": "https://api.github.com/repos/timmyomahony/django-pagedown/subscription",
    "svn_url": "https://github.com/timmyomahony/django-pagedown",
    "tags_url": "https://api.github.com/repos/timmyomahony/django-pagedown/tags",
    "teams_url": "https://api.github.com/repos/timmyomahony/django-pagedown/teams",
    "trees_url": "https://api.github.com/repos/timmyomahony/django-pagedown/git/trees{/sha}",
    "updated_at": "2014-04-24T09:49:15Z",
    "url": "https://api.github.com/repos/timmyomahony/django-pagedown",
    "watchers": 101,
    "watchers_count": 101
}