{
    "libs": [
        "unicode_literals",
        "unittest",
        "parse",
        "operator",
        "queue",
        "platform",
        "tempfile",
        "pprint",
        "re",
        "json",
        "collections",
        "print_function",
        "functools",
        "mock",
        "invoke",
        "argparse",
        "Queue",
        "urlparse",
        "types",
        "sys",
        "b",
        "logging",
        "cmd",
        "weakref",
        "threading",
        "time",
        "Cr",
        "os"
    ]
}