{
    "libs": [
        "text",
        "datetime",
        "api",
        "validators",
        "network",
        "psycopg2",
        "re",
        "json",
        "ldap",
        "smtplib",
        "files",
        "inspect",
        "sys",
        "path",
        "subprocess",
        "fl",
        "importlib",
        "logging",
        "threading",
        "extensions",
        "wtforms",
        "time",
        "requests",
        "os"
    ]
}