{
    "libs": [
        "shortcuts",
        "text",
        "datetime",
        "conf",
        "contrib",
        "management",
        "PIL",
        "cache",
        "re",
        "template",
        "decorators",
        "http",
        "db",
        "sys",
        "uploadedfile",
        "path",
        "translation",
        "dat",
        "bisect",
        "h",
        "decimal",
        "django",
        "defaults",
        "time",
        "exceptions",
        "safestring"
    ]
}