{
    "archive_url": "https://api.github.com/repos/pika/pika/{archive_format}{/ref}",
    "assignees_url": "https://api.github.com/repos/pika/pika/assignees{/user}",
    "blobs_url": "https://api.github.com/repos/pika/pika/git/blobs{/sha}",
    "branches_url": "https://api.github.com/repos/pika/pika/branches{/branch}",
    "clone_url": "https://github.com/pika/pika.git",
    "collaborators_url": "https://api.github.com/repos/pika/pika/collaborators{/collaborator}",
    "comments_url": "https://api.github.com/repos/pika/pika/comments{/number}",
    "commits_url": "https://api.github.com/repos/pika/pika/commits{/sha}",
    "compare_url": "https://api.github.com/repos/pika/pika/compare/{base}...{head}",
    "contents_url": "https://api.github.com/repos/pika/pika/contents/{+path}",
    "contributors_url": "https://api.github.com/repos/pika/pika/contributors",
    "created_at": "2009-10-19T23:22:02Z",
    "default_branch": "master",
    "description": "Pure Python RabbitMQ/AMQP 0-9-1 client library",
    "downloads_url": "https://api.github.com/repos/pika/pika/downloads",
    "events_url": "https://api.github.com/repos/pika/pika/events",
    "fork": false,
    "forks": 219,
    "forks_count": 219,
    "forks_url": "https://api.github.com/repos/pika/pika/forks",
    "full_name": "pika/pika",
    "git_commits_url": "https://api.github.com/repos/pika/pika/git/commits{/sha}",
    "git_refs_url": "https://api.github.com/repos/pika/pika/git/refs{/sha}",
    "git_tags_url": "https://api.github.com/repos/pika/pika/git/tags{/sha}",
    "git_url": "git://github.com/pika/pika.git",
    "has_downloads": true,
    "has_issues": true,
    "has_wiki": true,
    "homepage": "http://pika.readthedocs.org",
    "hooks_url": "https://api.github.com/repos/pika/pika/hooks",
    "html_url": "https://github.com/pika/pika",
    "id": 342869,
    "issue_comment_url": "https://api.github.com/repos/pika/pika/issues/comments/{number}",
    "issue_events_url": "https://api.github.com/repos/pika/pika/issues/events{/number}",
    "issues_url": "https://api.github.com/repos/pika/pika/issues{/number}",
    "keys_url": "https://api.github.com/repos/pika/pika/keys{/key_id}",
    "labels_url": "https://api.github.com/repos/pika/pika/labels{/name}",
    "language": "Python",
    "languages_url": "https://api.github.com/repos/pika/pika/languages",
    "merges_url": "https://api.github.com/repos/pika/pika/merges",
    "milestones_url": "https://api.github.com/repos/pika/pika/milestones{/number}",
    "mirror_url": null,
    "name": "pika",
    "notifications_url": "https://api.github.com/repos/pika/pika/notifications{?since,all,participating}",
    "open_issues": 38,
    "open_issues_count": 38,
    "owner": {
        "avatar_url": "https://avatars.githubusercontent.com/u/660428?",
        "events_url": "https://api.github.com/users/pika/events{/privacy}",
        "followers_url": "https://api.github.com/users/pika/followers",
        "following_url": "https://api.github.com/users/pika/following{/other_user}",
        "gists_url": "https://api.github.com/users/pika/gists{/gist_id}",
        "gravatar_id": "1c71e57893b14fd6529b4198e9816e5c",
        "html_url": "https://github.com/pika",
        "id": 660428,
        "login": "pika",
        "organizations_url": "https://api.github.com/users/pika/orgs",
        "received_events_url": "https://api.github.com/users/pika/received_events",
        "repos_url": "https://api.github.com/users/pika/repos",
        "site_admin": false,
        "starred_url": "https://api.github.com/users/pika/starred{/owner}{/repo}",
        "subscriptions_url": "https://api.github.com/users/pika/subscriptions",
        "type": "Organization",
        "url": "https://api.github.com/users/pika"
    },
    "private": false,
    "pulls_url": "https://api.github.com/repos/pika/pika/pulls{/number}",
    "pushed_at": "2014-05-06T14:51:07Z",
    "releases_url": "https://api.github.com/repos/pika/pika/releases{/id}",
    "score": 1.0,
    "size": 7293,
    "ssh_url": "git@github.com:pika/pika.git",
    "stargazers_count": 620,
    "stargazers_url": "https://api.github.com/repos/pika/pika/stargazers",
    "statuses_url": "https://api.github.com/repos/pika/pika/statuses/{sha}",
    "subscribers_url": "https://api.github.com/repos/pika/pika/subscribers",
    "subscription_url": "https://api.github.com/repos/pika/pika/subscription",
    "svn_url": "https://github.com/pika/pika",
    "tags_url": "https://api.github.com/repos/pika/pika/tags",
    "teams_url": "https://api.github.com/repos/pika/pika/teams",
    "trees_url": "https://api.github.com/repos/pika/pika/git/trees{/sha}",
    "updated_at": "2014-05-06T17:22:47Z",
    "url": "https://api.github.com/repos/pika/pika",
    "watchers": 620,
    "watchers_count": 620
}