{
    "archive_url": "https://api.github.com/repos/hubert3/iSniff-GPS/{archive_format}{/ref}",
    "assignees_url": "https://api.github.com/repos/hubert3/iSniff-GPS/assignees{/user}",
    "blobs_url": "https://api.github.com/repos/hubert3/iSniff-GPS/git/blobs{/sha}",
    "branches_url": "https://api.github.com/repos/hubert3/iSniff-GPS/branches{/branch}",
    "clone_url": "https://github.com/hubert3/iSniff-GPS.git",
    "collaborators_url": "https://api.github.com/repos/hubert3/iSniff-GPS/collaborators{/collaborator}",
    "comments_url": "https://api.github.com/repos/hubert3/iSniff-GPS/comments{/number}",
    "commits_url": "https://api.github.com/repos/hubert3/iSniff-GPS/commits{/sha}",
    "compare_url": "https://api.github.com/repos/hubert3/iSniff-GPS/compare/{base}...{head}",
    "contents_url": "https://api.github.com/repos/hubert3/iSniff-GPS/contents/{+path}",
    "contributors_url": "https://api.github.com/repos/hubert3/iSniff-GPS/contributors",
    "created_at": "2012-08-31T03:39:45Z",
    "default_branch": "master",
    "description": "Passive sniffing tool for capturing and visualising WiFi location data disclosed by iOS devices",
    "downloads_url": "https://api.github.com/repos/hubert3/iSniff-GPS/downloads",
    "events_url": "https://api.github.com/repos/hubert3/iSniff-GPS/events",
    "fork": false,
    "forks": 39,
    "forks_count": 39,
    "forks_url": "https://api.github.com/repos/hubert3/iSniff-GPS/forks",
    "full_name": "hubert3/iSniff-GPS",
    "git_commits_url": "https://api.github.com/repos/hubert3/iSniff-GPS/git/commits{/sha}",
    "git_refs_url": "https://api.github.com/repos/hubert3/iSniff-GPS/git/refs{/sha}",
    "git_tags_url": "https://api.github.com/repos/hubert3/iSniff-GPS/git/tags{/sha}",
    "git_url": "git://github.com/hubert3/iSniff-GPS.git",
    "has_downloads": true,
    "has_issues": true,
    "has_wiki": true,
    "homepage": null,
    "hooks_url": "https://api.github.com/repos/hubert3/iSniff-GPS/hooks",
    "html_url": "https://github.com/hubert3/iSniff-GPS",
    "id": 5624155,
    "issue_comment_url": "https://api.github.com/repos/hubert3/iSniff-GPS/issues/comments/{number}",
    "issue_events_url": "https://api.github.com/repos/hubert3/iSniff-GPS/issues/events{/number}",
    "issues_url": "https://api.github.com/repos/hubert3/iSniff-GPS/issues{/number}",
    "keys_url": "https://api.github.com/repos/hubert3/iSniff-GPS/keys{/key_id}",
    "labels_url": "https://api.github.com/repos/hubert3/iSniff-GPS/labels{/name}",
    "language": "Python",
    "languages_url": "https://api.github.com/repos/hubert3/iSniff-GPS/languages",
    "merges_url": "https://api.github.com/repos/hubert3/iSniff-GPS/merges",
    "milestones_url": "https://api.github.com/repos/hubert3/iSniff-GPS/milestones{/number}",
    "mirror_url": null,
    "name": "iSniff-GPS",
    "notifications_url": "https://api.github.com/repos/hubert3/iSniff-GPS/notifications{?since,all,participating}",
    "open_issues": 0,
    "open_issues_count": 0,
    "owner": {
        "avatar_url": "https://avatars.githubusercontent.com/u/947995?",
        "events_url": "https://api.github.com/users/hubert3/events{/privacy}",
        "followers_url": "https://api.github.com/users/hubert3/followers",
        "following_url": "https://api.github.com/users/hubert3/following{/other_user}",
        "gists_url": "https://api.github.com/users/hubert3/gists{/gist_id}",
        "gravatar_id": "514c2b43e959fc4c45313d7b40d92031",
        "html_url": "https://github.com/hubert3",
        "id": 947995,
        "login": "hubert3",
        "organizations_url": "https://api.github.com/users/hubert3/orgs",
        "received_events_url": "https://api.github.com/users/hubert3/received_events",
        "repos_url": "https://api.github.com/users/hubert3/repos",
        "site_admin": false,
        "starred_url": "https://api.github.com/users/hubert3/starred{/owner}{/repo}",
        "subscriptions_url": "https://api.github.com/users/hubert3/subscriptions",
        "type": "User",
        "url": "https://api.github.com/users/hubert3"
    },
    "private": false,
    "pulls_url": "https://api.github.com/repos/hubert3/iSniff-GPS/pulls{/number}",
    "pushed_at": "2013-11-13T19:56:31Z",
    "releases_url": "https://api.github.com/repos/hubert3/iSniff-GPS/releases{/id}",
    "score": 1.0,
    "size": 17744,
    "ssh_url": "git@github.com:hubert3/iSniff-GPS.git",
    "stargazers_count": 385,
    "stargazers_url": "https://api.github.com/repos/hubert3/iSniff-GPS/stargazers",
    "statuses_url": "https://api.github.com/repos/hubert3/iSniff-GPS/statuses/{sha}",
    "subscribers_url": "https://api.github.com/repos/hubert3/iSniff-GPS/subscribers",
    "subscription_url": "https://api.github.com/repos/hubert3/iSniff-GPS/subscription",
    "svn_url": "https://github.com/hubert3/iSniff-GPS",
    "tags_url": "https://api.github.com/repos/hubert3/iSniff-GPS/tags",
    "teams_url": "https://api.github.com/repos/hubert3/iSniff-GPS/teams",
    "trees_url": "https://api.github.com/repos/hubert3/iSniff-GPS/git/trees{/sha}",
    "updated_at": "2014-05-02T13:37:57Z",
    "url": "https://api.github.com/repos/hubert3/iSniff-GPS",
    "watchers": 385,
    "watchers_count": 385
}