[
    "examples.authentication",
    "linkedin.exceptions",
    "models",
    "utils",
    "linkedin.linkedin",
    "linkedin.server",
    "linkedin",
    "linkedin.models",
    "authentication",
    "examples",
    "exceptions",
    "server",
    "linkedin.utils"
]