[
    "commands.scaffold",
    "templatetags.custom_tags",
    "helper",
    "django_common.db_fields",
    "django_common.http",
    "session",
    "django_common.auth_backends",
    "django_common.decorators",
    "django_common.scaffold",
    "context_processors",
    "django_common",
    "management",
    "scaffold",
    "django_common.email_backends",
    "custom_tags",
    "auth_backends",
    "django_common.tests",
    "django_common.management.commands",
    "tzinfo",
    "db_fields",
    "decorators",
    "classmaker",
    "tests",
    "http",
    "django_common.session",
    "django_common.settings",
    "django_common.classmaker",
    "django_common.management.commands.scaffold",
    "email_backends",
    "django_common.middleware",
    "management.commands.scaffold",
    "django_common.admin",
    "commands",
    "django_common.tzinfo",
    "django_common.management",
    "settings",
    "admin",
    "django_common.templatetags",
    "middleware",
    "templatetags",
    "management.commands",
    "django_common.helper",
    "django_common.context_processors",
    "django_common.templatetags.custom_tags"
]