{
    "libs": [
        "curses",
        "datetime",
        "numbers",
        "operator",
        "re",
        "psycopg2",
        "platform",
        "json",
        "ConfigParser",
        "stat",
        "optparse",
        "glob",
        "sys",
        "path",
        "subprocess",
        "socket",
        "Queue",
        "logging",
        "extr",
        "traceback",
        "threading",
        "time",
        "os",
        "multiprocessing"
    ]
}