[
    "AI.MachineLearning.bayes",
    "NLP.HMM_Tagger",
    "pid_controller",
    "AI.ProblemSolving.homework_1",
    "Robotics.exam.gaussian",
    "slam.online_slam",
    "NLP.HMM_Tagger.gene_tagger",
    "filters",
    "AI.ProblemSolving",
    "p_controller",
    "Robotics.search.dynamic_programming",
    "ComputerVision.examples",
    "pid.path_smoothing",
    "omega_xi",
    "AI.MachineLearning.linear_regression",
    "path_smoothing",
    "histogram.homework",
    "Robotics.histogram.homework",
    "exam.warehouse_robot",
    "cyclic_smoothing",
    "homework",
    "AI.Logic.examples",
    "AI.Markov",
    "Logic.homework_4",
    "Robotics.exam.localization",
    "ComputerVision",
    "game",
    "NLP.HMM_Tagger.eval_gene_tagger",
    "grid",
    "NLP.PCFG_CKY.pcfg",
    "AI.BayesNetworks.bayes_net",
    "Exams.homework_6",
    "particle",
    "AI.Exams.midterm",
    "AI.Exams",
    "Robotics",
    "ComputationalInvesting.hw1",
    "ComputationalInvesting.qenv",
    "example_2",
    "ProblemSolving.search",
    "Robotics.slam.visualize",
    "HMM_Tagger",
    "dynamic_programming",
    "warehouse_robot",
    "Markov.examples",
    "NLP.HMM_Tagger.count_freqs",
    "Markov.markov",
    "linear_regression",
    "homework_4",
    "homework_6",
    "search.first_search",
    "gaussian",
    "histogram.unit_1",
    "homework_2",
    "AI.Robotic.motion",
    "MachineLearning.homework",
    "examples",
    "bayes_net",
    "ComputationalInvesting.hw4",
    "ComputationalInvesting.hw2",
    "ComputationalInvesting.hw3",
    "kalman.homework",
    "NLP",
    "visualize",
    "AI.BayesNetworks",
    "Robotics.pid.robot",
    "pid.robot",
    "ProblemSolving.examples",
    "localization",
    "a_star",
    "kalman.matrix",
    "Game",
    "pcfg",
    "Robotic",
    "Exams.final",
    "AI.MDP.grid",
    "Robotics.pid.pid_controller",
    "Robotic.motion",
    "pid.parameter_optimization",
    "unit_1",
    "exam",
    "unit_3",
    "unit_2",
    "AI.MDP.example_1",
    "Robotics.search.first_search",
    "Robotics.slam.twiddle",
    "Robotics.kalman.matrix",
    "bayes",
    "qenv",
    "slam.visualize",
    "slam.cte",
    "Robotics.kalman.unit_2",
    "MachineLearning.bayes",
    "AI.ComputerVision.filters",
    "search",
    "particle.unit_3",
    "MDP.example_1",
    "AI.Game.game",
    "MDP.example_2",
    "Robotics.particle.unit_3",
    "Robotics.exam",
    "Robotics.kalman",
    "motion",
    "cte",
    "slam.matrix",
    "AI.ProblemSolving.examples",
    "ComputerVision.filters",
    "logic",
    "Robotics.pid",
    "first_search",
    "BayesNetworks.examples",
    "Robotics.histogram.unit_1",
    "HMM_Tagger.count_freqs",
    "AI.MachineLearning",
    "Robotics.search",
    "kalman.gauss",
    "count_freqs",
    "Robotics.pid.racetrack_control",
    "Robotics.histogram",
    "Robotics.pid.path_smoothing",
    "exam.localization",
    "AI.Logic",
    "pd_controller",
    "AI.ProblemSolving.search",
    "Robotic.homework",
    "AI.Markov.examples",
    "slam.robot",
    "AI.ComputerVision.examples",
    "slam.slam",
    "Robotics.search.homework",
    "MDP",
    "left_turn_policy",
    "final",
    "pid.pid_controller",
    "PCFG_CKY",
    "AI.Robotic.homework",
    "Robotics.slam.omega_xi",
    "kalman",
    "slam.omega_xi",
    "homework_1",
    "Robotics.search.a_star",
    "Logic.examples",
    "AI.Exams.final",
    "Robotics.exam.warehouse_robot",
    "gauss",
    "histogram",
    "Robotics.slam",
    "Game.game",
    "Robotics.particle",
    "HMM_Tagger.gene_tagger",
    "AI.MachineLearning.examples",
    "search.dynamic_programming",
    "Robotics.slam.robot",
    "MachineLearning",
    "AI.Game.example",
    "AI.MDP.example_2",
    "pid",
    "Robotics.search.left_turn_policy",
    "eval_gene_tagger",
    "online_slam",
    "Exams.midterm",
    "AI.BayesNetworks.examples",
    "example",
    "Robotics.pid.parameter_optimization",
    "NLP.PCFG_CKY.eval_parser",
    "particle.homework",
    "slam.twiddle",
    "AI.Exams.homework_6",
    "MDP.grid",
    "AI.Robotic",
    "Robotics.pid.cyclic_smoothing",
    "BayesNetworks.homework_2",
    "exam.gaussian",
    "pid.cyclic_smoothing",
    "slam",
    "AI.Logic.logic",
    "search.left_turn_policy",
    "twiddle",
    "search.homework",
    "AI.Logic.homework_4",
    "Robotics.kalman.homework",
    "hw4",
    "Robotics.kalman.gauss",
    "hw2",
    "hw3",
    "hw1",
    "AI.Markov.markov",
    "Robotics.pid.p_controller",
    "PCFG_CKY.eval_parser",
    "NLP.PCFG_CKY",
    "Robotics.slam.matrix",
    "pid.racetrack_control",
    "ComputationalInvesting",
    "Robotics.pid.pd_controller",
    "search.a_star",
    "BayesNetworks.bayes_net",
    "Robotics.slam.online_slam",
    "markov",
    "AI.BayesNetworks.homework_2",
    "Robotics.particle.homework",
    "AI.MachineLearning.homework",
    "Logic.logic",
    "gene_tagger",
    "kalman.unit_2",
    "PCFG_CKY.pcfg",
    "AI",
    "MachineLearning.examples",
    "racetrack_control",
    "Robotics.slam.cte",
    "ProblemSolving",
    "pid.pd_controller",
    "Exams",
    "Logic",
    "ProblemSolving.homework_1",
    "Markov",
    "Robotics.slam.slam",
    "AI.ComputerVision",
    "matrix",
    "AI.Game",
    "Game.example",
    "midterm",
    "example_1",
    "eval_parser",
    "BayesNetworks",
    "parameter_optimization",
    "robot",
    "AI.MDP",
    "pid.p_controller",
    "MachineLearning.linear_regression",
    "HMM_Tagger.eval_gene_tagger"
]