{
    "archive_url": "https://api.github.com/repos/ctn-waterloo/nengo_1.4/{archive_format}{/ref}",
    "assignees_url": "https://api.github.com/repos/ctn-waterloo/nengo_1.4/assignees{/user}",
    "blobs_url": "https://api.github.com/repos/ctn-waterloo/nengo_1.4/git/blobs{/sha}",
    "branches_url": "https://api.github.com/repos/ctn-waterloo/nengo_1.4/branches{/branch}",
    "clone_url": "https://github.com/ctn-waterloo/nengo_1.4.git",
    "collaborators_url": "https://api.github.com/repos/ctn-waterloo/nengo_1.4/collaborators{/collaborator}",
    "comments_url": "https://api.github.com/repos/ctn-waterloo/nengo_1.4/comments{/number}",
    "commits_url": "https://api.github.com/repos/ctn-waterloo/nengo_1.4/commits{/sha}",
    "compare_url": "https://api.github.com/repos/ctn-waterloo/nengo_1.4/compare/{base}...{head}",
    "contents_url": "https://api.github.com/repos/ctn-waterloo/nengo_1.4/contents/{+path}",
    "contributors_url": "https://api.github.com/repos/ctn-waterloo/nengo_1.4/contributors",
    "created_at": "2011-10-20T21:50:41Z",
    "default_branch": "master",
    "description": "Create and run detailed neural simulations",
    "downloads_url": "https://api.github.com/repos/ctn-waterloo/nengo_1.4/downloads",
    "events_url": "https://api.github.com/repos/ctn-waterloo/nengo_1.4/events",
    "fork": false,
    "forks": 23,
    "forks_count": 23,
    "forks_url": "https://api.github.com/repos/ctn-waterloo/nengo_1.4/forks",
    "full_name": "ctn-waterloo/nengo_1.4",
    "git_commits_url": "https://api.github.com/repos/ctn-waterloo/nengo_1.4/git/commits{/sha}",
    "git_refs_url": "https://api.github.com/repos/ctn-waterloo/nengo_1.4/git/refs{/sha}",
    "git_tags_url": "https://api.github.com/repos/ctn-waterloo/nengo_1.4/git/tags{/sha}",
    "git_url": "git://github.com/ctn-waterloo/nengo_1.4.git",
    "has_downloads": true,
    "has_issues": true,
    "has_wiki": false,
    "homepage": "http://www.nengo.ca/",
    "hooks_url": "https://api.github.com/repos/ctn-waterloo/nengo_1.4/hooks",
    "html_url": "https://github.com/ctn-waterloo/nengo_1.4",
    "id": 2616528,
    "issue_comment_url": "https://api.github.com/repos/ctn-waterloo/nengo_1.4/issues/comments/{number}",
    "issue_events_url": "https://api.github.com/repos/ctn-waterloo/nengo_1.4/issues/events{/number}",
    "issues_url": "https://api.github.com/repos/ctn-waterloo/nengo_1.4/issues{/number}",
    "keys_url": "https://api.github.com/repos/ctn-waterloo/nengo_1.4/keys{/key_id}",
    "labels_url": "https://api.github.com/repos/ctn-waterloo/nengo_1.4/labels{/name}",
    "language": "Python",
    "languages_url": "https://api.github.com/repos/ctn-waterloo/nengo_1.4/languages",
    "merges_url": "https://api.github.com/repos/ctn-waterloo/nengo_1.4/merges",
    "milestones_url": "https://api.github.com/repos/ctn-waterloo/nengo_1.4/milestones{/number}",
    "mirror_url": null,
    "name": "nengo_1.4",
    "notifications_url": "https://api.github.com/repos/ctn-waterloo/nengo_1.4/notifications{?since,all,participating}",
    "open_issues": 145,
    "open_issues_count": 145,
    "owner": {
        "avatar_url": "https://avatars.githubusercontent.com/u/1141874?",
        "events_url": "https://api.github.com/users/ctn-waterloo/events{/privacy}",
        "followers_url": "https://api.github.com/users/ctn-waterloo/followers",
        "following_url": "https://api.github.com/users/ctn-waterloo/following{/other_user}",
        "gists_url": "https://api.github.com/users/ctn-waterloo/gists{/gist_id}",
        "gravatar_id": "4cd4f281ab0da4bd34769234c261d1d7",
        "html_url": "https://github.com/ctn-waterloo",
        "id": 1141874,
        "login": "ctn-waterloo",
        "organizations_url": "https://api.github.com/users/ctn-waterloo/orgs",
        "received_events_url": "https://api.github.com/users/ctn-waterloo/received_events",
        "repos_url": "https://api.github.com/users/ctn-waterloo/repos",
        "site_admin": false,
        "starred_url": "https://api.github.com/users/ctn-waterloo/starred{/owner}{/repo}",
        "subscriptions_url": "https://api.github.com/users/ctn-waterloo/subscriptions",
        "type": "Organization",
        "url": "https://api.github.com/users/ctn-waterloo"
    },
    "private": false,
    "pulls_url": "https://api.github.com/repos/ctn-waterloo/nengo_1.4/pulls{/number}",
    "pushed_at": "2014-02-04T17:50:32Z",
    "releases_url": "https://api.github.com/repos/ctn-waterloo/nengo_1.4/releases{/id}",
    "score": 1.0,
    "size": 180259,
    "ssh_url": "git@github.com:ctn-waterloo/nengo_1.4.git",
    "stargazers_count": 96,
    "stargazers_url": "https://api.github.com/repos/ctn-waterloo/nengo_1.4/stargazers",
    "statuses_url": "https://api.github.com/repos/ctn-waterloo/nengo_1.4/statuses/{sha}",
    "subscribers_url": "https://api.github.com/repos/ctn-waterloo/nengo_1.4/subscribers",
    "subscription_url": "https://api.github.com/repos/ctn-waterloo/nengo_1.4/subscription",
    "svn_url": "https://github.com/ctn-waterloo/nengo_1.4",
    "tags_url": "https://api.github.com/repos/ctn-waterloo/nengo_1.4/tags",
    "teams_url": "https://api.github.com/repos/ctn-waterloo/nengo_1.4/teams",
    "trees_url": "https://api.github.com/repos/ctn-waterloo/nengo_1.4/git/trees{/sha}",
    "updated_at": "2014-02-04T17:50:32Z",
    "url": "https://api.github.com/repos/ctn-waterloo/nengo_1.4",
    "watchers": 96,
    "watchers_count": 96
}