{
    "libs": [
        "minidom",
        "xml",
        "httplib",
        "transaction",
        "logging",
        "os",
        "relativedelta",
        "payment_method",
        "text",
        "urllib",
        "datetime",
        "urlparse",
        "re",
        "sys",
        "stripe",
        "time",
        "calendar",
        "config",
        "tools",
        "processor"
    ]
}