{
    "archive_url": "https://api.github.com/repos/freewizard/SublimeFormatSQL/{archive_format}{/ref}",
    "assignees_url": "https://api.github.com/repos/freewizard/SublimeFormatSQL/assignees{/user}",
    "blobs_url": "https://api.github.com/repos/freewizard/SublimeFormatSQL/git/blobs{/sha}",
    "branches_url": "https://api.github.com/repos/freewizard/SublimeFormatSQL/branches{/branch}",
    "clone_url": "https://github.com/freewizard/SublimeFormatSQL.git",
    "collaborators_url": "https://api.github.com/repos/freewizard/SublimeFormatSQL/collaborators{/collaborator}",
    "comments_url": "https://api.github.com/repos/freewizard/SublimeFormatSQL/comments{/number}",
    "commits_url": "https://api.github.com/repos/freewizard/SublimeFormatSQL/commits{/sha}",
    "compare_url": "https://api.github.com/repos/freewizard/SublimeFormatSQL/compare/{base}...{head}",
    "contents_url": "https://api.github.com/repos/freewizard/SublimeFormatSQL/contents/{+path}",
    "contributors_url": "https://api.github.com/repos/freewizard/SublimeFormatSQL/contributors",
    "created_at": "2012-01-02T18:44:40Z",
    "default_branch": "master",
    "description": "Sublime Text 2 command to format long SQL statement to a more readable form (also available via Package Control)",
    "downloads_url": "https://api.github.com/repos/freewizard/SublimeFormatSQL/downloads",
    "events_url": "https://api.github.com/repos/freewizard/SublimeFormatSQL/events",
    "fork": false,
    "forks": 27,
    "forks_count": 27,
    "forks_url": "https://api.github.com/repos/freewizard/SublimeFormatSQL/forks",
    "full_name": "freewizard/SublimeFormatSQL",
    "git_commits_url": "https://api.github.com/repos/freewizard/SublimeFormatSQL/git/commits{/sha}",
    "git_refs_url": "https://api.github.com/repos/freewizard/SublimeFormatSQL/git/refs{/sha}",
    "git_tags_url": "https://api.github.com/repos/freewizard/SublimeFormatSQL/git/tags{/sha}",
    "git_url": "git://github.com/freewizard/SublimeFormatSQL.git",
    "has_downloads": true,
    "has_issues": true,
    "has_wiki": true,
    "homepage": "",
    "hooks_url": "https://api.github.com/repos/freewizard/SublimeFormatSQL/hooks",
    "html_url": "https://github.com/freewizard/SublimeFormatSQL",
    "id": 3089253,
    "issue_comment_url": "https://api.github.com/repos/freewizard/SublimeFormatSQL/issues/comments/{number}",
    "issue_events_url": "https://api.github.com/repos/freewizard/SublimeFormatSQL/issues/events{/number}",
    "issues_url": "https://api.github.com/repos/freewizard/SublimeFormatSQL/issues{/number}",
    "keys_url": "https://api.github.com/repos/freewizard/SublimeFormatSQL/keys{/key_id}",
    "labels_url": "https://api.github.com/repos/freewizard/SublimeFormatSQL/labels{/name}",
    "language": "Python",
    "languages_url": "https://api.github.com/repos/freewizard/SublimeFormatSQL/languages",
    "merges_url": "https://api.github.com/repos/freewizard/SublimeFormatSQL/merges",
    "milestones_url": "https://api.github.com/repos/freewizard/SublimeFormatSQL/milestones{/number}",
    "mirror_url": null,
    "name": "SublimeFormatSQL",
    "notifications_url": "https://api.github.com/repos/freewizard/SublimeFormatSQL/notifications{?since,all,participating}",
    "open_issues": 10,
    "open_issues_count": 10,
    "owner": {
        "avatar_url": "https://avatars.githubusercontent.com/u/7655?",
        "events_url": "https://api.github.com/users/freewizard/events{/privacy}",
        "followers_url": "https://api.github.com/users/freewizard/followers",
        "following_url": "https://api.github.com/users/freewizard/following{/other_user}",
        "gists_url": "https://api.github.com/users/freewizard/gists{/gist_id}",
        "gravatar_id": "96f26730044b13c1653f626928bb3553",
        "html_url": "https://github.com/freewizard",
        "id": 7655,
        "login": "freewizard",
        "organizations_url": "https://api.github.com/users/freewizard/orgs",
        "received_events_url": "https://api.github.com/users/freewizard/received_events",
        "repos_url": "https://api.github.com/users/freewizard/repos",
        "site_admin": false,
        "starred_url": "https://api.github.com/users/freewizard/starred{/owner}{/repo}",
        "subscriptions_url": "https://api.github.com/users/freewizard/subscriptions",
        "type": "User",
        "url": "https://api.github.com/users/freewizard"
    },
    "private": false,
    "pulls_url": "https://api.github.com/repos/freewizard/SublimeFormatSQL/pulls{/number}",
    "pushed_at": "2013-09-24T10:56:13Z",
    "releases_url": "https://api.github.com/repos/freewizard/SublimeFormatSQL/releases{/id}",
    "score": 1.0,
    "size": 113,
    "ssh_url": "git@github.com:freewizard/SublimeFormatSQL.git",
    "stargazers_count": 71,
    "stargazers_url": "https://api.github.com/repos/freewizard/SublimeFormatSQL/stargazers",
    "statuses_url": "https://api.github.com/repos/freewizard/SublimeFormatSQL/statuses/{sha}",
    "subscribers_url": "https://api.github.com/repos/freewizard/SublimeFormatSQL/subscribers",
    "subscription_url": "https://api.github.com/repos/freewizard/SublimeFormatSQL/subscription",
    "svn_url": "https://github.com/freewizard/SublimeFormatSQL",
    "tags_url": "https://api.github.com/repos/freewizard/SublimeFormatSQL/tags",
    "teams_url": "https://api.github.com/repos/freewizard/SublimeFormatSQL/teams",
    "trees_url": "https://api.github.com/repos/freewizard/SublimeFormatSQL/git/trees{/sha}",
    "updated_at": "2014-05-06T05:47:21Z",
    "url": "https://api.github.com/repos/freewizard/SublimeFormatSQL",
    "watchers": 71,
    "watchers_count": 71
}