{
    "libs": [
        "management",
        "logging",
        "defaults",
        "handlers",
        "test",
        "site",
        "environments",
        "subprocess",
        "sys",
        "re",
        "api",
        "t",
        "conf",
        "contrib",
        "path",
        "os",
        "multiprocessing",
        "types"
    ]
}