{
    "archive_url": "https://api.github.com/repos/alexcepoi/pyscale/{archive_format}{/ref}",
    "assignees_url": "https://api.github.com/repos/alexcepoi/pyscale/assignees{/user}",
    "blobs_url": "https://api.github.com/repos/alexcepoi/pyscale/git/blobs{/sha}",
    "branches_url": "https://api.github.com/repos/alexcepoi/pyscale/branches{/branch}",
    "clone_url": "https://github.com/alexcepoi/pyscale.git",
    "collaborators_url": "https://api.github.com/repos/alexcepoi/pyscale/collaborators{/collaborator}",
    "comments_url": "https://api.github.com/repos/alexcepoi/pyscale/comments{/number}",
    "commits_url": "https://api.github.com/repos/alexcepoi/pyscale/commits{/sha}",
    "compare_url": "https://api.github.com/repos/alexcepoi/pyscale/compare/{base}...{head}",
    "contents_url": "https://api.github.com/repos/alexcepoi/pyscale/contents/{+path}",
    "contributors_url": "https://api.github.com/repos/alexcepoi/pyscale/contributors",
    "created_at": "2012-02-07T12:33:42Z",
    "default_branch": "master",
    "description": "General purpose Python framework for writing highly scalable applications",
    "downloads_url": "https://api.github.com/repos/alexcepoi/pyscale/downloads",
    "events_url": "https://api.github.com/repos/alexcepoi/pyscale/events",
    "fork": false,
    "forks": 1,
    "forks_count": 1,
    "forks_url": "https://api.github.com/repos/alexcepoi/pyscale/forks",
    "full_name": "alexcepoi/pyscale",
    "git_commits_url": "https://api.github.com/repos/alexcepoi/pyscale/git/commits{/sha}",
    "git_refs_url": "https://api.github.com/repos/alexcepoi/pyscale/git/refs{/sha}",
    "git_tags_url": "https://api.github.com/repos/alexcepoi/pyscale/git/tags{/sha}",
    "git_url": "git://github.com/alexcepoi/pyscale.git",
    "has_downloads": true,
    "has_issues": true,
    "has_wiki": true,
    "homepage": "",
    "hooks_url": "https://api.github.com/repos/alexcepoi/pyscale/hooks",
    "html_url": "https://github.com/alexcepoi/pyscale",
    "id": 3377155,
    "issue_comment_url": "https://api.github.com/repos/alexcepoi/pyscale/issues/comments/{number}",
    "issue_events_url": "https://api.github.com/repos/alexcepoi/pyscale/issues/events{/number}",
    "issues_url": "https://api.github.com/repos/alexcepoi/pyscale/issues{/number}",
    "keys_url": "https://api.github.com/repos/alexcepoi/pyscale/keys{/key_id}",
    "labels_url": "https://api.github.com/repos/alexcepoi/pyscale/labels{/name}",
    "language": "Python",
    "languages_url": "https://api.github.com/repos/alexcepoi/pyscale/languages",
    "merges_url": "https://api.github.com/repos/alexcepoi/pyscale/merges",
    "milestones_url": "https://api.github.com/repos/alexcepoi/pyscale/milestones{/number}",
    "mirror_url": null,
    "name": "pyscale",
    "notifications_url": "https://api.github.com/repos/alexcepoi/pyscale/notifications{?since,all,participating}",
    "open_issues": 0,
    "open_issues_count": 0,
    "owner": {
        "avatar_url": "https://avatars.githubusercontent.com/u/215764?",
        "events_url": "https://api.github.com/users/alexcepoi/events{/privacy}",
        "followers_url": "https://api.github.com/users/alexcepoi/followers",
        "following_url": "https://api.github.com/users/alexcepoi/following{/other_user}",
        "gists_url": "https://api.github.com/users/alexcepoi/gists{/gist_id}",
        "gravatar_id": "31e86e0ea6851959b3e0967650a72818",
        "html_url": "https://github.com/alexcepoi",
        "id": 215764,
        "login": "alexcepoi",
        "organizations_url": "https://api.github.com/users/alexcepoi/orgs",
        "received_events_url": "https://api.github.com/users/alexcepoi/received_events",
        "repos_url": "https://api.github.com/users/alexcepoi/repos",
        "site_admin": false,
        "starred_url": "https://api.github.com/users/alexcepoi/starred{/owner}{/repo}",
        "subscriptions_url": "https://api.github.com/users/alexcepoi/subscriptions",
        "type": "User",
        "url": "https://api.github.com/users/alexcepoi"
    },
    "private": false,
    "pulls_url": "https://api.github.com/repos/alexcepoi/pyscale/pulls{/number}",
    "pushed_at": "2012-02-09T22:38:44Z",
    "releases_url": "https://api.github.com/repos/alexcepoi/pyscale/releases{/id}",
    "score": 1.0,
    "size": 111,
    "ssh_url": "git@github.com:alexcepoi/pyscale.git",
    "stargazers_count": 64,
    "stargazers_url": "https://api.github.com/repos/alexcepoi/pyscale/stargazers",
    "statuses_url": "https://api.github.com/repos/alexcepoi/pyscale/statuses/{sha}",
    "subscribers_url": "https://api.github.com/repos/alexcepoi/pyscale/subscribers",
    "subscription_url": "https://api.github.com/repos/alexcepoi/pyscale/subscription",
    "svn_url": "https://github.com/alexcepoi/pyscale",
    "tags_url": "https://api.github.com/repos/alexcepoi/pyscale/tags",
    "teams_url": "https://api.github.com/repos/alexcepoi/pyscale/teams",
    "trees_url": "https://api.github.com/repos/alexcepoi/pyscale/git/trees{/sha}",
    "updated_at": "2013-10-07T11:38:19Z",
    "url": "https://api.github.com/repos/alexcepoi/pyscale",
    "watchers": 64,
    "watchers_count": 64
}