{
    "libs": [
        "logging",
        "optparse",
        "glob",
        "time",
        "subprocess",
        "sys",
        "re",
        "shlex",
        "shelve",
        "os"
    ]
}