[
    "svg.Polyline",
    "test.unit_test_svg_abstractShape",
    "Use",
    "unit_test_svg_image",
    "ink2canvas.lib.simplepath",
    "lib.simplestyle",
    "test.unit_test_canvas",
    "LinearGradient",
    "test.unit_test_svg_circle",
    "ink2canvas.svg.Circle",
    "unit_test_svg_line",
    "ink2canvas.svg.Polyline",
    "Defs",
    "ink2canvas.svg.Use",
    "Root",
    "ink2canvas.lib",
    "ink2canvas.main",
    "test.unit_test_svg_image",
    "test.unit_test_svg_element",
    "test.unit_test_svg_ellipse",
    "svg.Use",
    "Path",
    "main",
    "Rect",
    "svg.Path",
    "svg.Line",
    "unit_test_canvas",
    "ink2canvas.Ink2CanvasCore",
    "test.unit_test_svg_g",
    "ink2canvas.svg.Text",
    "ink2canvas.svg.Polygon",
    "ink2canvas.svg.Line",
    "ink2canvas.svg.Path",
    "svg.Ellipse",
    "test.unit_test_svg_clone",
    "ink2canvas.svg.G",
    "simpletransform",
    "test.unit_test_svg_Ink2CanvasCore",
    "ink2canvas.lib.inkex",
    "svg.G",
    "svg.AbstractShape",
    "Ink2CanvasCore",
    "unit_test_svg_text",
    "Text",
    "test.unit_test_svg_group",
    "unit_test_svg_path",
    "ink2canvas.svg.Ellipse",
    "Image",
    "lib.simpletransform",
    "Polygon",
    "ink2canvas.svg.Defs",
    "svg.RadialGradient",
    "unit_test_svg_Ink2CanvasCore",
    "lib.simplepath",
    "svg.Element",
    "svg.Text",
    "ink2canvas.svg.LinearGradient",
    "ClipPath",
    "ink2canvas.svg.RadialGradient",
    "svg.LinearGradient",
    "Circle",
    "GradientHelper",
    "ink2canvas.lib.simplestyle",
    "ink2canvas.svg.AbstractShape",
    "svg.Root",
    "canvas",
    "unit_test_svg_g",
    "svg.Circle",
    "lib",
    "svg.Defs",
    "test.unit_test_svg_line",
    "test.unit_test_svg_rect",
    "ink2canvas",
    "test.unit_test_svg_path",
    "unit_test_svg_clone",
    "ink2canvas.canvas",
    "inkex",
    "test",
    "Line",
    "ink2canvas.svg.Root",
    "test.unit_test_svg_linearGradient",
    "svg.Rect",
    "svg.ClipPath",
    "G",
    "simplepath",
    "unit_test_svg_element",
    "ink2canvas.svg.Image",
    "simplestyle",
    "Element",
    "unit_test_svg_circle",
    "svg.Image",
    "svg.Polygon",
    "ink2canvas.svg.ClipPath",
    "ink2canvas.svg.Rect",
    "RadialGradient",
    "AbstractShape",
    "ink2canvas.svg",
    "standalone",
    "unit_test_svg_ellipse",
    "svg",
    "unit_test_svg_linearGradient",
    "lib.inkex",
    "ink2canvas.svg.Element",
    "Ellipse",
    "ink2canvas.lib.simpletransform",
    "Polyline",
    "test.unit_test_svg_text",
    "ink2canvas.GradientHelper",
    "unit_test_svg_abstractShape",
    "unit_test_svg_rect",
    "unit_test_svg_group"
]