[
    "files",
    "code.package_name",
    "code",
    "picnic",
    "package_name",
    "picnic.files.code.package_name",
    "picnic.files",
    "files.code",
    "conf",
    "picnic.picnic",
    "files.code.package_name",
    "files.sphinx",
    "sphinx",
    "code.version",
    "picnic.files.code.version",
    "picnic.files.sphinx.conf",
    "files.sphinx.conf",
    "sphinx.conf",
    "files.code.version",
    "version",
    "picnic.files.code",
    "picnic.files.sphinx"
]