{
    "archive_url": "https://api.github.com/repos/ulope/django-reversetag/{archive_format}{/ref}",
    "assignees_url": "https://api.github.com/repos/ulope/django-reversetag/assignees{/user}",
    "blobs_url": "https://api.github.com/repos/ulope/django-reversetag/git/blobs{/sha}",
    "branches_url": "https://api.github.com/repos/ulope/django-reversetag/branches{/branch}",
    "clone_url": "https://github.com/ulope/django-reversetag.git",
    "collaborators_url": "https://api.github.com/repos/ulope/django-reversetag/collaborators{/collaborator}",
    "comments_url": "https://api.github.com/repos/ulope/django-reversetag/comments{/number}",
    "commits_url": "https://api.github.com/repos/ulope/django-reversetag/commits{/sha}",
    "compare_url": "https://api.github.com/repos/ulope/django-reversetag/compare/{base}...{head}",
    "contents_url": "https://api.github.com/repos/ulope/django-reversetag/contents/{+path}",
    "contributors_url": "https://api.github.com/repos/ulope/django-reversetag/contributors",
    "created_at": "2009-05-04T12:34:12Z",
    "default_branch": "master",
    "description": "A new, improved (and renamed) implementation of Django's 'url' template tag.",
    "downloads_url": "https://api.github.com/repos/ulope/django-reversetag/downloads",
    "events_url": "https://api.github.com/repos/ulope/django-reversetag/events",
    "fork": false,
    "forks": 2,
    "forks_count": 2,
    "forks_url": "https://api.github.com/repos/ulope/django-reversetag/forks",
    "full_name": "ulope/django-reversetag",
    "git_commits_url": "https://api.github.com/repos/ulope/django-reversetag/git/commits{/sha}",
    "git_refs_url": "https://api.github.com/repos/ulope/django-reversetag/git/refs{/sha}",
    "git_tags_url": "https://api.github.com/repos/ulope/django-reversetag/git/tags{/sha}",
    "git_url": "git://github.com/ulope/django-reversetag.git",
    "has_downloads": true,
    "has_issues": true,
    "has_wiki": true,
    "homepage": "",
    "hooks_url": "https://api.github.com/repos/ulope/django-reversetag/hooks",
    "html_url": "https://github.com/ulope/django-reversetag",
    "id": 192090,
    "issue_comment_url": "https://api.github.com/repos/ulope/django-reversetag/issues/comments/{number}",
    "issue_events_url": "https://api.github.com/repos/ulope/django-reversetag/issues/events{/number}",
    "issues_url": "https://api.github.com/repos/ulope/django-reversetag/issues{/number}",
    "keys_url": "https://api.github.com/repos/ulope/django-reversetag/keys{/key_id}",
    "labels_url": "https://api.github.com/repos/ulope/django-reversetag/labels{/name}",
    "language": "Python",
    "languages_url": "https://api.github.com/repos/ulope/django-reversetag/languages",
    "merges_url": "https://api.github.com/repos/ulope/django-reversetag/merges",
    "milestones_url": "https://api.github.com/repos/ulope/django-reversetag/milestones{/number}",
    "mirror_url": null,
    "name": "django-reversetag",
    "notifications_url": "https://api.github.com/repos/ulope/django-reversetag/notifications{?since,all,participating}",
    "open_issues": 1,
    "open_issues_count": 1,
    "owner": {
        "avatar_url": "https://avatars.githubusercontent.com/u/55078?",
        "events_url": "https://api.github.com/users/ulope/events{/privacy}",
        "followers_url": "https://api.github.com/users/ulope/followers",
        "following_url": "https://api.github.com/users/ulope/following{/other_user}",
        "gists_url": "https://api.github.com/users/ulope/gists{/gist_id}",
        "gravatar_id": "35916d1811a1f4ff1b39658e1c39d96e",
        "html_url": "https://github.com/ulope",
        "id": 55078,
        "login": "ulope",
        "organizations_url": "https://api.github.com/users/ulope/orgs",
        "received_events_url": "https://api.github.com/users/ulope/received_events",
        "repos_url": "https://api.github.com/users/ulope/repos",
        "site_admin": false,
        "starred_url": "https://api.github.com/users/ulope/starred{/owner}{/repo}",
        "subscriptions_url": "https://api.github.com/users/ulope/subscriptions",
        "type": "User",
        "url": "https://api.github.com/users/ulope"
    },
    "private": false,
    "pulls_url": "https://api.github.com/repos/ulope/django-reversetag/pulls{/number}",
    "pushed_at": "2010-12-01T17:05:54Z",
    "releases_url": "https://api.github.com/repos/ulope/django-reversetag/releases{/id}",
    "score": 1.0,
    "size": 110,
    "ssh_url": "git@github.com:ulope/django-reversetag.git",
    "stargazers_count": 45,
    "stargazers_url": "https://api.github.com/repos/ulope/django-reversetag/stargazers",
    "statuses_url": "https://api.github.com/repos/ulope/django-reversetag/statuses/{sha}",
    "subscribers_url": "https://api.github.com/repos/ulope/django-reversetag/subscribers",
    "subscription_url": "https://api.github.com/repos/ulope/django-reversetag/subscription",
    "svn_url": "https://github.com/ulope/django-reversetag",
    "tags_url": "https://api.github.com/repos/ulope/django-reversetag/tags",
    "teams_url": "https://api.github.com/repos/ulope/django-reversetag/teams",
    "trees_url": "https://api.github.com/repos/ulope/django-reversetag/git/trees{/sha}",
    "updated_at": "2014-05-02T08:10:18Z",
    "url": "https://api.github.com/repos/ulope/django-reversetag",
    "watchers": 45,
    "watchers_count": 45
}