{
    "libs": [
        "unittest",
        "expat",
        "datetime",
        "api",
        "calendar",
        "uuid",
        "tempfile",
        "struct",
        "urllib",
        "urlfetch",
        "zope",
        "cgi",
        "etree",
        "simplejson",
        "rfc822",
        "db",
        "textwrap",
        "urllib2",
        "util",
        "webapp",
        "copy",
        "md5",
        "sys",
        "httplib",
        "b",
        "logging",
        "socket",
        "handlers",
        "h",
        "urlparse",
        "ext",
        "time",
        "os",
        "hmac"
    ]
}