{
    "archive_url": "https://api.github.com/repos/openstack/neutron/{archive_format}{/ref}",
    "assignees_url": "https://api.github.com/repos/openstack/neutron/assignees{/user}",
    "blobs_url": "https://api.github.com/repos/openstack/neutron/git/blobs{/sha}",
    "branches_url": "https://api.github.com/repos/openstack/neutron/branches{/branch}",
    "clone_url": "https://github.com/openstack/neutron.git",
    "collaborators_url": "https://api.github.com/repos/openstack/neutron/collaborators{/collaborator}",
    "comments_url": "https://api.github.com/repos/openstack/neutron/comments{/number}",
    "commits_url": "https://api.github.com/repos/openstack/neutron/commits{/sha}",
    "compare_url": "https://api.github.com/repos/openstack/neutron/compare/{base}...{head}",
    "contents_url": "https://api.github.com/repos/openstack/neutron/contents/{+path}",
    "contributors_url": "https://api.github.com/repos/openstack/neutron/contributors",
    "created_at": "2011-09-16T16:04:08Z",
    "default_branch": "master",
    "description": "Neutron is a virtual network service for Openstack.",
    "downloads_url": "https://api.github.com/repos/openstack/neutron/downloads",
    "events_url": "https://api.github.com/repos/openstack/neutron/events",
    "fork": false,
    "forks": 432,
    "forks_count": 432,
    "forks_url": "https://api.github.com/repos/openstack/neutron/forks",
    "full_name": "openstack/neutron",
    "git_commits_url": "https://api.github.com/repos/openstack/neutron/git/commits{/sha}",
    "git_refs_url": "https://api.github.com/repos/openstack/neutron/git/refs{/sha}",
    "git_tags_url": "https://api.github.com/repos/openstack/neutron/git/tags{/sha}",
    "git_url": "git://github.com/openstack/neutron.git",
    "has_downloads": false,
    "has_issues": false,
    "has_wiki": false,
    "homepage": "http://openstack.org",
    "hooks_url": "https://api.github.com/repos/openstack/neutron/hooks",
    "html_url": "https://github.com/openstack/neutron",
    "id": 2400289,
    "issue_comment_url": "https://api.github.com/repos/openstack/neutron/issues/comments/{number}",
    "issue_events_url": "https://api.github.com/repos/openstack/neutron/issues/events{/number}",
    "issues_url": "https://api.github.com/repos/openstack/neutron/issues{/number}",
    "keys_url": "https://api.github.com/repos/openstack/neutron/keys{/key_id}",
    "labels_url": "https://api.github.com/repos/openstack/neutron/labels{/name}",
    "language": "Python",
    "languages_url": "https://api.github.com/repos/openstack/neutron/languages",
    "merges_url": "https://api.github.com/repos/openstack/neutron/merges",
    "milestones_url": "https://api.github.com/repos/openstack/neutron/milestones{/number}",
    "mirror_url": null,
    "name": "neutron",
    "notifications_url": "https://api.github.com/repos/openstack/neutron/notifications{?since,all,participating}",
    "open_issues": 0,
    "open_issues_count": 0,
    "owner": {
        "avatar_url": "https://avatars.githubusercontent.com/u/324574?",
        "events_url": "https://api.github.com/users/openstack/events{/privacy}",
        "followers_url": "https://api.github.com/users/openstack/followers",
        "following_url": "https://api.github.com/users/openstack/following{/other_user}",
        "gists_url": "https://api.github.com/users/openstack/gists{/gist_id}",
        "gravatar_id": "319605a7b6f36f2cd80214b2fc4d0e92",
        "html_url": "https://github.com/openstack",
        "id": 324574,
        "login": "openstack",
        "organizations_url": "https://api.github.com/users/openstack/orgs",
        "received_events_url": "https://api.github.com/users/openstack/received_events",
        "repos_url": "https://api.github.com/users/openstack/repos",
        "site_admin": false,
        "starred_url": "https://api.github.com/users/openstack/starred{/owner}{/repo}",
        "subscriptions_url": "https://api.github.com/users/openstack/subscriptions",
        "type": "Organization",
        "url": "https://api.github.com/users/openstack"
    },
    "private": false,
    "pulls_url": "https://api.github.com/repos/openstack/neutron/pulls{/number}",
    "pushed_at": "2014-05-07T05:49:39Z",
    "releases_url": "https://api.github.com/repos/openstack/neutron/releases{/id}",
    "score": 1.0,
    "size": 130803,
    "ssh_url": "git@github.com:openstack/neutron.git",
    "stargazers_count": 331,
    "stargazers_url": "https://api.github.com/repos/openstack/neutron/stargazers",
    "statuses_url": "https://api.github.com/repos/openstack/neutron/statuses/{sha}",
    "subscribers_url": "https://api.github.com/repos/openstack/neutron/subscribers",
    "subscription_url": "https://api.github.com/repos/openstack/neutron/subscription",
    "svn_url": "https://github.com/openstack/neutron",
    "tags_url": "https://api.github.com/repos/openstack/neutron/tags",
    "teams_url": "https://api.github.com/repos/openstack/neutron/teams",
    "trees_url": "https://api.github.com/repos/openstack/neutron/git/trees{/sha}",
    "updated_at": "2014-05-07T05:49:39Z",
    "url": "https://api.github.com/repos/openstack/neutron",
    "watchers": 331,
    "watchers_count": 331
}