[
    "tests",
    "permutations",
    "algorithms.generators",
    "algorithms.performance",
    "algorithms.tests.test_binary_tree",
    "algorithms.tests",
    "algorithms.binary_tree",
    "binary_tree",
    "algorithms.maze",
    "performance",
    "algorithms.list",
    "performance_string_matching",
    "algorithms.string_matching",
    "tests.test_binary_tree",
    "algorithms.performance.performance_string_matching",
    "performance.performance_string_matching",
    "string_matching",
    "list",
    "algorithms",
    "test_string_matching",
    "test_binary_tree",
    "algorithms.tests.test_string_matching",
    "a_star_path_finding",
    "tests.test_string_matching",
    "algorithms.permutations",
    "maze",
    "algorithms.a_star_path_finding",
    "generators"
]