{
    "archive_url": "https://api.github.com/repos/stochastic-technologies/shortuuid/{archive_format}{/ref}",
    "assignees_url": "https://api.github.com/repos/stochastic-technologies/shortuuid/assignees{/user}",
    "blobs_url": "https://api.github.com/repos/stochastic-technologies/shortuuid/git/blobs{/sha}",
    "branches_url": "https://api.github.com/repos/stochastic-technologies/shortuuid/branches{/branch}",
    "clone_url": "https://github.com/stochastic-technologies/shortuuid.git",
    "collaborators_url": "https://api.github.com/repos/stochastic-technologies/shortuuid/collaborators{/collaborator}",
    "comments_url": "https://api.github.com/repos/stochastic-technologies/shortuuid/comments{/number}",
    "commits_url": "https://api.github.com/repos/stochastic-technologies/shortuuid/commits{/sha}",
    "compare_url": "https://api.github.com/repos/stochastic-technologies/shortuuid/compare/{base}...{head}",
    "contents_url": "https://api.github.com/repos/stochastic-technologies/shortuuid/contents/{+path}",
    "contributors_url": "https://api.github.com/repos/stochastic-technologies/shortuuid/contributors",
    "created_at": "2011-01-08T13:00:43Z",
    "default_branch": "develop",
    "description": "A generator library for concise, unambiguous and URL-safe UUIDs.",
    "downloads_url": "https://api.github.com/repos/stochastic-technologies/shortuuid/downloads",
    "events_url": "https://api.github.com/repos/stochastic-technologies/shortuuid/events",
    "fork": false,
    "forks": 18,
    "forks_count": 18,
    "forks_url": "https://api.github.com/repos/stochastic-technologies/shortuuid/forks",
    "full_name": "stochastic-technologies/shortuuid",
    "git_commits_url": "https://api.github.com/repos/stochastic-technologies/shortuuid/git/commits{/sha}",
    "git_refs_url": "https://api.github.com/repos/stochastic-technologies/shortuuid/git/refs{/sha}",
    "git_tags_url": "https://api.github.com/repos/stochastic-technologies/shortuuid/git/tags{/sha}",
    "git_url": "git://github.com/stochastic-technologies/shortuuid.git",
    "has_downloads": true,
    "has_issues": true,
    "has_wiki": false,
    "homepage": "http://www.stochastictechnologies.com/",
    "hooks_url": "https://api.github.com/repos/stochastic-technologies/shortuuid/hooks",
    "html_url": "https://github.com/stochastic-technologies/shortuuid",
    "id": 1232822,
    "issue_comment_url": "https://api.github.com/repos/stochastic-technologies/shortuuid/issues/comments/{number}",
    "issue_events_url": "https://api.github.com/repos/stochastic-technologies/shortuuid/issues/events{/number}",
    "issues_url": "https://api.github.com/repos/stochastic-technologies/shortuuid/issues{/number}",
    "keys_url": "https://api.github.com/repos/stochastic-technologies/shortuuid/keys{/key_id}",
    "labels_url": "https://api.github.com/repos/stochastic-technologies/shortuuid/labels{/name}",
    "language": "Python",
    "languages_url": "https://api.github.com/repos/stochastic-technologies/shortuuid/languages",
    "merges_url": "https://api.github.com/repos/stochastic-technologies/shortuuid/merges",
    "milestones_url": "https://api.github.com/repos/stochastic-technologies/shortuuid/milestones{/number}",
    "mirror_url": null,
    "name": "shortuuid",
    "notifications_url": "https://api.github.com/repos/stochastic-technologies/shortuuid/notifications{?since,all,participating}",
    "open_issues": 1,
    "open_issues_count": 1,
    "owner": {
        "avatar_url": "https://avatars.githubusercontent.com/u/324282?",
        "events_url": "https://api.github.com/users/stochastic-technologies/events{/privacy}",
        "followers_url": "https://api.github.com/users/stochastic-technologies/followers",
        "following_url": "https://api.github.com/users/stochastic-technologies/following{/other_user}",
        "gists_url": "https://api.github.com/users/stochastic-technologies/gists{/gist_id}",
        "gravatar_id": "330da149d61220b61a00aebbf39e9bda",
        "html_url": "https://github.com/stochastic-technologies",
        "id": 324282,
        "login": "stochastic-technologies",
        "organizations_url": "https://api.github.com/users/stochastic-technologies/orgs",
        "received_events_url": "https://api.github.com/users/stochastic-technologies/received_events",
        "repos_url": "https://api.github.com/users/stochastic-technologies/repos",
        "site_admin": false,
        "starred_url": "https://api.github.com/users/stochastic-technologies/starred{/owner}{/repo}",
        "subscriptions_url": "https://api.github.com/users/stochastic-technologies/subscriptions",
        "type": "Organization",
        "url": "https://api.github.com/users/stochastic-technologies"
    },
    "private": false,
    "pulls_url": "https://api.github.com/repos/stochastic-technologies/shortuuid/pulls{/number}",
    "pushed_at": "2014-04-26T00:13:30Z",
    "releases_url": "https://api.github.com/repos/stochastic-technologies/shortuuid/releases{/id}",
    "score": 1.0,
    "size": 383,
    "ssh_url": "git@github.com:stochastic-technologies/shortuuid.git",
    "stargazers_count": 216,
    "stargazers_url": "https://api.github.com/repos/stochastic-technologies/shortuuid/stargazers",
    "statuses_url": "https://api.github.com/repos/stochastic-technologies/shortuuid/statuses/{sha}",
    "subscribers_url": "https://api.github.com/repos/stochastic-technologies/shortuuid/subscribers",
    "subscription_url": "https://api.github.com/repos/stochastic-technologies/shortuuid/subscription",
    "svn_url": "https://github.com/stochastic-technologies/shortuuid",
    "tags_url": "https://api.github.com/repos/stochastic-technologies/shortuuid/tags",
    "teams_url": "https://api.github.com/repos/stochastic-technologies/shortuuid/teams",
    "trees_url": "https://api.github.com/repos/stochastic-technologies/shortuuid/git/trees{/sha}",
    "updated_at": "2014-04-28T20:29:13Z",
    "url": "https://api.github.com/repos/stochastic-technologies/shortuuid",
    "watchers": 216,
    "watchers_count": 216
}