{
    "archive_url": "https://api.github.com/repos/tobami/littlechef/{archive_format}{/ref}",
    "assignees_url": "https://api.github.com/repos/tobami/littlechef/assignees{/user}",
    "blobs_url": "https://api.github.com/repos/tobami/littlechef/git/blobs{/sha}",
    "branches_url": "https://api.github.com/repos/tobami/littlechef/branches{/branch}",
    "clone_url": "https://github.com/tobami/littlechef.git",
    "collaborators_url": "https://api.github.com/repos/tobami/littlechef/collaborators{/collaborator}",
    "comments_url": "https://api.github.com/repos/tobami/littlechef/comments{/number}",
    "commits_url": "https://api.github.com/repos/tobami/littlechef/commits{/sha}",
    "compare_url": "https://api.github.com/repos/tobami/littlechef/compare/{base}...{head}",
    "contents_url": "https://api.github.com/repos/tobami/littlechef/contents/{+path}",
    "contributors_url": "https://api.github.com/repos/tobami/littlechef/contributors",
    "created_at": "2010-10-22T14:31:55Z",
    "default_branch": "master",
    "description": "Cook with Chef without a Chef Server",
    "downloads_url": "https://api.github.com/repos/tobami/littlechef/downloads",
    "events_url": "https://api.github.com/repos/tobami/littlechef/events",
    "fork": false,
    "forks": 71,
    "forks_count": 71,
    "forks_url": "https://api.github.com/repos/tobami/littlechef/forks",
    "full_name": "tobami/littlechef",
    "git_commits_url": "https://api.github.com/repos/tobami/littlechef/git/commits{/sha}",
    "git_refs_url": "https://api.github.com/repos/tobami/littlechef/git/refs{/sha}",
    "git_tags_url": "https://api.github.com/repos/tobami/littlechef/git/tags{/sha}",
    "git_url": "git://github.com/tobami/littlechef.git",
    "has_downloads": true,
    "has_issues": true,
    "has_wiki": true,
    "homepage": "",
    "hooks_url": "https://api.github.com/repos/tobami/littlechef/hooks",
    "html_url": "https://github.com/tobami/littlechef",
    "id": 1015248,
    "issue_comment_url": "https://api.github.com/repos/tobami/littlechef/issues/comments/{number}",
    "issue_events_url": "https://api.github.com/repos/tobami/littlechef/issues/events{/number}",
    "issues_url": "https://api.github.com/repos/tobami/littlechef/issues{/number}",
    "keys_url": "https://api.github.com/repos/tobami/littlechef/keys{/key_id}",
    "labels_url": "https://api.github.com/repos/tobami/littlechef/labels{/name}",
    "language": "Python",
    "languages_url": "https://api.github.com/repos/tobami/littlechef/languages",
    "merges_url": "https://api.github.com/repos/tobami/littlechef/merges",
    "milestones_url": "https://api.github.com/repos/tobami/littlechef/milestones{/number}",
    "mirror_url": null,
    "name": "littlechef",
    "notifications_url": "https://api.github.com/repos/tobami/littlechef/notifications{?since,all,participating}",
    "open_issues": 30,
    "open_issues_count": 30,
    "owner": {
        "avatar_url": "https://avatars.githubusercontent.com/u/216485?",
        "events_url": "https://api.github.com/users/tobami/events{/privacy}",
        "followers_url": "https://api.github.com/users/tobami/followers",
        "following_url": "https://api.github.com/users/tobami/following{/other_user}",
        "gists_url": "https://api.github.com/users/tobami/gists{/gist_id}",
        "gravatar_id": "ccdf2cd2659ddde24a89f08ce048694f",
        "html_url": "https://github.com/tobami",
        "id": 216485,
        "login": "tobami",
        "organizations_url": "https://api.github.com/users/tobami/orgs",
        "received_events_url": "https://api.github.com/users/tobami/received_events",
        "repos_url": "https://api.github.com/users/tobami/repos",
        "site_admin": false,
        "starred_url": "https://api.github.com/users/tobami/starred{/owner}{/repo}",
        "subscriptions_url": "https://api.github.com/users/tobami/subscriptions",
        "type": "User",
        "url": "https://api.github.com/users/tobami"
    },
    "private": false,
    "pulls_url": "https://api.github.com/repos/tobami/littlechef/pulls{/number}",
    "pushed_at": "2014-05-02T11:54:13Z",
    "releases_url": "https://api.github.com/repos/tobami/littlechef/releases{/id}",
    "score": 1.0,
    "size": 2581,
    "ssh_url": "git@github.com:tobami/littlechef.git",
    "stargazers_count": 454,
    "stargazers_url": "https://api.github.com/repos/tobami/littlechef/stargazers",
    "statuses_url": "https://api.github.com/repos/tobami/littlechef/statuses/{sha}",
    "subscribers_url": "https://api.github.com/repos/tobami/littlechef/subscribers",
    "subscription_url": "https://api.github.com/repos/tobami/littlechef/subscription",
    "svn_url": "https://github.com/tobami/littlechef",
    "tags_url": "https://api.github.com/repos/tobami/littlechef/tags",
    "teams_url": "https://api.github.com/repos/tobami/littlechef/teams",
    "trees_url": "https://api.github.com/repos/tobami/littlechef/git/trees{/sha}",
    "updated_at": "2014-05-07T01:56:17Z",
    "url": "https://api.github.com/repos/tobami/littlechef",
    "watchers": 454,
    "watchers_count": 454
}