[
    "src.dash.contrib.plugins.image.defaults",
    "dash.contrib.layouts.bootstrap2.dash_layouts",
    "contrib.layouts.bootstrap2.dash_layouts",
    "src.dash.contrib.plugins.rss_feed.templatetags.rss_feed_tags",
    "src.dash.constants",
    "dash.management.commands.dash_find_broken_dashboard_entries",
    "plugins.url",
    "management.commands.clear_dashboard_preferences",
    "contrib.layouts",
    "dash.contrib.plugins.video",
    "src.dash.contrib.plugins.image.conf",
    "plugins.news.management.commands",
    "src.dash.admin",
    "contrib.plugins.memo",
    "example.foo.dash_layouts",
    "contrib.layouts.android",
    "contrib.plugins.rss_feed.views",
    "dash.contrib.plugins.rss_feed.dash_plugins",
    "example.foo.dash_widgets",
    "layouts.android.dash_layouts",
    "example.wsgi",
    "src.dash.decorators",
    "url.dash_widgets",
    "plugins.news.forms",
    "contrib.plugins.weather.settings",
    "layouts.android.dash_plugins",
    "weather.forms",
    "layouts.bootstrap2.forms",
    "contrib.layouts.windows8.dash_layouts",
    "contrib.plugins.url.admin",
    "dash.contrib.layouts.bootstrap2.dash_widgets",
    "memo.forms",
    "src.dash.management",
    "defaults",
    "src.dash.contrib",
    "dash.contrib.plugins.news.management",
    "contrib.layouts.bootstrap2.dash_plugins",
    "discover",
    "memo.dash_widgets",
    "example.admin_tools_dashboard.management.commands",
    "layouts",
    "dash.contrib.layouts.bootstrap2.dash_plugins",
    "video",
    "plugins",
    "contrib.plugins.memo.dash_plugins",
    "contrib.layouts.bootstrap2.dash_widgets",
    "src.dash.views",
    "src.dash.contrib.plugins.dummy.dash_plugins",
    "plugins.news.models",
    "example.foo.dash_plugins",
    "url.conf",
    "dash.contrib.plugins.dummy.dash_widgets",
    "example.example",
    "plugins.url.settings",
    "plugins.news.urls",
    "management.commands.news_create_test_data",
    "plugins.rss_feed.helpers",
    "layouts.windows8.dash_layouts",
    "news.models",
    "dash.forms",
    "contrib.plugins.dummy",
    "src.dash.contrib.plugins.rss_feed.views",
    "example.example.admin_tools_dashboard.menu",
    "android.dash_widgets",
    "src.dash.contrib.plugins.news.management.commands.news_create_test_data",
    "plugins.url.conf",
    "helpers",
    "plugins.url.models",
    "src.dash.contrib.plugins.image.forms",
    "dash.contrib.layouts",
    "dash.contrib.layouts.windows8.dash_plugins",
    "src.dash.widgets",
    "manage",
    "url.admin",
    "url.defaults",
    "admin_tools_dashboard.conf",
    "contrib.plugins.rss_feed.dash_widgets",
    "plugins.weather",
    "rss_feed.urls",
    "dash.contrib.plugins.url.forms",
    "rss_feed.dash_widgets",
    "dash.contrib",
    "apps.public_dashboard.urls",
    "dash.contrib.apps.public_dashboard",
    "src.dash.contrib.plugins.news.dash_plugins",
    "dash.contrib.plugins.image.conf",
    "example.urls",
    "admin_tools_dashboard.management.commands.clear_dashboard_preferences",
    "layouts.android",
    "example.example.admin_tools_dashboard.management",
    "dash.contrib.plugins.image.helpers",
    "contrib.plugins.news.forms",
    "weather.settings",
    "url.dash_plugins",
    "example.example.foo.models",
    "example.example.admin_tools_dashboard.management.commands",
    "dash.contrib.plugins.url.dash_widgets",
    "src.dash.contrib.plugins.video.dash_plugins",
    "contrib.layouts.bootstrap2.forms",
    "dash.contrib.apps",
    "src.dash.contrib.layouts.bootstrap2.dash_layouts",
    "src.dash.contrib.layouts.bootstrap2.defaults",
    "plugins.weather.forms",
    "example.example.bar.defaults",
    "exceptions",
    "example",
    "dash.views",
    "weather.dash_plugins",
    "src.dash.contrib.plugins.url.dash_plugins",
    "rss_feed.forms",
    "example.example.admin_tools_dashboard",
    "public_dashboard.urls",
    "example.admin_tools_dashboard.menu",
    "src.dash.contrib.layouts.android.dash_layouts",
    "src.dash.contrib.plugins.rss_feed",
    "src.dash.contrib.plugins.url.models",
    "contrib.layouts.bootstrap2.settings",
    "src.dash.contrib.plugins.image.dash_widgets",
    "contrib.plugins.weather.defaults",
    "src.dash.contrib.plugins.rss_feed.templatetags",
    "src.dash.contrib.layouts.android.dash_plugins",
    "bootstrap2.conf",
    "plugins.news.dash_widgets",
    "example.example.bar",
    "plugins.dummy.forms",
    "contrib.plugins.news.defaults",
    "src.dash.contrib.plugins.video.forms",
    "plugins.news.views",
    "dash.contrib.plugins.dummy.dash_plugins",
    "src.dash.contrib.layouts.bootstrap2",
    "dash.contrib.plugins.video.dash_plugins",
    "dash.contrib.plugins.rss_feed.dash_widgets",
    "contrib.plugins.news.dash_widgets",
    "constants",
    "src.dash.contrib.plugins.video.dash_widgets",
    "foo.management.commands",
    "plugins.weather.defaults",
    "example.admin_tools_dashboard",
    "src.dash.contrib.plugins.url",
    "contrib.plugins.image.settings",
    "foo.dash_layouts",
    "src.dash.contrib.plugins.news.dash_widgets",
    "src.dash.contrib.plugins.rss_feed.dash_widgets",
    "plugins.rss_feed.templatetags",
    "src.dash.contrib.plugins.rss_feed.forms",
    "plugins.url.dash_plugins",
    "src.dash.contrib.plugins.memo",
    "plugins.news.constants",
    "bootstrap2",
    "src.dash.contrib.plugins.rss_feed.helpers",
    "contrib.layouts.android.dash_plugins",
    "src.dash.management.commands",
    "dash.widgets",
    "dash.contrib.plugins.news",
    "forms",
    "dash_tags",
    "src.dash.contrib.plugins.news.defaults",
    "apps.public_dashboard.views",
    "bar.forms",
    "example.manage",
    "views",
    "docs",
    "windows8.dash_widgets",
    "contrib.layouts.android.dash_widgets",
    "bootstrap2.settings",
    "example.example.foo.management.commands",
    "contrib.layouts.android.dash_layouts",
    "dash.helpers",
    "docs.conf",
    "dash.management",
    "plugins.dummy.defaults",
    "plugins.image.dash_widgets",
    "src.dash.contrib.layouts.windows8",
    "contrib.apps.public_dashboard.urls",
    "src.dash.contrib.plugins.memo.dash_plugins",
    "plugins.news",
    "plugins.image.conf",
    "admin_tools_dashboard",
    "dash.contrib.layouts.bootstrap2.settings",
    "plugins.rss_feed.views",
    "bootstrap2.dash_plugins",
    "src.dash.contrib.plugins.news.forms",
    "layouts.android.dash_widgets",
    "plugins.url.dash_widgets",
    "layouts.bootstrap2.dash_plugins",
    "src.dash.contrib.layouts.bootstrap2.conf",
    "contrib.plugins.image.conf",
    "plugins.video.forms",
    "contrib.plugins.news.views",
    "management.commands.dash_sync_plugins",
    "example.foo.management",
    "rss_feed.helpers",
    "contrib.apps",
    "plugins.image",
    "src.dash.conf",
    "bar.dash_plugins",
    "example.example.manage",
    "contrib.plugins.rss_feed.defaults",
    "src.dash.contrib.plugins.weather",
    "src.dash.contrib.plugins.news.admin",
    "url.forms",
    "dash.contrib.plugins.news.admin",
    "layouts.windows8.dash_widgets",
    "plugins.url.forms",
    "decorators",
    "plugins.image.defaults",
    "dash.contrib.plugins.url.defaults",
    "contrib.plugins.dummy.dash_plugins",
    "dash.contrib.plugins.url.models",
    "foo.management.commands.dash_create_test_data",
    "dash.migrations",
    "base",
    "plugins.image.forms",
    "weather.dash_widgets",
    "src.dash.discover",
    "src.dash.contrib.plugins.image.dash_plugins",
    "dash.contrib.plugins.rss_feed.helpers",
    "plugins.memo.dash_plugins",
    "src.dash.contrib.apps.public_dashboard.views",
    "dash.contrib.plugins.rss_feed.templatetags",
    "dash.contrib.plugins.image.forms",
    "src.dash.settings",
    "dash.contrib.plugins.rss_feed.views",
    "foo.dash_widgets",
    "example.example.bar.dash_widgets",
    "plugins.weather.settings",
    "src.dash.contrib.layouts.bootstrap2.dash_widgets",
    "dash.tests",
    "windows8.dash_layouts",
    "management",
    "windows8.dash_plugins",
    "src.dash.contrib.plugins.weather.dash_widgets",
    "plugins.weather.dash_plugins",
    "contrib.layouts.windows8",
    "image.settings",
    "dash_widgets",
    "dash.contrib.plugins.weather.dash_widgets",
    "widgets",
    "dash.contrib.plugins.news.dash_plugins",
    "bootstrap2.forms",
    "news.dash_widgets",
    "rss_feed.dash_plugins",
    "memo",
    "src.dash.contrib.plugins.weather.settings",
    "src.dash.contrib.plugins.rss_feed.dash_plugins",
    "example.example.foo.dash_layouts",
    "src.dash.contrib.plugins.url.dash_widgets",
    "dash.contrib.layouts.bootstrap2.defaults",
    "contrib.layouts.windows8.dash_widgets",
    "src.dash.contrib.plugins.news.constants",
    "dash.contrib.layouts.android.dash_plugins",
    "layouts.bootstrap2",
    "contrib.layouts.bootstrap2.defaults",
    "dash.contrib.layouts.windows8",
    "contrib.plugins.news.constants",
    "dash.contrib.plugins.news.management.commands.news_create_test_data",
    "dash.contrib.plugins.url",
    "dash.contrib.plugins.dummy.forms",
    "src.dash.migrations",
    "contrib.plugins.image",
    "video.forms",
    "src.dash.contrib.plugins.url.conf",
    "dash",
    "dash.contrib.layouts.bootstrap2.forms",
    "contrib.plugins.rss_feed.urls",
    "example.bar.forms",
    "plugins.url.admin",
    "video.dash_plugins",
    "dash.contrib.apps.public_dashboard.urls",
    "src.dash.contrib.apps.public_dashboard",
    "plugins.dummy.dash_plugins",
    "example.foo.management.commands",
    "dash.contrib.layouts.android",
    "contrib.plugins.url",
    "image.conf",
    "example.settings",
    "dash.models",
    "src.dash.contrib.plugins.memo.dash_widgets",
    "foo.models",
    "0002_auto__add_field_dashboardworkspace_is_clonable",
    "contrib.plugins.video.forms",
    "dash.contrib.layouts.windows8.dash_widgets",
    "contrib.plugins.url.dash_plugins",
    "plugins.rss_feed.urls",
    "public_dashboard",
    "dummy",
    "url.models",
    "bootstrap2.dash_widgets",
    "dummy.forms",
    "dash.contrib.plugins.image.dash_plugins",
    "src.dash.models",
    "templatetags",
    "dash.contrib.plugins.image",
    "contrib.plugins.url.conf",
    "dash_update_plugin_data",
    "wsgi",
    "dash.contrib.plugins.memo",
    "news.views",
    "dash.contrib.plugins.rss_feed",
    "image.forms",
    "dash.contrib.plugins.news.forms",
    "dash.contrib.plugins.weather.settings",
    "dash.defaults",
    "src.dash.templatetags",
    "weather.conf",
    "dash.migrations.0001_initial",
    "menu",
    "plugins.rss_feed",
    "contrib.plugins.weather.forms",
    "dash.contrib.plugins.memo.dash_widgets",
    "src.dash.forms",
    "contrib.plugins.url.forms",
    "commands.dash_create_test_data",
    "commands.dash_update_plugin_data",
    "plugins.memo.forms",
    "image.defaults",
    "src.dash.contrib.plugins",
    "dash.contrib.plugins.memo.forms",
    "news.dash_plugins",
    "layouts.bootstrap2.dash_widgets",
    "src.dash.contrib.plugins.news.management.commands",
    "layouts.windows8",
    "bar",
    "settings",
    "contrib.layouts.bootstrap2",
    "fields",
    "plugins.rss_feed.dash_widgets",
    "dash.contrib.plugins",
    "contrib.plugins.image.forms",
    "src.dash.contrib.plugins.rss_feed.defaults",
    "management.commands",
    "contrib.plugins.image.defaults",
    "src.dash.base",
    "src.dash.contrib.layouts.windows8.dash_widgets",
    "plugins.rss_feed.defaults",
    "plugins.news.dash_plugins",
    "rss_feed_tags",
    "plugins.news.management",
    "contrib.plugins.video.dash_widgets",
    "dummy.dash_plugins",
    "src.dash.contrib.plugins.dummy",
    "migrations",
    "rss_feed",
    "src.dash.contrib.plugins.video",
    "src.dash.contrib.plugins.weather.defaults",
    "contrib.plugins.news.management.commands",
    "example.example.foo.dash_widgets",
    "src.dash.contrib.layouts",
    "android",
    "dash.constants",
    "src.dash.contrib.plugins.image",
    "contrib.plugins.url.models",
    "image.helpers",
    "contrib.plugins.news",
    "dash_plugins",
    "news.constants",
    "contrib.plugins.image.dash_plugins",
    "example.bar.dash_plugins",
    "contrib.plugins.video",
    "contrib.plugins.weather",
    "news",
    "example.example.foo.management",
    "contrib.plugins.url.dash_widgets",
    "commands",
    "example.bar.models",
    "admin",
    "admin_tools_dashboard.menu",
    "news.management",
    "rss_feed.defaults",
    "example.bar.dash_widgets",
    "urls",
    "contrib.plugins.news.management.commands.news_create_test_data",
    "contrib.plugins.news.management",
    "src.dash.contrib.plugins.image.helpers",
    "dash.contrib.plugins.weather.conf",
    "plugins.rss_feed.dash_plugins",
    "templatetags.rss_feed_tags",
    "dash.contrib.plugins.url.dash_plugins",
    "dash.contrib.plugins.video.forms",
    "contrib.plugins.rss_feed.templatetags.rss_feed_tags",
    "src.dash.contrib.plugins.url.defaults",
    "example.example.admin_tools_dashboard.conf",
    "android.dash_layouts",
    "example.foo.management.commands.dash_create_test_data",
    "layouts.bootstrap2.dash_layouts",
    "example.bar.defaults",
    "clear_dashboard_preferences",
    "dash.decorators",
    "commands.clear_dashboard_preferences",
    "management.commands.dash_update_plugin_data",
    "contrib.plugins.rss_feed.dash_plugins",
    "contrib.plugins.url.settings",
    "rss_feed.views",
    "src.dash.contrib.plugins.news.urls",
    "dash.base",
    "src.dash.contrib.plugins.news",
    "admin_tools_dashboard.management.commands",
    "rss_feed.templatetags.rss_feed_tags",
    "contrib.plugins.memo.dash_widgets",
    "dash.contrib.plugins.memo.dash_plugins",
    "src.dash.contrib.plugins.dummy.defaults",
    "admin_tools_dashboard.management",
    "contrib.plugins.image.dash_widgets",
    "src.dash.contrib.layouts.bootstrap2.settings",
    "dash.contrib.plugins.news.urls",
    "management.commands.dash_create_test_data",
    "dash_layouts",
    "foo.dash_plugins",
    "dash.contrib.plugins.rss_feed.forms",
    "migrations.0002_auto__add_field_dashboardworkspace_is_clonable",
    "dash.contrib.layouts.android.dash_widgets",
    "contrib.plugins.news.models",
    "dash.management.commands.dash_update_plugin_data",
    "src.dash.migrations.0001_initial",
    "src.dash.fields",
    "dash.contrib.plugins.dummy",
    "utils",
    "dummy.dash_widgets",
    "conf",
    "contrib.plugins.dummy.defaults",
    "dash.contrib.apps.public_dashboard.views",
    "contrib.plugins.news.urls",
    "news.defaults",
    "dummy.defaults",
    "dash.admin",
    "plugins.dummy",
    "image.dash_plugins",
    "contrib.plugins.url.defaults",
    "dash.fields",
    "windows8",
    "dash.contrib.plugins.rss_feed.defaults",
    "dash.management.commands",
    "public_dashboard.views",
    "rss_feed.templatetags",
    "android.dash_plugins",
    "dash.contrib.plugins.weather.dash_plugins",
    "example.example.bar.forms",
    "dash.contrib.layouts.android.dash_layouts",
    "video.dash_widgets",
    "src.dash.templatetags.dash_tags",
    "dash.contrib.plugins.image.dash_widgets",
    "src.dash.exceptions",
    "news.management.commands.news_create_test_data",
    "contrib.plugins.weather.conf",
    "src.dash.management.commands.dash_find_broken_dashboard_entries",
    "contrib.apps.public_dashboard",
    "dash.migrations.0002_auto__add_field_dashboardworkspace_is_clonable",
    "bar.defaults",
    "contrib.plugins.rss_feed.forms",
    "src.dash.contrib.plugins.memo.forms",
    "commands.dash_find_broken_dashboard_entries",
    "dash.contrib.plugins.rss_feed.urls",
    "contrib.plugins.rss_feed.helpers",
    "commands.news_create_test_data",
    "plugins.image.helpers",
    "dash.contrib.plugins.weather.defaults",
    "plugins.rss_feed.templatetags.rss_feed_tags",
    "contrib.plugins.video.dash_plugins",
    "example.admin_tools_dashboard.management",
    "dash_find_broken_dashboard_entries",
    "example.foo.models",
    "contrib.plugins.image.helpers",
    "contrib.plugins.news.admin",
    "example.admin_tools_dashboard.management.commands.clear_dashboard_preferences",
    "src.dash.helpers",
    "example.example.bar.dash_plugins",
    "example.example.bar.models",
    "src.dash.contrib.plugins.weather.conf",
    "dash.conf",
    "src.dash.contrib.plugins.url.settings",
    "dash.contrib.plugins.url.settings",
    "src.dash.contrib.plugins.url.admin",
    "tests",
    "src.dash.contrib.layouts.windows8.dash_layouts",
    "dash.contrib.layouts.windows8.dash_layouts",
    "memo.dash_plugins",
    "plugins.weather.dash_widgets",
    "contrib.apps.public_dashboard.views",
    "dash.contrib.plugins.image.settings",
    "contrib.plugins.rss_feed",
    "apps.public_dashboard",
    "management.commands.dash_find_broken_dashboard_entries",
    "dash.contrib.layouts.bootstrap2",
    "src.dash.management.commands.dash_sync_plugins",
    "example.example.wsgi",
    "contrib.plugins",
    "dash.contrib.plugins.news.models",
    "example.foo",
    "src.dash.contrib.apps.public_dashboard.urls",
    "layouts.windows8.dash_plugins",
    "contrib.plugins.news.dash_plugins",
    "dash.contrib.plugins.url.admin",
    "news.forms",
    "weather.defaults",
    "contrib.plugins.memo.forms",
    "src.dash.utils",
    "dash.contrib.plugins.image.defaults",
    "dash.contrib.plugins.news.management.commands",
    "plugins.memo.dash_widgets",
    "src.dash.factory",
    "dash.factory",
    "plugins.url.defaults",
    "src.dash.defaults",
    "dash.exceptions",
    "layouts.bootstrap2.settings",
    "foo",
    "bar.models",
    "contrib.plugins.weather.dash_plugins",
    "layouts.bootstrap2.defaults",
    "dash.management.commands.dash_sync_plugins",
    "plugins.video",
    "dash.contrib.layouts.bootstrap2.conf",
    "dash.settings",
    "src.dash.contrib.plugins.url.forms",
    "plugins.dummy.dash_widgets",
    "src.dash.contrib.layouts.bootstrap2.dash_plugins",
    "plugins.image.settings",
    "example.example.foo.dash_plugins",
    "news.management.commands",
    "src",
    "plugins.memo",
    "example.example.urls",
    "dash.contrib.plugins.weather",
    "dash.utils",
    "dash.urls",
    "plugins.video.dash_plugins",
    "dash.contrib.plugins.url.conf",
    "news.urls",
    "example.bar",
    "image",
    "bootstrap2.dash_layouts",
    "weather",
    "url",
    "contrib",
    "example.example.admin_tools_dashboard.management.commands.clear_dashboard_preferences",
    "dash.templatetags",
    "dash_create_test_data",
    "src.dash.urls",
    "example.example.foo",
    "apps",
    "src.dash.contrib.layouts.android.dash_widgets",
    "contrib.layouts.bootstrap2.conf",
    "src.dash.contrib.plugins.dummy.forms",
    "url.settings",
    "src.dash.contrib.plugins.image.settings",
    "src.dash.tests",
    "src.dash",
    "contrib.plugins.weather.dash_widgets",
    "plugins.image.dash_plugins",
    "src.dash.contrib.plugins.weather.forms",
    "foo.management",
    "plugins.news.admin",
    "src.dash.contrib.plugins.news.views",
    "src.dash.management.commands.dash_update_plugin_data",
    "example.example.foo.management.commands.dash_create_test_data",
    "contrib.plugins.dummy.forms",
    "commands.dash_sync_plugins",
    "dash_sync_plugins",
    "src.dash.contrib.plugins.news.models",
    "dash.contrib.plugins.news.constants",
    "dash.contrib.plugins.news.views",
    "src.dash.contrib.plugins.dummy.dash_widgets",
    "example.example.settings",
    "layouts.bootstrap2.conf",
    "src.dash.contrib.layouts.android",
    "bootstrap2.defaults",
    "dash.contrib.plugins.news.dash_widgets",
    "templatetags.dash_tags",
    "plugins.weather.conf",
    "factory",
    "src.dash.contrib.plugins.news.management",
    "dash.contrib.plugins.rss_feed.templatetags.rss_feed_tags",
    "news_create_test_data",
    "dash.templatetags.dash_tags",
    "contrib.plugins.rss_feed.templatetags",
    "image.dash_widgets",
    "src.dash.contrib.layouts.bootstrap2.forms",
    "contrib.layouts.windows8.dash_plugins",
    "src.dash.contrib.apps",
    "bar.dash_widgets",
    "src.dash.migrations.0002_auto__add_field_dashboardworkspace_is_clonable",
    "news.admin",
    "models",
    "migrations.0001_initial",
    "dash.contrib.plugins.dummy.defaults",
    "src.dash.contrib.plugins.weather.dash_plugins",
    "0001_initial",
    "dash.discover",
    "dash.contrib.plugins.news.defaults",
    "example.admin_tools_dashboard.conf",
    "src.dash.contrib.plugins.rss_feed.urls",
    "plugins.news.defaults",
    "contrib.plugins.dummy.dash_widgets",
    "plugins.news.management.commands.news_create_test_data",
    "dash.contrib.plugins.video.dash_widgets",
    "dash.contrib.plugins.weather.forms",
    "plugins.video.dash_widgets",
    "src.dash.contrib.layouts.windows8.dash_plugins",
    "plugins.rss_feed.forms"
]