{
    "archive_url": "https://api.github.com/repos/Pylons/webtest/{archive_format}{/ref}",
    "assignees_url": "https://api.github.com/repos/Pylons/webtest/assignees{/user}",
    "blobs_url": "https://api.github.com/repos/Pylons/webtest/git/blobs{/sha}",
    "branches_url": "https://api.github.com/repos/Pylons/webtest/branches{/branch}",
    "clone_url": "https://github.com/Pylons/webtest.git",
    "collaborators_url": "https://api.github.com/repos/Pylons/webtest/collaborators{/collaborator}",
    "comments_url": "https://api.github.com/repos/Pylons/webtest/comments{/number}",
    "commits_url": "https://api.github.com/repos/Pylons/webtest/commits{/sha}",
    "compare_url": "https://api.github.com/repos/Pylons/webtest/compare/{base}...{head}",
    "contents_url": "https://api.github.com/repos/Pylons/webtest/contents/{+path}",
    "contributors_url": "https://api.github.com/repos/Pylons/webtest/contributors",
    "created_at": "2012-11-12T23:19:10Z",
    "default_branch": "master",
    "description": "Wraps any WSGI application and makes it easy to send test requests to that application, without starting up an HTTP server.",
    "downloads_url": "https://api.github.com/repos/Pylons/webtest/downloads",
    "events_url": "https://api.github.com/repos/Pylons/webtest/events",
    "fork": false,
    "forks": 38,
    "forks_count": 38,
    "forks_url": "https://api.github.com/repos/Pylons/webtest/forks",
    "full_name": "Pylons/webtest",
    "git_commits_url": "https://api.github.com/repos/Pylons/webtest/git/commits{/sha}",
    "git_refs_url": "https://api.github.com/repos/Pylons/webtest/git/refs{/sha}",
    "git_tags_url": "https://api.github.com/repos/Pylons/webtest/git/tags{/sha}",
    "git_url": "git://github.com/Pylons/webtest.git",
    "has_downloads": true,
    "has_issues": true,
    "has_wiki": true,
    "homepage": "http://webtest.readthedocs.org/en/latest/",
    "hooks_url": "https://api.github.com/repos/Pylons/webtest/hooks",
    "html_url": "https://github.com/Pylons/webtest",
    "id": 6662296,
    "issue_comment_url": "https://api.github.com/repos/Pylons/webtest/issues/comments/{number}",
    "issue_events_url": "https://api.github.com/repos/Pylons/webtest/issues/events{/number}",
    "issues_url": "https://api.github.com/repos/Pylons/webtest/issues{/number}",
    "keys_url": "https://api.github.com/repos/Pylons/webtest/keys{/key_id}",
    "labels_url": "https://api.github.com/repos/Pylons/webtest/labels{/name}",
    "language": "Python",
    "languages_url": "https://api.github.com/repos/Pylons/webtest/languages",
    "merges_url": "https://api.github.com/repos/Pylons/webtest/merges",
    "milestones_url": "https://api.github.com/repos/Pylons/webtest/milestones{/number}",
    "mirror_url": null,
    "name": "webtest",
    "notifications_url": "https://api.github.com/repos/Pylons/webtest/notifications{?since,all,participating}",
    "open_issues": 5,
    "open_issues_count": 5,
    "owner": {
        "avatar_url": "https://avatars.githubusercontent.com/u/452227?",
        "events_url": "https://api.github.com/users/Pylons/events{/privacy}",
        "followers_url": "https://api.github.com/users/Pylons/followers",
        "following_url": "https://api.github.com/users/Pylons/following{/other_user}",
        "gists_url": "https://api.github.com/users/Pylons/gists{/gist_id}",
        "gravatar_id": "58a7ce5173b7cbcd0dad95c2e5c2bd35",
        "html_url": "https://github.com/Pylons",
        "id": 452227,
        "login": "Pylons",
        "organizations_url": "https://api.github.com/users/Pylons/orgs",
        "received_events_url": "https://api.github.com/users/Pylons/received_events",
        "repos_url": "https://api.github.com/users/Pylons/repos",
        "site_admin": false,
        "starred_url": "https://api.github.com/users/Pylons/starred{/owner}{/repo}",
        "subscriptions_url": "https://api.github.com/users/Pylons/subscriptions",
        "type": "Organization",
        "url": "https://api.github.com/users/Pylons"
    },
    "private": false,
    "pulls_url": "https://api.github.com/repos/Pylons/webtest/pulls{/number}",
    "pushed_at": "2014-05-05T07:28:29Z",
    "releases_url": "https://api.github.com/repos/Pylons/webtest/releases{/id}",
    "score": 1.0,
    "size": 2382,
    "ssh_url": "git@github.com:Pylons/webtest.git",
    "stargazers_count": 73,
    "stargazers_url": "https://api.github.com/repos/Pylons/webtest/stargazers",
    "statuses_url": "https://api.github.com/repos/Pylons/webtest/statuses/{sha}",
    "subscribers_url": "https://api.github.com/repos/Pylons/webtest/subscribers",
    "subscription_url": "https://api.github.com/repos/Pylons/webtest/subscription",
    "svn_url": "https://github.com/Pylons/webtest",
    "tags_url": "https://api.github.com/repos/Pylons/webtest/tags",
    "teams_url": "https://api.github.com/repos/Pylons/webtest/teams",
    "trees_url": "https://api.github.com/repos/Pylons/webtest/git/trees{/sha}",
    "updated_at": "2014-05-05T07:28:30Z",
    "url": "https://api.github.com/repos/Pylons/webtest",
    "watchers": 73,
    "watchers_count": 73
}