[
    "test_ext",
    "ext",
    "test_authorisation",
    "test_app",
    "app",
    "tests.compat",
    "tests.test_sel",
    "test_lint",
    "webtest.utils",
    "docs.testresponse_fixt",
    "conf",
    "docs.testapp_fixt",
    "sel",
    "tests.test_lint",
    "compat",
    "tests.test_response",
    "tests.test_app",
    "webtest.ext",
    "tests.test_forms",
    "webtest",
    "debugapp",
    "forms",
    "webtest.app",
    "webtest.response",
    "webtest.compat",
    "testapp_fixt",
    "webtest.http",
    "test_sel",
    "tests.test_utils",
    "tests",
    "test_response",
    "http",
    "forms_fixt",
    "webtest.debugapp",
    "docs",
    "lint",
    "tests.test_ext",
    "test_debugapp",
    "tests.test_debugapp",
    "testresponse_fixt",
    "response",
    "docs.conf",
    "test_forms",
    "tests.test_authorisation",
    "webtest.sel",
    "test_utils",
    "webtest.forms",
    "utils",
    "index_fixt",
    "tests.test_http",
    "test_http",
    "webtest.lint",
    "docs.forms_fixt",
    "docs.index_fixt"
]