{
    "archive_url": "https://api.github.com/repos/opencore/ferry/{archive_format}{/ref}",
    "assignees_url": "https://api.github.com/repos/opencore/ferry/assignees{/user}",
    "blobs_url": "https://api.github.com/repos/opencore/ferry/git/blobs{/sha}",
    "branches_url": "https://api.github.com/repos/opencore/ferry/branches{/branch}",
    "clone_url": "https://github.com/opencore/ferry.git",
    "collaborators_url": "https://api.github.com/repos/opencore/ferry/collaborators{/collaborator}",
    "comments_url": "https://api.github.com/repos/opencore/ferry/comments{/number}",
    "commits_url": "https://api.github.com/repos/opencore/ferry/commits{/sha}",
    "compare_url": "https://api.github.com/repos/opencore/ferry/compare/{base}...{head}",
    "contents_url": "https://api.github.com/repos/opencore/ferry/contents/{+path}",
    "contributors_url": "https://api.github.com/repos/opencore/ferry/contributors",
    "created_at": "2014-03-03T14:45:31Z",
    "default_branch": "master",
    "description": "Ferry lets you define, run, and deploy big data applications on your local machine using Docker",
    "downloads_url": "https://api.github.com/repos/opencore/ferry/downloads",
    "events_url": "https://api.github.com/repos/opencore/ferry/events",
    "fork": false,
    "forks": 11,
    "forks_count": 11,
    "forks_url": "https://api.github.com/repos/opencore/ferry/forks",
    "full_name": "opencore/ferry",
    "git_commits_url": "https://api.github.com/repos/opencore/ferry/git/commits{/sha}",
    "git_refs_url": "https://api.github.com/repos/opencore/ferry/git/refs{/sha}",
    "git_tags_url": "https://api.github.com/repos/opencore/ferry/git/tags{/sha}",
    "git_url": "git://github.com/opencore/ferry.git",
    "has_downloads": true,
    "has_issues": true,
    "has_wiki": true,
    "homepage": "http://ferry.opencore.io",
    "hooks_url": "https://api.github.com/repos/opencore/ferry/hooks",
    "html_url": "https://github.com/opencore/ferry",
    "id": 17368868,
    "issue_comment_url": "https://api.github.com/repos/opencore/ferry/issues/comments/{number}",
    "issue_events_url": "https://api.github.com/repos/opencore/ferry/issues/events{/number}",
    "issues_url": "https://api.github.com/repos/opencore/ferry/issues{/number}",
    "keys_url": "https://api.github.com/repos/opencore/ferry/keys{/key_id}",
    "labels_url": "https://api.github.com/repos/opencore/ferry/labels{/name}",
    "language": "Python",
    "languages_url": "https://api.github.com/repos/opencore/ferry/languages",
    "merges_url": "https://api.github.com/repos/opencore/ferry/merges",
    "milestones_url": "https://api.github.com/repos/opencore/ferry/milestones{/number}",
    "mirror_url": null,
    "name": "ferry",
    "notifications_url": "https://api.github.com/repos/opencore/ferry/notifications{?since,all,participating}",
    "open_issues": 1,
    "open_issues_count": 1,
    "owner": {
        "avatar_url": "https://avatars.githubusercontent.com/u/6840625?",
        "events_url": "https://api.github.com/users/opencore/events{/privacy}",
        "followers_url": "https://api.github.com/users/opencore/followers",
        "following_url": "https://api.github.com/users/opencore/following{/other_user}",
        "gists_url": "https://api.github.com/users/opencore/gists{/gist_id}",
        "gravatar_id": "42000831e0591b300442d37c4221d371",
        "html_url": "https://github.com/opencore",
        "id": 6840625,
        "login": "opencore",
        "organizations_url": "https://api.github.com/users/opencore/orgs",
        "received_events_url": "https://api.github.com/users/opencore/received_events",
        "repos_url": "https://api.github.com/users/opencore/repos",
        "site_admin": false,
        "starred_url": "https://api.github.com/users/opencore/starred{/owner}{/repo}",
        "subscriptions_url": "https://api.github.com/users/opencore/subscriptions",
        "type": "Organization",
        "url": "https://api.github.com/users/opencore"
    },
    "private": false,
    "pulls_url": "https://api.github.com/repos/opencore/ferry/pulls{/number}",
    "pushed_at": "2014-05-05T18:08:51Z",
    "releases_url": "https://api.github.com/repos/opencore/ferry/releases{/id}",
    "score": 1.0,
    "size": 11712,
    "ssh_url": "git@github.com:opencore/ferry.git",
    "stargazers_count": 117,
    "stargazers_url": "https://api.github.com/repos/opencore/ferry/stargazers",
    "statuses_url": "https://api.github.com/repos/opencore/ferry/statuses/{sha}",
    "subscribers_url": "https://api.github.com/repos/opencore/ferry/subscribers",
    "subscription_url": "https://api.github.com/repos/opencore/ferry/subscription",
    "svn_url": "https://github.com/opencore/ferry",
    "tags_url": "https://api.github.com/repos/opencore/ferry/tags",
    "teams_url": "https://api.github.com/repos/opencore/ferry/teams",
    "trees_url": "https://api.github.com/repos/opencore/ferry/git/trees{/sha}",
    "updated_at": "2014-05-06T09:02:18Z",
    "url": "https://api.github.com/repos/opencore/ferry",
    "watchers": 117,
    "watchers_count": 117
}