{
    "archive_url": "https://api.github.com/repos/amrox/django-api-example/{archive_format}{/ref}",
    "assignees_url": "https://api.github.com/repos/amrox/django-api-example/assignees{/user}",
    "blobs_url": "https://api.github.com/repos/amrox/django-api-example/git/blobs{/sha}",
    "branches_url": "https://api.github.com/repos/amrox/django-api-example/branches{/branch}",
    "clone_url": "https://github.com/amrox/django-api-example.git",
    "collaborators_url": "https://api.github.com/repos/amrox/django-api-example/collaborators{/collaborator}",
    "comments_url": "https://api.github.com/repos/amrox/django-api-example/comments{/number}",
    "commits_url": "https://api.github.com/repos/amrox/django-api-example/commits{/sha}",
    "compare_url": "https://api.github.com/repos/amrox/django-api-example/compare/{base}...{head}",
    "contents_url": "https://api.github.com/repos/amrox/django-api-example/contents/{+path}",
    "contributors_url": "https://api.github.com/repos/amrox/django-api-example/contributors",
    "created_at": "2012-02-14T08:19:07Z",
    "default_branch": "master",
    "description": "An example REST API with Django, Tastypie, xAuth and Heroku",
    "downloads_url": "https://api.github.com/repos/amrox/django-api-example/downloads",
    "events_url": "https://api.github.com/repos/amrox/django-api-example/events",
    "fork": false,
    "forks": 5,
    "forks_count": 5,
    "forks_url": "https://api.github.com/repos/amrox/django-api-example/forks",
    "full_name": "amrox/django-api-example",
    "git_commits_url": "https://api.github.com/repos/amrox/django-api-example/git/commits{/sha}",
    "git_refs_url": "https://api.github.com/repos/amrox/django-api-example/git/refs{/sha}",
    "git_tags_url": "https://api.github.com/repos/amrox/django-api-example/git/tags{/sha}",
    "git_url": "git://github.com/amrox/django-api-example.git",
    "has_downloads": true,
    "has_issues": true,
    "has_wiki": true,
    "homepage": "",
    "hooks_url": "https://api.github.com/repos/amrox/django-api-example/hooks",
    "html_url": "https://github.com/amrox/django-api-example",
    "id": 3438097,
    "issue_comment_url": "https://api.github.com/repos/amrox/django-api-example/issues/comments/{number}",
    "issue_events_url": "https://api.github.com/repos/amrox/django-api-example/issues/events{/number}",
    "issues_url": "https://api.github.com/repos/amrox/django-api-example/issues{/number}",
    "keys_url": "https://api.github.com/repos/amrox/django-api-example/keys{/key_id}",
    "labels_url": "https://api.github.com/repos/amrox/django-api-example/labels{/name}",
    "language": "Python",
    "languages_url": "https://api.github.com/repos/amrox/django-api-example/languages",
    "merges_url": "https://api.github.com/repos/amrox/django-api-example/merges",
    "milestones_url": "https://api.github.com/repos/amrox/django-api-example/milestones{/number}",
    "mirror_url": null,
    "name": "django-api-example",
    "notifications_url": "https://api.github.com/repos/amrox/django-api-example/notifications{?since,all,participating}",
    "open_issues": 0,
    "open_issues_count": 0,
    "owner": {
        "avatar_url": "https://avatars.githubusercontent.com/u/47537?",
        "events_url": "https://api.github.com/users/amrox/events{/privacy}",
        "followers_url": "https://api.github.com/users/amrox/followers",
        "following_url": "https://api.github.com/users/amrox/following{/other_user}",
        "gists_url": "https://api.github.com/users/amrox/gists{/gist_id}",
        "gravatar_id": "20a583fbf54119fe92ab5ce9f99e2e57",
        "html_url": "https://github.com/amrox",
        "id": 47537,
        "login": "amrox",
        "organizations_url": "https://api.github.com/users/amrox/orgs",
        "received_events_url": "https://api.github.com/users/amrox/received_events",
        "repos_url": "https://api.github.com/users/amrox/repos",
        "site_admin": false,
        "starred_url": "https://api.github.com/users/amrox/starred{/owner}{/repo}",
        "subscriptions_url": "https://api.github.com/users/amrox/subscriptions",
        "type": "User",
        "url": "https://api.github.com/users/amrox"
    },
    "private": false,
    "pulls_url": "https://api.github.com/repos/amrox/django-api-example/pulls{/number}",
    "pushed_at": "2012-04-25T16:56:25Z",
    "releases_url": "https://api.github.com/repos/amrox/django-api-example/releases{/id}",
    "score": 1.0,
    "size": 127,
    "ssh_url": "git@github.com:amrox/django-api-example.git",
    "stargazers_count": 60,
    "stargazers_url": "https://api.github.com/repos/amrox/django-api-example/stargazers",
    "statuses_url": "https://api.github.com/repos/amrox/django-api-example/statuses/{sha}",
    "subscribers_url": "https://api.github.com/repos/amrox/django-api-example/subscribers",
    "subscription_url": "https://api.github.com/repos/amrox/django-api-example/subscription",
    "svn_url": "https://github.com/amrox/django-api-example",
    "tags_url": "https://api.github.com/repos/amrox/django-api-example/tags",
    "teams_url": "https://api.github.com/repos/amrox/django-api-example/teams",
    "trees_url": "https://api.github.com/repos/amrox/django-api-example/git/trees{/sha}",
    "updated_at": "2014-01-11T00:43:13Z",
    "url": "https://api.github.com/repos/amrox/django-api-example",
    "watchers": 60,
    "watchers_count": 60
}