{
    "archive_url": "https://api.github.com/repos/Soaa-/django-nested-inlines/{archive_format}{/ref}",
    "assignees_url": "https://api.github.com/repos/Soaa-/django-nested-inlines/assignees{/user}",
    "blobs_url": "https://api.github.com/repos/Soaa-/django-nested-inlines/git/blobs{/sha}",
    "branches_url": "https://api.github.com/repos/Soaa-/django-nested-inlines/branches{/branch}",
    "clone_url": "https://github.com/Soaa-/django-nested-inlines.git",
    "collaborators_url": "https://api.github.com/repos/Soaa-/django-nested-inlines/collaborators{/collaborator}",
    "comments_url": "https://api.github.com/repos/Soaa-/django-nested-inlines/comments{/number}",
    "commits_url": "https://api.github.com/repos/Soaa-/django-nested-inlines/commits{/sha}",
    "compare_url": "https://api.github.com/repos/Soaa-/django-nested-inlines/compare/{base}...{head}",
    "contents_url": "https://api.github.com/repos/Soaa-/django-nested-inlines/contents/{+path}",
    "contributors_url": "https://api.github.com/repos/Soaa-/django-nested-inlines/contributors",
    "created_at": "2013-02-21T21:08:32Z",
    "default_branch": "master",
    "description": "Adds nested inline support in Django admin",
    "downloads_url": "https://api.github.com/repos/Soaa-/django-nested-inlines/downloads",
    "events_url": "https://api.github.com/repos/Soaa-/django-nested-inlines/events",
    "fork": false,
    "forks": 44,
    "forks_count": 44,
    "forks_url": "https://api.github.com/repos/Soaa-/django-nested-inlines/forks",
    "full_name": "Soaa-/django-nested-inlines",
    "git_commits_url": "https://api.github.com/repos/Soaa-/django-nested-inlines/git/commits{/sha}",
    "git_refs_url": "https://api.github.com/repos/Soaa-/django-nested-inlines/git/refs{/sha}",
    "git_tags_url": "https://api.github.com/repos/Soaa-/django-nested-inlines/git/tags{/sha}",
    "git_url": "git://github.com/Soaa-/django-nested-inlines.git",
    "has_downloads": true,
    "has_issues": true,
    "has_wiki": true,
    "homepage": null,
    "hooks_url": "https://api.github.com/repos/Soaa-/django-nested-inlines/hooks",
    "html_url": "https://github.com/Soaa-/django-nested-inlines",
    "id": 8344033,
    "issue_comment_url": "https://api.github.com/repos/Soaa-/django-nested-inlines/issues/comments/{number}",
    "issue_events_url": "https://api.github.com/repos/Soaa-/django-nested-inlines/issues/events{/number}",
    "issues_url": "https://api.github.com/repos/Soaa-/django-nested-inlines/issues{/number}",
    "keys_url": "https://api.github.com/repos/Soaa-/django-nested-inlines/keys{/key_id}",
    "labels_url": "https://api.github.com/repos/Soaa-/django-nested-inlines/labels{/name}",
    "language": "Python",
    "languages_url": "https://api.github.com/repos/Soaa-/django-nested-inlines/languages",
    "merges_url": "https://api.github.com/repos/Soaa-/django-nested-inlines/merges",
    "milestones_url": "https://api.github.com/repos/Soaa-/django-nested-inlines/milestones{/number}",
    "mirror_url": null,
    "name": "django-nested-inlines",
    "notifications_url": "https://api.github.com/repos/Soaa-/django-nested-inlines/notifications{?since,all,participating}",
    "open_issues": 16,
    "open_issues_count": 16,
    "owner": {
        "avatar_url": "https://avatars.githubusercontent.com/u/200026?",
        "events_url": "https://api.github.com/users/Soaa-/events{/privacy}",
        "followers_url": "https://api.github.com/users/Soaa-/followers",
        "following_url": "https://api.github.com/users/Soaa-/following{/other_user}",
        "gists_url": "https://api.github.com/users/Soaa-/gists{/gist_id}",
        "gravatar_id": "e43e243d0c6ef413776ec3662f03b945",
        "html_url": "https://github.com/Soaa-",
        "id": 200026,
        "login": "Soaa-",
        "organizations_url": "https://api.github.com/users/Soaa-/orgs",
        "received_events_url": "https://api.github.com/users/Soaa-/received_events",
        "repos_url": "https://api.github.com/users/Soaa-/repos",
        "site_admin": false,
        "starred_url": "https://api.github.com/users/Soaa-/starred{/owner}{/repo}",
        "subscriptions_url": "https://api.github.com/users/Soaa-/subscriptions",
        "type": "User",
        "url": "https://api.github.com/users/Soaa-"
    },
    "private": false,
    "pulls_url": "https://api.github.com/repos/Soaa-/django-nested-inlines/pulls{/number}",
    "pushed_at": "2013-04-19T05:15:49Z",
    "releases_url": "https://api.github.com/repos/Soaa-/django-nested-inlines/releases{/id}",
    "score": 1.0,
    "size": 176,
    "ssh_url": "git@github.com:Soaa-/django-nested-inlines.git",
    "stargazers_count": 67,
    "stargazers_url": "https://api.github.com/repos/Soaa-/django-nested-inlines/stargazers",
    "statuses_url": "https://api.github.com/repos/Soaa-/django-nested-inlines/statuses/{sha}",
    "subscribers_url": "https://api.github.com/repos/Soaa-/django-nested-inlines/subscribers",
    "subscription_url": "https://api.github.com/repos/Soaa-/django-nested-inlines/subscription",
    "svn_url": "https://github.com/Soaa-/django-nested-inlines",
    "tags_url": "https://api.github.com/repos/Soaa-/django-nested-inlines/tags",
    "teams_url": "https://api.github.com/repos/Soaa-/django-nested-inlines/teams",
    "trees_url": "https://api.github.com/repos/Soaa-/django-nested-inlines/git/trees{/sha}",
    "updated_at": "2014-01-08T06:58:25Z",
    "url": "https://api.github.com/repos/Soaa-/django-nested-inlines",
    "watchers": 67,
    "watchers_count": 67
}