{
    "archive_url": "https://api.github.com/repos/mitsuhiko/python-unio/{archive_format}{/ref}",
    "assignees_url": "https://api.github.com/repos/mitsuhiko/python-unio/assignees{/user}",
    "blobs_url": "https://api.github.com/repos/mitsuhiko/python-unio/git/blobs{/sha}",
    "branches_url": "https://api.github.com/repos/mitsuhiko/python-unio/branches{/branch}",
    "clone_url": "https://github.com/mitsuhiko/python-unio.git",
    "collaborators_url": "https://api.github.com/repos/mitsuhiko/python-unio/collaborators{/collaborator}",
    "comments_url": "https://api.github.com/repos/mitsuhiko/python-unio/comments{/number}",
    "commits_url": "https://api.github.com/repos/mitsuhiko/python-unio/commits{/sha}",
    "compare_url": "https://api.github.com/repos/mitsuhiko/python-unio/compare/{base}...{head}",
    "contents_url": "https://api.github.com/repos/mitsuhiko/python-unio/contents/{+path}",
    "contributors_url": "https://api.github.com/repos/mitsuhiko/python-unio/contributors",
    "created_at": "2014-04-27T14:31:21Z",
    "default_branch": "master",
    "description": "Unbreaks Unicode on Python",
    "downloads_url": "https://api.github.com/repos/mitsuhiko/python-unio/downloads",
    "events_url": "https://api.github.com/repos/mitsuhiko/python-unio/events",
    "fork": false,
    "forks": 2,
    "forks_count": 2,
    "forks_url": "https://api.github.com/repos/mitsuhiko/python-unio/forks",
    "full_name": "mitsuhiko/python-unio",
    "git_commits_url": "https://api.github.com/repos/mitsuhiko/python-unio/git/commits{/sha}",
    "git_refs_url": "https://api.github.com/repos/mitsuhiko/python-unio/git/refs{/sha}",
    "git_tags_url": "https://api.github.com/repos/mitsuhiko/python-unio/git/tags{/sha}",
    "git_url": "git://github.com/mitsuhiko/python-unio.git",
    "has_downloads": true,
    "has_issues": true,
    "has_wiki": true,
    "homepage": "",
    "hooks_url": "https://api.github.com/repos/mitsuhiko/python-unio/hooks",
    "html_url": "https://github.com/mitsuhiko/python-unio",
    "id": 19206529,
    "issue_comment_url": "https://api.github.com/repos/mitsuhiko/python-unio/issues/comments/{number}",
    "issue_events_url": "https://api.github.com/repos/mitsuhiko/python-unio/issues/events{/number}",
    "issues_url": "https://api.github.com/repos/mitsuhiko/python-unio/issues{/number}",
    "keys_url": "https://api.github.com/repos/mitsuhiko/python-unio/keys{/key_id}",
    "labels_url": "https://api.github.com/repos/mitsuhiko/python-unio/labels{/name}",
    "language": "Python",
    "languages_url": "https://api.github.com/repos/mitsuhiko/python-unio/languages",
    "merges_url": "https://api.github.com/repos/mitsuhiko/python-unio/merges",
    "milestones_url": "https://api.github.com/repos/mitsuhiko/python-unio/milestones{/number}",
    "mirror_url": null,
    "name": "python-unio",
    "notifications_url": "https://api.github.com/repos/mitsuhiko/python-unio/notifications{?since,all,participating}",
    "open_issues": 0,
    "open_issues_count": 0,
    "owner": {
        "avatar_url": "https://avatars.githubusercontent.com/u/7396?",
        "events_url": "https://api.github.com/users/mitsuhiko/events{/privacy}",
        "followers_url": "https://api.github.com/users/mitsuhiko/followers",
        "following_url": "https://api.github.com/users/mitsuhiko/following{/other_user}",
        "gists_url": "https://api.github.com/users/mitsuhiko/gists{/gist_id}",
        "gravatar_id": "181de1fb11dffe39774f3e2e23cda3b6",
        "html_url": "https://github.com/mitsuhiko",
        "id": 7396,
        "login": "mitsuhiko",
        "organizations_url": "https://api.github.com/users/mitsuhiko/orgs",
        "received_events_url": "https://api.github.com/users/mitsuhiko/received_events",
        "repos_url": "https://api.github.com/users/mitsuhiko/repos",
        "site_admin": false,
        "starred_url": "https://api.github.com/users/mitsuhiko/starred{/owner}{/repo}",
        "subscriptions_url": "https://api.github.com/users/mitsuhiko/subscriptions",
        "type": "User",
        "url": "https://api.github.com/users/mitsuhiko"
    },
    "private": false,
    "pulls_url": "https://api.github.com/repos/mitsuhiko/python-unio/pulls{/number}",
    "pushed_at": "2014-04-27T14:49:37Z",
    "releases_url": "https://api.github.com/repos/mitsuhiko/python-unio/releases{/id}",
    "score": 1.0,
    "size": 118,
    "ssh_url": "git@github.com:mitsuhiko/python-unio.git",
    "stargazers_count": 151,
    "stargazers_url": "https://api.github.com/repos/mitsuhiko/python-unio/stargazers",
    "statuses_url": "https://api.github.com/repos/mitsuhiko/python-unio/statuses/{sha}",
    "subscribers_url": "https://api.github.com/repos/mitsuhiko/python-unio/subscribers",
    "subscription_url": "https://api.github.com/repos/mitsuhiko/python-unio/subscription",
    "svn_url": "https://github.com/mitsuhiko/python-unio",
    "tags_url": "https://api.github.com/repos/mitsuhiko/python-unio/tags",
    "teams_url": "https://api.github.com/repos/mitsuhiko/python-unio/teams",
    "trees_url": "https://api.github.com/repos/mitsuhiko/python-unio/git/trees{/sha}",
    "updated_at": "2014-05-07T02:01:11Z",
    "url": "https://api.github.com/repos/mitsuhiko/python-unio",
    "watchers": 151,
    "watchers_count": 151
}