{
    "libs": [
        "control",
        "cStringIO",
        "unittest",
        "absolute_import",
        "subprocess",
        "uuid",
        "tempfile",
        "celery",
        "re",
        "backends",
        "collections",
        "test",
        "unittest2",
        "shlex",
        "fcntl",
        "warnings",
        "optparse",
        "db",
        "Queue",
        "path",
        "dispatcher",
        "dingus",
        "minidom",
        "sys",
        "b",
        "logging",
        "traceback",
        "threading",
        "t",
        "time",
        "fnmatch",
        "os",
        "multiprocessing"
    ]
}