{
    "libs": [
        "netutil",
        "locale",
        "functools",
        "random",
        "with_statement",
        "stat",
        "absolute_import",
        "subprocess",
        "wsgi",
        "yaml",
        "io",
        "escape",
        "array",
        "shutil",
        "ioloop",
        "web",
        "httpserver",
        "struct",
        "re",
        "formatter",
        "errno",
        "urllib",
        "platform",
        "json",
        "htmllib",
        "collections",
        "decorator",
        "threading",
        "getp",
        "coloured_writer",
        "csv",
        "math",
        "division",
        "mimetypes",
        "pylons",
        "simplejson",
        "warnings",
        "tornado",
        "glob",
        "urllib3",
        "urllib2",
        "util",
        "concurrent",
        "Queue",
        "jinja2",
        "encode",
        "path",
        "datetime",
        "print_function",
        "log",
        "sys",
        "unicodedata",
        "b",
        "logging",
        "StringIO",
        "h",
        "decimal",
        "traceback",
        "routes",
        "urlparse",
        "p",
        "optparse",
        "argparse",
        "time",
        "gzip",
        "htmlmin",
        "os",
        "hmac",
        "dis"
    ]
}