{
    "archive_url": "https://api.github.com/repos/NerdfighterSean/bitcointip/{archive_format}{/ref}",
    "assignees_url": "https://api.github.com/repos/NerdfighterSean/bitcointip/assignees{/user}",
    "blobs_url": "https://api.github.com/repos/NerdfighterSean/bitcointip/git/blobs{/sha}",
    "branches_url": "https://api.github.com/repos/NerdfighterSean/bitcointip/branches{/branch}",
    "clone_url": "https://github.com/NerdfighterSean/bitcointip.git",
    "collaborators_url": "https://api.github.com/repos/NerdfighterSean/bitcointip/collaborators{/collaborator}",
    "comments_url": "https://api.github.com/repos/NerdfighterSean/bitcointip/comments{/number}",
    "commits_url": "https://api.github.com/repos/NerdfighterSean/bitcointip/commits{/sha}",
    "compare_url": "https://api.github.com/repos/NerdfighterSean/bitcointip/compare/{base}...{head}",
    "contents_url": "https://api.github.com/repos/NerdfighterSean/bitcointip/contents/{+path}",
    "contributors_url": "https://api.github.com/repos/NerdfighterSean/bitcointip/contributors",
    "created_at": "2012-10-31T22:31:19Z",
    "default_branch": "master",
    "description": "reddit bitcoin tipping bot",
    "downloads_url": "https://api.github.com/repos/NerdfighterSean/bitcointip/downloads",
    "events_url": "https://api.github.com/repos/NerdfighterSean/bitcointip/events",
    "fork": false,
    "forks": 13,
    "forks_count": 13,
    "forks_url": "https://api.github.com/repos/NerdfighterSean/bitcointip/forks",
    "full_name": "NerdfighterSean/bitcointip",
    "git_commits_url": "https://api.github.com/repos/NerdfighterSean/bitcointip/git/commits{/sha}",
    "git_refs_url": "https://api.github.com/repos/NerdfighterSean/bitcointip/git/refs{/sha}",
    "git_tags_url": "https://api.github.com/repos/NerdfighterSean/bitcointip/git/tags{/sha}",
    "git_url": "git://github.com/NerdfighterSean/bitcointip.git",
    "has_downloads": true,
    "has_issues": true,
    "has_wiki": true,
    "homepage": null,
    "hooks_url": "https://api.github.com/repos/NerdfighterSean/bitcointip/hooks",
    "html_url": "https://github.com/NerdfighterSean/bitcointip",
    "id": 6481698,
    "issue_comment_url": "https://api.github.com/repos/NerdfighterSean/bitcointip/issues/comments/{number}",
    "issue_events_url": "https://api.github.com/repos/NerdfighterSean/bitcointip/issues/events{/number}",
    "issues_url": "https://api.github.com/repos/NerdfighterSean/bitcointip/issues{/number}",
    "keys_url": "https://api.github.com/repos/NerdfighterSean/bitcointip/keys{/key_id}",
    "labels_url": "https://api.github.com/repos/NerdfighterSean/bitcointip/labels{/name}",
    "language": "Python",
    "languages_url": "https://api.github.com/repos/NerdfighterSean/bitcointip/languages",
    "merges_url": "https://api.github.com/repos/NerdfighterSean/bitcointip/merges",
    "milestones_url": "https://api.github.com/repos/NerdfighterSean/bitcointip/milestones{/number}",
    "mirror_url": null,
    "name": "bitcointip",
    "notifications_url": "https://api.github.com/repos/NerdfighterSean/bitcointip/notifications{?since,all,participating}",
    "open_issues": 1,
    "open_issues_count": 1,
    "owner": {
        "avatar_url": "https://avatars.githubusercontent.com/u/2174575?",
        "events_url": "https://api.github.com/users/NerdfighterSean/events{/privacy}",
        "followers_url": "https://api.github.com/users/NerdfighterSean/followers",
        "following_url": "https://api.github.com/users/NerdfighterSean/following{/other_user}",
        "gists_url": "https://api.github.com/users/NerdfighterSean/gists{/gist_id}",
        "gravatar_id": "2edd087d6ef39c9b878395c349f18961",
        "html_url": "https://github.com/NerdfighterSean",
        "id": 2174575,
        "login": "NerdfighterSean",
        "organizations_url": "https://api.github.com/users/NerdfighterSean/orgs",
        "received_events_url": "https://api.github.com/users/NerdfighterSean/received_events",
        "repos_url": "https://api.github.com/users/NerdfighterSean/repos",
        "site_admin": false,
        "starred_url": "https://api.github.com/users/NerdfighterSean/starred{/owner}{/repo}",
        "subscriptions_url": "https://api.github.com/users/NerdfighterSean/subscriptions",
        "type": "User",
        "url": "https://api.github.com/users/NerdfighterSean"
    },
    "private": false,
    "pulls_url": "https://api.github.com/repos/NerdfighterSean/bitcointip/pulls{/number}",
    "pushed_at": "2013-04-21T01:11:47Z",
    "releases_url": "https://api.github.com/repos/NerdfighterSean/bitcointip/releases{/id}",
    "score": 1.0,
    "size": 349,
    "ssh_url": "git@github.com:NerdfighterSean/bitcointip.git",
    "stargazers_count": 67,
    "stargazers_url": "https://api.github.com/repos/NerdfighterSean/bitcointip/stargazers",
    "statuses_url": "https://api.github.com/repos/NerdfighterSean/bitcointip/statuses/{sha}",
    "subscribers_url": "https://api.github.com/repos/NerdfighterSean/bitcointip/subscribers",
    "subscription_url": "https://api.github.com/repos/NerdfighterSean/bitcointip/subscription",
    "svn_url": "https://github.com/NerdfighterSean/bitcointip",
    "tags_url": "https://api.github.com/repos/NerdfighterSean/bitcointip/tags",
    "teams_url": "https://api.github.com/repos/NerdfighterSean/bitcointip/teams",
    "trees_url": "https://api.github.com/repos/NerdfighterSean/bitcointip/git/trees{/sha}",
    "updated_at": "2014-04-30T00:49:09Z",
    "url": "https://api.github.com/repos/NerdfighterSean/bitcointip",
    "watchers": 67,
    "watchers_count": 67
}