[
    "src.jsonrpc",
    "src.bitcointip",
    "jsonrpc.proxy",
    "src.btctip.db",
    "src.jsonrpc.json",
    "db",
    "jsonrpc.json",
    "bitcoind",
    "btctip",
    "btctip.db",
    "src.jsonrpc.test",
    "bitcointip",
    "src.jsonrpc.proxy",
    "src",
    "jsonrpc.test",
    "jsonrpc",
    "src.btctip",
    "jsonrpc.authproxy",
    "src.bitcoind",
    "src.jsonrpc.authproxy",
    "json",
    "authproxy",
    "test",
    "proxy"
]