[
    "editmate",
    "extensions.nbtoc",
    "print_page",
    "autosave",
    "inactive",
    "extensions.namespaces",
    "inspector",
    "extensions.inspector",
    "pil_display",
    "extensions.autosave",
    "extensions.pil_display",
    "timers",
    "extensions.closure",
    "abstraction",
    "gist",
    "nbtoc",
    "retina",
    "extensions.nbinput",
    "extensions.msgmagic",
    "namespaces",
    "extensions.retina",
    "closure",
    "extensions.writeandexecute",
    "extensions.print_page",
    "extensions.gist",
    "extensions.editmate",
    "writeandexecute",
    "extensions.timers",
    "extensions.disable_autoscroll",
    "msgmagic",
    "extensions.abstraction",
    "nbinput",
    "extensions",
    "disable_autoscroll",
    "extensions.inactive"
]