{
    "archive_url": "https://api.github.com/repos/omegavesko/SimpleADBBackup/{archive_format}{/ref}",
    "assignees_url": "https://api.github.com/repos/omegavesko/SimpleADBBackup/assignees{/user}",
    "blobs_url": "https://api.github.com/repos/omegavesko/SimpleADBBackup/git/blobs{/sha}",
    "branches_url": "https://api.github.com/repos/omegavesko/SimpleADBBackup/branches{/branch}",
    "clone_url": "https://github.com/omegavesko/SimpleADBBackup.git",
    "collaborators_url": "https://api.github.com/repos/omegavesko/SimpleADBBackup/collaborators{/collaborator}",
    "comments_url": "https://api.github.com/repos/omegavesko/SimpleADBBackup/comments{/number}",
    "commits_url": "https://api.github.com/repos/omegavesko/SimpleADBBackup/commits{/sha}",
    "compare_url": "https://api.github.com/repos/omegavesko/SimpleADBBackup/compare/{base}...{head}",
    "contents_url": "https://api.github.com/repos/omegavesko/SimpleADBBackup/contents/{+path}",
    "contributors_url": "https://api.github.com/repos/omegavesko/SimpleADBBackup/contributors",
    "created_at": "2013-01-08T17:13:36Z",
    "default_branch": "master",
    "description": "A noob-friendly GUI to Android's native backup function.",
    "downloads_url": "https://api.github.com/repos/omegavesko/SimpleADBBackup/downloads",
    "events_url": "https://api.github.com/repos/omegavesko/SimpleADBBackup/events",
    "fork": false,
    "forks": 21,
    "forks_count": 21,
    "forks_url": "https://api.github.com/repos/omegavesko/SimpleADBBackup/forks",
    "full_name": "omegavesko/SimpleADBBackup",
    "git_commits_url": "https://api.github.com/repos/omegavesko/SimpleADBBackup/git/commits{/sha}",
    "git_refs_url": "https://api.github.com/repos/omegavesko/SimpleADBBackup/git/refs{/sha}",
    "git_tags_url": "https://api.github.com/repos/omegavesko/SimpleADBBackup/git/tags{/sha}",
    "git_url": "git://github.com/omegavesko/SimpleADBBackup.git",
    "has_downloads": true,
    "has_issues": true,
    "has_wiki": true,
    "homepage": null,
    "hooks_url": "https://api.github.com/repos/omegavesko/SimpleADBBackup/hooks",
    "html_url": "https://github.com/omegavesko/SimpleADBBackup",
    "id": 7505681,
    "issue_comment_url": "https://api.github.com/repos/omegavesko/SimpleADBBackup/issues/comments/{number}",
    "issue_events_url": "https://api.github.com/repos/omegavesko/SimpleADBBackup/issues/events{/number}",
    "issues_url": "https://api.github.com/repos/omegavesko/SimpleADBBackup/issues{/number}",
    "keys_url": "https://api.github.com/repos/omegavesko/SimpleADBBackup/keys{/key_id}",
    "labels_url": "https://api.github.com/repos/omegavesko/SimpleADBBackup/labels{/name}",
    "language": "Python",
    "languages_url": "https://api.github.com/repos/omegavesko/SimpleADBBackup/languages",
    "merges_url": "https://api.github.com/repos/omegavesko/SimpleADBBackup/merges",
    "milestones_url": "https://api.github.com/repos/omegavesko/SimpleADBBackup/milestones{/number}",
    "mirror_url": null,
    "name": "SimpleADBBackup",
    "notifications_url": "https://api.github.com/repos/omegavesko/SimpleADBBackup/notifications{?since,all,participating}",
    "open_issues": 11,
    "open_issues_count": 11,
    "owner": {
        "avatar_url": "https://avatars.githubusercontent.com/u/2260762?",
        "events_url": "https://api.github.com/users/omegavesko/events{/privacy}",
        "followers_url": "https://api.github.com/users/omegavesko/followers",
        "following_url": "https://api.github.com/users/omegavesko/following{/other_user}",
        "gists_url": "https://api.github.com/users/omegavesko/gists{/gist_id}",
        "gravatar_id": "3dddca5d272b4df2d7bba639f978bed1",
        "html_url": "https://github.com/omegavesko",
        "id": 2260762,
        "login": "omegavesko",
        "organizations_url": "https://api.github.com/users/omegavesko/orgs",
        "received_events_url": "https://api.github.com/users/omegavesko/received_events",
        "repos_url": "https://api.github.com/users/omegavesko/repos",
        "site_admin": false,
        "starred_url": "https://api.github.com/users/omegavesko/starred{/owner}{/repo}",
        "subscriptions_url": "https://api.github.com/users/omegavesko/subscriptions",
        "type": "User",
        "url": "https://api.github.com/users/omegavesko"
    },
    "private": false,
    "pulls_url": "https://api.github.com/repos/omegavesko/SimpleADBBackup/pulls{/number}",
    "pushed_at": "2014-03-30T08:32:59Z",
    "releases_url": "https://api.github.com/repos/omegavesko/SimpleADBBackup/releases{/id}",
    "score": 1.0,
    "size": 55174,
    "ssh_url": "git@github.com:omegavesko/SimpleADBBackup.git",
    "stargazers_count": 80,
    "stargazers_url": "https://api.github.com/repos/omegavesko/SimpleADBBackup/stargazers",
    "statuses_url": "https://api.github.com/repos/omegavesko/SimpleADBBackup/statuses/{sha}",
    "subscribers_url": "https://api.github.com/repos/omegavesko/SimpleADBBackup/subscribers",
    "subscription_url": "https://api.github.com/repos/omegavesko/SimpleADBBackup/subscription",
    "svn_url": "https://github.com/omegavesko/SimpleADBBackup",
    "tags_url": "https://api.github.com/repos/omegavesko/SimpleADBBackup/tags",
    "teams_url": "https://api.github.com/repos/omegavesko/SimpleADBBackup/teams",
    "trees_url": "https://api.github.com/repos/omegavesko/SimpleADBBackup/git/trees{/sha}",
    "updated_at": "2014-04-29T20:25:51Z",
    "url": "https://api.github.com/repos/omegavesko/SimpleADBBackup",
    "watchers": 80,
    "watchers_count": 80
}