[
    "tests.plugin_test_cases.red_box",
    "engines.perceptualdiff_engine",
    "needle.plugin",
    "tests.test_plugin",
    "conf",
    "needle.driver",
    "plugin_test_cases.red_box",
    "engines",
    "needle.cases",
    "tests.test_diff",
    "needle.engines.base",
    "test_diff",
    "perceptualdiff_engine",
    "pil_engine",
    "test_case",
    "tests",
    "engines.base",
    "plugin_test_cases",
    "docs",
    "needle",
    "driver",
    "tests.plugin_test_cases",
    "base",
    "needle.engines",
    "test_plugin",
    "cases",
    "red_box",
    "docs.conf",
    "needle.engines.pil_engine",
    "tests.test_case",
    "plugin",
    "engines.pil_engine",
    "needle.engines.perceptualdiff_engine",
    "tests.test_driver",
    "test_driver"
]