{
    "libs": [
        "cStringIO",
        "ali",
        "unittest",
        "datetime",
        "operator",
        "sgmllib",
        "iconv_codec",
        "re",
        "json",
        "generators",
        "string",
        "markupb",
        "optparse",
        "htmlentitydefs",
        "dpkt",
        "sys",
        "codecs",
        "resource",
        "types",
        "b",
        "logging",
        "bisect",
        "zlib",
        "urlparse",
        "chardet",
        "doctest",
        "sets",
        "gzip",
        "os"
    ]
}