{
    "archive_url": "https://api.github.com/repos/willhardy/dynamic-models/{archive_format}{/ref}",
    "assignees_url": "https://api.github.com/repos/willhardy/dynamic-models/assignees{/user}",
    "blobs_url": "https://api.github.com/repos/willhardy/dynamic-models/git/blobs{/sha}",
    "branches_url": "https://api.github.com/repos/willhardy/dynamic-models/branches{/branch}",
    "clone_url": "https://github.com/willhardy/dynamic-models.git",
    "collaborators_url": "https://api.github.com/repos/willhardy/dynamic-models/collaborators{/collaborator}",
    "comments_url": "https://api.github.com/repos/willhardy/dynamic-models/comments{/number}",
    "commits_url": "https://api.github.com/repos/willhardy/dynamic-models/commits{/sha}",
    "compare_url": "https://api.github.com/repos/willhardy/dynamic-models/compare/{base}...{head}",
    "contents_url": "https://api.github.com/repos/willhardy/dynamic-models/contents/{+path}",
    "contributors_url": "https://api.github.com/repos/willhardy/dynamic-models/contributors",
    "created_at": "2011-06-08T08:43:44Z",
    "default_branch": "master",
    "description": "Example project demonstrating dynamic models in Django",
    "downloads_url": "https://api.github.com/repos/willhardy/dynamic-models/downloads",
    "events_url": "https://api.github.com/repos/willhardy/dynamic-models/events",
    "fork": false,
    "forks": 6,
    "forks_count": 6,
    "forks_url": "https://api.github.com/repos/willhardy/dynamic-models/forks",
    "full_name": "willhardy/dynamic-models",
    "git_commits_url": "https://api.github.com/repos/willhardy/dynamic-models/git/commits{/sha}",
    "git_refs_url": "https://api.github.com/repos/willhardy/dynamic-models/git/refs{/sha}",
    "git_tags_url": "https://api.github.com/repos/willhardy/dynamic-models/git/tags{/sha}",
    "git_url": "git://github.com/willhardy/dynamic-models.git",
    "has_downloads": true,
    "has_issues": true,
    "has_wiki": true,
    "homepage": "",
    "hooks_url": "https://api.github.com/repos/willhardy/dynamic-models/hooks",
    "html_url": "https://github.com/willhardy/dynamic-models",
    "id": 1864330,
    "issue_comment_url": "https://api.github.com/repos/willhardy/dynamic-models/issues/comments/{number}",
    "issue_events_url": "https://api.github.com/repos/willhardy/dynamic-models/issues/events{/number}",
    "issues_url": "https://api.github.com/repos/willhardy/dynamic-models/issues{/number}",
    "keys_url": "https://api.github.com/repos/willhardy/dynamic-models/keys{/key_id}",
    "labels_url": "https://api.github.com/repos/willhardy/dynamic-models/labels{/name}",
    "language": "Python",
    "languages_url": "https://api.github.com/repos/willhardy/dynamic-models/languages",
    "merges_url": "https://api.github.com/repos/willhardy/dynamic-models/merges",
    "milestones_url": "https://api.github.com/repos/willhardy/dynamic-models/milestones{/number}",
    "mirror_url": null,
    "name": "dynamic-models",
    "notifications_url": "https://api.github.com/repos/willhardy/dynamic-models/notifications{?since,all,participating}",
    "open_issues": 0,
    "open_issues_count": 0,
    "owner": {
        "avatar_url": "https://avatars.githubusercontent.com/u/75062?",
        "events_url": "https://api.github.com/users/willhardy/events{/privacy}",
        "followers_url": "https://api.github.com/users/willhardy/followers",
        "following_url": "https://api.github.com/users/willhardy/following{/other_user}",
        "gists_url": "https://api.github.com/users/willhardy/gists{/gist_id}",
        "gravatar_id": "a0e1af40a245e0938186be5b6961257b",
        "html_url": "https://github.com/willhardy",
        "id": 75062,
        "login": "willhardy",
        "organizations_url": "https://api.github.com/users/willhardy/orgs",
        "received_events_url": "https://api.github.com/users/willhardy/received_events",
        "repos_url": "https://api.github.com/users/willhardy/repos",
        "site_admin": false,
        "starred_url": "https://api.github.com/users/willhardy/starred{/owner}{/repo}",
        "subscriptions_url": "https://api.github.com/users/willhardy/subscriptions",
        "type": "User",
        "url": "https://api.github.com/users/willhardy"
    },
    "private": false,
    "pulls_url": "https://api.github.com/repos/willhardy/dynamic-models/pulls{/number}",
    "pushed_at": "2011-08-02T11:54:51Z",
    "releases_url": "https://api.github.com/repos/willhardy/dynamic-models/releases{/id}",
    "score": 1.0,
    "size": 151,
    "ssh_url": "git@github.com:willhardy/dynamic-models.git",
    "stargazers_count": 50,
    "stargazers_url": "https://api.github.com/repos/willhardy/dynamic-models/stargazers",
    "statuses_url": "https://api.github.com/repos/willhardy/dynamic-models/statuses/{sha}",
    "subscribers_url": "https://api.github.com/repos/willhardy/dynamic-models/subscribers",
    "subscription_url": "https://api.github.com/repos/willhardy/dynamic-models/subscription",
    "svn_url": "https://github.com/willhardy/dynamic-models",
    "tags_url": "https://api.github.com/repos/willhardy/dynamic-models/tags",
    "teams_url": "https://api.github.com/repos/willhardy/dynamic-models/teams",
    "trees_url": "https://api.github.com/repos/willhardy/dynamic-models/git/trees{/sha}",
    "updated_at": "2013-12-23T00:11:51Z",
    "url": "https://api.github.com/repos/willhardy/dynamic-models",
    "watchers": 50,
    "watchers_count": 50
}