{
    "libs": [
        "prettytable",
        "with_statement",
        "subprocess",
        "api",
        "ElementTree",
        "paramiko",
        "pkgutil",
        "IPlugin",
        "tempfile",
        "pprint",
        "urllib",
        "yaml",
        "csv",
        "simplejson",
        "optparse",
        "urllib2",
        "sys",
        "cElementTree",
        "re",
        "ConfigParser",
        "logging",
        "socket",
        "StringIO",
        "signal",
        "itertools",
        "time",
        "gzip",
        "os"
    ]
}