[
    "gallery.admin",
    "pylucid_plugins.auth",
    "pylucid_project.apps.pylucid.migrations",
    "pylucid_plugins.update_journal.admin_urls",
    "pref_test.views",
    "lexicon.forms",
    "i18n",
    "pylucid_plugins.redirect.urls",
    "pylucid_plugins.lexicon.models",
    "pylucid_plugins.blog.forms",
    "pylucid_plugins.update_journal.admin",
    "pylucid_project.apps.pylucid_admin.management",
    "pylucid_project.pylucid_plugins.find_and_replace.preference_forms",
    "apps.pylucid.preference_forms",
    "localtime",
    "admin_views.bulk_editor",
    "apps.pylucid.system.pylucid_objects",
    "pylucid_project.pylucid_plugins.TOC.views",
    "middlewares.pagestats",
    "pylucid_plugins.language.tests",
    "many2many",
    "pylucid_project.pylucid_plugins.tag_navi",
    "lexicon.admin",
    "pylucid_plugins.find_and_replace.forms",
    "blog.migrations.0004_unique_on_date",
    "django_tags",
    "scrapping",
    "pylucid_project.pylucid_plugins.redirect.views",
    "headfile",
    "page_admin.admin_views.translate_page",
    "models.userprofile",
    "update_journal.views",
    "apps.i18n.views",
    "apps.pylucid.context_processors",
    "pylucid_project.apps.pylucid.static",
    "design",
    "i18n_utils",
    "middlewares.context_middlewares",
    "tools.admin_views",
    "pylucid_project.utils.i18n_utils",
    "pylucid_project.pylucid_plugins.update_journal.preference_forms",
    "pylucid_update.models",
    "pylucid_plugins.rss.views",
    "apps.pylucid.migrations.0001_initial",
    "i18n.utils.translate",
    "pylucid_project.pylucid_plugins.lexicon.models",
    "redirect.urls",
    "admin_views.translate_page",
    "pylucid.markup.widgets",
    "pylucid_project.pylucid_plugins.find_and_replace.tests",
    "pylucid_project.tests.test_tools",
    "middlewares.ip_ban",
    "pylucid_project.apps.i18n.forms",
    "pylucid_plugins.update_env.admin_views",
    "search",
    "pylucid_plugins.StreetMap.admin",
    "pylucid_project.tests.unittest_plugin.models",
    "pylucid.tests.test_django_tag_assembler",
    "extrahead",
    "poll.views",
    "markup.PyLucid_creole_macros",
    "pylucid_project.pylucid_plugins.page_admin",
    "pylucid_plugins.blog.admin_views",
    "pylucid.migrations.0001_initial",
    "pylucid_plugins.filemanager.admin_views",
    "test_Design",
    "auth.forms",
    "ip_ban",
    "pylucid_plugin",
    "pylucid_project.apps.pylucid.decorators",
    "pylucid_plugins.blog.urls",
    "pylucid.markup",
    "pylucid_project.pylucid_plugins.auth.models",
    "pylucid_project.pylucid_plugins.filemanager.preference_forms",
    "pylucid.tests",
    "update_journal",
    "apps.pylucid.models.colorscheme",
    "pylucid.models.userprofile",
    "management.commands.create_initialdata",
    "pylucid.models.design",
    "pylucid_project.pylucid_plugins.page_admin.search",
    "pylucid.migrations.0004_salt_length",
    "pylucid_plugins.auth.auth_backends",
    "tests.test_django_tag_assembler",
    "pylucid.urls",
    "pylucid_project.pylucid_plugins.TOC.tests",
    "0002_split_by_language_1_data_migration",
    "pylucid_project.pylucid_plugins.blog.migrations.0002_split_by_language_1_data_migration",
    "pylucid_plugins.breadcrumb.preference_forms",
    "pylucid_comments.admin",
    "SimpleStringIO",
    "pylucid_project.tests",
    "update_journal.admin_views",
    "apps.pylucid.defaulttags.lucidTag",
    "pylucid_project.apps.pylucid.static.PyLucid",
    "pylucid_project.pylucid_plugins.find_and_replace",
    "pylucid_project.apps.pylucid_admin.management.commands.create_instance",
    "pylucid_plugins.blog",
    "pylucid_project.apps.pylucid.markup.tinyTextile",
    "pylucid_project.pylucid_plugins.blog.models",
    "markup.tinyTextile",
    "i18n.tests",
    "tests.test_tools.test_runner",
    "defaulttags.lucidTag",
    "apps.pylucid.migrations.0002_auto__chg_field_pagecontent_markup",
    "pylucid_plugins.breadcrumb",
    "pylucid_plugins.auth.models",
    "pylucid_project.utils.crypt",
    "pylucid_project.pylucid_plugins.pylucid_comments.models",
    "0003_django_v1_4",
    "bootstrap.create_standalone_package",
    "pylucid_project.middlewares.headline_anchor",
    "sf_main_menu.views",
    "pylucid_project.pylucid_plugins.search.preference_forms",
    "pylucid_project.apps.pylucid.django_addons.comma_separated_field",
    "pylucid_project.apps.pylucid_update",
    "pylucid_plugins.lexicon.signal_receiver",
    "pylucid_project.pylucid_plugins.pylucid_comments.tests",
    "commands.create_initialdata",
    "middlewares.pylucid_objects",
    "bootstrap",
    "pylucid_project.apps.i18n.tests",
    "pylucid_plugins.pylucid_comments.models",
    "page_list",
    "pylucid_plugins.update_journal.forms",
    "pylucid_plugins.blog.migrations",
    "pylucid_project.apps.pylucid.tests.test_Design",
    "apps.pylucid.models.pagecontent",
    "test_user",
    "pylucid_plugins.lexicon",
    "pylucid_project.pylucid_plugins.gallery.tests",
    "apps.pylucid.models.design",
    "pylucid_project.pylucid_plugins.update_journal.tests",
    "apps.pylucid.models.pagemeta",
    "tests.test_Unittest",
    "pylucid_project.pylucid_plugins.design.forms",
    "pylucid_plugins.page_admin.admin_views.tag_list",
    "pylucid_plugins.design.admin_views",
    "pylucid_project.utils.closure_compiler",
    "pylucid_project.pylucid_plugins.tools.admin_urls",
    "PyLucid.jwysiwyg",
    "pylucid_plugins.TOC",
    "pylucid_admin.management.commands.L10n",
    "pylucid_project.pylucid_plugins.package_info.admin_views",
    "pylucid_project.pylucid_plugins.poll",
    "pylucid_plugins.lexicon.urls",
    "pylucid_project.pylucid_plugins.sf_main_menu.views",
    "pylucid.models.colorscheme",
    "system.admin_views",
    "admin_views.convert_markup",
    "apps.pylucid.models.ip_ban_list",
    "pylucid_project.tests.tests_local_settings",
    "pylucid_project.pylucid_plugins.lexicon.urls",
    "pylucid_project.pylucid_plugins.system.admin_views",
    "find_and_replace.forms",
    "PyLucid_creole_macros",
    "convert_markup",
    "apps.pylucid.system.pylucid_plugin",
    "pylucid_project.tests.unittest_plugin.views",
    "pylucid_project.pylucid_plugins.blog.tests",
    "models.editable_headfile",
    "pylucid_project.apps.pylucid_update.models",
    "pylucid_project.apps.pylucid",
    "pylucid_project.pylucid_plugins.redirect.urls",
    "rss.views",
    "middlewares.message_level",
    "pylucid_project.apps.pylucid.admin",
    "page_admin.tests",
    "pref_test",
    "pylucid_project.pylucid_plugins.sf_main_menu",
    "migrations.0002_split_by_language_1_data_migration",
    "pylucid_plugins.sf_main_menu",
    "pylucid_project.pylucid_plugins.auth.auth_backends",
    "static.PyLucid",
    "pylucid_update.forms",
    "test_TreeModel",
    "test_runner",
    "pylucid_plugins.page_admin.admin_urls",
    "tinyTextile",
    "main_menu",
    "pylucid.defaulttags.localtime",
    "tests.testutils.test_urls",
    "pylucid_plugins.TOC.tests",
    "pylucid_project.pylucid_plugins.auth.js_sha_login_pseudocode",
    "pylucid_project.apps.pylucid.templatetags.simple_menu",
    "pylucid_project.apps.pylucid.context_processors",
    "pylucid.markup.django_tags",
    "test_page_permissions",
    "pylucid_project.pylucid_plugins.lexicon.tests",
    "test_tools.test_runner",
    "pylucid_admin.tests",
    "pylucid_project.pylucid_plugins.page_admin.admin_views.tag_list",
    "pylucid_project.apps.pylucid.migrations.0002_auto__chg_field_pagecontent_markup",
    "design.admin_views",
    "static.PyLucid.jwysiwyg.get_wysiwyg_files",
    "apps.pylucid_update.views",
    "pylucid_plugins.blog.admin_urls",
    "pylucid_project.pylucid_plugins.pref_test.preference_forms",
    "utils.escape",
    "pylucid_plugins.SiteMap",
    "migrations.0004_salt_length",
    "pylucid_project.apps.pylucid_admin.management.commands.create_initialdata",
    "pylucid.system.permalink",
    "pylucid_plugins.find_and_replace.admin_urls",
    "pylucid.models.language",
    "pylucid_project.apps.pylucid.models.design",
    "apps.pylucid_admin.views",
    "search.views",
    "TOC.tests",
    "pylucid.base_admin",
    "pylucid_plugins.auth.views",
    "pylucid_project.utils.safe_obtain",
    "blog.preference_forms",
    "pylucid_plugins.rss.preference_forms",
    "create_bootstrap_script",
    "pylucid_plugins.blog.tests",
    "lexicon.preference_forms",
    "pylucid_project.pylucid_plugins.auth.admin_urls",
    "admin_views.tag_list",
    "widgets",
    "pylucid_project.pylucid_plugins.internals.tests",
    "admin_views.new_content_page",
    "page_admin.forms",
    "pylucid.templatetags",
    "pylucid.shortcuts",
    "pylucid_plugins.auth.admin_views",
    "pylucid_project.system.pylucid_plugins",
    "apps.i18n.tests",
    "pylucid_project.apps.pylucid.defaulttags.sourcecode",
    "pylucid.tests.testutils",
    "pylucid_project.pylucid_plugins.update_journal",
    "message_level",
    "markup",
    "pylucid_project.pylucid_plugins.rss",
    "apps.pylucid.models.pagetree",
    "lexicon.urls",
    "pylucid_project.utils.css_color_utils",
    "pylucid_plugins.lexicon.sub_html",
    "tests.test_PluginAPI",
    "StreetMap.admin",
    "pylucid_plugins.gallery.urls",
    "pylucid_comments.models",
    "pylucid_plugins.design.tests",
    "unittest_plugin.models",
    "pylucid_plugins.page_admin.admin_views.edit_page",
    "pylucid_plugins.internals.tests",
    "pylucid_project.pylucid_plugins.auth.urls",
    "pylucid_plugins.filemanager.forms",
    "pylucid_project.pylucid_plugins.gallery.views",
    "scripts",
    "pylucid.decorators",
    "jwysiwyg",
    "pylucid_project.pylucid_plugins.auth",
    "pylucid_project.pylucid_plugins.search.tests",
    "pylucid_project.pylucid_plugins.lexicon.admin_urls",
    "main_menu.views",
    "pylucid_project.pylucid_plugins.pylucid_comments.forms",
    "pylucid_project.apps.pylucid.markup.widgets",
    "pylucid_project.pylucid_plugins.admin_menu.views",
    "pylucid_project.pylucid_plugins.language",
    "css_color_utils",
    "redirect.admin",
    "find_and_replace",
    "pylucid_plugins.include.preference_forms",
    "models.colorscheme",
    "pylucid_project.apps.pylucid.static.PyLucid.codemirror",
    "page_admin.admin_views.new_content_page",
    "static.PyLucid.codemirror.get_codemirror_files",
    "pylucid_project.apps.pylucid.models.pagetree",
    "pylucid_project.pylucid_plugins.blog.views",
    "pylucid_plugins.include.views",
    "pylucid_project.pylucid_plugins.update_journal.admin_urls",
    "pylucid_project.tests.test_PluginAPI",
    "pylucid_project.apps.pylucid_admin",
    "pylucid_project.pylucid_plugins.update_journal.admin_views",
    "tests.test_markups",
    "pylucid_project.pylucid_plugins.main_menu",
    "sub_menu",
    "pylucid_plugins.package_info.views",
    "auth.admin_urls",
    "auth.models",
    "utils.translate",
    "pylucid.models.pluginpage",
    "tests.test_tools",
    "pylucid_plugins.redirect.models",
    "pylucid_project.pylucid_plugins.tools.admin_views",
    "apps.pylucid.templatetags.simple_menu",
    "apps.pylucid.shortcuts",
    "tests.testutils.test_settings",
    "pylucid_project.pylucid_plugins.rss.preference_forms",
    "pylucid_project.apps.pylucid_update.urls",
    "fields",
    "apps.pylucid.django_addons",
    "pylucid_plugins.pylucid_comments",
    "pylucid_project.pylucid_plugins.pylucid_comments",
    "apps.pylucid.system.permalink",
    "pylucid_project.apps.pylucid_admin.urls",
    "pylucid_project.apps.i18n.utils",
    "ip_ban_list",
    "pylucid_plugins.blog.migrations.0003_split_by_language_2_cleanup",
    "pylucid_plugins.filemanager.admin_urls",
    "pylucid_plugins.lexicon.search",
    "pylucid_project.apps.pylucid.tests.test_messages",
    "pylucid_project.pylucid_plugins.filemanager",
    "i18n.views",
    "page_admin.search",
    "apps.pylucid_update.admin",
    "pagestats",
    "SiteMap.views",
    "include.views",
    "pylucid_project.apps.pylucid.markup.forms",
    "apps.pylucid.static.PyLucid.jwysiwyg",
    "page_admin.views",
    "apps.pylucid_update.forms",
    "lexicon.sub_html",
    "pylucid_plugins.pref_test.views",
    "apps.pylucid_admin.admin",
    "apps.pylucid.models.pluginpage",
    "pylucid_plugins.page_admin.admin_views.page_order",
    "apps.pylucid.markup.hightlighter",
    "middlewares.utils",
    "pylucid_update.views",
    "apps.pylucid.models.log",
    "source-pylucid-boot",
    "search.tests",
    "design.tests",
    "blog.migrations",
    "pylucid.static.PyLucid",
    "pylucid_plugins.include",
    "sub_html",
    "apps.pylucid.system",
    "PyLucid.codemirror",
    "page_admin.admin_views.edit_page",
    "apps.pylucid.markup.forms",
    "testutils.test_urls",
    "apps.i18n",
    "tests.testutils",
    "pylucid_project.pylucid_plugins.redirect.admin",
    "unittest_plugin.views",
    "apps.pylucid.static.PyLucid",
    "diff",
    "find_and_replace.admin_views",
    "closure_compiler",
    "update_journal.tests",
    "pylucid_plugins.poll.views",
    "pylucid_admin.views",
    "generic.tests",
    "pylucid_project.tests.test_TreeModel",
    "pylucid_project.pylucid_plugins.include.views",
    "StreetMap.models",
    "pylucid_plugins.package_info.admin_views",
    "pylucid_project.apps.pylucid.system.pylucid_plugin",
    "pylucid_project.pylucid_plugins.tag_navi.views",
    "pylucid_project.pylucid_plugins.update_journal.views",
    "pylucid_project.pylucid_plugins.language.preference_forms",
    "migrations.0001_initial",
    "safe_obtain",
    "breadcrumb.context_middleware",
    "tools.forms",
    "test_Unittest",
    "apps.pylucid.static.PyLucid.jwysiwyg.get_wysiwyg_files",
    "pylucid_project.apps.pylucid.markup.converter",
    "pylucid_plugins.gallery",
    "pylucid_project.apps.pylucid.views",
    "pylucid_update.admin",
    "pylucid_project.apps.pylucid.forms.pagemeta",
    "pylucid_plugins.sub_menu.tests",
    "pylucid_project.apps.pylucid_admin.management.commands.L10n",
    "update_journal.admin_urls",
    "pylucid_plugins.page_admin.admin_views.page_list",
    "pylucid_project.pylucid_plugins.blog.migrations.0004_unique_on_date",
    "auth.admin",
    "pylucid_project.pylucid_plugins.tools",
    "pylucid_project.apps.pylucid.models",
    "pylucid_project.pylucid_plugins.StreetMap",
    "pylucid_plugins.generic",
    "pylucid_project.tests.test_tools.test_runner",
    "migrations.0003_django_v1_4",
    "pylucid_plugins.design.forms",
    "pylucid_project.pylucid_plugins.rss.views",
    "middlewares.headline_anchor",
    "pylucid_project.apps.pylucid.tests",
    "pylucid_project.pylucid_plugins.StreetMap.admin",
    "pylucid.tests.testutils.test_settings",
    "pylucid_project.apps.pylucid.markup.PyLucid_creole_macros",
    "pylucid_plugins.blog.views",
    "pylucid_project.pylucid_plugins",
    "pylucid_admin.admin",
    "pylucid_project.system",
    "pylucid_project.apps.pylucid.system.headfile",
    "breadcrumb.preference_forms",
    "search.preference_forms",
    "apps.pylucid_admin.tests",
    "pylucid.signals",
    "pylucid.models",
    "pylucid_project.apps.pylucid_admin.management.commands",
    "utils.slug",
    "0003_split_by_language_2_cleanup",
    "pylucid_project.apps.pylucid.system",
    "pylucid_plugins.internals",
    "editable_headfile",
    "pylucid_plugins.extrahead.context_middleware",
    "testutils.test_settings",
    "scripts.standalone",
    "pylucid_plugins.page_admin.admin_views.translate_page",
    "pylucid_project.apps.pylucid_admin.app_settings",
    "sub_menu.tests",
    "form_utils",
    "pylucid_plugins.language.preference_forms",
    "tests.tests_local_settings",
    "apps.pylucid.static.PyLucid.codemirror",
    "pylucid_project.pylucid_plugins.package_info.views",
    "pylucid.markup.views",
    "signals",
    "pylucid_plugins.blog.update",
    "apps.pylucid_admin",
    "bootstrap.source-pylucid-boot",
    "django_addons",
    "manage",
    "pylucid_project.pylucid_plugins.lexicon.preference_forms",
    "filemanager.preference_forms",
    "apps.pylucid.tests.test_messages",
    "update_journal.admin",
    "pylucid.forms.pagemeta",
    "pylucid_project.apps",
    "pylucid.defaulttags.sourcecode",
    "pylucid_project.pylucid_plugins.lexicon.search",
    "create_standalone_package",
    "pylucid.tests.testutils.test_urls",
    "apps.pylucid.migrations.0004_salt_length",
    "pylucid_admin.models",
    "tests.test_tools.basetest",
    "migrations.0002_auto__chg_field_pagecontent_markup",
    "pylucid.models.ip_ban_list",
    "apps.pylucid_admin.app_settings",
    "poll.admin",
    "pylucid_project.pylucid_plugins.auth.tests",
    "extraheadBlock",
    "pylucid_plugins.tools.admin_urls",
    "blog.migrations.0003_split_by_language_2_cleanup",
    "pylucid_project.pylucid_plugins.update_journal.forms",
    "pylucid_project.middlewares.pagestats",
    "test_tools",
    "pylucid_project.pylucid_plugins.admin_menu",
    "apps.pylucid_update",
    "test_messages",
    "pylucid_project.apps.pylucid.system.i18n",
    "pylucid_plugins.admin_menu.tests",
    "forms.utils",
    "pylucid_project.pylucid_plugins.blog.admin",
    "utils.python_tools",
    "pylucid_project.utils.timezone",
    "pylucid_project.apps.pylucid.models.pagecontent",
    "tools",
    "templatetags.simple_menu",
    "pylucid.static.PyLucid.codemirror.get_codemirror_files",
    "pylucid_project.apps.pylucid_admin.views",
    "pylucid",
    "pylucid_project.pylucid_plugins.auth.views",
    "defaulttags.sourcecode",
    "pylucid_project.pylucid_plugins.design.admin_urls",
    "pylucid_plugins.design",
    "pylucid_project.pylucid_plugins.page_admin.tests",
    "pylucid_project.pylucid_plugins.page_admin.admin_urls",
    "pylucid_project.pylucid_plugins.auth.admin_views",
    "pylucid_plugins.poll",
    "page_admin",
    "pylucid_plugins.lexicon.admin_views",
    "new_plugin_page",
    "pylucid_project.pylucid_plugins.extrahead.context_middleware",
    "apps.pylucid.decorators",
    "apps.pylucid.app_settings",
    "update_env",
    "standalone",
    "pylucid_project.apps.pylucid.models.log",
    "pylucid_project.pylucid_plugins.include.preference_forms",
    "tag_navi",
    "pylucid_project.pylucid_plugins.breadcrumb.context_middleware",
    "pylucid_project.tests.unittest_plugin",
    "comma_separated_field",
    "pylucid_project.pylucid_plugins.find_and_replace.forms",
    "pylucid_project.apps.pylucid.defaulttags.localtime",
    "pylucid_project.apps.pylucid.shortcuts",
    "pylucid_plugins.page_admin.admin_views.new_plugin_page",
    "apps.pylucid.system.headfile",
    "pylucid_plugins.lexicon.admin",
    "pylucid.templatetags.simple_menu",
    "system.pylucid_plugins",
    "pylucid_plugins.main_menu",
    "pylucid_admin.urls",
    "models.ip_ban_list",
    "auth.auth_backends",
    "pylucid_project.pylucid_plugins.pylucid_comments.admin",
    "pylucid_project.pylucid_plugins.find_and_replace.admin_urls",
    "pylucid_project.pylucid_plugins.tools.forms",
    "pylucid-boot",
    "pylucid_project.apps.pylucid.models.language",
    "TOC.views",
    "pylucid_project.pylucid_plugins.blog.preference_forms",
    "pylucid_project.pylucid_plugins.design.admin_views",
    "pylucid_project.pylucid_plugins.pylucid_comments.views",
    "apps.pylucid.tests.test_django_tag_assembler",
    "test_PluginAPI",
    "markup.converter",
    "translate",
    "utils.site_utils",
    "apps.pylucid.static",
    "pylucid_plugins.StreetMap",
    "pylucid_project.pylucid_plugins.blog.migrations.0003_split_by_language_2_cleanup",
    "pylucid_plugins.system",
    "admin_views",
    "pylucid_project.middlewares.message_level",
    "pylucid_plugins.gallery.tests",
    "pylucid_project.apps.pylucid.markup.hightlighter",
    "pylucid_project.pylucid_plugins.internals.admin_views",
    "apps.pylucid.markup.widgets",
    "pylucid_project.apps.pylucid.models.colorscheme",
    "pylucid_project.pylucid_plugins.extrahead.views",
    "0004_salt_length",
    "apps.pylucid.migrations",
    "design.admin_urls",
    "pylucid_plugins.redirect.tests",
    "pylucid_project.utils.slug",
    "pylucid_project.apps.pylucid.tests.test_page_permissions",
    "pylucid_project.base_models.base_models",
    "pylucid_plugins.blog.admin",
    "markup.views",
    "pylucid_update",
    "shortcuts",
    "pylucid_plugins.update_journal.tests",
    "templatetags",
    "hightlighter",
    "pylucid_plugins.tools.admin_views",
    "pylucid_admin.management.commands.create_instance",
    "timezone",
    "gallery.views",
    "pylucid_comments.forms",
    "pylucid_plugins.poll.models",
    "pylucid.tests.test_page_permissions",
    "tests.unittest_plugin",
    "pylucid_project.pylucid_plugins.language.views",
    "pylucid_project.apps.pylucid.forms.utils",
    "crypt",
    "models.pagecontent",
    "pylucid_project.apps.i18n",
    "apps.pylucid_admin.management.commands",
    "pylucid_project.pylucid_plugins.design.tests",
    "apps.pylucid.tree_model",
    "pylucid_plugins.auth.tests",
    "pylucid_project.apps.pylucid.markup.admin",
    "models",
    "pylucid_project.pylucid_plugins.sub_menu",
    "pylucid.markup.admin",
    "pylucid.tests.test_messages",
    "apps.pylucid.markup.tinyTextile",
    "markup.admin",
    "admin_views.markup_help",
    "pylucid_project.apps.pylucid.tests.test_markups",
    "pylucid_project.pylucid_plugins.internals.admin_urls",
    "pylucid_update.urls",
    "pylucid_plugins.page_admin.admin_views.convert_markup",
    "pylucid_plugins.page_admin.views",
    "pylucid_project.apps.i18n.utils.translate",
    "pylucid_plugins.pylucid_comments.admin",
    "pylucid_plugins.admin_menu.views",
    "PyLucid.codemirror.get_codemirror_files",
    "pylucid_project.pylucid_plugins.gallery.admin",
    "pylucid.defaulttags.extraheadBlock",
    "design.forms",
    "filemanager.forms",
    "pylucid_plugins.gallery.preference_forms",
    "apps.pylucid_admin.management.commands.create_initialdata",
    "pluginpage",
    "basetest",
    "context_middleware",
    "pylucid_plugins.redirect.views",
    "apps.pylucid_admin.admin_menu",
    "management.commands.L10n",
    "utils.closure_compiler",
    "include",
    "get_wysiwyg_files",
    "bootstrap.pylucid-boot",
    "update_journal.preference_forms",
    "pylucid_project.apps.pylucid.defaulttags",
    "pylucid_project.middlewares.ip_ban",
    "gallery.preference_forms",
    "pylucid_project.apps.i18n.models",
    "pylucid_project.pylucid_plugins.extrahead",
    "update_journal.forms",
    "defaulttags.localtime",
    "pylucid_project.pylucid_plugins.page_admin.admin_views.page_order",
    "blog.models",
    "pylucid_project.pylucid_plugins.lexicon.forms",
    "pylucid_project.pylucid_plugins.search.views",
    "PyLucid",
    "apps.pylucid.markup.PyLucid_creole_macros",
    "pylucid_project.apps.pylucid.tests.testutils",
    "pylucid_project.pylucid_plugins.pref_test",
    "pylucid_project.pylucid_plugins.page_admin.admin_views.bulk_editor",
    "apps.pylucid.forms.pagemeta",
    "blog.migrations.0001_initial",
    "pylucid_project.pylucid_plugins.language.tests",
    "blog.search",
    "pylucid_project.pylucid_plugins.blog.search",
    "pylucid_project.pylucid_plugins.auth.test_settings",
    "pylucid_project.tests.unittest_plugin.urls",
    "pylucid_comments",
    "pylucid_project.apps.pylucid_update.admin",
    "pylucid_project.pylucid_plugins.lexicon.admin",
    "context_processors",
    "apps.pylucid.urls",
    "pylucid_project.pylucid_plugins.update_journal.admin",
    "pylucid_project.apps.pylucid.signals",
    "pylucid_plugins.breadcrumb.context_middleware",
    "pylucid_plugins.tag_navi",
    "markup.hightlighter",
    "auth.views",
    "pylucid_plugins.update_journal.urls",
    "pylucid_project.pylucid_plugins.page_admin.admin_views.markup_help",
    "headline_anchor",
    "models.pagemeta",
    "pylucid_project.apps.pylucid_update.views",
    "auth.js_sha_login_pseudocode",
    "test_urls",
    "page_admin.admin_views.convert_markup",
    "apps.pylucid.models.language",
    "apps.pylucid.models.userprofile",
    "pylucid_plugins.tools",
    "pylucid.defaulttags.lucidTag",
    "pylucid_plugins.page_admin.admin_views.markup_help",
    "apps.pylucid.django_addons.comma_separated_field",
    "static.PyLucid.jwysiwyg",
    "testutils",
    "pylucid_project.apps.pylucid_update.forms",
    "pylucid_plugins.pylucid_comments.preference_forms",
    "test_settings",
    "page_admin.admin_views",
    "test_tools.scrapping",
    "search.forms",
    "auth.admin_views",
    "pylucid.static.PyLucid.codemirror",
    "apps.pylucid.markup.admin",
    "pylucid_project.pylucid_plugins.page_admin.views",
    "pylucid_project.utils.python_tools",
    "pylucid_project.pylucid_plugins.generic.tests",
    "package_info",
    "pagetree",
    "pylucid_project.pylucid_plugins.update_env.tests",
    "django_addons.comma_separated_field",
    "page_admin.admin_views.markup_help",
    "pylucid_project.pylucid_plugins.internals",
    "update_env.admin_urls",
    "language.preference_forms",
    "js_sha_login_pseudocode",
    "pylucid_project.pylucid_plugins.SiteMap.views",
    "tests.test_tools.scrapping",
    "apps.pylucid.static.PyLucid.codemirror.get_codemirror_files",
    "pylucid_objects",
    "pylucid_project.base_models.permissions",
    "pylucid_project.apps.pylucid.templatetags",
    "pylucid_project.pylucid_plugins.generic.views",
    "sub_menu.views",
    "pylucid_project.pylucid_plugins.filemanager.admin_views",
    "static.PyLucid.codemirror",
    "pylucid_comments.tests",
    "gallery.models",
    "pylucid_project.utils.diff",
    "pylucid_plugins.package_info",
    "lexicon.models",
    "blog.forms",
    "pylucid_project.urls",
    "pylucid_project.pylucid_plugins.update_journal.models",
    "pylucid.tree_model",
    "pylucid_project.pylucid_plugins.lexicon.signal_receiver",
    "pylucid_project.apps.pylucid_admin.admin",
    "pylucid_project.apps.pylucid.preference_forms",
    "apps.pylucid.tests",
    "TOC",
    "pylucid_project.base_models",
    "pylucid.models.editable_headfile",
    "pylucid.context_processors",
    "apps.pylucid.tests.testutils.test_settings",
    "pylucid_plugins.auth.js_sha_login_pseudocode",
    "filemanager",
    "pylucid_project.manage",
    "StreetMap.preference_forms",
    "pylucid_project.pylucid_plugins.blog.update",
    "utils.SimpleStringIO",
    "apps.pylucid.admin",
    "pylucid_plugins.auth.preference_forms",
    "apps.pylucid.migrations.0003_django_v1_4",
    "admin_menu.views",
    "pylucid_plugins.extrahead",
    "update_journal.models",
    "utils.form_utils",
    "base_models",
    "pylucid_project.management_command_settings",
    "permalink",
    "pylucid_plugins.sub_menu.views",
    "pylucid.static.PyLucid.jwysiwyg.get_wysiwyg_files",
    "pylucid_project.pylucid_plugins.page_admin.admin_views.translate_page",
    "redirect.tests",
    "pylucid_project.apps.pylucid_admin.admin_menu",
    "pylucid_project.pylucid_plugins.page_admin.admin_views.page_list",
    "pylucid_project.apps.pylucid.models.pagemeta",
    "pylucid_project.pylucid_plugins.design.signal_receiver",
    "pylucid_project.apps.pylucid.urls",
    "pylucid_plugins.update_env.tests",
    "page_admin.admin_views.page_order",
    "apps.pylucid_update.urls",
    "pylucid_project.apps.pylucid.system.extrahead",
    "pylucid_project.apps.pylucid.system.pylucid_objects",
    "pylucid_project.pylucid_plugins.pref_test.views",
    "apps.pylucid.tests.test_markups",
    "pylucid_plugins.page_admin.forms",
    "pylucid.forms",
    "tests.unittest_plugin.models",
    "blog.views",
    "pylucid_project.pylucid_plugins.gallery.models",
    "pylucid.static",
    "pylucid_plugins.tag_navi.views",
    "pylucid_project.middlewares.utils",
    "pylucid_plugins.auth.admin_urls",
    "L10n",
    "auth.tests",
    "forms",
    "pylucid_plugins.search",
    "i18n.utils",
    "pylucid_project.pylucid_plugins.include.tests",
    "blog.admin",
    "auth",
    "apps.pylucid_admin.models",
    "pylucid_plugins.page_admin.tests",
    "permissions",
    "test_markups",
    "pylucid_plugins.package_info.admin_urls",
    "pylucid_plugins.page_admin.admin_views.bulk_editor",
    "lexicon.admin_views",
    "pylucid_project.apps.pylucid.markup.views",
    "pylucid_plugins.redirect.admin",
    "pylucid.migrations",
    "pylucid_plugins.pylucid_comments.tests",
    "scripts.manage",
    "apps.i18n.forms",
    "pylucid_project.apps.pylucid.system.permalink",
    "pylucid_project.tests.test_tools.basetest",
    "pylucid_admin.admin_menu",
    "apps.pylucid.tests.test_Design",
    "static",
    "apps.pylucid.markup.views",
    "pylucid_project.pylucid_plugins.filemanager.forms",
    "package_info.admin_urls",
    "pylucid_plugins.update_env.admin_urls",
    "system.admin_urls",
    "auth_backends",
    "pylucid_plugins.sub_menu",
    "apps.pylucid_update.models",
    "pagecontent",
    "blog.admin_views",
    "extrahead.views",
    "design.signal_receiver",
    "tests_local_settings",
    "pylucid_plugins.pref_test.preference_forms",
    "standalone.manage",
    "pylucid_plugins.find_and_replace.preference_forms",
    "pylucid_project.tests.test_Unittest",
    "pylucid_plugins.pylucid_comments.forms",
    "models.design",
    "tests.test_Design",
    "pylucid_project.pylucid_plugins.update_journal.urls",
    "pylucid_project.pylucid_plugins.redirect.models",
    "language",
    "update_env.tests",
    "site_utils",
    "apps.pylucid_admin.urls",
    "pylucid_plugins.find_and_replace.tests",
    "translate_page",
    "pylucid_project.pylucid_plugins.search",
    "system.pylucid_plugin",
    "base_markup_model",
    "apps.pylucid.system.extrahead",
    "pylucid_project.apps.pylucid.migrations.0001_initial",
    "admin_urls",
    "page_admin.admin_views.new_plugin_page",
    "defaulttags",
    "apps.i18n.utils",
    "pylucid_project.pylucid_plugins.page_admin.admin_views",
    "commands.L10n",
    "management",
    "pylucid_plugins.extrahead.views",
    "pylucid_project.apps.pylucid.migrations.0004_salt_length",
    "apps.pylucid.defaulttags.extraheadBlock",
    "system",
    "pylucid_project.middlewares.context_middlewares",
    "pylucid_plugins.find_and_replace",
    "apps.pylucid.base_admin",
    "tests.unittest_plugin.urls",
    "pylucid.tests.test_Design",
    "utils.crypt",
    "apps.pylucid.defaulttags",
    "lexicon.views",
    "update",
    "pylucid.models.pagemeta",
    "unittest_plugin.urls",
    "pylucid_project.utils.escape",
    "defaulttags.extraheadBlock",
    "pylucid_project.pylucid_plugins.StreetMap.preference_forms",
    "pylucid_project.pylucid_plugins.pylucid_comments.preference_forms",
    "rss",
    "gallery.tests",
    "pylucid_project.pylucid_plugins.auth.forms",
    "pylucid_project.pylucid_plugins.lexicon.admin_views",
    "admin_views.new_plugin_page",
    "pylucid_project.pylucid_plugins.lexicon",
    "redirect.models",
    "pylucid_project.pylucid_plugins.system",
    "find_and_replace.tests",
    "migrations.0004_unique_on_date",
    "pylucid_project.pylucid_plugins.blog.admin_urls",
    "tests.test_page_permissions",
    "scripts.local_settings_example",
    "pylucid_project.apps.pylucid.defaulttags.extraheadBlock",
    "pylucid.markup.PyLucid_creole_macros",
    "apps.pylucid.models",
    "system.i18n",
    "pylucid_plugins.language.views",
    "signal_receiver",
    "gallery.urls",
    "poll.models",
    "pylucid_project.pylucid_plugins.breadcrumb.preference_forms",
    "pylucid_plugins.generic.tests",
    "pylucid_project.pylucid_plugins.SiteMap",
    "page_admin.admin_urls",
    "pylucid_plugins.main_menu.views",
    "markup.forms",
    "pylucid.markup.tinyTextile",
    "management.commands.create_instance",
    "gallery",
    "pylucid_project.pylucid_plugins.redirect.tests",
    "update_journal.urls",
    "pylucid_project.pylucid_plugins.StreetMap.views",
    "extrahead.context_middleware",
    "pylucid_project.pylucid_plugins.poll.models",
    "apps.pylucid",
    "pylucid_project.apps.pylucid.tests.testutils.test_settings",
    "lexicon.tests",
    "lexicon",
    "pylucid.django_addons.comma_separated_field",
    "migrations",
    "pylucid_plugins.update_journal.preference_forms",
    "tests.unittest_plugin.views",
    "pylucid_plugins.blog.search",
    "create_instance",
    "redirect",
    "page_order",
    "pylucid.system.i18n",
    "update_env.admin_views",
    "base_models.base_markup_model",
    "page_admin.admin_views.tag_list",
    "redirect.views",
    "pylucid_project.apps.pylucid.static.PyLucid.jwysiwyg.get_wysiwyg_files",
    "pylucid_project.apps.pylucid.models.pluginpage",
    "pylucid_admin.app_settings",
    "pylucid.django_addons",
    "pylucid_project.apps.pylucid_admin.tests",
    "pylucid_plugins.blog.migrations.0001_initial",
    "pylucid_plugins.page_admin.admin_views",
    "pylucid_project.tests.test_tools.scrapping",
    "pylucid_plugins.search.views",
    "lexicon.admin_urls",
    "pylucid_plugins.page_admin.search",
    "pylucid_project.pylucid_plugins.package_info.admin_urls",
    "pylucid_plugins.lexicon.views",
    "pylucid.models.pagetree",
    "upgrade_pylucid_env",
    "userprofile",
    "decorators",
    "pylucid_plugins.gallery.models",
    "settings",
    "pylucid_project.pylucid_plugins.gallery.preference_forms",
    "lexicon.search",
    "pylucid_plugins.admin_menu",
    "pylucid_plugins.search.tests",
    "apps.pylucid.defaulttags.localtime",
    "pylucid_comments.preference_forms",
    "pylucid_project.pylucid_plugins.breadcrumb",
    "pylucid_plugins.tools.forms",
    "pylucid_project.pylucid_plugins.page_admin.admin_views.convert_markup",
    "management.commands",
    "pylucid_project.pylucid_plugins.page_admin.admin_views.edit_page",
    "sf_main_menu",
    "pylucid_plugins.include.tests",
    "pylucid_project.pylucid_plugins.blog.forms",
    "base_models.base_models",
    "models.pluginpage",
    "edit_page",
    "pylucid_plugins.design.admin_urls",
    "pylucid_project.pylucid_plugins.system.admin_urls",
    "pylucid.system.pylucid_plugin",
    "pylucid_project.apps.pylucid.tests.testutils.test_urls",
    "pylucid_project.pylucid_plugins.sub_menu.tests",
    "pylucid_project.apps.pylucid.migrations.0003_django_v1_4",
    "pylucid_project.pylucid_plugins.blog",
    "0002_auto__chg_field_pagecontent_markup",
    "tests.unittest_plugin.tests",
    "pylucid_project.apps.pylucid.tree_model",
    "pylucid.markup.converter",
    "include.preference_forms",
    "pylucid_project.pylucid_plugins.blog.urls",
    "pylucid_plugins.filemanager",
    "lucidTag",
    "pylucid_plugins.internals.admin_urls",
    "pylucid.preference_forms",
    "apps.i18n.utils.translate",
    "blog.tests",
    "codemirror.get_codemirror_files",
    "pylucid_plugins.pref_test",
    "pylucid_project.apps.pylucid_admin.models",
    "pylucid_admin.management.commands",
    "base_models.permissions",
    "page_admin.admin_views.bulk_editor",
    "forms.pagemeta",
    "pylucid_project.apps.pylucid.forms",
    "system.headfile",
    "apps.pylucid.tests.testutils",
    "pylucid_plugins.generic.views",
    "commands",
    "admin_menu.tests",
    "package_info.views",
    "colorscheme",
    "admin",
    "escape",
    "apps.pylucid_admin.management.commands.L10n",
    "pylucid_project.apps.pylucid.tests.test_django_tag_assembler",
    "pylucid_plugins.update_journal.models",
    "pylucid_project.apps.pylucid.fields",
    "pylucid_project.pylucid_plugins.StreetMap.models",
    "language.views",
    "pylucid_project.pylucid_plugins.find_and_replace.admin_views",
    "pylucid_project.apps.pylucid.app_settings",
    "pylucid_project.pylucid_plugins.update_env.admin_urls",
    "pylucid_plugins.lexicon.preference_forms",
    "poll",
    "pylucid_project.utils",
    "management_command_settings",
    "blog.admin_urls",
    "pylucid_admin",
    "pylucid_plugins.redirect",
    "pylucid_plugins.gallery.views",
    "pylucid.migrations.0002_auto__chg_field_pagecontent_markup",
    "pylucid_project.pylucid_plugins.TOC",
    "package_info.admin_views",
    "pylucid.static.PyLucid.jwysiwyg",
    "new_content_page",
    "apps.pylucid.templatetags",
    "markup.widgets",
    "pylucid_plugins.StreetMap.views",
    "auth.preference_forms",
    "apps.pylucid.defaulttags.sourcecode",
    "pylucid_plugins.update_env",
    "pylucid_project.pylucid_plugins.search.forms",
    "pylucid_project.pylucid_plugins.page_admin.forms",
    "pylucid.models.pagecontent",
    "pylucid_plugins.auth.forms",
    "page_admin.admin_views.page_list",
    "apps.pylucid.forms",
    "pylucid.forms.utils",
    "pylucid_project.pylucid_plugins.lexicon.views",
    "pylucid_project.apps.pylucid.markup",
    "pylucid_project.base_models.many2many",
    "admin_views.edit_page",
    "test_tools.basetest",
    "pylucid.system.headfile",
    "pylucid_plugins.lexicon.tests",
    "SiteMap",
    "pylucid_plugins.internals.admin_views",
    "apps.pylucid.models.editable_headfile",
    "language.tests",
    "pylucid_project.pylucid_plugins.page_admin.admin_views.new_plugin_page",
    "tools.admin_urls",
    "utils",
    "pylucid_project.apps.pylucid.django_addons",
    "PyLucid.jwysiwyg.get_wysiwyg_files",
    "tests.test_tools.test_user",
    "admin_views.page_order",
    "pylucid_project.apps.pylucid.static.PyLucid.jwysiwyg",
    "pylucid_plugins.TOC.views",
    "models.language",
    "create_initialdata",
    "markup.django_tags",
    "pylucid_plugins.blog.models",
    "internals.admin_urls",
    "generic",
    "pylucid_project",
    "views",
    "pylucid_project.apps.pylucid.static.PyLucid.codemirror.get_codemirror_files",
    "pylucid.migrations.0003_django_v1_4",
    "admin_menu",
    "pylucid_project.pylucid_plugins.blog.admin_views",
    "pylucid_plugins",
    "filemanager.admin_urls",
    "pylucid_project.pylucid_plugins.blog.migrations.0001_initial",
    "pref_test.preference_forms",
    "apps.pylucid.fields",
    "apps.pylucid.markup",
    "pylucid_plugins.StreetMap.models",
    "urls",
    "pylucid_plugins.update_journal",
    "pylucid_plugins.update_journal.admin_views",
    "pylucid_project.apps.pylucid.models.userprofile",
    "pylucid_project.pylucid_plugins.poll.views",
    "pylucid_project.pylucid_plugins.main_menu.views",
    "codemirror",
    "pylucid_plugins.StreetMap.preference_forms",
    "pylucid_project.tests.unittest_plugin.tests",
    "pylucid_plugins.auth.admin",
    "utils.timezone",
    "apps.pylucid.markup.django_tags",
    "pylucid_plugins.auth.test_settings",
    "test_django_tag_assembler",
    "pylucid_plugins.gallery.admin",
    "pylucid_plugins.system.admin_urls",
    "context_middlewares",
    "pylucid_project.pylucid_plugins.auth.admin",
    "commands.create_instance",
    "get_codemirror_files",
    "pylucid_plugins.lexicon.forms",
    "pylucid_plugins.search.forms",
    "utils.css_color_utils",
    "pylucid_plugins.system.admin_views",
    "lexicon.signal_receiver",
    "pylucid_project.pylucid_plugins.filemanager.admin_urls",
    "pylucid_plugins.blog.preference_forms",
    "find_and_replace.preference_forms",
    "apps.i18n.models",
    "pylucid_plugins.design.signal_receiver",
    "blog",
    "pylucid.app_settings",
    "app_settings",
    "unittest_plugin",
    "tests.test_TreeModel",
    "pylucid_plugins.sf_main_menu.views",
    "tests",
    "filemanager.admin_views",
    "pylucid_plugins.language",
    "pylucid_project.apps.pylucid.models.editable_headfile",
    "pylucid_plugins.lexicon.admin_urls",
    "pylucid.defaulttags",
    "middlewares",
    "pylucid.fields",
    "tree_model",
    "auth.test_settings",
    "pylucid_plugins.page_admin",
    "pylucid_plugins.find_and_replace.admin_views",
    "scripts.standalone.manage",
    "StreetMap",
    "pylucid.tests.test_markups",
    "apps.pylucid.tests.test_page_permissions",
    "pylucid_project.apps.pylucid.models.ip_ban_list",
    "models.log",
    "pylucid_plugins.filemanager.preference_forms",
    "base_models.many2many",
    "pylucid_project.apps.pylucid.base_admin",
    "utils.safe_obtain",
    "pylucid_project.pylucid_plugins.page_admin.admin_views.new_content_page",
    "auth.urls",
    "apps.pylucid_admin.management.commands.create_instance",
    "pylucid.markup.hightlighter",
    "internals.admin_views",
    "pylucid.views",
    "pagemeta",
    "simple_menu",
    "pylucid_admin.management.commands.create_initialdata",
    "pylucid_plugins.page_admin.admin_views.new_content_page",
    "migrations.0003_split_by_language_2_cleanup",
    "pylucid_plugins.rss",
    "pylucid_project.pylucid_plugins.blog.migrations",
    "tests.test_messages",
    "i18n.forms",
    "blog.migrations.0002_split_by_language_1_data_migration",
    "system.extrahead",
    "apps.pylucid_admin.management",
    "pylucid.admin",
    "jwysiwyg.get_wysiwyg_files",
    "pylucid_project.pylucid_plugins.update_env.admin_views",
    "pylucid_project.pylucid_plugins.generic",
    "pylucid.markup.forms",
    "sourcecode",
    "local_settings_example",
    "slug",
    "pylucid_plugins.blog.migrations.0004_unique_on_date",
    "base_admin",
    "pylucid_project.pylucid_plugins.gallery.urls",
    "markup_help",
    "pylucid_project.pylucid_plugins.auth.preference_forms",
    "tag_list",
    "pylucid_project.pylucid_plugins.include",
    "pylucid_plugins.blog.migrations.0002_split_by_language_1_data_migration",
    "pylucid_project.utils.SimpleStringIO",
    "pylucid_project.apps.i18n.views",
    "pylucid_comments.views",
    "internals.tests",
    "scripts.upgrade_pylucid_env",
    "utils.diff",
    "pylucid_project.pylucid_plugins.admin_menu.tests",
    "bootstrap.create_bootstrap_script",
    "pylucid_project.utils.form_utils",
    "apps.pylucid.tests.testutils.test_urls",
    "pylucid_project.pylucid_plugins.redirect",
    "pylucid_plugins.pylucid_comments.views",
    "pylucid.system.extrahead",
    "pylucid_project.apps.pylucid.defaulttags.lucidTag",
    "apps",
    "system.pylucid_objects",
    "pylucid_project.apps.pylucid.markup.django_tags",
    "pylucid_project.middlewares.pylucid_objects",
    "python_tools",
    "system.permalink",
    "apps.pylucid.forms.utils",
    "StreetMap.views",
    "pylucid_project.settings",
    "pylucid_project.pylucid_plugins.gallery",
    "apps.pylucid.signals",
    "test_tools.test_user",
    "pylucid_project.tests.test_tools.test_user",
    "pylucid_project.utils.site_utils",
    "pylucid_project.middlewares",
    "converter",
    "pylucid_project.pylucid_plugins.design",
    "tag_navi.views",
    "apps.pylucid.markup.converter",
    "include.tests",
    "blog.update",
    "bulk_editor",
    "rss.preference_forms",
    "pylucid.models.log",
    "pylucid_admin.management",
    "internals",
    "unittest_plugin.tests",
    "apps.pylucid.views",
    "pylucid.system",
    "pylucid_project.pylucid_plugins.poll.admin",
    "pylucid_plugins.auth.urls",
    "models.pagetree",
    "generic.views",
    "pylucid_project.pylucid_plugins.update_env",
    "preference_forms",
    "pylucid_plugins.SiteMap.views",
    "pylucid_project.pylucid_plugins.package_info",
    "pylucid_project.pylucid_plugins.sub_menu.views",
    "pylucid_plugins.search.preference_forms",
    "pylucid.system.pylucid_objects",
    "admin_views.page_list",
    "blog.urls",
    "breadcrumb",
    "0001_initial",
    "log",
    "0004_unique_on_date",
    "pylucid_plugins.poll.admin",
    "find_and_replace.admin_urls",
    "utils.i18n_utils",
    "pylucid_project.base_models.base_markup_model",
    "i18n.models",
    "pylucid_project.pylucid_plugins.lexicon.sub_html",
    "apps.pylucid.system.i18n",
    "pylucid_plugins.update_journal.views"
]