[
    "m2wsgi.util",
    "test_m2wsgi",
    "tests",
    "gevent",
    "io",
    "__main__",
    "device.dispatcher",
    "m2wsgi.device.dispatcher",
    "m2wsgi.middleware.gzip",
    "m2wsgi.__main__",
    "m2wsgi.util.conhash",
    "m2wsgi.io.base",
    "eventlet",
    "m2wsgi.middleware.buffer",
    "dispatcher",
    "io.gevent",
    "m2wsgi.io.gevent",
    "m2wsgi.io",
    "m2wsgi.io.eventlet",
    "middleware.gzip",
    "io.standard",
    "io.eventlet",
    "buffer",
    "m2wsgi.tests.test_m2wsgi",
    "io.base",
    "standard",
    "util",
    "m2wsgi.tests",
    "base",
    "m2wsgi.device",
    "m2wsgi.middleware",
    "response",
    "device",
    "middleware.buffer",
    "m2wsgi.device.response",
    "util.conhash",
    "device.response",
    "tests.test_m2wsgi",
    "middleware",
    "conhash",
    "gzip",
    "m2wsgi.io.standard",
    "m2wsgi"
]