[
    "example.models",
    "partial",
    "social.apps.cherrypy_app.views",
    "backends.taobao",
    "social.pipeline.user",
    "social.tests.test_utils",
    "django_me_example.manage",
    "tests.backends.test_username",
    "example.app.mail",
    "social.backends.rdio",
    "tests.pipeline",
    "examples.flask_example.routes",
    "social.tests.backends.oauth",
    "social.tests.backends.test_google",
    "tests.backends.test_evernote",
    "backends.test_linkedin",
    "tests.backends.test_amazon",
    "backends.open_id",
    "satool",
    "foursquare",
    "social.backends.coinbase",
    "test_foursquare",
    "dailymotion",
    "social.pipeline.mail",
    "test_yahoo",
    "example.wsgi",
    "test_email",
    "examples.django_me_example.example.app.views",
    "facebook",
    "social.apps.webpy_app.utils",
    "stackoverflow",
    "cherrypy_example.db.saplugin",
    "backends.flickr",
    "social.backends.twitter",
    "app.pipeline",
    "flask_me_example.models",
    "examples.pyramid_example.example.auth",
    "test_box",
    "test_utils",
    "apps.pyramid_app",
    "livejournal",
    "examples.flask_example.manage",
    "taobao",
    "apps.webpy_app.fields",
    "apps.pyramid_app.views",
    "social.backends.mendeley",
    "flask_me_example.manage",
    "backends.test_clef",
    "test_twitch",
    "backends.suse",
    "examples.django_example.example.urls",
    "test_soundcloud",
    "examples.cherrypy_example.db.satool",
    "test_tumblr",
    "social.tests.backends.test_email",
    "examples.webpy_example.migrate",
    "social.p3",
    "pyramid_example.example.scripts",
    "context_processors",
    "apps.tornado_app.models",
    "social.tests.backends.test_linkedin",
    "thisismyjam",
    "examples.tornado_example.models",
    "flask_example.routes.main",
    "backends.jawbone",
    "db.user",
    "social.backends.yahoo",
    "template_filters",
    "django_app.default.tests",
    "pipeline.mail",
    "apps.flask_app.template_filters",
    "apps.django_app.default.admin",
    "social.backends.twitch",
    "social.apps",
    "social.apps.django_app.context_processors",
    "social.backends.aol",
    "social.backends.facebook",
    "social.apps.django_app.default.tests",
    "social.apps.django_app.me",
    "rdio",
    "ubuntu",
    "tumblr",
    "mongoengine_orm",
    "social.backends.lastfm",
    "default.fields",
    "box",
    "cherrypy_app",
    "backends.twitter",
    "tornado_example.settings",
    "pyramid_app.fields",
    "examples.django_example.manage",
    "mixcloud",
    "apps.cherrypy_app.views",
    "test_twitter",
    "strategies.flask_strategy",
    "me.models",
    "webpy_example",
    "social.tests.backends.test_amazon",
    "social",
    "social.backends.mailru",
    "examples.django_me_example.example.urls",
    "cherrypy_example",
    "social.backends.shopify",
    "backends.stripe",
    "social.tests.strategy",
    "social.apps.webpy_app",
    "social.apps.django_app.me.models",
    "syncbd",
    "app",
    "manage",
    "pipeline.user",
    "tests.backends.test_dailymotion",
    "example.views",
    "test_storage",
    "suse",
    "social.apps.flask_app",
    "examples.django_example.example.app.mail",
    "tests.backends.test_clef",
    "backends.test_soundcloud",
    "evernote",
    "app.models",
    "tests.test_pipeline",
    "flask_strategy",
    "django_example.example.app.pipeline",
    "backends.test_stocktwits",
    "django_app.default.fields",
    "flask_app.template_filters",
    "live",
    "apps.flask_app.routes",
    "runkeeper",
    "example.urls",
    "app.mail",
    "test_angel",
    "backends.box",
    "tornado_app.routes",
    "examples.django_me_example.example.app.models",
    "backends.lastfm",
    "apps.django_app.me.tests",
    "test_vk",
    "tests.backends.test_yahoo",
    "yahoo",
    "examples.pyramid_example.example.scripts",
    "social.pipeline",
    "linkedin",
    "backends.mapmyfitness",
    "backends.test_vk",
    "me",
    "social.apps.pyramid_app.models",
    "backends.oauth",
    "backends.linkedin",
    "examples.flask_example.models",
    "tests.backends.test_instagram",
    "social.backends.twilio",
    "social.apps.webpy_app.fields",
    "social.tests.backends.test_stripe",
    "social.apps.flask_me_app",
    "tests.test_utils",
    "exceptions",
    "strategies",
    "example",
    "pipeline.partial",
    "example.settings",
    "social.backends.livejournal",
    "backends.test_tripit",
    "apps.webpy_app.models",
    "webpy_example.models",
    "apps.tornado_app.handlers",
    "backends.instagram",
    "apps.tornado_app",
    "tornado_example",
    "pyramid_example.example.scripts.initializedb",
    "backends.test_twitch",
    "social.backends.dailymotion",
    "saplugin",
    "backends.mailru",
    "backends.twitch",
    "tests.backends.test_live",
    "social.backends.box",
    "apps.cherrypy_app",
    "test_exceptions",
    "social_auth",
    "models",
    "social.backends.douban",
    "flask_me_example.models.user",
    "social.apps.tornado_app.fields",
    "backends.strava",
    "tornado_example.models",
    "mailru",
    "social.apps.flask_app.routes",
    "apps.cherrypy_app.models",
    "backends.test_mapmyfitness",
    "examples.django_example.example.app",
    "tests.backends.legacy",
    "social.apps.django_app.urls",
    "db",
    "aol",
    "social.tests",
    "tests.backends.test_tumblr",
    "backends.github",
    "social.backends.username",
    "django_app.views",
    "social.backends.skyrock",
    "flask_app",
    "apps.pyramid_app.utils",
    "github",
    "social.tests.backends.test_strava",
    "tornado_strategy",
    "social.backends.docker",
    "social.backends.yandex",
    "examples.pyramid_example.example.settings",
    "examples.flask_me_example",
    "webpy_app",
    "social.apps.django_app.default.models",
    "apps.django_app.default.tests",
    "social.actions",
    "webpy_app.app",
    "social.tests.backends.test_tripit",
    "social.tests.actions.test_associate",
    "examples.tornado_example",
    "backends.test_yahoo",
    "examples.flask_example",
    "backends.test_broken",
    "examples.cherrypy_example.db.saplugin",
    "backends.foursquare",
    "backends.bitbucket",
    "backends.pixelpin",
    "social.backends.weibo",
    "django_orm",
    "apps.django_app.middleware",
    "tests.actions.test_disconnect",
    "test_mixcloud",
    "spotify",
    "apps.django_app.utils",
    "disconnect",
    "flask_me_app.models",
    "examples.django_example.example",
    "backends.test_yandex",
    "backends.spotify",
    "examples.cherrypy_example",
    "pyramid_app.utils",
    "flask_app.models",
    "mail",
    "main",
    "example.app",
    "tests.backends.test_mapmyfitness",
    "tests.actions.actions",
    "douban",
    "odnoklassniki",
    "social.backends.stocktwits",
    "tests.actions.test_login",
    "django_app.default.admin",
    "docs",
    "scripts.initializedb",
    "social.backends.amazon",
    "tests.backends.test_tripit",
    "django_app.default.models",
    "examples.pyramid_example.example.views",
    "social.backends.google",
    "initializedb",
    "backends.orkut",
    "social.backends.legacy",
    "social.tests.backends.test_thisismyjam",
    "tests.backends.test_foursquare",
    "docs.conf",
    "backends.test_xing",
    "test_disconnect",
    "strategies.base",
    "test_linkedin",
    "test_tripit",
    "backends.skyrock",
    "examples.flask_example.routes.main",
    "social.backends.steam",
    "test_fitbit",
    "social.apps.flask_me_app.utils",
    "social.apps.flask_me_app.template_filters",
    "backends.trello",
    "tests.backends.test_email",
    "social.backends.github",
    "storage",
    "social.backends.fitbit",
    "social.backends.openstreetmap",
    "apps.django_app",
    "pyramid_example.example.tests",
    "tornado_app.handlers",
    "django_example.example.app.views",
    "social.backends.bitbucket",
    "social.tests.models",
    "flask_me_example.routes.main",
    "social.apps.flask_me_app.routes",
    "social.tests.backends.test_flickr",
    "test_steam",
    "apps.flask_app.models",
    "flask_me_app.template_filters",
    "backends.aol",
    "social.tests.backends.test_yandex",
    "django_app.utils",
    "social.backends.reddit",
    "test_instagram",
    "bitbucket",
    "social.apps.django_app.default",
    "social.backends.belgiumeid",
    "django_strategy",
    "storage.django_orm",
    "tests.backends.test_stackoverflow",
    "tests.backends.oauth",
    "backends.beats",
    "base",
    "tripit",
    "examples.flask_me_example.models.user",
    "social.tests.backends.test_steam",
    "soundcloud",
    "social.apps.django_app.views",
    "social.backends.linkedin",
    "tornado_app.utils",
    "apps.webpy_app.utils",
    "tests.backends.test_stocktwits",
    "social.apps.django_app.default.fields",
    "social.apps.tornado_app.models",
    "backends.shopify",
    "django_me_example",
    "social.apps.pyramid_app.utils",
    "routes",
    "social.backends.fedora",
    "social.storage",
    "strategies.cherrypy_strategy",
    "tests.backends.test_skyrock",
    "backends.weibo",
    "example.scripts.initializedb",
    "social.apps.webpy_app.models",
    "example.tests",
    "social.backends.open_id",
    "pipeline.social_auth",
    "backends.livejournal",
    "backends.dropbox",
    "social.tests.backends.test_behance",
    "social.tests.backends.base",
    "social.tests.test_pipeline",
    "backends.pocket",
    "backends.test_fitbit",
    "instagram",
    "examples.pyramid_example",
    "test_yammer",
    "example.auth",
    "backends.evernote",
    "examples.flask_me_example.manage",
    "social.backends.tumblr",
    "social.tests.pipeline",
    "django_app.urls",
    "examples.flask_example.settings",
    "models.user",
    "django_example.example.wsgi",
    "social.tests.backends.test_mixcloud",
    "backends.test_disqus",
    "social.tests.backends.test_github",
    "examples.django_me_example.example.wsgi",
    "webpy_example.migrate",
    "test_flickr",
    "tests.backends.test_mixcloud",
    "apps.pyramid_app.fields",
    "backends.test_behance",
    "orkut",
    "tests.backends.test_utils",
    "social.apps.cherrypy_app",
    "backends.appsfuel",
    "social.backends.disqus",
    "tests.backends.open_id",
    "tests.backends.test_behance",
    "belgiumeid",
    "flask_app.utils",
    "backends.test_dropbox",
    "store",
    "backends.twilio",
    "tests.backends.test_fitbit",
    "social.tests.backends.test_disqus",
    "test_associate",
    "test_reddit",
    "social.apps.django_app.middleware",
    "social.strategies.utils",
    "angel",
    "examples.django_me_example.example.settings",
    "social.backends.stripe",
    "apps.webpy_app.app",
    "tests.test_exceptions",
    "app.views",
    "social.exceptions",
    "apps.django_app.me",
    "social.tests.backends.test_vk",
    "django_me_example.example.app.models",
    "flask_me_example.routes",
    "examples.django_example.example.app.views",
    "pixelpin",
    "backends.test_stripe",
    "social.backends.mapmyfitness",
    "appsfuel",
    "social.apps.django_app",
    "django_example.example.app.mail",
    "examples.flask_me_example.routes.main",
    "test_podio",
    "backends.test_skyrock",
    "backends.test_kakao",
    "examples.django_me_example.example.app.pipeline",
    "backends.fedora",
    "backends.mixcloud",
    "django_app.me.tests",
    "social.backends.spotify",
    "social.apps.django_app.default.admin",
    "backends.vk",
    "pyramid_example.example",
    "apps.flask_me_app.template_filters",
    "examples.django_example",
    "tornado_app.models",
    "skyrock",
    "django_example.example.settings",
    "webpy_example.app",
    "scripts",
    "backends.test_google",
    "tests.backends.test_vk",
    "tests.backends.test_google",
    "strategies.webpy_strategy",
    "social.apps.cherrypy_app.models",
    "backends.yahoo",
    "tests.backends.test_taobao",
    "social.tests.backends.test_username",
    "stocktwits",
    "social.backends.persona",
    "backends.readability",
    "backends.fitbit",
    "social.storage.sqlalchemy_orm",
    "wsgi",
    "test_taobao",
    "test_readability",
    "backends.openstreetmap",
    "apps.flask_me_app.utils",
    "oauth",
    "pyramid_app",
    "backends.rdio",
    "tests.backends.base",
    "social.tests.test_exceptions",
    "social.apps.django_app.me.tests",
    "backends.douban",
    "tests.backends.test_dummy",
    "examples.pyramid_example.example.scripts.initializedb",
    "tests.backends.test_steam",
    "db.saplugin",
    "apps.flask_app.fields",
    "social.tests.backends.test_live",
    "flask_app.fields",
    "example.app.pipeline",
    "cherrypy_example.db",
    "django_example.example.urls",
    "social.apps.flask_app.fields",
    "tests.backends.test_twitch",
    "backends.persona",
    "examples.pyramid_example.example.tests",
    "social.apps.pyramid_app",
    "apps.flask_app.utils",
    "flask_example.models",
    "social.tests.test_storage",
    "backends.test_stackoverflow",
    "django_example",
    "tests.backends.test_flickr",
    "podio",
    "apps.django_app.me.models",
    "pocket",
    "amazon",
    "django_example.manage",
    "backends.test_bitbucket",
    "twilio",
    "social.backends.soundcloud",
    "disqus",
    "social.storage.base",
    "flask_example",
    "tests.backends.test_bitbucket",
    "social.apps.flask_app.models",
    "settings",
    "fields",
    "pipeline.disconnect",
    "default",
    "flask_me_app.routes",
    "steam",
    "django_app.default",
    "yandex",
    "user",
    "test_skyrock",
    "social.apps.pyramid_app.views",
    "social.backends.suse",
    "backends.test_steam",
    "django_me_example.example.app",
    "apps.flask_app",
    "django_me_example.example.app.views",
    "tests.backends.test_stripe",
    "cherrypy_app.utils",
    "legacy",
    "mapmyfitness",
    "tests.actions.test_associate",
    "test_mapmyfitness",
    "social.backends.appsfuel",
    "social.tests.backends.test_dummy",
    "clef",
    "tests.backends.test_disqus",
    "social.storage.mongoengine_orm",
    "weibo",
    "backends.test_github",
    "examples.flask_me_example.routes",
    "kakao",
    "backends.loginradius",
    "tests.test_storage",
    "examples.pyramid_example.example",
    "tests.backends.test_yandex",
    "flickr",
    "email",
    "apps.cherrypy_app.utils",
    "social.backends.vimeo",
    "reddit",
    "test_strava",
    "pyramid_example.example.settings",
    "flask_app.routes",
    "backends.thisismyjam",
    "backends.yandex",
    "social.backends.dropbox",
    "social.backends.tripit",
    "backends.test_email",
    "social.backends.podio",
    "db.satool",
    "social.tests.backends.test_reddit",
    "admin",
    "django_app.me.models",
    "strategies.utils",
    "social.backends.mixcloud",
    "examples.tornado_example.settings",
    "urls",
    "me.tests",
    "social.tests.backends.test_yammer",
    "social.tests.backends.test_dropbox",
    "django_app",
    "example.scripts",
    "test_pipeline",
    "tornado_app.fields",
    "social.backends.jawbone",
    "social.tests.actions",
    "auth",
    "django_example.example.app.models",
    "social.backends.stackoverflow",
    "examples.django_me_example.example.app",
    "backends.steam",
    "apps.tornado_app.routes",
    "tests.backends.test_facebook",
    "social.tests.backends.test_angel",
    "shopify",
    "apps.django_app.default",
    "social.backends.clef",
    "sqlalchemy_orm",
    "tests.strategy",
    "strategy",
    "backends.test_box",
    "test_bitbucket",
    "backends",
    "backends.xing",
    "test_livejournal",
    "flask_me_app",
    "backends.test_strava",
    "username",
    "backends.behance",
    "test_stackoverflow",
    "storage.base",
    "cherrypy_example.db.user",
    "social.backends.odnoklassniki",
    "backends.test_thisismyjam",
    "loginradius",
    "test_thisismyjam",
    "test_login",
    "examples.flask_me_example.settings",
    "social.tests.backends.legacy",
    "social.backends.instagram",
    "gae",
    "social.strategies.flask_strategy",
    "social.store",
    "backends.test_live",
    "backends.google",
    "p3",
    "examples.webpy_example.models",
    "vimeo",
    "handlers",
    "social.tests.backends.test_dailymotion",
    "social.backends.xing",
    "tests.backends.test_yammer",
    "backends.kakao",
    "pyramid_strategy",
    "apps.tornado_app.fields",
    "pyramid_example",
    "backends.disqus",
    "trello",
    "default.admin",
    "tests.backends.test_github",
    "storage.sqlalchemy_orm",
    "tests.backends.test_xing",
    "utils",
    "vk",
    "social.backends.pocket",
    "test_coinbase",
    "examples.django_example.example.app.models",
    "examples.django_example.example.wsgi",
    "flask_example.routes",
    "strategies.pyramid_strategy",
    "conf",
    "backends.odnoklassniki",
    "backends.test_tumblr",
    "tests.backends.test_broken",
    "pyramid_example.example.models",
    "social.apps.tornado_app.utils",
    "fedora",
    "test_disqus",
    "social.apps.webpy_app.app",
    "views",
    "backends.ubuntu",
    "apps.flask_me_app.models",
    "tests.backends.test_podio",
    "backends.clef",
    "tests.backends",
    "social.tests.backends.test_tumblr",
    "social.tests.backends.test_clef",
    "social.tests.actions.test_disconnect",
    "social.tests.backends.test_fitbit",
    "social.backends.taobao",
    "persona",
    "social.backends",
    "apps.webpy_app",
    "examples.webpy_example.app",
    "backends.reddit",
    "social.tests.backends",
    "django_app.me",
    "examples.flask_me_example.models",
    "stripe",
    "actions.test_login",
    "behance",
    "social.tests.backends.test_twitch",
    "tests.actions",
    "backends.coinbase",
    "tests.backends.test_livejournal",
    "test_google",
    "social.tests.backends.test_box",
    "flask_example.settings",
    "social.tests.backends.test_coinbase",
    "backends.runkeeper",
    "social.backends.foursquare",
    "tornado_example.app",
    "docker",
    "social.apps.tornado_app",
    "apps.flask_me_app.routes",
    "example.app.models",
    "apps.django_app.context_processors",
    "test_dropbox",
    "backends.yammer",
    "backends.mendeley",
    "social.backends.live",
    "actions",
    "backends.test_livejournal",
    "django_app.tests",
    "social.strategies.base",
    "backends.stackoverflow",
    "social.apps.tornado_app.routes",
    "social.tests.backends.test_twitter",
    "social.tests.backends.test_foursquare",
    "backends.test_mixcloud",
    "backends.test_instagram",
    "backends.test_twitter",
    "social.backends.behance",
    "social.tests.backends.test_instagram",
    "storage.mongoengine_orm",
    "backends.test_amazon",
    "tests.backends.test_thisismyjam",
    "social.backends.gae",
    "apps.django_app.urls",
    "backends.docker",
    "tests",
    "strava",
    "examples.cherrypy_example.db",
    "backends.legacy",
    "social.apps.flask_app.template_filters",
    "test_stocktwits",
    "test_username",
    "coinbase",
    "pyramid_app.views",
    "tests.backends.test_box",
    "apps.django_app.default.models",
    "apps.flask_me_app",
    "backends.belgiumeid",
    "backends.live",
    "social.pipeline.partial",
    "social.backends.exacttarget",
    "examples.pyramid_example.example.models",
    "backends.tripit",
    "social.apps.flask_me_app.models",
    "cherrypy_example.db.satool",
    "social.tests.backends.test_soundcloud",
    "social.apps.cherrypy_app.utils",
    "apps.django_app.default.fields",
    "social.tests.backends.test_skyrock",
    "cherrypy_strategy",
    "backends.stocktwits",
    "social.tests.backends.test_xing",
    "social.apps.tornado_app.handlers",
    "social.tests.backends.test_facebook",
    "google",
    "tests.backends.test_strava",
    "examples.django_me_example.example.app.mail",
    "backends.test_facebook",
    "twitter",
    "examples.django_example.example.app.pipeline",
    "flask_example.manage",
    "webpy_app.fields",
    "examples",
    "apps.pyramid_app.models",
    "tests.models",
    "social.backends.readability",
    "flask_me_app.utils",
    "xing",
    "social.strategies.pyramid_strategy",
    "test_broken",
    "tests.backends.test_readability",
    "social.strategies.django_strategy",
    "django_me_example.example.app.pipeline",
    "flask_me_example",
    "social.backends.angel",
    "social.apps.django_app.utils",
    "tests.backends.test_soundcloud",
    "routes.main",
    "actions.test_associate",
    "django_me_example.example.app.mail",
    "lastfm",
    "apps.tornado_app.utils",
    "test_stripe",
    "django_app.context_processors",
    "backends.test_foursquare",
    "backends.test_dummy",
    "backends.email",
    "social.backends.thisismyjam",
    "examples.cherrypy_example.db.user",
    "test_yandex",
    "backends.dailymotion",
    "examples.cherrypy_example.syncbd",
    "cherrypy_example.syncbd",
    "readability",
    "actions.test_disconnect",
    "pipeline",
    "tests.backends.test_kakao",
    "social.tests.backends.test_yahoo",
    "social.apps.django_app.tests",
    "pyramid_example.example.views",
    "test_kakao",
    "django_me_example.example.wsgi",
    "social.tests.backends.test_readability",
    "social.tests.backends.test_stackoverflow",
    "backends.test_readability",
    "social.tests.backends.test_broken",
    "actions.actions",
    "twitch",
    "django_me_example.example.settings",
    "social.backends.beats",
    "apps.django_app.tests",
    "default.models",
    "backends.amazon",
    "strategies.tornado_strategy",
    "social.tests.backends.test_kakao",
    "backends.test_username",
    "social.backends.email",
    "test_evernote",
    "mendeley",
    "tests.backends.test_linkedin",
    "tests.backends.test_twitter",
    "django_example.example.app",
    "backends.test_coinbase",
    "backends.test_utils",
    "open_id",
    "social.pipeline.social_auth",
    "test_behance",
    "flask_me_example.settings",
    "apps",
    "backends.vimeo",
    "exacttarget",
    "social.backends.runkeeper",
    "backends.exacttarget",
    "backends.angel",
    "social.tests.backends.test_mapmyfitness",
    "social.tests.backends.test_stocktwits",
    "tests.backends.test_dropbox",
    "backends.test_flickr",
    "backends.soundcloud",
    "openstreetmap",
    "example.app.views",
    "cherrypy_app.models",
    "social.utils",
    "django_me_example.example.urls",
    "social.backends.base",
    "social.apps.flask_app.utils",
    "social.tests.backends.test_taobao",
    "django_app.middleware",
    "strategies.django_strategy",
    "apps.django_app.views",
    "social.strategies",
    "backends.utils",
    "social.tests.actions.test_login",
    "social.backends.flickr",
    "test_amazon",
    "examples.django_me_example.manage",
    "examples.django_me_example",
    "backends.gae",
    "social.backends.loginradius",
    "django_example.example",
    "social.tests.backends.test_podio",
    "middleware",
    "social.pipeline.disconnect",
    "backends.test_podio",
    "social.strategies.webpy_strategy",
    "default.tests",
    "test_dailymotion",
    "social.backends.ubuntu",
    "pyramid_app.models",
    "django_me_example.example",
    "social.apps.pyramid_app.fields",
    "test_dummy",
    "social.backends.vk",
    "tornado_app",
    "test_xing",
    "backends.test_reddit",
    "social.tests.backends.test_livejournal",
    "migrate",
    "webpy_app.models",
    "yammer",
    "social.strategies.tornado_strategy",
    "social.backends.kakao",
    "social.tests.backends.test_evernote",
    "beats",
    "backends.test_yammer",
    "backends.podio",
    "fitbit",
    "social.tests.backends.open_id",
    "social.backends.yammer",
    "backends.test_angel",
    "test_clef",
    "social.backends.trello",
    "backends.base",
    "backends.tumblr",
    "tests.backends.test_angel",
    "social.backends.oauth",
    "social.tests.actions.actions",
    "examples.django_me_example.example",
    "social.backends.pixelpin",
    "backends.test_taobao",
    "webpy_app.utils",
    "examples.flask_example.models.user",
    "backends.test_dailymotion",
    "social.backends.evernote",
    "examples.tornado_example.app",
    "social.tests.backends.test_bitbucket",
    "social.tests.backends.test_utils",
    "test_facebook",
    "examples.webpy_example",
    "test_live",
    "dropbox",
    "backends.username",
    "social.storage.django_orm",
    "pyramid_example.example.auth",
    "test_github",
    "webpy_strategy",
    "tests.backends.test_coinbase",
    "backends.facebook",
    "flask_example.models.user",
    "backends.test_evernote",
    "examples.django_example.example.settings",
    "social.strategies.cherrypy_strategy",
    "social.backends.utils",
    "cherrypy_app.views",
    "social.backends.strava",
    "social.backends.orkut",
    "tests.backends.test_reddit",
    "jawbone"
]