[
    "foursquare.tests.test_ratelimit",
    "_creds.example",
    "foursquare.tests.test_oauth",
    "test_specials",
    "test_checkins",
    "tests.test_tips",
    "foursquare.tests.test_checkins",
    "foursquare.tests.test_users",
    "foursquare.tests.test_venues",
    "foursquare.tests.test_photos",
    "foursquare.tests.test_settings",
    "foursquare.tests.test_lang",
    "tests.test_specials",
    "foursquare.tests.test_events",
    "foursquare.tests._creds.example",
    "tests.test_checkins",
    "tests.test_settings",
    "test_ratelimit",
    "foursquare",
    "test_multi",
    "foursquare.tests.test_tips",
    "foursquare.tests.test_specials",
    "tests",
    "tests.test_ratelimit",
    "tests.test_users",
    "tests.test_events",
    "test_tips",
    "test_events",
    "test_photos",
    "tests.test_photos",
    "tests._creds.example",
    "test_oauth",
    "test_pages",
    "tests.test_multi",
    "test_lists",
    "foursquare.tests.test_lists",
    "foursquare.tests",
    "test_settings",
    "tests.test_oauth",
    "test_venues",
    "tests.test_venues",
    "foursquare.tests.test_pages",
    "tests.test_lang",
    "test_lang",
    "foursquare.tests.test_multi",
    "tests.test_pages",
    "tests.test_lists",
    "test_users"
]