{
    "archive_url": "https://api.github.com/repos/jtwaleson/decrypt/{archive_format}{/ref}",
    "assignees_url": "https://api.github.com/repos/jtwaleson/decrypt/assignees{/user}",
    "blobs_url": "https://api.github.com/repos/jtwaleson/decrypt/git/blobs{/sha}",
    "branches_url": "https://api.github.com/repos/jtwaleson/decrypt/branches{/branch}",
    "clone_url": "https://github.com/jtwaleson/decrypt.git",
    "collaborators_url": "https://api.github.com/repos/jtwaleson/decrypt/collaborators{/collaborator}",
    "comments_url": "https://api.github.com/repos/jtwaleson/decrypt/comments{/number}",
    "commits_url": "https://api.github.com/repos/jtwaleson/decrypt/commits{/sha}",
    "compare_url": "https://api.github.com/repos/jtwaleson/decrypt/compare/{base}...{head}",
    "contents_url": "https://api.github.com/repos/jtwaleson/decrypt/contents/{+path}",
    "contributors_url": "https://api.github.com/repos/jtwaleson/decrypt/contributors",
    "created_at": "2012-08-07T19:44:40Z",
    "default_branch": "master",
    "description": "Pipe programs through decrypt to make your boss think you are l33t",
    "downloads_url": "https://api.github.com/repos/jtwaleson/decrypt/downloads",
    "events_url": "https://api.github.com/repos/jtwaleson/decrypt/events",
    "fork": false,
    "forks": 35,
    "forks_count": 35,
    "forks_url": "https://api.github.com/repos/jtwaleson/decrypt/forks",
    "full_name": "jtwaleson/decrypt",
    "git_commits_url": "https://api.github.com/repos/jtwaleson/decrypt/git/commits{/sha}",
    "git_refs_url": "https://api.github.com/repos/jtwaleson/decrypt/git/refs{/sha}",
    "git_tags_url": "https://api.github.com/repos/jtwaleson/decrypt/git/tags{/sha}",
    "git_url": "git://github.com/jtwaleson/decrypt.git",
    "has_downloads": true,
    "has_issues": true,
    "has_wiki": true,
    "homepage": null,
    "hooks_url": "https://api.github.com/repos/jtwaleson/decrypt/hooks",
    "html_url": "https://github.com/jtwaleson/decrypt",
    "id": 5332649,
    "issue_comment_url": "https://api.github.com/repos/jtwaleson/decrypt/issues/comments/{number}",
    "issue_events_url": "https://api.github.com/repos/jtwaleson/decrypt/issues/events{/number}",
    "issues_url": "https://api.github.com/repos/jtwaleson/decrypt/issues{/number}",
    "keys_url": "https://api.github.com/repos/jtwaleson/decrypt/keys{/key_id}",
    "labels_url": "https://api.github.com/repos/jtwaleson/decrypt/labels{/name}",
    "language": "Python",
    "languages_url": "https://api.github.com/repos/jtwaleson/decrypt/languages",
    "merges_url": "https://api.github.com/repos/jtwaleson/decrypt/merges",
    "milestones_url": "https://api.github.com/repos/jtwaleson/decrypt/milestones{/number}",
    "mirror_url": null,
    "name": "decrypt",
    "notifications_url": "https://api.github.com/repos/jtwaleson/decrypt/notifications{?since,all,participating}",
    "open_issues": 3,
    "open_issues_count": 3,
    "owner": {
        "avatar_url": "https://avatars.githubusercontent.com/u/1298565?",
        "events_url": "https://api.github.com/users/jtwaleson/events{/privacy}",
        "followers_url": "https://api.github.com/users/jtwaleson/followers",
        "following_url": "https://api.github.com/users/jtwaleson/following{/other_user}",
        "gists_url": "https://api.github.com/users/jtwaleson/gists{/gist_id}",
        "gravatar_id": "2f825f90212ceffb6e315bf341921d8e",
        "html_url": "https://github.com/jtwaleson",
        "id": 1298565,
        "login": "jtwaleson",
        "organizations_url": "https://api.github.com/users/jtwaleson/orgs",
        "received_events_url": "https://api.github.com/users/jtwaleson/received_events",
        "repos_url": "https://api.github.com/users/jtwaleson/repos",
        "site_admin": false,
        "starred_url": "https://api.github.com/users/jtwaleson/starred{/owner}{/repo}",
        "subscriptions_url": "https://api.github.com/users/jtwaleson/subscriptions",
        "type": "User",
        "url": "https://api.github.com/users/jtwaleson"
    },
    "private": false,
    "pulls_url": "https://api.github.com/repos/jtwaleson/decrypt/pulls{/number}",
    "pushed_at": "2014-03-09T16:32:41Z",
    "releases_url": "https://api.github.com/repos/jtwaleson/decrypt/releases{/id}",
    "score": 1.0,
    "size": 257,
    "ssh_url": "git@github.com:jtwaleson/decrypt.git",
    "stargazers_count": 368,
    "stargazers_url": "https://api.github.com/repos/jtwaleson/decrypt/stargazers",
    "statuses_url": "https://api.github.com/repos/jtwaleson/decrypt/statuses/{sha}",
    "subscribers_url": "https://api.github.com/repos/jtwaleson/decrypt/subscribers",
    "subscription_url": "https://api.github.com/repos/jtwaleson/decrypt/subscription",
    "svn_url": "https://github.com/jtwaleson/decrypt",
    "tags_url": "https://api.github.com/repos/jtwaleson/decrypt/tags",
    "teams_url": "https://api.github.com/repos/jtwaleson/decrypt/teams",
    "trees_url": "https://api.github.com/repos/jtwaleson/decrypt/git/trees{/sha}",
    "updated_at": "2014-05-04T22:36:59Z",
    "url": "https://api.github.com/repos/jtwaleson/decrypt",
    "watchers": 368,
    "watchers_count": 368
}