{
    "archive_url": "https://api.github.com/repos/danielgtaylor/braintree_django/{archive_format}{/ref}",
    "assignees_url": "https://api.github.com/repos/danielgtaylor/braintree_django/assignees{/user}",
    "blobs_url": "https://api.github.com/repos/danielgtaylor/braintree_django/git/blobs{/sha}",
    "branches_url": "https://api.github.com/repos/danielgtaylor/braintree_django/branches{/branch}",
    "clone_url": "https://github.com/danielgtaylor/braintree_django.git",
    "collaborators_url": "https://api.github.com/repos/danielgtaylor/braintree_django/collaborators{/collaborator}",
    "comments_url": "https://api.github.com/repos/danielgtaylor/braintree_django/comments{/number}",
    "commits_url": "https://api.github.com/repos/danielgtaylor/braintree_django/commits{/sha}",
    "compare_url": "https://api.github.com/repos/danielgtaylor/braintree_django/compare/{base}...{head}",
    "contents_url": "https://api.github.com/repos/danielgtaylor/braintree_django/contents/{+path}",
    "contributors_url": "https://api.github.com/repos/danielgtaylor/braintree_django/contributors",
    "created_at": "2010-05-11T21:42:23Z",
    "default_branch": "master",
    "description": "Braintree Django Module",
    "downloads_url": "https://api.github.com/repos/danielgtaylor/braintree_django/downloads",
    "events_url": "https://api.github.com/repos/danielgtaylor/braintree_django/events",
    "fork": false,
    "forks": 13,
    "forks_count": 13,
    "forks_url": "https://api.github.com/repos/danielgtaylor/braintree_django/forks",
    "full_name": "danielgtaylor/braintree_django",
    "git_commits_url": "https://api.github.com/repos/danielgtaylor/braintree_django/git/commits{/sha}",
    "git_refs_url": "https://api.github.com/repos/danielgtaylor/braintree_django/git/refs{/sha}",
    "git_tags_url": "https://api.github.com/repos/danielgtaylor/braintree_django/git/tags{/sha}",
    "git_url": "git://github.com/danielgtaylor/braintree_django.git",
    "has_downloads": true,
    "has_issues": true,
    "has_wiki": false,
    "homepage": "",
    "hooks_url": "https://api.github.com/repos/danielgtaylor/braintree_django/hooks",
    "html_url": "https://github.com/danielgtaylor/braintree_django",
    "id": 661583,
    "issue_comment_url": "https://api.github.com/repos/danielgtaylor/braintree_django/issues/comments/{number}",
    "issue_events_url": "https://api.github.com/repos/danielgtaylor/braintree_django/issues/events{/number}",
    "issues_url": "https://api.github.com/repos/danielgtaylor/braintree_django/issues{/number}",
    "keys_url": "https://api.github.com/repos/danielgtaylor/braintree_django/keys{/key_id}",
    "labels_url": "https://api.github.com/repos/danielgtaylor/braintree_django/labels{/name}",
    "language": "Python",
    "languages_url": "https://api.github.com/repos/danielgtaylor/braintree_django/languages",
    "merges_url": "https://api.github.com/repos/danielgtaylor/braintree_django/merges",
    "milestones_url": "https://api.github.com/repos/danielgtaylor/braintree_django/milestones{/number}",
    "mirror_url": null,
    "name": "braintree_django",
    "notifications_url": "https://api.github.com/repos/danielgtaylor/braintree_django/notifications{?since,all,participating}",
    "open_issues": 5,
    "open_issues_count": 5,
    "owner": {
        "avatar_url": "https://avatars.githubusercontent.com/u/106826?",
        "events_url": "https://api.github.com/users/danielgtaylor/events{/privacy}",
        "followers_url": "https://api.github.com/users/danielgtaylor/followers",
        "following_url": "https://api.github.com/users/danielgtaylor/following{/other_user}",
        "gists_url": "https://api.github.com/users/danielgtaylor/gists{/gist_id}",
        "gravatar_id": "bb0a0764f087f1d035e569d00600576c",
        "html_url": "https://github.com/danielgtaylor",
        "id": 106826,
        "login": "danielgtaylor",
        "organizations_url": "https://api.github.com/users/danielgtaylor/orgs",
        "received_events_url": "https://api.github.com/users/danielgtaylor/received_events",
        "repos_url": "https://api.github.com/users/danielgtaylor/repos",
        "site_admin": false,
        "starred_url": "https://api.github.com/users/danielgtaylor/starred{/owner}{/repo}",
        "subscriptions_url": "https://api.github.com/users/danielgtaylor/subscriptions",
        "type": "User",
        "url": "https://api.github.com/users/danielgtaylor"
    },
    "private": false,
    "pulls_url": "https://api.github.com/repos/danielgtaylor/braintree_django/pulls{/number}",
    "pushed_at": "2011-04-21T19:43:21Z",
    "releases_url": "https://api.github.com/repos/danielgtaylor/braintree_django/releases{/id}",
    "score": 1.0,
    "size": 124,
    "ssh_url": "git@github.com:danielgtaylor/braintree_django.git",
    "stargazers_count": 54,
    "stargazers_url": "https://api.github.com/repos/danielgtaylor/braintree_django/stargazers",
    "statuses_url": "https://api.github.com/repos/danielgtaylor/braintree_django/statuses/{sha}",
    "subscribers_url": "https://api.github.com/repos/danielgtaylor/braintree_django/subscribers",
    "subscription_url": "https://api.github.com/repos/danielgtaylor/braintree_django/subscription",
    "svn_url": "https://github.com/danielgtaylor/braintree_django",
    "tags_url": "https://api.github.com/repos/danielgtaylor/braintree_django/tags",
    "teams_url": "https://api.github.com/repos/danielgtaylor/braintree_django/teams",
    "trees_url": "https://api.github.com/repos/danielgtaylor/braintree_django/git/trees{/sha}",
    "updated_at": "2014-01-04T00:01:38Z",
    "url": "https://api.github.com/repos/danielgtaylor/braintree_django",
    "watchers": 54,
    "watchers_count": 54
}