{
    "libs": [
        "heapq",
        "cm",
        "functools",
        "random",
        "cPickle",
        "subprocess",
        "cgiutil",
        "shutil",
        "tools",
        "GLU",
        "cross_validation",
        "copy",
        "argparse",
        "uuid",
        "GLUT",
        "tempfile",
        "pyplot",
        "gettext",
        "re",
        "json",
        "collections",
        "print_function",
        "cProfile",
        "getopt",
        "csv",
        "numpy",
        "unittest",
        "math",
        "difflib",
        "cgi",
        "mimetypes",
        "B",
        "linalg",
        "Queue",
        "parse",
        "path",
        "GL",
        "constants",
        "struct",
        "sys",
        "logging",
        "socket",
        "statemachine",
        "os",
        "portalocker",
        "threading",
        "itertools",
        "r",
        "time",
        "pickle"
    ]
}