[
    "heuristics",
    "testcgi",
    "template-engine.test_templite",
    "web-server.02-serve-static",
    "echo-server",
    "objmodel.02-attr-based",
    "02-attr-based.test_objmodel",
    "rasterizer.color",
    "objmodel.02-attr-based.objmodel",
    "web-server.06-sockets.echo-server",
    "objmodel.02-attr-based.test_objmodel",
    "web-server.04-mimetypes",
    "rasterizer.geometry",
    "ocr",
    "replica",
    "deterministic_network",
    "data-store.dbdb.binary_tree",
    "06-sockets.echo-server",
    "scout",
    "fleet.scout",
    "04-maps.objmodel",
    "cluster.fleet.scout",
    "rasterizer.rasterizer.poly",
    "dbdb.interface",
    "rasterizer.scene",
    "modeller.scene",
    "dbdb.tree",
    "objmodel.01-smalltalk-like",
    "data-store.dbdb.tests",
    "dbdb.storage",
    "tree",
    "examples.e3",
    "trackball",
    "flow-shop",
    "tests.test_binary_tree",
    "dbdb.tool",
    "templite",
    "web-server.03-errcode-pathnorm.server",
    "tests.test_storage",
    "02-serve-static",
    "crawler.crawl",
    "objmodel.diff",
    "03-errcode-pathnorm.server",
    "web-server.00-hello-web",
    "web-server.01-echo-request-info.server",
    "interface",
    "acceptor",
    "rasterizer.rasterizer.color",
    "rasterizer.rasterizer.shape",
    "fleet.commander",
    "fake_network",
    "rasterizer.rasterizer.examples",
    "rasterizer.test_rasterizer",
    "objmodel.countlines",
    "modeller.interaction",
    "01-smalltalk-like.test_objmodel",
    "rasterizer.ellipse",
    "color",
    "dbdb.tests.test_integration",
    "poly",
    "test_storage",
    "web-server.05-simple-cgi.testcgi",
    "rasterizer.rasterizer",
    "diff",
    "modeller.transformation",
    "web-server.00-hello-web.server",
    "fleet.bootstrap",
    "data-store",
    "cluster.fleet.deterministic_network",
    "05-simple-cgi.testquery",
    "cluster.fleet.bootstrap",
    "modeller.node",
    "rasterizer.rasterizer.examples.e1",
    "telnet-server",
    "rasterizer.rasterizer.examples.e3",
    "rasterizer.rasterizer.examples.e2",
    "cluster.fleet.leader",
    "dbdb.binary_tree",
    "web-server.06-sockets.telnet-client",
    "ocr.server",
    "00-hello-web.server",
    "test_integration",
    "05-simple-cgi.testcgi",
    "web-server",
    "objmodel.01-smalltalk-like.objmodel",
    "seed",
    "data-store.dbdb.tests.test_binary_tree",
    "test.test_acceptor",
    "fleet.ship",
    "data-store.dbdb.interface",
    "02-attr-based",
    "ocr.neural_network_design",
    "crawler.reporting",
    "flow-shop.heuristics",
    "data-store.dbdb.tests.test_storage",
    "fleet",
    "rasterizer.run_examples",
    "04-mimetypes",
    "example",
    "cluster.fleet",
    "testquery",
    "utils",
    "dbdb.tests",
    "destijl",
    "commander",
    "fleet.deterministic_network",
    "cluster",
    "cluster.fleet.acceptor",
    "fleet.seed",
    "tests.test_integration",
    "rasterizer.examples.destijl",
    "02-attr-based.objmodel",
    "test.fake_network",
    "rasterizer.rasterizer.geometry",
    "csg",
    "member",
    "modeller.color",
    "rasterizer.rasterizer.csg",
    "data-store.dbdb.tests.test_integration",
    "reporting",
    "06-sockets.telnet-server",
    "rasterizer.rasterizer.examples.destijl",
    "web-server.05-simple-cgi.testquery",
    "modeller.aabb",
    "modeller.trackball",
    "rasterizer.rasterizer.scene",
    "cluster.fleet.replica",
    "objmodel",
    "bootstrap",
    "test_templite",
    "client",
    "web-server.05-simple-cgi.server",
    "crawling",
    "rasterizer.image",
    "cluster.fleet.heartbeat",
    "test_acceptor",
    "ocr.ocr",
    "01-echo-request-info.server",
    "examples.e1",
    "shape",
    "examples.e2",
    "cluster.fleet.network",
    "web-server.06-sockets.telnet-server",
    "rasterizer.poly",
    "test_objmodel",
    "transformation",
    "fleet.replica",
    "cluster.example",
    "tests",
    "04-maps",
    "cluster.fleet.commander",
    "cluster.fleet.test.utils",
    "fleet.heartbeat",
    "examples.destijl",
    "01-smalltalk-like",
    "server",
    "cluster.fleet.test",
    "rasterizer",
    "06-sockets",
    "06-sockets.echo-client",
    "cluster.fleet.client",
    "fleet.leader",
    "examples",
    "objmodel.03-customizable.objmodel",
    "test_binary_tree",
    "rasterizer.csg",
    "test.utils",
    "network",
    "rasterizer.rasterizer.ellipse",
    "02-serve-static.server",
    "leader",
    "data-store.dbdb",
    "cluster.fleet.test.fake_network",
    "objmodel.04-maps.objmodel",
    "cluster.fleet.ship",
    "heartbeat",
    "flow-shop.flow",
    "06-sockets.telnet-client",
    "rasterizer.rasterizer.image",
    "e1",
    "e3",
    "e2",
    "interaction",
    "geometry",
    "04-maps.test_objmodel",
    "fleet.network",
    "countlines",
    "crawler",
    "primitive",
    "web-server.06-sockets.echo-client",
    "image",
    "scene",
    "objmodel.03-customizable",
    "member_replicated",
    "dbdb.tests.test_storage",
    "fleet.test.test_acceptor",
    "ellipse",
    "fleet.member_single",
    "web-server.01-echo-request-info",
    "web-server.03-errcode-pathnorm",
    "objmodel.03-customizable.test_objmodel",
    "fleet.acceptor",
    "03-errcode-pathnorm",
    "01-echo-request-info",
    "fleet.test.utils",
    "cluster.fleet.member_single",
    "fleet.test",
    "tool",
    "test_rasterizer",
    "web-server.02-serve-static.server",
    "rasterizer.examples",
    "cluster.fleet.member",
    "03-customizable",
    "cluster.fleet.test.test_acceptor",
    "crawl",
    "modeller.viewer",
    "04-mimetypes.server",
    "data-store.dbdb.tree",
    "modeller",
    "modeller.primitive",
    "data-store.dbdb.storage",
    "crawler.crawling",
    "cluster.fleet.seed",
    "viewer",
    "03-customizable.objmodel",
    "web-server.06-sockets",
    "flow-shop.neighbourhood",
    "rasterizer.examples.e1",
    "binary_tree",
    "rasterizer.examples.e3",
    "rasterizer.examples.e2",
    "fleet.client",
    "fleet.member",
    "data-store.dbdb.tool",
    "web-server.04-mimetypes.server",
    "ship",
    "cluster.fleet.member_replicated",
    "rasterizer.shape",
    "template-engine",
    "member_single",
    "echo-client",
    "storage",
    "03-customizable.test_objmodel",
    "run_examples",
    "neighbourhood",
    "05-simple-cgi.server",
    "test",
    "aabb",
    "node",
    "objmodel.04-maps",
    "web-server.05-simple-cgi",
    "dbdb",
    "telnet-client",
    "template-engine.templite",
    "05-simple-cgi",
    "objmodel.01-smalltalk-like.test_objmodel",
    "dbdb.tests.test_binary_tree",
    "flow",
    "fleet.member_replicated",
    "objmodel.04-maps.test_objmodel",
    "neural_network_design",
    "01-smalltalk-like.objmodel",
    "00-hello-web",
    "fleet.test.fake_network"
]