{
    "archive_url": "https://api.github.com/repos/codysoyland/surlex/{archive_format}{/ref}",
    "assignees_url": "https://api.github.com/repos/codysoyland/surlex/assignees{/user}",
    "blobs_url": "https://api.github.com/repos/codysoyland/surlex/git/blobs{/sha}",
    "branches_url": "https://api.github.com/repos/codysoyland/surlex/branches{/branch}",
    "clone_url": "https://github.com/codysoyland/surlex.git",
    "collaborators_url": "https://api.github.com/repos/codysoyland/surlex/collaborators{/collaborator}",
    "comments_url": "https://api.github.com/repos/codysoyland/surlex/comments{/number}",
    "commits_url": "https://api.github.com/repos/codysoyland/surlex/commits{/sha}",
    "compare_url": "https://api.github.com/repos/codysoyland/surlex/compare/{base}...{head}",
    "contents_url": "https://api.github.com/repos/codysoyland/surlex/contents/{+path}",
    "contributors_url": "https://api.github.com/repos/codysoyland/surlex/contributors",
    "created_at": "2009-08-17T03:48:37Z",
    "default_branch": "master",
    "description": "Surlex (Simple URL expression translator) - Language for URL matching and extraction",
    "downloads_url": "https://api.github.com/repos/codysoyland/surlex/downloads",
    "events_url": "https://api.github.com/repos/codysoyland/surlex/events",
    "fork": false,
    "forks": 9,
    "forks_count": 9,
    "forks_url": "https://api.github.com/repos/codysoyland/surlex/forks",
    "full_name": "codysoyland/surlex",
    "git_commits_url": "https://api.github.com/repos/codysoyland/surlex/git/commits{/sha}",
    "git_refs_url": "https://api.github.com/repos/codysoyland/surlex/git/refs{/sha}",
    "git_tags_url": "https://api.github.com/repos/codysoyland/surlex/git/tags{/sha}",
    "git_url": "git://github.com/codysoyland/surlex.git",
    "has_downloads": true,
    "has_issues": true,
    "has_wiki": true,
    "homepage": "",
    "hooks_url": "https://api.github.com/repos/codysoyland/surlex/hooks",
    "html_url": "https://github.com/codysoyland/surlex",
    "id": 279636,
    "issue_comment_url": "https://api.github.com/repos/codysoyland/surlex/issues/comments/{number}",
    "issue_events_url": "https://api.github.com/repos/codysoyland/surlex/issues/events{/number}",
    "issues_url": "https://api.github.com/repos/codysoyland/surlex/issues{/number}",
    "keys_url": "https://api.github.com/repos/codysoyland/surlex/keys{/key_id}",
    "labels_url": "https://api.github.com/repos/codysoyland/surlex/labels{/name}",
    "language": "Python",
    "languages_url": "https://api.github.com/repos/codysoyland/surlex/languages",
    "merges_url": "https://api.github.com/repos/codysoyland/surlex/merges",
    "milestones_url": "https://api.github.com/repos/codysoyland/surlex/milestones{/number}",
    "mirror_url": null,
    "name": "surlex",
    "notifications_url": "https://api.github.com/repos/codysoyland/surlex/notifications{?since,all,participating}",
    "open_issues": 1,
    "open_issues_count": 1,
    "owner": {
        "avatar_url": "https://avatars.githubusercontent.com/u/45020?",
        "events_url": "https://api.github.com/users/codysoyland/events{/privacy}",
        "followers_url": "https://api.github.com/users/codysoyland/followers",
        "following_url": "https://api.github.com/users/codysoyland/following{/other_user}",
        "gists_url": "https://api.github.com/users/codysoyland/gists{/gist_id}",
        "gravatar_id": "db17092663e716b08de72e936ed082c7",
        "html_url": "https://github.com/codysoyland",
        "id": 45020,
        "login": "codysoyland",
        "organizations_url": "https://api.github.com/users/codysoyland/orgs",
        "received_events_url": "https://api.github.com/users/codysoyland/received_events",
        "repos_url": "https://api.github.com/users/codysoyland/repos",
        "site_admin": false,
        "starred_url": "https://api.github.com/users/codysoyland/starred{/owner}{/repo}",
        "subscriptions_url": "https://api.github.com/users/codysoyland/subscriptions",
        "type": "User",
        "url": "https://api.github.com/users/codysoyland"
    },
    "private": false,
    "pulls_url": "https://api.github.com/repos/codysoyland/surlex/pulls{/number}",
    "pushed_at": "2013-11-08T03:34:57Z",
    "releases_url": "https://api.github.com/repos/codysoyland/surlex/releases{/id}",
    "score": 1.0,
    "size": 311,
    "ssh_url": "git@github.com:codysoyland/surlex.git",
    "stargazers_count": 63,
    "stargazers_url": "https://api.github.com/repos/codysoyland/surlex/stargazers",
    "statuses_url": "https://api.github.com/repos/codysoyland/surlex/statuses/{sha}",
    "subscribers_url": "https://api.github.com/repos/codysoyland/surlex/subscribers",
    "subscription_url": "https://api.github.com/repos/codysoyland/surlex/subscription",
    "svn_url": "https://github.com/codysoyland/surlex",
    "tags_url": "https://api.github.com/repos/codysoyland/surlex/tags",
    "teams_url": "https://api.github.com/repos/codysoyland/surlex/teams",
    "trees_url": "https://api.github.com/repos/codysoyland/surlex/git/trees{/sha}",
    "updated_at": "2013-12-24T07:27:30Z",
    "url": "https://api.github.com/repos/codysoyland/surlex",
    "watchers": 63,
    "watchers_count": 63
}