{
    "libs": [
        "bin",
        "commands",
        "PIL",
        "repository",
        "indicate",
        "StringIO",
        "wnck",
        "dbus",
        "gtk",
        "apt",
        "subprocess",
        "sys",
        "atexit",
        "Skype4Py",
        "ctypes",
        "shlex",
        "time",
        "os",
        "pynotify",
        "threading"
    ]
}