{
    "libs": [
        "sys",
        "b",
        "os",
        "unittest",
        "redis",
        "celery",
        "itertools",
        "t",
        "time",
        "docker",
        "fl",
        "mock"
    ]
}