[
    "tests.alltests",
    "tests",
    "utilities",
    "utilities.haml2hamlish",
    "tests.test_debug_output",
    "tests.testing_base",
    "hamlish_jinja",
    "test_compact_output",
    "test_jinja_tags",
    "haml2hamlish",
    "testing_base",
    "test_html_tags",
    "test_div_shortcut",
    "test_haml_tags",
    "tests.test_syntax",
    "tests.test_div_shortcut",
    "tests.test_haml_tags",
    "tests.test_html_tags",
    "tests.test_jinja_tags",
    "test_debug_output",
    "test_syntax",
    "alltests",
    "tests.test_compact_output"
]