{
    "archive_url": "https://api.github.com/repos/jomido/jogger/{archive_format}{/ref}",
    "assignees_url": "https://api.github.com/repos/jomido/jogger/assignees{/user}",
    "blobs_url": "https://api.github.com/repos/jomido/jogger/git/blobs{/sha}",
    "branches_url": "https://api.github.com/repos/jomido/jogger/branches{/branch}",
    "clone_url": "https://github.com/jomido/jogger.git",
    "collaborators_url": "https://api.github.com/repos/jomido/jogger/collaborators{/collaborator}",
    "comments_url": "https://api.github.com/repos/jomido/jogger/comments{/number}",
    "commits_url": "https://api.github.com/repos/jomido/jogger/commits{/sha}",
    "compare_url": "https://api.github.com/repos/jomido/jogger/compare/{base}...{head}",
    "contents_url": "https://api.github.com/repos/jomido/jogger/contents/{+path}",
    "contributors_url": "https://api.github.com/repos/jomido/jogger/contributors",
    "created_at": "2013-09-11T20:50:48Z",
    "default_branch": "master",
    "description": "Navigate log files.",
    "downloads_url": "https://api.github.com/repos/jomido/jogger/downloads",
    "events_url": "https://api.github.com/repos/jomido/jogger/events",
    "fork": false,
    "forks": 1,
    "forks_count": 1,
    "forks_url": "https://api.github.com/repos/jomido/jogger/forks",
    "full_name": "jomido/jogger",
    "git_commits_url": "https://api.github.com/repos/jomido/jogger/git/commits{/sha}",
    "git_refs_url": "https://api.github.com/repos/jomido/jogger/git/refs{/sha}",
    "git_tags_url": "https://api.github.com/repos/jomido/jogger/git/tags{/sha}",
    "git_url": "git://github.com/jomido/jogger.git",
    "has_downloads": true,
    "has_issues": true,
    "has_wiki": true,
    "homepage": null,
    "hooks_url": "https://api.github.com/repos/jomido/jogger/hooks",
    "html_url": "https://github.com/jomido/jogger",
    "id": 12767409,
    "issue_comment_url": "https://api.github.com/repos/jomido/jogger/issues/comments/{number}",
    "issue_events_url": "https://api.github.com/repos/jomido/jogger/issues/events{/number}",
    "issues_url": "https://api.github.com/repos/jomido/jogger/issues{/number}",
    "keys_url": "https://api.github.com/repos/jomido/jogger/keys{/key_id}",
    "labels_url": "https://api.github.com/repos/jomido/jogger/labels{/name}",
    "language": "Python",
    "languages_url": "https://api.github.com/repos/jomido/jogger/languages",
    "merges_url": "https://api.github.com/repos/jomido/jogger/merges",
    "milestones_url": "https://api.github.com/repos/jomido/jogger/milestones{/number}",
    "mirror_url": null,
    "name": "jogger",
    "notifications_url": "https://api.github.com/repos/jomido/jogger/notifications{?since,all,participating}",
    "open_issues": 0,
    "open_issues_count": 0,
    "owner": {
        "avatar_url": "https://avatars.githubusercontent.com/u/1469593?",
        "events_url": "https://api.github.com/users/jomido/events{/privacy}",
        "followers_url": "https://api.github.com/users/jomido/followers",
        "following_url": "https://api.github.com/users/jomido/following{/other_user}",
        "gists_url": "https://api.github.com/users/jomido/gists{/gist_id}",
        "gravatar_id": "384ce77deee5a9357fb7bc2a353a00f4",
        "html_url": "https://github.com/jomido",
        "id": 1469593,
        "login": "jomido",
        "organizations_url": "https://api.github.com/users/jomido/orgs",
        "received_events_url": "https://api.github.com/users/jomido/received_events",
        "repos_url": "https://api.github.com/users/jomido/repos",
        "site_admin": false,
        "starred_url": "https://api.github.com/users/jomido/starred{/owner}{/repo}",
        "subscriptions_url": "https://api.github.com/users/jomido/subscriptions",
        "type": "User",
        "url": "https://api.github.com/users/jomido"
    },
    "private": false,
    "pulls_url": "https://api.github.com/repos/jomido/jogger/pulls{/number}",
    "pushed_at": "2014-01-30T21:05:26Z",
    "releases_url": "https://api.github.com/repos/jomido/jogger/releases{/id}",
    "score": 1.0,
    "size": 207,
    "ssh_url": "git@github.com:jomido/jogger.git",
    "stargazers_count": 107,
    "stargazers_url": "https://api.github.com/repos/jomido/jogger/stargazers",
    "statuses_url": "https://api.github.com/repos/jomido/jogger/statuses/{sha}",
    "subscribers_url": "https://api.github.com/repos/jomido/jogger/subscribers",
    "subscription_url": "https://api.github.com/repos/jomido/jogger/subscription",
    "svn_url": "https://github.com/jomido/jogger",
    "tags_url": "https://api.github.com/repos/jomido/jogger/tags",
    "teams_url": "https://api.github.com/repos/jomido/jogger/teams",
    "trees_url": "https://api.github.com/repos/jomido/jogger/git/trees{/sha}",
    "updated_at": "2014-01-30T21:05:26Z",
    "url": "https://api.github.com/repos/jomido/jogger",
    "watchers": 107,
    "watchers_count": 107
}