[
    "tests",
    "pyelasticsearch.downtime",
    "docs",
    "json_tests",
    "client_tests",
    "pyelasticsearch",
    "source.conf",
    "downtime_pooling_tests",
    "pyelasticsearch.tests",
    "conf",
    "downtime",
    "pyelasticsearch.tests.es_kwargs_tests",
    "pyelasticsearch.tests.downtime_pooling_tests",
    "tests.json_tests",
    "docs.source",
    "tests.es_kwargs_tests",
    "pyelasticsearch.tests.json_tests",
    "pyelasticsearch.tests.client_tests",
    "pyelasticsearch.client",
    "source",
    "docs.source.conf",
    "client",
    "pyelasticsearch.exceptions",
    "exceptions",
    "tests.downtime_pooling_tests",
    "tests.client_tests",
    "es_kwargs_tests"
]