{
    "archive_url": "https://api.github.com/repos/andelf/PyAIML/{archive_format}{/ref}",
    "assignees_url": "https://api.github.com/repos/andelf/PyAIML/assignees{/user}",
    "blobs_url": "https://api.github.com/repos/andelf/PyAIML/git/blobs{/sha}",
    "branches_url": "https://api.github.com/repos/andelf/PyAIML/branches{/branch}",
    "clone_url": "https://github.com/andelf/PyAIML.git",
    "collaborators_url": "https://api.github.com/repos/andelf/PyAIML/collaborators{/collaborator}",
    "comments_url": "https://api.github.com/repos/andelf/PyAIML/comments{/number}",
    "commits_url": "https://api.github.com/repos/andelf/PyAIML/commits{/sha}",
    "compare_url": "https://api.github.com/repos/andelf/PyAIML/compare/{base}...{head}",
    "contents_url": "https://api.github.com/repos/andelf/PyAIML/contents/{+path}",
    "contributors_url": "https://api.github.com/repos/andelf/PyAIML/contributors",
    "created_at": "2013-03-09T16:14:36Z",
    "default_branch": "master",
    "description": "PyAIML is an interpreter for AIML (Artificial Intelligence Markup Language). cloned from sf.net.",
    "downloads_url": "https://api.github.com/repos/andelf/PyAIML/downloads",
    "events_url": "https://api.github.com/repos/andelf/PyAIML/events",
    "fork": false,
    "forks": 18,
    "forks_count": 18,
    "forks_url": "https://api.github.com/repos/andelf/PyAIML/forks",
    "full_name": "andelf/PyAIML",
    "git_commits_url": "https://api.github.com/repos/andelf/PyAIML/git/commits{/sha}",
    "git_refs_url": "https://api.github.com/repos/andelf/PyAIML/git/refs{/sha}",
    "git_tags_url": "https://api.github.com/repos/andelf/PyAIML/git/tags{/sha}",
    "git_url": "git://github.com/andelf/PyAIML.git",
    "has_downloads": true,
    "has_issues": true,
    "has_wiki": true,
    "homepage": "",
    "hooks_url": "https://api.github.com/repos/andelf/PyAIML/hooks",
    "html_url": "https://github.com/andelf/PyAIML",
    "id": 8672175,
    "issue_comment_url": "https://api.github.com/repos/andelf/PyAIML/issues/comments/{number}",
    "issue_events_url": "https://api.github.com/repos/andelf/PyAIML/issues/events{/number}",
    "issues_url": "https://api.github.com/repos/andelf/PyAIML/issues{/number}",
    "keys_url": "https://api.github.com/repos/andelf/PyAIML/keys{/key_id}",
    "labels_url": "https://api.github.com/repos/andelf/PyAIML/labels{/name}",
    "language": "Python",
    "languages_url": "https://api.github.com/repos/andelf/PyAIML/languages",
    "merges_url": "https://api.github.com/repos/andelf/PyAIML/merges",
    "milestones_url": "https://api.github.com/repos/andelf/PyAIML/milestones{/number}",
    "mirror_url": null,
    "name": "PyAIML",
    "notifications_url": "https://api.github.com/repos/andelf/PyAIML/notifications{?since,all,participating}",
    "open_issues": 1,
    "open_issues_count": 1,
    "owner": {
        "avatar_url": "https://avatars.githubusercontent.com/u/72891?",
        "events_url": "https://api.github.com/users/andelf/events{/privacy}",
        "followers_url": "https://api.github.com/users/andelf/followers",
        "following_url": "https://api.github.com/users/andelf/following{/other_user}",
        "gists_url": "https://api.github.com/users/andelf/gists{/gist_id}",
        "gravatar_id": "0478b87ec69ce7ce034d370f326c50aa",
        "html_url": "https://github.com/andelf",
        "id": 72891,
        "login": "andelf",
        "organizations_url": "https://api.github.com/users/andelf/orgs",
        "received_events_url": "https://api.github.com/users/andelf/received_events",
        "repos_url": "https://api.github.com/users/andelf/repos",
        "site_admin": false,
        "starred_url": "https://api.github.com/users/andelf/starred{/owner}{/repo}",
        "subscriptions_url": "https://api.github.com/users/andelf/subscriptions",
        "type": "User",
        "url": "https://api.github.com/users/andelf"
    },
    "private": false,
    "pulls_url": "https://api.github.com/repos/andelf/PyAIML/pulls{/number}",
    "pushed_at": "2013-03-18T16:34:02Z",
    "releases_url": "https://api.github.com/repos/andelf/PyAIML/releases{/id}",
    "score": 1.0,
    "size": 292,
    "ssh_url": "git@github.com:andelf/PyAIML.git",
    "stargazers_count": 42,
    "stargazers_url": "https://api.github.com/repos/andelf/PyAIML/stargazers",
    "statuses_url": "https://api.github.com/repos/andelf/PyAIML/statuses/{sha}",
    "subscribers_url": "https://api.github.com/repos/andelf/PyAIML/subscribers",
    "subscription_url": "https://api.github.com/repos/andelf/PyAIML/subscription",
    "svn_url": "https://github.com/andelf/PyAIML",
    "tags_url": "https://api.github.com/repos/andelf/PyAIML/tags",
    "teams_url": "https://api.github.com/repos/andelf/PyAIML/teams",
    "trees_url": "https://api.github.com/repos/andelf/PyAIML/git/trees{/sha}",
    "updated_at": "2014-04-24T17:02:51Z",
    "url": "https://api.github.com/repos/andelf/PyAIML",
    "watchers": 42,
    "watchers_count": 42
}