{
    "libs": [
        "locale",
        "random",
        "datetime",
        "calendar",
        "struct",
        "imp",
        "urllib",
        "re",
        "json",
        "math",
        "htmlentitydefs",
        "httplib",
        "urllib2",
        "sys",
        "path",
        "subprocess",
        "unicodedata",
        "socket",
        "StringIO",
        "decimal",
        "traceback",
        "urlparse",
        "threading",
        "itertools",
        "time",
        "gzip",
        "os"
    ]
}