{"obj": "plane", "file": "mayavi-master/mayavi/components/custom_grid_plane.py", "calls": [{"lineNum": 209, "tgt": "extent", "colOffset": 12}], "context": {"arg_val": ["tvtk.Object"], "arg_type": ["Attribute"], "obj_name": ["plane"]}, "folder": "/home/andrea/github-projects-50/enthought-mayavi.zip", "type": "traits.api.Instance"}
--------------------
{"obj": "glyph_source", "file": "mayavi-master/mayavi/components/glyph.py", "calls": [{"lineNum": 158, "tgt": "GlyphSource", "colOffset": 28}], "context": {"arg_type": ["Attribute"], "keyword_val": ["False", "True"], "obj_name": ["glyph_source"], "keyword_type": ["Name", "Name"], "keyword_key": ["allow_none", "record"], "arg_val": ["glyph_source.GlyphSource"]}, "folder": "/home/andrea/github-projects-50/enthought-mayavi.zip", "type": "traits.api.Instance"}
--------------------
{"obj": "self.glyph_source", "file": "mayavi-master/mayavi/components/glyph.py", "calls": [{"lineNum": 161, "tgt": "on_trait_change", "colOffset": 8}], "context": {"obj_name": ["self.glyph_source"]}, "folder": "/home/andrea/github-projects-50/enthought-mayavi.zip", "type": "traits.api.Instance.GlyphSource"}
--------------------
{"obj": "self.plane", "file": "mayavi-master/mayavi/components/grid_plane.py", "calls": [{"lineNum": 122, "tgt": "update", "colOffset": 8}], "context": {"obj_name": ["self.plane"]}, "folder": "/home/andrea/github-projects-50/enthought-mayavi.zip", "type": "traits.api.Instance."}
--------------------
{"obj": "self", "file": "mayavi-master/mayavi/core/adder_node.py", "calls": [{"lineNum": 218, "tgt": "icon_name", "colOffset": 36}, {"lineNum": 249, "tgt": "items_list_source", "colOffset": 23}, {"lineNum": 250, "tgt": "_is_action_suitable", "colOffset": 23}, {"lineNum": 260, "tgt": "items_list", "colOffset": 8}], "context": {"arg_val": ["AdderNode"], "arg_type": ["Name"], "obj_name": ["self"]}, "folder": "/home/andrea/github-projects-50/enthought-mayavi.zip", "type": "traits.api.Instance"}
--------------------
{"obj": "lut", "file": "mayavi-master/mayavi/core/lut_manager.py", "calls": [{"lineNum": 300, "tgt": "tolist", "colOffset": 36}], "context": {"arg_type": ["Attribute"], "keyword_val": ["False"], "obj_name": ["lut"], "keyword_type": ["Name"], "keyword_key": ["record"], "arg_val": ["tvtk.LookupTable"]}, "folder": "/home/andrea/github-projects-50/enthought-mayavi.zip", "type": "traits.api.Instance"}
--------------------
{"obj": "glyph", "file": "mayavi-master/mayavi/modules/glyph.py", "calls": [{"lineNum": 66, "tgt": "Glyph", "colOffset": 21}], "context": {"arg_type": ["Attribute"], "keyword_val": ["False", "True"], "obj_name": ["glyph"], "keyword_type": ["Name", "Name"], "keyword_key": ["allow_none", "record"], "arg_val": ["glyph.Glyph"]}, "folder": "/home/andrea/github-projects-50/enthought-mayavi.zip", "type": "traits.api.Instance"}
--------------------
{"obj": "grid_plane", "file": "mayavi-master/mayavi/modules/grid_plane.py", "calls": [{"lineNum": 59, "tgt": "GridPlane", "colOffset": 26}], "context": {"arg_type": ["Attribute"], "keyword_val": ["False", "True"], "obj_name": ["grid_plane"], "keyword_type": ["Name", "Name"], "keyword_key": ["allow_none", "record"], "arg_val": ["grid_plane.GridPlane"]}, "folder": "/home/andrea/github-projects-50/enthought-mayavi.zip", "type": "traits.api.Instance"}
--------------------
{"obj": "normals", "file": "mayavi-master/mayavi/modules/scalar_cut_plane.py", "calls": [{"lineNum": 232, "tgt": "inputs", "colOffset": 16}], "context": {"arg_type": ["Name"], "keyword_val": ["False", "True"], "obj_name": ["normals"], "keyword_type": ["Name", "Name"], "keyword_key": ["allow_none", "record"], "arg_val": ["PolyDataNormals"]}, "folder": "/home/andrea/github-projects-50/enthought-mayavi.zip", "type": "traits.api.Instance"}
--------------------
{"obj": "glyph", "file": "mayavi-master/mayavi/modules/tensor_glyph.py", "calls": [{"lineNum": 63, "tgt": "Glyph", "colOffset": 21}], "context": {"arg_type": ["Attribute"], "keyword_val": ["False", "True"], "obj_name": ["glyph"], "keyword_type": ["Name", "Name"], "keyword_key": ["allow_none", "record"], "arg_val": ["glyph.Glyph"]}, "folder": "/home/andrea/github-projects-50/enthought-mayavi.zip", "type": "traits.api.Instance"}
--------------------
{"obj": "self.glyph", "file": "mayavi-master/mayavi/modules/tensor_glyph.py", "calls": [{"lineNum": 64, "tgt": "glyph_source", "colOffset": 8}], "context": {"keyword_type": ["Str"], "keyword_val": ["tensor"], "keyword_key": ["glyph_type"], "obj_name": ["self.glyph"]}, "folder": "/home/andrea/github-projects-50/enthought-mayavi.zip", "type": "traits.api.Instance.Glyph"}
--------------------
{"obj": "actor", "file": "mayavi-master/mayavi/modules/warp_vector_cut_plane.py", "calls": [{"lineNum": 159, "tgt": "inputs", "colOffset": 16}], "context": {"arg_type": ["Name"], "keyword_val": ["False", "True"], "obj_name": ["actor"], "keyword_type": ["Name", "Name"], "keyword_key": ["allow_none", "record"], "arg_val": ["Actor"]}, "folder": "/home/andrea/github-projects-50/enthought-mayavi.zip", "type": "traits.api.Instance"}
--------------------
{"obj": "default", "file": "mayavi-master/mayavi/preferences/preference_manager.py", "calls": [{"lineNum": 113, "tgt": "load", "colOffset": 16}], "context": {"arg_val": ["default/"], "arg_type": ["Str"], "obj_name": ["default"]}, "folder": "/home/andrea/github-projects-50/enthought-mayavi.zip", "type": "traits.api.Instance.node"}
--------------------
{"obj": "reader", "file": "mayavi-master/mayavi/sources/vtk_xml_file_reader.py", "calls": [{"lineNum": 304, "tgt": "number_of_output_ports", "colOffset": 20}], "context": {"arg_val": ["tvtk.XMLReader"], "arg_type": ["Attribute"], "obj_name": ["reader"]}, "folder": "/home/andrea/github-projects-50/enthought-mayavi.zip", "type": "traits.api.Instance"}
--------------------
{"obj": "light_manager", "file": "mayavi-master/tvtk/pyface/tvtk_scene.py", "calls": [{"lineNum": 822, "tgt": "LightManager", "colOffset": 29}], "context": {"arg_type": ["Attribute"], "keyword_val": ["True"], "obj_name": ["light_manager"], "keyword_type": ["Name"], "keyword_key": ["record"], "arg_val": ["light_manager.LightManager"]}, "folder": "/home/andrea/github-projects-50/enthought-mayavi.zip", "type": "traits.api.Instance"}
--------------------
{"obj": "picker", "file": "mayavi-master/tvtk/pyface/ui/qt4/scene.py", "calls": [{"lineNum": 341, "tgt": "Picker", "colOffset": 22}], "context": {"arg_val": ["picker.Picker"], "arg_type": ["Attribute"], "obj_name": ["picker"]}, "folder": "/home/andrea/github-projects-50/enthought-mayavi.zip", "type": "traits.api.Instance"}
--------------------
{"obj": "picker", "file": "mayavi-master/tvtk/pyface/ui/wx/scene.py", "calls": [{"lineNum": 305, "tgt": "Picker", "colOffset": 22}], "context": {"arg_val": ["picker.Picker"], "arg_type": ["Attribute"], "obj_name": ["picker"]}, "folder": "/home/andrea/github-projects-50/enthought-mayavi.zip", "type": "traits.api.Instance"}
--------------------
$$$$$$$$$$$$$$$$$$$$
{"obj": "x_mapper", "file": "chaco-master/chaco/barplot.py", "calls": [{"lineNum": 406, "tgt": "low_pos", "colOffset": 16}, {"lineNum": 407, "tgt": "high_pos", "colOffset": 16}], "context": {"obj_name": ["x_mapper"]}, "folder": "/home/andrea/github-projects-50/enthought-chaco.zip", "type": "traits.api.Property"}
--------------------
{"obj": "y_mapper", "file": "chaco-master/chaco/barplot.py", "calls": [{"lineNum": 414, "tgt": "low_pos", "colOffset": 16}, {"lineNum": 415, "tgt": "high_pos", "colOffset": 16}], "context": {"obj_name": ["y_mapper"]}, "folder": "/home/andrea/github-projects-50/enthought-chaco.zip", "type": "traits.api.Property"}
--------------------
{"obj": "palette", "file": "chaco-master/chaco/discrete_color_mapper.py", "calls": [{"lineNum": 80, "tgt": "clip", "colOffset": 18}], "context": {"keyword_type": ["Tuple", "Name"], "keyword_val": [["None", [3, 4]], "float"], "keyword_key": ["shape", "dtype"], "obj_name": ["palette"]}, "folder": "/home/andrea/github-projects-50/enthought-chaco.zip", "type": "traits.api.Array"}
--------------------
{"obj": "self.range", "file": "chaco-master/chaco/grid_mapper.py", "calls": [{"lineNum": 91, "tgt": "x_range", "colOffset": 51}, {"lineNum": 101, "tgt": "y_range", "colOffset": 51}, {"lineNum": 103, "tgt": "y_range", "colOffset": 48}, {"lineNum": 93, "tgt": "x_range", "colOffset": 48}], "context": {"obj_name": ["self.range"]}, "folder": "/home/andrea/github-projects-50/enthought-chaco.zip", "type": "traits.api.Instance."}
--------------------
{"obj": "plots", "file": "chaco-master/chaco/legend.py", "calls": [{"lineNum": 308, "tgt": "_render_icon", "colOffset": 24}], "context": {"obj_name": ["plots"]}, "folder": "/home/andrea/github-projects-50/enthought-chaco.zip", "type": "traits.api.Dict"}
--------------------
{"obj": "plot", "file": "chaco-master/examples/demo/tornado.py", "calls": [{"lineNum": 28, "tgt": "padding", "colOffset": 12}, {"lineNum": 43, "tgt": "underlays", "colOffset": 8}, {"lineNum": 44, "tgt": "underlays", "colOffset": 8}, {"lineNum": 45, "tgt": "underlays", "colOffset": 8}], "context": {"arg_val": ["Component"], "arg_type": ["Name"], "obj_name": ["plot"]}, "folder": "/home/andrea/github-projects-50/enthought-chaco.zip", "type": "traits.api.Instance"}
--------------------
$$$$$$$$$$$$$$$$$$$$
{"obj": "self.ax", "file": "RobotBrain-master/robot_brain/servers/sensor_server/io_controller.py", "calls": [{"lineNum": 90, "tgt": "set_xlim", "colOffset": 8}, {"lineNum": 91, "tgt": "set_ylim", "colOffset": 8}, {"lineNum": 92, "tgt": "set_zlim", "colOffset": 8}], "context": {"obj_name": ["self.ax"]}, "folder": "/home/andrea/github-projects-20/jminardi-RobotBrain.zip", "type": "traits.api.Any."}
--------------------
$$$$$$$$$$$$$$$$$$$$
{"obj": "html", "file": "rested-master/rested/rest_editor_model.py", "calls": [{"lineNum": 104, "tgt": "decode", "colOffset": 27}, {"lineNum": 107, "tgt": "decode", "colOffset": 27}], "context": {"obj_name": ["html"]}, "folder": "/home/andrea/github-projects-20/enthought-rested.zip", "type": "traits.api.Str"}
--------------------
$$$$$$$$$$$$$$$$$$$$
{"obj": "time", "file": "jigna-master/examples/custom_angular_application.py", "calls": [{"lineNum": 22, "tgt": "sleep", "colOffset": 12}], "context": {"obj_name": ["time"]}, "folder": "/home/andrea/github-projects-20/enthought-jigna.zip", "type": "traits.api.Int"}
--------------------
$$$$$$$$$$$$$$$$$$$$
{"obj": "df", "file": "scikit-spectra-master/skspec/chaco_interface/pandasplotsv2.py", "calls": [{"lineNum": 178, "tgt": "index", "colOffset": 29}], "context": {"arg_val": ["DataFrame"], "arg_type": ["Name"], "obj_name": ["df"]}, "folder": "/home/andrea/github-projects-20/hugadams-scikit-spectra.zip", "type": "traits.api.Instance"}
--------------------
$$$$$$$$$$$$$$$$$$$$
{"obj": "name_list", "file": "traitsui-master/examples/demo/Standard_Editors/EnumEditor_demo.py", "calls": [{"lineNum": 47, "tgt": "values", "colOffset": 40}], "context": {"arg_val": ["A-495", "A-498", "R-1226", "TS-17", "TS-18", "Foo", 12345, [11, 7], "None"], "arg_type": ["Str", "Str", "Str", "Str", "Str", "Str", "Num", "Tuple", "Name"], "obj_name": ["name_list"]}, "folder": "/home/andrea/github-projects-50/enthought-traitsui.zip", "type": "traits.api.Enum"}
--------------------
{"obj": "title", "file": "traitsui-master/examples/tutorials/tutor.py", "calls": [{"lineNum": 363, "tgt": "rfind", "colOffset": 20}], "context": {"obj_name": ["title"]}, "folder": "/home/andrea/github-projects-50/enthought-traitsui.zip", "type": "traits.api.Str.strip"}
--------------------
{"obj": "snippet", "file": "traitsui-master/examples/tutorials/tutor.py", "calls": [{"lineNum": 839, "tgt": "hidden", "colOffset": 62}, {"lineNum": 850, "tgt": "start_line", "colOffset": 12}, {"lineNum": 851, "tgt": "content", "colOffset": 49}, {"lineNum": 852, "tgt": "content", "colOffset": 27}, {"lineNum": 899, "tgt": "start_line", "colOffset": 29}, {"lineNum": 902, "tgt": "selected_line", "colOffset": 20}], "context": {"arg_val": ["CodeItem"], "arg_type": ["Name"], "obj_name": ["snippet"]}, "folder": "/home/andrea/github-projects-50/enthought-traitsui.zip", "type": "traits.api.Instance"}
--------------------
{"obj": "popup", "file": "traitsui-master/examples/tutorials/tutor.py", "calls": [{"lineNum": 887, "tgt": "edit_traits", "colOffset": 20}], "context": {"arg_val": ["popup"], "arg_type": ["Str"], "obj_name": ["popup"]}, "folder": "/home/andrea/github-projects-50/enthought-traitsui.zip", "type": "traits.api.Dict.get"}
--------------------
{"obj": "object", "file": "traitsui-master/traitsui/editor.py", "calls": [{"lineNum": 201, "tgt": "on_trait_change", "colOffset": 16}], "context": {"arg_val": ["HasTraits"], "arg_type": ["Name"], "obj_name": ["object"]}, "folder": "/home/andrea/github-projects-50/enthought-traitsui.zip", "type": "traits.api.Instance"}
--------------------
{"obj": "filter", "file": "traitsui-master/traitsui/editors/table_editor.py", "calls": [{"lineNum": 400, "tgt": "template", "colOffset": 19}, {"lineNum": 402, "tgt": "name", "colOffset": 52}], "context": {"arg_val": ["traitsui.table_filter.TableFilter"], "arg_type": ["Str"], "obj_name": ["filter"]}, "folder": "/home/andrea/github-projects-50/enthought-traitsui.zip", "type": "traits.api.Instance"}
--------------------
{"obj": "content", "file": "traitsui-master/traitsui/group.py", "calls": [{"lineNum": 230, "tgt": "append", "colOffset": 20}, {"lineNum": 233, "tgt": "append", "colOffset": 20}], "context": {"arg_val": ["ViewSubElement"], "arg_type": ["Name"], "obj_name": ["content"]}, "folder": "/home/andrea/github-projects-50/enthought-traitsui.zip", "type": "traits.api.List"}
--------------------
{"obj": "info", "file": "traitsui-master/traitsui/image/image.py", "calls": [{"lineNum": 723, "tgt": "image_names", "colOffset": 22}, {"lineNum": 724, "tgt": "image_names", "colOffset": 31}, {"lineNum": 748, "tgt": "image_volume_info_code", "colOffset": 37}, {"lineNum": 754, "tgt": "image_info_code", "colOffset": 31}, {"lineNum": 759, "tgt": "image_volume_info_text", "colOffset": 50}], "context": {"arg_val": ["ImageVolumeInfo"], "arg_type": ["Name"], "obj_name": ["info"]}, "folder": "/home/andrea/github-projects-50/enthought-traitsui.zip", "type": "traits.api.List"}
--------------------
{"obj": "klass", "file": "traitsui-master/traitsui/instance_choice.py", "calls": [{"lineNum": 206, "tgt": "__name__", "colOffset": 30}], "context": {"obj_name": ["klass"]}, "folder": "/home/andrea/github-projects-50/enthought-traitsui.zip", "type": "traits.api.Callable"}
--------------------
{"obj": "item", "file": "traitsui-master/traitsui/list_str_adapter.py", "calls": [{"lineNum": 303, "tgt": "__class__", "colOffset": 21}], "context": {"obj_name": ["item"]}, "folder": "/home/andrea/github-projects-50/enthought-traitsui.zip", "type": "traits.api.Any"}
--------------------
{"obj": "line", "file": "traitsui-master/traitsui/qt4/code_editor.py", "calls": [{"lineNum": 211, "tgt": "rstrip", "colOffset": 37}], "context": {"obj_name": ["line"]}, "folder": "/home/andrea/github-projects-50/enthought-traitsui.zip", "type": "traits.api.Event"}
--------------------
{"obj": "unused_items", "file": "traitsui-master/traitsui/qt4/set_editor.py", "calls": [{"lineNum": 264, "tgt": "sort", "colOffset": 8}], "context": {"obj_name": ["unused_items"]}, "folder": "/home/andrea/github-projects-50/enthought-traitsui.zip", "type": "traits.api.Property.values"}
--------------------
{"obj": "context", "file": "traitsui-master/traitsui/ui.py", "calls": [{"lineNum": 948, "tgt": "values", "colOffset": 23}], "context": {"obj_name": ["context"]}, "folder": "/home/andrea/github-projects-50/enthought-traitsui.zip", "type": "traits.api.DictStrAny"}
--------------------
{"obj": "parent", "file": "traitsui-master/traitsui/ui.py", "calls": [{"lineNum": 981, "tgt": "key_bindings", "colOffset": 15}, {"lineNum": 982, "tgt": "key_bindings", "colOffset": 16}], "context": {"arg_val": ["UI"], "arg_type": ["Str"], "obj_name": ["parent"]}, "folder": "/home/andrea/github-projects-50/enthought-traitsui.zip", "type": "traits.api.Instance"}
--------------------
{"obj": "object", "file": "traitsui-master/traitsui/ui.py", "calls": [{"lineNum": 441, "tgt": "base_trait", "colOffset": 27}], "context": {"obj_name": ["object"]}, "folder": "/home/andrea/github-projects-50/enthought-traitsui.zip", "type": "traits.api.DictStrAny.get"}
--------------------
{"obj": "value", "file": "traitsui-master/traitsui/ui.py", "calls": [{"lineNum": 804, "tgt": "trait_get", "colOffset": 23}], "context": {"arg_val": ["name"], "arg_type": ["Name"], "obj_name": ["value"]}, "folder": "/home/andrea/github-projects-50/enthought-traitsui.zip", "type": "traits.api.DictStrAny.get"}
--------------------
{"obj": "context2", "file": "traitsui-master/traitsui/ui.py", "calls": [{"lineNum": 805, "tgt": "update", "colOffset": 12}], "context": {"obj_name": ["context2"]}, "folder": "/home/andrea/github-projects-50/enthought-traitsui.zip", "type": "traits.api.DictStrAny.get.trait_get"}
--------------------
{"obj": "line", "file": "traitsui-master/traitsui/wx/code_editor.py", "calls": [{"lineNum": 247, "tgt": "rstrip", "colOffset": 37}], "context": {"obj_name": ["line"]}, "folder": "/home/andrea/github-projects-50/enthought-traitsui.zip", "type": "traits.api.Event"}
--------------------
{"obj": "control", "file": "traitsui-master/traitsui/wx/history_control.py", "calls": [{"lineNum": 82, "tgt": "GetParent", "colOffset": 17}, {"lineNum": 83, "tgt": "GetId", "colOffset": 35}, {"lineNum": 84, "tgt": "GetId", "colOffset": 35}, {"lineNum": 199, "tgt": "Thaw", "colOffset": 11}], "context": {"arg_val": ["wx.Window"], "arg_type": ["Attribute"], "obj_name": ["control"]}, "folder": "/home/andrea/github-projects-50/enthought-traitsui.zip", "type": "traits.api.Instance"}
--------------------
{"obj": "history", "file": "traitsui-master/traitsui/wx/history_control.py", "calls": [{"lineNum": 164, "tgt": "insert", "colOffset": 16}], "context": {"arg_val": ["Str"], "arg_type": ["Name"], "obj_name": ["history"]}, "folder": "/home/andrea/github-projects-50/enthought-traitsui.zip", "type": "traits.api.List"}
--------------------
{"obj": "history", "file": "traitsui-master/traitsui/wx/history_editor.py", "calls": [{"lineNum": 95, "tgt": "error", "colOffset": 16}], "context": {"obj_name": ["history"]}, "folder": "/home/andrea/github-projects-50/enthought-traitsui.zip", "type": "traits.api.Any"}
--------------------
{"obj": "bitmap", "file": "traitsui-master/traitsui/wx/image_slice.py", "calls": [{"lineNum": 223, "tgt": "GetWidth", "colOffset": 23}, {"lineNum": 224, "tgt": "GetHeight", "colOffset": 23}], "context": {"obj_name": ["bitmap"]}, "folder": "/home/andrea/github-projects-50/enthought-traitsui.zip", "type": "traits.api.Instance.create_image.ConvertToBitmap"}
--------------------
{"obj": "adapter", "file": "traitsui-master/traitsui/wx/list_str_editor.py", "calls": [{"lineNum": 913, "tgt": "insert", "colOffset": 16}, {"lineNum": 914, "tgt": "get_default_value", "colOffset": 32}, {"lineNum": 918, "tgt": "set_text", "colOffset": 12}], "context": {"arg_val": ["ListStrAdapter"], "arg_type": ["Name"], "obj_name": ["adapter"]}, "folder": "/home/andrea/github-projects-50/enthought-traitsui.zip", "type": "traits.api.Instance"}
--------------------
{"obj": "editor", "file": "traitsui-master/traitsui/wx/table_editor.py", "calls": [{"lineNum": 1549, "tgt": "in_column_mode", "colOffset": 53}], "context": {"arg_val": ["TableEditor"], "arg_type": ["Name"], "obj_name": ["editor"]}, "folder": "/home/andrea/github-projects-50/enthought-traitsui.zip", "type": "traits.api.Instance"}
--------------------
{"obj": "new_filter", "file": "traitsui-master/traitsui/wx/table_editor.py", "calls": [{"lineNum": 1393, "tgt": "template", "colOffset": 12}, {"lineNum": 1394, "tgt": "name", "colOffset": 12}, {"lineNum": 1394, "tgt": "_name", "colOffset": 34}], "context": {"obj_name": ["new_filter"]}, "folder": "/home/andrea/github-projects-50/enthought-traitsui.zip", "type": "traits.api.Instance.clone_traits"}
--------------------
{"obj": "toolbar", "file": "traitsui-master/traitsui/wx/table_editor.py", "calls": [{"lineNum": 1030, "tgt": "search", "colOffset": 16}, {"lineNum": 1030, "tgt": "add", "colOffset": 44}, {"lineNum": 1031, "tgt": "move_up", "colOffset": 16}, {"lineNum": 1032, "tgt": "move_down", "colOffset": 16}, {"lineNum": 1034, "tgt": "add", "colOffset": 16}, {"lineNum": 1035, "tgt": "search", "colOffset": 16}, {"lineNum": 1035, "tgt": "delete", "colOffset": 42}, {"lineNum": 1036, "tgt": "move_up", "colOffset": 16}, {"lineNum": 1036, "tgt": "move_down", "colOffset": 42}], "context": {"obj_name": ["toolbar"]}, "folder": "/home/andrea/github-projects-50/enthought-traitsui.zip", "type": "traits.api.Any"}
--------------------
{"obj": "editor", "file": "traitsui-master/traitsui/wx/table_model.py", "calls": [{"lineNum": 794, "tgt": "value", "colOffset": 12}], "context": {"arg_val": ["Editor"], "arg_type": ["Name"], "obj_name": ["editor"]}, "folder": "/home/andrea/github-projects-50/enthought-traitsui.zip", "type": "traits.api.Instance"}
--------------------
{"obj": "row", "file": "traitsui-master/traitsui/wx/table_model.py", "calls": [{"lineNum": 140, "tgt": "on_trait_change", "colOffset": 16}], "context": {"obj_name": ["row"]}, "folder": "/home/andrea/github-projects-50/enthought-traitsui.zip", "type": "traits.api.Instance.create_new_row"}
--------------------
{"obj": "adapter", "file": "traitsui-master/traitsui/wx/tabular_editor.py", "calls": [{"lineNum": 885, "tgt": "object", "colOffset": 8}, {"lineNum": 885, "tgt": "name", "colOffset": 24}, {"lineNum": 886, "tgt": "get_alignment", "colOffset": 24}, {"lineNum": 887, "tgt": "get_width", "colOffset": 24}, {"lineNum": 888, "tgt": "label_map", "colOffset": 35}], "context": {"arg_val": ["TabularAdapter"], "arg_type": ["Name"], "obj_name": ["adapter"]}, "folder": "/home/andrea/github-projects-50/enthought-traitsui.zip", "type": "traits.api.Instance"}
--------------------
{"obj": "sizer", "file": "traitsui-master/traitsui/wx/themed_vertical_notebook.py", "calls": [{"lineNum": 431, "tgt": "CalcInit", "colOffset": 33}, {"lineNum": 432, "tgt": "CalcMin", "colOffset": 36}], "context": {"obj_name": ["sizer"]}, "folder": "/home/andrea/github-projects-50/enthought-traitsui.zip", "type": "traits.api.Instance.GetSizer"}
--------------------
$$$$$$$$$$$$$$$$$$$$
{"obj": "title", "file": "traits-master/examples/tutorials/tutor.py", "calls": [{"lineNum": 317, "tgt": "rfind", "colOffset": 18}], "context": {"obj_name": ["title"]}, "folder": "/home/andrea/github-projects-50/enthought-traits.zip", "type": "traits.api.Str.strip"}
--------------------
{"obj": "snippet", "file": "traits-master/examples/tutorials/tutor.py", "calls": [{"lineNum": 738, "tgt": "hidden", "colOffset": 61}, {"lineNum": 747, "tgt": "start_line", "colOffset": 12}, {"lineNum": 748, "tgt": "content", "colOffset": 43}, {"lineNum": 749, "tgt": "content", "colOffset": 27}, {"lineNum": 796, "tgt": "start_line", "colOffset": 29}, {"lineNum": 799, "tgt": "selected_line", "colOffset": 20}], "context": {"arg_val": ["CodeItem"], "arg_type": ["Name"], "obj_name": ["snippet"]}, "folder": "/home/andrea/github-projects-50/enthought-traits.zip", "type": "traits.api.Instance"}
--------------------
{"obj": "popup", "file": "traits-master/examples/tutorials/tutor.py", "calls": [{"lineNum": 784, "tgt": "edit_traits", "colOffset": 20}], "context": {"arg_val": ["popup"], "arg_type": ["Str"], "obj_name": ["popup"]}, "folder": "/home/andrea/github-projects-50/enthought-traits.zip", "type": "traits.api.Dict.get"}
--------------------
{"obj": "adaptation_manager", "file": "traits-master/traits/adaptation/tests/benchmark.py", "calls": [{"lineNum": 75, "tgt": "adapt", "colOffset": 4}, {"lineNum": 128, "tgt": "adapt", "colOffset": 4}], "context": {"obj_name": ["adaptation_manager"]}, "folder": "/home/andrea/github-projects-50/enthought-traits.zip", "type": "traits.adaptation.adaptation_manager.AdaptationManager"}
--------------------
{"obj": "bar.foo", "file": "traits-master/traits/adaptation/tests/test_adaptation_manager.py", "calls": [{"lineNum": 583, "tgt": "adaptee", "colOffset": 25}], "context": {"arg_val": [["Baz"], "IFoo"], "arg_type": ["Name", "Name"], "obj_name": ["bar.foo"]}, "folder": "/home/andrea/github-projects-50/enthought-traits.zip", "type": "traits.adaptation.api.adapt"}
--------------------
{"obj": "offer", "file": "traits-master/traits/adaptation/tests/test_adaptation_offer.py", "calls": [{"lineNum": 27, "tgt": "factory", "colOffset": 18}, {"lineNum": 37, "tgt": "from_protocol", "colOffset": 24}, {"lineNum": 45, "tgt": "to_protocol", "colOffset": 22}], "context": {"obj_name": ["offer"]}, "folder": "/home/andrea/github-projects-50/enthought-traits.zip", "type": "traits.adaptation.adaptation_offer.AdaptationOffer"}
--------------------
{"obj": "factory", "file": "traits-master/traits/adaptation/tests/test_cached_adapter_factory.py", "calls": [{"lineNum": 137, "tgt": "is_empty", "colOffset": 24}], "context": {"keyword_type": ["Attribute"], "keyword_val": ["ex.EditorToIPrintable"], "keyword_key": ["factory"], "obj_name": ["factory"]}, "folder": "/home/andrea/github-projects-50/enthought-traits.zip", "type": "traits.adaptation.cached_adapter_factory.CachedAdapterFactory"}
--------------------
{"obj": "factory", "file": "traits-master/traits/adaptation/tests/test_cached_adapter_factory.py", "calls": [{"lineNum": 82, "tgt": "is_empty", "colOffset": 24}], "context": {"keyword_type": ["Attribute"], "keyword_val": ["ex.EditorToIPrintable"], "keyword_key": ["factory"], "obj_name": ["factory"]}, "folder": "/home/andrea/github-projects-50/enthought-traits.zip", "type": "traits.adaptation.cached_adapter_factory.CachedAdapterFactory"}
--------------------
{"obj": "factory", "file": "traits-master/traits/adaptation/tests/test_cached_adapter_factory.py", "calls": [{"lineNum": 103, "tgt": "factory", "colOffset": 16}], "context": {"obj_name": ["factory"]}, "folder": "/home/andrea/github-projects-50/enthought-traits.zip", "type": "traits.adaptation.cached_adapter_factory.CachedAdapterFactory"}
--------------------
{"obj": "adaptation_manager", "file": "traits-master/traits/adaptation/tests/test_global_adaptation_manager.py", "calls": [{"lineNum": 33, "tgt": "register_factory", "colOffset": 8}, {"lineNum": 46, "tgt": "adapt", "colOffset": 12}], "context": {"obj_name": ["adaptation_manager"]}, "folder": "/home/andrea/github-projects-50/enthought-traits.zip", "type": "traits.adaptation.api.get_global_adaptation_manager"}
--------------------
{"obj": "adaptation_manager", "file": "traits-master/traits/adaptation/tests/test_global_adaptation_manager.py", "calls": [{"lineNum": 53, "tgt": "register_factory", "colOffset": 8}], "context": {"obj_name": ["adaptation_manager"]}, "folder": "/home/andrea/github-projects-50/enthought-traits.zip", "type": "traits.adaptation.api.AdaptationManager"}
--------------------
{"obj": "global_adaptation_manager", "file": "traits-master/traits/adaptation/tests/test_global_adaptation_manager.py", "calls": [{"lineNum": 65, "tgt": "adapt", "colOffset": 18}], "context": {"obj_name": ["global_adaptation_manager"]}, "folder": "/home/andrea/github-projects-50/enthought-traits.zip", "type": "traits.adaptation.api.get_global_adaptation_manager"}
--------------------
{"obj": "trait", "file": "traits-master/traits/has_traits.py", "calls": [{"lineNum": 147, "tgt": "clone", "colOffset": 4}, {"lineNum": 150, "tgt": "__dict__", "colOffset": 8}, {"lineNum": 153, "tgt": "__dict__", "colOffset": 8}], "context": {"obj_name": ["trait"]}, "folder": "/home/andrea/github-projects-50/enthought-traits.zip", "type": "traits.CTrait"}
--------------------
{"obj": "trait", "file": "traits-master/traits/trait_handlers.py", "calls": [{"lineNum": 578, "tgt": "property", "colOffset": 12}], "context": {"arg_val": [4], "arg_type": ["Num"], "obj_name": ["trait"]}, "folder": "/home/andrea/github-projects-50/enthought-traits.zip", "type": "traits.CTrait"}
--------------------
{"obj": "trait", "file": "traits-master/traits/trait_handlers.py", "calls": [{"lineNum": 601, "tgt": "set_validate", "colOffset": 16}, {"lineNum": 605, "tgt": "post_setattr", "colOffset": 16}, {"lineNum": 606, "tgt": "is_mapped", "colOffset": 16}, {"lineNum": 612, "tgt": "rich_comparison", "colOffset": 16}, {"lineNum": 616, "tgt": "comparison_mode", "colOffset": 16}], "context": {"arg_val": [["getattr"]], "arg_type": ["Name"], "obj_name": ["trait"]}, "folder": "/home/andrea/github-projects-50/enthought-traits.zip", "type": "traits.CTrait"}
--------------------
{"obj": "self.value_trait", "file": "traits-master/traits/trait_types.py", "calls": [{"lineNum": 2525, "tgt": "handler", "colOffset": 18}], "context": {"arg_val": ["value_trait"], "arg_type": ["Name"], "obj_name": ["self.value_trait"]}, "folder": "/home/andrea/github-projects-50/enthought-traits.zip", "type": "traits.trait_from"}
--------------------
{"obj": "self.item_trait", "file": "traits-master/traits/trait_types.py", "calls": [{"lineNum": 2237, "tgt": "instance_handler", "colOffset": 11}], "context": {"arg_val": ["trait"], "arg_type": ["Name"], "obj_name": ["self.item_trait"]}, "folder": "/home/andrea/github-projects-50/enthought-traits.zip", "type": "traits.trait_from"}
--------------------
{"obj": "self.trait", "file": "traits-master/traits/trait_types.py", "calls": [{"lineNum": 3103, "tgt": "get_validate", "colOffset": 25}], "context": {"arg_val": ["trait"], "arg_type": ["Name"], "obj_name": ["self.trait"]}, "folder": "/home/andrea/github-projects-50/enthought-traits.zip", "type": "traits.trait_from"}
--------------------
{"obj": "trait", "file": "traits-master/traits/trait_value.py", "calls": [{"lineNum": 56, "tgt": "clone", "colOffset": 12}], "context": {"obj_name": ["trait"]}, "folder": "/home/andrea/github-projects-50/enthought-traits.zip", "type": "traits.CTrait"}
--------------------
{"obj": "trait", "file": "traits-master/traits/trait_value.py", "calls": [{"lineNum": 160, "tgt": "clone", "colOffset": 12}, {"lineNum": 162, "tgt": "__dict__", "colOffset": 16}, {"lineNum": 164, "tgt": "default_value", "colOffset": 12}], "context": {"obj_name": ["trait"]}, "folder": "/home/andrea/github-projects-50/enthought-traits.zip", "type": "traits.CTrait"}
--------------------
{"obj": "trait", "file": "traits-master/traits/trait_value.py", "calls": [{"lineNum": 105, "tgt": "property", "colOffset": 8}, {"lineNum": 109, "tgt": "value_allowed", "colOffset": 8}, {"lineNum": 110, "tgt": "value_property", "colOffset": 8}, {"lineNum": 111, "tgt": "__dict__", "colOffset": 8}], "context": {"arg_val": [4], "arg_type": ["Num"], "obj_name": ["trait"]}, "folder": "/home/andrea/github-projects-50/enthought-traits.zip", "type": "traits.CTrait"}
--------------------
{"obj": "container", "file": "traits-master/traits/util/tests/test_record_containers.py", "calls": [{"lineNum": 62, "tgt": "_record_containers", "colOffset": 29}, {"lineNum": 63, "tgt": "_record_containers", "colOffset": 25}, {"lineNum": 69, "tgt": "save_to_directory", "colOffset": 8}, {"lineNum": 70, "tgt": "_record_containers", "colOffset": 20}], "context": {"obj_name": ["container"]}, "folder": "/home/andrea/github-projects-50/enthought-traits.zip", "type": "traits.util.event_tracer.MultiThreadRecordContainer"}
--------------------
{"obj": "collector", "file": "traits-master/traits/util/tests/test_record_containers.py", "calls": [{"lineNum": 52, "tgt": "record", "colOffset": 12}], "context": {"arg_val": ["thread"], "arg_type": ["Name"], "obj_name": ["collector"]}, "folder": "/home/andrea/github-projects-50/enthought-traits.zip", "type": "traits.util.event_tracer.MultiThreadRecordContainer.get_change_event_collector"}
--------------------
{"obj": "container", "file": "traits-master/traits/util/tests/test_record_containers.py", "calls": [{"lineNum": 36, "tgt": "record", "colOffset": 12}, {"lineNum": 37, "tgt": "_records", "colOffset": 29}, {"lineNum": 40, "tgt": "save_to_file", "colOffset": 8}], "context": {"obj_name": ["container"]}, "folder": "/home/andrea/github-projects-50/enthought-traits.zip", "type": "traits.util.event_tracer.RecordContainer"}
--------------------
{"obj": "container", "file": "traits-master/traits/util/tests/test_record_events.py", "calls": [{"lineNum": 61, "tgt": "save_to_file", "colOffset": 8}], "context": {"obj_name": ["container"]}, "folder": "/home/andrea/github-projects-50/enthought-traits.zip", "type": "traits.util.event_tracer.RecordContainer"}
--------------------
{"obj": "recorder", "file": "traits-master/traits/util/tests/test_record_events.py", "calls": [{"lineNum": 53, "tgt": "pre_tracer", "colOffset": 23}, {"lineNum": 54, "tgt": "post_tracer", "colOffset": 24}], "context": {"keyword_type": ["Name"], "keyword_val": [["traits.util.event_tracer.RecordContainer"]], "keyword_key": ["container"], "obj_name": ["recorder"]}, "folder": "/home/andrea/github-projects-50/enthought-traits.zip", "type": "traits.util.event_tracer.ChangeEventRecorder"}
--------------------
{"obj": "container", "file": "traits-master/traits/util/tests/test_record_events.py", "calls": [{"lineNum": 87, "tgt": "_record_containers", "colOffset": 29}, {"lineNum": 90, "tgt": "save_to_directory", "colOffset": 8}, {"lineNum": 91, "tgt": "_record_containers", "colOffset": 20}], "context": {"obj_name": ["container"]}, "folder": "/home/andrea/github-projects-50/enthought-traits.zip", "type": "traits.util.event_tracer.MultiThreadRecordContainer"}
--------------------
{"obj": "recorder", "file": "traits-master/traits/util/tests/test_record_events.py", "calls": [{"lineNum": 77, "tgt": "pre_tracer", "colOffset": 23}, {"lineNum": 78, "tgt": "post_tracer", "colOffset": 24}], "context": {"keyword_type": ["Name"], "keyword_val": [["traits.util.event_tracer.MultiThreadRecordContainer"]], "keyword_key": ["container"], "obj_name": ["recorder"]}, "folder": "/home/andrea/github-projects-50/enthought-traits.zip", "type": "traits.util.event_tracer.MultiThreadChangeEventRecorder"}
--------------------
$$$$$$$$$$$$$$$$$$$$
{"obj": "region", "file": "pyface-master/pyface/dock/dock_sizer.py", "calls": [{"lineNum": 3714, "tgt": "contents", "colOffset": 24}, {"lineNum": 3729, "tgt": "active", "colOffset": 16}, {"lineNum": 3729, "tgt": "contents", "colOffset": 32}, {"lineNum": 3731, "tgt": "parent", "colOffset": 16}], "context": {"arg_val": ["DockRegion"], "arg_type": ["Name"], "obj_name": ["region"]}, "folder": "/home/andrea/github-projects-20/enthought-pyface.zip", "type": "traits.api.Instance"}
--------------------
{"obj": "control", "file": "pyface-master/pyface/dock/dock_sizer.py", "calls": [{"lineNum": 3721, "tgt": "is_row", "colOffset": 44}, {"lineNum": 3722, "tgt": "contents", "colOffset": 46}], "context": {"arg_val": ["DockItem"], "arg_type": ["Name"], "obj_name": ["control"]}, "folder": "/home/andrea/github-projects-20/enthought-pyface.zip", "type": "traits.api.Instance"}
--------------------
{"obj": "the_control", "file": "pyface-master/pyface/dock/dock_sizer.py", "calls": [{"lineNum": 3754, "tgt": "parent", "colOffset": 35}], "context": {"obj_name": ["the_control"]}, "folder": "/home/andrea/github-projects-20/enthought-pyface.zip", "type": "traits.api.Instance."}
--------------------
{"obj": "control", "file": "pyface-master/pyface/dock/dock_sizer.py", "calls": [{"lineNum": 2107, "tgt": "resizable", "colOffset": 19}], "context": {"obj_name": ["control"]}, "folder": "/home/andrea/github-projects-20/enthought-pyface.zip", "type": "traits.api.Property"}
--------------------
{"obj": "window", "file": "pyface-master/pyface/dock/dock_sizer.py", "calls": [{"lineNum": 1789, "tgt": "Layout", "colOffset": 16}, {"lineNum": 1790, "tgt": "Refresh", "colOffset": 16}], "context": {"obj_name": ["window"]}, "folder": "/home/andrea/github-projects-20/enthought-pyface.zip", "type": "traits.api.Instance.GetParent"}
--------------------
{"obj": "object", "file": "pyface-master/pyface/dock/dock_window.py", "calls": [{"lineNum": 616, "tgt": "dockable", "colOffset": 41}, {"lineNum": 619, "tgt": "dockable", "colOffset": 38}, {"lineNum": 620, "tgt": "dockable", "colOffset": 33}, {"lineNum": 628, "tgt": "parent", "colOffset": 48}], "context": {"arg_val": ["event.GetX", "event.GetY", "True"], "arg_type": ["Call", "Call", "Name"], "obj_name": ["object"]}, "folder": "/home/andrea/github-projects-20/enthought-pyface.zip", "type": "traits.api.Property.ObjectAt"}
--------------------
{"obj": "popup_menu", "file": "pyface-master/pyface/dock/dock_window.py", "calls": [{"lineNum": 664, "tgt": "create_menu", "colOffset": 36}], "context": {"arg_val": [["traits.api.Property.ObjectAt"], "event"], "arg_type": ["Name", "Name"], "obj_name": ["popup_menu"]}, "folder": "/home/andrea/github-projects-20/enthought-pyface.zip", "type": "traits.api.Property.ObjectAt.dockable.dockable_menu"}
--------------------
{"obj": "group", "file": "pyface-master/pyface/dock/dock_window.py", "calls": [{"lineNum": 631, "tgt": "parent", "colOffset": 32}], "context": {"obj_name": ["group"]}, "folder": "/home/andrea/github-projects-20/enthought-pyface.zip", "type": "traits.api.Property.ObjectAt."}
--------------------
{"obj": "object", "file": "pyface-master/pyface/dock/dock_window.py", "calls": [{"lineNum": 540, "tgt": "mouse_down", "colOffset": 16}], "context": {"arg_val": ["event.GetX", "event.GetY"], "arg_type": ["Call", "Call"], "obj_name": ["object"]}, "folder": "/home/andrea/github-projects-20/enthought-pyface.zip", "type": "traits.api.Property.ObjectAt"}
--------------------
{"obj": "object", "file": "pyface-master/pyface/dock/dock_window.py", "calls": [{"lineNum": 582, "tgt": "dockable", "colOffset": 27}, {"lineNum": 585, "tgt": "style", "colOffset": 21}, {"lineNum": 590, "tgt": "mouse_down", "colOffset": 16}], "context": {"arg_val": ["event.GetX", "event.GetY", "True"], "arg_type": ["Call", "Call", "Name"], "obj_name": ["object"]}, "folder": "/home/andrea/github-projects-20/enthought-pyface.zip", "type": "traits.api.Property.ObjectAt"}
--------------------
{"obj": "control", "file": "pyface-master/pyface/dock/dock_window_shell.py", "calls": [{"lineNum": 193, "tgt": "close", "colOffset": 12}], "context": {"arg_val": ["wx.Frame"], "arg_type": ["Attribute"], "obj_name": ["control"]}, "folder": "/home/andrea/github-projects-20/enthought-pyface.zip", "type": "traits.api.Instance"}
--------------------
{"obj": "parent", "file": "pyface-master/pyface/dock/feature_bar.py", "calls": [{"lineNum": 138, "tgt": "GetScreenPosition", "colOffset": 17}], "context": {"arg_val": ["wx.Window"], "arg_type": ["Attribute"], "obj_name": ["parent"]}, "folder": "/home/andrea/github-projects-20/enthought-pyface.zip", "type": "traits.api.Instance"}
--------------------
{"obj": "dock_control", "file": "pyface-master/pyface/dock/feature_bar.py", "calls": [{"lineNum": 121, "tgt": "active_features", "colOffset": 23}], "context": {"arg_val": ["DockControl"], "arg_type": ["Name"], "obj_name": ["dock_control"]}, "folder": "/home/andrea/github-projects-20/enthought-pyface.zip", "type": "traits.api.Instance"}
--------------------
{"obj": "self._img", "file": "pyface-master/pyface/image_button.py", "calls": [{"lineNum": 147, "tgt": "ConvertToBitmap", "colOffset": 26}], "context": {"obj_name": ["self._img"]}, "folder": "/home/andrea/github-projects-20/enthought-pyface.zip", "type": "traits.api.Instance.create_image"}
--------------------
{"obj": "event", "file": "pyface-master/pyface/tasks/i_editor.py", "calls": [{"lineNum": 88, "tgt": "veto", "colOffset": 19}], "context": {"obj_name": ["event"]}, "folder": "/home/andrea/github-projects-20/enthought-pyface.zip", "type": "traits.api.Vetoable"}
--------------------
{"obj": "event", "file": "pyface-master/pyface/tasks/task_window.py", "calls": [{"lineNum": 95, "tgt": "veto", "colOffset": 15}], "context": {"obj_name": ["event"]}, "folder": "/home/andrea/github-projects-20/enthought-pyface.zip", "type": "traits.api.Vetoable"}
--------------------
{"obj": "event", "file": "pyface-master/pyface/tasks/task_window.py", "calls": [{"lineNum": 117, "tgt": "veto", "colOffset": 19}], "context": {"obj_name": ["event"]}, "folder": "/home/andrea/github-projects-20/enthought-pyface.zip", "type": "traits.api.Vetoable"}
--------------------
{"obj": "icon", "file": "pyface-master/pyface/ui/qt4/application_window.py", "calls": [{"lineNum": 103, "tgt": "create_icon", "colOffset": 39}], "context": {"arg_val": ["ImageResource"], "arg_type": ["Name"], "obj_name": ["icon"]}, "folder": "/home/andrea/github-projects-20/enthought-pyface.zip", "type": "traits.api.Instance"}
--------------------
{"obj": "tool_bar_manager", "file": "pyface-master/pyface/ui/qt4/application_window.py", "calls": [{"lineNum": 84, "tgt": "create_tool_bar", "colOffset": 23}, {"lineNum": 90, "tgt": "name", "colOffset": 39}], "context": {"arg_val": ["ToolBarManager"], "arg_type": ["Name"], "obj_name": ["tool_bar_manager"]}, "folder": "/home/andrea/github-projects-20/enthought-pyface.zip", "type": "traits.api.Instance"}
--------------------
{"obj": "tool_bar", "file": "pyface-master/pyface/ui/qt4/application_window.py", "calls": [{"lineNum": 86, "tgt": "show", "colOffset": 12}, {"lineNum": 89, "tgt": "objectName", "colOffset": 19}, {"lineNum": 90, "tgt": "setObjectName", "colOffset": 16}], "context": {"arg_val": ["parent"], "arg_type": ["Name"], "obj_name": ["tool_bar"]}, "folder": "/home/andrea/github-projects-20/enthought-pyface.zip", "type": "traits.api.Instance.create_tool_bar"}
--------------------
{"obj": "collector", "file": "pyface-master/pyface/ui/qt4/util/gui_test_assistant.py", "calls": [{"lineNum": 147, "tgt": "start_collecting", "colOffset": 8}, {"lineNum": 154, "tgt": "event_count", "colOffset": 37}, {"lineNum": 162, "tgt": "stop_collecting", "colOffset": 12}], "context": {"keyword_type": ["Name", "Name"], "keyword_val": ["obj", "trait"], "keyword_key": ["obj", "trait"], "obj_name": ["collector"]}, "folder": "/home/andrea/github-projects-20/enthought-pyface.zip", "type": "traits.testing.unittest_tools._TraitsChangeCollector"}
--------------------
{"obj": "icon", "file": "pyface-master/pyface/ui/wx/application_window.py", "calls": [{"lineNum": 122, "tgt": "create_icon", "colOffset": 33}], "context": {"arg_val": ["ImageResource"], "arg_type": ["Name"], "obj_name": ["icon"]}, "folder": "/home/andrea/github-projects-20/enthought-pyface.zip", "type": "traits.api.Instance"}
--------------------
{"obj": "tool_bar_manager", "file": "pyface-master/pyface/ui/wx/application_window.py", "calls": [{"lineNum": 107, "tgt": "create_tool_bar", "colOffset": 31}, {"lineNum": 109, "tgt": "name", "colOffset": 34}], "context": {"arg_val": ["ToolBarManager"], "arg_type": ["Name"], "obj_name": ["tool_bar_manager"]}, "folder": "/home/andrea/github-projects-20/enthought-pyface.zip", "type": "traits.api.Instance"}
--------------------
{"obj": "event", "file": "pyface-master/pyface/workbench/i_editor.py", "calls": [{"lineNum": 123, "tgt": "veto", "colOffset": 19}], "context": {"obj_name": ["event"]}, "folder": "/home/andrea/github-projects-20/enthought-pyface.zip", "type": "traits.api.Vetoable"}
--------------------
{"obj": "event", "file": "pyface-master/pyface/workbench/workbench.py", "calls": [{"lineNum": 153, "tgt": "veto", "colOffset": 15}], "context": {"obj_name": ["event"]}, "folder": "/home/andrea/github-projects-20/enthought-pyface.zip", "type": "traits.api.Vetoable"}
--------------------
{"obj": "window_event", "file": "pyface-master/pyface/workbench/workbench.py", "calls": [{"lineNum": 398, "tgt": "veto", "colOffset": 23}], "context": {"obj_name": ["window_event"]}, "folder": "/home/andrea/github-projects-20/enthought-pyface.zip", "type": "traits.api.Vetoable"}
--------------------
{"obj": "event", "file": "pyface-master/pyface/workbench/workbench_window.py", "calls": [{"lineNum": 178, "tgt": "veto", "colOffset": 19}], "context": {"obj_name": ["event"]}, "folder": "/home/andrea/github-projects-20/enthought-pyface.zip", "type": "traits.api.Vetoable"}
--------------------
{"obj": "event", "file": "pyface-master/pyface/workbench/workbench_window.py", "calls": [{"lineNum": 142, "tgt": "veto", "colOffset": 15}], "context": {"obj_name": ["event"]}, "folder": "/home/andrea/github-projects-20/enthought-pyface.zip", "type": "traits.api.Vetoable"}
--------------------
$$$$$$$$$$$$$$$$$$$$
{"obj": "terms", "file": "scimath-master/scimath/physical_quantities/dimensions.py", "calls": [{"lineNum": 76, "tgt": "pop", "colOffset": 22}, {"lineNum": 78, "tgt": "pop", "colOffset": 20}, {"lineNum": 79, "tgt": "pop", "colOffset": 34}], "context": {"arg_val": ["*"], "arg_type": ["Str"], "obj_name": ["terms"]}, "folder": "/home/andrea/github-projects-20/enthought-scimath.zip", "type": "traits.api.Property.split"}
--------------------
{"obj": "data", "file": "scimath-master/scimath/units/quantity.py", "calls": [{"lineNum": 357, "tgt": "data", "colOffset": 28}, {"lineNum": 358, "tgt": "data", "colOffset": 24}, {"lineNum": 359, "tgt": "data", "colOffset": 33}, {"lineNum": 361, "tgt": "data", "colOffset": 48}, {"lineNum": 361, "tgt": "units", "colOffset": 59}], "context": {"obj_name": ["data"]}, "folder": "/home/andrea/github-projects-20/enthought-scimath.zip", "type": "traits.api.Any"}
--------------------
{"obj": "handler", "file": "scimath-master/scimath/units/ui/meta_quantity_view.py", "calls": [{"lineNum": 21, "tgt": "known_names", "colOffset": 8}, {"lineNum": 22, "tgt": "any_name", "colOffset": 8}, {"lineNum": 24, "tgt": "any_name", "colOffset": 11}, {"lineNum": 25, "tgt": "validate_name", "colOffset": 23}], "context": {"arg_val": ["handler", "MetaQuantityViewHandler"], "arg_type": ["Str", "Call"], "obj_name": ["handler"]}, "folder": "/home/andrea/github-projects-20/enthought-scimath.zip", "type": "traits.setdefault"}
--------------------
$$$$$$$$$$$$$$$$$$$$
{"obj": "a", "file": "scpy2-master/traits/traitsui_component.py", "calls": [{"lineNum": 37, "tgt": "x", "colOffset": 15}, {"lineNum": 37, "tgt": "y", "colOffset": 28}, {"lineNum": 39, "tgt": "x", "colOffset": 15}, {"lineNum": 39, "tgt": "y", "colOffset": 28}], "context": {"arg_val": ["Point"], "arg_type": ["Name"], "obj_name": ["a"]}, "folder": "/home/andrea/github-projects-20/ruoyu0088-scpy2.zip", "type": "traits.api.Instance"}
--------------------
{"obj": "a", "file": "scpy2-master/traits/traitsui_component_multi_view.py", "calls": [{"lineNum": 39, "tgt": "x", "colOffset": 15}, {"lineNum": 39, "tgt": "y", "colOffset": 28}, {"lineNum": 41, "tgt": "x", "colOffset": 15}, {"lineNum": 41, "tgt": "y", "colOffset": 28}], "context": {"arg_val": ["Point"], "arg_type": ["Name"], "obj_name": ["a"]}, "folder": "/home/andrea/github-projects-20/ruoyu0088-scpy2.zip", "type": "traits.api.Instance"}
--------------------
$$$$$$$$$$$$$$$$$$$$
{"obj": "cmda", "file": "astropysics-master/astropysics/gui/spectarget.py", "calls": [{"lineNum": 205, "tgt": "offsetbands", "colOffset": 13}], "context": {"arg_val": ["CMDAnalyzer"], "arg_type": ["Name"], "obj_name": ["cmda"]}, "folder": "/home/andrea/github-projects-20/eteq-astropysics.zip", "type": "traits.api.Instance"}
--------------------
$$$$$$$$$$$$$$$$$$$$
{"obj": "fid_fname", "file": "mne-python-master/mne/gui/_fiducials_gui.py", "calls": [{"lineNum": 150, "tgt": "format", "colOffset": 16}, {"lineNum": 176, "tgt": "format", "colOffset": 15}], "context": {"arg_val": ["fid", "fname"], "arg_type": ["Str", "Str"], "obj_name": ["fid_fname"]}, "folder": "/home/andrea/github-projects-50/mne-tools-mne-python.zip", "type": "traits.api.DelegatesTo"}
--------------------
{"obj": "self.glyph", "file": "mne-python-master/mne/gui/_viewer.py", "calls": [{"lineNum": 257, "tgt": "glyph", "colOffset": 39}, {"lineNum": 258, "tgt": "actor", "colOffset": 36}, {"lineNum": 261, "tgt": "actor", "colOffset": 35}], "context": {"obj_name": ["self.glyph"]}, "folder": "/home/andrea/github-projects-50/mne-tools-mne-python.zip", "type": "traits.api.Instance."}
--------------------
{"obj": "trans", "file": "mne-python-master/mne/gui/_viewer.py", "calls": [{"lineNum": 164, "tgt": "shape", "colOffset": 17}, {"lineNum": 165, "tgt": "T", "colOffset": 42}, {"lineNum": 166, "tgt": "shape", "colOffset": 17}], "context": {"obj_name": ["trans"]}, "folder": "/home/andrea/github-projects-50/mne-tools-mne-python.zip", "type": "traits.api.Array"}
--------------------
$$$$$$$$$$$$$$$$$$$$
{"obj": "self", "file": "enaml-master/enaml/core/declarative.py", "calls": [{"lineNum": 317, "tgt": "operators", "colOffset": 8}, {"lineNum": 484, "tgt": "_trait", "colOffset": 15}, {"lineNum": 488, "tgt": "_expressions", "colOffset": 14}, {"lineNum": 512, "tgt": "_trait", "colOffset": 15}, {"lineNum": 516, "tgt": "_listeners", "colOffset": 14}, {"lineNum": 519, "tgt": "add_notifier", "colOffset": 12}, {"lineNum": 538, "tgt": "_expressions", "colOffset": 14}, {"lineNum": 552, "tgt": "eval_expression", "colOffset": 16}, {"lineNum": 571, "tgt": "_listeners", "colOffset": 14}], "context": {"obj_name": ["self"]}, "folder": "/home/andrea/github-projects-50/enthought-enaml.zip", "type": "traits.api.Property"}
--------------------
{"obj": "curr", "file": "enaml-master/enaml/core/declarative.py", "calls": [{"lineNum": 513, "tgt": "trait_type", "colOffset": 27}], "context": {"arg_val": ["name", 2], "arg_type": ["Name", "Num"], "obj_name": ["curr"]}, "folder": "/home/andrea/github-projects-50/enthought-enaml.zip", "type": "traits.api.Property._trait"}
--------------------
{"obj": "curr", "file": "enaml-master/enaml/core/declarative.py", "calls": [{"lineNum": 485, "tgt": "trait_type", "colOffset": 27}], "context": {"arg_val": ["name", 2], "arg_type": ["Name", "Num"], "obj_name": ["curr"]}, "folder": "/home/andrea/github-projects-50/enthought-enaml.zip", "type": "traits.api.Property._trait"}
--------------------
{"obj": "trait", "file": "enaml-master/enaml/core/declarative.py", "calls": [{"lineNum": 167, "tgt": "property", "colOffset": 4}, {"lineNum": 169, "tgt": "handler", "colOffset": 4}, {"lineNum": 171, "tgt": "_shadowed", "colOffset": 4}, {"lineNum": 172, "tgt": "_notifiers", "colOffset": 4}], "context": {"arg_val": [4], "arg_type": ["Num"], "obj_name": ["trait"]}, "folder": "/home/andrea/github-projects-50/enthought-enaml.zip", "type": "traits.api.CTrait"}
--------------------
{"obj": "items", "file": "enaml-master/enaml/core/looper.py", "calls": [{"lineNum": 132, "tgt": "append", "colOffset": 16}], "context": {"keyword_type": ["Str"], "keyword_val": ["_items"], "keyword_key": ["depends_on"], "obj_name": ["items"]}, "folder": "/home/andrea/github-projects-50/enthought-enaml.zip", "type": "traits.api.Property"}
--------------------
{"obj": "self.image", "file": "enaml-master/examples/old/image_processing/processing_model.py", "calls": [{"lineNum": 176, "tgt": "original_image", "colOffset": 43}, {"lineNum": 178, "tgt": "canny_image", "colOffset": 43}, {"lineNum": 179, "tgt": "hough_segments", "colOffset": 41}], "context": {"obj_name": ["self.image"]}, "folder": "/home/andrea/github-projects-50/enthought-enaml.zip", "type": "traits.api.Instance."}
--------------------
$$$$$$$$$$$$$$$$$$$$
{"obj": "default", "file": "connectomeviewer-master/cviewer/plugins/ui/preference_manager.py", "calls": [{"lineNum": 99, "tgt": "load", "colOffset": 16}], "context": {"arg_val": ["default/"], "arg_type": ["Str"], "obj_name": ["default"]}, "folder": "/home/andrea/github-projects-20/LTS5-connectomeviewer.zip", "type": "traits.api.Instance.node"}
--------------------
$$$$$$$$$$$$$$$$$$$$
{"obj": "plugin", "file": "envisage-master/envisage/developer/ui/view/plugin_browser.py", "calls": [{"lineNum": 47, "tgt": "application", "colOffset": 15}], "context": {"arg_val": ["IPlugin"], "arg_type": ["Name"], "obj_name": ["plugin"]}, "folder": "/home/andrea/github-projects-20/enthought-envisage.zip", "type": "traits.api.Instance"}
--------------------
{"obj": "plugin", "file": "envisage-master/envisage/developer/ui/view/plugin_browser.py", "calls": [{"lineNum": 79, "tgt": "get_extension_points", "colOffset": 35}, {"lineNum": 93, "tgt": "get_extension_points", "colOffset": 35}], "context": {"arg_val": ["IPlugin"], "arg_type": ["Name"], "obj_name": ["plugin"]}, "folder": "/home/andrea/github-projects-20/enthought-envisage.zip", "type": "traits.api.Instance"}
--------------------
{"obj": "protocol", "file": "envisage-master/envisage/developer/ui/view/service_registry_browser_tree.py", "calls": [{"lineNum": 77, "tgt": "services", "colOffset": 12}], "context": {"arg_val": ["protocol_name"], "arg_type": ["Name"], "obj_name": ["protocol"]}, "folder": "/home/andrea/github-projects-20/enthought-envisage.zip", "type": "traits.api.Property.get"}
--------------------
{"obj": "distributions", "file": "envisage-master/envisage/egg_utils.py", "calls": [{"lineNum": 81, "tgt": "reverse", "colOffset": 4}], "context": {"arg_val": ["graph"], "arg_type": ["Name"], "obj_name": ["distributions"]}, "folder": "/home/andrea/github-projects-20/enthought-envisage.zip", "type": "traits.util.toposort.topological_sort"}
--------------------
{"obj": "event", "file": "envisage-master/envisage/ui/tasks/tasks_application.py", "calls": [{"lineNum": 249, "tgt": "veto", "colOffset": 23}], "context": {"obj_name": ["event"]}, "folder": "/home/andrea/github-projects-20/enthought-envisage.zip", "type": "traits.api.Vetoable"}
--------------------
$$$$$$$$$$$$$$$$$$$$
