{
    "archive_url": "https://api.github.com/repos/Eichhoernchen/SiriServer/{archive_format}{/ref}",
    "assignees_url": "https://api.github.com/repos/Eichhoernchen/SiriServer/assignees{/user}",
    "blobs_url": "https://api.github.com/repos/Eichhoernchen/SiriServer/git/blobs{/sha}",
    "branches_url": "https://api.github.com/repos/Eichhoernchen/SiriServer/branches{/branch}",
    "clone_url": "https://github.com/Eichhoernchen/SiriServer.git",
    "collaborators_url": "https://api.github.com/repos/Eichhoernchen/SiriServer/collaborators{/collaborator}",
    "comments_url": "https://api.github.com/repos/Eichhoernchen/SiriServer/comments{/number}",
    "commits_url": "https://api.github.com/repos/Eichhoernchen/SiriServer/commits{/sha}",
    "compare_url": "https://api.github.com/repos/Eichhoernchen/SiriServer/compare/{base}...{head}",
    "contents_url": "https://api.github.com/repos/Eichhoernchen/SiriServer/contents/{+path}",
    "contributors_url": "https://api.github.com/repos/Eichhoernchen/SiriServer/contributors",
    "created_at": "2012-01-17T11:34:45Z",
    "default_branch": "master",
    "description": "THIS IS OLD AND SHOULD NOT BE USED ANYMORE, USE THE SiriServerCore repository",
    "downloads_url": "https://api.github.com/repos/Eichhoernchen/SiriServer/downloads",
    "events_url": "https://api.github.com/repos/Eichhoernchen/SiriServer/events",
    "fork": false,
    "forks": 121,
    "forks_count": 121,
    "forks_url": "https://api.github.com/repos/Eichhoernchen/SiriServer/forks",
    "full_name": "Eichhoernchen/SiriServer",
    "git_commits_url": "https://api.github.com/repos/Eichhoernchen/SiriServer/git/commits{/sha}",
    "git_refs_url": "https://api.github.com/repos/Eichhoernchen/SiriServer/git/refs{/sha}",
    "git_tags_url": "https://api.github.com/repos/Eichhoernchen/SiriServer/git/tags{/sha}",
    "git_url": "git://github.com/Eichhoernchen/SiriServer.git",
    "has_downloads": true,
    "has_issues": false,
    "has_wiki": false,
    "homepage": "",
    "hooks_url": "https://api.github.com/repos/Eichhoernchen/SiriServer/hooks",
    "html_url": "https://github.com/Eichhoernchen/SiriServer",
    "id": 3198831,
    "issue_comment_url": "https://api.github.com/repos/Eichhoernchen/SiriServer/issues/comments/{number}",
    "issue_events_url": "https://api.github.com/repos/Eichhoernchen/SiriServer/issues/events{/number}",
    "issues_url": "https://api.github.com/repos/Eichhoernchen/SiriServer/issues{/number}",
    "keys_url": "https://api.github.com/repos/Eichhoernchen/SiriServer/keys{/key_id}",
    "labels_url": "https://api.github.com/repos/Eichhoernchen/SiriServer/labels{/name}",
    "language": "Python",
    "languages_url": "https://api.github.com/repos/Eichhoernchen/SiriServer/languages",
    "merges_url": "https://api.github.com/repos/Eichhoernchen/SiriServer/merges",
    "milestones_url": "https://api.github.com/repos/Eichhoernchen/SiriServer/milestones{/number}",
    "mirror_url": null,
    "name": "SiriServer",
    "notifications_url": "https://api.github.com/repos/Eichhoernchen/SiriServer/notifications{?since,all,participating}",
    "open_issues": 2,
    "open_issues_count": 2,
    "owner": {
        "avatar_url": "https://avatars.githubusercontent.com/u/1324490?",
        "events_url": "https://api.github.com/users/Eichhoernchen/events{/privacy}",
        "followers_url": "https://api.github.com/users/Eichhoernchen/followers",
        "following_url": "https://api.github.com/users/Eichhoernchen/following{/other_user}",
        "gists_url": "https://api.github.com/users/Eichhoernchen/gists{/gist_id}",
        "gravatar_id": "f7892b1225a476bd54cac69974fc12f6",
        "html_url": "https://github.com/Eichhoernchen",
        "id": 1324490,
        "login": "Eichhoernchen",
        "organizations_url": "https://api.github.com/users/Eichhoernchen/orgs",
        "received_events_url": "https://api.github.com/users/Eichhoernchen/received_events",
        "repos_url": "https://api.github.com/users/Eichhoernchen/repos",
        "site_admin": false,
        "starred_url": "https://api.github.com/users/Eichhoernchen/starred{/owner}{/repo}",
        "subscriptions_url": "https://api.github.com/users/Eichhoernchen/subscriptions",
        "type": "User",
        "url": "https://api.github.com/users/Eichhoernchen"
    },
    "private": false,
    "pulls_url": "https://api.github.com/repos/Eichhoernchen/SiriServer/pulls{/number}",
    "pushed_at": "2012-03-08T11:03:15Z",
    "releases_url": "https://api.github.com/repos/Eichhoernchen/SiriServer/releases{/id}",
    "score": 1.0,
    "size": 2811,
    "ssh_url": "git@github.com:Eichhoernchen/SiriServer.git",
    "stargazers_count": 188,
    "stargazers_url": "https://api.github.com/repos/Eichhoernchen/SiriServer/stargazers",
    "statuses_url": "https://api.github.com/repos/Eichhoernchen/SiriServer/statuses/{sha}",
    "subscribers_url": "https://api.github.com/repos/Eichhoernchen/SiriServer/subscribers",
    "subscription_url": "https://api.github.com/repos/Eichhoernchen/SiriServer/subscription",
    "svn_url": "https://github.com/Eichhoernchen/SiriServer",
    "tags_url": "https://api.github.com/repos/Eichhoernchen/SiriServer/tags",
    "teams_url": "https://api.github.com/repos/Eichhoernchen/SiriServer/teams",
    "trees_url": "https://api.github.com/repos/Eichhoernchen/SiriServer/git/trees{/sha}",
    "updated_at": "2014-05-02T15:37:58Z",
    "url": "https://api.github.com/repos/Eichhoernchen/SiriServer",
    "watchers": 188,
    "watchers_count": 188
}