{
    "libs": [
        "cStringIO",
        "wsgi",
        "ali",
        "functools",
        "datetime",
        "api",
        "_winreg",
        "calendar",
        "handlers",
        "sgmllib",
        "struct",
        "zoneinfo",
        "iconv_codec",
        "ext",
        "re",
        "generators",
        "string",
        "markupb",
        "sets",
        "htmlentitydefs",
        "urllib2",
        "sys",
        "web",
        "codecs",
        "path",
        "types",
        "unicodedata",
        "b",
        "logging",
        "thread",
        "StringIO",
        "h",
        "dom",
        "itertools",
        "chardet",
        "time",
        "settings",
        "os"
    ]
}