{
    "libs": [
        "virt",
        "image",
        "random",
        "urllib",
        "gettextutils",
        "uuid",
        "nova",
        "json",
        "posix",
        "test_virt_drivers",
        "config",
        "functools",
        "mox",
        "log",
        "httplib",
        "compute",
        "socket",
        "h",
        "green",
        "common",
        "time",
        "docker",
        "os"
    ]
}