{
    "archive_url": "https://api.github.com/repos/bradleywright/django-static-management/{archive_format}{/ref}",
    "assignees_url": "https://api.github.com/repos/bradleywright/django-static-management/assignees{/user}",
    "blobs_url": "https://api.github.com/repos/bradleywright/django-static-management/git/blobs{/sha}",
    "branches_url": "https://api.github.com/repos/bradleywright/django-static-management/branches{/branch}",
    "clone_url": "https://github.com/bradleywright/django-static-management.git",
    "collaborators_url": "https://api.github.com/repos/bradleywright/django-static-management/collaborators{/collaborator}",
    "comments_url": "https://api.github.com/repos/bradleywright/django-static-management/comments{/number}",
    "commits_url": "https://api.github.com/repos/bradleywright/django-static-management/commits{/sha}",
    "compare_url": "https://api.github.com/repos/bradleywright/django-static-management/compare/{base}...{head}",
    "contents_url": "https://api.github.com/repos/bradleywright/django-static-management/contents/{+path}",
    "contributors_url": "https://api.github.com/repos/bradleywright/django-static-management/contributors",
    "created_at": "2008-11-30T13:44:24Z",
    "default_branch": "master",
    "description": "An easy way of managing static (CSS and JS) assets in Django projects, including build scripts.",
    "downloads_url": "https://api.github.com/repos/bradleywright/django-static-management/downloads",
    "events_url": "https://api.github.com/repos/bradleywright/django-static-management/events",
    "fork": false,
    "forks": 11,
    "forks_count": 11,
    "forks_url": "https://api.github.com/repos/bradleywright/django-static-management/forks",
    "full_name": "bradleywright/django-static-management",
    "git_commits_url": "https://api.github.com/repos/bradleywright/django-static-management/git/commits{/sha}",
    "git_refs_url": "https://api.github.com/repos/bradleywright/django-static-management/git/refs{/sha}",
    "git_tags_url": "https://api.github.com/repos/bradleywright/django-static-management/git/tags{/sha}",
    "git_url": "git://github.com/bradleywright/django-static-management.git",
    "has_downloads": true,
    "has_issues": true,
    "has_wiki": true,
    "homepage": "",
    "hooks_url": "https://api.github.com/repos/bradleywright/django-static-management/hooks",
    "html_url": "https://github.com/bradleywright/django-static-management",
    "id": 82642,
    "issue_comment_url": "https://api.github.com/repos/bradleywright/django-static-management/issues/comments/{number}",
    "issue_events_url": "https://api.github.com/repos/bradleywright/django-static-management/issues/events{/number}",
    "issues_url": "https://api.github.com/repos/bradleywright/django-static-management/issues{/number}",
    "keys_url": "https://api.github.com/repos/bradleywright/django-static-management/keys{/key_id}",
    "labels_url": "https://api.github.com/repos/bradleywright/django-static-management/labels{/name}",
    "language": "Python",
    "languages_url": "https://api.github.com/repos/bradleywright/django-static-management/languages",
    "merges_url": "https://api.github.com/repos/bradleywright/django-static-management/merges",
    "milestones_url": "https://api.github.com/repos/bradleywright/django-static-management/milestones{/number}",
    "mirror_url": null,
    "name": "django-static-management",
    "notifications_url": "https://api.github.com/repos/bradleywright/django-static-management/notifications{?since,all,participating}",
    "open_issues": 0,
    "open_issues_count": 0,
    "owner": {
        "avatar_url": "https://avatars.githubusercontent.com/u/1516?",
        "events_url": "https://api.github.com/users/bradleywright/events{/privacy}",
        "followers_url": "https://api.github.com/users/bradleywright/followers",
        "following_url": "https://api.github.com/users/bradleywright/following{/other_user}",
        "gists_url": "https://api.github.com/users/bradleywright/gists{/gist_id}",
        "gravatar_id": "405eaedde3de68f81af2140fc5794aae",
        "html_url": "https://github.com/bradleywright",
        "id": 1516,
        "login": "bradleywright",
        "organizations_url": "https://api.github.com/users/bradleywright/orgs",
        "received_events_url": "https://api.github.com/users/bradleywright/received_events",
        "repos_url": "https://api.github.com/users/bradleywright/repos",
        "site_admin": false,
        "starred_url": "https://api.github.com/users/bradleywright/starred{/owner}{/repo}",
        "subscriptions_url": "https://api.github.com/users/bradleywright/subscriptions",
        "type": "User",
        "url": "https://api.github.com/users/bradleywright"
    },
    "private": false,
    "pulls_url": "https://api.github.com/repos/bradleywright/django-static-management/pulls{/number}",
    "pushed_at": "2012-04-14T22:03:15Z",
    "releases_url": "https://api.github.com/repos/bradleywright/django-static-management/releases{/id}",
    "score": 1.0,
    "size": 174,
    "ssh_url": "git@github.com:bradleywright/django-static-management.git",
    "stargazers_count": 59,
    "stargazers_url": "https://api.github.com/repos/bradleywright/django-static-management/stargazers",
    "statuses_url": "https://api.github.com/repos/bradleywright/django-static-management/statuses/{sha}",
    "subscribers_url": "https://api.github.com/repos/bradleywright/django-static-management/subscribers",
    "subscription_url": "https://api.github.com/repos/bradleywright/django-static-management/subscription",
    "svn_url": "https://github.com/bradleywright/django-static-management",
    "tags_url": "https://api.github.com/repos/bradleywright/django-static-management/tags",
    "teams_url": "https://api.github.com/repos/bradleywright/django-static-management/teams",
    "trees_url": "https://api.github.com/repos/bradleywright/django-static-management/git/trees{/sha}",
    "updated_at": "2013-10-25T05:39:34Z",
    "url": "https://api.github.com/repos/bradleywright/django-static-management",
    "watchers": 59,
    "watchers_count": 59
}