{
    "libs": [
        "cairo",
        "subprocess",
        "dir_util",
        "shutil",
        "select",
        "struct",
        "pprint",
        "re",
        "numpy",
        "math",
        "string",
        "optparse",
        "GeoIP",
        "inspect",
        "dpkt",
        "wave",
        "sys",
        "datetime",
        "print_function",
        "logging",
        "socket",
        "time",
        "os"
    ]
}