{
    "archive_url": "https://api.github.com/repos/hgn/captcp/{archive_format}{/ref}",
    "assignees_url": "https://api.github.com/repos/hgn/captcp/assignees{/user}",
    "blobs_url": "https://api.github.com/repos/hgn/captcp/git/blobs{/sha}",
    "branches_url": "https://api.github.com/repos/hgn/captcp/branches{/branch}",
    "clone_url": "https://github.com/hgn/captcp.git",
    "collaborators_url": "https://api.github.com/repos/hgn/captcp/collaborators{/collaborator}",
    "comments_url": "https://api.github.com/repos/hgn/captcp/comments{/number}",
    "commits_url": "https://api.github.com/repos/hgn/captcp/commits{/sha}",
    "compare_url": "https://api.github.com/repos/hgn/captcp/compare/{base}...{head}",
    "contents_url": "https://api.github.com/repos/hgn/captcp/contents/{+path}",
    "contributors_url": "https://api.github.com/repos/hgn/captcp/contributors",
    "created_at": "2011-08-30T18:13:15Z",
    "default_branch": "master",
    "description": "A open source program for TCP analysis of PCAP files",
    "downloads_url": "https://api.github.com/repos/hgn/captcp/downloads",
    "events_url": "https://api.github.com/repos/hgn/captcp/events",
    "fork": false,
    "forks": 15,
    "forks_count": 15,
    "forks_url": "https://api.github.com/repos/hgn/captcp/forks",
    "full_name": "hgn/captcp",
    "git_commits_url": "https://api.github.com/repos/hgn/captcp/git/commits{/sha}",
    "git_refs_url": "https://api.github.com/repos/hgn/captcp/git/refs{/sha}",
    "git_tags_url": "https://api.github.com/repos/hgn/captcp/git/tags{/sha}",
    "git_url": "git://github.com/hgn/captcp.git",
    "has_downloads": true,
    "has_issues": true,
    "has_wiki": false,
    "homepage": "http://research.protocollabs.com/captcp/",
    "hooks_url": "https://api.github.com/repos/hgn/captcp/hooks",
    "html_url": "https://github.com/hgn/captcp",
    "id": 2296645,
    "issue_comment_url": "https://api.github.com/repos/hgn/captcp/issues/comments/{number}",
    "issue_events_url": "https://api.github.com/repos/hgn/captcp/issues/events{/number}",
    "issues_url": "https://api.github.com/repos/hgn/captcp/issues{/number}",
    "keys_url": "https://api.github.com/repos/hgn/captcp/keys{/key_id}",
    "labels_url": "https://api.github.com/repos/hgn/captcp/labels{/name}",
    "language": "Python",
    "languages_url": "https://api.github.com/repos/hgn/captcp/languages",
    "merges_url": "https://api.github.com/repos/hgn/captcp/merges",
    "milestones_url": "https://api.github.com/repos/hgn/captcp/milestones{/number}",
    "mirror_url": null,
    "name": "captcp",
    "notifications_url": "https://api.github.com/repos/hgn/captcp/notifications{?since,all,participating}",
    "open_issues": 4,
    "open_issues_count": 4,
    "owner": {
        "avatar_url": "https://avatars.githubusercontent.com/u/46653?",
        "events_url": "https://api.github.com/users/hgn/events{/privacy}",
        "followers_url": "https://api.github.com/users/hgn/followers",
        "following_url": "https://api.github.com/users/hgn/following{/other_user}",
        "gists_url": "https://api.github.com/users/hgn/gists{/gist_id}",
        "gravatar_id": "ad74b04704a015b05aeae7c5afb8fe95",
        "html_url": "https://github.com/hgn",
        "id": 46653,
        "login": "hgn",
        "organizations_url": "https://api.github.com/users/hgn/orgs",
        "received_events_url": "https://api.github.com/users/hgn/received_events",
        "repos_url": "https://api.github.com/users/hgn/repos",
        "site_admin": false,
        "starred_url": "https://api.github.com/users/hgn/starred{/owner}{/repo}",
        "subscriptions_url": "https://api.github.com/users/hgn/subscriptions",
        "type": "User",
        "url": "https://api.github.com/users/hgn"
    },
    "private": false,
    "pulls_url": "https://api.github.com/repos/hgn/captcp/pulls{/number}",
    "pushed_at": "2014-04-20T16:26:16Z",
    "releases_url": "https://api.github.com/repos/hgn/captcp/releases{/id}",
    "score": 1.0,
    "size": 4698,
    "ssh_url": "git@github.com:hgn/captcp.git",
    "stargazers_count": 42,
    "stargazers_url": "https://api.github.com/repos/hgn/captcp/stargazers",
    "statuses_url": "https://api.github.com/repos/hgn/captcp/statuses/{sha}",
    "subscribers_url": "https://api.github.com/repos/hgn/captcp/subscribers",
    "subscription_url": "https://api.github.com/repos/hgn/captcp/subscription",
    "svn_url": "https://github.com/hgn/captcp",
    "tags_url": "https://api.github.com/repos/hgn/captcp/tags",
    "teams_url": "https://api.github.com/repos/hgn/captcp/teams",
    "trees_url": "https://api.github.com/repos/hgn/captcp/git/trees{/sha}",
    "updated_at": "2014-05-04T06:29:48Z",
    "url": "https://api.github.com/repos/hgn/captcp",
    "watchers": 42,
    "watchers_count": 42
}