{
    "archive_url": "https://api.github.com/repos/Rip-Rip/clang_complete/{archive_format}{/ref}",
    "assignees_url": "https://api.github.com/repos/Rip-Rip/clang_complete/assignees{/user}",
    "blobs_url": "https://api.github.com/repos/Rip-Rip/clang_complete/git/blobs{/sha}",
    "branches_url": "https://api.github.com/repos/Rip-Rip/clang_complete/branches{/branch}",
    "clone_url": "https://github.com/Rip-Rip/clang_complete.git",
    "collaborators_url": "https://api.github.com/repos/Rip-Rip/clang_complete/collaborators{/collaborator}",
    "comments_url": "https://api.github.com/repos/Rip-Rip/clang_complete/comments{/number}",
    "commits_url": "https://api.github.com/repos/Rip-Rip/clang_complete/commits{/sha}",
    "compare_url": "https://api.github.com/repos/Rip-Rip/clang_complete/compare/{base}...{head}",
    "contents_url": "https://api.github.com/repos/Rip-Rip/clang_complete/contents/{+path}",
    "contributors_url": "https://api.github.com/repos/Rip-Rip/clang_complete/contributors",
    "created_at": "2010-10-26T19:22:25Z",
    "default_branch": "master",
    "description": "Vim plugin that use clang for completing C/C++ code.",
    "downloads_url": "https://api.github.com/repos/Rip-Rip/clang_complete/downloads",
    "events_url": "https://api.github.com/repos/Rip-Rip/clang_complete/events",
    "fork": false,
    "forks": 162,
    "forks_count": 162,
    "forks_url": "https://api.github.com/repos/Rip-Rip/clang_complete/forks",
    "full_name": "Rip-Rip/clang_complete",
    "git_commits_url": "https://api.github.com/repos/Rip-Rip/clang_complete/git/commits{/sha}",
    "git_refs_url": "https://api.github.com/repos/Rip-Rip/clang_complete/git/refs{/sha}",
    "git_tags_url": "https://api.github.com/repos/Rip-Rip/clang_complete/git/tags{/sha}",
    "git_url": "git://github.com/Rip-Rip/clang_complete.git",
    "has_downloads": true,
    "has_issues": true,
    "has_wiki": true,
    "homepage": "http://www.vim.org/scripts/script.php?script_id=3302",
    "hooks_url": "https://api.github.com/repos/Rip-Rip/clang_complete/hooks",
    "html_url": "https://github.com/Rip-Rip/clang_complete",
    "id": 1026495,
    "issue_comment_url": "https://api.github.com/repos/Rip-Rip/clang_complete/issues/comments/{number}",
    "issue_events_url": "https://api.github.com/repos/Rip-Rip/clang_complete/issues/events{/number}",
    "issues_url": "https://api.github.com/repos/Rip-Rip/clang_complete/issues{/number}",
    "keys_url": "https://api.github.com/repos/Rip-Rip/clang_complete/keys{/key_id}",
    "labels_url": "https://api.github.com/repos/Rip-Rip/clang_complete/labels{/name}",
    "language": "Python",
    "languages_url": "https://api.github.com/repos/Rip-Rip/clang_complete/languages",
    "merges_url": "https://api.github.com/repos/Rip-Rip/clang_complete/merges",
    "milestones_url": "https://api.github.com/repos/Rip-Rip/clang_complete/milestones{/number}",
    "mirror_url": null,
    "name": "clang_complete",
    "notifications_url": "https://api.github.com/repos/Rip-Rip/clang_complete/notifications{?since,all,participating}",
    "open_issues": 115,
    "open_issues_count": 115,
    "owner": {
        "avatar_url": "https://avatars.githubusercontent.com/u/50892?",
        "events_url": "https://api.github.com/users/Rip-Rip/events{/privacy}",
        "followers_url": "https://api.github.com/users/Rip-Rip/followers",
        "following_url": "https://api.github.com/users/Rip-Rip/following{/other_user}",
        "gists_url": "https://api.github.com/users/Rip-Rip/gists{/gist_id}",
        "gravatar_id": "4e67282fad258811d37c356ecce541ed",
        "html_url": "https://github.com/Rip-Rip",
        "id": 50892,
        "login": "Rip-Rip",
        "organizations_url": "https://api.github.com/users/Rip-Rip/orgs",
        "received_events_url": "https://api.github.com/users/Rip-Rip/received_events",
        "repos_url": "https://api.github.com/users/Rip-Rip/repos",
        "site_admin": false,
        "starred_url": "https://api.github.com/users/Rip-Rip/starred{/owner}{/repo}",
        "subscriptions_url": "https://api.github.com/users/Rip-Rip/subscriptions",
        "type": "User",
        "url": "https://api.github.com/users/Rip-Rip"
    },
    "private": false,
    "pulls_url": "https://api.github.com/repos/Rip-Rip/clang_complete/pulls{/number}",
    "pushed_at": "2014-04-13T10:38:48Z",
    "releases_url": "https://api.github.com/repos/Rip-Rip/clang_complete/releases{/id}",
    "score": 1.0,
    "size": 3020,
    "ssh_url": "git@github.com:Rip-Rip/clang_complete.git",
    "stargazers_count": 882,
    "stargazers_url": "https://api.github.com/repos/Rip-Rip/clang_complete/stargazers",
    "statuses_url": "https://api.github.com/repos/Rip-Rip/clang_complete/statuses/{sha}",
    "subscribers_url": "https://api.github.com/repos/Rip-Rip/clang_complete/subscribers",
    "subscription_url": "https://api.github.com/repos/Rip-Rip/clang_complete/subscription",
    "svn_url": "https://github.com/Rip-Rip/clang_complete",
    "tags_url": "https://api.github.com/repos/Rip-Rip/clang_complete/tags",
    "teams_url": "https://api.github.com/repos/Rip-Rip/clang_complete/teams",
    "trees_url": "https://api.github.com/repos/Rip-Rip/clang_complete/git/trees{/sha}",
    "updated_at": "2014-05-06T01:39:00Z",
    "url": "https://api.github.com/repos/Rip-Rip/clang_complete",
    "watchers": 882,
    "watchers_count": 882
}