{
    "libs": [
        "management",
        "http",
        "template",
        "re",
        "shortcuts",
        "utils",
        "creation",
        "db",
        "datetime",
        "sys",
        "urlresolvers",
        "connection",
        "backends",
        "mongokit",
        "conf",
        "test",
        "timezone",
        "widgets",
        "django",
        "os"
    ]
}