{
    "archive_url": "https://api.github.com/repos/alonsovidales/facebook-programming-challenges/{archive_format}{/ref}",
    "assignees_url": "https://api.github.com/repos/alonsovidales/facebook-programming-challenges/assignees{/user}",
    "blobs_url": "https://api.github.com/repos/alonsovidales/facebook-programming-challenges/git/blobs{/sha}",
    "branches_url": "https://api.github.com/repos/alonsovidales/facebook-programming-challenges/branches{/branch}",
    "clone_url": "https://github.com/alonsovidales/facebook-programming-challenges.git",
    "collaborators_url": "https://api.github.com/repos/alonsovidales/facebook-programming-challenges/collaborators{/collaborator}",
    "comments_url": "https://api.github.com/repos/alonsovidales/facebook-programming-challenges/comments{/number}",
    "commits_url": "https://api.github.com/repos/alonsovidales/facebook-programming-challenges/commits{/sha}",
    "compare_url": "https://api.github.com/repos/alonsovidales/facebook-programming-challenges/compare/{base}...{head}",
    "contents_url": "https://api.github.com/repos/alonsovidales/facebook-programming-challenges/contents/{+path}",
    "contributors_url": "https://api.github.com/repos/alonsovidales/facebook-programming-challenges/contributors",
    "created_at": "2012-12-09T11:40:36Z",
    "default_branch": "master",
    "description": "This is a compilation of possible questions to be solved in order to be hired by Facebook ",
    "downloads_url": "https://api.github.com/repos/alonsovidales/facebook-programming-challenges/downloads",
    "events_url": "https://api.github.com/repos/alonsovidales/facebook-programming-challenges/events",
    "fork": false,
    "forks": 39,
    "forks_count": 39,
    "forks_url": "https://api.github.com/repos/alonsovidales/facebook-programming-challenges/forks",
    "full_name": "alonsovidales/facebook-programming-challenges",
    "git_commits_url": "https://api.github.com/repos/alonsovidales/facebook-programming-challenges/git/commits{/sha}",
    "git_refs_url": "https://api.github.com/repos/alonsovidales/facebook-programming-challenges/git/refs{/sha}",
    "git_tags_url": "https://api.github.com/repos/alonsovidales/facebook-programming-challenges/git/tags{/sha}",
    "git_url": "git://github.com/alonsovidales/facebook-programming-challenges.git",
    "has_downloads": true,
    "has_issues": true,
    "has_wiki": true,
    "homepage": null,
    "hooks_url": "https://api.github.com/repos/alonsovidales/facebook-programming-challenges/hooks",
    "html_url": "https://github.com/alonsovidales/facebook-programming-challenges",
    "id": 7078126,
    "issue_comment_url": "https://api.github.com/repos/alonsovidales/facebook-programming-challenges/issues/comments/{number}",
    "issue_events_url": "https://api.github.com/repos/alonsovidales/facebook-programming-challenges/issues/events{/number}",
    "issues_url": "https://api.github.com/repos/alonsovidales/facebook-programming-challenges/issues{/number}",
    "keys_url": "https://api.github.com/repos/alonsovidales/facebook-programming-challenges/keys{/key_id}",
    "labels_url": "https://api.github.com/repos/alonsovidales/facebook-programming-challenges/labels{/name}",
    "language": "Python",
    "languages_url": "https://api.github.com/repos/alonsovidales/facebook-programming-challenges/languages",
    "merges_url": "https://api.github.com/repos/alonsovidales/facebook-programming-challenges/merges",
    "milestones_url": "https://api.github.com/repos/alonsovidales/facebook-programming-challenges/milestones{/number}",
    "mirror_url": null,
    "name": "facebook-programming-challenges",
    "notifications_url": "https://api.github.com/repos/alonsovidales/facebook-programming-challenges/notifications{?since,all,participating}",
    "open_issues": 5,
    "open_issues_count": 5,
    "owner": {
        "avatar_url": "https://avatars.githubusercontent.com/u/1468785?",
        "events_url": "https://api.github.com/users/alonsovidales/events{/privacy}",
        "followers_url": "https://api.github.com/users/alonsovidales/followers",
        "following_url": "https://api.github.com/users/alonsovidales/following{/other_user}",
        "gists_url": "https://api.github.com/users/alonsovidales/gists{/gist_id}",
        "gravatar_id": "d2288b63e78979644f56ecb15b5a184d",
        "html_url": "https://github.com/alonsovidales",
        "id": 1468785,
        "login": "alonsovidales",
        "organizations_url": "https://api.github.com/users/alonsovidales/orgs",
        "received_events_url": "https://api.github.com/users/alonsovidales/received_events",
        "repos_url": "https://api.github.com/users/alonsovidales/repos",
        "site_admin": false,
        "starred_url": "https://api.github.com/users/alonsovidales/starred{/owner}{/repo}",
        "subscriptions_url": "https://api.github.com/users/alonsovidales/subscriptions",
        "type": "User",
        "url": "https://api.github.com/users/alonsovidales"
    },
    "private": false,
    "pulls_url": "https://api.github.com/repos/alonsovidales/facebook-programming-challenges/pulls{/number}",
    "pushed_at": "2013-03-22T23:11:56Z",
    "releases_url": "https://api.github.com/repos/alonsovidales/facebook-programming-challenges/releases{/id}",
    "score": 1.0,
    "size": 241,
    "ssh_url": "git@github.com:alonsovidales/facebook-programming-challenges.git",
    "stargazers_count": 58,
    "stargazers_url": "https://api.github.com/repos/alonsovidales/facebook-programming-challenges/stargazers",
    "statuses_url": "https://api.github.com/repos/alonsovidales/facebook-programming-challenges/statuses/{sha}",
    "subscribers_url": "https://api.github.com/repos/alonsovidales/facebook-programming-challenges/subscribers",
    "subscription_url": "https://api.github.com/repos/alonsovidales/facebook-programming-challenges/subscription",
    "svn_url": "https://github.com/alonsovidales/facebook-programming-challenges",
    "tags_url": "https://api.github.com/repos/alonsovidales/facebook-programming-challenges/tags",
    "teams_url": "https://api.github.com/repos/alonsovidales/facebook-programming-challenges/teams",
    "trees_url": "https://api.github.com/repos/alonsovidales/facebook-programming-challenges/git/trees{/sha}",
    "updated_at": "2014-05-04T03:11:19Z",
    "url": "https://api.github.com/repos/alonsovidales/facebook-programming-challenges",
    "watchers": 58,
    "watchers_count": 58
}