{
    "archive_url": "https://api.github.com/repos/SeyZ/baboon/{archive_format}{/ref}",
    "assignees_url": "https://api.github.com/repos/SeyZ/baboon/assignees{/user}",
    "blobs_url": "https://api.github.com/repos/SeyZ/baboon/git/blobs{/sha}",
    "branches_url": "https://api.github.com/repos/SeyZ/baboon/branches{/branch}",
    "clone_url": "https://github.com/SeyZ/baboon.git",
    "collaborators_url": "https://api.github.com/repos/SeyZ/baboon/collaborators{/collaborator}",
    "comments_url": "https://api.github.com/repos/SeyZ/baboon/comments{/number}",
    "commits_url": "https://api.github.com/repos/SeyZ/baboon/commits{/sha}",
    "compare_url": "https://api.github.com/repos/SeyZ/baboon/compare/{base}...{head}",
    "contents_url": "https://api.github.com/repos/SeyZ/baboon/contents/{+path}",
    "contributors_url": "https://api.github.com/repos/SeyZ/baboon/contributors",
    "created_at": "2012-02-09T08:32:38Z",
    "default_branch": "master",
    "description": "Detect source code merge conflicts in realtime. Simply get rid of merge hells.",
    "downloads_url": "https://api.github.com/repos/SeyZ/baboon/downloads",
    "events_url": "https://api.github.com/repos/SeyZ/baboon/events",
    "fork": false,
    "forks": 9,
    "forks_count": 9,
    "forks_url": "https://api.github.com/repos/SeyZ/baboon/forks",
    "full_name": "SeyZ/baboon",
    "git_commits_url": "https://api.github.com/repos/SeyZ/baboon/git/commits{/sha}",
    "git_refs_url": "https://api.github.com/repos/SeyZ/baboon/git/refs{/sha}",
    "git_tags_url": "https://api.github.com/repos/SeyZ/baboon/git/tags{/sha}",
    "git_url": "git://github.com/SeyZ/baboon.git",
    "has_downloads": true,
    "has_issues": true,
    "has_wiki": true,
    "homepage": "http://baboon-project.org",
    "hooks_url": "https://api.github.com/repos/SeyZ/baboon/hooks",
    "html_url": "https://github.com/SeyZ/baboon",
    "id": 3395474,
    "issue_comment_url": "https://api.github.com/repos/SeyZ/baboon/issues/comments/{number}",
    "issue_events_url": "https://api.github.com/repos/SeyZ/baboon/issues/events{/number}",
    "issues_url": "https://api.github.com/repos/SeyZ/baboon/issues{/number}",
    "keys_url": "https://api.github.com/repos/SeyZ/baboon/keys{/key_id}",
    "labels_url": "https://api.github.com/repos/SeyZ/baboon/labels{/name}",
    "language": "Python",
    "languages_url": "https://api.github.com/repos/SeyZ/baboon/languages",
    "merges_url": "https://api.github.com/repos/SeyZ/baboon/merges",
    "milestones_url": "https://api.github.com/repos/SeyZ/baboon/milestones{/number}",
    "mirror_url": null,
    "name": "baboon",
    "notifications_url": "https://api.github.com/repos/SeyZ/baboon/notifications{?since,all,participating}",
    "open_issues": 9,
    "open_issues_count": 9,
    "owner": {
        "avatar_url": "https://avatars.githubusercontent.com/u/519129?",
        "events_url": "https://api.github.com/users/SeyZ/events{/privacy}",
        "followers_url": "https://api.github.com/users/SeyZ/followers",
        "following_url": "https://api.github.com/users/SeyZ/following{/other_user}",
        "gists_url": "https://api.github.com/users/SeyZ/gists{/gist_id}",
        "gravatar_id": "c56e7872aba3552d032a72da1331d26b",
        "html_url": "https://github.com/SeyZ",
        "id": 519129,
        "login": "SeyZ",
        "organizations_url": "https://api.github.com/users/SeyZ/orgs",
        "received_events_url": "https://api.github.com/users/SeyZ/received_events",
        "repos_url": "https://api.github.com/users/SeyZ/repos",
        "site_admin": false,
        "starred_url": "https://api.github.com/users/SeyZ/starred{/owner}{/repo}",
        "subscriptions_url": "https://api.github.com/users/SeyZ/subscriptions",
        "type": "User",
        "url": "https://api.github.com/users/SeyZ"
    },
    "private": false,
    "pulls_url": "https://api.github.com/repos/SeyZ/baboon/pulls{/number}",
    "pushed_at": "2013-12-12T19:31:14Z",
    "releases_url": "https://api.github.com/repos/SeyZ/baboon/releases{/id}",
    "score": 1.0,
    "size": 1160,
    "ssh_url": "git@github.com:SeyZ/baboon.git",
    "stargazers_count": 110,
    "stargazers_url": "https://api.github.com/repos/SeyZ/baboon/stargazers",
    "statuses_url": "https://api.github.com/repos/SeyZ/baboon/statuses/{sha}",
    "subscribers_url": "https://api.github.com/repos/SeyZ/baboon/subscribers",
    "subscription_url": "https://api.github.com/repos/SeyZ/baboon/subscription",
    "svn_url": "https://github.com/SeyZ/baboon",
    "tags_url": "https://api.github.com/repos/SeyZ/baboon/tags",
    "teams_url": "https://api.github.com/repos/SeyZ/baboon/teams",
    "trees_url": "https://api.github.com/repos/SeyZ/baboon/git/trees{/sha}",
    "updated_at": "2014-04-29T10:25:29Z",
    "url": "https://api.github.com/repos/SeyZ/baboon",
    "watchers": 110,
    "watchers_count": 110
}