{
    "libs": [
        "generic",
        "template",
        "conf",
        "unicode_literals",
        "utils",
        "loader_tags",
        "django",
        "sys",
        "test",
        "b",
        "urls",
        "urlresolvers",
        "loader",
        "os"
    ]
}