{
    "archive_url": "https://api.github.com/repos/chen3feng/typhoon-blade/{archive_format}{/ref}",
    "assignees_url": "https://api.github.com/repos/chen3feng/typhoon-blade/assignees{/user}",
    "blobs_url": "https://api.github.com/repos/chen3feng/typhoon-blade/git/blobs{/sha}",
    "branches_url": "https://api.github.com/repos/chen3feng/typhoon-blade/branches{/branch}",
    "clone_url": "https://github.com/chen3feng/typhoon-blade.git",
    "collaborators_url": "https://api.github.com/repos/chen3feng/typhoon-blade/collaborators{/collaborator}",
    "comments_url": "https://api.github.com/repos/chen3feng/typhoon-blade/comments{/number}",
    "commits_url": "https://api.github.com/repos/chen3feng/typhoon-blade/commits{/sha}",
    "compare_url": "https://api.github.com/repos/chen3feng/typhoon-blade/compare/{base}...{head}",
    "contents_url": "https://api.github.com/repos/chen3feng/typhoon-blade/contents/{+path}",
    "contributors_url": "https://api.github.com/repos/chen3feng/typhoon-blade/contributors",
    "created_at": "2012-08-22T17:35:13Z",
    "default_branch": "master",
    "description": "Building system of typhoon cloud computing platform of tencent, support C/C++/protobuf/thrift/lex/yacc/swig.",
    "downloads_url": "https://api.github.com/repos/chen3feng/typhoon-blade/downloads",
    "events_url": "https://api.github.com/repos/chen3feng/typhoon-blade/events",
    "fork": false,
    "forks": 84,
    "forks_count": 84,
    "forks_url": "https://api.github.com/repos/chen3feng/typhoon-blade/forks",
    "full_name": "chen3feng/typhoon-blade",
    "git_commits_url": "https://api.github.com/repos/chen3feng/typhoon-blade/git/commits{/sha}",
    "git_refs_url": "https://api.github.com/repos/chen3feng/typhoon-blade/git/refs{/sha}",
    "git_tags_url": "https://api.github.com/repos/chen3feng/typhoon-blade/git/tags{/sha}",
    "git_url": "git://github.com/chen3feng/typhoon-blade.git",
    "has_downloads": true,
    "has_issues": true,
    "has_wiki": true,
    "homepage": "",
    "hooks_url": "https://api.github.com/repos/chen3feng/typhoon-blade/hooks",
    "html_url": "https://github.com/chen3feng/typhoon-blade",
    "id": 5512937,
    "issue_comment_url": "https://api.github.com/repos/chen3feng/typhoon-blade/issues/comments/{number}",
    "issue_events_url": "https://api.github.com/repos/chen3feng/typhoon-blade/issues/events{/number}",
    "issues_url": "https://api.github.com/repos/chen3feng/typhoon-blade/issues{/number}",
    "keys_url": "https://api.github.com/repos/chen3feng/typhoon-blade/keys{/key_id}",
    "labels_url": "https://api.github.com/repos/chen3feng/typhoon-blade/labels{/name}",
    "language": "Python",
    "languages_url": "https://api.github.com/repos/chen3feng/typhoon-blade/languages",
    "merges_url": "https://api.github.com/repos/chen3feng/typhoon-blade/merges",
    "milestones_url": "https://api.github.com/repos/chen3feng/typhoon-blade/milestones{/number}",
    "mirror_url": null,
    "name": "typhoon-blade",
    "notifications_url": "https://api.github.com/repos/chen3feng/typhoon-blade/notifications{?since,all,participating}",
    "open_issues": 29,
    "open_issues_count": 29,
    "owner": {
        "avatar_url": "https://avatars.githubusercontent.com/u/1998410?",
        "events_url": "https://api.github.com/users/chen3feng/events{/privacy}",
        "followers_url": "https://api.github.com/users/chen3feng/followers",
        "following_url": "https://api.github.com/users/chen3feng/following{/other_user}",
        "gists_url": "https://api.github.com/users/chen3feng/gists{/gist_id}",
        "gravatar_id": "a2c1596a9eec93c07a81746ecc810f5b",
        "html_url": "https://github.com/chen3feng",
        "id": 1998410,
        "login": "chen3feng",
        "organizations_url": "https://api.github.com/users/chen3feng/orgs",
        "received_events_url": "https://api.github.com/users/chen3feng/received_events",
        "repos_url": "https://api.github.com/users/chen3feng/repos",
        "site_admin": false,
        "starred_url": "https://api.github.com/users/chen3feng/starred{/owner}{/repo}",
        "subscriptions_url": "https://api.github.com/users/chen3feng/subscriptions",
        "type": "User",
        "url": "https://api.github.com/users/chen3feng"
    },
    "private": false,
    "pulls_url": "https://api.github.com/repos/chen3feng/typhoon-blade/pulls{/number}",
    "pushed_at": "2014-04-17T05:33:15Z",
    "releases_url": "https://api.github.com/repos/chen3feng/typhoon-blade/releases{/id}",
    "score": 1.0,
    "size": 4233,
    "ssh_url": "git@github.com:chen3feng/typhoon-blade.git",
    "stargazers_count": 181,
    "stargazers_url": "https://api.github.com/repos/chen3feng/typhoon-blade/stargazers",
    "statuses_url": "https://api.github.com/repos/chen3feng/typhoon-blade/statuses/{sha}",
    "subscribers_url": "https://api.github.com/repos/chen3feng/typhoon-blade/subscribers",
    "subscription_url": "https://api.github.com/repos/chen3feng/typhoon-blade/subscription",
    "svn_url": "https://github.com/chen3feng/typhoon-blade",
    "tags_url": "https://api.github.com/repos/chen3feng/typhoon-blade/tags",
    "teams_url": "https://api.github.com/repos/chen3feng/typhoon-blade/teams",
    "trees_url": "https://api.github.com/repos/chen3feng/typhoon-blade/git/trees{/sha}",
    "updated_at": "2014-05-01T01:46:10Z",
    "url": "https://api.github.com/repos/chen3feng/typhoon-blade",
    "watchers": 181,
    "watchers_count": 181
}