{
    "libs": [
        "encoding",
        "unicode_literals",
        "utils",
        "timezone",
        "contrib",
        "rest_framework",
        "cache",
        "imp",
        "json",
        "collections",
        "template",
        "unittest",
        "mock",
        "http",
        "optparse",
        "db",
        "auth",
        "sys",
        "translation",
        "b",
        "h",
        "django",
        "django_nose",
        "urlresolvers",
        "fallback",
        "os"
    ]
}