{
    "archive_url": "https://api.github.com/repos/vhpanisa/pythonix/{archive_format}{/ref}",
    "assignees_url": "https://api.github.com/repos/vhpanisa/pythonix/assignees{/user}",
    "blobs_url": "https://api.github.com/repos/vhpanisa/pythonix/git/blobs{/sha}",
    "branches_url": "https://api.github.com/repos/vhpanisa/pythonix/branches{/branch}",
    "clone_url": "https://github.com/vhpanisa/pythonix.git",
    "collaborators_url": "https://api.github.com/repos/vhpanisa/pythonix/collaborators{/collaborator}",
    "comments_url": "https://api.github.com/repos/vhpanisa/pythonix/comments{/number}",
    "commits_url": "https://api.github.com/repos/vhpanisa/pythonix/commits{/sha}",
    "compare_url": "https://api.github.com/repos/vhpanisa/pythonix/compare/{base}...{head}",
    "contents_url": "https://api.github.com/repos/vhpanisa/pythonix/contents/{+path}",
    "contributors_url": "https://api.github.com/repos/vhpanisa/pythonix/contributors",
    "created_at": "2014-04-10T23:58:42Z",
    "default_branch": "master",
    "description": "Python/Minix based operating system",
    "downloads_url": "https://api.github.com/repos/vhpanisa/pythonix/downloads",
    "events_url": "https://api.github.com/repos/vhpanisa/pythonix/events",
    "fork": false,
    "forks": 12,
    "forks_count": 12,
    "forks_url": "https://api.github.com/repos/vhpanisa/pythonix/forks",
    "full_name": "vhpanisa/pythonix",
    "git_commits_url": "https://api.github.com/repos/vhpanisa/pythonix/git/commits{/sha}",
    "git_refs_url": "https://api.github.com/repos/vhpanisa/pythonix/git/refs{/sha}",
    "git_tags_url": "https://api.github.com/repos/vhpanisa/pythonix/git/tags{/sha}",
    "git_url": "git://github.com/vhpanisa/pythonix.git",
    "has_downloads": true,
    "has_issues": true,
    "has_wiki": true,
    "homepage": null,
    "hooks_url": "https://api.github.com/repos/vhpanisa/pythonix/hooks",
    "html_url": "https://github.com/vhpanisa/pythonix",
    "id": 18656351,
    "issue_comment_url": "https://api.github.com/repos/vhpanisa/pythonix/issues/comments/{number}",
    "issue_events_url": "https://api.github.com/repos/vhpanisa/pythonix/issues/events{/number}",
    "issues_url": "https://api.github.com/repos/vhpanisa/pythonix/issues{/number}",
    "keys_url": "https://api.github.com/repos/vhpanisa/pythonix/keys{/key_id}",
    "labels_url": "https://api.github.com/repos/vhpanisa/pythonix/labels{/name}",
    "language": "Python",
    "languages_url": "https://api.github.com/repos/vhpanisa/pythonix/languages",
    "merges_url": "https://api.github.com/repos/vhpanisa/pythonix/merges",
    "milestones_url": "https://api.github.com/repos/vhpanisa/pythonix/milestones{/number}",
    "mirror_url": null,
    "name": "pythonix",
    "notifications_url": "https://api.github.com/repos/vhpanisa/pythonix/notifications{?since,all,participating}",
    "open_issues": 1,
    "open_issues_count": 1,
    "owner": {
        "avatar_url": "https://avatars.githubusercontent.com/u/5880370?",
        "events_url": "https://api.github.com/users/vhpanisa/events{/privacy}",
        "followers_url": "https://api.github.com/users/vhpanisa/followers",
        "following_url": "https://api.github.com/users/vhpanisa/following{/other_user}",
        "gists_url": "https://api.github.com/users/vhpanisa/gists{/gist_id}",
        "gravatar_id": "973d84dc615ccdffb3f9e0cd0d327fc2",
        "html_url": "https://github.com/vhpanisa",
        "id": 5880370,
        "login": "vhpanisa",
        "organizations_url": "https://api.github.com/users/vhpanisa/orgs",
        "received_events_url": "https://api.github.com/users/vhpanisa/received_events",
        "repos_url": "https://api.github.com/users/vhpanisa/repos",
        "site_admin": false,
        "starred_url": "https://api.github.com/users/vhpanisa/starred{/owner}{/repo}",
        "subscriptions_url": "https://api.github.com/users/vhpanisa/subscriptions",
        "type": "User",
        "url": "https://api.github.com/users/vhpanisa"
    },
    "private": false,
    "pulls_url": "https://api.github.com/repos/vhpanisa/pythonix/pulls{/number}",
    "pushed_at": "2014-05-07T05:11:01Z",
    "releases_url": "https://api.github.com/repos/vhpanisa/pythonix/releases{/id}",
    "score": 1.0,
    "size": 952,
    "ssh_url": "git@github.com:vhpanisa/pythonix.git",
    "stargazers_count": 43,
    "stargazers_url": "https://api.github.com/repos/vhpanisa/pythonix/stargazers",
    "statuses_url": "https://api.github.com/repos/vhpanisa/pythonix/statuses/{sha}",
    "subscribers_url": "https://api.github.com/repos/vhpanisa/pythonix/subscribers",
    "subscription_url": "https://api.github.com/repos/vhpanisa/pythonix/subscription",
    "svn_url": "https://github.com/vhpanisa/pythonix",
    "tags_url": "https://api.github.com/repos/vhpanisa/pythonix/tags",
    "teams_url": "https://api.github.com/repos/vhpanisa/pythonix/teams",
    "trees_url": "https://api.github.com/repos/vhpanisa/pythonix/git/trees{/sha}",
    "updated_at": "2014-05-07T05:11:01Z",
    "url": "https://api.github.com/repos/vhpanisa/pythonix",
    "watchers": 43,
    "watchers_count": 43
}