{
    "archive_url": "https://api.github.com/repos/datadesk/python-googlegeocoder/{archive_format}{/ref}",
    "assignees_url": "https://api.github.com/repos/datadesk/python-googlegeocoder/assignees{/user}",
    "blobs_url": "https://api.github.com/repos/datadesk/python-googlegeocoder/git/blobs{/sha}",
    "branches_url": "https://api.github.com/repos/datadesk/python-googlegeocoder/branches{/branch}",
    "clone_url": "https://github.com/datadesk/python-googlegeocoder.git",
    "collaborators_url": "https://api.github.com/repos/datadesk/python-googlegeocoder/collaborators{/collaborator}",
    "comments_url": "https://api.github.com/repos/datadesk/python-googlegeocoder/comments{/number}",
    "commits_url": "https://api.github.com/repos/datadesk/python-googlegeocoder/commits{/sha}",
    "compare_url": "https://api.github.com/repos/datadesk/python-googlegeocoder/compare/{base}...{head}",
    "contents_url": "https://api.github.com/repos/datadesk/python-googlegeocoder/contents/{+path}",
    "contributors_url": "https://api.github.com/repos/datadesk/python-googlegeocoder/contributors",
    "created_at": "2011-08-16T21:34:46Z",
    "default_branch": "master",
    "description": "A simple Python wrapper for version three of Google's geocoder API",
    "downloads_url": "https://api.github.com/repos/datadesk/python-googlegeocoder/downloads",
    "events_url": "https://api.github.com/repos/datadesk/python-googlegeocoder/events",
    "fork": false,
    "forks": 12,
    "forks_count": 12,
    "forks_url": "https://api.github.com/repos/datadesk/python-googlegeocoder/forks",
    "full_name": "datadesk/python-googlegeocoder",
    "git_commits_url": "https://api.github.com/repos/datadesk/python-googlegeocoder/git/commits{/sha}",
    "git_refs_url": "https://api.github.com/repos/datadesk/python-googlegeocoder/git/refs{/sha}",
    "git_tags_url": "https://api.github.com/repos/datadesk/python-googlegeocoder/git/tags{/sha}",
    "git_url": "git://github.com/datadesk/python-googlegeocoder.git",
    "has_downloads": true,
    "has_issues": true,
    "has_wiki": false,
    "homepage": "",
    "hooks_url": "https://api.github.com/repos/datadesk/python-googlegeocoder/hooks",
    "html_url": "https://github.com/datadesk/python-googlegeocoder",
    "id": 2218412,
    "issue_comment_url": "https://api.github.com/repos/datadesk/python-googlegeocoder/issues/comments/{number}",
    "issue_events_url": "https://api.github.com/repos/datadesk/python-googlegeocoder/issues/events{/number}",
    "issues_url": "https://api.github.com/repos/datadesk/python-googlegeocoder/issues{/number}",
    "keys_url": "https://api.github.com/repos/datadesk/python-googlegeocoder/keys{/key_id}",
    "labels_url": "https://api.github.com/repos/datadesk/python-googlegeocoder/labels{/name}",
    "language": "Python",
    "languages_url": "https://api.github.com/repos/datadesk/python-googlegeocoder/languages",
    "merges_url": "https://api.github.com/repos/datadesk/python-googlegeocoder/merges",
    "milestones_url": "https://api.github.com/repos/datadesk/python-googlegeocoder/milestones{/number}",
    "mirror_url": null,
    "name": "python-googlegeocoder",
    "notifications_url": "https://api.github.com/repos/datadesk/python-googlegeocoder/notifications{?since,all,participating}",
    "open_issues": 0,
    "open_issues_count": 0,
    "owner": {
        "avatar_url": "https://avatars.githubusercontent.com/u/320671?",
        "events_url": "https://api.github.com/users/datadesk/events{/privacy}",
        "followers_url": "https://api.github.com/users/datadesk/followers",
        "following_url": "https://api.github.com/users/datadesk/following{/other_user}",
        "gists_url": "https://api.github.com/users/datadesk/gists{/gist_id}",
        "gravatar_id": "df7231a8b641c0c69b48c00fc3aa463d",
        "html_url": "https://github.com/datadesk",
        "id": 320671,
        "login": "datadesk",
        "organizations_url": "https://api.github.com/users/datadesk/orgs",
        "received_events_url": "https://api.github.com/users/datadesk/received_events",
        "repos_url": "https://api.github.com/users/datadesk/repos",
        "site_admin": false,
        "starred_url": "https://api.github.com/users/datadesk/starred{/owner}{/repo}",
        "subscriptions_url": "https://api.github.com/users/datadesk/subscriptions",
        "type": "Organization",
        "url": "https://api.github.com/users/datadesk"
    },
    "private": false,
    "pulls_url": "https://api.github.com/repos/datadesk/python-googlegeocoder/pulls{/number}",
    "pushed_at": "2014-01-27T18:40:31Z",
    "releases_url": "https://api.github.com/repos/datadesk/python-googlegeocoder/releases{/id}",
    "score": 1.0,
    "size": 354,
    "ssh_url": "git@github.com:datadesk/python-googlegeocoder.git",
    "stargazers_count": 60,
    "stargazers_url": "https://api.github.com/repos/datadesk/python-googlegeocoder/stargazers",
    "statuses_url": "https://api.github.com/repos/datadesk/python-googlegeocoder/statuses/{sha}",
    "subscribers_url": "https://api.github.com/repos/datadesk/python-googlegeocoder/subscribers",
    "subscription_url": "https://api.github.com/repos/datadesk/python-googlegeocoder/subscription",
    "svn_url": "https://github.com/datadesk/python-googlegeocoder",
    "tags_url": "https://api.github.com/repos/datadesk/python-googlegeocoder/tags",
    "teams_url": "https://api.github.com/repos/datadesk/python-googlegeocoder/teams",
    "trees_url": "https://api.github.com/repos/datadesk/python-googlegeocoder/git/trees{/sha}",
    "updated_at": "2014-01-27T18:40:32Z",
    "url": "https://api.github.com/repos/datadesk/python-googlegeocoder",
    "watchers": 60,
    "watchers_count": 60
}