{
    "archive_url": "https://api.github.com/repos/simoncadman/CUPS-Cloud-Print/{archive_format}{/ref}",
    "assignees_url": "https://api.github.com/repos/simoncadman/CUPS-Cloud-Print/assignees{/user}",
    "blobs_url": "https://api.github.com/repos/simoncadman/CUPS-Cloud-Print/git/blobs{/sha}",
    "branches_url": "https://api.github.com/repos/simoncadman/CUPS-Cloud-Print/branches{/branch}",
    "clone_url": "https://github.com/simoncadman/CUPS-Cloud-Print.git",
    "collaborators_url": "https://api.github.com/repos/simoncadman/CUPS-Cloud-Print/collaborators{/collaborator}",
    "comments_url": "https://api.github.com/repos/simoncadman/CUPS-Cloud-Print/comments{/number}",
    "commits_url": "https://api.github.com/repos/simoncadman/CUPS-Cloud-Print/commits{/sha}",
    "compare_url": "https://api.github.com/repos/simoncadman/CUPS-Cloud-Print/compare/{base}...{head}",
    "contents_url": "https://api.github.com/repos/simoncadman/CUPS-Cloud-Print/contents/{+path}",
    "contributors_url": "https://api.github.com/repos/simoncadman/CUPS-Cloud-Print/contributors",
    "created_at": "2011-10-02T19:08:26Z",
    "default_branch": "master",
    "description": "Google Cloud Print driver for CUPS, allows printing to printers hosted on Google Cloud Print",
    "downloads_url": "https://api.github.com/repos/simoncadman/CUPS-Cloud-Print/downloads",
    "events_url": "https://api.github.com/repos/simoncadman/CUPS-Cloud-Print/events",
    "fork": false,
    "forks": 6,
    "forks_count": 6,
    "forks_url": "https://api.github.com/repos/simoncadman/CUPS-Cloud-Print/forks",
    "full_name": "simoncadman/CUPS-Cloud-Print",
    "git_commits_url": "https://api.github.com/repos/simoncadman/CUPS-Cloud-Print/git/commits{/sha}",
    "git_refs_url": "https://api.github.com/repos/simoncadman/CUPS-Cloud-Print/git/refs{/sha}",
    "git_tags_url": "https://api.github.com/repos/simoncadman/CUPS-Cloud-Print/git/tags{/sha}",
    "git_url": "git://github.com/simoncadman/CUPS-Cloud-Print.git",
    "has_downloads": true,
    "has_issues": true,
    "has_wiki": true,
    "homepage": "http://ccp.niftiestsoftware.com",
    "hooks_url": "https://api.github.com/repos/simoncadman/CUPS-Cloud-Print/hooks",
    "html_url": "https://github.com/simoncadman/CUPS-Cloud-Print",
    "id": 2500747,
    "issue_comment_url": "https://api.github.com/repos/simoncadman/CUPS-Cloud-Print/issues/comments/{number}",
    "issue_events_url": "https://api.github.com/repos/simoncadman/CUPS-Cloud-Print/issues/events{/number}",
    "issues_url": "https://api.github.com/repos/simoncadman/CUPS-Cloud-Print/issues{/number}",
    "keys_url": "https://api.github.com/repos/simoncadman/CUPS-Cloud-Print/keys{/key_id}",
    "labels_url": "https://api.github.com/repos/simoncadman/CUPS-Cloud-Print/labels{/name}",
    "language": "Python",
    "languages_url": "https://api.github.com/repos/simoncadman/CUPS-Cloud-Print/languages",
    "merges_url": "https://api.github.com/repos/simoncadman/CUPS-Cloud-Print/merges",
    "milestones_url": "https://api.github.com/repos/simoncadman/CUPS-Cloud-Print/milestones{/number}",
    "mirror_url": null,
    "name": "CUPS-Cloud-Print",
    "notifications_url": "https://api.github.com/repos/simoncadman/CUPS-Cloud-Print/notifications{?since,all,participating}",
    "open_issues": 5,
    "open_issues_count": 5,
    "owner": {
        "avatar_url": "https://avatars.githubusercontent.com/u/921157?",
        "events_url": "https://api.github.com/users/simoncadman/events{/privacy}",
        "followers_url": "https://api.github.com/users/simoncadman/followers",
        "following_url": "https://api.github.com/users/simoncadman/following{/other_user}",
        "gists_url": "https://api.github.com/users/simoncadman/gists{/gist_id}",
        "gravatar_id": "2cd39787b9bbabab613c5f620f9e5685",
        "html_url": "https://github.com/simoncadman",
        "id": 921157,
        "login": "simoncadman",
        "organizations_url": "https://api.github.com/users/simoncadman/orgs",
        "received_events_url": "https://api.github.com/users/simoncadman/received_events",
        "repos_url": "https://api.github.com/users/simoncadman/repos",
        "site_admin": false,
        "starred_url": "https://api.github.com/users/simoncadman/starred{/owner}{/repo}",
        "subscriptions_url": "https://api.github.com/users/simoncadman/subscriptions",
        "type": "User",
        "url": "https://api.github.com/users/simoncadman"
    },
    "private": false,
    "pulls_url": "https://api.github.com/repos/simoncadman/CUPS-Cloud-Print/pulls{/number}",
    "pushed_at": "2014-05-05T20:23:16Z",
    "releases_url": "https://api.github.com/repos/simoncadman/CUPS-Cloud-Print/releases{/id}",
    "score": 1.0,
    "size": 6365,
    "ssh_url": "git@github.com:simoncadman/CUPS-Cloud-Print.git",
    "stargazers_count": 71,
    "stargazers_url": "https://api.github.com/repos/simoncadman/CUPS-Cloud-Print/stargazers",
    "statuses_url": "https://api.github.com/repos/simoncadman/CUPS-Cloud-Print/statuses/{sha}",
    "subscribers_url": "https://api.github.com/repos/simoncadman/CUPS-Cloud-Print/subscribers",
    "subscription_url": "https://api.github.com/repos/simoncadman/CUPS-Cloud-Print/subscription",
    "svn_url": "https://github.com/simoncadman/CUPS-Cloud-Print",
    "tags_url": "https://api.github.com/repos/simoncadman/CUPS-Cloud-Print/tags",
    "teams_url": "https://api.github.com/repos/simoncadman/CUPS-Cloud-Print/teams",
    "trees_url": "https://api.github.com/repos/simoncadman/CUPS-Cloud-Print/git/trees{/sha}",
    "updated_at": "2014-05-05T20:23:16Z",
    "url": "https://api.github.com/repos/simoncadman/CUPS-Cloud-Print",
    "watchers": 71,
    "watchers_count": 71
}