[
    "sandbox.rrulewrapper",
    "dateutil.relativedelta",
    "parser",
    "updatezinfo",
    "dateutil.tz",
    "dateutil.rrule",
    "rrule",
    "scheduler",
    "tzwin",
    "dateutil.tzwin",
    "dateutil",
    "tz",
    "relativedelta",
    "dateutil.parser",
    "sandbox",
    "rrulewrapper",
    "dateutil.easter",
    "test",
    "sandbox.scheduler",
    "easter",
    "example"
]