[
    "figures.distance",
    "demos.superpixels",
    "tests.test_majority",
    "mahotas",
    "colors",
    "tests.test_freeimage",
    "mahotas.internal",
    "tests.test_demos",
    "morphology",
    "mahotas.interpolate",
    "tests.test_close_holes",
    "mahotas.demos.wally",
    "_filters",
    "test_moments",
    "tests.test_label",
    "io.matplotlibwrap",
    "mahotas.tests.pymorph_copy",
    "texture",
    "mahotas_version",
    "mahotas.tests.test_morph",
    "features.tas",
    "test_surf",
    "mahotas.io",
    "mahotas.demos.nuclear_distance_watershed",
    "test_center_of_mass",
    "wavelet_compress",
    "docs.source.figures.distance",
    "mahotas.stretch",
    "mahotas.thresholding",
    "source.figures.distance",
    "tests.test_edge",
    "convolve",
    "test_convolve",
    "mahotas.distance",
    "mahotas.demos",
    "mahotas.tests.test_colors",
    "freeimage",
    "features.zernike",
    "tests.test_template_match",
    "mahotas.features.tas",
    "mahotas.tests.test_io",
    "demos.surf_gaussians",
    "nuclear_distance_watershed",
    "tests.test_interpolate",
    "tests.test_citation",
    "mahotas.features.zernike",
    "nuclear",
    "docs.source.conf",
    "mahotas.tests.test_imresize",
    "mahotas.tests.test_bbox",
    "tests.test_gvoronoi",
    "segmentation",
    "test_find",
    "bwperim",
    "mahotas.lbp",
    "interpolate",
    "mahotas.tests.test_internal",
    "mahotas.tests.test_stretch",
    "tests.test_euler",
    "test_bbox",
    "test_imresize",
    "test_freeimage",
    "mahotas.tests.test_mean_filter",
    "test_internal",
    "mahotas.tests.test_citation",
    "figures",
    "mahotas.tests.test_polygon",
    "mahotas.bbox",
    "test_features_shape",
    "test_texture",
    "mahotas.convolve",
    "test_demos",
    "mahotas.demos.distance",
    "mahotas._filters",
    "test_median_filter",
    "features.shape",
    "test_watershed",
    "stretch",
    "features.texture",
    "test_euler",
    "mahotas.tests.test_template_match",
    "test_labeled",
    "tests.test_watershed",
    "mahotas.tests.test_zernike",
    "mahotas.tests.test_filters",
    "test_dilate_erode",
    "demos.morphology",
    "source.conf",
    "mahotas.surf",
    "features.moments",
    "tests.test_tas",
    "resize",
    "mahotas.demos.morphology",
    "test_bwperim",
    "tests.test_moments",
    "labeled",
    "thin",
    "features.lbp",
    "tests.test_median_filter",
    "io",
    "tas",
    "utils",
    "thresholding",
    "test_majority",
    "docs.source.figures",
    "demos",
    "mahotas.mahotas_version",
    "conf",
    "tests.test_colors",
    "mahotas.demos.wavelet_compress",
    "test_filters",
    "test_gvoronoi",
    "mahotas.tests.test_moments",
    "mahotas.bwperim",
    "test_distance",
    "test_thresholding",
    "demos.distance",
    "tests.test_thin",
    "tests.test_polygon",
    "mahotas.freeimage",
    "tests.test_convolve",
    "mahotas.io.matplotlibwrap",
    "mahotas.demos.thresholding",
    "mahotas.moments",
    "mahotas.histogram",
    "mahotas.tests.test_surf_regression",
    "tests.test_labeled",
    "test_zernike",
    "mahotas.tests.test_hitmiss",
    "demos.wally",
    "demos.nuclear",
    "tests.test_zernike",
    "mahotas.tests.test_dilate_erode",
    "mahotas.zernike",
    "mahotas.features.moments",
    "edge",
    "tests.test_bbox",
    "tests.test_center_of_mass",
    "test_tas",
    "mahotas.tests.test_texture",
    "mahotas.labeled",
    "moments",
    "tests.test_morph",
    "tests.test_find",
    "shape",
    "mahotas.demos.superpixels",
    "test_hitmiss",
    "mahotas.tests.test_thin",
    "io.freeimage",
    "mahotas.tests.test_freeimage",
    "test_histogram",
    "mahotas.tests.test_center_of_mass",
    "mahotas.edge",
    "mahotas.polygon",
    "source",
    "test_mahotas",
    "mahotas.tests.test_median_filter",
    "test_citation",
    "euler",
    "surf_gaussians",
    "mahotas.tests.test_lbp",
    "tests",
    "tests.test_imresize",
    "docs",
    "mahotas.io.freeimage",
    "features.surf",
    "bbox",
    "wally",
    "mahotas.tests.test_features_shape",
    "tests.test_mean_filter",
    "mahotas.demos.surf_luispedro",
    "mahotas.tests.test_convolve",
    "mahotas.tests.test_find",
    "tests.test_segmentation",
    "test_colors",
    "tests.test_filters",
    "tests.pymorph_copy",
    "tests.test_dilate_erode",
    "mahotas.tests.utils",
    "mahotas.segmentation",
    "mahotas.euler",
    "tests.test_surf",
    "test_segmentation",
    "demos.surf_luispedro",
    "test_mean_filter",
    "surf_luispedro",
    "tests.utils",
    "tests.test_internal",
    "tests.test_bwperim",
    "test_stretch",
    "tests.test_thresholding",
    "mahotas.tas",
    "test_surf_regression",
    "test_morph",
    "superpixels",
    "mahotas.tests.test_labeled",
    "mahotas.tests.test_gvoronoi",
    "demos.nuclear_distance_watershed",
    "mahotas.tests.test_label",
    "demos.thresholding",
    "mahotas.demos.nuclear",
    "mahotas.tests.test_edge",
    "test_thin",
    "test_interpolate",
    "features",
    "mahotas.texture",
    "mahotas.tests.test_mahotas",
    "mahotas.colors",
    "mahotas.tests.test_thresholding",
    "mahotas.center_of_mass",
    "mahotas.tests.test_majority",
    "mahotas.morph",
    "center_of_mass",
    "mahotas.tests.test_watershed",
    "tests.test_texture",
    "mahotas.features.surf",
    "mahotas.thin",
    "histogram",
    "test_io",
    "tests.test_lbp",
    "mahotas.tests.test_surf",
    "mahotas.resize",
    "mahotas.tests",
    "tests.test_features_shape",
    "distance",
    "morph",
    "tests.test_mahotas",
    "demos.wavelet_compress",
    "tests.test_io",
    "mahotas.tests.test_close_holes",
    "tests.test_distance",
    "lbp",
    "matplotlibwrap",
    "source.figures",
    "mahotas.features.lbp",
    "test_edge",
    "test_lbp",
    "mahotas.tests.test_bwperim",
    "docs.source",
    "mahotas.tests.test_interpolate",
    "polygon",
    "mahotas.tests.test_tas",
    "test_close_holes",
    "tests.test_histogram",
    "zernike",
    "internal",
    "test_label",
    "mahotas.features.texture",
    "surf",
    "mahotas.tests.test_demos",
    "mahotas.features",
    "pymorph_copy",
    "mahotas.features.shape",
    "mahotas.tests.test_segmentation",
    "test_template_match",
    "tests.test_surf_regression",
    "mahotas.tests.test_euler",
    "tests.test_stretch",
    "tests.test_hitmiss",
    "mahotas.demos.surf_gaussians",
    "mahotas.tests.test_histogram",
    "mahotas.tests.test_distance",
    "test_polygon"
]