{
    "archive_url": "https://api.github.com/repos/crosspop/okydoky/{archive_format}{/ref}",
    "assignees_url": "https://api.github.com/repos/crosspop/okydoky/assignees{/user}",
    "blobs_url": "https://api.github.com/repos/crosspop/okydoky/git/blobs{/sha}",
    "branches_url": "https://api.github.com/repos/crosspop/okydoky/branches{/branch}",
    "clone_url": "https://github.com/crosspop/okydoky.git",
    "collaborators_url": "https://api.github.com/repos/crosspop/okydoky/collaborators{/collaborator}",
    "comments_url": "https://api.github.com/repos/crosspop/okydoky/comments{/number}",
    "commits_url": "https://api.github.com/repos/crosspop/okydoky/commits{/sha}",
    "compare_url": "https://api.github.com/repos/crosspop/okydoky/compare/{base}...{head}",
    "contents_url": "https://api.github.com/repos/crosspop/okydoky/contents/{+path}",
    "contributors_url": "https://api.github.com/repos/crosspop/okydoky/contributors",
    "created_at": "2012-07-15T19:19:14Z",
    "default_branch": "master",
    "description": "Automated docs builder using Sphinx/GitHub/Distribute for use with private projects.",
    "downloads_url": "https://api.github.com/repos/crosspop/okydoky/downloads",
    "events_url": "https://api.github.com/repos/crosspop/okydoky/events",
    "fork": false,
    "forks": 4,
    "forks_count": 4,
    "forks_url": "https://api.github.com/repos/crosspop/okydoky/forks",
    "full_name": "crosspop/okydoky",
    "git_commits_url": "https://api.github.com/repos/crosspop/okydoky/git/commits{/sha}",
    "git_refs_url": "https://api.github.com/repos/crosspop/okydoky/git/refs{/sha}",
    "git_tags_url": "https://api.github.com/repos/crosspop/okydoky/git/tags{/sha}",
    "git_url": "git://github.com/crosspop/okydoky.git",
    "has_downloads": true,
    "has_issues": true,
    "has_wiki": false,
    "homepage": "http://pypi.python.org/pypi/Okydoky",
    "hooks_url": "https://api.github.com/repos/crosspop/okydoky/hooks",
    "html_url": "https://github.com/crosspop/okydoky",
    "id": 5059167,
    "issue_comment_url": "https://api.github.com/repos/crosspop/okydoky/issues/comments/{number}",
    "issue_events_url": "https://api.github.com/repos/crosspop/okydoky/issues/events{/number}",
    "issues_url": "https://api.github.com/repos/crosspop/okydoky/issues{/number}",
    "keys_url": "https://api.github.com/repos/crosspop/okydoky/keys{/key_id}",
    "labels_url": "https://api.github.com/repos/crosspop/okydoky/labels{/name}",
    "language": "Python",
    "languages_url": "https://api.github.com/repos/crosspop/okydoky/languages",
    "merges_url": "https://api.github.com/repos/crosspop/okydoky/merges",
    "milestones_url": "https://api.github.com/repos/crosspop/okydoky/milestones{/number}",
    "mirror_url": null,
    "name": "okydoky",
    "notifications_url": "https://api.github.com/repos/crosspop/okydoky/notifications{?since,all,participating}",
    "open_issues": 2,
    "open_issues_count": 2,
    "owner": {
        "avatar_url": "https://avatars.githubusercontent.com/u/1967534?",
        "events_url": "https://api.github.com/users/crosspop/events{/privacy}",
        "followers_url": "https://api.github.com/users/crosspop/followers",
        "following_url": "https://api.github.com/users/crosspop/following{/other_user}",
        "gists_url": "https://api.github.com/users/crosspop/gists{/gist_id}",
        "gravatar_id": "3c4ce78c7ab4a37aea48e6117dfe6b2d",
        "html_url": "https://github.com/crosspop",
        "id": 1967534,
        "login": "crosspop",
        "organizations_url": "https://api.github.com/users/crosspop/orgs",
        "received_events_url": "https://api.github.com/users/crosspop/received_events",
        "repos_url": "https://api.github.com/users/crosspop/repos",
        "site_admin": false,
        "starred_url": "https://api.github.com/users/crosspop/starred{/owner}{/repo}",
        "subscriptions_url": "https://api.github.com/users/crosspop/subscriptions",
        "type": "Organization",
        "url": "https://api.github.com/users/crosspop"
    },
    "private": false,
    "pulls_url": "https://api.github.com/repos/crosspop/okydoky/pulls{/number}",
    "pushed_at": "2013-10-18T06:18:12Z",
    "releases_url": "https://api.github.com/repos/crosspop/okydoky/releases{/id}",
    "score": 1.0,
    "size": 170,
    "ssh_url": "git@github.com:crosspop/okydoky.git",
    "stargazers_count": 58,
    "stargazers_url": "https://api.github.com/repos/crosspop/okydoky/stargazers",
    "statuses_url": "https://api.github.com/repos/crosspop/okydoky/statuses/{sha}",
    "subscribers_url": "https://api.github.com/repos/crosspop/okydoky/subscribers",
    "subscription_url": "https://api.github.com/repos/crosspop/okydoky/subscription",
    "svn_url": "https://github.com/crosspop/okydoky",
    "tags_url": "https://api.github.com/repos/crosspop/okydoky/tags",
    "teams_url": "https://api.github.com/repos/crosspop/okydoky/teams",
    "trees_url": "https://api.github.com/repos/crosspop/okydoky/git/trees{/sha}",
    "updated_at": "2013-12-30T05:55:52Z",
    "url": "https://api.github.com/repos/crosspop/okydoky",
    "watchers": 58,
    "watchers_count": 58
}