{
    "archive_url": "https://api.github.com/repos/maxklein/AppSalesGraph/{archive_format}{/ref}",
    "assignees_url": "https://api.github.com/repos/maxklein/AppSalesGraph/assignees{/user}",
    "blobs_url": "https://api.github.com/repos/maxklein/AppSalesGraph/git/blobs{/sha}",
    "branches_url": "https://api.github.com/repos/maxklein/AppSalesGraph/branches{/branch}",
    "clone_url": "https://github.com/maxklein/AppSalesGraph.git",
    "collaborators_url": "https://api.github.com/repos/maxklein/AppSalesGraph/collaborators{/collaborator}",
    "comments_url": "https://api.github.com/repos/maxklein/AppSalesGraph/comments{/number}",
    "commits_url": "https://api.github.com/repos/maxklein/AppSalesGraph/commits{/sha}",
    "compare_url": "https://api.github.com/repos/maxklein/AppSalesGraph/compare/{base}...{head}",
    "contents_url": "https://api.github.com/repos/maxklein/AppSalesGraph/contents/{+path}",
    "contributors_url": "https://api.github.com/repos/maxklein/AppSalesGraph/contributors",
    "created_at": "2010-01-22T18:17:29Z",
    "default_branch": "master",
    "description": "Graph App Store Sales. Download pre-compiled binaries at website.",
    "downloads_url": "https://api.github.com/repos/maxklein/AppSalesGraph/downloads",
    "events_url": "https://api.github.com/repos/maxklein/AppSalesGraph/events",
    "fork": false,
    "forks": 3,
    "forks_count": 3,
    "forks_url": "https://api.github.com/repos/maxklein/AppSalesGraph/forks",
    "full_name": "maxklein/AppSalesGraph",
    "git_commits_url": "https://api.github.com/repos/maxklein/AppSalesGraph/git/commits{/sha}",
    "git_refs_url": "https://api.github.com/repos/maxklein/AppSalesGraph/git/refs{/sha}",
    "git_tags_url": "https://api.github.com/repos/maxklein/AppSalesGraph/git/tags{/sha}",
    "git_url": "git://github.com/maxklein/AppSalesGraph.git",
    "has_downloads": true,
    "has_issues": true,
    "has_wiki": true,
    "homepage": "http://www.cubeofm.com/salesgraph/",
    "hooks_url": "https://api.github.com/repos/maxklein/AppSalesGraph/hooks",
    "html_url": "https://github.com/maxklein/AppSalesGraph",
    "id": 484154,
    "issue_comment_url": "https://api.github.com/repos/maxklein/AppSalesGraph/issues/comments/{number}",
    "issue_events_url": "https://api.github.com/repos/maxklein/AppSalesGraph/issues/events{/number}",
    "issues_url": "https://api.github.com/repos/maxklein/AppSalesGraph/issues{/number}",
    "keys_url": "https://api.github.com/repos/maxklein/AppSalesGraph/keys{/key_id}",
    "labels_url": "https://api.github.com/repos/maxklein/AppSalesGraph/labels{/name}",
    "language": "Python",
    "languages_url": "https://api.github.com/repos/maxklein/AppSalesGraph/languages",
    "merges_url": "https://api.github.com/repos/maxklein/AppSalesGraph/merges",
    "milestones_url": "https://api.github.com/repos/maxklein/AppSalesGraph/milestones{/number}",
    "mirror_url": null,
    "name": "AppSalesGraph",
    "notifications_url": "https://api.github.com/repos/maxklein/AppSalesGraph/notifications{?since,all,participating}",
    "open_issues": 0,
    "open_issues_count": 0,
    "owner": {
        "avatar_url": "https://avatars.githubusercontent.com/u/187847?",
        "events_url": "https://api.github.com/users/maxklein/events{/privacy}",
        "followers_url": "https://api.github.com/users/maxklein/followers",
        "following_url": "https://api.github.com/users/maxklein/following{/other_user}",
        "gists_url": "https://api.github.com/users/maxklein/gists{/gist_id}",
        "gravatar_id": "7daff241dfaa27548cc971e45d5fef99",
        "html_url": "https://github.com/maxklein",
        "id": 187847,
        "login": "maxklein",
        "organizations_url": "https://api.github.com/users/maxklein/orgs",
        "received_events_url": "https://api.github.com/users/maxklein/received_events",
        "repos_url": "https://api.github.com/users/maxklein/repos",
        "site_admin": false,
        "starred_url": "https://api.github.com/users/maxklein/starred{/owner}{/repo}",
        "subscriptions_url": "https://api.github.com/users/maxklein/subscriptions",
        "type": "User",
        "url": "https://api.github.com/users/maxklein"
    },
    "private": false,
    "pulls_url": "https://api.github.com/repos/maxklein/AppSalesGraph/pulls{/number}",
    "pushed_at": "2010-02-15T18:23:39Z",
    "releases_url": "https://api.github.com/repos/maxklein/AppSalesGraph/releases{/id}",
    "score": 1.0,
    "size": 1152,
    "ssh_url": "git@github.com:maxklein/AppSalesGraph.git",
    "stargazers_count": 40,
    "stargazers_url": "https://api.github.com/repos/maxklein/AppSalesGraph/stargazers",
    "statuses_url": "https://api.github.com/repos/maxklein/AppSalesGraph/statuses/{sha}",
    "subscribers_url": "https://api.github.com/repos/maxklein/AppSalesGraph/subscribers",
    "subscription_url": "https://api.github.com/repos/maxklein/AppSalesGraph/subscription",
    "svn_url": "https://github.com/maxklein/AppSalesGraph",
    "tags_url": "https://api.github.com/repos/maxklein/AppSalesGraph/tags",
    "teams_url": "https://api.github.com/repos/maxklein/AppSalesGraph/teams",
    "trees_url": "https://api.github.com/repos/maxklein/AppSalesGraph/git/trees{/sha}",
    "updated_at": "2013-10-28T13:23:39Z",
    "url": "https://api.github.com/repos/maxklein/AppSalesGraph",
    "watchers": 40,
    "watchers_count": 40
}