{
    "libs": [
        "division",
        "posixpath",
        "BeautifulSoup",
        "urllib",
        "sys",
        "re",
        "HTMLParser",
        "urlparse",
        "chardet",
        "os",
        "math"
    ]
}