{
    "libs": [
        "markdown",
        "unittest",
        "random",
        "with_statement",
        "datetime",
        "validators",
        "selenium",
        "re",
        "json",
        "itsdangerous",
        "functools",
        "sqlalchemy",
        "fixers",
        "sys",
        "coverage",
        "bleach",
        "fl",
        "b",
        "logging",
        "exc",
        "forgery_py",
        "handlers",
        "h",
        "profiler",
        "threading",
        "wtforms",
        "time",
        "security",
        "os",
        "alembic"
    ]
}