{
    "libs": [
        "operations",
        "functools",
        "datetime",
        "api",
        "contrib",
        "copy",
        "posixpath",
        "pprint",
        "json",
        "state",
        "getp",
        "decorators",
        "unittest",
        "files",
        "urllib2",
        "dat",
        "deployment",
        "subprocess",
        "ConfigParser",
        "sys",
        "b",
        "StringIO",
        "t",
        "context",
        "requests",
        "os"
    ]
}