{
    "archive_url": "https://api.github.com/repos/aiti-ghana-2012/django-blog-project/{archive_format}{/ref}",
    "assignees_url": "https://api.github.com/repos/aiti-ghana-2012/django-blog-project/assignees{/user}",
    "blobs_url": "https://api.github.com/repos/aiti-ghana-2012/django-blog-project/git/blobs{/sha}",
    "branches_url": "https://api.github.com/repos/aiti-ghana-2012/django-blog-project/branches{/branch}",
    "clone_url": "https://github.com/aiti-ghana-2012/django-blog-project.git",
    "collaborators_url": "https://api.github.com/repos/aiti-ghana-2012/django-blog-project/collaborators{/collaborator}",
    "comments_url": "https://api.github.com/repos/aiti-ghana-2012/django-blog-project/comments{/number}",
    "commits_url": "https://api.github.com/repos/aiti-ghana-2012/django-blog-project/commits{/sha}",
    "compare_url": "https://api.github.com/repos/aiti-ghana-2012/django-blog-project/compare/{base}...{head}",
    "contents_url": "https://api.github.com/repos/aiti-ghana-2012/django-blog-project/contents/{+path}",
    "contributors_url": "https://api.github.com/repos/aiti-ghana-2012/django-blog-project/contributors",
    "created_at": "2012-07-05T09:48:30Z",
    "default_branch": "master",
    "description": "The Instructor Repo for the Django Blog Project",
    "downloads_url": "https://api.github.com/repos/aiti-ghana-2012/django-blog-project/downloads",
    "events_url": "https://api.github.com/repos/aiti-ghana-2012/django-blog-project/events",
    "fork": false,
    "forks": 47,
    "forks_count": 47,
    "forks_url": "https://api.github.com/repos/aiti-ghana-2012/django-blog-project/forks",
    "full_name": "aiti-ghana-2012/django-blog-project",
    "git_commits_url": "https://api.github.com/repos/aiti-ghana-2012/django-blog-project/git/commits{/sha}",
    "git_refs_url": "https://api.github.com/repos/aiti-ghana-2012/django-blog-project/git/refs{/sha}",
    "git_tags_url": "https://api.github.com/repos/aiti-ghana-2012/django-blog-project/git/tags{/sha}",
    "git_url": "git://github.com/aiti-ghana-2012/django-blog-project.git",
    "has_downloads": true,
    "has_issues": true,
    "has_wiki": true,
    "homepage": null,
    "hooks_url": "https://api.github.com/repos/aiti-ghana-2012/django-blog-project/hooks",
    "html_url": "https://github.com/aiti-ghana-2012/django-blog-project",
    "id": 4902993,
    "issue_comment_url": "https://api.github.com/repos/aiti-ghana-2012/django-blog-project/issues/comments/{number}",
    "issue_events_url": "https://api.github.com/repos/aiti-ghana-2012/django-blog-project/issues/events{/number}",
    "issues_url": "https://api.github.com/repos/aiti-ghana-2012/django-blog-project/issues{/number}",
    "keys_url": "https://api.github.com/repos/aiti-ghana-2012/django-blog-project/keys{/key_id}",
    "labels_url": "https://api.github.com/repos/aiti-ghana-2012/django-blog-project/labels{/name}",
    "language": "Python",
    "languages_url": "https://api.github.com/repos/aiti-ghana-2012/django-blog-project/languages",
    "merges_url": "https://api.github.com/repos/aiti-ghana-2012/django-blog-project/merges",
    "milestones_url": "https://api.github.com/repos/aiti-ghana-2012/django-blog-project/milestones{/number}",
    "mirror_url": null,
    "name": "django-blog-project",
    "notifications_url": "https://api.github.com/repos/aiti-ghana-2012/django-blog-project/notifications{?since,all,participating}",
    "open_issues": 0,
    "open_issues_count": 0,
    "owner": {
        "avatar_url": "https://avatars.githubusercontent.com/u/1863294?",
        "events_url": "https://api.github.com/users/aiti-ghana-2012/events{/privacy}",
        "followers_url": "https://api.github.com/users/aiti-ghana-2012/followers",
        "following_url": "https://api.github.com/users/aiti-ghana-2012/following{/other_user}",
        "gists_url": "https://api.github.com/users/aiti-ghana-2012/gists{/gist_id}",
        "gravatar_id": "7b57173e3cb230a8481797576d739d64",
        "html_url": "https://github.com/aiti-ghana-2012",
        "id": 1863294,
        "login": "aiti-ghana-2012",
        "organizations_url": "https://api.github.com/users/aiti-ghana-2012/orgs",
        "received_events_url": "https://api.github.com/users/aiti-ghana-2012/received_events",
        "repos_url": "https://api.github.com/users/aiti-ghana-2012/repos",
        "site_admin": false,
        "starred_url": "https://api.github.com/users/aiti-ghana-2012/starred{/owner}{/repo}",
        "subscriptions_url": "https://api.github.com/users/aiti-ghana-2012/subscriptions",
        "type": "Organization",
        "url": "https://api.github.com/users/aiti-ghana-2012"
    },
    "private": false,
    "pulls_url": "https://api.github.com/repos/aiti-ghana-2012/django-blog-project/pulls{/number}",
    "pushed_at": "2012-07-13T16:00:06Z",
    "releases_url": "https://api.github.com/repos/aiti-ghana-2012/django-blog-project/releases{/id}",
    "score": 1.0,
    "size": 1968,
    "ssh_url": "git@github.com:aiti-ghana-2012/django-blog-project.git",
    "stargazers_count": 42,
    "stargazers_url": "https://api.github.com/repos/aiti-ghana-2012/django-blog-project/stargazers",
    "statuses_url": "https://api.github.com/repos/aiti-ghana-2012/django-blog-project/statuses/{sha}",
    "subscribers_url": "https://api.github.com/repos/aiti-ghana-2012/django-blog-project/subscribers",
    "subscription_url": "https://api.github.com/repos/aiti-ghana-2012/django-blog-project/subscription",
    "svn_url": "https://github.com/aiti-ghana-2012/django-blog-project",
    "tags_url": "https://api.github.com/repos/aiti-ghana-2012/django-blog-project/tags",
    "teams_url": "https://api.github.com/repos/aiti-ghana-2012/django-blog-project/teams",
    "trees_url": "https://api.github.com/repos/aiti-ghana-2012/django-blog-project/git/trees{/sha}",
    "updated_at": "2013-12-30T06:57:48Z",
    "url": "https://api.github.com/repos/aiti-ghana-2012/django-blog-project",
    "watchers": 42,
    "watchers_count": 42
}