{
    "libs": [
        "unittest",
        "subprocess",
        "paramiko",
        "platform",
        "tempfile",
        "urllib",
        "re",
        "json",
        "collections",
        "csv",
        "division",
        "urllib2",
        "sys",
        "ConfigParser",
        "logging",
        "socket",
        "handlers",
        "signal",
        "StringIO",
        "wessex",
        "urlparse",
        "threading",
        "time",
        "requests",
        "os",
        "multiprocessing"
    ]
}