{
    "archive_url": "https://api.github.com/repos/samuraisam/django-json-rpc/{archive_format}{/ref}",
    "assignees_url": "https://api.github.com/repos/samuraisam/django-json-rpc/assignees{/user}",
    "blobs_url": "https://api.github.com/repos/samuraisam/django-json-rpc/git/blobs{/sha}",
    "branches_url": "https://api.github.com/repos/samuraisam/django-json-rpc/branches{/branch}",
    "clone_url": "https://github.com/samuraisam/django-json-rpc.git",
    "collaborators_url": "https://api.github.com/repos/samuraisam/django-json-rpc/collaborators{/collaborator}",
    "comments_url": "https://api.github.com/repos/samuraisam/django-json-rpc/comments{/number}",
    "commits_url": "https://api.github.com/repos/samuraisam/django-json-rpc/commits{/sha}",
    "compare_url": "https://api.github.com/repos/samuraisam/django-json-rpc/compare/{base}...{head}",
    "contents_url": "https://api.github.com/repos/samuraisam/django-json-rpc/contents/{+path}",
    "contributors_url": "https://api.github.com/repos/samuraisam/django-json-rpc/contributors",
    "created_at": "2009-07-03T20:08:07Z",
    "default_branch": "master",
    "description": "JSON-RPC Implementation for Django",
    "downloads_url": "https://api.github.com/repos/samuraisam/django-json-rpc/downloads",
    "events_url": "https://api.github.com/repos/samuraisam/django-json-rpc/events",
    "fork": false,
    "forks": 48,
    "forks_count": 48,
    "forks_url": "https://api.github.com/repos/samuraisam/django-json-rpc/forks",
    "full_name": "samuraisam/django-json-rpc",
    "git_commits_url": "https://api.github.com/repos/samuraisam/django-json-rpc/git/commits{/sha}",
    "git_refs_url": "https://api.github.com/repos/samuraisam/django-json-rpc/git/refs{/sha}",
    "git_tags_url": "https://api.github.com/repos/samuraisam/django-json-rpc/git/tags{/sha}",
    "git_url": "git://github.com/samuraisam/django-json-rpc.git",
    "has_downloads": true,
    "has_issues": true,
    "has_wiki": true,
    "homepage": "",
    "hooks_url": "https://api.github.com/repos/samuraisam/django-json-rpc/hooks",
    "html_url": "https://github.com/samuraisam/django-json-rpc",
    "id": 242732,
    "issue_comment_url": "https://api.github.com/repos/samuraisam/django-json-rpc/issues/comments/{number}",
    "issue_events_url": "https://api.github.com/repos/samuraisam/django-json-rpc/issues/events{/number}",
    "issues_url": "https://api.github.com/repos/samuraisam/django-json-rpc/issues{/number}",
    "keys_url": "https://api.github.com/repos/samuraisam/django-json-rpc/keys{/key_id}",
    "labels_url": "https://api.github.com/repos/samuraisam/django-json-rpc/labels{/name}",
    "language": "Python",
    "languages_url": "https://api.github.com/repos/samuraisam/django-json-rpc/languages",
    "merges_url": "https://api.github.com/repos/samuraisam/django-json-rpc/merges",
    "milestones_url": "https://api.github.com/repos/samuraisam/django-json-rpc/milestones{/number}",
    "mirror_url": null,
    "name": "django-json-rpc",
    "notifications_url": "https://api.github.com/repos/samuraisam/django-json-rpc/notifications{?since,all,participating}",
    "open_issues": 20,
    "open_issues_count": 20,
    "owner": {
        "avatar_url": "https://avatars.githubusercontent.com/u/101497?",
        "events_url": "https://api.github.com/users/samuraisam/events{/privacy}",
        "followers_url": "https://api.github.com/users/samuraisam/followers",
        "following_url": "https://api.github.com/users/samuraisam/following{/other_user}",
        "gists_url": "https://api.github.com/users/samuraisam/gists{/gist_id}",
        "gravatar_id": "f766d80d03cf1d735c9bf8a1eb875d7c",
        "html_url": "https://github.com/samuraisam",
        "id": 101497,
        "login": "samuraisam",
        "organizations_url": "https://api.github.com/users/samuraisam/orgs",
        "received_events_url": "https://api.github.com/users/samuraisam/received_events",
        "repos_url": "https://api.github.com/users/samuraisam/repos",
        "site_admin": false,
        "starred_url": "https://api.github.com/users/samuraisam/starred{/owner}{/repo}",
        "subscriptions_url": "https://api.github.com/users/samuraisam/subscriptions",
        "type": "User",
        "url": "https://api.github.com/users/samuraisam"
    },
    "private": false,
    "pulls_url": "https://api.github.com/repos/samuraisam/django-json-rpc/pulls{/number}",
    "pushed_at": "2013-03-21T15:46:42Z",
    "releases_url": "https://api.github.com/repos/samuraisam/django-json-rpc/releases{/id}",
    "score": 1.0,
    "size": 291,
    "ssh_url": "git@github.com:samuraisam/django-json-rpc.git",
    "stargazers_count": 151,
    "stargazers_url": "https://api.github.com/repos/samuraisam/django-json-rpc/stargazers",
    "statuses_url": "https://api.github.com/repos/samuraisam/django-json-rpc/statuses/{sha}",
    "subscribers_url": "https://api.github.com/repos/samuraisam/django-json-rpc/subscribers",
    "subscription_url": "https://api.github.com/repos/samuraisam/django-json-rpc/subscription",
    "svn_url": "https://github.com/samuraisam/django-json-rpc",
    "tags_url": "https://api.github.com/repos/samuraisam/django-json-rpc/tags",
    "teams_url": "https://api.github.com/repos/samuraisam/django-json-rpc/teams",
    "trees_url": "https://api.github.com/repos/samuraisam/django-json-rpc/git/trees{/sha}",
    "updated_at": "2014-04-26T13:59:38Z",
    "url": "https://api.github.com/repos/samuraisam/django-json-rpc",
    "watchers": 151,
    "watchers_count": 151
}