[
    "test.test",
    "jsonrpc.proxy",
    "jsonrpc._json",
    "jsonrpc.site",
    "jsonrpc.exceptions",
    "jsonrpc.views",
    "site",
    "test",
    "proxy",
    "subprocess_",
    "types",
    "jsonrpc.types",
    "jsonrpc",
    "test.jsontesturls",
    "views",
    "_json",
    "jsonrpc.mochikit",
    "jsontesturls",
    "mochikit",
    "exceptions",
    "test.subprocess_"
]