{
    "archive_url": "https://api.github.com/repos/mikeboers/PyHAML/{archive_format}{/ref}",
    "assignees_url": "https://api.github.com/repos/mikeboers/PyHAML/assignees{/user}",
    "blobs_url": "https://api.github.com/repos/mikeboers/PyHAML/git/blobs{/sha}",
    "branches_url": "https://api.github.com/repos/mikeboers/PyHAML/branches{/branch}",
    "clone_url": "https://github.com/mikeboers/PyHAML.git",
    "collaborators_url": "https://api.github.com/repos/mikeboers/PyHAML/collaborators{/collaborator}",
    "comments_url": "https://api.github.com/repos/mikeboers/PyHAML/comments{/number}",
    "commits_url": "https://api.github.com/repos/mikeboers/PyHAML/commits{/sha}",
    "compare_url": "https://api.github.com/repos/mikeboers/PyHAML/compare/{base}...{head}",
    "contents_url": "https://api.github.com/repos/mikeboers/PyHAML/contents/{+path}",
    "contributors_url": "https://api.github.com/repos/mikeboers/PyHAML/contributors",
    "created_at": "2010-07-05T14:14:24Z",
    "default_branch": "master",
    "description": "Pythonic implementation of HAML, cross compiling to Mako template syntax.",
    "downloads_url": "https://api.github.com/repos/mikeboers/PyHAML/downloads",
    "events_url": "https://api.github.com/repos/mikeboers/PyHAML/events",
    "fork": false,
    "forks": 7,
    "forks_count": 7,
    "forks_url": "https://api.github.com/repos/mikeboers/PyHAML/forks",
    "full_name": "mikeboers/PyHAML",
    "git_commits_url": "https://api.github.com/repos/mikeboers/PyHAML/git/commits{/sha}",
    "git_refs_url": "https://api.github.com/repos/mikeboers/PyHAML/git/refs{/sha}",
    "git_tags_url": "https://api.github.com/repos/mikeboers/PyHAML/git/tags{/sha}",
    "git_url": "git://github.com/mikeboers/PyHAML.git",
    "has_downloads": true,
    "has_issues": true,
    "has_wiki": true,
    "homepage": "",
    "hooks_url": "https://api.github.com/repos/mikeboers/PyHAML/hooks",
    "html_url": "https://github.com/mikeboers/PyHAML",
    "id": 757836,
    "issue_comment_url": "https://api.github.com/repos/mikeboers/PyHAML/issues/comments/{number}",
    "issue_events_url": "https://api.github.com/repos/mikeboers/PyHAML/issues/events{/number}",
    "issues_url": "https://api.github.com/repos/mikeboers/PyHAML/issues{/number}",
    "keys_url": "https://api.github.com/repos/mikeboers/PyHAML/keys{/key_id}",
    "labels_url": "https://api.github.com/repos/mikeboers/PyHAML/labels{/name}",
    "language": "Python",
    "languages_url": "https://api.github.com/repos/mikeboers/PyHAML/languages",
    "merges_url": "https://api.github.com/repos/mikeboers/PyHAML/merges",
    "milestones_url": "https://api.github.com/repos/mikeboers/PyHAML/milestones{/number}",
    "mirror_url": null,
    "name": "PyHAML",
    "notifications_url": "https://api.github.com/repos/mikeboers/PyHAML/notifications{?since,all,participating}",
    "open_issues": 2,
    "open_issues_count": 2,
    "owner": {
        "avatar_url": "https://avatars.githubusercontent.com/u/130470?",
        "events_url": "https://api.github.com/users/mikeboers/events{/privacy}",
        "followers_url": "https://api.github.com/users/mikeboers/followers",
        "following_url": "https://api.github.com/users/mikeboers/following{/other_user}",
        "gists_url": "https://api.github.com/users/mikeboers/gists{/gist_id}",
        "gravatar_id": "d39f90d3e3305d319b40c518ad6249d0",
        "html_url": "https://github.com/mikeboers",
        "id": 130470,
        "login": "mikeboers",
        "organizations_url": "https://api.github.com/users/mikeboers/orgs",
        "received_events_url": "https://api.github.com/users/mikeboers/received_events",
        "repos_url": "https://api.github.com/users/mikeboers/repos",
        "site_admin": false,
        "starred_url": "https://api.github.com/users/mikeboers/starred{/owner}{/repo}",
        "subscriptions_url": "https://api.github.com/users/mikeboers/subscriptions",
        "type": "User",
        "url": "https://api.github.com/users/mikeboers"
    },
    "private": false,
    "pulls_url": "https://api.github.com/repos/mikeboers/PyHAML/pulls{/number}",
    "pushed_at": "2013-12-17T02:25:16Z",
    "releases_url": "https://api.github.com/repos/mikeboers/PyHAML/releases{/id}",
    "score": 1.0,
    "size": 860,
    "ssh_url": "git@github.com:mikeboers/PyHAML.git",
    "stargazers_count": 76,
    "stargazers_url": "https://api.github.com/repos/mikeboers/PyHAML/stargazers",
    "statuses_url": "https://api.github.com/repos/mikeboers/PyHAML/statuses/{sha}",
    "subscribers_url": "https://api.github.com/repos/mikeboers/PyHAML/subscribers",
    "subscription_url": "https://api.github.com/repos/mikeboers/PyHAML/subscription",
    "svn_url": "https://github.com/mikeboers/PyHAML",
    "tags_url": "https://api.github.com/repos/mikeboers/PyHAML/tags",
    "teams_url": "https://api.github.com/repos/mikeboers/PyHAML/teams",
    "trees_url": "https://api.github.com/repos/mikeboers/PyHAML/git/trees{/sha}",
    "updated_at": "2013-12-17T02:25:16Z",
    "url": "https://api.github.com/repos/mikeboers/PyHAML",
    "watchers": 76,
    "watchers_count": 76
}