{
    "libs": [
        "functools",
        "random",
        "vim",
        "shutil",
        "re",
        "tempfile",
        "urllib",
        "platform",
        "collections",
        "unittest",
        "stat",
        "expat",
        "etree",
        "string",
        "warnings",
        "optparse",
        "glob",
        "htmlentitydefs",
        "textwrap",
        "sys",
        "subprocess",
        "unidecode",
        "traceback",
        "_b",
        "client",
        "win32gui",
        "time",
        "os"
    ]
}