{
    "libs": [
        "cStringIO",
        "simple",
        "datetime",
        "contrib",
        "query",
        "uuid",
        "signals",
        "template",
        "test",
        "mail",
        "core",
        "http",
        "warnings",
        "db",
        "sys",
        "v2",
        "b",
        "webbrowser",
        "csrf",
        "path",
        "loader",
        "local_settings",
        "httplib",
        "oauth2",
        "traceback",
        "django",
        "urlparse",
        "defaultfilters",
        "defaults",
        "urlresolvers"
    ]
}