{
    "archive_url": "https://api.github.com/repos/vpnguy/ntpdos/{archive_format}{/ref}",
    "assignees_url": "https://api.github.com/repos/vpnguy/ntpdos/assignees{/user}",
    "blobs_url": "https://api.github.com/repos/vpnguy/ntpdos/git/blobs{/sha}",
    "branches_url": "https://api.github.com/repos/vpnguy/ntpdos/branches{/branch}",
    "clone_url": "https://github.com/vpnguy/ntpdos.git",
    "collaborators_url": "https://api.github.com/repos/vpnguy/ntpdos/collaborators{/collaborator}",
    "comments_url": "https://api.github.com/repos/vpnguy/ntpdos/comments{/number}",
    "commits_url": "https://api.github.com/repos/vpnguy/ntpdos/commits{/sha}",
    "compare_url": "https://api.github.com/repos/vpnguy/ntpdos/compare/{base}...{head}",
    "contents_url": "https://api.github.com/repos/vpnguy/ntpdos/contents/{+path}",
    "contributors_url": "https://api.github.com/repos/vpnguy/ntpdos/contributors",
    "created_at": "2014-01-22T17:37:00Z",
    "default_branch": "master",
    "description": "Create a DDOS attack using NTP servers",
    "downloads_url": "https://api.github.com/repos/vpnguy/ntpdos/downloads",
    "events_url": "https://api.github.com/repos/vpnguy/ntpdos/events",
    "fork": false,
    "forks": 31,
    "forks_count": 31,
    "forks_url": "https://api.github.com/repos/vpnguy/ntpdos/forks",
    "full_name": "vpnguy/ntpdos",
    "git_commits_url": "https://api.github.com/repos/vpnguy/ntpdos/git/commits{/sha}",
    "git_refs_url": "https://api.github.com/repos/vpnguy/ntpdos/git/refs{/sha}",
    "git_tags_url": "https://api.github.com/repos/vpnguy/ntpdos/git/tags{/sha}",
    "git_url": "git://github.com/vpnguy/ntpdos.git",
    "has_downloads": true,
    "has_issues": true,
    "has_wiki": true,
    "homepage": null,
    "hooks_url": "https://api.github.com/repos/vpnguy/ntpdos/hooks",
    "html_url": "https://github.com/vpnguy/ntpdos",
    "id": 16146764,
    "issue_comment_url": "https://api.github.com/repos/vpnguy/ntpdos/issues/comments/{number}",
    "issue_events_url": "https://api.github.com/repos/vpnguy/ntpdos/issues/events{/number}",
    "issues_url": "https://api.github.com/repos/vpnguy/ntpdos/issues{/number}",
    "keys_url": "https://api.github.com/repos/vpnguy/ntpdos/keys{/key_id}",
    "labels_url": "https://api.github.com/repos/vpnguy/ntpdos/labels{/name}",
    "language": "Python",
    "languages_url": "https://api.github.com/repos/vpnguy/ntpdos/languages",
    "merges_url": "https://api.github.com/repos/vpnguy/ntpdos/merges",
    "milestones_url": "https://api.github.com/repos/vpnguy/ntpdos/milestones{/number}",
    "mirror_url": null,
    "name": "ntpdos",
    "notifications_url": "https://api.github.com/repos/vpnguy/ntpdos/notifications{?since,all,participating}",
    "open_issues": 1,
    "open_issues_count": 1,
    "owner": {
        "avatar_url": "https://avatars.githubusercontent.com/u/1570380?",
        "events_url": "https://api.github.com/users/vpnguy/events{/privacy}",
        "followers_url": "https://api.github.com/users/vpnguy/followers",
        "following_url": "https://api.github.com/users/vpnguy/following{/other_user}",
        "gists_url": "https://api.github.com/users/vpnguy/gists{/gist_id}",
        "gravatar_id": "d850cd8bf561028dc156a9c83598bd02",
        "html_url": "https://github.com/vpnguy",
        "id": 1570380,
        "login": "vpnguy",
        "organizations_url": "https://api.github.com/users/vpnguy/orgs",
        "received_events_url": "https://api.github.com/users/vpnguy/received_events",
        "repos_url": "https://api.github.com/users/vpnguy/repos",
        "site_admin": false,
        "starred_url": "https://api.github.com/users/vpnguy/starred{/owner}{/repo}",
        "subscriptions_url": "https://api.github.com/users/vpnguy/subscriptions",
        "type": "User",
        "url": "https://api.github.com/users/vpnguy"
    },
    "private": false,
    "pulls_url": "https://api.github.com/repos/vpnguy/ntpdos/pulls{/number}",
    "pushed_at": "2014-02-12T23:20:07Z",
    "releases_url": "https://api.github.com/repos/vpnguy/ntpdos/releases{/id}",
    "score": 1.0,
    "size": 343,
    "ssh_url": "git@github.com:vpnguy/ntpdos.git",
    "stargazers_count": 159,
    "stargazers_url": "https://api.github.com/repos/vpnguy/ntpdos/stargazers",
    "statuses_url": "https://api.github.com/repos/vpnguy/ntpdos/statuses/{sha}",
    "subscribers_url": "https://api.github.com/repos/vpnguy/ntpdos/subscribers",
    "subscription_url": "https://api.github.com/repos/vpnguy/ntpdos/subscription",
    "svn_url": "https://github.com/vpnguy/ntpdos",
    "tags_url": "https://api.github.com/repos/vpnguy/ntpdos/tags",
    "teams_url": "https://api.github.com/repos/vpnguy/ntpdos/teams",
    "trees_url": "https://api.github.com/repos/vpnguy/ntpdos/git/trees{/sha}",
    "updated_at": "2014-04-28T18:54:22Z",
    "url": "https://api.github.com/repos/vpnguy/ntpdos",
    "watchers": 159,
    "watchers_count": 159
}