{
    "archive_url": "https://api.github.com/repos/funtoo/metro/{archive_format}{/ref}",
    "assignees_url": "https://api.github.com/repos/funtoo/metro/assignees{/user}",
    "blobs_url": "https://api.github.com/repos/funtoo/metro/git/blobs{/sha}",
    "branches_url": "https://api.github.com/repos/funtoo/metro/branches{/branch}",
    "clone_url": "https://github.com/funtoo/metro.git",
    "collaborators_url": "https://api.github.com/repos/funtoo/metro/collaborators{/collaborator}",
    "comments_url": "https://api.github.com/repos/funtoo/metro/comments{/number}",
    "commits_url": "https://api.github.com/repos/funtoo/metro/commits{/sha}",
    "compare_url": "https://api.github.com/repos/funtoo/metro/compare/{base}...{head}",
    "contents_url": "https://api.github.com/repos/funtoo/metro/contents/{+path}",
    "contributors_url": "https://api.github.com/repos/funtoo/metro/contributors",
    "created_at": "2008-09-24T17:02:04Z",
    "default_branch": "master",
    "description": "Linux Distribution Build Tool by Daniel Robbins",
    "downloads_url": "https://api.github.com/repos/funtoo/metro/downloads",
    "events_url": "https://api.github.com/repos/funtoo/metro/events",
    "fork": false,
    "forks": 26,
    "forks_count": 26,
    "forks_url": "https://api.github.com/repos/funtoo/metro/forks",
    "full_name": "funtoo/metro",
    "git_commits_url": "https://api.github.com/repos/funtoo/metro/git/commits{/sha}",
    "git_refs_url": "https://api.github.com/repos/funtoo/metro/git/refs{/sha}",
    "git_tags_url": "https://api.github.com/repos/funtoo/metro/git/tags{/sha}",
    "git_url": "git://github.com/funtoo/metro.git",
    "has_downloads": true,
    "has_issues": true,
    "has_wiki": true,
    "homepage": "http://www.funtoo.org",
    "hooks_url": "https://api.github.com/repos/funtoo/metro/hooks",
    "html_url": "https://github.com/funtoo/metro",
    "id": 56079,
    "issue_comment_url": "https://api.github.com/repos/funtoo/metro/issues/comments/{number}",
    "issue_events_url": "https://api.github.com/repos/funtoo/metro/issues/events{/number}",
    "issues_url": "https://api.github.com/repos/funtoo/metro/issues{/number}",
    "keys_url": "https://api.github.com/repos/funtoo/metro/keys{/key_id}",
    "labels_url": "https://api.github.com/repos/funtoo/metro/labels{/name}",
    "language": "Python",
    "languages_url": "https://api.github.com/repos/funtoo/metro/languages",
    "merges_url": "https://api.github.com/repos/funtoo/metro/merges",
    "milestones_url": "https://api.github.com/repos/funtoo/metro/milestones{/number}",
    "mirror_url": null,
    "name": "metro",
    "notifications_url": "https://api.github.com/repos/funtoo/metro/notifications{?since,all,participating}",
    "open_issues": 3,
    "open_issues_count": 3,
    "owner": {
        "avatar_url": "https://avatars.githubusercontent.com/u/24220?",
        "events_url": "https://api.github.com/users/funtoo/events{/privacy}",
        "followers_url": "https://api.github.com/users/funtoo/followers",
        "following_url": "https://api.github.com/users/funtoo/following{/other_user}",
        "gists_url": "https://api.github.com/users/funtoo/gists{/gist_id}",
        "gravatar_id": "91c0b9ae6be3e8f216a136885cd0ae97",
        "html_url": "https://github.com/funtoo",
        "id": 24220,
        "login": "funtoo",
        "organizations_url": "https://api.github.com/users/funtoo/orgs",
        "received_events_url": "https://api.github.com/users/funtoo/received_events",
        "repos_url": "https://api.github.com/users/funtoo/repos",
        "site_admin": false,
        "starred_url": "https://api.github.com/users/funtoo/starred{/owner}{/repo}",
        "subscriptions_url": "https://api.github.com/users/funtoo/subscriptions",
        "type": "Organization",
        "url": "https://api.github.com/users/funtoo"
    },
    "private": false,
    "pulls_url": "https://api.github.com/repos/funtoo/metro/pulls{/number}",
    "pushed_at": "2014-01-27T05:53:52Z",
    "releases_url": "https://api.github.com/repos/funtoo/metro/releases{/id}",
    "score": 1.0,
    "size": 5836,
    "ssh_url": "git@github.com:funtoo/metro.git",
    "stargazers_count": 62,
    "stargazers_url": "https://api.github.com/repos/funtoo/metro/stargazers",
    "statuses_url": "https://api.github.com/repos/funtoo/metro/statuses/{sha}",
    "subscribers_url": "https://api.github.com/repos/funtoo/metro/subscribers",
    "subscription_url": "https://api.github.com/repos/funtoo/metro/subscription",
    "svn_url": "https://github.com/funtoo/metro",
    "tags_url": "https://api.github.com/repos/funtoo/metro/tags",
    "teams_url": "https://api.github.com/repos/funtoo/metro/teams",
    "trees_url": "https://api.github.com/repos/funtoo/metro/git/trees{/sha}",
    "updated_at": "2014-01-27T05:53:52Z",
    "url": "https://api.github.com/repos/funtoo/metro",
    "watchers": 62,
    "watchers_count": 62
}