{
    "archive_url": "https://api.github.com/repos/teddziuba/pqauth/{archive_format}{/ref}",
    "assignees_url": "https://api.github.com/repos/teddziuba/pqauth/assignees{/user}",
    "blobs_url": "https://api.github.com/repos/teddziuba/pqauth/git/blobs{/sha}",
    "branches_url": "https://api.github.com/repos/teddziuba/pqauth/branches{/branch}",
    "clone_url": "https://github.com/teddziuba/pqauth.git",
    "collaborators_url": "https://api.github.com/repos/teddziuba/pqauth/collaborators{/collaborator}",
    "comments_url": "https://api.github.com/repos/teddziuba/pqauth/comments{/number}",
    "commits_url": "https://api.github.com/repos/teddziuba/pqauth/commits{/sha}",
    "compare_url": "https://api.github.com/repos/teddziuba/pqauth/compare/{base}...{head}",
    "contents_url": "https://api.github.com/repos/teddziuba/pqauth/contents/{+path}",
    "contributors_url": "https://api.github.com/repos/teddziuba/pqauth/contributors",
    "created_at": "2013-04-23T22:08:26Z",
    "default_branch": "master",
    "description": "Web API Authentication with SSH Public Keys",
    "downloads_url": "https://api.github.com/repos/teddziuba/pqauth/downloads",
    "events_url": "https://api.github.com/repos/teddziuba/pqauth/events",
    "fork": false,
    "forks": 1,
    "forks_count": 1,
    "forks_url": "https://api.github.com/repos/teddziuba/pqauth/forks",
    "full_name": "teddziuba/pqauth",
    "git_commits_url": "https://api.github.com/repos/teddziuba/pqauth/git/commits{/sha}",
    "git_refs_url": "https://api.github.com/repos/teddziuba/pqauth/git/refs{/sha}",
    "git_tags_url": "https://api.github.com/repos/teddziuba/pqauth/git/tags{/sha}",
    "git_url": "git://github.com/teddziuba/pqauth.git",
    "has_downloads": true,
    "has_issues": true,
    "has_wiki": true,
    "homepage": null,
    "hooks_url": "https://api.github.com/repos/teddziuba/pqauth/hooks",
    "html_url": "https://github.com/teddziuba/pqauth",
    "id": 9634381,
    "issue_comment_url": "https://api.github.com/repos/teddziuba/pqauth/issues/comments/{number}",
    "issue_events_url": "https://api.github.com/repos/teddziuba/pqauth/issues/events{/number}",
    "issues_url": "https://api.github.com/repos/teddziuba/pqauth/issues{/number}",
    "keys_url": "https://api.github.com/repos/teddziuba/pqauth/keys{/key_id}",
    "labels_url": "https://api.github.com/repos/teddziuba/pqauth/labels{/name}",
    "language": "Python",
    "languages_url": "https://api.github.com/repos/teddziuba/pqauth/languages",
    "merges_url": "https://api.github.com/repos/teddziuba/pqauth/merges",
    "milestones_url": "https://api.github.com/repos/teddziuba/pqauth/milestones{/number}",
    "mirror_url": null,
    "name": "pqauth",
    "notifications_url": "https://api.github.com/repos/teddziuba/pqauth/notifications{?since,all,participating}",
    "open_issues": 2,
    "open_issues_count": 2,
    "owner": {
        "avatar_url": "https://avatars.githubusercontent.com/u/84232?",
        "events_url": "https://api.github.com/users/teddziuba/events{/privacy}",
        "followers_url": "https://api.github.com/users/teddziuba/followers",
        "following_url": "https://api.github.com/users/teddziuba/following{/other_user}",
        "gists_url": "https://api.github.com/users/teddziuba/gists{/gist_id}",
        "gravatar_id": "17c9d9798ac2b8f811ddc64cc7ca8c0f",
        "html_url": "https://github.com/teddziuba",
        "id": 84232,
        "login": "teddziuba",
        "organizations_url": "https://api.github.com/users/teddziuba/orgs",
        "received_events_url": "https://api.github.com/users/teddziuba/received_events",
        "repos_url": "https://api.github.com/users/teddziuba/repos",
        "site_admin": false,
        "starred_url": "https://api.github.com/users/teddziuba/starred{/owner}{/repo}",
        "subscriptions_url": "https://api.github.com/users/teddziuba/subscriptions",
        "type": "User",
        "url": "https://api.github.com/users/teddziuba"
    },
    "private": false,
    "pulls_url": "https://api.github.com/repos/teddziuba/pqauth/pulls{/number}",
    "pushed_at": "2013-05-03T23:10:35Z",
    "releases_url": "https://api.github.com/repos/teddziuba/pqauth/releases{/id}",
    "score": 1.0,
    "size": 190,
    "ssh_url": "git@github.com:teddziuba/pqauth.git",
    "stargazers_count": 149,
    "stargazers_url": "https://api.github.com/repos/teddziuba/pqauth/stargazers",
    "statuses_url": "https://api.github.com/repos/teddziuba/pqauth/statuses/{sha}",
    "subscribers_url": "https://api.github.com/repos/teddziuba/pqauth/subscribers",
    "subscription_url": "https://api.github.com/repos/teddziuba/pqauth/subscription",
    "svn_url": "https://github.com/teddziuba/pqauth",
    "tags_url": "https://api.github.com/repos/teddziuba/pqauth/tags",
    "teams_url": "https://api.github.com/repos/teddziuba/pqauth/teams",
    "trees_url": "https://api.github.com/repos/teddziuba/pqauth/git/trees{/sha}",
    "updated_at": "2013-12-27T17:57:53Z",
    "url": "https://api.github.com/repos/teddziuba/pqauth",
    "watchers": 149,
    "watchers_count": 149
}