[
    "protocol",
    "pqauth.client",
    "tests",
    "python.pqauth.client",
    "python",
    "pqauth_django_server.tests",
    "python.pqauth.pqauth_django_server.tests.protocol",
    "pqauth_django_server.views",
    "pqauth_django_server.urls",
    "python.pqauth.pqauth_django_server.tests",
    "pqauth.pqauth_django_server.models",
    "pqauth.pqauth_django_server.urls",
    "pqauth.pqauth_django_server.views",
    "models",
    "python.pqauth.pqauth_django_server.models",
    "pqauth.pqauth_django_server.keys",
    "pqauth.pqauth_django_server",
    "pqauth_django_server.admin",
    "pqauth_django_server.tests.settings",
    "python.pqauth",
    "pqauth.crypto",
    "pqauth_django_server.keys",
    "python.pqauth.pqauth_django_server.admin",
    "pqauth.pqauth_django_server.tests",
    "views",
    "keys",
    "pqauth.pqauth_django_server.tests.protocol",
    "python.pqauth.pqauth_django_server.urls",
    "pqauth_django_server",
    "pqauth_django_server.models",
    "python.pqauth.pqauth_django_server.tests.settings",
    "tests.protocol",
    "python.pqauth.pqauth_django_server.keys",
    "pqauth.pqauth_django_server.tests.settings",
    "settings",
    "admin",
    "python.pqauth.pqauth_django_server",
    "crypto",
    "tests.settings",
    "python.pqauth.pqauth_django_server.views",
    "client",
    "python.pqauth.crypto",
    "pqauth.pqauth_django_server.admin",
    "urls",
    "pqauth",
    "pqauth_django_server.tests.protocol"
]