{
    "libs": [
        "unittest",
        "random",
        "with_statement",
        "datetime",
        "pygments",
        "disqus_settings",
        "calendar",
        "tools",
        "uuid",
        "pprint",
        "urllib",
        "re",
        "werkzeug",
        "functools",
        "blinker",
        "optparse",
        "time",
        "test_markdown2",
        "sys",
        "codecs",
        "path",
        "fl",
        "md5",
        "unicodedata",
        "logging",
        "h",
        "formatters",
        "itertools",
        "doctest",
        "sets",
        "os"
    ]
}