{
    "libs": [
        "minidom",
        "xml",
        "shutil",
        "exc",
        "StringIO",
        "glob",
        "zipfile",
        "textwrap",
        "datetime",
        "sys",
        "re",
        "json",
        "html",
        "collections",
        "yaml",
        "time",
        "git",
        "requests",
        "docopt",
        "os"
    ]
}