[
    "session4",
    "session5",
    "session1.main",
    "session4.main",
    "session1",
    "session2",
    "session3",
    "session3.main",
    "session4.todo",
    "conf",
    "todo",
    "session1.todo",
    "session3.todo",
    "clock",
    "session5.todo",
    "session5.editor",
    "session5.main",
    "qgs",
    "session2.main",
    "session2.todo",
    "editor",
    "qgs.clock",
    "main"
]