[
    "topaz.executioncontext",
    "topaz.modules.enumerable",
    "topaz.closure",
    "objects.test_methodobject",
    "test_interpreter",
    "objects.test_objectobject",
    "tests.objects.test_threadobject",
    "mapdict",
    "test_regexpobject",
    "tests.test_executioncontext",
    "topaz.main",
    "tests.modules.test_math",
    "tests.jit.base",
    "test_signal",
    "objects.test_numericobject",
    "topaz.objects.encodingobject",
    "tests.objects.test_arrayobject",
    "objectspace",
    "cache",
    "topaz.modules.kernel",
    "test_math",
    "topaz.objects.bignumobject",
    "tests.modules.test_objectspace",
    "test_bignumobject",
    "topaz.modules",
    "objects.bignumobject",
    "topaz.objects.dirobject",
    "objects.symbolobject",
    "tests.objects.test_timeobject",
    "closure",
    "objects.timeobject",
    "tests.test_parser",
    "jit.test_closure",
    "test_fiberobject",
    "floatobject",
    "topaz",
    "exceptionobject",
    "test_timeobject",
    "modules.math",
    "test_nilobject",
    "objects.test_threadobject",
    "frame",
    "modules.test_process",
    "module",
    "procobject",
    "travis",
    "tests.objects.test_ioobject",
    "intobject",
    "topaz.objects.functionobject",
    "objects.test_classobject",
    "utils.ll_dir",
    "specs",
    "tests.objects.test_symbolobject",
    "test_symbolobject",
    "topaz.utils.formatting",
    "topaz.utils.cache",
    "topaz.objects.randomobject",
    "objects.test_regexpobject",
    "objects.fileobject",
    "objects.test_integerobject",
    "topaz.utils.packing.pack",
    "test_main",
    "objects.nilobject",
    "comparable",
    "tests.objects.test_objectobject",
    "tests.utils.test_glob",
    "topaz.objects.timeobject",
    "objects.hashobject",
    "tests.objects.test_moduleobject",
    "filemode",
    "utils.formatting",
    "tasks.specs",
    "test_floatobject",
    "objects",
    "objects.threadobject",
    "modules.test_signal",
    "tests.jit.conftest",
    "topaz.objects",
    "test_compiler",
    "topaz.objects.envobject",
    "tests.objects.test_rangeobject",
    "objects.test_exceptionobject",
    "objects.ioobject",
    "test_integerobject",
    "topaz.utils.ll_file",
    "topaz.module",
    "topaz.modules.topaz",
    "packing",
    "objects.test_hashobject",
    "topaz.objects.classobject",
    "conftest",
    "test_glob",
    "tests.test_celldict",
    "objects.arrayobject",
    "topaz.celldict",
    "ll_dir",
    "pack",
    "test_ioobject",
    "topaz.modules.math",
    "tasks",
    "test_executioncontext",
    "modules.topaz",
    "objects.intobject",
    "test_closure",
    "topaz.objects.codeobject",
    "topaz.objects.stringobject",
    "tests.objects.test_methodobject",
    "objects.dirobject",
    "test_comparable",
    "topaz.objects.rangeobject",
    "tools",
    "gateway",
    "test_dirobject",
    "utils.test_glob",
    "test_objectspace",
    "topaz.utils.ordereddict",
    "topaz.consts",
    "packing.intpacking",
    "scope",
    "topaz.ast",
    "objects.codeobject",
    "topaz.utils.glob",
    "ll_file",
    "topaz.parser",
    "topaz.objects.fileobject",
    "objects.test_ioobject",
    "test_process",
    "jit.conftest",
    "test_hashobject",
    "tests.conftest",
    "tests.objects.test_numericobject",
    "main",
    "jit.test_instance_vars",
    "rangeobject",
    "integerobject",
    "tests.objects.test_encodingobject",
    "topaz.objects.bindingobject",
    "objects.test_symbolobject",
    "formatting",
    "objects.randomobject",
    "packing.pack",
    "error",
    "topaz.utils",
    "modules.process",
    "utils.packing.pack",
    "ordereddict",
    "objects.bindingobject",
    "packing.stringpacking",
    "topaz.objects.symbolobject",
    "process",
    "utils",
    "topaz.objects.objectobject",
    "objects.test_stringobject",
    "coerce",
    "conf",
    "utils.packing.intpacking",
    "objects.test_bignumobject",
    "topaz.objects.boolobject",
    "topaz.objects.threadobject",
    "modules.test_math",
    "tests.modules",
    "modules.test_enumerable",
    "tests.objects.test_dirobject",
    "topaz.interpreter",
    "utils.filemode",
    "test_kernel",
    "objects.test_fiberobject",
    "topaz.utils.packing.stringpacking",
    "utils.ll_file",
    "utils.test_ordereddict",
    "tests.objects.test_floatobject",
    "objects.test_procobject",
    "test_procobject",
    "tests.objects.test_boolobject",
    "utils.packing",
    "objects.exceptionobject",
    "topaz.objects.integerobject",
    "encodingobject",
    "tests.objects.test_fileobject",
    "bignumobject",
    "tests.objects.test_stringobject",
    "topaz.__main__",
    "test_array",
    "tests.test_main",
    "tests.objects.test_envobject",
    "topaz.utils.packing",
    "topaz.mapdict",
    "test_classobject",
    "test_celldict",
    "hashobject",
    "topaz.modules.process",
    "topaz.lexer",
    "envobject",
    "objspace",
    "test_parser",
    "topaz.objects.nilobject",
    "objects.integerobject",
    "interpreter",
    "tests.test_interpreter",
    "celldict",
    "intpacking",
    "threadobject",
    "objects.test_fileobject",
    "objects.test_encodingobject",
    "topaz.modules.objectspace",
    "topaz.objects.methodobject",
    "arrayobject",
    "jit.test_basic",
    "jit",
    "tools.make_release",
    "functionobject",
    "test_randomobject",
    "objects.test_dirobject",
    "bin",
    "objects.test_envobject",
    "tests",
    "topaz.objects.ioobject",
    "objects.fiberobject",
    "docs",
    "tests.jit.test_closure",
    "tests.jit.test_basic",
    "tests.utils.test_ordereddict",
    "topaz.objects.moduleobject",
    "modules.comparable",
    "bin.topaz_untranslated",
    "enumerable",
    "jit.test_array",
    "docs.conf",
    "topaz.modules.signal",
    "objects.methodobject",
    "tests.objects.test_intobject",
    "topaz.objects.numericobject",
    "topaz.objects.hashobject",
    "signal",
    "tests.objects.test_integerobject",
    "randomobject",
    "fileobject",
    "tests.objects.test_procobject",
    "nilobject",
    "modules.signal",
    "tests.objects.test_randomobject",
    "test_mapdict",
    "tasks.travis",
    "test_envobject",
    "tests.jit",
    "jit.base",
    "bindingobject",
    "tests.modules.test_comparable",
    "topaz.coerce",
    "tasks.base",
    "test_arrayobject",
    "test_bindingobject",
    "topaz.tools",
    "objects.procobject",
    "test_encodingobject",
    "test_numericobject",
    "classobject",
    "topaz.scope",
    "topaz.astcompiler",
    "tests.utils",
    "topaz.utils.filemode",
    "modules.objectspace",
    "math",
    "modules.test_objectspace",
    "topaz.objects.exceptionobject",
    "ast",
    "objects.test_randomobject",
    "targettopaz",
    "objects.test_moduleobject",
    "topaz.system",
    "base",
    "topaz.error",
    "regexp",
    "tests.modules.test_enumerable",
    "tests.jit.test_instance_vars",
    "topaz.utils.ll_dir",
    "topaz.gateway",
    "modules.test_kernel",
    "test_basic",
    "tests.objects.test_regexpobject",
    "lexer",
    "test_objectobject",
    "topaz.objects.intobject",
    "topaz.objects.procobject",
    "objects.encodingobject",
    "objects.rangeobject",
    "objects.regexpobject",
    "tests.objects",
    "test_moduleobject",
    "topaz.frame",
    "kernel",
    "test_intobject",
    "system",
    "utils.regexp",
    "codeobject",
    "boolobject",
    "regexpobject",
    "topaz.objspace",
    "objects.test_rangeobject",
    "tests.base",
    "ioobject",
    "test_exceptionobject",
    "consts",
    "symbolobject",
    "modules.kernel",
    "test_threadobject",
    "fiberobject",
    "make_release",
    "test_enumerable",
    "dirobject",
    "utils.packing.stringpacking",
    "objects.envobject",
    "modules.test_comparable",
    "tests.objects.test_fiberobject",
    "objects.test_bindingobject",
    "tests.modules.test_kernel",
    "objects.objectobject",
    "topaz.objects.arrayobject",
    "topaz.objects.floatobject",
    "objects.moduleobject",
    "topaz.utils.regexp",
    "topaz.tools.make_release",
    "timeobject",
    "objects.floatobject",
    "objects.test_timeobject",
    "test_rangeobject",
    "objectobject",
    "objects.stringobject",
    "objects.numericobject",
    "tests.objects.test_exceptionobject",
    "moduleobject",
    "topaz.utils.packing.intpacking",
    "utils.glob",
    "test_methodobject",
    "test_instance_vars",
    "topaz.objects.regexpobject",
    "topaz_untranslated",
    "parser",
    "numericobject",
    "objects.test_floatobject",
    "objects.test_nilobject",
    "tests.test_mapdict",
    "__main__",
    "utils.cache",
    "tests.test_compiler",
    "tests.objects.test_classobject",
    "objects.functionobject",
    "packing.floatpacking",
    "objects.test_intobject",
    "tests.modules.test_process",
    "test_ordereddict",
    "methodobject",
    "topaz.utils.packing.floatpacking",
    "astcompiler",
    "stringobject",
    "executioncontext",
    "modules.enumerable",
    "test_boolobject",
    "tests.objects.test_nilobject",
    "objects.boolobject",
    "glob",
    "utils.ordereddict",
    "topaz.objects.fiberobject",
    "test_stringobject",
    "tests.objects.test_bignumobject",
    "tests.objects.test_bindingobject",
    "objects.test_boolobject",
    "tests.jit.test_array",
    "stringpacking",
    "utils.packing.floatpacking",
    "tests.modules.test_signal",
    "topaz.modules.comparable",
    "modules",
    "objects.test_arrayobject",
    "tests.objects.test_hashobject",
    "test_fileobject",
    "objects.classobject",
    "floatpacking"
]