[
    "examples.Topics.Animation",
    "jycessing.add_global_statements",
    "RGBCube",
    "OpenGL",
    "Topics.Image Processing",
    "droppings",
    "3D.Camera",
    "test_urllib2",
    "vec3f",
    "Python.colornames.namethatcolor.NameThatColor",
    "examples.Demos.Graphics.Particles.particle",
    "workspace.example",
    "examples.py.3D.Typography.KineticType",
    "mode.formatter",
    "3D.Image",
    "examples.py.Basics",
    "peasycam",
    "Math",
    "LoadDisplayShape",
    "mode.formatter.pep8",
    "3D.Camera.MoveEye",
    "imported_module",
    "NameThatColor",
    "buttons",
    "Form.ShapeTransform",
    "AdditiveWave",
    "Fisica.buttons",
    "jycessing",
    "examples.py.3D.Form.Primitives3D",
    "3D.Form.Vertices",
    "colorsketch",
    "Demos.Graphics.Particles.particle",
    "AnimatedSprite.animation",
    "Shape.ScaleShape",
    "examples.py.3D.Camera.OrthoVSPerspective",
    "simple_noisefield",
    "Fisica.joints",
    "testing.resources.test_inherit_str",
    "test_unicode",
    "bubbles",
    "Image Processing",
    "test_md5",
    "mode.examples.Basics.Math.Arctangent.eye",
    "controlp5-demo",
    "mode.examples.Demos",
    "densities",
    "resources.imported_module_with_pvector",
    "Demos.Graphics.Particles.particle_system",
    "examples.py.Python.colornames.namethatcolor",
    "examples.py.Fisica.contacts",
    "examples.py.ThirdParty.controlp5-demo",
    "Topics.AdvancedData",
    "autopep8",
    "Basics.Color.WaveGradient",
    "Fisica.inherit",
    "Basics.Math.Arctangent.eye",
    "test_autoglobal",
    "testing",
    "module",
    "examples.py.3D.Camera.MoveEye",
    "examples.py.Library.Minim (Sound)",
    "examples.py.Basics.Math.noisefield",
    "Camera",
    "colornames.namethatcolor",
    "AdvancedData.list_example",
    "examples.Basics.Lists",
    "examples.py.3D.Form.bricktower",
    "3D.Typography.KineticType",
    "3D",
    "AdvancedData.directory_list",
    "Form",
    "examples.Basics.Lists.ListObjects",
    "Yellowtail.gesture",
    "test_pixels",
    "Basics.Shape.LoadDisplayShape",
    "OpenGL.SpaceJunk",
    "Basics.Color",
    "formatter",
    "testing.resources.imported_module_with_pvector",
    "3D.Camera.OrthoVSPerspective",
    "Color.WaveGradient",
    "Minim (Sound)",
    "buildtime",
    "mode.examples.Demos.Graphics",
    "examples.Demos",
    "Typography",
    "formatter.autopep8",
    "examples.py.Python.colornames",
    "raycast",
    "examples.py.Basics.Color.WaveGradient",
    "testing.resources.test_color",
    "resources.test_md5",
    "buildtime.py",
    "Graphics.Yellowtail.vec3f",
    "format_server",
    "examples.py.3D",
    "colornames.colorsketch",
    "resources.test_inherit_str",
    "Basics.Shape",
    "test_pvector_in_imported_module",
    "testing.resources.test_urllib",
    "example",
    "test_static_size",
    "examples.py.Fisica.restitutions",
    "testing.resources.test_launcher",
    "Effects.Metaball",
    "examples.py.Fisica.densities",
    "ListObjects.module",
    "examples.py.3D.Textures.TextureCube",
    "src.jycessing.launcher",
    "examples.py.Fisica.compound",
    "ListObjects",
    "Basics.Math.AdditiveWave",
    "3D.Camera.Perspective",
    "resources.test_pvector_in_imported_module",
    "OrthoVSPerspective",
    "mode.examples.Topics",
    "jycessing.core",
    "misc.ast",
    "examples.Demos.Graphics.Yellowtail.vec3f",
    "Yellowtail",
    "resources.test_urllib2",
    "Fisica.contacts",
    "examples.Topics.Animation.AnimatedSprite",
    "3D.Form.ShapeTransform",
    "runtime.src.jycessing.add_global_statements",
    "Topics.Animation.AnimatedSprite.animation",
    "Textures",
    "Fisica.compound",
    "eye",
    "particle_system",
    "buildtime.py.pde2py",
    "examples.py.3D.Form",
    "py",
    "KineticType",
    "Form.Vertices",
    "Basics.Math.noisefield",
    "examples.py.Topics.AdvancedData",
    "Basics.Lists.ListObjects",
    "ShapeTransform",
    "examples.py.Library.OpenGL.Esfera",
    "Basics.Math.simple_noisefield",
    "Basics.Math",
    "Topics.Image Processing.EdgeDetection",
    "3D.Textures.TextureCube",
    "Fisica.droppings",
    "examples.py.Fisica.droppings",
    "MoveEye",
    "runtime.src.jycessing.launcher.launcher",
    "Basics.Lists",
    "anchors",
    "Math.simple_noisefield",
    "andres",
    "Demos.Graphics.Yellowtail.vec3f",
    "3D.Textures",
    "examples.py.3D.Image.Explode",
    "mode.examples.Basics.Math.Arctangent",
    "examples.Basics",
    "PShader",
    "PShader.andres",
    "Graphics.Particles.particle",
    "resources.test_import",
    "CubicGrid",
    "launcher",
    "examples.py.peasycam",
    "testing.resources.test_autoglobal",
    "Library",
    "mode.examples.Topics.Animation.AnimatedSprite.animation",
    "Demos",
    "Demos.Graphics.Particles",
    "Animation",
    "resources",
    "Perspective",
    "Form.bricktower",
    "Graphics.Particles",
    "Topics",
    "Graphics.Particles.particle_system",
    "examples.Demos.Graphics.Yellowtail.gesture",
    "test_exit",
    "examples.py.PShader",
    "mode.examples.Basics.Lists.ListObjects.module",
    "joints",
    "namethatcolor",
    "Math.AdditiveWave",
    "WaveGradient",
    "formatter.pep8",
    "resources.test_primitives",
    "EdgeDetection",
    "jycessing.launcher",
    "examples.py.Basics.Math.AdditiveWave",
    "testing.resources.test_map",
    "examples.py.Library",
    "Python",
    "Arctangent",
    "misc.ast.astpp",
    "launcher.launcher",
    "Image Processing.EdgeDetection",
    "AnimatedSprite",
    "src.jycessing.add_global_statements",
    "test_load_in_initializer",
    "3D.Form.Primitives3D",
    "NoiseWave",
    "Metaball",
    "examples.Basics.Math.Arctangent",
    "colornames",
    "mode.examples",
    "restitutions",
    "examples.py.3D.Textures",
    "examples.py.Fisica.joints",
    "AdvancedData",
    "test_pvector",
    "Camera.Perspective",
    "resources.test_pcore",
    "Particles.particle",
    "core",
    "Basics.Math.Arctangent",
    "Fisica.contact_remove",
    "mode.examples.Demos.Graphics.Yellowtail.vec3f",
    "test_color",
    "testing.resources.test_pcore",
    "noisefield",
    "Toroid",
    "inherit",
    "Python.colornames.namethatcolor",
    "Fisica.densities",
    "formatter.format_server",
    "Topics.Animation",
    "mode.formatter.autopep8",
    "Topics.Effects.Metaball",
    "examples.py.Fisica.anchors",
    "gesture",
    "src.jycessing",
    "resources.test_color",
    "examples.py.Fisica.inherit",
    "Fisica.raycast",
    "Shape.LoadDisplayShape",
    "examples.py.Fisica.polygons",
    "Topics.AdvancedData.directory_list",
    "namethatcolor.NameThatColor",
    "examples.Demos.Graphics.Particles",
    "Minim (Sound).LoadSample",
    "examples.py.Python.colornames.colorsketch",
    "testing.resources.test_static_size",
    "examples.py.3D.Image",
    "PDF Export.OneFrame",
    "test_inherit_str",
    "Fisica",
    "examples.py.Python",
    "Basics.Math.NoiseWave",
    "Effects",
    "examples.py.Basics.Shape.ScaleShape",
    "Fisica.restitutions",
    "examples.py.Basics.Shape.LoadDisplayShape",
    "resources.test_launcher",
    "examples.py.Fisica.contact_remove",
    "resources.test_unicode",
    "Python.colornames",
    "Vertices",
    "add_global_statements",
    "Explode",
    "mode.examples.Demos.Graphics.Particles.particle",
    "mode.examples.Demos.Graphics.Particles",
    "compound",
    "examples.py.Basics.Color",
    "directory_list",
    "Lists.ListObjects.module",
    "Topics.Effects",
    "examples.Basics.Lists.ListObjects.module",
    "resources.test_millis",
    "PDF Export",
    "test_import",
    "particle",
    "testing.resources.test_primitives",
    "examples.py.3D.Form.Vertices",
    "test_urllib",
    "Fisica.anchors",
    "test_millis",
    "testing.resources.test_exit",
    "mode",
    "Fisica.contact_resize",
    "Demos.Graphics.Yellowtail.gesture",
    "Typography.KineticType",
    "Graphics.Yellowtail",
    "Basics.Shape.ScaleShape",
    "test_launcher",
    "Python.colornames.colorsketch",
    "mode.examples.Topics.Animation.AnimatedSprite",
    "examples.py.Library.PDF Export.OneFrame",
    "Form.Toroid",
    "Form.RGBCube",
    "examples.py.Basics.Math.simple_noisefield",
    "mode.examples.Basics.Math",
    "Yellowtail.vec3f",
    "Form.Primitives3D",
    "examples.py.Library.Minim (Sound).LoadSample",
    "examples.py.Fisica.buttons",
    "mode.examples.Demos.Graphics.Particles.particle_system",
    "examples.py.Topics.Image Processing.EdgeDetection",
    "test_hex",
    "3D.Form.Toroid",
    "testing.resources.test_filter",
    "3D.Form.RGBCube",
    "list_example",
    "resources.imported_module",
    "resources.test_hex",
    "testing.resources.test_pvector_in_imported_module",
    "SpaceJunk",
    "astpp",
    "Camera.OrthoVSPerspective",
    "ast",
    "pep8",
    "Math.noisefield",
    "pde2py",
    "runtime.src.jycessing.launcher",
    "Library.PDF Export",
    "bricktower",
    "examples.py.Library.PDF Export",
    "resources.test_load_in_initializer",
    "examples.py.3D.Form.Toroid",
    "examples.py.Fisica.contact_resize",
    "src",
    "examples.py.3D.Camera.Perspective",
    "Graphics.Yellowtail.gesture",
    "Image",
    "examples.py.Topics.Effects.Metaball",
    "Shape",
    "3D.Form",
    "Particles.particle_system",
    "Library.PDF Export.OneFrame",
    "Library.OpenGL.SpaceJunk",
    "runtime",
    "testing.resources.test_urllib2",
    "examples.py.Topics.AdvancedData.directory_list",
    "testing.resources.test_pixels",
    "examples.py.Fisica.raycast",
    "test_pcore",
    "ThirdParty",
    "examples.py.Python.colornames.namethatcolor.NameThatColor",
    "examples.py.Topics.AdvancedData.list_example",
    "Library.OpenGL.Esfera",
    "misc",
    "src.jycessing.core",
    "testing.resources.test_millis",
    "testing.resources.test_md5",
    "examples.Topics.Animation.AnimatedSprite.animation",
    "resources.test_pixels",
    "examples.py.3D.Form.CubicGrid",
    "3D.Form.CubicGrid",
    "polygons",
    "Math.NoiseWave",
    "examples.py.Fisica.bubbles",
    "examples.py.Basics.Shape",
    "OneFrame",
    "examples.Demos.Graphics.Particles.particle_system",
    "examples.Basics.Math.Arctangent.eye",
    "ThirdParty.controlp5-demo",
    "Math.Arctangent.eye",
    "Lists",
    "testing.resources.test_hex",
    "examples.py.Library.OpenGL.SpaceJunk",
    "resources.test_filter",
    "Image.Explode",
    "Fisica.bubbles",
    "runtime.src",
    "testing.resources.imported_module",
    "examples.py.PShader.andres",
    "Lists.ListObjects",
    "3D.Image.Explode",
    "Esfera",
    "py.pde2py",
    "contact_resize",
    "runtime.src.jycessing.core",
    "Form.CubicGrid",
    "colornames.namethatcolor.NameThatColor",
    "mode.examples.Demos.Graphics.Yellowtail",
    "examples.py",
    "testing.resources",
    "test_primitives",
    "testing.resources.test_unicode",
    "examples.py.3D.Typography",
    "examples.py.Basics.Math",
    "resources.test_autoglobal",
    "Demos.Graphics.Yellowtail",
    "imported_module_with_pvector",
    "examples.Demos.Graphics",
    "Arctangent.eye",
    "Animation.AnimatedSprite",
    "OpenGL.Esfera",
    "TextureCube",
    "examples.py.Library.OpenGL",
    "examples.py.Topics.Image Processing",
    "examples.py.3D.Camera",
    "Fisica.polygons",
    "testing.resources.test_set",
    "testing.resources.test_load_in_initializer",
    "testing.resources.test_import",
    "mode.examples.Basics.Lists.ListObjects",
    "examples",
    "Primitives3D",
    "contact_remove",
    "examples.py.Basics.Math.NoiseWave",
    "resources.test_set",
    "resources.test_static_size",
    "examples.py.3D.Form.RGBCube",
    "jycessing.launcher.launcher",
    "Particles",
    "runtime.src.jycessing",
    "Basics.Lists.ListObjects.module",
    "Library.Minim (Sound).LoadSample",
    "3D.Typography",
    "LoadSample",
    "examples.py.Topics.Effects",
    "Animation.AnimatedSprite.animation",
    "examples.Basics.Math",
    "Topics.AdvancedData.list_example",
    "ScaleShape",
    "examples.py.ThirdParty",
    "mode.examples.Topics.Animation",
    "test_set",
    "resources.test_map",
    "Camera.MoveEye",
    "mode.examples.Basics.Lists",
    "examples.py.3D.Form.ShapeTransform",
    "animation",
    "mode.examples.Demos.Graphics.Yellowtail.gesture",
    "Graphics",
    "examples.py.Topics",
    "examples.Demos.Graphics.Yellowtail",
    "Basics",
    "Textures.TextureCube",
    "Math.Arctangent",
    "examples.Topics",
    "mode.examples.Basics",
    "examples.py.Fisica",
    "src.jycessing.launcher.launcher",
    "Library.OpenGL",
    "test_map",
    "resources.test_pvector",
    "resources.test_exit",
    "ast.astpp",
    "Topics.Animation.AnimatedSprite",
    "testing.resources.test_pvector",
    "Demos.Graphics",
    "Color",
    "test_filter",
    "contacts",
    "Library.Minim (Sound)",
    "resources.test_urllib",
    "workspace",
    "3D.Form.bricktower",
    "mode.formatter.format_server"
]