{
    "archive_url": "https://api.github.com/repos/earl/beanstalkc/{archive_format}{/ref}",
    "assignees_url": "https://api.github.com/repos/earl/beanstalkc/assignees{/user}",
    "blobs_url": "https://api.github.com/repos/earl/beanstalkc/git/blobs{/sha}",
    "branches_url": "https://api.github.com/repos/earl/beanstalkc/branches{/branch}",
    "clone_url": "https://github.com/earl/beanstalkc.git",
    "collaborators_url": "https://api.github.com/repos/earl/beanstalkc/collaborators{/collaborator}",
    "comments_url": "https://api.github.com/repos/earl/beanstalkc/comments{/number}",
    "commits_url": "https://api.github.com/repos/earl/beanstalkc/commits{/sha}",
    "compare_url": "https://api.github.com/repos/earl/beanstalkc/compare/{base}...{head}",
    "contents_url": "https://api.github.com/repos/earl/beanstalkc/contents/{+path}",
    "contributors_url": "https://api.github.com/repos/earl/beanstalkc/contributors",
    "created_at": "2008-11-20T18:38:41Z",
    "default_branch": "master",
    "description": "A simple beanstalkd client library for Python",
    "downloads_url": "https://api.github.com/repos/earl/beanstalkc/downloads",
    "events_url": "https://api.github.com/repos/earl/beanstalkc/events",
    "fork": false,
    "forks": 41,
    "forks_count": 41,
    "forks_url": "https://api.github.com/repos/earl/beanstalkc/forks",
    "full_name": "earl/beanstalkc",
    "git_commits_url": "https://api.github.com/repos/earl/beanstalkc/git/commits{/sha}",
    "git_refs_url": "https://api.github.com/repos/earl/beanstalkc/git/refs{/sha}",
    "git_tags_url": "https://api.github.com/repos/earl/beanstalkc/git/tags{/sha}",
    "git_url": "git://github.com/earl/beanstalkc.git",
    "has_downloads": true,
    "has_issues": true,
    "has_wiki": false,
    "homepage": "",
    "hooks_url": "https://api.github.com/repos/earl/beanstalkc/hooks",
    "html_url": "https://github.com/earl/beanstalkc",
    "id": 78759,
    "issue_comment_url": "https://api.github.com/repos/earl/beanstalkc/issues/comments/{number}",
    "issue_events_url": "https://api.github.com/repos/earl/beanstalkc/issues/events{/number}",
    "issues_url": "https://api.github.com/repos/earl/beanstalkc/issues{/number}",
    "keys_url": "https://api.github.com/repos/earl/beanstalkc/keys{/key_id}",
    "labels_url": "https://api.github.com/repos/earl/beanstalkc/labels{/name}",
    "language": "Python",
    "languages_url": "https://api.github.com/repos/earl/beanstalkc/languages",
    "merges_url": "https://api.github.com/repos/earl/beanstalkc/merges",
    "milestones_url": "https://api.github.com/repos/earl/beanstalkc/milestones{/number}",
    "mirror_url": null,
    "name": "beanstalkc",
    "notifications_url": "https://api.github.com/repos/earl/beanstalkc/notifications{?since,all,participating}",
    "open_issues": 13,
    "open_issues_count": 13,
    "owner": {
        "avatar_url": "https://avatars.githubusercontent.com/u/11377?",
        "events_url": "https://api.github.com/users/earl/events{/privacy}",
        "followers_url": "https://api.github.com/users/earl/followers",
        "following_url": "https://api.github.com/users/earl/following{/other_user}",
        "gists_url": "https://api.github.com/users/earl/gists{/gist_id}",
        "gravatar_id": "06b7947dde574502cdf662c143d3f8d8",
        "html_url": "https://github.com/earl",
        "id": 11377,
        "login": "earl",
        "organizations_url": "https://api.github.com/users/earl/orgs",
        "received_events_url": "https://api.github.com/users/earl/received_events",
        "repos_url": "https://api.github.com/users/earl/repos",
        "site_admin": false,
        "starred_url": "https://api.github.com/users/earl/starred{/owner}{/repo}",
        "subscriptions_url": "https://api.github.com/users/earl/subscriptions",
        "type": "User",
        "url": "https://api.github.com/users/earl"
    },
    "private": false,
    "pulls_url": "https://api.github.com/repos/earl/beanstalkc/pulls{/number}",
    "pushed_at": "2014-03-02T21:29:57Z",
    "releases_url": "https://api.github.com/repos/earl/beanstalkc/releases{/id}",
    "score": 1.0,
    "size": 421,
    "ssh_url": "git@github.com:earl/beanstalkc.git",
    "stargazers_count": 230,
    "stargazers_url": "https://api.github.com/repos/earl/beanstalkc/stargazers",
    "statuses_url": "https://api.github.com/repos/earl/beanstalkc/statuses/{sha}",
    "subscribers_url": "https://api.github.com/repos/earl/beanstalkc/subscribers",
    "subscription_url": "https://api.github.com/repos/earl/beanstalkc/subscription",
    "svn_url": "https://github.com/earl/beanstalkc",
    "tags_url": "https://api.github.com/repos/earl/beanstalkc/tags",
    "teams_url": "https://api.github.com/repos/earl/beanstalkc/teams",
    "trees_url": "https://api.github.com/repos/earl/beanstalkc/git/trees{/sha}",
    "updated_at": "2014-05-06T09:26:33Z",
    "url": "https://api.github.com/repos/earl/beanstalkc",
    "watchers": 230,
    "watchers_count": 230
}