[
    "ninja_ide.gui.main_panel",
    "tools.runner",
    "start_page",
    "ninja_ide.core.file_handling.filesystem_notifications.base_watcher",
    "results",
    "test_file_handling_nfile",
    "ninja_tests.core",
    "tree_projects_widget",
    "dialogs.plugins_store",
    "menubar",
    "ninja_ide.gui.main_panel.itab_item",
    "editor.editor",
    "gui.explorer.tabs.tree_projects_widget",
    "ninja_ide.gui.editor.sidebar_widget",
    "template_registry.bundled_project_types",
    "gui.editor.checkers.pep8_checker",
    "main_panel.main_container",
    "resources",
    "ninja_ide.tools.ui_tools",
    "ninja_ide.gui.main_panel.helpers",
    "find_in_files",
    "test_file_handling_nvirtualfilesystem",
    "updates",
    "itab_item",
    "gui.actions",
    "gui.editor.editor",
    "gui",
    "code_completion",
    "ninja_resources",
    "editor.minimap",
    "dependencies.pyflakes_mod.reporter",
    "test_code_completion_late_resolution",
    "ninja_ide.gui.main_panel.main_container",
    "plugin_util",
    "core.file_handling.filesystem_notifications.linux",
    "ninja_ide.core.encapsulated_env.nenvironment",
    "ninja_tests.core.plugins",
    "core.plugin_manager",
    "tools.jsonmanager.test_syntax_loader",
    "gui.editor.checkers",
    "ninja_ide.gui.tools_dock.results",
    "ninja_ide.core.template_registry.bundled_project_types",
    "dialogs",
    "preferences",
    "core.file_handling.filesystem_notifications.base_watcher",
    "gui.dialogs.preferences.preferences_editor_completion",
    "gui.main_panel.browser_widget",
    "test_plugin_manager",
    "filesystem_notifications.linux",
    "gui.dialogs.from_import_dialog",
    "tools_dock.actions",
    "dependencies.pep8mod",
    "explorer_container",
    "tabs.web_inspector",
    "files_handler",
    "ninja_ide.gui.tools_dock.actions",
    "test_plugin.test_plugin",
    "preferences_editor_completion",
    "ninja_ide.dependencies.pep8mod",
    "tools_dock",
    "handlers",
    "test_code_completion",
    "gui.explorer.nproject",
    "plugin_preferences",
    "ninja_ide.gui.main_panel.combo_editor",
    "helpers",
    "dialogs.schemes_manager",
    "ninja_ide.gui.dialogs.session_manager",
    "gui.main_panel.start_page",
    "ipc",
    "core.encapsulated_env.plugins_manager",
    "debugger",
    "ninja_ide.dependencies.pyflakes_mod.scripts.pyflakes",
    "dynamic_splitter",
    "api",
    "completion.test_model",
    "gui.editor.checkers.migration_2to3",
    "tools",
    "ninja_ide.intellisensei.analyzer",
    "locator.locator",
    "gui.dialogs.plugins_store",
    "ninja_ide.gui.main_panel.add_file_folder",
    "console_widget",
    "class_diagram",
    "filesystem_notifications",
    "preferences.preferences",
    "main_panel.itab_item",
    "ninja_ide.gui.dialogs.wizard_new_project",
    "ninja_ide.gui.explorer.tabs",
    "ninja_ide.gui.editor.editor",
    "nenvironment",
    "traceback_widget",
    "ninja_tests.core.plugins.test_plugin",
    "extensions.handlers",
    "gui.tools_dock.results",
    "ninja_ide.core.file_handling.filesystem_notifications.darwin",
    "ninja_ide.core.file_handling.filesystem_notifications.openbsd",
    "file_handling.nfile",
    "ninja_ide.gui.dialogs.schemes_manager",
    "encapsulated_env",
    "preferences_general",
    "main_panel.class_diagram",
    "main_panel.combo_editor",
    "migration_lists",
    "dependencies.pyflakes_mod.scripts",
    "ninja_ide.tools.introspection",
    "gui.dialogs.preferences.preferences_editor_general",
    "gui.central_widget",
    "split_orientation",
    "ninja_tests.gui.editor.test_highlighter",
    "ninja_ide.gui.main_panel.browser_widget",
    "gui.dialogs.preferences.preferences_old",
    "checkers.errors_lists",
    "core.file_handling.filesystem_notifications.openbsd",
    "gui.main_panel",
    "ninja_tests.core.examples",
    "gui.menus",
    "nsettings",
    "intellisensei",
    "ninja_ide.dependencies",
    "menus",
    "ninja_ide.gui.main_panel.image_viewer",
    "tools_dock.web_render",
    "errors_lists",
    "dialogs.language_manager",
    "gui.explorer",
    "ninja_tests.core.examples.file_for_tests",
    "explorer",
    "gui.editor.sidebar_widget",
    "ninja_ide.gui.explorer.tabs.tree_symbols_widget",
    "ninja-ide",
    "ninja_ide.gui.dialogs.language_manager",
    "explorer.tabs",
    "ninja_ide.gui.dialogs.about_ninja",
    "ninja_ide.gui.editor.checkers.migration_lists",
    "gui.explorer.tabs.web_inspector",
    "core.template_registry.ntemplate_registry",
    "ninja_tests.tools.completion",
    "jsonmanager.test_ninja_project",
    "gui.tools_dock.shortcut_manager",
    "core.template_registry.bundled_project_types",
    "file_handling.filesystem_notifications.linux",
    "highlighter",
    "core.file_handling.filesystem_notifications",
    "ninja_ide.core.plugin_services",
    "explorer.explorer_container",
    "gui.tools_dock.web_render",
    "image_viewer",
    "pep8_checker",
    "ninja_ide.gui.dialogs.preferences",
    "gui.main_panel.actions",
    "dialogs.add_to_project",
    "intellisensei.analyzer.analyzer",
    "editor.checkers.errors_lists",
    "tools.get_system_path",
    "tools_dock.shortcut_manager",
    "explorer.tabs.tree_symbols_widget",
    "neditable",
    "ninja_tests.core.test_file_manager",
    "tabs.tree_symbols_widget",
    "ninja_ide.gui.main_panel.files_handler",
    "tools.jsonmanager",
    "new_project_manager",
    "core.plugins.test_plugin",
    "tools_dock.results",
    "ninja_ide.tools",
    "completion.code_completion",
    "completion.completer_widget",
    "misc.test_console_widget",
    "editor.neditable",
    "gui.dialogs.project_properties_widget",
    "pyflakes_mod.scripts.pyflakes",
    "ninja_ide.ninja_resources",
    "main_container",
    "preferences.preferences_editor_completion",
    "base_watcher",
    "ninja_ide.core.file_handling.filesystem_notifications.windows",
    "ninja_ide.gui.dialogs.preferences.preferences_editor_configuration",
    "gui.editor.test_highlighter",
    "gui.editor.python_syntax",
    "tools_dock.tools_dock",
    "file_for_tests",
    "gui.main_panel.image_viewer",
    "ninja_tests",
    "ninja_ide.core.file_handling.nfile",
    "gui.dialogs.preferences.preferences_execution",
    "ninja_ide.core.ipc",
    "intellisensei.completion.completer",
    "ninja_ide.tools.locator.locator",
    "file_handling.filesystem_notifications.windows",
    "core.test_file_handling_nfile",
    "file_handling.filesystem_notifications",
    "tools.locator.locator_widget",
    "tools.jsonmanager.test_ninja_project",
    "gui.dialogs.language_manager",
    "tools.console",
    "tools.ui_tools",
    "project_properties_widget",
    "test_model",
    "file_handling",
    "editor.checkers",
    "ninja_ide.intellisensei.completion",
    "ninja_ide.gui.explorer.explorer_container",
    "checkers.migration_2to3",
    "analyzer.analyzer",
    "dependencies",
    "tools.completion.test_code_completion_late_resolution",
    "editor.python_syntax",
    "ninja_ide.gui.dialogs.plugins_manager",
    "explorer.tabs.web_inspector",
    "ninja_ide.gui.dialogs.preferences.preferences_editor_general",
    "core.plugin_interfaces",
    "preferences_execution",
    "messages",
    "intellisensei.completion",
    "central_widget",
    "test_ninja_project",
    "gui.tools_dock.tools_dock",
    "gui.main_panel.main_container",
    "locator_widget",
    "tools.completion.test_code_completion",
    "pyflakes_mod.checker",
    "dialogs.preferences.preferences_old",
    "ninja_ide.extensions",
    "misc",
    "core.plugins.test_plugin.test_plugin",
    "pyflakes_mod",
    "tools.utils",
    "analyzer.model",
    "ninja_ide.gui.editor.checkers",
    "preferences.preferences_editor_scheme_designer",
    "dialogs.wizard_new_project",
    "ninja_ide.tools.locator.locator_widget",
    "pyflakes_mod.scripts",
    "scripts.pyflakes",
    "tools.debugger",
    "ninja_ide.core",
    "ninja_tests.gui.test_status_bar",
    "ninja_ide.core.plugin",
    "checker",
    "ninja_ide.gui.dynamic_splitter",
    "test_highlighter",
    "ninja_tests.core.test_file_handling_nvirtualfilesystem",
    "filesystem_notifications.darwin",
    "explorer.nproject",
    "ninja_ide.intellisensei.completion.code_completion",
    "gui.main_panel.class_diagram",
    "main_panel.add_file_folder",
    "completion.completer",
    "gui.main_panel.combo_editor",
    "add_to_project",
    "ninja_ide.intellisensei.analyzer.analyzer_daemon",
    "intellisensei.completion.code_completion",
    "intellisensei.completion.completer_widget",
    "dialogs.preferences.preferences_editor_configuration",
    "main_panel.actions",
    "ninja_ide.core.core",
    "test_status_bar",
    "ninja_ide.core.file_handling.file_manager",
    "checkers.pep8_checker",
    "language_manager",
    "ninja_ide.gui.updates",
    "dependencies.pyflakes_mod.messages",
    "gui.dialogs.preferences.preferences_editor_scheme_designer",
    "dialogs.preferences.preferences_general",
    "tools.completion.test_analyzer",
    "dialogs.about_ninja",
    "tools.locator",
    "runner",
    "plugins",
    "file_handling.filesystem_notifications.openbsd",
    "core.core",
    "ninja_ide.gui.editor.helpers",
    "completion.test_completer",
    "dialogs.traceback_widget",
    "tools.completion",
    "examples.file_for_tests",
    "ninja_ide.core.settings",
    "dialogs.preferences",
    "core.file_handling",
    "tools.locator.locator",
    "ninja_ide.gui.main_panel.start_page",
    "ninja_ide.gui.central_widget",
    "gui.main_panel.files_handler",
    "dialogs.test_preferences",
    "ninja_ide.gui.main_panel.main_selector",
    "locator.locator_widget",
    "ninja_ide.gui.editor.checkers.pep8_checker",
    "nfilesystem",
    "dialogs.python_detect_dialog",
    "gui.misc",
    "ninja_ide.gui.dialogs.plugins_store",
    "ui_tools",
    "ninja_ide.gui",
    "gui.dynamic_splitter",
    "web_render",
    "template_registry.ntemplate_registry",
    "gui.main_panel.itab_item",
    "scripts",
    "checkers",
    "dialogs.preferences.preferences_editor_general",
    "ninja_ide.gui.tools_dock.web_render",
    "tools.json_manager",
    "preferences.preferences_execution",
    "core.plugin",
    "dialogs.from_import_dialog",
    "ninja_ide.gui.dialogs.preferences.preferences_editor_scheme_designer",
    "windows",
    "ninja_tests.gui.misc.test_console_widget",
    "gui.test_status_bar",
    "ninja_ide.intellisensei.analyzer.analyzer",
    "helpers.split_orientation",
    "file_handling.nfilesystem",
    "gui.main_panel.add_file_folder",
    "explorer.actions",
    "ninja_ide.tools.json_manager",
    "core.test_file_manager",
    "ninja_tests.tools.test_locator",
    "main_panel.image_viewer",
    "ninja_tests.tools.completion.test_analyzer",
    "syntax_highlighter",
    "completion.test_analyzer",
    "file_handling.filesystem_notifications.darwin",
    "editor.syntax_highlighter",
    "ninja_ide.intellisensei.completion.completer",
    "core.template_registry",
    "gui.dialogs.session_manager",
    "completion",
    "ninja_ide.gui.editor",
    "dependencies.pyflakes_mod",
    "core.test_plugin_manager",
    "dependencies.pyflakes_mod.scripts.pyflakes",
    "pyflakes_mod.messages",
    "ninja_ide.core.plugin_interfaces",
    "gui.dialogs.schemes_manager",
    "darwin",
    "main_panel.start_page",
    "ninja_ide.dependencies.pyflakes_mod.messages",
    "editor.checkers.errors_checker",
    "tools_dock.run_widget",
    "dialogs.session_manager",
    "gui.main_panel.helpers",
    "gui.updates",
    "filesystem_notifications.base_watcher",
    "ninja_ide.gui.main_panel.class_diagram",
    "ninja_ide.gui.dialogs.preferences.preferences_shortcuts",
    "core.test_file_handling_nvirtualfilesystem",
    "settings",
    "core.encapsulated_env",
    "core.file_handling.file_manager",
    "dependencies.pyflakes_mod.api",
    "combo_editor",
    "ninja_ide.gui.tools_dock.tools_dock",
    "completion.test_code_completion_late_resolution",
    "preferences_editor_general",
    "dialogs.preferences.preferences",
    "gui.explorer.actions",
    "gui.tools_dock.actions",
    "core.plugin_util",
    "dialogs.preferences.preferences_shortcuts",
    "gui.editor.checkers.errors_lists",
    "reporter",
    "main_panel.helpers.split_orientation",
    "plugins_manager",
    "test_plugin_interfaces",
    "ninja_ide.gui.explorer",
    "gui.notification",
    "editor.checkers.migration_lists",
    "gui.dialogs.new_project_manager",
    "ninja_ide.intellisensei",
    "ninja_tests.tools",
    "ninja_ide.gui.notification",
    "gui.dialogs.preferences.preferences_editor_configuration",
    "ninja_ide.tools.debugger",
    "analyzer",
    "ninja_ide.gui.main_panel.helpers.split_orientation",
    "tools.introspection",
    "ninja_ide.core.encapsulated_env",
    "core.file_handling.nfilesystem",
    "core.file_handling.filesystem_notifications.windows",
    "ninja_ide.tools.get_system_path",
    "plugin",
    "gui.tools_dock",
    "browser_widget",
    "gui.main_panel.main_selector",
    "run_widget",
    "cliparser",
    "ninja_ide.dependencies.pyflakes_mod.scripts",
    "ninja_ide.gui.explorer.actions",
    "ninja_ide.core.template_registry",
    "linux",
    "intellisensei.analyzer.analyzer_daemon",
    "main_panel.files_handler",
    "tabs.tree_projects_widget",
    "editor.helpers",
    "gui.dialogs.preferences.preferences_general",
    "ninja_ide.gui.explorer.tabs.tree_projects_widget",
    "core.file_handling.nfile",
    "ninja_ide.gui.status_bar",
    "test_completer",
    "gui.explorer.tabs",
    "ninja_ide.gui.editor.checkers.migration_2to3",
    "ninja_tests.tools.completion.test_completer",
    "ninja_tests.tools.completion.test_code_completion",
    "dialogs.new_project_manager",
    "preferences_old",
    "file_manager",
    "ninja_ide.gui.editor.minimap",
    "ninja_ide.gui.dialogs.preferences.preferences_general",
    "ninja_tests.tools.jsonmanager.test_ninja_project",
    "gui.dialogs.preferences.preferences_shortcuts",
    "gui.ide",
    "ninja_tests.tools.jsonmanager",
    "gui.tools_dock.plugin_preferences",
    "ninja_ide.gui.dialogs",
    "add_file_folder",
    "gui.editor.checkers.migration_lists",
    "test_locator",
    "editor.sidebar_widget",
    "preferences_shortcuts",
    "ninja_ide.gui.editor.checkers.errors_checker",
    "gui.explorer.explorer_container",
    "encapsulated_env.nenvironment",
    "tools_dock.console_widget",
    "file_handling.file_manager",
    "ninja_ide.dependencies.pyflakes_mod",
    "ninja_ide.dependencies.pyflakes_mod.api",
    "core.plugin_services",
    "tools_dock.plugin_preferences",
    "core.settings",
    "ninja_ide.gui.tools_dock.run_widget",
    "gui.misc.test_console_widget",
    "gui.editor.highlighter",
    "ninja_ide.core.plugin_util",
    "python_syntax",
    "gui.dialogs.test_preferences",
    "ninja_tests.gui",
    "ninja_ide.gui.tools_dock.shortcut_manager",
    "core.file_handling.filesystem_notifications.darwin",
    "plugin_interfaces",
    "python_detect_dialog",
    "gui.dialogs.plugins_manager",
    "editor.checkers.pep8_checker",
    "ninja_ide.gui.dialogs.preferences.preferences_execution",
    "core.plugins",
    "dialogs.preferences.preferences_editor_scheme_designer",
    "gui.tools_dock.run_widget",
    "tools.logger",
    "ninja_ide.gui.dialogs.preferences.preferences_old",
    "ninja_tests.core.plugins.test_plugin.test_plugin",
    "dialogs.plugins_manager",
    "ninja_tests.tools.completion.test_code_completion_late_resolution",
    "ninja_ide.gui.editor.neditable",
    "pyflakes",
    "gui.menus.menubar",
    "filesystem_notifications.windows",
    "main_selector",
    "bundled_project_types",
    "status_bar",
    "ninja_ide.gui.dialogs.traceback_widget",
    "model",
    "explorer.tabs.tree_projects_widget",
    "core.examples",
    "gui.editor.syntax_highlighter",
    "ninja_tests.core.test_plugin_interfaces",
    "pep8mod",
    "pyflakes_mod.api",
    "actions",
    "ninja_ide.gui.editor.highlighter",
    "ninja_ide.gui.main_panel.actions",
    "ninja_ide.dependencies.pyflakes_mod.checker",
    "ninja_ide.core.file_handling.filesystem_notifications.linux",
    "ninja_ide.core.nsettings",
    "preferences.preferences_editor_configuration",
    "ninja_ide.gui.explorer.nproject",
    "ninja_ide.gui.actions",
    "console",
    "ninja_ide.extensions.handlers",
    "ninja_ide.gui.tools_dock.find_in_files",
    "ninja_ide.tools.logger",
    "logger",
    "preferences.preferences_editor_general",
    "tools.completion.test_completer",
    "web_inspector",
    "gui.editor.neditable",
    "ninja_ide.gui.tools_dock.console_widget",
    "ninja_ide.tools.locator",
    "gui.tools_dock.console_widget",
    "test_syntax_loader",
    "ninja_ide.gui.dialogs.new_project_manager",
    "encapsulated_env.plugins_manager",
    "ninja_ide.core.file_handling",
    "test_plugin",
    "ninja_ide.tools.console",
    "gui.dialogs.python_detect_dialog",
    "about_ninja",
    "core.ipc",
    "migration_2to3",
    "file_handling.filesystem_notifications.base_watcher",
    "gui.dialogs.wizard_new_project",
    "ninja_ide.intellisensei.completion.completer_widget",
    "ninja_ide.gui.ide",
    "ninja_tests.tools.completion.test_model",
    "ninja_ide.gui.dialogs.from_import_dialog",
    "ninja_ide.gui.tools_dock.plugin_preferences",
    "gui.editor.checkers.errors_checker",
    "dialogs.preferences.preferences_execution",
    "core.cliparser",
    "preferences.preferences_general",
    "intellisensei.analyzer",
    "examples",
    "minimap",
    "ninja_ide.translations",
    "ntemplate_registry",
    "gui.dialogs.preferences.preferences",
    "completer_widget",
    "main_panel",
    "preferences_editor_scheme_designer",
    "gui.editor.helpers",
    "ninja_ide.core.encapsulated_env.plugins_manager",
    "tools.test_locator",
    "core",
    "ninja_ide.gui.dialogs.preferences.preferences_editor_completion",
    "editor.checkers.migration_2to3",
    "gui.dialogs.preferences",
    "ninja_ide.intellisensei.analyzer.model",
    "dialogs.project_properties_widget",
    "gui.editor",
    "analyzer_daemon",
    "ninja_tests.gui.dialogs.test_preferences",
    "plugins.test_plugin.test_plugin",
    "ninja_ide.gui.tools_dock",
    "ninja_ide",
    "ninja_ide.dependencies.pyflakes_mod.reporter",
    "menus.menubar",
    "ninja_ide.tools.runner",
    "main_panel.browser_widget",
    "ninja_tests.gui.misc",
    "preferences.preferences_shortcuts",
    "extensions",
    "ninja_ide.core.cliparser",
    "plugin_manager",
    "tools.completion.test_model",
    "ide",
    "ninja_ide.core.file_handling.filesystem_notifications",
    "tools_dock.find_in_files",
    "ninja_ide.gui.editor.python_syntax",
    "ninja_ide.gui.editor.syntax_highlighter",
    "core.test_plugin_interfaces",
    "from_import_dialog",
    "locator",
    "ninja_ide.tools.utils",
    "test_console_widget",
    "main_panel.helpers",
    "gui.main_panel.helpers.split_orientation",
    "ninja_ide.gui.editor.checkers.errors_lists",
    "translations",
    "pyflakes_mod.reporter",
    "ninja_tests.core.test_file_handling_nfile",
    "gui.tools_dock.find_in_files",
    "test_analyzer",
    "completion.test_code_completion",
    "gui.editor.minimap",
    "editor",
    "editor.highlighter",
    "preferences.preferences_old",
    "core.encapsulated_env.nenvironment",
    "core.examples.file_for_tests",
    "intellisensei.analyzer.model",
    "test_file_manager",
    "ninja_ide.core.template_registry.ntemplate_registry",
    "ninja_tests.tools.jsonmanager.test_syntax_loader",
    "editor.test_highlighter",
    "main_panel.main_selector",
    "gui.status_bar",
    "get_system_path",
    "plugins_store",
    "ninja_tests.gui.editor",
    "ninja_ide.gui.menus.menubar",
    "ninja_ide.gui.menus",
    "checkers.migration_lists",
    "gui.dialogs.add_to_project",
    "jsonmanager",
    "shortcut_manager",
    "test_preferences",
    "dialogs.preferences.preferences_editor_completion",
    "openbsd",
    "sidebar_widget",
    "gui.dialogs",
    "ninja_ide.gui.explorer.tabs.web_inspector",
    "ninja_ide.gui.dialogs.preferences.preferences",
    "utils",
    "ninja_ide.gui.dialogs.python_detect_dialog",
    "dependencies.pyflakes_mod.checker",
    "completer",
    "errors_checker",
    "plugins.test_plugin",
    "introspection",
    "template_registry",
    "preferences_editor_configuration",
    "nproject",
    "ninja_ide.gui.dialogs.project_properties_widget",
    "ninja_ide.gui.dialogs.add_to_project",
    "gui.dialogs.traceback_widget",
    "gui.explorer.tabs.tree_symbols_widget",
    "ninja_ide.core.file_handling.nfilesystem",
    "core.nsettings",
    "analyzer.analyzer_daemon",
    "tabs",
    "ninja_tests.core.test_plugin_manager",
    "schemes_manager",
    "checkers.errors_checker",
    "wizard_new_project",
    "ninja_tests.gui.dialogs",
    "nfile",
    "ninja_ide.core.plugin_manager",
    "session_manager",
    "plugin_services",
    "gui.dialogs.about_ninja",
    "jsonmanager.test_syntax_loader",
    "ninja_ide.resources",
    "filesystem_notifications.openbsd",
    "json_manager",
    "notification",
    "tree_symbols_widget"
]