[
    "linkedinsearch",
    "yandexsearch",
    "discovery.yandexsearch",
    "discovery.googlesearch",
    "googlesearch",
    "discovery.pgpsearch",
    "parser",
    "bingsearch",
    "discovery.bingsearch",
    "pgpsearch",
    "discovery.linkedinsearch",
    "discovery.exaleadsearch",
    "theHarvester",
    "hostchecker",
    "exaleadsearch",
    "discovery"
]