{
    "archive_url": "https://api.github.com/repos/python/pythondotorg/{archive_format}{/ref}",
    "assignees_url": "https://api.github.com/repos/python/pythondotorg/assignees{/user}",
    "blobs_url": "https://api.github.com/repos/python/pythondotorg/git/blobs{/sha}",
    "branches_url": "https://api.github.com/repos/python/pythondotorg/branches{/branch}",
    "clone_url": "https://github.com/python/pythondotorg.git",
    "collaborators_url": "https://api.github.com/repos/python/pythondotorg/collaborators{/collaborator}",
    "comments_url": "https://api.github.com/repos/python/pythondotorg/comments{/number}",
    "commits_url": "https://api.github.com/repos/python/pythondotorg/commits{/sha}",
    "compare_url": "https://api.github.com/repos/python/pythondotorg/compare/{base}...{head}",
    "contents_url": "https://api.github.com/repos/python/pythondotorg/contents/{+path}",
    "contributors_url": "https://api.github.com/repos/python/pythondotorg/contributors",
    "created_at": "2012-10-08T16:00:15Z",
    "default_branch": "master",
    "description": "pythondotorg",
    "downloads_url": "https://api.github.com/repos/python/pythondotorg/downloads",
    "events_url": "https://api.github.com/repos/python/pythondotorg/events",
    "fork": false,
    "forks": 104,
    "forks_count": 104,
    "forks_url": "https://api.github.com/repos/python/pythondotorg/forks",
    "full_name": "python/pythondotorg",
    "git_commits_url": "https://api.github.com/repos/python/pythondotorg/git/commits{/sha}",
    "git_refs_url": "https://api.github.com/repos/python/pythondotorg/git/refs{/sha}",
    "git_tags_url": "https://api.github.com/repos/python/pythondotorg/git/tags{/sha}",
    "git_url": "git://github.com/python/pythondotorg.git",
    "has_downloads": true,
    "has_issues": true,
    "has_wiki": true,
    "homepage": null,
    "hooks_url": "https://api.github.com/repos/python/pythondotorg/hooks",
    "html_url": "https://github.com/python/pythondotorg",
    "id": 6127047,
    "issue_comment_url": "https://api.github.com/repos/python/pythondotorg/issues/comments/{number}",
    "issue_events_url": "https://api.github.com/repos/python/pythondotorg/issues/events{/number}",
    "issues_url": "https://api.github.com/repos/python/pythondotorg/issues{/number}",
    "keys_url": "https://api.github.com/repos/python/pythondotorg/keys{/key_id}",
    "labels_url": "https://api.github.com/repos/python/pythondotorg/labels{/name}",
    "language": "Python",
    "languages_url": "https://api.github.com/repos/python/pythondotorg/languages",
    "merges_url": "https://api.github.com/repos/python/pythondotorg/merges",
    "milestones_url": "https://api.github.com/repos/python/pythondotorg/milestones{/number}",
    "mirror_url": null,
    "name": "pythondotorg",
    "notifications_url": "https://api.github.com/repos/python/pythondotorg/notifications{?since,all,participating}",
    "open_issues": 161,
    "open_issues_count": 161,
    "owner": {
        "avatar_url": "https://avatars.githubusercontent.com/u/1525981?",
        "events_url": "https://api.github.com/users/python/events{/privacy}",
        "followers_url": "https://api.github.com/users/python/followers",
        "following_url": "https://api.github.com/users/python/following{/other_user}",
        "gists_url": "https://api.github.com/users/python/gists{/gist_id}",
        "gravatar_id": "406cc3bbacd9ebf8d0b8740c8d957a64",
        "html_url": "https://github.com/python",
        "id": 1525981,
        "login": "python",
        "organizations_url": "https://api.github.com/users/python/orgs",
        "received_events_url": "https://api.github.com/users/python/received_events",
        "repos_url": "https://api.github.com/users/python/repos",
        "site_admin": false,
        "starred_url": "https://api.github.com/users/python/starred{/owner}{/repo}",
        "subscriptions_url": "https://api.github.com/users/python/subscriptions",
        "type": "Organization",
        "url": "https://api.github.com/users/python"
    },
    "private": false,
    "pulls_url": "https://api.github.com/repos/python/pythondotorg/pulls{/number}",
    "pushed_at": "2014-05-06T15:37:20Z",
    "releases_url": "https://api.github.com/repos/python/pythondotorg/releases{/id}",
    "score": 1.0,
    "size": 19076,
    "ssh_url": "git@github.com:python/pythondotorg.git",
    "stargazers_count": 417,
    "stargazers_url": "https://api.github.com/repos/python/pythondotorg/stargazers",
    "statuses_url": "https://api.github.com/repos/python/pythondotorg/statuses/{sha}",
    "subscribers_url": "https://api.github.com/repos/python/pythondotorg/subscribers",
    "subscription_url": "https://api.github.com/repos/python/pythondotorg/subscription",
    "svn_url": "https://github.com/python/pythondotorg",
    "tags_url": "https://api.github.com/repos/python/pythondotorg/tags",
    "teams_url": "https://api.github.com/repos/python/pythondotorg/teams",
    "trees_url": "https://api.github.com/repos/python/pythondotorg/git/trees{/sha}",
    "updated_at": "2014-05-06T15:37:20Z",
    "url": "https://api.github.com/repos/python/pythondotorg",
    "watchers": 417,
    "watchers_count": 417
}