{
    "archive_url": "https://api.github.com/repos/posativ/weave-minimal/{archive_format}{/ref}",
    "assignees_url": "https://api.github.com/repos/posativ/weave-minimal/assignees{/user}",
    "blobs_url": "https://api.github.com/repos/posativ/weave-minimal/git/blobs{/sha}",
    "branches_url": "https://api.github.com/repos/posativ/weave-minimal/branches{/branch}",
    "clone_url": "https://github.com/posativ/weave-minimal.git",
    "collaborators_url": "https://api.github.com/repos/posativ/weave-minimal/collaborators{/collaborator}",
    "comments_url": "https://api.github.com/repos/posativ/weave-minimal/comments{/number}",
    "commits_url": "https://api.github.com/repos/posativ/weave-minimal/commits{/sha}",
    "compare_url": "https://api.github.com/repos/posativ/weave-minimal/compare/{base}...{head}",
    "contents_url": "https://api.github.com/repos/posativ/weave-minimal/contents/{+path}",
    "contributors_url": "https://api.github.com/repos/posativ/weave-minimal/contributors",
    "created_at": "2011-12-03T20:17:33Z",
    "default_branch": "master",
    "description": "lightweight firefox weave/sync server",
    "downloads_url": "https://api.github.com/repos/posativ/weave-minimal/downloads",
    "events_url": "https://api.github.com/repos/posativ/weave-minimal/events",
    "fork": false,
    "forks": 6,
    "forks_count": 6,
    "forks_url": "https://api.github.com/repos/posativ/weave-minimal/forks",
    "full_name": "posativ/weave-minimal",
    "git_commits_url": "https://api.github.com/repos/posativ/weave-minimal/git/commits{/sha}",
    "git_refs_url": "https://api.github.com/repos/posativ/weave-minimal/git/refs{/sha}",
    "git_tags_url": "https://api.github.com/repos/posativ/weave-minimal/git/tags{/sha}",
    "git_url": "git://github.com/posativ/weave-minimal.git",
    "has_downloads": true,
    "has_issues": true,
    "has_wiki": false,
    "homepage": "",
    "hooks_url": "https://api.github.com/repos/posativ/weave-minimal/hooks",
    "html_url": "https://github.com/posativ/weave-minimal",
    "id": 2906829,
    "issue_comment_url": "https://api.github.com/repos/posativ/weave-minimal/issues/comments/{number}",
    "issue_events_url": "https://api.github.com/repos/posativ/weave-minimal/issues/events{/number}",
    "issues_url": "https://api.github.com/repos/posativ/weave-minimal/issues{/number}",
    "keys_url": "https://api.github.com/repos/posativ/weave-minimal/keys{/key_id}",
    "labels_url": "https://api.github.com/repos/posativ/weave-minimal/labels{/name}",
    "language": "Python",
    "languages_url": "https://api.github.com/repos/posativ/weave-minimal/languages",
    "merges_url": "https://api.github.com/repos/posativ/weave-minimal/merges",
    "milestones_url": "https://api.github.com/repos/posativ/weave-minimal/milestones{/number}",
    "mirror_url": null,
    "name": "weave-minimal",
    "notifications_url": "https://api.github.com/repos/posativ/weave-minimal/notifications{?since,all,participating}",
    "open_issues": 2,
    "open_issues_count": 2,
    "owner": {
        "avatar_url": "https://avatars.githubusercontent.com/u/337602?",
        "events_url": "https://api.github.com/users/posativ/events{/privacy}",
        "followers_url": "https://api.github.com/users/posativ/followers",
        "following_url": "https://api.github.com/users/posativ/following{/other_user}",
        "gists_url": "https://api.github.com/users/posativ/gists{/gist_id}",
        "gravatar_id": null,
        "html_url": "https://github.com/posativ",
        "id": 337602,
        "login": "posativ",
        "organizations_url": "https://api.github.com/users/posativ/orgs",
        "received_events_url": "https://api.github.com/users/posativ/received_events",
        "repos_url": "https://api.github.com/users/posativ/repos",
        "site_admin": false,
        "starred_url": "https://api.github.com/users/posativ/starred{/owner}{/repo}",
        "subscriptions_url": "https://api.github.com/users/posativ/subscriptions",
        "type": "User",
        "url": "https://api.github.com/users/posativ"
    },
    "private": false,
    "pulls_url": "https://api.github.com/repos/posativ/weave-minimal/pulls{/number}",
    "pushed_at": "2014-01-08T13:51:56Z",
    "releases_url": "https://api.github.com/repos/posativ/weave-minimal/releases{/id}",
    "score": 1.0,
    "size": 691,
    "ssh_url": "git@github.com:posativ/weave-minimal.git",
    "stargazers_count": 86,
    "stargazers_url": "https://api.github.com/repos/posativ/weave-minimal/stargazers",
    "statuses_url": "https://api.github.com/repos/posativ/weave-minimal/statuses/{sha}",
    "subscribers_url": "https://api.github.com/repos/posativ/weave-minimal/subscribers",
    "subscription_url": "https://api.github.com/repos/posativ/weave-minimal/subscription",
    "svn_url": "https://github.com/posativ/weave-minimal",
    "tags_url": "https://api.github.com/repos/posativ/weave-minimal/tags",
    "teams_url": "https://api.github.com/repos/posativ/weave-minimal/teams",
    "trees_url": "https://api.github.com/repos/posativ/weave-minimal/git/trees{/sha}",
    "updated_at": "2014-05-05T05:39:20Z",
    "url": "https://api.github.com/repos/posativ/weave-minimal",
    "watchers": 86,
    "watchers_count": 86
}