{
    "libs": [
        "logging",
        "StringIO",
        "unittest",
        "xmlrunner",
        "datetime",
        "sys",
        "re",
        "json",
        "collections",
        "io"
    ]
}