{
    "archive_url": "https://api.github.com/repos/getsentry/raven-python/{archive_format}{/ref}",
    "assignees_url": "https://api.github.com/repos/getsentry/raven-python/assignees{/user}",
    "blobs_url": "https://api.github.com/repos/getsentry/raven-python/git/blobs{/sha}",
    "branches_url": "https://api.github.com/repos/getsentry/raven-python/branches{/branch}",
    "clone_url": "https://github.com/getsentry/raven-python.git",
    "collaborators_url": "https://api.github.com/repos/getsentry/raven-python/collaborators{/collaborator}",
    "comments_url": "https://api.github.com/repos/getsentry/raven-python/comments{/number}",
    "commits_url": "https://api.github.com/repos/getsentry/raven-python/commits{/sha}",
    "compare_url": "https://api.github.com/repos/getsentry/raven-python/compare/{base}...{head}",
    "contents_url": "https://api.github.com/repos/getsentry/raven-python/contents/{+path}",
    "contributors_url": "https://api.github.com/repos/getsentry/raven-python/contributors",
    "created_at": "2011-10-06T18:30:01Z",
    "default_branch": "master",
    "description": "Raven is a Python client for Sentry (getsentry.com)",
    "downloads_url": "https://api.github.com/repos/getsentry/raven-python/downloads",
    "events_url": "https://api.github.com/repos/getsentry/raven-python/events",
    "fork": false,
    "forks": 444,
    "forks_count": 444,
    "forks_url": "https://api.github.com/repos/getsentry/raven-python/forks",
    "full_name": "getsentry/raven-python",
    "git_commits_url": "https://api.github.com/repos/getsentry/raven-python/git/commits{/sha}",
    "git_refs_url": "https://api.github.com/repos/getsentry/raven-python/git/refs{/sha}",
    "git_tags_url": "https://api.github.com/repos/getsentry/raven-python/git/tags{/sha}",
    "git_url": "git://github.com/getsentry/raven-python.git",
    "has_downloads": true,
    "has_issues": true,
    "has_wiki": false,
    "homepage": "https://www.getsentry.com",
    "hooks_url": "https://api.github.com/repos/getsentry/raven-python/hooks",
    "html_url": "https://github.com/getsentry/raven-python",
    "id": 2527828,
    "issue_comment_url": "https://api.github.com/repos/getsentry/raven-python/issues/comments/{number}",
    "issue_events_url": "https://api.github.com/repos/getsentry/raven-python/issues/events{/number}",
    "issues_url": "https://api.github.com/repos/getsentry/raven-python/issues{/number}",
    "keys_url": "https://api.github.com/repos/getsentry/raven-python/keys{/key_id}",
    "labels_url": "https://api.github.com/repos/getsentry/raven-python/labels{/name}",
    "language": "Python",
    "languages_url": "https://api.github.com/repos/getsentry/raven-python/languages",
    "merges_url": "https://api.github.com/repos/getsentry/raven-python/merges",
    "milestones_url": "https://api.github.com/repos/getsentry/raven-python/milestones{/number}",
    "mirror_url": null,
    "name": "raven-python",
    "notifications_url": "https://api.github.com/repos/getsentry/raven-python/notifications{?since,all,participating}",
    "open_issues": 59,
    "open_issues_count": 59,
    "owner": {
        "avatar_url": "https://avatars.githubusercontent.com/u/1396951?",
        "events_url": "https://api.github.com/users/getsentry/events{/privacy}",
        "followers_url": "https://api.github.com/users/getsentry/followers",
        "following_url": "https://api.github.com/users/getsentry/following{/other_user}",
        "gists_url": "https://api.github.com/users/getsentry/gists{/gist_id}",
        "gravatar_id": "8454a66077e5ded6d2bdaf5cd77e391c",
        "html_url": "https://github.com/getsentry",
        "id": 1396951,
        "login": "getsentry",
        "organizations_url": "https://api.github.com/users/getsentry/orgs",
        "received_events_url": "https://api.github.com/users/getsentry/received_events",
        "repos_url": "https://api.github.com/users/getsentry/repos",
        "site_admin": false,
        "starred_url": "https://api.github.com/users/getsentry/starred{/owner}{/repo}",
        "subscriptions_url": "https://api.github.com/users/getsentry/subscriptions",
        "type": "Organization",
        "url": "https://api.github.com/users/getsentry"
    },
    "private": false,
    "pulls_url": "https://api.github.com/repos/getsentry/raven-python/pulls{/number}",
    "pushed_at": "2014-04-28T16:59:03Z",
    "releases_url": "https://api.github.com/repos/getsentry/raven-python/releases{/id}",
    "score": 1.0,
    "size": 7779,
    "ssh_url": "git@github.com:getsentry/raven-python.git",
    "stargazers_count": 739,
    "stargazers_url": "https://api.github.com/repos/getsentry/raven-python/stargazers",
    "statuses_url": "https://api.github.com/repos/getsentry/raven-python/statuses/{sha}",
    "subscribers_url": "https://api.github.com/repos/getsentry/raven-python/subscribers",
    "subscription_url": "https://api.github.com/repos/getsentry/raven-python/subscription",
    "svn_url": "https://github.com/getsentry/raven-python",
    "tags_url": "https://api.github.com/repos/getsentry/raven-python/tags",
    "teams_url": "https://api.github.com/repos/getsentry/raven-python/teams",
    "trees_url": "https://api.github.com/repos/getsentry/raven-python/git/trees{/sha}",
    "updated_at": "2014-05-06T08:37:15Z",
    "url": "https://api.github.com/repos/getsentry/raven-python",
    "watchers": 739,
    "watchers_count": 739
}