[
    "operations",
    "management.commands.migrate",
    "south.patches.model_options",
    "patches.global_settings",
    "south.models",
    "autodetector",
    "loader",
    "south.migrations",
    "atomic",
    "schema.sqlite3",
    "mysql",
    "south.datastructures",
    "south.operations",
    "south.migration",
    "south.management.commands.sqlmigrate",
    "tests.migrations.test_base",
    "sqlmigrate",
    "south.loader",
    "management",
    "south.patches.fields",
    "patches",
    "makemigrations",
    "operations.base",
    "graph",
    "south.writer",
    "writer",
    "commands.migrate",
    "signals",
    "patches.app_cache_methods",
    "south.patches.global_settings",
    "south.schema.sqlite3",
    "south.operations.base",
    "south.app_cache",
    "app_cache",
    "tests.schema.tests",
    "schema",
    "south.state",
    "tests",
    "schema_editor",
    "south.schema.postgresql",
    "termcolors",
    "south.recorder",
    "south.operations.special",
    "schema.models",
    "patches.schema_editor",
    "test_graph",
    "south.schema.oracle",
    "south.management.commands.migrate",
    "tests.schema.models",
    "tests.runtests",
    "migrations.models",
    "fields",
    "patches.signals",
    "schema.tests",
    "patches.django_1_4",
    "executor",
    "database_features",
    "operations.special",
    "management.commands",
    "south.management",
    "patches.model_options",
    "datastructures",
    "operations.fields",
    "migrate",
    "patches.database_features",
    "south.patches.django_1_4",
    "south.autodetector",
    "south.executor",
    "commands.makemigrations",
    "south.patches.app_cache_methods",
    "migration",
    "patches.routers",
    "syncdb",
    "south.patches.schema_editor",
    "management.commands.syncdb",
    "commands.syncdb",
    "south.operations.fields",
    "schema.postgresql",
    "management.commands.makemigrations",
    "south.patches.database_features",
    "management.commands.sqlmigrate",
    "migrations",
    "south.graph",
    "tests.migrations.test_graph",
    "models",
    "state",
    "south.management.commands",
    "tests.migrations",
    "special",
    "sqlite3",
    "recorder",
    "south.optimizer",
    "patches.termcolors",
    "copy-code",
    "south.patches.signals",
    "optimizer",
    "south.schema",
    "tests.migrations.models",
    "global_settings",
    "routers",
    "operations.models",
    "south.schema.mysql",
    "schema.mysql",
    "questioner",
    "patches.fields",
    "tests.schema",
    "south.management.commands.syncdb",
    "south.operations.models",
    "south.patches.atomic",
    "patches.atomic",
    "app_cache_methods",
    "commands",
    "postgresql",
    "django_1_4",
    "migrations.test_base",
    "commands.sqlmigrate",
    "south.questioner",
    "south.patches",
    "test_base",
    "south.patches.routers",
    "south.management.commands.makemigrations",
    "schema.oracle",
    "base",
    "runtests",
    "south.patches.termcolors",
    "oracle",
    "migrations.test_graph",
    "model_options",
    "south"
]