{
    "archive_url": "https://api.github.com/repos/kmmbvnr/django-fsm/{archive_format}{/ref}",
    "assignees_url": "https://api.github.com/repos/kmmbvnr/django-fsm/assignees{/user}",
    "blobs_url": "https://api.github.com/repos/kmmbvnr/django-fsm/git/blobs{/sha}",
    "branches_url": "https://api.github.com/repos/kmmbvnr/django-fsm/branches{/branch}",
    "clone_url": "https://github.com/kmmbvnr/django-fsm.git",
    "collaborators_url": "https://api.github.com/repos/kmmbvnr/django-fsm/collaborators{/collaborator}",
    "comments_url": "https://api.github.com/repos/kmmbvnr/django-fsm/comments{/number}",
    "commits_url": "https://api.github.com/repos/kmmbvnr/django-fsm/commits{/sha}",
    "compare_url": "https://api.github.com/repos/kmmbvnr/django-fsm/compare/{base}...{head}",
    "contents_url": "https://api.github.com/repos/kmmbvnr/django-fsm/contents/{+path}",
    "contributors_url": "https://api.github.com/repos/kmmbvnr/django-fsm/contributors",
    "created_at": "2010-05-31T14:03:48Z",
    "default_branch": "master",
    "description": "Django friendly finite state machine support",
    "downloads_url": "https://api.github.com/repos/kmmbvnr/django-fsm/downloads",
    "events_url": "https://api.github.com/repos/kmmbvnr/django-fsm/events",
    "fork": false,
    "forks": 47,
    "forks_count": 47,
    "forks_url": "https://api.github.com/repos/kmmbvnr/django-fsm/forks",
    "full_name": "kmmbvnr/django-fsm",
    "git_commits_url": "https://api.github.com/repos/kmmbvnr/django-fsm/git/commits{/sha}",
    "git_refs_url": "https://api.github.com/repos/kmmbvnr/django-fsm/git/refs{/sha}",
    "git_tags_url": "https://api.github.com/repos/kmmbvnr/django-fsm/git/tags{/sha}",
    "git_url": "git://github.com/kmmbvnr/django-fsm.git",
    "has_downloads": true,
    "has_issues": true,
    "has_wiki": true,
    "homepage": "",
    "hooks_url": "https://api.github.com/repos/kmmbvnr/django-fsm/hooks",
    "html_url": "https://github.com/kmmbvnr/django-fsm",
    "id": 695461,
    "issue_comment_url": "https://api.github.com/repos/kmmbvnr/django-fsm/issues/comments/{number}",
    "issue_events_url": "https://api.github.com/repos/kmmbvnr/django-fsm/issues/events{/number}",
    "issues_url": "https://api.github.com/repos/kmmbvnr/django-fsm/issues{/number}",
    "keys_url": "https://api.github.com/repos/kmmbvnr/django-fsm/keys{/key_id}",
    "labels_url": "https://api.github.com/repos/kmmbvnr/django-fsm/labels{/name}",
    "language": "Python",
    "languages_url": "https://api.github.com/repos/kmmbvnr/django-fsm/languages",
    "merges_url": "https://api.github.com/repos/kmmbvnr/django-fsm/merges",
    "milestones_url": "https://api.github.com/repos/kmmbvnr/django-fsm/milestones{/number}",
    "mirror_url": null,
    "name": "django-fsm",
    "notifications_url": "https://api.github.com/repos/kmmbvnr/django-fsm/notifications{?since,all,participating}",
    "open_issues": 2,
    "open_issues_count": 2,
    "owner": {
        "avatar_url": "https://avatars.githubusercontent.com/u/282529?",
        "events_url": "https://api.github.com/users/kmmbvnr/events{/privacy}",
        "followers_url": "https://api.github.com/users/kmmbvnr/followers",
        "following_url": "https://api.github.com/users/kmmbvnr/following{/other_user}",
        "gists_url": "https://api.github.com/users/kmmbvnr/gists{/gist_id}",
        "gravatar_id": "0a7d543a6a3d738bcd34b56c24002943",
        "html_url": "https://github.com/kmmbvnr",
        "id": 282529,
        "login": "kmmbvnr",
        "organizations_url": "https://api.github.com/users/kmmbvnr/orgs",
        "received_events_url": "https://api.github.com/users/kmmbvnr/received_events",
        "repos_url": "https://api.github.com/users/kmmbvnr/repos",
        "site_admin": false,
        "starred_url": "https://api.github.com/users/kmmbvnr/starred{/owner}{/repo}",
        "subscriptions_url": "https://api.github.com/users/kmmbvnr/subscriptions",
        "type": "User",
        "url": "https://api.github.com/users/kmmbvnr"
    },
    "private": false,
    "pulls_url": "https://api.github.com/repos/kmmbvnr/django-fsm/pulls{/number}",
    "pushed_at": "2014-05-01T04:48:54Z",
    "releases_url": "https://api.github.com/repos/kmmbvnr/django-fsm/releases{/id}",
    "score": 1.0,
    "size": 696,
    "ssh_url": "git@github.com:kmmbvnr/django-fsm.git",
    "stargazers_count": 325,
    "stargazers_url": "https://api.github.com/repos/kmmbvnr/django-fsm/stargazers",
    "statuses_url": "https://api.github.com/repos/kmmbvnr/django-fsm/statuses/{sha}",
    "subscribers_url": "https://api.github.com/repos/kmmbvnr/django-fsm/subscribers",
    "subscription_url": "https://api.github.com/repos/kmmbvnr/django-fsm/subscription",
    "svn_url": "https://github.com/kmmbvnr/django-fsm",
    "tags_url": "https://api.github.com/repos/kmmbvnr/django-fsm/tags",
    "teams_url": "https://api.github.com/repos/kmmbvnr/django-fsm/teams",
    "trees_url": "https://api.github.com/repos/kmmbvnr/django-fsm/git/trees{/sha}",
    "updated_at": "2014-05-05T10:04:51Z",
    "url": "https://api.github.com/repos/kmmbvnr/django-fsm",
    "watchers": 325,
    "watchers_count": 325
}