{
    "libs": [
        "core",
        "wsgi",
        "b",
        "defaults",
        "re",
        "shortcuts",
        "h",
        "middleware",
        "exceptions",
        "dispatch",
        "datetime",
        "sys",
        "test",
        "auth",
        "template",
        "contrib",
        "translation",
        "os",
        "warnings"
    ]
}