{
    "archive_url": "https://api.github.com/repos/danirus/django-comments-xtd/{archive_format}{/ref}",
    "assignees_url": "https://api.github.com/repos/danirus/django-comments-xtd/assignees{/user}",
    "blobs_url": "https://api.github.com/repos/danirus/django-comments-xtd/git/blobs{/sha}",
    "branches_url": "https://api.github.com/repos/danirus/django-comments-xtd/branches{/branch}",
    "clone_url": "https://github.com/danirus/django-comments-xtd.git",
    "collaborators_url": "https://api.github.com/repos/danirus/django-comments-xtd/collaborators{/collaborator}",
    "comments_url": "https://api.github.com/repos/danirus/django-comments-xtd/comments{/number}",
    "commits_url": "https://api.github.com/repos/danirus/django-comments-xtd/commits{/sha}",
    "compare_url": "https://api.github.com/repos/danirus/django-comments-xtd/compare/{base}...{head}",
    "contents_url": "https://api.github.com/repos/danirus/django-comments-xtd/contents/{+path}",
    "contributors_url": "https://api.github.com/repos/danirus/django-comments-xtd/contributors",
    "created_at": "2011-12-22T13:22:50Z",
    "default_branch": "master",
    "description": "Reusable Django app that extends the built-in Django comments framework with thread support, follow up notifications and comment confirmation by email.",
    "downloads_url": "https://api.github.com/repos/danirus/django-comments-xtd/downloads",
    "events_url": "https://api.github.com/repos/danirus/django-comments-xtd/events",
    "fork": false,
    "forks": 21,
    "forks_count": 21,
    "forks_url": "https://api.github.com/repos/danirus/django-comments-xtd/forks",
    "full_name": "danirus/django-comments-xtd",
    "git_commits_url": "https://api.github.com/repos/danirus/django-comments-xtd/git/commits{/sha}",
    "git_refs_url": "https://api.github.com/repos/danirus/django-comments-xtd/git/refs{/sha}",
    "git_tags_url": "https://api.github.com/repos/danirus/django-comments-xtd/git/tags{/sha}",
    "git_url": "git://github.com/danirus/django-comments-xtd.git",
    "has_downloads": true,
    "has_issues": true,
    "has_wiki": false,
    "homepage": "",
    "hooks_url": "https://api.github.com/repos/danirus/django-comments-xtd/hooks",
    "html_url": "https://github.com/danirus/django-comments-xtd",
    "id": 3033940,
    "issue_comment_url": "https://api.github.com/repos/danirus/django-comments-xtd/issues/comments/{number}",
    "issue_events_url": "https://api.github.com/repos/danirus/django-comments-xtd/issues/events{/number}",
    "issues_url": "https://api.github.com/repos/danirus/django-comments-xtd/issues{/number}",
    "keys_url": "https://api.github.com/repos/danirus/django-comments-xtd/keys{/key_id}",
    "labels_url": "https://api.github.com/repos/danirus/django-comments-xtd/labels{/name}",
    "language": "Python",
    "languages_url": "https://api.github.com/repos/danirus/django-comments-xtd/languages",
    "merges_url": "https://api.github.com/repos/danirus/django-comments-xtd/merges",
    "milestones_url": "https://api.github.com/repos/danirus/django-comments-xtd/milestones{/number}",
    "mirror_url": null,
    "name": "django-comments-xtd",
    "notifications_url": "https://api.github.com/repos/danirus/django-comments-xtd/notifications{?since,all,participating}",
    "open_issues": 4,
    "open_issues_count": 4,
    "owner": {
        "avatar_url": "https://avatars.githubusercontent.com/u/157103?",
        "events_url": "https://api.github.com/users/danirus/events{/privacy}",
        "followers_url": "https://api.github.com/users/danirus/followers",
        "following_url": "https://api.github.com/users/danirus/following{/other_user}",
        "gists_url": "https://api.github.com/users/danirus/gists{/gist_id}",
        "gravatar_id": "952ca6ed78f418ed6afbb442681c6b31",
        "html_url": "https://github.com/danirus",
        "id": 157103,
        "login": "danirus",
        "organizations_url": "https://api.github.com/users/danirus/orgs",
        "received_events_url": "https://api.github.com/users/danirus/received_events",
        "repos_url": "https://api.github.com/users/danirus/repos",
        "site_admin": false,
        "starred_url": "https://api.github.com/users/danirus/starred{/owner}{/repo}",
        "subscriptions_url": "https://api.github.com/users/danirus/subscriptions",
        "type": "User",
        "url": "https://api.github.com/users/danirus"
    },
    "private": false,
    "pulls_url": "https://api.github.com/repos/danirus/django-comments-xtd/pulls{/number}",
    "pushed_at": "2014-03-04T11:45:26Z",
    "releases_url": "https://api.github.com/repos/danirus/django-comments-xtd/releases{/id}",
    "score": 1.0,
    "size": 656,
    "ssh_url": "git@github.com:danirus/django-comments-xtd.git",
    "stargazers_count": 54,
    "stargazers_url": "https://api.github.com/repos/danirus/django-comments-xtd/stargazers",
    "statuses_url": "https://api.github.com/repos/danirus/django-comments-xtd/statuses/{sha}",
    "subscribers_url": "https://api.github.com/repos/danirus/django-comments-xtd/subscribers",
    "subscription_url": "https://api.github.com/repos/danirus/django-comments-xtd/subscription",
    "svn_url": "https://github.com/danirus/django-comments-xtd",
    "tags_url": "https://api.github.com/repos/danirus/django-comments-xtd/tags",
    "teams_url": "https://api.github.com/repos/danirus/django-comments-xtd/teams",
    "trees_url": "https://api.github.com/repos/danirus/django-comments-xtd/git/trees{/sha}",
    "updated_at": "2014-03-04T11:45:26Z",
    "url": "https://api.github.com/repos/danirus/django-comments-xtd",
    "watchers": 54,
    "watchers_count": 54
}