[
    "arsenal.nlp.data",
    "nlp",
    "lexicon",
    "lexicon.honorifics",
    "similarity",
    "text",
    "arsenal.passwords",
    "ptb",
    "nlp.lexicon.address",
    "colors",
    "lazyproperties",
    "lexicon.numbers",
    "arsenal.terminal.colors",
    "cache",
    "web.bottle",
    "arsenal.cache.lazy",
    "arsenal.nlp.lexicon.englishwords",
    "arsenal.sendmail.send_gmail",
    "arsenal.profiling.utils",
    "arsenal.nlp.lexicon.addr_secondary_unit",
    "lexicon.state_abbrev",
    "arsenal.alphabet",
    "text.utils",
    "datastructures.prioritydict",
    "nlp.lexicon.conjunctions",
    "arsenal.profiling",
    "nlp.tests.annotation",
    "profiling.pyprof2calltree",
    "nlp.lexicon.scientific_units",
    "arsenal.nlp.lexicon.numbers",
    "tests.annotation",
    "countries",
    "sendmail.send_gmail",
    "math",
    "debug.breakin",
    "terminal.colors",
    "text.latin_to_ascii",
    "nlp.lexicon.names.test",
    "arsenal.nlp.tests.annotation",
    "datastructures.unionfind",
    "first_name_stats",
    "nlp.lexicon.pronouns",
    "conjunctions",
    "send_email",
    "arsenal.profiling.pyprof2calltree",
    "download",
    "arsenal.datastructures.prioritydict",
    "universities",
    "nlp.gazetteers",
    "arsenal.nlp.trielexicon",
    "arsenal.nlp.lexicon.address",
    "featureselection",
    "clipboard",
    "arsenal.profiling.lsprofcalltree",
    "nlp.lexicon.state_abbrev",
    "arsenal.algorithms.bipartite_matching",
    "arsenal.terminal.clipboard",
    "lazy",
    "profiling",
    "arsenal.math.ransac",
    "math.weighted_choice",
    "nlp.lexicon.universities",
    "terminal.utils",
    "nlp.lexicon",
    "address",
    "arsenal.web",
    "arsenal.daemon",
    "arsenal.units.unitdata",
    "last",
    "arsenal.humanreadable",
    "breakin",
    "cache.lazy",
    "arsenal.assertions",
    "lexicon.universities",
    "arsenal.units",
    "web.timeout_xmlrpclib",
    "lexicon.names.female",
    "datastructures.dbdict",
    "assertions",
    "lexicon.names",
    "names.first_name_stats",
    "arsenal.debug.edit",
    "ransac",
    "arsenal.nlp.lexicon.state_abbrev",
    "arsenal",
    "nlp.data",
    "mst",
    "BeautifulSoup",
    "arsenal.profiling.gprof2dot",
    "similarity.lcs",
    "linearizexml",
    "fsutils",
    "arsenal.web.timeout_xmlrpclib",
    "arsenal.nlp.gazetteers",
    "arsenal.nlp.lexicon.conjunctions",
    "debug.saverr",
    "englishwords",
    "lexicon.names.male",
    "nlp.lexicon.addr_secondary_unit",
    "lexicon.postal_abbrev",
    "lexicon.englishwords",
    "arsenal.BeautifulSoup",
    "scientific_units",
    "arsenal.math.featureselection",
    "arsenal.nlp.lexicon.prepositions",
    "unitatom",
    "arsenal.nlp.lexicon.names.female",
    "nlp.wordsplitter",
    "arsenal.nlp.similarity.levenstein",
    "arsenal.timer",
    "male",
    "nlp.patterns",
    "units.unitdata",
    "arsenal.robust",
    "arsenal.math",
    "arsenal.nlp.lexicon.names",
    "utils",
    "arsenal.fsutils",
    "lexicon.pronouns",
    "names.last",
    "arsenal.text",
    "arsenal.nlp.similarity",
    "numbers",
    "debug.utils",
    "arsenal.text.wrap",
    "saverr",
    "nlp.lexicon.countries",
    "profiling.lsprofcalltree",
    "nlp.lexicon.honorifics",
    "alphabet",
    "arsenal.nlp.lexicon.names.first_name_stats",
    "vulgarities",
    "arsenal.nlp.tests.bio2spantest",
    "arsenal.units.unitatom",
    "arsenal.nlp.patterns",
    "stemmer",
    "units",
    "tests.bio2spantest",
    "arsenal.nlp.lexicon.vulgarities",
    "arsenal.web.download",
    "cache.memoize",
    "arsenal.debug.utils",
    "arsenal.nlp.similarity.lcs",
    "arsenal.nlp.lexicon.countries",
    "arsenal.nlp.lexicon.scientific_units",
    "arsenal.nlp.stemmer",
    "dbdict",
    "nlp.lexicon.prepositions",
    "arsenal.datastructures.dawg",
    "arsenal.nlp.lexicon",
    "arsenal.nlp.lexicon.pronouns",
    "datastructures.orderedset",
    "robust",
    "data",
    "annotation",
    "arsenal.debug",
    "arsenal.iterextras",
    "nlp.annotation",
    "arsenal.nlp.data.ptb",
    "markup",
    "arsenal.cache.lazyproperties",
    "arsenal.terminal.ansi2html",
    "text.wrap",
    "lexicon.countries",
    "algorithms",
    "units.option",
    "bottle",
    "lexicon.stopwords",
    "nlp.features",
    "nlp.similarity.levenstein",
    "unionfind",
    "arsenal.math.maths",
    "latin_to_ascii",
    "unitdata",
    "arsenal.misc",
    "lexicon.names.first_name_stats",
    "debug.edit",
    "arsenal.debug.breakin",
    "arsenal.units.unitgroup",
    "web",
    "send_gmail",
    "prepositions",
    "math.combinatorics",
    "arsenal.nlp",
    "arsenal.math.weighted_choice",
    "tests",
    "lcs",
    "arsenal.nlp.lexicon.names.last",
    "arsenal.math.combinatorics",
    "pronouns",
    "arsenal.nlp.evaluation",
    "units.main",
    "nlp.lexicon.numbers",
    "daemon",
    "nlp.lexicon.names.female",
    "arsenal.nlp.lexicon.postal_abbrev",
    "edit",
    "nlp.lexicon.names.male",
    "prioritydict",
    "arsenal.datastructures.dbdict",
    "units.unitgroup",
    "math.numpy_extras",
    "nlp.lexicon.englishwords",
    "arsenal.units.main",
    "gazetteers",
    "names",
    "arsenal.math.numpy_extras",
    "arsenal.terminal.utils",
    "terminal",
    "text.markup",
    "dawg",
    "arsenal.algorithms",
    "lexicon.names.test",
    "levenstein",
    "honorifics",
    "arsenal.nlp.lexicon.stopwords",
    "math.ransac",
    "arsenal.text.utils",
    "nlp.lexicon.names.first_name_stats",
    "arsenal.units.data",
    "web.download",
    "arsenal.cache.memoize",
    "profiling.gprof2dot",
    "arsenal.nlp.annotation",
    "units.data",
    "evaluation",
    "names.female",
    "datastructures.dawg",
    "unitgroup",
    "trielexicon",
    "terminal.ansi2html",
    "arsenal.nlp.lexicon.names.test",
    "sendmail",
    "debug",
    "math.maths",
    "maths",
    "names.male",
    "iterview",
    "numpy_extras",
    "terminal.clipboard",
    "arsenal.nlp.features",
    "timer",
    "algorithms.mst",
    "bio2spantest",
    "lexicon.vulgarities",
    "sendmail.send_email",
    "addr_secondary_unit",
    "similarity.levenstein",
    "names.test",
    "features",
    "arsenal.nlp.wordsplitter",
    "misc",
    "lexicon.conjunctions",
    "lexicon.names.last",
    "arsenal.nlp.lexicon.names.male",
    "female",
    "wrap",
    "arsenal.web.bottle",
    "nlp.trielexicon",
    "gprof2dot",
    "combinatorics",
    "lexicon.prepositions",
    "nlp.evaluation",
    "nlp.lexicon.postal_abbrev",
    "arsenal.datastructures.unionfind",
    "units.unitatom",
    "data.ptb",
    "lexicon.scientific_units",
    "nlp.lexicon.names",
    "arsenal.text.markup",
    "wordsplitter",
    "timeout_xmlrpclib",
    "arsenal.iterview",
    "datastructures.bloomfilter",
    "nlp.lexicon.names.last",
    "iterextras",
    "arsenal.algorithms.mst",
    "ansi2html",
    "arsenal.linearizexml",
    "arsenal.text.latin_to_ascii",
    "arsenal.nlp.lexicon.universities",
    "humanreadable",
    "math.featureselection",
    "arsenal.nlp.lexicon.honorifics",
    "postal_abbrev",
    "stopwords",
    "option",
    "main",
    "nlp.similarity",
    "datastructures",
    "arsenal.datastructures.bloomfilter",
    "arsenal.debug.saverr",
    "passwords",
    "arsenal.datastructures.orderedset",
    "cache.lazyproperties",
    "nlp.tests",
    "pyprof2calltree",
    "arsenal.nlp.tests",
    "lexicon.address",
    "patterns",
    "bloomfilter",
    "profiling.utils",
    "arsenal.datastructures",
    "arsenal.cache",
    "nlp.lexicon.stopwords",
    "test",
    "memoize",
    "nlp.data.ptb",
    "nlp.stemmer",
    "bipartite_matching",
    "nlp.lexicon.vulgarities",
    "lsprofcalltree",
    "arsenal.units.option",
    "arsenal.sendmail",
    "weighted_choice",
    "lexicon.addr_secondary_unit",
    "orderedset",
    "nlp.tests.bio2spantest",
    "arsenal.terminal",
    "state_abbrev",
    "algorithms.bipartite_matching",
    "nlp.similarity.lcs",
    "arsenal.sendmail.send_email"
]