{
    "libs": [
        "tinycss",
        "urlparse",
        "b",
        "PIL",
        "uuid",
        "fontforge",
        "locale",
        "request",
        "urllib",
        "parse",
        "re",
        "parsers",
        "cssselect",
        "io",
        "gzip",
        "etree",
        "os",
        "math"
    ]
}