{
    "libs": [
        "argparse",
        "b",
        "re",
        "tempfile",
        "errno",
        "unittest",
        "six",
        "datetime",
        "pkg_resources",
        "subprocess",
        "sys",
        "bs4",
        "contextlib",
        "moves",
        "codecs",
        "locale",
        "shutil",
        "os",
        "unittest2",
        "textwrap"
    ]
}