[
    "testapp.views",
    "test_project.manage",
    "tests.formtests",
    "cookiestoragetests",
    "manage",
    "testapp2.forms",
    "formwizard.storage.base",
    "formwizard.tests.wizardtests.forms",
    "session",
    "formwizard.tests.storagetests",
    "formwizard.tests.loadstoragetests",
    "test_project.testapp2.views",
    "test_project.urls",
    "tests.sessionstoragetests",
    "forms",
    "formwizard.tests.formtests",
    "formwizard.tests.namedwizardtests.forms",
    "testapp.urls",
    "formwizard.tests.wizardtests.tests",
    "test_project.testapp.models",
    "test_project.settings",
    "tests",
    "sessionstoragetests",
    "views",
    "wizardtests.tests",
    "docs",
    "test_project.testapp2.models",
    "namedwizardtests.urls",
    "formwizard.tests.namedwizardtests.urls",
    "test_project.testapp.forms",
    "tests.namedwizardtests.urls",
    "storagetests",
    "test_project.testapp.urls",
    "tests.storagetests",
    "docs.conf",
    "formwizard.storage.exceptions",
    "wizardtests.urls",
    "formwizard.tests.namedwizardtests.tests",
    "formwizard.storage.cookie",
    "settings",
    "formwizard.tests.wizardtests",
    "testapp2.urls",
    "tests.wizardtests.tests",
    "tests.wizardtests",
    "tests.namedwizardtests.forms",
    "formwizard.views",
    "loadstoragetests",
    "exceptions",
    "test_project.testapp2",
    "formwizard.tests.cookiestoragetests",
    "formwizard.models",
    "formwizard",
    "testapp.forms",
    "storage.base",
    "tests.namedwizardtests",
    "formwizard.tests.namedwizardtests",
    "conf",
    "storage.session",
    "wizardtests",
    "testapp2.models",
    "compat",
    "tests.loadstoragetests",
    "formtests",
    "formwizard.tests.wizardtests.urls",
    "namedwizardtests",
    "storage",
    "wizardtests.forms",
    "namedwizardtests.forms",
    "tests.wizardtests.urls",
    "test_project.testapp.views",
    "tests.wizardtests.forms",
    "formwizard.tests",
    "test_project.testapp",
    "models",
    "formwizard.forms",
    "formwizard.compat",
    "tests.cookiestoragetests",
    "formwizard.storage",
    "test_project",
    "base",
    "cookie",
    "testapp.models",
    "formwizard.tests.sessionstoragetests",
    "testapp",
    "tests.namedwizardtests.tests",
    "testapp2.views",
    "test_project.testapp2.forms",
    "test_project.testapp2.urls",
    "testapp2",
    "namedwizardtests.tests",
    "storage.exceptions",
    "urls",
    "storage.cookie",
    "formwizard.storage.session"
]