{
    "archive_url": "https://api.github.com/repos/lizherui/spider_python/{archive_format}{/ref}",
    "assignees_url": "https://api.github.com/repos/lizherui/spider_python/assignees{/user}",
    "blobs_url": "https://api.github.com/repos/lizherui/spider_python/git/blobs{/sha}",
    "branches_url": "https://api.github.com/repos/lizherui/spider_python/branches{/branch}",
    "clone_url": "https://github.com/lizherui/spider_python.git",
    "collaborators_url": "https://api.github.com/repos/lizherui/spider_python/collaborators{/collaborator}",
    "comments_url": "https://api.github.com/repos/lizherui/spider_python/comments{/number}",
    "commits_url": "https://api.github.com/repos/lizherui/spider_python/commits{/sha}",
    "compare_url": "https://api.github.com/repos/lizherui/spider_python/compare/{base}...{head}",
    "contents_url": "https://api.github.com/repos/lizherui/spider_python/contents/{+path}",
    "contributors_url": "https://api.github.com/repos/lizherui/spider_python/contributors",
    "created_at": "2013-04-21T04:10:40Z",
    "default_branch": "master",
    "description": "\u722c\u722c\u722c",
    "downloads_url": "https://api.github.com/repos/lizherui/spider_python/downloads",
    "events_url": "https://api.github.com/repos/lizherui/spider_python/events",
    "fork": false,
    "forks": 87,
    "forks_count": 87,
    "forks_url": "https://api.github.com/repos/lizherui/spider_python/forks",
    "full_name": "lizherui/spider_python",
    "git_commits_url": "https://api.github.com/repos/lizherui/spider_python/git/commits{/sha}",
    "git_refs_url": "https://api.github.com/repos/lizherui/spider_python/git/refs{/sha}",
    "git_tags_url": "https://api.github.com/repos/lizherui/spider_python/git/tags{/sha}",
    "git_url": "git://github.com/lizherui/spider_python.git",
    "has_downloads": true,
    "has_issues": true,
    "has_wiki": true,
    "homepage": "",
    "hooks_url": "https://api.github.com/repos/lizherui/spider_python/hooks",
    "html_url": "https://github.com/lizherui/spider_python",
    "id": 9574643,
    "issue_comment_url": "https://api.github.com/repos/lizherui/spider_python/issues/comments/{number}",
    "issue_events_url": "https://api.github.com/repos/lizherui/spider_python/issues/events{/number}",
    "issues_url": "https://api.github.com/repos/lizherui/spider_python/issues{/number}",
    "keys_url": "https://api.github.com/repos/lizherui/spider_python/keys{/key_id}",
    "labels_url": "https://api.github.com/repos/lizherui/spider_python/labels{/name}",
    "language": "Python",
    "languages_url": "https://api.github.com/repos/lizherui/spider_python/languages",
    "merges_url": "https://api.github.com/repos/lizherui/spider_python/merges",
    "milestones_url": "https://api.github.com/repos/lizherui/spider_python/milestones{/number}",
    "mirror_url": null,
    "name": "spider_python",
    "notifications_url": "https://api.github.com/repos/lizherui/spider_python/notifications{?since,all,participating}",
    "open_issues": 0,
    "open_issues_count": 0,
    "owner": {
        "avatar_url": "https://avatars.githubusercontent.com/u/3326677?",
        "events_url": "https://api.github.com/users/lizherui/events{/privacy}",
        "followers_url": "https://api.github.com/users/lizherui/followers",
        "following_url": "https://api.github.com/users/lizherui/following{/other_user}",
        "gists_url": "https://api.github.com/users/lizherui/gists{/gist_id}",
        "gravatar_id": "899c7973a63add29eefcdc70760ef861",
        "html_url": "https://github.com/lizherui",
        "id": 3326677,
        "login": "lizherui",
        "organizations_url": "https://api.github.com/users/lizherui/orgs",
        "received_events_url": "https://api.github.com/users/lizherui/received_events",
        "repos_url": "https://api.github.com/users/lizherui/repos",
        "site_admin": false,
        "starred_url": "https://api.github.com/users/lizherui/starred{/owner}{/repo}",
        "subscriptions_url": "https://api.github.com/users/lizherui/subscriptions",
        "type": "User",
        "url": "https://api.github.com/users/lizherui"
    },
    "private": false,
    "pulls_url": "https://api.github.com/repos/lizherui/spider_python/pulls{/number}",
    "pushed_at": "2013-08-28T06:49:37Z",
    "releases_url": "https://api.github.com/repos/lizherui/spider_python/releases{/id}",
    "score": 1.0,
    "size": 223,
    "ssh_url": "git@github.com:lizherui/spider_python.git",
    "stargazers_count": 66,
    "stargazers_url": "https://api.github.com/repos/lizherui/spider_python/stargazers",
    "statuses_url": "https://api.github.com/repos/lizherui/spider_python/statuses/{sha}",
    "subscribers_url": "https://api.github.com/repos/lizherui/spider_python/subscribers",
    "subscription_url": "https://api.github.com/repos/lizherui/spider_python/subscription",
    "svn_url": "https://github.com/lizherui/spider_python",
    "tags_url": "https://api.github.com/repos/lizherui/spider_python/tags",
    "teams_url": "https://api.github.com/repos/lizherui/spider_python/teams",
    "trees_url": "https://api.github.com/repos/lizherui/spider_python/git/trees{/sha}",
    "updated_at": "2014-05-03T14:00:02Z",
    "url": "https://api.github.com/repos/lizherui/spider_python",
    "watchers": 66,
    "watchers_count": 66
}