{
    "archive_url": "https://api.github.com/repos/chrisspen/webarticle2text/{archive_format}{/ref}",
    "assignees_url": "https://api.github.com/repos/chrisspen/webarticle2text/assignees{/user}",
    "blobs_url": "https://api.github.com/repos/chrisspen/webarticle2text/git/blobs{/sha}",
    "branches_url": "https://api.github.com/repos/chrisspen/webarticle2text/branches{/branch}",
    "clone_url": "https://github.com/chrisspen/webarticle2text.git",
    "collaborators_url": "https://api.github.com/repos/chrisspen/webarticle2text/collaborators{/collaborator}",
    "comments_url": "https://api.github.com/repos/chrisspen/webarticle2text/comments{/number}",
    "commits_url": "https://api.github.com/repos/chrisspen/webarticle2text/commits{/sha}",
    "compare_url": "https://api.github.com/repos/chrisspen/webarticle2text/compare/{base}...{head}",
    "contents_url": "https://api.github.com/repos/chrisspen/webarticle2text/contents/{+path}",
    "contributors_url": "https://api.github.com/repos/chrisspen/webarticle2text/contributors",
    "created_at": "2011-12-17T17:37:00Z",
    "default_branch": "master",
    "description": "A script to extract the main article text from an arbitrary webpage.",
    "downloads_url": "https://api.github.com/repos/chrisspen/webarticle2text/downloads",
    "events_url": "https://api.github.com/repos/chrisspen/webarticle2text/events",
    "fork": false,
    "forks": 8,
    "forks_count": 8,
    "forks_url": "https://api.github.com/repos/chrisspen/webarticle2text/forks",
    "full_name": "chrisspen/webarticle2text",
    "git_commits_url": "https://api.github.com/repos/chrisspen/webarticle2text/git/commits{/sha}",
    "git_refs_url": "https://api.github.com/repos/chrisspen/webarticle2text/git/refs{/sha}",
    "git_tags_url": "https://api.github.com/repos/chrisspen/webarticle2text/git/tags{/sha}",
    "git_url": "git://github.com/chrisspen/webarticle2text.git",
    "has_downloads": true,
    "has_issues": true,
    "has_wiki": true,
    "homepage": "",
    "hooks_url": "https://api.github.com/repos/chrisspen/webarticle2text/hooks",
    "html_url": "https://github.com/chrisspen/webarticle2text",
    "id": 3002163,
    "issue_comment_url": "https://api.github.com/repos/chrisspen/webarticle2text/issues/comments/{number}",
    "issue_events_url": "https://api.github.com/repos/chrisspen/webarticle2text/issues/events{/number}",
    "issues_url": "https://api.github.com/repos/chrisspen/webarticle2text/issues{/number}",
    "keys_url": "https://api.github.com/repos/chrisspen/webarticle2text/keys{/key_id}",
    "labels_url": "https://api.github.com/repos/chrisspen/webarticle2text/labels{/name}",
    "language": "Python",
    "languages_url": "https://api.github.com/repos/chrisspen/webarticle2text/languages",
    "merges_url": "https://api.github.com/repos/chrisspen/webarticle2text/merges",
    "milestones_url": "https://api.github.com/repos/chrisspen/webarticle2text/milestones{/number}",
    "mirror_url": null,
    "name": "webarticle2text",
    "notifications_url": "https://api.github.com/repos/chrisspen/webarticle2text/notifications{?since,all,participating}",
    "open_issues": 0,
    "open_issues_count": 0,
    "owner": {
        "avatar_url": "https://avatars.githubusercontent.com/u/116631?",
        "events_url": "https://api.github.com/users/chrisspen/events{/privacy}",
        "followers_url": "https://api.github.com/users/chrisspen/followers",
        "following_url": "https://api.github.com/users/chrisspen/following{/other_user}",
        "gists_url": "https://api.github.com/users/chrisspen/gists{/gist_id}",
        "gravatar_id": "c125f576c3a08c0c1d4330bc565ae28c",
        "html_url": "https://github.com/chrisspen",
        "id": 116631,
        "login": "chrisspen",
        "organizations_url": "https://api.github.com/users/chrisspen/orgs",
        "received_events_url": "https://api.github.com/users/chrisspen/received_events",
        "repos_url": "https://api.github.com/users/chrisspen/repos",
        "site_admin": false,
        "starred_url": "https://api.github.com/users/chrisspen/starred{/owner}{/repo}",
        "subscriptions_url": "https://api.github.com/users/chrisspen/subscriptions",
        "type": "User",
        "url": "https://api.github.com/users/chrisspen"
    },
    "private": false,
    "pulls_url": "https://api.github.com/repos/chrisspen/webarticle2text/pulls{/number}",
    "pushed_at": "2014-04-21T22:12:39Z",
    "releases_url": "https://api.github.com/repos/chrisspen/webarticle2text/releases{/id}",
    "score": 1.0,
    "size": 182,
    "ssh_url": "git@github.com:chrisspen/webarticle2text.git",
    "stargazers_count": 40,
    "stargazers_url": "https://api.github.com/repos/chrisspen/webarticle2text/stargazers",
    "statuses_url": "https://api.github.com/repos/chrisspen/webarticle2text/statuses/{sha}",
    "subscribers_url": "https://api.github.com/repos/chrisspen/webarticle2text/subscribers",
    "subscription_url": "https://api.github.com/repos/chrisspen/webarticle2text/subscription",
    "svn_url": "https://github.com/chrisspen/webarticle2text",
    "tags_url": "https://api.github.com/repos/chrisspen/webarticle2text/tags",
    "teams_url": "https://api.github.com/repos/chrisspen/webarticle2text/teams",
    "trees_url": "https://api.github.com/repos/chrisspen/webarticle2text/git/trees{/sha}",
    "updated_at": "2014-04-25T14:56:25Z",
    "url": "https://api.github.com/repos/chrisspen/webarticle2text",
    "watchers": 40,
    "watchers_count": 40
}