[
    "tools.webui.settings",
    "tests",
    "tests.test_handler",
    "tools.webui.webui",
    "samples.simple_logging",
    "webui",
    "mongolog.handlers",
    "webui.settings",
    "tools",
    "tests.test_config",
    "handlers",
    "test_config",
    "settings",
    "tools.webui",
    "mongolog",
    "test_handler",
    "samples",
    "webui.webui",
    "test",
    "simple_logging"
]