[
    "grip",
    "github_renderer",
    "exporter",
    "offline_renderer",
    "settings",
    "mdx_urlize",
    "grip.offline_renderer",
    "server",
    "grip.server",
    "grip.command",
    "grip.mdx_urlize",
    "grip.github_renderer",
    "command",
    "renderer",
    "grip.exporter",
    "grip.renderer",
    "grip.settings"
]