{
    "libs": [
        "ntpath",
        "zipimport",
        "importlib",
        "re",
        "tempfile",
        "os",
        "unittest",
        "random",
        "zipfile",
        "PyQt4",
        "sys",
        "imp",
        "itertools",
        "abc",
        "machinery",
        "operator",
        "path",
        "requests",
        "shutil",
        "tools",
        "configparser"
    ]
}