{
    "archive_url": "https://api.github.com/repos/jamesob/Miser/{archive_format}{/ref}",
    "assignees_url": "https://api.github.com/repos/jamesob/Miser/assignees{/user}",
    "blobs_url": "https://api.github.com/repos/jamesob/Miser/git/blobs{/sha}",
    "branches_url": "https://api.github.com/repos/jamesob/Miser/branches{/branch}",
    "clone_url": "https://github.com/jamesob/Miser.git",
    "collaborators_url": "https://api.github.com/repos/jamesob/Miser/collaborators{/collaborator}",
    "comments_url": "https://api.github.com/repos/jamesob/Miser/comments{/number}",
    "commits_url": "https://api.github.com/repos/jamesob/Miser/commits{/sha}",
    "compare_url": "https://api.github.com/repos/jamesob/Miser/compare/{base}...{head}",
    "contents_url": "https://api.github.com/repos/jamesob/Miser/contents/{+path}",
    "contributors_url": "https://api.github.com/repos/jamesob/Miser/contributors",
    "created_at": "2011-08-18T14:03:12Z",
    "default_branch": "master",
    "description": "Programmatic budgeting",
    "downloads_url": "https://api.github.com/repos/jamesob/Miser/downloads",
    "events_url": "https://api.github.com/repos/jamesob/Miser/events",
    "fork": false,
    "forks": 3,
    "forks_count": 3,
    "forks_url": "https://api.github.com/repos/jamesob/Miser/forks",
    "full_name": "jamesob/Miser",
    "git_commits_url": "https://api.github.com/repos/jamesob/Miser/git/commits{/sha}",
    "git_refs_url": "https://api.github.com/repos/jamesob/Miser/git/refs{/sha}",
    "git_tags_url": "https://api.github.com/repos/jamesob/Miser/git/tags{/sha}",
    "git_url": "git://github.com/jamesob/Miser.git",
    "has_downloads": true,
    "has_issues": true,
    "has_wiki": true,
    "homepage": "",
    "hooks_url": "https://api.github.com/repos/jamesob/Miser/hooks",
    "html_url": "https://github.com/jamesob/Miser",
    "id": 2228118,
    "issue_comment_url": "https://api.github.com/repos/jamesob/Miser/issues/comments/{number}",
    "issue_events_url": "https://api.github.com/repos/jamesob/Miser/issues/events{/number}",
    "issues_url": "https://api.github.com/repos/jamesob/Miser/issues{/number}",
    "keys_url": "https://api.github.com/repos/jamesob/Miser/keys{/key_id}",
    "labels_url": "https://api.github.com/repos/jamesob/Miser/labels{/name}",
    "language": "Python",
    "languages_url": "https://api.github.com/repos/jamesob/Miser/languages",
    "merges_url": "https://api.github.com/repos/jamesob/Miser/merges",
    "milestones_url": "https://api.github.com/repos/jamesob/Miser/milestones{/number}",
    "mirror_url": null,
    "name": "Miser",
    "notifications_url": "https://api.github.com/repos/jamesob/Miser/notifications{?since,all,participating}",
    "open_issues": 1,
    "open_issues_count": 1,
    "owner": {
        "avatar_url": "https://avatars.githubusercontent.com/u/73197?",
        "events_url": "https://api.github.com/users/jamesob/events{/privacy}",
        "followers_url": "https://api.github.com/users/jamesob/followers",
        "following_url": "https://api.github.com/users/jamesob/following{/other_user}",
        "gists_url": "https://api.github.com/users/jamesob/gists{/gist_id}",
        "gravatar_id": "f42525769e62a51da7da86806199165f",
        "html_url": "https://github.com/jamesob",
        "id": 73197,
        "login": "jamesob",
        "organizations_url": "https://api.github.com/users/jamesob/orgs",
        "received_events_url": "https://api.github.com/users/jamesob/received_events",
        "repos_url": "https://api.github.com/users/jamesob/repos",
        "site_admin": false,
        "starred_url": "https://api.github.com/users/jamesob/starred{/owner}{/repo}",
        "subscriptions_url": "https://api.github.com/users/jamesob/subscriptions",
        "type": "User",
        "url": "https://api.github.com/users/jamesob"
    },
    "private": false,
    "pulls_url": "https://api.github.com/repos/jamesob/Miser/pulls{/number}",
    "pushed_at": "2012-11-11T22:15:50Z",
    "releases_url": "https://api.github.com/repos/jamesob/Miser/releases{/id}",
    "score": 1.0,
    "size": 160,
    "ssh_url": "git@github.com:jamesob/Miser.git",
    "stargazers_count": 52,
    "stargazers_url": "https://api.github.com/repos/jamesob/Miser/stargazers",
    "statuses_url": "https://api.github.com/repos/jamesob/Miser/statuses/{sha}",
    "subscribers_url": "https://api.github.com/repos/jamesob/Miser/subscribers",
    "subscription_url": "https://api.github.com/repos/jamesob/Miser/subscription",
    "svn_url": "https://github.com/jamesob/Miser",
    "tags_url": "https://api.github.com/repos/jamesob/Miser/tags",
    "teams_url": "https://api.github.com/repos/jamesob/Miser/teams",
    "trees_url": "https://api.github.com/repos/jamesob/Miser/git/trees{/sha}",
    "updated_at": "2013-12-24T07:25:10Z",
    "url": "https://api.github.com/repos/jamesob/Miser",
    "watchers": 52,
    "watchers_count": 52
}