[
    "lib.irc",
    "config.config_dist",
    "lib.misc",
    "lib",
    "bot",
    "misc",
    "serve",
    "timer",
    "game",
    "lib.game",
    "lib.bot",
    "config_dist",
    "irc",
    "config"
]