[
    "gamete",
    "demo_config_genome",
    "pygene.population",
    "pygene.xmlio",
    "demo_fractal",
    "demo_salesman_gui",
    "demo_string_int",
    "pygene.config",
    "demo_string",
    "demo_salesman",
    "pygene",
    "pygene.prog",
    "demo_quadratic",
    "population",
    "pygene.gamete",
    "pygene.organism",
    "config",
    "xmlio",
    "pygene.gene",
    "demo_prog",
    "demo_multiprocessing",
    "demo_parallel",
    "demo_converge",
    "demo_typed_prog",
    "demo_case",
    "prog",
    "gene",
    "organism"
]