{
    "archive_url": "https://api.github.com/repos/pexpect/pexpect/{archive_format}{/ref}",
    "assignees_url": "https://api.github.com/repos/pexpect/pexpect/assignees{/user}",
    "blobs_url": "https://api.github.com/repos/pexpect/pexpect/git/blobs{/sha}",
    "branches_url": "https://api.github.com/repos/pexpect/pexpect/branches{/branch}",
    "clone_url": "https://github.com/pexpect/pexpect.git",
    "collaborators_url": "https://api.github.com/repos/pexpect/pexpect/collaborators{/collaborator}",
    "comments_url": "https://api.github.com/repos/pexpect/pexpect/comments{/number}",
    "commits_url": "https://api.github.com/repos/pexpect/pexpect/commits{/sha}",
    "compare_url": "https://api.github.com/repos/pexpect/pexpect/compare/{base}...{head}",
    "contents_url": "https://api.github.com/repos/pexpect/pexpect/contents/{+path}",
    "contributors_url": "https://api.github.com/repos/pexpect/pexpect/contributors",
    "created_at": "2013-09-17T17:36:44Z",
    "default_branch": "master",
    "description": "A Python module for controlling interactive programs in a pseudo-terminal",
    "downloads_url": "https://api.github.com/repos/pexpect/pexpect/downloads",
    "events_url": "https://api.github.com/repos/pexpect/pexpect/events",
    "fork": false,
    "forks": 27,
    "forks_count": 27,
    "forks_url": "https://api.github.com/repos/pexpect/pexpect/forks",
    "full_name": "pexpect/pexpect",
    "git_commits_url": "https://api.github.com/repos/pexpect/pexpect/git/commits{/sha}",
    "git_refs_url": "https://api.github.com/repos/pexpect/pexpect/git/refs{/sha}",
    "git_tags_url": "https://api.github.com/repos/pexpect/pexpect/git/tags{/sha}",
    "git_url": "git://github.com/pexpect/pexpect.git",
    "has_downloads": true,
    "has_issues": true,
    "has_wiki": true,
    "homepage": "http://pexpect.readthedocs.org/",
    "hooks_url": "https://api.github.com/repos/pexpect/pexpect/hooks",
    "html_url": "https://github.com/pexpect/pexpect",
    "id": 12902206,
    "issue_comment_url": "https://api.github.com/repos/pexpect/pexpect/issues/comments/{number}",
    "issue_events_url": "https://api.github.com/repos/pexpect/pexpect/issues/events{/number}",
    "issues_url": "https://api.github.com/repos/pexpect/pexpect/issues{/number}",
    "keys_url": "https://api.github.com/repos/pexpect/pexpect/keys{/key_id}",
    "labels_url": "https://api.github.com/repos/pexpect/pexpect/labels{/name}",
    "language": "Python",
    "languages_url": "https://api.github.com/repos/pexpect/pexpect/languages",
    "merges_url": "https://api.github.com/repos/pexpect/pexpect/merges",
    "milestones_url": "https://api.github.com/repos/pexpect/pexpect/milestones{/number}",
    "mirror_url": null,
    "name": "pexpect",
    "notifications_url": "https://api.github.com/repos/pexpect/pexpect/notifications{?since,all,participating}",
    "open_issues": 11,
    "open_issues_count": 11,
    "owner": {
        "avatar_url": "https://avatars.githubusercontent.com/u/5480175?",
        "events_url": "https://api.github.com/users/pexpect/events{/privacy}",
        "followers_url": "https://api.github.com/users/pexpect/followers",
        "following_url": "https://api.github.com/users/pexpect/following{/other_user}",
        "gists_url": "https://api.github.com/users/pexpect/gists{/gist_id}",
        "gravatar_id": null,
        "html_url": "https://github.com/pexpect",
        "id": 5480175,
        "login": "pexpect",
        "organizations_url": "https://api.github.com/users/pexpect/orgs",
        "received_events_url": "https://api.github.com/users/pexpect/received_events",
        "repos_url": "https://api.github.com/users/pexpect/repos",
        "site_admin": false,
        "starred_url": "https://api.github.com/users/pexpect/starred{/owner}{/repo}",
        "subscriptions_url": "https://api.github.com/users/pexpect/subscriptions",
        "type": "Organization",
        "url": "https://api.github.com/users/pexpect"
    },
    "private": false,
    "pulls_url": "https://api.github.com/repos/pexpect/pexpect/pulls{/number}",
    "pushed_at": "2014-04-15T01:35:40Z",
    "releases_url": "https://api.github.com/repos/pexpect/pexpect/releases{/id}",
    "score": 1.0,
    "size": 9431,
    "ssh_url": "git@github.com:pexpect/pexpect.git",
    "stargazers_count": 94,
    "stargazers_url": "https://api.github.com/repos/pexpect/pexpect/stargazers",
    "statuses_url": "https://api.github.com/repos/pexpect/pexpect/statuses/{sha}",
    "subscribers_url": "https://api.github.com/repos/pexpect/pexpect/subscribers",
    "subscription_url": "https://api.github.com/repos/pexpect/pexpect/subscription",
    "svn_url": "https://github.com/pexpect/pexpect",
    "tags_url": "https://api.github.com/repos/pexpect/pexpect/tags",
    "teams_url": "https://api.github.com/repos/pexpect/pexpect/teams",
    "trees_url": "https://api.github.com/repos/pexpect/pexpect/git/trees{/sha}",
    "updated_at": "2014-05-06T11:11:57Z",
    "url": "https://api.github.com/repos/pexpect/pexpect",
    "watchers": 94,
    "watchers_count": 94
}