{
    "archive_url": "https://api.github.com/repos/dcramer/chardet/{archive_format}{/ref}",
    "assignees_url": "https://api.github.com/repos/dcramer/chardet/assignees{/user}",
    "blobs_url": "https://api.github.com/repos/dcramer/chardet/git/blobs{/sha}",
    "branches_url": "https://api.github.com/repos/dcramer/chardet/branches{/branch}",
    "clone_url": "https://github.com/dcramer/chardet.git",
    "collaborators_url": "https://api.github.com/repos/dcramer/chardet/collaborators{/collaborator}",
    "comments_url": "https://api.github.com/repos/dcramer/chardet/comments{/number}",
    "commits_url": "https://api.github.com/repos/dcramer/chardet/commits{/sha}",
    "compare_url": "https://api.github.com/repos/dcramer/chardet/compare/{base}...{head}",
    "contents_url": "https://api.github.com/repos/dcramer/chardet/contents/{+path}",
    "contributors_url": "https://api.github.com/repos/dcramer/chardet/contributors",
    "created_at": "2011-10-25T23:48:13Z",
    "default_branch": "master",
    "description": "Forked version of chardet",
    "downloads_url": "https://api.github.com/repos/dcramer/chardet/downloads",
    "events_url": "https://api.github.com/repos/dcramer/chardet/events",
    "fork": false,
    "forks": 56,
    "forks_count": 56,
    "forks_url": "https://api.github.com/repos/dcramer/chardet/forks",
    "full_name": "dcramer/chardet",
    "git_commits_url": "https://api.github.com/repos/dcramer/chardet/git/commits{/sha}",
    "git_refs_url": "https://api.github.com/repos/dcramer/chardet/git/refs{/sha}",
    "git_tags_url": "https://api.github.com/repos/dcramer/chardet/git/tags{/sha}",
    "git_url": "git://github.com/dcramer/chardet.git",
    "has_downloads": true,
    "has_issues": true,
    "has_wiki": true,
    "homepage": "",
    "hooks_url": "https://api.github.com/repos/dcramer/chardet/hooks",
    "html_url": "https://github.com/dcramer/chardet",
    "id": 2647631,
    "issue_comment_url": "https://api.github.com/repos/dcramer/chardet/issues/comments/{number}",
    "issue_events_url": "https://api.github.com/repos/dcramer/chardet/issues/events{/number}",
    "issues_url": "https://api.github.com/repos/dcramer/chardet/issues{/number}",
    "keys_url": "https://api.github.com/repos/dcramer/chardet/keys{/key_id}",
    "labels_url": "https://api.github.com/repos/dcramer/chardet/labels{/name}",
    "language": "Python",
    "languages_url": "https://api.github.com/repos/dcramer/chardet/languages",
    "merges_url": "https://api.github.com/repos/dcramer/chardet/merges",
    "milestones_url": "https://api.github.com/repos/dcramer/chardet/milestones{/number}",
    "mirror_url": null,
    "name": "chardet",
    "notifications_url": "https://api.github.com/repos/dcramer/chardet/notifications{?since,all,participating}",
    "open_issues": 9,
    "open_issues_count": 9,
    "owner": {
        "avatar_url": "https://avatars.githubusercontent.com/u/23610?",
        "events_url": "https://api.github.com/users/dcramer/events{/privacy}",
        "followers_url": "https://api.github.com/users/dcramer/followers",
        "following_url": "https://api.github.com/users/dcramer/following{/other_user}",
        "gists_url": "https://api.github.com/users/dcramer/gists{/gist_id}",
        "gravatar_id": "51567a4f786cd8a2c41c513b592de9f9",
        "html_url": "https://github.com/dcramer",
        "id": 23610,
        "login": "dcramer",
        "organizations_url": "https://api.github.com/users/dcramer/orgs",
        "received_events_url": "https://api.github.com/users/dcramer/received_events",
        "repos_url": "https://api.github.com/users/dcramer/repos",
        "site_admin": false,
        "starred_url": "https://api.github.com/users/dcramer/starred{/owner}{/repo}",
        "subscriptions_url": "https://api.github.com/users/dcramer/subscriptions",
        "type": "User",
        "url": "https://api.github.com/users/dcramer"
    },
    "private": false,
    "pulls_url": "https://api.github.com/repos/dcramer/chardet/pulls{/number}",
    "pushed_at": "2012-07-26T20:57:56Z",
    "releases_url": "https://api.github.com/repos/dcramer/chardet/releases{/id}",
    "score": 1.0,
    "size": 2394,
    "ssh_url": "git@github.com:dcramer/chardet.git",
    "stargazers_count": 43,
    "stargazers_url": "https://api.github.com/repos/dcramer/chardet/stargazers",
    "statuses_url": "https://api.github.com/repos/dcramer/chardet/statuses/{sha}",
    "subscribers_url": "https://api.github.com/repos/dcramer/chardet/subscribers",
    "subscription_url": "https://api.github.com/repos/dcramer/chardet/subscription",
    "svn_url": "https://github.com/dcramer/chardet",
    "tags_url": "https://api.github.com/repos/dcramer/chardet/tags",
    "teams_url": "https://api.github.com/repos/dcramer/chardet/teams",
    "trees_url": "https://api.github.com/repos/dcramer/chardet/git/trees{/sha}",
    "updated_at": "2014-01-04T14:27:08Z",
    "url": "https://api.github.com/repos/dcramer/chardet",
    "watchers": 43,
    "watchers_count": 43
}