{
    "archive_url": "https://api.github.com/repos/skorokithakis/encbup/{archive_format}{/ref}",
    "assignees_url": "https://api.github.com/repos/skorokithakis/encbup/assignees{/user}",
    "blobs_url": "https://api.github.com/repos/skorokithakis/encbup/git/blobs{/sha}",
    "branches_url": "https://api.github.com/repos/skorokithakis/encbup/branches{/branch}",
    "clone_url": "https://github.com/skorokithakis/encbup.git",
    "collaborators_url": "https://api.github.com/repos/skorokithakis/encbup/collaborators{/collaborator}",
    "comments_url": "https://api.github.com/repos/skorokithakis/encbup/comments{/number}",
    "commits_url": "https://api.github.com/repos/skorokithakis/encbup/commits{/sha}",
    "compare_url": "https://api.github.com/repos/skorokithakis/encbup/compare/{base}...{head}",
    "contents_url": "https://api.github.com/repos/skorokithakis/encbup/contents/{+path}",
    "contributors_url": "https://api.github.com/repos/skorokithakis/encbup/contributors",
    "created_at": "2013-10-12T16:49:17Z",
    "default_branch": "master",
    "description": "Encrypted backups (without the backups)",
    "downloads_url": "https://api.github.com/repos/skorokithakis/encbup/downloads",
    "events_url": "https://api.github.com/repos/skorokithakis/encbup/events",
    "fork": false,
    "forks": 3,
    "forks_count": 3,
    "forks_url": "https://api.github.com/repos/skorokithakis/encbup/forks",
    "full_name": "skorokithakis/encbup",
    "git_commits_url": "https://api.github.com/repos/skorokithakis/encbup/git/commits{/sha}",
    "git_refs_url": "https://api.github.com/repos/skorokithakis/encbup/git/refs{/sha}",
    "git_tags_url": "https://api.github.com/repos/skorokithakis/encbup/git/tags{/sha}",
    "git_url": "git://github.com/skorokithakis/encbup.git",
    "has_downloads": true,
    "has_issues": true,
    "has_wiki": true,
    "homepage": null,
    "hooks_url": "https://api.github.com/repos/skorokithakis/encbup/hooks",
    "html_url": "https://github.com/skorokithakis/encbup",
    "id": 13525128,
    "issue_comment_url": "https://api.github.com/repos/skorokithakis/encbup/issues/comments/{number}",
    "issue_events_url": "https://api.github.com/repos/skorokithakis/encbup/issues/events{/number}",
    "issues_url": "https://api.github.com/repos/skorokithakis/encbup/issues{/number}",
    "keys_url": "https://api.github.com/repos/skorokithakis/encbup/keys{/key_id}",
    "labels_url": "https://api.github.com/repos/skorokithakis/encbup/labels{/name}",
    "language": "Python",
    "languages_url": "https://api.github.com/repos/skorokithakis/encbup/languages",
    "merges_url": "https://api.github.com/repos/skorokithakis/encbup/merges",
    "milestones_url": "https://api.github.com/repos/skorokithakis/encbup/milestones{/number}",
    "mirror_url": null,
    "name": "encbup",
    "notifications_url": "https://api.github.com/repos/skorokithakis/encbup/notifications{?since,all,participating}",
    "open_issues": 0,
    "open_issues_count": 0,
    "owner": {
        "avatar_url": "https://avatars.githubusercontent.com/u/23648?",
        "events_url": "https://api.github.com/users/skorokithakis/events{/privacy}",
        "followers_url": "https://api.github.com/users/skorokithakis/followers",
        "following_url": "https://api.github.com/users/skorokithakis/following{/other_user}",
        "gists_url": "https://api.github.com/users/skorokithakis/gists{/gist_id}",
        "gravatar_id": "7beb0185431f33569b83b0625f24ea5f",
        "html_url": "https://github.com/skorokithakis",
        "id": 23648,
        "login": "skorokithakis",
        "organizations_url": "https://api.github.com/users/skorokithakis/orgs",
        "received_events_url": "https://api.github.com/users/skorokithakis/received_events",
        "repos_url": "https://api.github.com/users/skorokithakis/repos",
        "site_admin": false,
        "starred_url": "https://api.github.com/users/skorokithakis/starred{/owner}{/repo}",
        "subscriptions_url": "https://api.github.com/users/skorokithakis/subscriptions",
        "type": "User",
        "url": "https://api.github.com/users/skorokithakis"
    },
    "private": false,
    "pulls_url": "https://api.github.com/repos/skorokithakis/encbup/pulls{/number}",
    "pushed_at": "2013-10-30T22:32:14Z",
    "releases_url": "https://api.github.com/repos/skorokithakis/encbup/releases{/id}",
    "score": 1.0,
    "size": 380,
    "ssh_url": "git@github.com:skorokithakis/encbup.git",
    "stargazers_count": 81,
    "stargazers_url": "https://api.github.com/repos/skorokithakis/encbup/stargazers",
    "statuses_url": "https://api.github.com/repos/skorokithakis/encbup/statuses/{sha}",
    "subscribers_url": "https://api.github.com/repos/skorokithakis/encbup/subscribers",
    "subscription_url": "https://api.github.com/repos/skorokithakis/encbup/subscription",
    "svn_url": "https://github.com/skorokithakis/encbup",
    "tags_url": "https://api.github.com/repos/skorokithakis/encbup/tags",
    "teams_url": "https://api.github.com/repos/skorokithakis/encbup/teams",
    "trees_url": "https://api.github.com/repos/skorokithakis/encbup/git/trees{/sha}",
    "updated_at": "2014-01-07T16:37:42Z",
    "url": "https://api.github.com/repos/skorokithakis/encbup",
    "watchers": 81,
    "watchers_count": 81
}