{
    "archive_url": "https://api.github.com/repos/fabric/patchwork/{archive_format}{/ref}",
    "assignees_url": "https://api.github.com/repos/fabric/patchwork/assignees{/user}",
    "blobs_url": "https://api.github.com/repos/fabric/patchwork/git/blobs{/sha}",
    "branches_url": "https://api.github.com/repos/fabric/patchwork/branches{/branch}",
    "clone_url": "https://github.com/fabric/patchwork.git",
    "collaborators_url": "https://api.github.com/repos/fabric/patchwork/collaborators{/collaborator}",
    "comments_url": "https://api.github.com/repos/fabric/patchwork/comments{/number}",
    "commits_url": "https://api.github.com/repos/fabric/patchwork/commits{/sha}",
    "compare_url": "https://api.github.com/repos/fabric/patchwork/compare/{base}...{head}",
    "contents_url": "https://api.github.com/repos/fabric/patchwork/contents/{+path}",
    "contributors_url": "https://api.github.com/repos/fabric/patchwork/contributors",
    "created_at": "2012-03-01T03:18:19Z",
    "default_branch": "master",
    "description": "Common deployment/sysadmin operations, built on Fabric",
    "downloads_url": "https://api.github.com/repos/fabric/patchwork/downloads",
    "events_url": "https://api.github.com/repos/fabric/patchwork/events",
    "fork": false,
    "forks": 18,
    "forks_count": 18,
    "forks_url": "https://api.github.com/repos/fabric/patchwork/forks",
    "full_name": "fabric/patchwork",
    "git_commits_url": "https://api.github.com/repos/fabric/patchwork/git/commits{/sha}",
    "git_refs_url": "https://api.github.com/repos/fabric/patchwork/git/refs{/sha}",
    "git_tags_url": "https://api.github.com/repos/fabric/patchwork/git/tags{/sha}",
    "git_url": "git://github.com/fabric/patchwork.git",
    "has_downloads": true,
    "has_issues": true,
    "has_wiki": true,
    "homepage": "http://patchwork.fabfile.org",
    "hooks_url": "https://api.github.com/repos/fabric/patchwork/hooks",
    "html_url": "https://github.com/fabric/patchwork",
    "id": 3588401,
    "issue_comment_url": "https://api.github.com/repos/fabric/patchwork/issues/comments/{number}",
    "issue_events_url": "https://api.github.com/repos/fabric/patchwork/issues/events{/number}",
    "issues_url": "https://api.github.com/repos/fabric/patchwork/issues{/number}",
    "keys_url": "https://api.github.com/repos/fabric/patchwork/keys{/key_id}",
    "labels_url": "https://api.github.com/repos/fabric/patchwork/labels{/name}",
    "language": "Python",
    "languages_url": "https://api.github.com/repos/fabric/patchwork/languages",
    "merges_url": "https://api.github.com/repos/fabric/patchwork/merges",
    "milestones_url": "https://api.github.com/repos/fabric/patchwork/milestones{/number}",
    "mirror_url": null,
    "name": "patchwork",
    "notifications_url": "https://api.github.com/repos/fabric/patchwork/notifications{?since,all,participating}",
    "open_issues": 9,
    "open_issues_count": 9,
    "owner": {
        "avatar_url": "https://avatars.githubusercontent.com/u/400481?",
        "events_url": "https://api.github.com/users/fabric/events{/privacy}",
        "followers_url": "https://api.github.com/users/fabric/followers",
        "following_url": "https://api.github.com/users/fabric/following{/other_user}",
        "gists_url": "https://api.github.com/users/fabric/gists{/gist_id}",
        "gravatar_id": "7774dbc822e50eab0693af628baf0fd2",
        "html_url": "https://github.com/fabric",
        "id": 400481,
        "login": "fabric",
        "organizations_url": "https://api.github.com/users/fabric/orgs",
        "received_events_url": "https://api.github.com/users/fabric/received_events",
        "repos_url": "https://api.github.com/users/fabric/repos",
        "site_admin": false,
        "starred_url": "https://api.github.com/users/fabric/starred{/owner}{/repo}",
        "subscriptions_url": "https://api.github.com/users/fabric/subscriptions",
        "type": "Organization",
        "url": "https://api.github.com/users/fabric"
    },
    "private": false,
    "pulls_url": "https://api.github.com/repos/fabric/patchwork/pulls{/number}",
    "pushed_at": "2014-01-01T03:11:11Z",
    "releases_url": "https://api.github.com/repos/fabric/patchwork/releases{/id}",
    "score": 1.0,
    "size": 168,
    "ssh_url": "git@github.com:fabric/patchwork.git",
    "stargazers_count": 75,
    "stargazers_url": "https://api.github.com/repos/fabric/patchwork/stargazers",
    "statuses_url": "https://api.github.com/repos/fabric/patchwork/statuses/{sha}",
    "subscribers_url": "https://api.github.com/repos/fabric/patchwork/subscribers",
    "subscription_url": "https://api.github.com/repos/fabric/patchwork/subscription",
    "svn_url": "https://github.com/fabric/patchwork",
    "tags_url": "https://api.github.com/repos/fabric/patchwork/tags",
    "teams_url": "https://api.github.com/repos/fabric/patchwork/teams",
    "trees_url": "https://api.github.com/repos/fabric/patchwork/git/trees{/sha}",
    "updated_at": "2014-05-03T07:33:27Z",
    "url": "https://api.github.com/repos/fabric/patchwork",
    "watchers": 75,
    "watchers_count": 75
}