[
    "django_server4.api.urls",
    "example_project.client.python.testclient",
    "client.python.testclient2",
    "example_project.misc.auth1.app",
    "server.django_server.api",
    "example_project.server.django_server.ajax_client",
    "client.python.testclient4",
    "example_project.client.python",
    "session",
    "serialize.models",
    "server.django_server4.api.urls",
    "example_project.server.django_server5.api",
    "xml",
    "simpleapi.message.wrapper",
    "flask",
    "example_project.misc.debug2.app",
    "misc.dummy_server_client.handlers",
    "example_project.server.django_server2.sapi",
    "client.python.testclient3",
    "example_project.misc.debug1.handlers",
    "misc.dummy_server_client.app",
    "server.django_server2.sapi",
    "serialize.app",
    "django_server.api.handlers",
    "django_server.ajax_client.urls",
    "appengine.simpleapi-demo.main",
    "server.serializer",
    "example_project.server",
    "example_project.server.django_server4.settings",
    "settings",
    "example_project.server.django_server.manage",
    "example_project.server.django_server.api.urls",
    "flask1.handlers",
    "common",
    "example_project.client.python.testclient3",
    "example_project.client.python.testclient2",
    "example_project.client.python.testclient4",
    "debug1",
    "misc.auth1",
    "server.django_server4.urls",
    "django_server.urls",
    "misc.serialize.handlers",
    "request",
    "server.feature",
    "django_server5.api",
    "server.django_server4",
    "server.django_server4.api.handlers",
    "debug2.app",
    "simpleapi-demo",
    "django_server2.api",
    "example_project.misc.auth1.handlers",
    "example_project.server.django_server4.api.urls",
    "sapi",
    "example_project.misc.debug2.handlers",
    "example_project.server.django_server4.api",
    "example_project.server.flask1",
    "example_project.misc.dummy_server_client.handlers",
    "server.flask1.handlers",
    "formatter",
    "misc.serialize",
    "example_project.misc.dummy_server_client",
    "server.django_server5",
    "simpleapi.server.preformat",
    "server.django_server3",
    "server.django_server2",
    "simpleapi.server.sapirequest",
    "client.python.flask.testclient",
    "server.django_server2.settings",
    "example_project.server.django_server.urls",
    "django_server3.settings",
    "example_project.server.django_server2.api.handlers",
    "server.appengine.simpleapi-demo",
    "example_project.server.django_server4.api.handlers",
    "example_project.server.django_server3.api",
    "django_server5.api.handlers",
    "server.django_server5.urls",
    "server.django_server2.api.handlers",
    "example_project.server.appengine",
    "python.testclient4",
    "server.django_server.ajax_client",
    "python.testclient3",
    "example_project.client.python.flask.testclient",
    "server.django_server5.api.handlers",
    "dummy_server_client",
    "server.gunicorn1.handlers",
    "example_project.server.django_server5.api.models",
    "urls",
    "django_server3.api.handlers",
    "server.django_server5.settings",
    "testclient",
    "example_project.server.django_server2.settings",
    "example_project.server.django_server5.urls",
    "simpleapi.client",
    "django_server3.manage",
    "serialize",
    "example_project.server.django_server2.manage",
    "simpleapi.server.routemgr",
    "api",
    "example_project.misc.dummy_server_client.app",
    "route",
    "server.django_server.settings",
    "server.appengine",
    "misc.serialize.models",
    "client.dummy",
    "simpleapi.message.formatter",
    "server.django_server.urls",
    "django_server.api",
    "testclient3",
    "django_server2.urls",
    "example_project",
    "example_project.misc.serialize",
    "api.urls",
    "ajax_client",
    "gunicorn1.handlers",
    "example_project.client.python.sapi.formatters",
    "python.testclient",
    "server.django_server2.sapi.message",
    "misc.serialize.app",
    "simpleapi.message.py2xml",
    "python.flask.testclient",
    "example_project.misc.serialize.app",
    "example_project.misc.serialize.handlers",
    "django_server2.api.urls",
    "django_server3.api",
    "server.django_server3.api.models",
    "example_project.server.django_server.api",
    "misc.auth1.app",
    "sapi.wrappers",
    "auth1",
    "python.testclient2",
    "server.django_server2.manage",
    "example_project.server.flask1.handlers",
    "server.routemgr",
    "python.sapi.formatters",
    "server.django_server4.settings",
    "appengine",
    "server.standalone1.app",
    "example_project.server.django_server2",
    "server.utils",
    "simpleapi.message.common",
    "server.django_server3.api.urls",
    "ajax_client.urls",
    "utils",
    "preformat",
    "tests",
    "simpleapi-demo.main",
    "dummy_server_client.handlers",
    "conf",
    "example_project.misc.auth1",
    "django_server.settings",
    "gunicorn1",
    "misc.debug2.handlers",
    "server.django_server3.settings",
    "server.gunicorn1",
    "views",
    "namespace",
    "feature",
    "client.python.flask",
    "server.django_server.manage",
    "sajson",
    "example_project.server.standalone1.handlers",
    "wrappers",
    "example_project.server.django_server4.urls",
    "misc.auth1.handlers",
    "django_server2.api.handlers",
    "flask.testclient",
    "misc.debug1.handlers",
    "example_project.server.django_server2.sapi.formatters",
    "django_server5.api.models",
    "example_project.misc",
    "example_project.client",
    "django_server4.urls",
    "django_server2.sapi.message",
    "example_project.server.flask1.app",
    "server.django_server4.api",
    "flask1",
    "server.django_server.ajax_client.urls",
    "client",
    "formatter_wrapper",
    "client.python.sapi.formatters",
    "appengine.simpleapi-demo",
    "server.django_server2.sapi.formatters",
    "django_server3.api.urls",
    "server.django_server4.manage",
    "example_project.server.appengine.simpleapi-demo",
    "example_project.client.python.flask",
    "example_project.server.django_server5.settings",
    "example_project.server.django_server.settings",
    "message.sajson",
    "client.python.testclient",
    "message.wrapper",
    "docs.conf",
    "server.django_server.api.urls",
    "main",
    "standalone1",
    "misc.dummy_server_client",
    "simpleapi.message.extjs",
    "standalone1.app",
    "manage",
    "django_server4.api",
    "python",
    "docs",
    "django_server2.sapi.wrappers",
    "python.sapi.message",
    "django_server5.urls",
    "example_project.server.django_server3.settings",
    "simpleapi",
    "client.python.sapi",
    "example_project.client.python.sapi.message",
    "example_project.misc.debug1.app",
    "example_project.server.django_server3.api.handlers",
    "simpleapi.client.dummy",
    "server.django_server",
    "debug1.handlers",
    "server.response",
    "misc.debug2",
    "django_server3.urls",
    "example_project.server.django_server4.manage",
    "serialize.handlers",
    "appengine.simpleapi-demo.handlers",
    "example_project.server.django_server5.manage",
    "api.handlers",
    "auth1.app",
    "django_server3",
    "django_server2",
    "django_server5",
    "python.sapi.wrappers",
    "django_server5.settings",
    "django_server2.sapi",
    "python.sapi",
    "example_project.server.appengine.simpleapi-demo.handlers",
    "example_project.server.gunicorn1.handlers",
    "server.appengine.simpleapi-demo.handlers",
    "debug2.handlers",
    "django_server4.api.models",
    "misc.debug1",
    "message",
    "handlers",
    "django_server4.manage",
    "example_project.server.standalone1.app",
    "simpleapi.server.session",
    "django_server5.manage",
    "server.preformat",
    "example_project.server.django_server2.urls",
    "django_server.api.urls",
    "example_project.server.django_server4.api.models",
    "example_project.server.django_server5.api.urls",
    "message.py2xml",
    "tests.formatter_wrapper",
    "example_project.server.django_server2.api.urls",
    "django_server4.settings",
    "example_project.server.django_server.api.handlers",
    "tests.route",
    "message.formatter",
    "server.session",
    "server.namespace",
    "server.django_server2.urls",
    "simpleapi.message.sajson",
    "django_server4.api.handlers",
    "example_project.server.gunicorn1",
    "auth1.handlers",
    "simpleapi.message",
    "py2xml",
    "client.client",
    "example_project.server.django_server3",
    "simpleapi.client.client",
    "example_project.server.django_server5",
    "example_project.server.django_server4",
    "formatters",
    "message.common",
    "example_project.server.django_server3.api.models",
    "app",
    "testclient2",
    "server.django_server4.api.models",
    "server.django_server2.sapi.wrappers",
    "testclient4",
    "misc",
    "debug2",
    "example_project.server.django_server5.api.handlers",
    "example_project.misc.debug1",
    "example_project.misc.debug2",
    "standalone1.handlers",
    "simpleapi.server.response",
    "api.models",
    "django_server4",
    "gunicorn1.app",
    "server.route",
    "example_project.server.django_server2.sapi.wrappers",
    "django_server3.api.models",
    "server.django_server5.api.urls",
    "sapi.formatters",
    "wrapper",
    "response",
    "tests.xml",
    "tests.namespace",
    "example_project.client.python.sapi",
    "misc.debug2.app",
    "server.django_server2.api.urls",
    "sapi.message",
    "example_project.misc.serialize.models",
    "example_project.server.django_server.ajax_client.urls",
    "python.flask",
    "server.django_server3.api",
    "simpleapi.server.route",
    "simpleapi-demo.handlers",
    "debug1.app",
    "server.django_server3.urls",
    "routemgr",
    "message.extjs",
    "example_project.server.django_server.ajax_client.views",
    "django_server2.manage",
    "example_project.server.django_server3.urls",
    "django_server5.api.urls",
    "client.python.sapi.message",
    "example_project.server.django_server",
    "example_project.server.django_server3.api.urls",
    "example_project.server.appengine.simpleapi-demo.main",
    "django_server2.settings",
    "server.standalone1.handlers",
    "server",
    "server.django_server5.manage",
    "server.django_server5.api",
    "flask1.app",
    "django_server.manage",
    "django_server2.sapi.formatters",
    "sapirequest",
    "django_server.ajax_client",
    "simpleapi.server",
    "django_server.ajax_client.views",
    "server.request",
    "server.django_server5.api.models",
    "misc.debug1.app",
    "server.flask1.app",
    "server.django_server.ajax_client.views",
    "example_project.server.gunicorn1.app",
    "server.flask1",
    "simpleapi.server.utils",
    "simpleapi.server.feature",
    "tests.settings",
    "server.standalone1",
    "server.django_server3.api.handlers",
    "models",
    "server.appengine.simpleapi-demo.main",
    "server.gunicorn1.app",
    "dummy_server_client.app",
    "example_project.server.standalone1",
    "example_project.server.django_server3.manage",
    "simpleapi.server.request",
    "django_server",
    "extjs",
    "example_project.server.django_server2.api",
    "dummy",
    "server.django_server3.manage",
    "simpleapi.server.namespace",
    "client.python",
    "example_project.server.django_server2.sapi.message",
    "client.python.sapi.wrappers",
    "simpleapi.server.serializer",
    "server.django_server2.api",
    "server.django_server.api.handlers",
    "server.sapirequest",
    "ajax_client.views",
    "example_project.client.python.sapi.wrappers",
    "serializer"
]