[
    "model",
    "nomenklatura.model.entity",
    "model.text",
    "reconcile",
    "text",
    "manage",
    "nomenklatura.authz",
    "dataset",
    "default_settings",
    "nomenklatura.model.text",
    "nomenklatura.model.account",
    "model.upload",
    "matching",
    "nomenklatura.views",
    "nomenklatura.model.common",
    "authz",
    "nomenklatura.model.upload",
    "nomenklatura.views.datasets",
    "nomenklatura.model",
    "views",
    "nomenklatura.model.matching",
    "entities",
    "importer",
    "heroku_settings",
    "model.entity",
    "nomenklatura.views.pager",
    "views.entities",
    "core",
    "views.reconcile",
    "model.matching",
    "nomenklatura.exc",
    "sessions",
    "nomenklatura.model.dataset",
    "model.common",
    "nomenklatura.importer",
    "nomenklatura.views.sessions",
    "nomenklatura",
    "nomenklatura.views.reconcile",
    "model.account",
    "nomenklatura.views.common",
    "entity",
    "pager",
    "views.datasets",
    "nomenklatura.default_settings",
    "account",
    "datasets",
    "exc",
    "views.common",
    "views.sessions",
    "nomenklatura.views.matching",
    "upload",
    "nomenklatura.core",
    "nomenklatura.views.upload",
    "views.matching",
    "common",
    "nomenklatura.manage",
    "model.dataset",
    "views.pager",
    "nomenklatura.views.entities",
    "views.upload"
]