{
    "libs": [
        "httplib",
        "b",
        "struct",
        "h",
        "pprint",
        "sys",
        "re",
        "json",
        "time",
        "multiprocessing"
    ]
}