[
    "0002_auto__add_unique_relationship_source_target_project",
    "challenges.forms",
    "apps.drumbeat.templatetags",
    "migrations.0002_auto__add_field_status_project",
    "apps.challenges.migrations.0002_auto__del_field_submission_slug",
    "drumbeatmail.views",
    "apps.drumbeatmail.urls",
    "build_id",
    "apps.relationships.migrations.0002_auto__add_unique_relationship_source_target_project",
    "drumbeat",
    "drumbeat.storage",
    "statuses.migrations.0004_auto__chg_field_status_status",
    "migrations.0011_auto__add_field_challenge_allow_voting",
    "statuses.migrations.0007_auto__chg_field_status_in_reply_to",
    "events.urls",
    "users.migrations.0001_initial",
    "apps.dashboard",
    "challenges.views",
    "migrations.0002_auto__add_field_confirmationtoken_created_on",
    "apps.links.utils",
    "migrations.0003_auto__add_userprofile",
    "migrations.0006_auto__add_field_userprofile_featured",
    "apps.links.models",
    "migrations.0003_auto__del_field_status_timestamp__add_field_status_created_on",
    "apps.projects.migrations.0005_auto__del_link__del_unique_link_project_url__del_field_project_descrip",
    "apps.dashboard.tests",
    "projects.models",
    "migrations.0003_auto__add_judge__add_unique_judge_challenge_user",
    "users.blacklist",
    "migrations.0004_auto__chg_field_project_created_by",
    "migrations.0002_auto__add_field_link_feed_url__add_unique_link_project_url",
    "0004_auto__add_field_userprofile_image",
    "0011_auto__chg_field_project_short_description",
    "apps.activity.schema",
    "fields",
    "apps.users.context_processors",
    "apps.drumbeat",
    "dashboard.urls",
    "apps.challenges.migrations.0008_auto__add_field_challenge_image",
    "migrations.0002_auto__drop_feedentry",
    "0009_auto__chg_field_submission_description",
    "activity",
    "apps.users.migrations.0004_auto__add_field_userprofile_image",
    "settings",
    "management.commands",
    "users.tests",
    "apps.statuses.forms",
    "drumbeat.models",
    "users.models",
    "apps.projects.tests",
    "migrations.0004_auto__add_field_submission_summary",
    "apps.challenges.migrations.0007_auto__add_votertaxonomy__add_voterdetails",
    "feeds.models",
    "challenges.migrations",
    "0008_auto__add_field_userprofile_discard_welcome",
    "projects.migrations.0011_auto__chg_field_project_short_description",
    "apps.challenges.migrations.0015_auto__add_field_submission_is_published",
    "assetmanager.management.commands",
    "context_processors",
    "l10n.templatetags",
    "preferences",
    "apps.preferences.views",
    "apps.relationships.models",
    "migrations",
    "users.views",
    "apps.preferences.models",
    "projects.migrations.0007_auto__add_field_projectmedia_mime_type",
    "migrations.0005_auto__del_confirmationtoken__add_taggedprofile__add_profiletag__chg_fi",
    "apps.statuses.migrations.0006_auto__add_field_status_in_reply_to",
    "statuses.migrations.0001_initial",
    "statuses.models",
    "0008_auto__add_field_challenge_image",
    "relationships",
    "apps.projects.decorators",
    "apps.l10n.templatetags",
    "apps.projects.migrations.0006_auto__add_projectmedia",
    "apps.drumbeat.utils",
    "challenges.migrations.0012_auto__add_field_submission_keywords__add_field_submission_bio",
    "migrations.0015_auto__add_field_submission_is_published",
    "apps.assetmanager.templatetags",
    "drumbeatmail.fields",
    "apps.challenges.templatetags.challenge_images",
    "build_files",
    "projects.migrations.0004_auto__chg_field_project_created_by",
    "migrations.0009_auto__chg_field_submission_description",
    "0007_auto__add_votertaxonomy__add_voterdetails",
    "users.forms",
    "preferences.tests",
    "apps.assetmanager.management.commands",
    "challenges.urls",
    "apps.feeds.models",
    "commands",
    "apps.l10n.models",
    "challenges.migrations.0006_auto__del_field_challenge_description__del_field_challenge_description",
    "migrations.0006_auto__add_field_status_in_reply_to",
    "admin",
    "users.decorators",
    "0003_auto__add_judge__add_unique_judge_challenge_user",
    "apps.users.backends",
    "l10n.models",
    "statuses.urls",
    "0013_auto__add_field_challenge_entrants_can_edit",
    "0009_auto__add_field_project_detailed_description_html",
    "migrations.0004_auto__add_field_userprofile_image",
    "migrations.0013_auto__add_field_challenge_entrants_can_edit",
    "assetmanager.management",
    "users.migrations.0006_auto__add_field_userprofile_featured",
    "drumbeat.views",
    "challenges.decorators",
    "migrations.0002_auto__add_field_link_subscription",
    "migrations.0007_auto__add_field_userprofile_newsletter",
    "0003_auto__add_field_link_created_on__add_field_project_created_on",
    "dashboard.migrations",
    "commands.exportsubmissions",
    "statuses.migrations.0003_auto__del_field_status_timestamp__add_field_status_created_on",
    "apps.drumbeatmail.views",
    "projects.urls",
    "feeds.context_processors",
    "apps.links.tasks",
    "apps.preferences.forms",
    "challenges.management",
    "migrations.0009_auto__add_field_project_detailed_description_html",
    "apps.drumbeatmail",
    "links.utils",
    "management.commands.exportsubmissions",
    "apps.links.forms",
    "users.migrations.0008_auto__add_field_userprofile_discard_welcome",
    "apps.feeds.migrations.0001_initial",
    "apps.dashboard.urls",
    "migrations.0008_auto__add_field_challenge_image",
    "backends",
    "0005_auto__del_confirmationtoken__add_taggedprofile__add_profiletag__chg_fi",
    "apps.dashboard.models",
    "users.urls",
    "projects.migrations.0001_initial",
    "utils",
    "migrations.0012_auto__add_field_submission_keywords__add_field_submission_bio",
    "apps.drumbeat.views",
    "users.migrations.0007_auto__add_field_userprofile_newsletter",
    "apps.challenges.migrations.0009_auto__chg_field_submission_description",
    "activity.schema",
    "preferences.forms",
    "apps.statuses.migrations",
    "preferences.views",
    "migrations.0001_initial",
    "apps.activity.feeds",
    "users.fields",
    "drumbeatmail.forms",
    "migrations.0016_auto__add_field_submission_is_winner",
    "apps.projects.tasks",
    "apps.activity",
    "migrations.0004_auto__chg_field_status_status",
    "locales",
    "feeds.tasks",
    "templatetags.l10n_tags",
    "activity.templatetags",
    "l10n.locales",
    "apps.dashboard.migrations.0001_initial",
    "0007_auto__add_field_projectmedia_mime_type",
    "dashboard",
    "apps.statuses.migrations.0005_auto__chg_field_status_author",
    "projects.migrations.0010_auto__add_field_projectmedia_thumbnail",
    "challenges.migrations.0007_auto__add_votertaxonomy__add_voterdetails",
    "activity.migrations",
    "apps.projects.migrations.0010_auto__add_field_projectmedia_thumbnail",
    "apps.projects.migrations.0009_auto__add_field_project_detailed_description_html",
    "links",
    "preferences.models",
    "messages",
    "drumbeatmail.tests",
    "0011_auto__add_field_challenge_allow_voting",
    "apps.l10n.locales",
    "l10n_tags",
    "activity.migrations.0001_initial",
    "0015_auto__add_field_submission_is_published",
    "apps.statuses.views",
    "users.tasks",
    "apps.users.migrations.0008_auto__add_field_userprofile_discard_welcome",
    "migrations.0008_auto__add_field_userprofile_discard_welcome",
    "0002_auto__add_field_activity_target_project",
    "0005_auto__del_link__del_unique_link_project_url__del_field_project_descrip",
    "l10n",
    "apps.drumbeat.models",
    "apps.drumbeat.urls",
    "activity.urls",
    "links.models",
    "challenges.migrations.0005_auto__add_field_submission_created_on__add_field_challenge_created_on",
    "apps.relationships.views",
    "events",
    "challenges.models",
    "0002_auto__add_field_status_project",
    "urls",
    "links.migrations.0002_auto__add_field_link_subscription",
    "apps.events.urls",
    "apps.challenges.migrations.0016_auto__add_field_submission_is_winner",
    "apps.drumbeat.context_processors",
    "projects.migrations.0008_auto__add_field_project_image",
    "challenges.migrations.0001_initial",
    "projects.utils",
    "0002_auto__add_field_link_feed_url__add_unique_link_project_url",
    "apps.assetmanager.management",
    "apps.projects.migrations",
    "migrations.0005_auto__add_field_submission_created_on__add_field_challenge_created_on",
    "drumbeat.templatetags.truncate_chars",
    "apps.challenges.migrations.0014_auto__add_field_challenge_sidebar__add_field_challenge_above_fold",
    "migrations.0010_auto__del_unique_submission_title",
    "activity.templatetags.activity_tags",
    "apps.projects.forms",
    "migrations.0007_auto__chg_field_status_in_reply_to",
    "challenges.migrations.0015_auto__add_field_submission_is_published",
    "apps.challenges.views",
    "drumbeat.templatetags",
    "urlresolvers",
    "apps.statuses.migrations.0004_auto__chg_field_status_status",
    "truncate_chars",
    "relationships.tests",
    "challenges.migrations.0011_auto__add_field_challenge_allow_voting",
    "drumbeatmail.models",
    "statuses.forms",
    "challenges.migrations.0009_auto__chg_field_submission_description",
    "drumbeat.urls",
    "apps.links",
    "apps.dashboard.migrations.0002_auto__drop_feedentry",
    "challenges.templatetags.challenge_images",
    "assetmanager.templatetags.build_id",
    "assetmanager",
    "apps.users.migrations.0006_auto__add_field_userprofile_featured",
    "apps.challenges.migrations.0004_auto__add_field_submission_summary",
    "apps.statuses.migrations.0001_initial",
    "apps.statuses.migrations.0003_auto__del_field_status_timestamp__add_field_status_created_on",
    "0005_auto__add_field_submission_created_on__add_field_challenge_created_on",
    "apps.projects.views",
    "apps.drumbeatmail.forms",
    "migrations.0014_auto__add_field_challenge_sidebar__add_field_challenge_above_fold",
    "apps.statuses.migrations.0002_auto__add_field_status_project",
    "apps.projects.migrations.0007_auto__add_field_projectmedia_mime_type",
    "apps.l10n.templatetags.l10n_tags",
    "templatetags.serve",
    "apps.challenges.models",
    "challenges.migrations.0003_auto__add_judge__add_unique_judge_challenge_user",
    "apps.challenges.decorators",
    "apps.feeds",
    "apps.users",
    "relationships.migrations.0002_auto__add_unique_relationship_source_target_project",
    "forms",
    "templatetags.truncate_chars",
    "activity.feeds",
    "statuses.migrations",
    "statuses.migrations.0002_auto__add_field_status_project",
    "apps.relationships",
    "dashboard.tests",
    "assetmanager.templatetags.serve",
    "apps.challenges.migrations.0011_auto__add_field_challenge_allow_voting",
    "drumbeat.messages",
    "projects.migrations.0005_auto__del_link__del_unique_link_project_url__del_field_project_descrip",
    "tests",
    "manage",
    "links.tasks",
    "apps.preferences.urls",
    "views",
    "apps.assetmanager.templatetags.serve",
    "apps.preferences.tests",
    "apps.challenges.migrations.0005_auto__add_field_submission_created_on__add_field_challenge_created_on",
    "apps.projects.urls",
    "apps.users.models",
    "challenges.templatetags",
    "0002_auto__del_field_submission_slug",
    "activity_tags",
    "projects",
    "dashboard.migrations.0001_initial",
    "0005_auto__chg_field_status_author",
    "drumbeatmail.urls",
    "migrations.0005_auto__chg_field_status_author",
    "apps.relationships.migrations",
    "apps.drumbeat.storage",
    "apps.projects.migrations.0011_auto__chg_field_project_short_description",
    "preferences.urls",
    "apps.challenges.migrations.0006_auto__del_field_challenge_description__del_field_challenge_description",
    "apps.projects.migrations.0001_initial",
    "apps.users.fields",
    "users.migrations.0004_auto__add_field_userprofile_image",
    "migrations.0003_auto__add_field_link_created_on__add_field_project_created_on",
    "apps.challenges.management",
    "apps.l10n.urlresolvers",
    "0006_auto__add_projectmedia",
    "apps.assetmanager",
    "apps.users.migrations.0003_auto__add_userprofile",
    "apps.dashboard.views",
    "activity.migrations.0002_auto__add_field_activity_target_project",
    "0008_auto__add_field_project_image",
    "0006_auto__add_field_userprofile_featured",
    "challenges",
    "activity.models",
    "assetmanager.management.commands.build_files",
    "migrations.0008_auto__add_field_project_image",
    "challenges.migrations.0008_auto__add_field_challenge_image",
    "relationships.migrations",
    "tasks",
    "apps.statuses.urls",
    "drumbeat.context_processors",
    "migrations.0002_auto__add_field_activity_target_project",
    "0007_auto__add_field_userprofile_newsletter",
    "apps.projects.utils",
    "0016_auto__add_field_submission_is_winner",
    "apps.drumbeatmail.models",
    "apps.drumbeatmail.tests",
    "decorators",
    "users.context_processors",
    "apps.projects.models",
    "apps.activity.migrations.0002_auto__add_field_activity_target_project",
    "0003_auto__del_field_status_timestamp__add_field_status_created_on",
    "drumbeat.utils",
    "templatetags.build_id",
    "apps.activity.templatetags",
    "links.forms",
    "0010_auto__del_unique_submission_title",
    "apps.statuses.models",
    "challenges.migrations.0014_auto__add_field_challenge_sidebar__add_field_challenge_above_fold",
    "apps.links.tests",
    "migrations.0002_auto__add_unique_relationship_source_target_project",
    "apps.relationships.admin",
    "apps.l10n.middleware",
    "projects.migrations.0003_auto__add_field_link_created_on__add_field_project_created_on",
    "apps.users.urls",
    "users.backends",
    "projects.migrations.0002_auto__add_field_link_feed_url__add_unique_link_project_url",
    "challenges.migrations.0013_auto__add_field_challenge_entrants_can_edit",
    "links.migrations",
    "apps.challenges.management.commands",
    "apps.challenges.migrations.0003_auto__add_judge__add_unique_judge_challenge_user",
    "0004_auto__chg_field_project_created_by",
    "apps.preferences",
    "apps.challenges.migrations.0012_auto__add_field_submission_keywords__add_field_submission_bio",
    "statuses.migrations.0005_auto__chg_field_status_author",
    "apps.challenges.migrations.0010_auto__del_unique_submission_title",
    "l10n.middleware",
    "migrations.0007_auto__add_field_projectmedia_mime_type",
    "relationships.models",
    "0004_auto__chg_field_status_status",
    "0006_auto__add_field_status_in_reply_to",
    "apps.users.blacklist",
    "apps.relationships.urls",
    "exportsubmissions",
    "0010_auto__add_field_projectmedia_thumbnail",
    "dashboard.models",
    "users.migrations.0005_auto__del_confirmationtoken__add_taggedprofile__add_profiletag__chg_fi",
    "apps.users.tests",
    "challenges.migrations.0002_auto__del_field_submission_slug",
    "templatetags.challenge_images",
    "dashboard.migrations.0002_auto__drop_feedentry",
    "l10n.templatetags.l10n_tags",
    "projects.tasks",
    "links.tests",
    "management",
    "apps.l10n",
    "apps.feeds.migrations",
    "commands.build_files",
    "apps",
    "projects.tests",
    "apps.users.views",
    "0007_auto__chg_field_status_in_reply_to",
    "apps.drumbeat.templatetags.truncate_chars",
    "migrations.0010_auto__add_field_projectmedia_thumbnail",
    "dashboard.views",
    "apps.feeds.tasks",
    "apps.activity.views",
    "migrations.0011_auto__chg_field_project_short_description",
    "schema",
    "templatetags.activity_tags",
    "0002_auto__add_field_confirmationtoken_created_on",
    "apps.challenges.migrations",
    "statuses",
    "apps.projects.migrations.0008_auto__add_field_project_image",
    "projects.migrations",
    "apps.users.migrations",
    "serve",
    "relationships.admin",
    "0002_auto__drop_feedentry",
    "blacklist",
    "challenges.management.commands",
    "apps.l10n.tests",
    "apps.activity.migrations",
    "l10n.urlresolvers",
    "activity.views",
    "apps.projects",
    "apps.projects.migrations.0003_auto__add_field_link_created_on__add_field_project_created_on",
    "links.migrations.0001_initial",
    "apps.relationships.tests",
    "feeds",
    "challenges.migrations.0010_auto__del_unique_submission_title",
    "apps.drumbeatmail.fields",
    "projects.decorators",
    "middleware",
    "apps.users.tasks",
    "relationships.views",
    "users.migrations.0002_auto__add_field_confirmationtoken_created_on",
    "challenge_images",
    "relationships.migrations.0001_initial",
    "0006_auto__del_field_challenge_description__del_field_challenge_description",
    "projects.migrations.0009_auto__add_field_project_detailed_description_html",
    "projects.forms",
    "feeds.migrations",
    "apps.users.decorators",
    "projects.views",
    "apps.assetmanager.templatetags.build_id",
    "apps.links.migrations",
    "0002_auto__add_field_link_subscription",
    "apps.links.migrations.0002_auto__add_field_link_subscription",
    "apps.users.migrations.0007_auto__add_field_userprofile_newsletter",
    "apps.links.migrations.0001_initial",
    "drumbeat.forms",
    "apps.activity.models",
    "apps.challenges.migrations.0013_auto__add_field_challenge_entrants_can_edit",
    "apps.users.migrations.0002_auto__add_field_confirmationtoken_created_on",
    "assetmanager.templatetags",
    "migrations.0005_auto__del_link__del_unique_link_project_url__del_field_project_descrip",
    "apps.activity.migrations.0001_initial",
    "challenges.migrations.0004_auto__add_field_submission_summary",
    "0012_auto__add_field_submission_keywords__add_field_submission_bio",
    "apps.activity.urls",
    "0004_auto__add_field_submission_summary",
    "apps.events",
    "apps.users.migrations.0005_auto__del_confirmationtoken__add_taggedprofile__add_profiletag__chg_fi",
    "storage",
    "projects.migrations.0006_auto__add_projectmedia",
    "feeds.migrations.0001_initial",
    "migrations.0006_auto__del_field_challenge_description__del_field_challenge_description",
    "0014_auto__add_field_challenge_sidebar__add_field_challenge_above_fold",
    "apps.challenges.urls",
    "apps.challenges.management.commands.exportsubmissions",
    "migrations.0006_auto__add_projectmedia",
    "apps.challenges.feeds",
    "apps.dashboard.migrations",
    "apps.projects.migrations.0002_auto__add_field_link_feed_url__add_unique_link_project_url",
    "l10n.tests",
    "challenges.migrations.0016_auto__add_field_submission_is_winner",
    "apps.challenges",
    "migrations.0007_auto__add_votertaxonomy__add_voterdetails",
    "apps.drumbeat.messages",
    "users",
    "apps.statuses.migrations.0007_auto__chg_field_status_in_reply_to",
    "models",
    "settings_local.dist",
    "apps.challenges.forms",
    "relationships.urls",
    "challenges.management.commands.exportsubmissions",
    "apps.users.forms",
    "0001_initial",
    "apps.statuses",
    "statuses.views",
    "users.migrations.0003_auto__add_userprofile",
    "apps.challenges.migrations.0001_initial",
    "challenges.feeds",
    "0003_auto__add_userprofile",
    "apps.activity.templatetags.activity_tags",
    "apps.users.migrations.0001_initial",
    "management.commands.build_files",
    "apps.feeds.context_processors",
    "migrations.0002_auto__del_field_submission_slug",
    "apps.relationships.migrations.0001_initial",
    "templatetags",
    "apps.drumbeat.forms",
    "apps.projects.migrations.0004_auto__chg_field_project_created_by",
    "statuses.migrations.0006_auto__add_field_status_in_reply_to",
    "users.migrations",
    "apps.challenges.templatetags",
    "apps.assetmanager.management.commands.build_files",
    "drumbeatmail"
]