{
    "archive_url": "https://api.github.com/repos/bfontaine/term2048/{archive_format}{/ref}",
    "assignees_url": "https://api.github.com/repos/bfontaine/term2048/assignees{/user}",
    "blobs_url": "https://api.github.com/repos/bfontaine/term2048/git/blobs{/sha}",
    "branches_url": "https://api.github.com/repos/bfontaine/term2048/branches{/branch}",
    "clone_url": "https://github.com/bfontaine/term2048.git",
    "collaborators_url": "https://api.github.com/repos/bfontaine/term2048/collaborators{/collaborator}",
    "comments_url": "https://api.github.com/repos/bfontaine/term2048/comments{/number}",
    "commits_url": "https://api.github.com/repos/bfontaine/term2048/commits{/sha}",
    "compare_url": "https://api.github.com/repos/bfontaine/term2048/compare/{base}...{head}",
    "contents_url": "https://api.github.com/repos/bfontaine/term2048/contents/{+path}",
    "contributors_url": "https://api.github.com/repos/bfontaine/term2048/contributors",
    "created_at": "2014-03-13T13:16:49Z",
    "default_branch": "master",
    "description": "2048 in your terminal",
    "downloads_url": "https://api.github.com/repos/bfontaine/term2048/downloads",
    "events_url": "https://api.github.com/repos/bfontaine/term2048/events",
    "fork": false,
    "forks": 71,
    "forks_count": 71,
    "forks_url": "https://api.github.com/repos/bfontaine/term2048/forks",
    "full_name": "bfontaine/term2048",
    "git_commits_url": "https://api.github.com/repos/bfontaine/term2048/git/commits{/sha}",
    "git_refs_url": "https://api.github.com/repos/bfontaine/term2048/git/refs{/sha}",
    "git_tags_url": "https://api.github.com/repos/bfontaine/term2048/git/tags{/sha}",
    "git_url": "git://github.com/bfontaine/term2048.git",
    "has_downloads": true,
    "has_issues": true,
    "has_wiki": true,
    "homepage": "",
    "hooks_url": "https://api.github.com/repos/bfontaine/term2048/hooks",
    "html_url": "https://github.com/bfontaine/term2048",
    "id": 17710592,
    "issue_comment_url": "https://api.github.com/repos/bfontaine/term2048/issues/comments/{number}",
    "issue_events_url": "https://api.github.com/repos/bfontaine/term2048/issues/events{/number}",
    "issues_url": "https://api.github.com/repos/bfontaine/term2048/issues{/number}",
    "keys_url": "https://api.github.com/repos/bfontaine/term2048/keys{/key_id}",
    "labels_url": "https://api.github.com/repos/bfontaine/term2048/labels{/name}",
    "language": "Python",
    "languages_url": "https://api.github.com/repos/bfontaine/term2048/languages",
    "merges_url": "https://api.github.com/repos/bfontaine/term2048/merges",
    "milestones_url": "https://api.github.com/repos/bfontaine/term2048/milestones{/number}",
    "mirror_url": null,
    "name": "term2048",
    "notifications_url": "https://api.github.com/repos/bfontaine/term2048/notifications{?since,all,participating}",
    "open_issues": 2,
    "open_issues_count": 2,
    "owner": {
        "avatar_url": "https://avatars.githubusercontent.com/u/1334295?",
        "events_url": "https://api.github.com/users/bfontaine/events{/privacy}",
        "followers_url": "https://api.github.com/users/bfontaine/followers",
        "following_url": "https://api.github.com/users/bfontaine/following{/other_user}",
        "gists_url": "https://api.github.com/users/bfontaine/gists{/gist_id}",
        "gravatar_id": "6b5fa39f5bc4b397eb7e55766eecd8c4",
        "html_url": "https://github.com/bfontaine",
        "id": 1334295,
        "login": "bfontaine",
        "organizations_url": "https://api.github.com/users/bfontaine/orgs",
        "received_events_url": "https://api.github.com/users/bfontaine/received_events",
        "repos_url": "https://api.github.com/users/bfontaine/repos",
        "site_admin": false,
        "starred_url": "https://api.github.com/users/bfontaine/starred{/owner}{/repo}",
        "subscriptions_url": "https://api.github.com/users/bfontaine/subscriptions",
        "type": "User",
        "url": "https://api.github.com/users/bfontaine"
    },
    "private": false,
    "pulls_url": "https://api.github.com/repos/bfontaine/term2048/pulls{/number}",
    "pushed_at": "2014-04-26T23:20:29Z",
    "releases_url": "https://api.github.com/repos/bfontaine/term2048/releases{/id}",
    "score": 1.0,
    "size": 988,
    "ssh_url": "git@github.com:bfontaine/term2048.git",
    "stargazers_count": 581,
    "stargazers_url": "https://api.github.com/repos/bfontaine/term2048/stargazers",
    "statuses_url": "https://api.github.com/repos/bfontaine/term2048/statuses/{sha}",
    "subscribers_url": "https://api.github.com/repos/bfontaine/term2048/subscribers",
    "subscription_url": "https://api.github.com/repos/bfontaine/term2048/subscription",
    "svn_url": "https://github.com/bfontaine/term2048",
    "tags_url": "https://api.github.com/repos/bfontaine/term2048/tags",
    "teams_url": "https://api.github.com/repos/bfontaine/term2048/teams",
    "trees_url": "https://api.github.com/repos/bfontaine/term2048/git/trees{/sha}",
    "updated_at": "2014-05-07T01:03:53Z",
    "url": "https://api.github.com/repos/bfontaine/term2048",
    "watchers": 581,
    "watchers_count": 581
}