{
    "archive_url": "https://api.github.com/repos/ahmetalpbalkan/personal-dashboard/{archive_format}{/ref}",
    "assignees_url": "https://api.github.com/repos/ahmetalpbalkan/personal-dashboard/assignees{/user}",
    "blobs_url": "https://api.github.com/repos/ahmetalpbalkan/personal-dashboard/git/blobs{/sha}",
    "branches_url": "https://api.github.com/repos/ahmetalpbalkan/personal-dashboard/branches{/branch}",
    "clone_url": "https://github.com/ahmetalpbalkan/personal-dashboard.git",
    "collaborators_url": "https://api.github.com/repos/ahmetalpbalkan/personal-dashboard/collaborators{/collaborator}",
    "comments_url": "https://api.github.com/repos/ahmetalpbalkan/personal-dashboard/comments{/number}",
    "commits_url": "https://api.github.com/repos/ahmetalpbalkan/personal-dashboard/commits{/sha}",
    "compare_url": "https://api.github.com/repos/ahmetalpbalkan/personal-dashboard/compare/{base}...{head}",
    "contents_url": "https://api.github.com/repos/ahmetalpbalkan/personal-dashboard/contents/{+path}",
    "contributors_url": "https://api.github.com/repos/ahmetalpbalkan/personal-dashboard/contributors",
    "created_at": "2013-06-28T22:44:03Z",
    "default_branch": "master",
    "description": "Programmatically collecting, saving and reporting various data about me",
    "downloads_url": "https://api.github.com/repos/ahmetalpbalkan/personal-dashboard/downloads",
    "events_url": "https://api.github.com/repos/ahmetalpbalkan/personal-dashboard/events",
    "fork": false,
    "forks": 9,
    "forks_count": 9,
    "forks_url": "https://api.github.com/repos/ahmetalpbalkan/personal-dashboard/forks",
    "full_name": "ahmetalpbalkan/personal-dashboard",
    "git_commits_url": "https://api.github.com/repos/ahmetalpbalkan/personal-dashboard/git/commits{/sha}",
    "git_refs_url": "https://api.github.com/repos/ahmetalpbalkan/personal-dashboard/git/refs{/sha}",
    "git_tags_url": "https://api.github.com/repos/ahmetalpbalkan/personal-dashboard/git/tags{/sha}",
    "git_url": "git://github.com/ahmetalpbalkan/personal-dashboard.git",
    "has_downloads": true,
    "has_issues": true,
    "has_wiki": true,
    "homepage": "http://ahmetalpbalkan.com/blog/personal-dashboard/",
    "hooks_url": "https://api.github.com/repos/ahmetalpbalkan/personal-dashboard/hooks",
    "html_url": "https://github.com/ahmetalpbalkan/personal-dashboard",
    "id": 11040071,
    "issue_comment_url": "https://api.github.com/repos/ahmetalpbalkan/personal-dashboard/issues/comments/{number}",
    "issue_events_url": "https://api.github.com/repos/ahmetalpbalkan/personal-dashboard/issues/events{/number}",
    "issues_url": "https://api.github.com/repos/ahmetalpbalkan/personal-dashboard/issues{/number}",
    "keys_url": "https://api.github.com/repos/ahmetalpbalkan/personal-dashboard/keys{/key_id}",
    "labels_url": "https://api.github.com/repos/ahmetalpbalkan/personal-dashboard/labels{/name}",
    "language": "Python",
    "languages_url": "https://api.github.com/repos/ahmetalpbalkan/personal-dashboard/languages",
    "merges_url": "https://api.github.com/repos/ahmetalpbalkan/personal-dashboard/merges",
    "milestones_url": "https://api.github.com/repos/ahmetalpbalkan/personal-dashboard/milestones{/number}",
    "mirror_url": null,
    "name": "personal-dashboard",
    "notifications_url": "https://api.github.com/repos/ahmetalpbalkan/personal-dashboard/notifications{?since,all,participating}",
    "open_issues": 0,
    "open_issues_count": 0,
    "owner": {
        "avatar_url": "https://avatars.githubusercontent.com/u/159209?",
        "events_url": "https://api.github.com/users/ahmetalpbalkan/events{/privacy}",
        "followers_url": "https://api.github.com/users/ahmetalpbalkan/followers",
        "following_url": "https://api.github.com/users/ahmetalpbalkan/following{/other_user}",
        "gists_url": "https://api.github.com/users/ahmetalpbalkan/gists{/gist_id}",
        "gravatar_id": "bf59cd38a9c9084b6a66bf4fce47f691",
        "html_url": "https://github.com/ahmetalpbalkan",
        "id": 159209,
        "login": "ahmetalpbalkan",
        "organizations_url": "https://api.github.com/users/ahmetalpbalkan/orgs",
        "received_events_url": "https://api.github.com/users/ahmetalpbalkan/received_events",
        "repos_url": "https://api.github.com/users/ahmetalpbalkan/repos",
        "site_admin": false,
        "starred_url": "https://api.github.com/users/ahmetalpbalkan/starred{/owner}{/repo}",
        "subscriptions_url": "https://api.github.com/users/ahmetalpbalkan/subscriptions",
        "type": "User",
        "url": "https://api.github.com/users/ahmetalpbalkan"
    },
    "private": false,
    "pulls_url": "https://api.github.com/repos/ahmetalpbalkan/personal-dashboard/pulls{/number}",
    "pushed_at": "2014-04-09T03:36:27Z",
    "releases_url": "https://api.github.com/repos/ahmetalpbalkan/personal-dashboard/releases{/id}",
    "score": 1.0,
    "size": 251,
    "ssh_url": "git@github.com:ahmetalpbalkan/personal-dashboard.git",
    "stargazers_count": 120,
    "stargazers_url": "https://api.github.com/repos/ahmetalpbalkan/personal-dashboard/stargazers",
    "statuses_url": "https://api.github.com/repos/ahmetalpbalkan/personal-dashboard/statuses/{sha}",
    "subscribers_url": "https://api.github.com/repos/ahmetalpbalkan/personal-dashboard/subscribers",
    "subscription_url": "https://api.github.com/repos/ahmetalpbalkan/personal-dashboard/subscription",
    "svn_url": "https://github.com/ahmetalpbalkan/personal-dashboard",
    "tags_url": "https://api.github.com/repos/ahmetalpbalkan/personal-dashboard/tags",
    "teams_url": "https://api.github.com/repos/ahmetalpbalkan/personal-dashboard/teams",
    "trees_url": "https://api.github.com/repos/ahmetalpbalkan/personal-dashboard/git/trees{/sha}",
    "updated_at": "2014-04-28T13:43:36Z",
    "url": "https://api.github.com/repos/ahmetalpbalkan/personal-dashboard",
    "watchers": 120,
    "watchers_count": 120
}