{
    "archive_url": "https://api.github.com/repos/charettes/django-mutant/{archive_format}{/ref}",
    "assignees_url": "https://api.github.com/repos/charettes/django-mutant/assignees{/user}",
    "blobs_url": "https://api.github.com/repos/charettes/django-mutant/git/blobs{/sha}",
    "branches_url": "https://api.github.com/repos/charettes/django-mutant/branches{/branch}",
    "clone_url": "https://github.com/charettes/django-mutant.git",
    "collaborators_url": "https://api.github.com/repos/charettes/django-mutant/collaborators{/collaborator}",
    "comments_url": "https://api.github.com/repos/charettes/django-mutant/comments{/number}",
    "commits_url": "https://api.github.com/repos/charettes/django-mutant/commits{/sha}",
    "compare_url": "https://api.github.com/repos/charettes/django-mutant/compare/{base}...{head}",
    "contents_url": "https://api.github.com/repos/charettes/django-mutant/contents/{+path}",
    "contributors_url": "https://api.github.com/repos/charettes/django-mutant/contributors",
    "created_at": "2012-01-17T05:00:05Z",
    "default_branch": "master",
    "description": "Dynamic model definition and alteration (evolving schemas)",
    "downloads_url": "https://api.github.com/repos/charettes/django-mutant/downloads",
    "events_url": "https://api.github.com/repos/charettes/django-mutant/events",
    "fork": false,
    "forks": 9,
    "forks_count": 9,
    "forks_url": "https://api.github.com/repos/charettes/django-mutant/forks",
    "full_name": "charettes/django-mutant",
    "git_commits_url": "https://api.github.com/repos/charettes/django-mutant/git/commits{/sha}",
    "git_refs_url": "https://api.github.com/repos/charettes/django-mutant/git/refs{/sha}",
    "git_tags_url": "https://api.github.com/repos/charettes/django-mutant/git/tags{/sha}",
    "git_url": "git://github.com/charettes/django-mutant.git",
    "has_downloads": true,
    "has_issues": true,
    "has_wiki": true,
    "homepage": "https://pypi.python.org/pypi/django-mutant",
    "hooks_url": "https://api.github.com/repos/charettes/django-mutant/hooks",
    "html_url": "https://github.com/charettes/django-mutant",
    "id": 3196867,
    "issue_comment_url": "https://api.github.com/repos/charettes/django-mutant/issues/comments/{number}",
    "issue_events_url": "https://api.github.com/repos/charettes/django-mutant/issues/events{/number}",
    "issues_url": "https://api.github.com/repos/charettes/django-mutant/issues{/number}",
    "keys_url": "https://api.github.com/repos/charettes/django-mutant/keys{/key_id}",
    "labels_url": "https://api.github.com/repos/charettes/django-mutant/labels{/name}",
    "language": "Python",
    "languages_url": "https://api.github.com/repos/charettes/django-mutant/languages",
    "merges_url": "https://api.github.com/repos/charettes/django-mutant/merges",
    "milestones_url": "https://api.github.com/repos/charettes/django-mutant/milestones{/number}",
    "mirror_url": null,
    "name": "django-mutant",
    "notifications_url": "https://api.github.com/repos/charettes/django-mutant/notifications{?since,all,participating}",
    "open_issues": 5,
    "open_issues_count": 5,
    "owner": {
        "avatar_url": "https://avatars.githubusercontent.com/u/9293?",
        "events_url": "https://api.github.com/users/charettes/events{/privacy}",
        "followers_url": "https://api.github.com/users/charettes/followers",
        "following_url": "https://api.github.com/users/charettes/following{/other_user}",
        "gists_url": "https://api.github.com/users/charettes/gists{/gist_id}",
        "gravatar_id": "428a62eedcccc5c82cee1bb972ea3cd5",
        "html_url": "https://github.com/charettes",
        "id": 9293,
        "login": "charettes",
        "organizations_url": "https://api.github.com/users/charettes/orgs",
        "received_events_url": "https://api.github.com/users/charettes/received_events",
        "repos_url": "https://api.github.com/users/charettes/repos",
        "site_admin": false,
        "starred_url": "https://api.github.com/users/charettes/starred{/owner}{/repo}",
        "subscriptions_url": "https://api.github.com/users/charettes/subscriptions",
        "type": "User",
        "url": "https://api.github.com/users/charettes"
    },
    "private": false,
    "pulls_url": "https://api.github.com/repos/charettes/django-mutant/pulls{/number}",
    "pushed_at": "2014-04-30T17:35:08Z",
    "releases_url": "https://api.github.com/repos/charettes/django-mutant/releases{/id}",
    "score": 1.0,
    "size": 1149,
    "ssh_url": "git@github.com:charettes/django-mutant.git",
    "stargazers_count": 88,
    "stargazers_url": "https://api.github.com/repos/charettes/django-mutant/stargazers",
    "statuses_url": "https://api.github.com/repos/charettes/django-mutant/statuses/{sha}",
    "subscribers_url": "https://api.github.com/repos/charettes/django-mutant/subscribers",
    "subscription_url": "https://api.github.com/repos/charettes/django-mutant/subscription",
    "svn_url": "https://github.com/charettes/django-mutant",
    "tags_url": "https://api.github.com/repos/charettes/django-mutant/tags",
    "teams_url": "https://api.github.com/repos/charettes/django-mutant/teams",
    "trees_url": "https://api.github.com/repos/charettes/django-mutant/git/trees{/sha}",
    "updated_at": "2014-05-02T01:57:07Z",
    "url": "https://api.github.com/repos/charettes/django-mutant",
    "watchers": 88,
    "watchers_count": 88
}