{
    "archive_url": "https://api.github.com/repos/slush0/stratum-mining/{archive_format}{/ref}",
    "assignees_url": "https://api.github.com/repos/slush0/stratum-mining/assignees{/user}",
    "blobs_url": "https://api.github.com/repos/slush0/stratum-mining/git/blobs{/sha}",
    "branches_url": "https://api.github.com/repos/slush0/stratum-mining/branches{/branch}",
    "clone_url": "https://github.com/slush0/stratum-mining.git",
    "collaborators_url": "https://api.github.com/repos/slush0/stratum-mining/collaborators{/collaborator}",
    "comments_url": "https://api.github.com/repos/slush0/stratum-mining/comments{/number}",
    "commits_url": "https://api.github.com/repos/slush0/stratum-mining/commits{/sha}",
    "compare_url": "https://api.github.com/repos/slush0/stratum-mining/compare/{base}...{head}",
    "contents_url": "https://api.github.com/repos/slush0/stratum-mining/contents/{+path}",
    "contributors_url": "https://api.github.com/repos/slush0/stratum-mining/contributors",
    "created_at": "2012-09-04T14:15:04Z",
    "default_branch": "master",
    "description": "Demo implementation of Bitcoin mining pool on Stratum protocol",
    "downloads_url": "https://api.github.com/repos/slush0/stratum-mining/downloads",
    "events_url": "https://api.github.com/repos/slush0/stratum-mining/events",
    "fork": false,
    "forks": 132,
    "forks_count": 132,
    "forks_url": "https://api.github.com/repos/slush0/stratum-mining/forks",
    "full_name": "slush0/stratum-mining",
    "git_commits_url": "https://api.github.com/repos/slush0/stratum-mining/git/commits{/sha}",
    "git_refs_url": "https://api.github.com/repos/slush0/stratum-mining/git/refs{/sha}",
    "git_tags_url": "https://api.github.com/repos/slush0/stratum-mining/git/tags{/sha}",
    "git_url": "git://github.com/slush0/stratum-mining.git",
    "has_downloads": true,
    "has_issues": true,
    "has_wiki": true,
    "homepage": null,
    "hooks_url": "https://api.github.com/repos/slush0/stratum-mining/hooks",
    "html_url": "https://github.com/slush0/stratum-mining",
    "id": 5673467,
    "issue_comment_url": "https://api.github.com/repos/slush0/stratum-mining/issues/comments/{number}",
    "issue_events_url": "https://api.github.com/repos/slush0/stratum-mining/issues/events{/number}",
    "issues_url": "https://api.github.com/repos/slush0/stratum-mining/issues{/number}",
    "keys_url": "https://api.github.com/repos/slush0/stratum-mining/keys{/key_id}",
    "labels_url": "https://api.github.com/repos/slush0/stratum-mining/labels{/name}",
    "language": "Python",
    "languages_url": "https://api.github.com/repos/slush0/stratum-mining/languages",
    "merges_url": "https://api.github.com/repos/slush0/stratum-mining/merges",
    "milestones_url": "https://api.github.com/repos/slush0/stratum-mining/milestones{/number}",
    "mirror_url": null,
    "name": "stratum-mining",
    "notifications_url": "https://api.github.com/repos/slush0/stratum-mining/notifications{?since,all,participating}",
    "open_issues": 4,
    "open_issues_count": 4,
    "owner": {
        "avatar_url": "https://avatars.githubusercontent.com/u/565341?",
        "events_url": "https://api.github.com/users/slush0/events{/privacy}",
        "followers_url": "https://api.github.com/users/slush0/followers",
        "following_url": "https://api.github.com/users/slush0/following{/other_user}",
        "gists_url": "https://api.github.com/users/slush0/gists{/gist_id}",
        "gravatar_id": "80b16de8132b1cf5e3784766f40417c5",
        "html_url": "https://github.com/slush0",
        "id": 565341,
        "login": "slush0",
        "organizations_url": "https://api.github.com/users/slush0/orgs",
        "received_events_url": "https://api.github.com/users/slush0/received_events",
        "repos_url": "https://api.github.com/users/slush0/repos",
        "site_admin": false,
        "starred_url": "https://api.github.com/users/slush0/starred{/owner}{/repo}",
        "subscriptions_url": "https://api.github.com/users/slush0/subscriptions",
        "type": "User",
        "url": "https://api.github.com/users/slush0"
    },
    "private": false,
    "pulls_url": "https://api.github.com/repos/slush0/stratum-mining/pulls{/number}",
    "pushed_at": "2014-02-07T20:28:28Z",
    "releases_url": "https://api.github.com/repos/slush0/stratum-mining/releases{/id}",
    "score": 1.0,
    "size": 214,
    "ssh_url": "git@github.com:slush0/stratum-mining.git",
    "stargazers_count": 81,
    "stargazers_url": "https://api.github.com/repos/slush0/stratum-mining/stargazers",
    "statuses_url": "https://api.github.com/repos/slush0/stratum-mining/statuses/{sha}",
    "subscribers_url": "https://api.github.com/repos/slush0/stratum-mining/subscribers",
    "subscription_url": "https://api.github.com/repos/slush0/stratum-mining/subscription",
    "svn_url": "https://github.com/slush0/stratum-mining",
    "tags_url": "https://api.github.com/repos/slush0/stratum-mining/tags",
    "teams_url": "https://api.github.com/repos/slush0/stratum-mining/teams",
    "trees_url": "https://api.github.com/repos/slush0/stratum-mining/git/trees{/sha}",
    "updated_at": "2014-04-28T12:53:42Z",
    "url": "https://api.github.com/repos/slush0/stratum-mining",
    "watchers": 81,
    "watchers_count": 81
}