{
    "libs": [
        "division",
        "six",
        "logging",
        "imp",
        "unittest",
        "inspect",
        "textwrap",
        "sys",
        "linecache",
        "argparse",
        "collections",
        "types",
        "tokenize",
        "operator",
        "moves",
        "os",
        "print_function",
        "dis"
    ]
}