{
    "libs": [
        "fcntl",
        "cPickle",
        "struct",
        "mmap",
        "signal",
        "fileinput",
        "tty",
        "termios",
        "sys",
        "re",
        "os",
        "ctypes",
        "shlex",
        "pty",
        "time",
        "getopt",
        "pickle",
        "select",
        "math"
    ]
}