[
    "02_2_save-shots",
    "02_1_shot-detection",
    "01_1_new-project",
    "02_4_final-cut",
    "02_3_shot-slitscan",
    "02_5_100-stills",
    "04_1_motion",
    "04_2_sort_motion_spectrum",
    "03_1_shot-colors",
    "lib",
    "03_2_shot-colors_avg",
    "06_1_plot_statistics",
    "06_2_subtitle_sentiment",
    "03_3_movie-colors",
    "05_2_audio",
    "03_5_chapter-colors",
    "05_1_trim-audio",
    "03_4_adjust-chapters"
]