{
    "archive_url": "https://api.github.com/repos/mattupstate/flask-mail/{archive_format}{/ref}",
    "assignees_url": "https://api.github.com/repos/mattupstate/flask-mail/assignees{/user}",
    "blobs_url": "https://api.github.com/repos/mattupstate/flask-mail/git/blobs{/sha}",
    "branches_url": "https://api.github.com/repos/mattupstate/flask-mail/branches{/branch}",
    "clone_url": "https://github.com/mattupstate/flask-mail.git",
    "collaborators_url": "https://api.github.com/repos/mattupstate/flask-mail/collaborators{/collaborator}",
    "comments_url": "https://api.github.com/repos/mattupstate/flask-mail/comments{/number}",
    "commits_url": "https://api.github.com/repos/mattupstate/flask-mail/commits{/sha}",
    "compare_url": "https://api.github.com/repos/mattupstate/flask-mail/compare/{base}...{head}",
    "contents_url": "https://api.github.com/repos/mattupstate/flask-mail/contents/{+path}",
    "contributors_url": "https://api.github.com/repos/mattupstate/flask-mail/contributors",
    "created_at": "2012-02-29T16:39:29Z",
    "default_branch": "master",
    "description": "Flask-Mail adds SMTP mail sending to your Flask applications",
    "downloads_url": "https://api.github.com/repos/mattupstate/flask-mail/downloads",
    "events_url": "https://api.github.com/repos/mattupstate/flask-mail/events",
    "fork": false,
    "forks": 35,
    "forks_count": 35,
    "forks_url": "https://api.github.com/repos/mattupstate/flask-mail/forks",
    "full_name": "mattupstate/flask-mail",
    "git_commits_url": "https://api.github.com/repos/mattupstate/flask-mail/git/commits{/sha}",
    "git_refs_url": "https://api.github.com/repos/mattupstate/flask-mail/git/refs{/sha}",
    "git_tags_url": "https://api.github.com/repos/mattupstate/flask-mail/git/tags{/sha}",
    "git_url": "git://github.com/mattupstate/flask-mail.git",
    "has_downloads": true,
    "has_issues": true,
    "has_wiki": false,
    "homepage": "http://packages.python.org/Flask-Mail/",
    "hooks_url": "https://api.github.com/repos/mattupstate/flask-mail/hooks",
    "html_url": "https://github.com/mattupstate/flask-mail",
    "id": 3583557,
    "issue_comment_url": "https://api.github.com/repos/mattupstate/flask-mail/issues/comments/{number}",
    "issue_events_url": "https://api.github.com/repos/mattupstate/flask-mail/issues/events{/number}",
    "issues_url": "https://api.github.com/repos/mattupstate/flask-mail/issues{/number}",
    "keys_url": "https://api.github.com/repos/mattupstate/flask-mail/keys{/key_id}",
    "labels_url": "https://api.github.com/repos/mattupstate/flask-mail/labels{/name}",
    "language": "Python",
    "languages_url": "https://api.github.com/repos/mattupstate/flask-mail/languages",
    "merges_url": "https://api.github.com/repos/mattupstate/flask-mail/merges",
    "milestones_url": "https://api.github.com/repos/mattupstate/flask-mail/milestones{/number}",
    "mirror_url": null,
    "name": "flask-mail",
    "notifications_url": "https://api.github.com/repos/mattupstate/flask-mail/notifications{?since,all,participating}",
    "open_issues": 23,
    "open_issues_count": 23,
    "owner": {
        "avatar_url": "https://avatars.githubusercontent.com/u/166176?",
        "events_url": "https://api.github.com/users/mattupstate/events{/privacy}",
        "followers_url": "https://api.github.com/users/mattupstate/followers",
        "following_url": "https://api.github.com/users/mattupstate/following{/other_user}",
        "gists_url": "https://api.github.com/users/mattupstate/gists{/gist_id}",
        "gravatar_id": "e634876a3a9e7f9b8aba79583c0e8e30",
        "html_url": "https://github.com/mattupstate",
        "id": 166176,
        "login": "mattupstate",
        "organizations_url": "https://api.github.com/users/mattupstate/orgs",
        "received_events_url": "https://api.github.com/users/mattupstate/received_events",
        "repos_url": "https://api.github.com/users/mattupstate/repos",
        "site_admin": false,
        "starred_url": "https://api.github.com/users/mattupstate/starred{/owner}{/repo}",
        "subscriptions_url": "https://api.github.com/users/mattupstate/subscriptions",
        "type": "User",
        "url": "https://api.github.com/users/mattupstate"
    },
    "private": false,
    "pulls_url": "https://api.github.com/repos/mattupstate/flask-mail/pulls{/number}",
    "pushed_at": "2013-10-03T17:12:18Z",
    "releases_url": "https://api.github.com/repos/mattupstate/flask-mail/releases{/id}",
    "score": 1.0,
    "size": 436,
    "ssh_url": "git@github.com:mattupstate/flask-mail.git",
    "stargazers_count": 123,
    "stargazers_url": "https://api.github.com/repos/mattupstate/flask-mail/stargazers",
    "statuses_url": "https://api.github.com/repos/mattupstate/flask-mail/statuses/{sha}",
    "subscribers_url": "https://api.github.com/repos/mattupstate/flask-mail/subscribers",
    "subscription_url": "https://api.github.com/repos/mattupstate/flask-mail/subscription",
    "svn_url": "https://github.com/mattupstate/flask-mail",
    "tags_url": "https://api.github.com/repos/mattupstate/flask-mail/tags",
    "teams_url": "https://api.github.com/repos/mattupstate/flask-mail/teams",
    "trees_url": "https://api.github.com/repos/mattupstate/flask-mail/git/trees{/sha}",
    "updated_at": "2014-01-12T17:23:56Z",
    "url": "https://api.github.com/repos/mattupstate/flask-mail",
    "watchers": 123,
    "watchers_count": 123
}