{
    "libs": [
        "heapq",
        "distutils",
        "functools",
        "parser",
        "subprocess",
        "contextlib",
        "operator",
        "message",
        "oauth2client",
        "appdirs",
        "string",
        "copy",
        "uuid",
        "errno",
        "re",
        "collections",
        "decorator",
        "getp",
        "validictory",
        "unittest2",
        "mock",
        "random",
        "protobuf",
        "simplejson",
        "warnings",
        "glob",
        "inspect",
        "sys",
        "b",
        "datetime",
        "types",
        "proboscis",
        "logging",
        "bisect",
        "h",
        "traceback",
        "cookielib",
        "mutagen",
        "descriptor",
        "itertools",
        "client",
        "doctest",
        "time",
        "requests",
        "os",
        "hmac",
        "noqa"
    ]
}