{
    "archive_url": "https://api.github.com/repos/yfli/twitter-to-weibo-appengine/{archive_format}{/ref}",
    "assignees_url": "https://api.github.com/repos/yfli/twitter-to-weibo-appengine/assignees{/user}",
    "blobs_url": "https://api.github.com/repos/yfli/twitter-to-weibo-appengine/git/blobs{/sha}",
    "branches_url": "https://api.github.com/repos/yfli/twitter-to-weibo-appengine/branches{/branch}",
    "clone_url": "https://github.com/yfli/twitter-to-weibo-appengine.git",
    "collaborators_url": "https://api.github.com/repos/yfli/twitter-to-weibo-appengine/collaborators{/collaborator}",
    "comments_url": "https://api.github.com/repos/yfli/twitter-to-weibo-appengine/comments{/number}",
    "commits_url": "https://api.github.com/repos/yfli/twitter-to-weibo-appengine/commits{/sha}",
    "compare_url": "https://api.github.com/repos/yfli/twitter-to-weibo-appengine/compare/{base}...{head}",
    "contents_url": "https://api.github.com/repos/yfli/twitter-to-weibo-appengine/contents/{+path}",
    "contributors_url": "https://api.github.com/repos/yfli/twitter-to-weibo-appengine/contributors",
    "created_at": "2012-04-28T05:59:44Z",
    "default_branch": "master",
    "description": "Twitter\u540c\u6b65\u5230\u65b0\u6d6a\u5fae\u535a\u5de5\u5177",
    "downloads_url": "https://api.github.com/repos/yfli/twitter-to-weibo-appengine/downloads",
    "events_url": "https://api.github.com/repos/yfli/twitter-to-weibo-appengine/events",
    "fork": false,
    "forks": 8,
    "forks_count": 8,
    "forks_url": "https://api.github.com/repos/yfli/twitter-to-weibo-appengine/forks",
    "full_name": "yfli/twitter-to-weibo-appengine",
    "git_commits_url": "https://api.github.com/repos/yfli/twitter-to-weibo-appengine/git/commits{/sha}",
    "git_refs_url": "https://api.github.com/repos/yfli/twitter-to-weibo-appengine/git/refs{/sha}",
    "git_tags_url": "https://api.github.com/repos/yfli/twitter-to-weibo-appengine/git/tags{/sha}",
    "git_url": "git://github.com/yfli/twitter-to-weibo-appengine.git",
    "has_downloads": true,
    "has_issues": true,
    "has_wiki": true,
    "homepage": "",
    "hooks_url": "https://api.github.com/repos/yfli/twitter-to-weibo-appengine/hooks",
    "html_url": "https://github.com/yfli/twitter-to-weibo-appengine",
    "id": 4165375,
    "issue_comment_url": "https://api.github.com/repos/yfli/twitter-to-weibo-appengine/issues/comments/{number}",
    "issue_events_url": "https://api.github.com/repos/yfli/twitter-to-weibo-appengine/issues/events{/number}",
    "issues_url": "https://api.github.com/repos/yfli/twitter-to-weibo-appengine/issues{/number}",
    "keys_url": "https://api.github.com/repos/yfli/twitter-to-weibo-appengine/keys{/key_id}",
    "labels_url": "https://api.github.com/repos/yfli/twitter-to-weibo-appengine/labels{/name}",
    "language": "Python",
    "languages_url": "https://api.github.com/repos/yfli/twitter-to-weibo-appengine/languages",
    "merges_url": "https://api.github.com/repos/yfli/twitter-to-weibo-appengine/merges",
    "milestones_url": "https://api.github.com/repos/yfli/twitter-to-weibo-appengine/milestones{/number}",
    "mirror_url": null,
    "name": "twitter-to-weibo-appengine",
    "notifications_url": "https://api.github.com/repos/yfli/twitter-to-weibo-appengine/notifications{?since,all,participating}",
    "open_issues": 0,
    "open_issues_count": 0,
    "owner": {
        "avatar_url": "https://avatars.githubusercontent.com/u/584134?",
        "events_url": "https://api.github.com/users/yfli/events{/privacy}",
        "followers_url": "https://api.github.com/users/yfli/followers",
        "following_url": "https://api.github.com/users/yfli/following{/other_user}",
        "gists_url": "https://api.github.com/users/yfli/gists{/gist_id}",
        "gravatar_id": "69ef2eeab6e57afd099ef0be78315d8c",
        "html_url": "https://github.com/yfli",
        "id": 584134,
        "login": "yfli",
        "organizations_url": "https://api.github.com/users/yfli/orgs",
        "received_events_url": "https://api.github.com/users/yfli/received_events",
        "repos_url": "https://api.github.com/users/yfli/repos",
        "site_admin": false,
        "starred_url": "https://api.github.com/users/yfli/starred{/owner}{/repo}",
        "subscriptions_url": "https://api.github.com/users/yfli/subscriptions",
        "type": "User",
        "url": "https://api.github.com/users/yfli"
    },
    "private": false,
    "pulls_url": "https://api.github.com/repos/yfli/twitter-to-weibo-appengine/pulls{/number}",
    "pushed_at": "2013-10-23T14:07:35Z",
    "releases_url": "https://api.github.com/repos/yfli/twitter-to-weibo-appengine/releases{/id}",
    "score": 1.0,
    "size": 328,
    "ssh_url": "git@github.com:yfli/twitter-to-weibo-appengine.git",
    "stargazers_count": 47,
    "stargazers_url": "https://api.github.com/repos/yfli/twitter-to-weibo-appengine/stargazers",
    "statuses_url": "https://api.github.com/repos/yfli/twitter-to-weibo-appengine/statuses/{sha}",
    "subscribers_url": "https://api.github.com/repos/yfli/twitter-to-weibo-appengine/subscribers",
    "subscription_url": "https://api.github.com/repos/yfli/twitter-to-weibo-appengine/subscription",
    "svn_url": "https://github.com/yfli/twitter-to-weibo-appengine",
    "tags_url": "https://api.github.com/repos/yfli/twitter-to-weibo-appengine/tags",
    "teams_url": "https://api.github.com/repos/yfli/twitter-to-weibo-appengine/teams",
    "trees_url": "https://api.github.com/repos/yfli/twitter-to-weibo-appengine/git/trees{/sha}",
    "updated_at": "2014-01-16T16:41:36Z",
    "url": "https://api.github.com/repos/yfli/twitter-to-weibo-appengine",
    "watchers": 47,
    "watchers_count": 47
}