{
    "archive_url": "https://api.github.com/repos/coronalabs/CoronaSDK-SublimeText/{archive_format}{/ref}",
    "assignees_url": "https://api.github.com/repos/coronalabs/CoronaSDK-SublimeText/assignees{/user}",
    "blobs_url": "https://api.github.com/repos/coronalabs/CoronaSDK-SublimeText/git/blobs{/sha}",
    "branches_url": "https://api.github.com/repos/coronalabs/CoronaSDK-SublimeText/branches{/branch}",
    "clone_url": "https://github.com/coronalabs/CoronaSDK-SublimeText.git",
    "collaborators_url": "https://api.github.com/repos/coronalabs/CoronaSDK-SublimeText/collaborators{/collaborator}",
    "comments_url": "https://api.github.com/repos/coronalabs/CoronaSDK-SublimeText/comments{/number}",
    "commits_url": "https://api.github.com/repos/coronalabs/CoronaSDK-SublimeText/commits{/sha}",
    "compare_url": "https://api.github.com/repos/coronalabs/CoronaSDK-SublimeText/compare/{base}...{head}",
    "contents_url": "https://api.github.com/repos/coronalabs/CoronaSDK-SublimeText/contents/{+path}",
    "contributors_url": "https://api.github.com/repos/coronalabs/CoronaSDK-SublimeText/contributors",
    "created_at": "2013-09-30T23:27:52Z",
    "default_branch": "master",
    "description": "Corona Editor is the official Corona SDK plugin for Sublime Text",
    "downloads_url": "https://api.github.com/repos/coronalabs/CoronaSDK-SublimeText/downloads",
    "events_url": "https://api.github.com/repos/coronalabs/CoronaSDK-SublimeText/events",
    "fork": false,
    "forks": 13,
    "forks_count": 13,
    "forks_url": "https://api.github.com/repos/coronalabs/CoronaSDK-SublimeText/forks",
    "full_name": "coronalabs/CoronaSDK-SublimeText",
    "git_commits_url": "https://api.github.com/repos/coronalabs/CoronaSDK-SublimeText/git/commits{/sha}",
    "git_refs_url": "https://api.github.com/repos/coronalabs/CoronaSDK-SublimeText/git/refs{/sha}",
    "git_tags_url": "https://api.github.com/repos/coronalabs/CoronaSDK-SublimeText/git/tags{/sha}",
    "git_url": "git://github.com/coronalabs/CoronaSDK-SublimeText.git",
    "has_downloads": true,
    "has_issues": true,
    "has_wiki": false,
    "homepage": "http://www.coronalabs.com",
    "hooks_url": "https://api.github.com/repos/coronalabs/CoronaSDK-SublimeText/hooks",
    "html_url": "https://github.com/coronalabs/CoronaSDK-SublimeText",
    "id": 13230256,
    "issue_comment_url": "https://api.github.com/repos/coronalabs/CoronaSDK-SublimeText/issues/comments/{number}",
    "issue_events_url": "https://api.github.com/repos/coronalabs/CoronaSDK-SublimeText/issues/events{/number}",
    "issues_url": "https://api.github.com/repos/coronalabs/CoronaSDK-SublimeText/issues{/number}",
    "keys_url": "https://api.github.com/repos/coronalabs/CoronaSDK-SublimeText/keys{/key_id}",
    "labels_url": "https://api.github.com/repos/coronalabs/CoronaSDK-SublimeText/labels{/name}",
    "language": "Python",
    "languages_url": "https://api.github.com/repos/coronalabs/CoronaSDK-SublimeText/languages",
    "merges_url": "https://api.github.com/repos/coronalabs/CoronaSDK-SublimeText/merges",
    "milestones_url": "https://api.github.com/repos/coronalabs/CoronaSDK-SublimeText/milestones{/number}",
    "mirror_url": null,
    "name": "CoronaSDK-SublimeText",
    "notifications_url": "https://api.github.com/repos/coronalabs/CoronaSDK-SublimeText/notifications{?since,all,participating}",
    "open_issues": 5,
    "open_issues_count": 5,
    "owner": {
        "avatar_url": "https://avatars.githubusercontent.com/u/1779491?",
        "events_url": "https://api.github.com/users/coronalabs/events{/privacy}",
        "followers_url": "https://api.github.com/users/coronalabs/followers",
        "following_url": "https://api.github.com/users/coronalabs/following{/other_user}",
        "gists_url": "https://api.github.com/users/coronalabs/gists{/gist_id}",
        "gravatar_id": "6ba7908e515bbeae50c09fd0a0760277",
        "html_url": "https://github.com/coronalabs",
        "id": 1779491,
        "login": "coronalabs",
        "organizations_url": "https://api.github.com/users/coronalabs/orgs",
        "received_events_url": "https://api.github.com/users/coronalabs/received_events",
        "repos_url": "https://api.github.com/users/coronalabs/repos",
        "site_admin": false,
        "starred_url": "https://api.github.com/users/coronalabs/starred{/owner}{/repo}",
        "subscriptions_url": "https://api.github.com/users/coronalabs/subscriptions",
        "type": "Organization",
        "url": "https://api.github.com/users/coronalabs"
    },
    "private": false,
    "pulls_url": "https://api.github.com/repos/coronalabs/CoronaSDK-SublimeText/pulls{/number}",
    "pushed_at": "2014-04-29T23:44:19Z",
    "releases_url": "https://api.github.com/repos/coronalabs/CoronaSDK-SublimeText/releases{/id}",
    "score": 1.0,
    "size": 602,
    "ssh_url": "git@github.com:coronalabs/CoronaSDK-SublimeText.git",
    "stargazers_count": 44,
    "stargazers_url": "https://api.github.com/repos/coronalabs/CoronaSDK-SublimeText/stargazers",
    "statuses_url": "https://api.github.com/repos/coronalabs/CoronaSDK-SublimeText/statuses/{sha}",
    "subscribers_url": "https://api.github.com/repos/coronalabs/CoronaSDK-SublimeText/subscribers",
    "subscription_url": "https://api.github.com/repos/coronalabs/CoronaSDK-SublimeText/subscription",
    "svn_url": "https://github.com/coronalabs/CoronaSDK-SublimeText",
    "tags_url": "https://api.github.com/repos/coronalabs/CoronaSDK-SublimeText/tags",
    "teams_url": "https://api.github.com/repos/coronalabs/CoronaSDK-SublimeText/teams",
    "trees_url": "https://api.github.com/repos/coronalabs/CoronaSDK-SublimeText/git/trees{/sha}",
    "updated_at": "2014-04-29T23:44:20Z",
    "url": "https://api.github.com/repos/coronalabs/CoronaSDK-SublimeText",
    "watchers": 44,
    "watchers_count": 44
}