[
    "tumblr",
    "music.163.com",
    "torrent2magnet",
    "xiami",
    "yunpan.360.cn",
    "91porn",
    "115",
    "unzip",
    "music.baidu.com",
    "ed2k_search",
    "pan.baidu.com"
]