{
    "archive_url": "https://api.github.com/repos/AndrewIngram/django-extra-views/{archive_format}{/ref}",
    "assignees_url": "https://api.github.com/repos/AndrewIngram/django-extra-views/assignees{/user}",
    "blobs_url": "https://api.github.com/repos/AndrewIngram/django-extra-views/git/blobs{/sha}",
    "branches_url": "https://api.github.com/repos/AndrewIngram/django-extra-views/branches{/branch}",
    "clone_url": "https://github.com/AndrewIngram/django-extra-views.git",
    "collaborators_url": "https://api.github.com/repos/AndrewIngram/django-extra-views/collaborators{/collaborator}",
    "comments_url": "https://api.github.com/repos/AndrewIngram/django-extra-views/comments{/number}",
    "commits_url": "https://api.github.com/repos/AndrewIngram/django-extra-views/commits{/sha}",
    "compare_url": "https://api.github.com/repos/AndrewIngram/django-extra-views/compare/{base}...{head}",
    "contents_url": "https://api.github.com/repos/AndrewIngram/django-extra-views/contents/{+path}",
    "contributors_url": "https://api.github.com/repos/AndrewIngram/django-extra-views/contributors",
    "created_at": "2011-05-16T21:47:47Z",
    "default_branch": "master",
    "description": "Django's class-based generic views are awesome, let's have more of them.",
    "downloads_url": "https://api.github.com/repos/AndrewIngram/django-extra-views/downloads",
    "events_url": "https://api.github.com/repos/AndrewIngram/django-extra-views/events",
    "fork": false,
    "forks": 56,
    "forks_count": 56,
    "forks_url": "https://api.github.com/repos/AndrewIngram/django-extra-views/forks",
    "full_name": "AndrewIngram/django-extra-views",
    "git_commits_url": "https://api.github.com/repos/AndrewIngram/django-extra-views/git/commits{/sha}",
    "git_refs_url": "https://api.github.com/repos/AndrewIngram/django-extra-views/git/refs{/sha}",
    "git_tags_url": "https://api.github.com/repos/AndrewIngram/django-extra-views/git/tags{/sha}",
    "git_url": "git://github.com/AndrewIngram/django-extra-views.git",
    "has_downloads": true,
    "has_issues": true,
    "has_wiki": true,
    "homepage": "",
    "hooks_url": "https://api.github.com/repos/AndrewIngram/django-extra-views/hooks",
    "html_url": "https://github.com/AndrewIngram/django-extra-views",
    "id": 1757853,
    "issue_comment_url": "https://api.github.com/repos/AndrewIngram/django-extra-views/issues/comments/{number}",
    "issue_events_url": "https://api.github.com/repos/AndrewIngram/django-extra-views/issues/events{/number}",
    "issues_url": "https://api.github.com/repos/AndrewIngram/django-extra-views/issues{/number}",
    "keys_url": "https://api.github.com/repos/AndrewIngram/django-extra-views/keys{/key_id}",
    "labels_url": "https://api.github.com/repos/AndrewIngram/django-extra-views/labels{/name}",
    "language": "Python",
    "languages_url": "https://api.github.com/repos/AndrewIngram/django-extra-views/languages",
    "merges_url": "https://api.github.com/repos/AndrewIngram/django-extra-views/merges",
    "milestones_url": "https://api.github.com/repos/AndrewIngram/django-extra-views/milestones{/number}",
    "mirror_url": null,
    "name": "django-extra-views",
    "notifications_url": "https://api.github.com/repos/AndrewIngram/django-extra-views/notifications{?since,all,participating}",
    "open_issues": 28,
    "open_issues_count": 28,
    "owner": {
        "avatar_url": "https://avatars.githubusercontent.com/u/35227?",
        "events_url": "https://api.github.com/users/AndrewIngram/events{/privacy}",
        "followers_url": "https://api.github.com/users/AndrewIngram/followers",
        "following_url": "https://api.github.com/users/AndrewIngram/following{/other_user}",
        "gists_url": "https://api.github.com/users/AndrewIngram/gists{/gist_id}",
        "gravatar_id": "11aecf204a89d45e43b940208243a11f",
        "html_url": "https://github.com/AndrewIngram",
        "id": 35227,
        "login": "AndrewIngram",
        "organizations_url": "https://api.github.com/users/AndrewIngram/orgs",
        "received_events_url": "https://api.github.com/users/AndrewIngram/received_events",
        "repos_url": "https://api.github.com/users/AndrewIngram/repos",
        "site_admin": false,
        "starred_url": "https://api.github.com/users/AndrewIngram/starred{/owner}{/repo}",
        "subscriptions_url": "https://api.github.com/users/AndrewIngram/subscriptions",
        "type": "User",
        "url": "https://api.github.com/users/AndrewIngram"
    },
    "private": false,
    "pulls_url": "https://api.github.com/repos/AndrewIngram/django-extra-views/pulls{/number}",
    "pushed_at": "2014-04-24T09:29:03Z",
    "releases_url": "https://api.github.com/repos/AndrewIngram/django-extra-views/releases{/id}",
    "score": 1.0,
    "size": 651,
    "ssh_url": "git@github.com:AndrewIngram/django-extra-views.git",
    "stargazers_count": 310,
    "stargazers_url": "https://api.github.com/repos/AndrewIngram/django-extra-views/stargazers",
    "statuses_url": "https://api.github.com/repos/AndrewIngram/django-extra-views/statuses/{sha}",
    "subscribers_url": "https://api.github.com/repos/AndrewIngram/django-extra-views/subscribers",
    "subscription_url": "https://api.github.com/repos/AndrewIngram/django-extra-views/subscription",
    "svn_url": "https://github.com/AndrewIngram/django-extra-views",
    "tags_url": "https://api.github.com/repos/AndrewIngram/django-extra-views/tags",
    "teams_url": "https://api.github.com/repos/AndrewIngram/django-extra-views/teams",
    "trees_url": "https://api.github.com/repos/AndrewIngram/django-extra-views/git/trees{/sha}",
    "updated_at": "2014-05-06T10:00:19Z",
    "url": "https://api.github.com/repos/AndrewIngram/django-extra-views",
    "watchers": 310,
    "watchers_count": 310
}