{
    "libs": [
        "heapq",
        "eigen",
        "functools",
        "pylab",
        "absolute_import",
        "subprocess",
        "colors",
        "pyparsing",
        "ElementTree",
        "struct",
        "re",
        "tempfile",
        "platform",
        "collections",
        "osgeo",
        "division",
        "random",
        "string",
        "python",
        "zipfile",
        "textwrap",
        "util",
        "scipy",
        "datetime",
        "cbook",
        "sphinx_rtd_theme",
        "pydot",
        "bisect",
        "server",
        "pydoc",
        "shlex",
        "sparse",
        "multiprocessing",
        "cStringIO",
        "SimpleHTTPServer",
        "dot_parser",
        "compat",
        "timeit",
        "_thread",
        "entities",
        "pyplot",
        "urllib",
        "docutils",
        "email",
        "math",
        "nose",
        "cgi",
        "bl",
        "inspect",
        "backend_agg",
        "matplotlib",
        "mailbox",
        "path",
        "print_function",
        "uuid",
        "c",
        "socket",
        "thread",
        "StringIO",
        "atl",
        "filepost",
        "itertools",
        "requests",
        "os",
        "cl",
        "image",
        "cholmod",
        "operator",
        "yaml",
        "errno",
        "json",
        "numpy",
        "fractions",
        "cPickle",
        "B",
        "ogr",
        "webbrowser",
        "rst",
        "copy",
        "b",
        "fnmatch",
        "pickle",
        "figure",
        "unicode_literals",
        "request",
        "contextlib",
        "io",
        "shutil",
        "bz2",
        "spatial",
        "getp",
        "warnings",
        "glob",
        "htmlentitydefs",
        "mayavi",
        "sys",
        "cElementTree",
        "stats",
        "attrib",
        "types",
        "argparse",
        "sphinx",
        "statemachine",
        "keyring",
        "time",
        "gzip",
        "optparse"
    ]
}