{
    "archive_url": "https://api.github.com/repos/bradjasper/django-jsonfield/{archive_format}{/ref}",
    "assignees_url": "https://api.github.com/repos/bradjasper/django-jsonfield/assignees{/user}",
    "blobs_url": "https://api.github.com/repos/bradjasper/django-jsonfield/git/blobs{/sha}",
    "branches_url": "https://api.github.com/repos/bradjasper/django-jsonfield/branches{/branch}",
    "clone_url": "https://github.com/bradjasper/django-jsonfield.git",
    "collaborators_url": "https://api.github.com/repos/bradjasper/django-jsonfield/collaborators{/collaborator}",
    "comments_url": "https://api.github.com/repos/bradjasper/django-jsonfield/comments{/number}",
    "commits_url": "https://api.github.com/repos/bradjasper/django-jsonfield/commits{/sha}",
    "compare_url": "https://api.github.com/repos/bradjasper/django-jsonfield/compare/{base}...{head}",
    "contents_url": "https://api.github.com/repos/bradjasper/django-jsonfield/contents/{+path}",
    "contributors_url": "https://api.github.com/repos/bradjasper/django-jsonfield/contributors",
    "created_at": "2009-05-03T03:42:01Z",
    "default_branch": "master",
    "description": "Reusable JSONField() for Django",
    "downloads_url": "https://api.github.com/repos/bradjasper/django-jsonfield/downloads",
    "events_url": "https://api.github.com/repos/bradjasper/django-jsonfield/events",
    "fork": false,
    "forks": 80,
    "forks_count": 80,
    "forks_url": "https://api.github.com/repos/bradjasper/django-jsonfield/forks",
    "full_name": "bradjasper/django-jsonfield",
    "git_commits_url": "https://api.github.com/repos/bradjasper/django-jsonfield/git/commits{/sha}",
    "git_refs_url": "https://api.github.com/repos/bradjasper/django-jsonfield/git/refs{/sha}",
    "git_tags_url": "https://api.github.com/repos/bradjasper/django-jsonfield/git/tags{/sha}",
    "git_url": "git://github.com/bradjasper/django-jsonfield.git",
    "has_downloads": true,
    "has_issues": true,
    "has_wiki": true,
    "homepage": "",
    "hooks_url": "https://api.github.com/repos/bradjasper/django-jsonfield/hooks",
    "html_url": "https://github.com/bradjasper/django-jsonfield",
    "id": 191265,
    "issue_comment_url": "https://api.github.com/repos/bradjasper/django-jsonfield/issues/comments/{number}",
    "issue_events_url": "https://api.github.com/repos/bradjasper/django-jsonfield/issues/events{/number}",
    "issues_url": "https://api.github.com/repos/bradjasper/django-jsonfield/issues{/number}",
    "keys_url": "https://api.github.com/repos/bradjasper/django-jsonfield/keys{/key_id}",
    "labels_url": "https://api.github.com/repos/bradjasper/django-jsonfield/labels{/name}",
    "language": "Python",
    "languages_url": "https://api.github.com/repos/bradjasper/django-jsonfield/languages",
    "merges_url": "https://api.github.com/repos/bradjasper/django-jsonfield/merges",
    "milestones_url": "https://api.github.com/repos/bradjasper/django-jsonfield/milestones{/number}",
    "mirror_url": null,
    "name": "django-jsonfield",
    "notifications_url": "https://api.github.com/repos/bradjasper/django-jsonfield/notifications{?since,all,participating}",
    "open_issues": 13,
    "open_issues_count": 13,
    "owner": {
        "avatar_url": "https://avatars.githubusercontent.com/u/28421?",
        "events_url": "https://api.github.com/users/bradjasper/events{/privacy}",
        "followers_url": "https://api.github.com/users/bradjasper/followers",
        "following_url": "https://api.github.com/users/bradjasper/following{/other_user}",
        "gists_url": "https://api.github.com/users/bradjasper/gists{/gist_id}",
        "gravatar_id": "f2d126a2eb8087436e389be2262dcacb",
        "html_url": "https://github.com/bradjasper",
        "id": 28421,
        "login": "bradjasper",
        "organizations_url": "https://api.github.com/users/bradjasper/orgs",
        "received_events_url": "https://api.github.com/users/bradjasper/received_events",
        "repos_url": "https://api.github.com/users/bradjasper/repos",
        "site_admin": false,
        "starred_url": "https://api.github.com/users/bradjasper/starred{/owner}{/repo}",
        "subscriptions_url": "https://api.github.com/users/bradjasper/subscriptions",
        "type": "User",
        "url": "https://api.github.com/users/bradjasper"
    },
    "private": false,
    "pulls_url": "https://api.github.com/repos/bradjasper/django-jsonfield/pulls{/number}",
    "pushed_at": "2014-04-06T05:38:52Z",
    "releases_url": "https://api.github.com/repos/bradjasper/django-jsonfield/releases{/id}",
    "score": 1.0,
    "size": 1027,
    "ssh_url": "git@github.com:bradjasper/django-jsonfield.git",
    "stargazers_count": 348,
    "stargazers_url": "https://api.github.com/repos/bradjasper/django-jsonfield/stargazers",
    "statuses_url": "https://api.github.com/repos/bradjasper/django-jsonfield/statuses/{sha}",
    "subscribers_url": "https://api.github.com/repos/bradjasper/django-jsonfield/subscribers",
    "subscription_url": "https://api.github.com/repos/bradjasper/django-jsonfield/subscription",
    "svn_url": "https://github.com/bradjasper/django-jsonfield",
    "tags_url": "https://api.github.com/repos/bradjasper/django-jsonfield/tags",
    "teams_url": "https://api.github.com/repos/bradjasper/django-jsonfield/teams",
    "trees_url": "https://api.github.com/repos/bradjasper/django-jsonfield/git/trees{/sha}",
    "updated_at": "2014-05-04T16:03:58Z",
    "url": "https://api.github.com/repos/bradjasper/django-jsonfield",
    "watchers": 348,
    "watchers_count": 348
}