{
    "libs": [
        "hotshot",
        "unittest",
        "subprocess",
        "dummy_thread",
        "contextlib",
        "platform",
        "moves",
        "select",
        "shutil",
        "re",
        "tempfile",
        "six",
        "connection",
        "testcl",
        "docutils",
        "_abcoll",
        "collections",
        "threading",
        "unittest2",
        "cov_core",
        "functools",
        "etree",
        "inspect",
        "textwrap",
        "sys",
        "testc",
        "consts",
        "rst",
        "path",
        "types",
        "argparse",
        "logging",
        "thread",
        "statemachine",
        "handlers",
        "os",
        "traceback",
        "pkg_resources",
        "multiprocessing",
        "itertools",
        "pkg2",
        "doctest",
        "time",
        "fnmatch",
        "pickle",
        "pdb"
    ]
}