{
    "archive_url": "https://api.github.com/repos/ipa320/cob_common/{archive_format}{/ref}",
    "assignees_url": "https://api.github.com/repos/ipa320/cob_common/assignees{/user}",
    "blobs_url": "https://api.github.com/repos/ipa320/cob_common/git/blobs{/sha}",
    "branches_url": "https://api.github.com/repos/ipa320/cob_common/branches{/branch}",
    "clone_url": "https://github.com/ipa320/cob_common.git",
    "collaborators_url": "https://api.github.com/repos/ipa320/cob_common/collaborators{/collaborator}",
    "comments_url": "https://api.github.com/repos/ipa320/cob_common/comments{/number}",
    "commits_url": "https://api.github.com/repos/ipa320/cob_common/commits{/sha}",
    "compare_url": "https://api.github.com/repos/ipa320/cob_common/compare/{base}...{head}",
    "contents_url": "https://api.github.com/repos/ipa320/cob_common/contents/{+path}",
    "contributors_url": "https://api.github.com/repos/ipa320/cob_common/contributors",
    "created_at": "2010-12-06T11:32:34Z",
    "default_branch": "hydro_dev",
    "description": "The cob_common stack hosts common packages that are used within the Care-O-bot repository. E.g. utility packages or common message and service definitions etc. Also the urdf desciption of the robot is located in this stack.",
    "downloads_url": "https://api.github.com/repos/ipa320/cob_common/downloads",
    "events_url": "https://api.github.com/repos/ipa320/cob_common/events",
    "fork": false,
    "forks": 93,
    "forks_count": 93,
    "forks_url": "https://api.github.com/repos/ipa320/cob_common/forks",
    "full_name": "ipa320/cob_common",
    "git_commits_url": "https://api.github.com/repos/ipa320/cob_common/git/commits{/sha}",
    "git_refs_url": "https://api.github.com/repos/ipa320/cob_common/git/refs{/sha}",
    "git_tags_url": "https://api.github.com/repos/ipa320/cob_common/git/tags{/sha}",
    "git_url": "git://github.com/ipa320/cob_common.git",
    "has_downloads": true,
    "has_issues": true,
    "has_wiki": true,
    "homepage": "www.care-o-bot.org",
    "hooks_url": "https://api.github.com/repos/ipa320/cob_common/hooks",
    "html_url": "https://github.com/ipa320/cob_common",
    "id": 1142886,
    "issue_comment_url": "https://api.github.com/repos/ipa320/cob_common/issues/comments/{number}",
    "issue_events_url": "https://api.github.com/repos/ipa320/cob_common/issues/events{/number}",
    "issues_url": "https://api.github.com/repos/ipa320/cob_common/issues{/number}",
    "keys_url": "https://api.github.com/repos/ipa320/cob_common/keys{/key_id}",
    "labels_url": "https://api.github.com/repos/ipa320/cob_common/labels{/name}",
    "language": "Python",
    "languages_url": "https://api.github.com/repos/ipa320/cob_common/languages",
    "merges_url": "https://api.github.com/repos/ipa320/cob_common/merges",
    "milestones_url": "https://api.github.com/repos/ipa320/cob_common/milestones{/number}",
    "mirror_url": null,
    "name": "cob_common",
    "notifications_url": "https://api.github.com/repos/ipa320/cob_common/notifications{?since,all,participating}",
    "open_issues": 1,
    "open_issues_count": 1,
    "owner": {
        "avatar_url": "https://avatars.githubusercontent.com/u/155854?",
        "events_url": "https://api.github.com/users/ipa320/events{/privacy}",
        "followers_url": "https://api.github.com/users/ipa320/followers",
        "following_url": "https://api.github.com/users/ipa320/following{/other_user}",
        "gists_url": "https://api.github.com/users/ipa320/gists{/gist_id}",
        "gravatar_id": "b836bcf6bebbb3dfdf1fa725cb749997",
        "html_url": "https://github.com/ipa320",
        "id": 155854,
        "login": "ipa320",
        "organizations_url": "https://api.github.com/users/ipa320/orgs",
        "received_events_url": "https://api.github.com/users/ipa320/received_events",
        "repos_url": "https://api.github.com/users/ipa320/repos",
        "site_admin": false,
        "starred_url": "https://api.github.com/users/ipa320/starred{/owner}{/repo}",
        "subscriptions_url": "https://api.github.com/users/ipa320/subscriptions",
        "type": "Organization",
        "url": "https://api.github.com/users/ipa320"
    },
    "private": false,
    "pulls_url": "https://api.github.com/repos/ipa320/cob_common/pulls{/number}",
    "pushed_at": "2014-04-24T16:56:20Z",
    "releases_url": "https://api.github.com/repos/ipa320/cob_common/releases{/id}",
    "score": 1.0,
    "size": 30035,
    "ssh_url": "git@github.com:ipa320/cob_common.git",
    "stargazers_count": 69,
    "stargazers_url": "https://api.github.com/repos/ipa320/cob_common/stargazers",
    "statuses_url": "https://api.github.com/repos/ipa320/cob_common/statuses/{sha}",
    "subscribers_url": "https://api.github.com/repos/ipa320/cob_common/subscribers",
    "subscription_url": "https://api.github.com/repos/ipa320/cob_common/subscription",
    "svn_url": "https://github.com/ipa320/cob_common",
    "tags_url": "https://api.github.com/repos/ipa320/cob_common/tags",
    "teams_url": "https://api.github.com/repos/ipa320/cob_common/teams",
    "trees_url": "https://api.github.com/repos/ipa320/cob_common/git/trees{/sha}",
    "updated_at": "2014-04-24T16:56:20Z",
    "url": "https://api.github.com/repos/ipa320/cob_common",
    "watchers": 69,
    "watchers_count": 69
}