[
    "tests.test_find_links",
    "test_freeze",
    "tests.test_list",
    "test_completion",
    "test_vcs_backends",
    "test_vcs_subversion",
    "test_hashes",
    "tests.test_install_requirement",
    "tests.test_sb_packagedata",
    "test_util",
    "tests.test_vcs_bazaar",
    "tests.local_repos",
    "tests.test_cleanup",
    "tests.test_sb_upgrade",
    "snakebasket",
    "test_install_requirement",
    "patches",
    "snakebasket.commands.install",
    "tests.test_sb_basic",
    "snakebasket.patches",
    "local_repos",
    "tests.test_vcs_git",
    "test_requirements",
    "tests.test_help",
    "fabfile",
    "main",
    "tests.test_util",
    "tests",
    "tests.test_basic",
    "tests.test_proxy",
    "test_ssl",
    "tests.git_submodule_helpers",
    "test_search",
    "tests.test_freeze",
    "tests.pypi_server",
    "tests.test_uninstall",
    "tests.test_vcs_backends",
    "tests.test_vcs_subversion",
    "tests.test_user_site",
    "tests.test_completion",
    "test_sb_versions",
    "tests.test_index",
    "tests.runtests",
    "tests.test_sb_checkouts",
    "versions",
    "tests.test_locations",
    "pypi_server",
    "tests.test_unicode",
    "test_cleanup",
    "snakebasket.commands",
    "snakebasket.main",
    "install",
    "snakebasket.versions",
    "tests.test_test",
    "tests.test_search",
    "test_download",
    "tests.test_finder",
    "test_pip",
    "test_vcs_bazaar",
    "tests.excluded_tests",
    "test_finder",
    "test_locations",
    "tests.test_extras",
    "test_list",
    "tests.test_sb_recursive_install",
    "tests.test_all_pip",
    "tests.test_sb_versions",
    "test_sb_basic",
    "tests.test_hashes",
    "test_extras",
    "tests.test_requirements",
    "tests.test_bundle",
    "runtests",
    "test_config",
    "git_submodule_helpers",
    "tests.test_show",
    "test_sb_checkouts",
    "test_vcs_git",
    "tests.test_compat",
    "excluded_tests",
    "test_index",
    "test_unicode",
    "test_sb_packagedata",
    "test_compat",
    "test_show",
    "test_user_site",
    "test_sb_upgrade",
    "test_basic",
    "tests.path",
    "path",
    "test_help",
    "tests.test_upgrade",
    "tests.test_config",
    "commands",
    "test_find_links",
    "test_proxy",
    "test_test",
    "test_all_pip",
    "test_uninstall",
    "tests.test_ssl",
    "tests.test_pip",
    "test_upgrade",
    "test_bundle",
    "commands.install",
    "test_sb_recursive_install",
    "tests.test_download"
]