{
    "archive_url": "https://api.github.com/repos/django-behave/django-behave/{archive_format}{/ref}",
    "assignees_url": "https://api.github.com/repos/django-behave/django-behave/assignees{/user}",
    "blobs_url": "https://api.github.com/repos/django-behave/django-behave/git/blobs{/sha}",
    "branches_url": "https://api.github.com/repos/django-behave/django-behave/branches{/branch}",
    "clone_url": "https://github.com/django-behave/django-behave.git",
    "collaborators_url": "https://api.github.com/repos/django-behave/django-behave/collaborators{/collaborator}",
    "comments_url": "https://api.github.com/repos/django-behave/django-behave/comments{/number}",
    "commits_url": "https://api.github.com/repos/django-behave/django-behave/commits{/sha}",
    "compare_url": "https://api.github.com/repos/django-behave/django-behave/compare/{base}...{head}",
    "contents_url": "https://api.github.com/repos/django-behave/django-behave/contents/{+path}",
    "contributors_url": "https://api.github.com/repos/django-behave/django-behave/contributors",
    "created_at": "2012-09-20T17:49:30Z",
    "default_branch": "master",
    "description": "A Django TestRunner for the Behave BDD module",
    "downloads_url": "https://api.github.com/repos/django-behave/django-behave/downloads",
    "events_url": "https://api.github.com/repos/django-behave/django-behave/events",
    "fork": false,
    "forks": 40,
    "forks_count": 40,
    "forks_url": "https://api.github.com/repos/django-behave/django-behave/forks",
    "full_name": "django-behave/django-behave",
    "git_commits_url": "https://api.github.com/repos/django-behave/django-behave/git/commits{/sha}",
    "git_refs_url": "https://api.github.com/repos/django-behave/django-behave/git/refs{/sha}",
    "git_tags_url": "https://api.github.com/repos/django-behave/django-behave/git/tags{/sha}",
    "git_url": "git://github.com/django-behave/django-behave.git",
    "has_downloads": true,
    "has_issues": true,
    "has_wiki": true,
    "homepage": null,
    "hooks_url": "https://api.github.com/repos/django-behave/django-behave/hooks",
    "html_url": "https://github.com/django-behave/django-behave",
    "id": 5890524,
    "issue_comment_url": "https://api.github.com/repos/django-behave/django-behave/issues/comments/{number}",
    "issue_events_url": "https://api.github.com/repos/django-behave/django-behave/issues/events{/number}",
    "issues_url": "https://api.github.com/repos/django-behave/django-behave/issues{/number}",
    "keys_url": "https://api.github.com/repos/django-behave/django-behave/keys{/key_id}",
    "labels_url": "https://api.github.com/repos/django-behave/django-behave/labels{/name}",
    "language": "Python",
    "languages_url": "https://api.github.com/repos/django-behave/django-behave/languages",
    "merges_url": "https://api.github.com/repos/django-behave/django-behave/merges",
    "milestones_url": "https://api.github.com/repos/django-behave/django-behave/milestones{/number}",
    "mirror_url": null,
    "name": "django-behave",
    "notifications_url": "https://api.github.com/repos/django-behave/django-behave/notifications{?since,all,participating}",
    "open_issues": 1,
    "open_issues_count": 1,
    "owner": {
        "avatar_url": "https://avatars.githubusercontent.com/u/7281269?",
        "events_url": "https://api.github.com/users/django-behave/events{/privacy}",
        "followers_url": "https://api.github.com/users/django-behave/followers",
        "following_url": "https://api.github.com/users/django-behave/following{/other_user}",
        "gists_url": "https://api.github.com/users/django-behave/gists{/gist_id}",
        "gravatar_id": "062d7133114e49961ce78745e5ed760b",
        "html_url": "https://github.com/django-behave",
        "id": 7281269,
        "login": "django-behave",
        "organizations_url": "https://api.github.com/users/django-behave/orgs",
        "received_events_url": "https://api.github.com/users/django-behave/received_events",
        "repos_url": "https://api.github.com/users/django-behave/repos",
        "site_admin": false,
        "starred_url": "https://api.github.com/users/django-behave/starred{/owner}{/repo}",
        "subscriptions_url": "https://api.github.com/users/django-behave/subscriptions",
        "type": "Organization",
        "url": "https://api.github.com/users/django-behave"
    },
    "private": false,
    "pulls_url": "https://api.github.com/repos/django-behave/django-behave/pulls{/number}",
    "pushed_at": "2014-04-25T12:25:48Z",
    "releases_url": "https://api.github.com/repos/django-behave/django-behave/releases{/id}",
    "score": 1.0,
    "size": 570,
    "ssh_url": "git@github.com:django-behave/django-behave.git",
    "stargazers_count": 72,
    "stargazers_url": "https://api.github.com/repos/django-behave/django-behave/stargazers",
    "statuses_url": "https://api.github.com/repos/django-behave/django-behave/statuses/{sha}",
    "subscribers_url": "https://api.github.com/repos/django-behave/django-behave/subscribers",
    "subscription_url": "https://api.github.com/repos/django-behave/django-behave/subscription",
    "svn_url": "https://github.com/django-behave/django-behave",
    "tags_url": "https://api.github.com/repos/django-behave/django-behave/tags",
    "teams_url": "https://api.github.com/repos/django-behave/django-behave/teams",
    "trees_url": "https://api.github.com/repos/django-behave/django-behave/git/trees{/sha}",
    "updated_at": "2014-05-02T10:09:40Z",
    "url": "https://api.github.com/repos/django-behave/django-behave",
    "watchers": 72,
    "watchers_count": 72
}