{
    "libs": [
        "parsing",
        "code",
        "skip",
        "functools",
        "testing",
        "cffi",
        "absolute_import",
        "subprocess",
        "parse",
        "atexit",
        "api",
        "contextlib",
        "yaml",
        "pyparsing",
        "operator",
        "numexpr",
        "shutil",
        "expressions",
        "umath",
        "tables",
        "__builtin__",
        "abc",
        "builtins",
        "blz",
        "tempfile",
        "nd",
        "_lowlevel",
        "urllib",
        "re",
        "fancycompleter",
        "rarray",
        "collections",
        "exceptions",
        "sqlite3",
        "difflib",
        "numpy",
        "unittest",
        "math",
        "division",
        "sqlalchemy",
        "warnings",
        "glob",
        "inspect",
        "urllib2",
        "dat",
        "gzip",
        "ctypes",
        "numeric",
        "scidbpy",
        "path",
        "readline",
        "datetime",
        "fl",
        "print_function",
        "socket",
        "sys",
        "logging",
        "netCDF4",
        "bisect",
        "random",
        "traceback",
        "request",
        "numpydoc",
        "analysis",
        "urlparse",
        "itertools",
        "cmath",
        "time",
        "h5py",
        "jinja2",
        "pykit",
        "os",
        "decimal",
        "dis"
    ]
}