{
    "archive_url": "https://api.github.com/repos/staale/py-xlsx/{archive_format}{/ref}",
    "assignees_url": "https://api.github.com/repos/staale/py-xlsx/assignees{/user}",
    "blobs_url": "https://api.github.com/repos/staale/py-xlsx/git/blobs{/sha}",
    "branches_url": "https://api.github.com/repos/staale/py-xlsx/branches{/branch}",
    "clone_url": "https://github.com/staale/py-xlsx.git",
    "collaborators_url": "https://api.github.com/repos/staale/py-xlsx/collaborators{/collaborator}",
    "comments_url": "https://api.github.com/repos/staale/py-xlsx/comments{/number}",
    "commits_url": "https://api.github.com/repos/staale/py-xlsx/commits{/sha}",
    "compare_url": "https://api.github.com/repos/staale/py-xlsx/compare/{base}...{head}",
    "contents_url": "https://api.github.com/repos/staale/py-xlsx/contents/{+path}",
    "contributors_url": "https://api.github.com/repos/staale/py-xlsx/contributors",
    "created_at": "2009-02-17T19:59:36Z",
    "default_branch": "master",
    "description": "Tiny python code for parsing data from an Office Open XML Spreadsheet - xlsx",
    "downloads_url": "https://api.github.com/repos/staale/py-xlsx/downloads",
    "events_url": "https://api.github.com/repos/staale/py-xlsx/events",
    "fork": false,
    "forks": 27,
    "forks_count": 27,
    "forks_url": "https://api.github.com/repos/staale/py-xlsx/forks",
    "full_name": "staale/py-xlsx",
    "git_commits_url": "https://api.github.com/repos/staale/py-xlsx/git/commits{/sha}",
    "git_refs_url": "https://api.github.com/repos/staale/py-xlsx/git/refs{/sha}",
    "git_tags_url": "https://api.github.com/repos/staale/py-xlsx/git/tags{/sha}",
    "git_url": "git://github.com/staale/py-xlsx.git",
    "has_downloads": true,
    "has_issues": true,
    "has_wiki": true,
    "homepage": "",
    "hooks_url": "https://api.github.com/repos/staale/py-xlsx/hooks",
    "html_url": "https://github.com/staale/py-xlsx",
    "id": 131052,
    "issue_comment_url": "https://api.github.com/repos/staale/py-xlsx/issues/comments/{number}",
    "issue_events_url": "https://api.github.com/repos/staale/py-xlsx/issues/events{/number}",
    "issues_url": "https://api.github.com/repos/staale/py-xlsx/issues{/number}",
    "keys_url": "https://api.github.com/repos/staale/py-xlsx/keys{/key_id}",
    "labels_url": "https://api.github.com/repos/staale/py-xlsx/labels{/name}",
    "language": "Python",
    "languages_url": "https://api.github.com/repos/staale/py-xlsx/languages",
    "merges_url": "https://api.github.com/repos/staale/py-xlsx/merges",
    "milestones_url": "https://api.github.com/repos/staale/py-xlsx/milestones{/number}",
    "mirror_url": null,
    "name": "py-xlsx",
    "notifications_url": "https://api.github.com/repos/staale/py-xlsx/notifications{?since,all,participating}",
    "open_issues": 2,
    "open_issues_count": 2,
    "owner": {
        "avatar_url": "https://avatars.githubusercontent.com/u/55321?",
        "events_url": "https://api.github.com/users/staale/events{/privacy}",
        "followers_url": "https://api.github.com/users/staale/followers",
        "following_url": "https://api.github.com/users/staale/following{/other_user}",
        "gists_url": "https://api.github.com/users/staale/gists{/gist_id}",
        "gravatar_id": "1542f23125bc7adb92542b90198bf9ad",
        "html_url": "https://github.com/staale",
        "id": 55321,
        "login": "staale",
        "organizations_url": "https://api.github.com/users/staale/orgs",
        "received_events_url": "https://api.github.com/users/staale/received_events",
        "repos_url": "https://api.github.com/users/staale/repos",
        "site_admin": false,
        "starred_url": "https://api.github.com/users/staale/starred{/owner}{/repo}",
        "subscriptions_url": "https://api.github.com/users/staale/subscriptions",
        "type": "User",
        "url": "https://api.github.com/users/staale"
    },
    "private": false,
    "pulls_url": "https://api.github.com/repos/staale/py-xlsx/pulls{/number}",
    "pushed_at": "2014-04-22T04:24:59Z",
    "releases_url": "https://api.github.com/repos/staale/py-xlsx/releases{/id}",
    "score": 1.0,
    "size": 287,
    "ssh_url": "git@github.com:staale/py-xlsx.git",
    "stargazers_count": 69,
    "stargazers_url": "https://api.github.com/repos/staale/py-xlsx/stargazers",
    "statuses_url": "https://api.github.com/repos/staale/py-xlsx/statuses/{sha}",
    "subscribers_url": "https://api.github.com/repos/staale/py-xlsx/subscribers",
    "subscription_url": "https://api.github.com/repos/staale/py-xlsx/subscription",
    "svn_url": "https://github.com/staale/py-xlsx",
    "tags_url": "https://api.github.com/repos/staale/py-xlsx/tags",
    "teams_url": "https://api.github.com/repos/staale/py-xlsx/teams",
    "trees_url": "https://api.github.com/repos/staale/py-xlsx/git/trees{/sha}",
    "updated_at": "2014-04-22T04:24:59Z",
    "url": "https://api.github.com/repos/staale/py-xlsx",
    "watchers": 69,
    "watchers_count": 69
}