{
    "libs": [
        "pprint",
        "encoding",
        "markdown",
        "random",
        "datetime",
        "pygments",
        "operator",
        "calendar",
        "django",
        "importlib",
        "docutils",
        "smartypants",
        "cache",
        "re",
        "html",
        "template",
        "test",
        "math",
        "lexers",
        "feedparser",
        "dateformat",
        "sys",
        "GChartWrapper",
        "loader",
        "markup",
        "b",
        "h",
        "safestring",
        "formatters",
        "itertools",
        "shlex",
        "defaults",
        "sets",
        "os",
        "itercompat"
    ]
}