[
    "bench.bench_basic",
    "bench_long_suffix",
    "tests",
    "_constants",
    "markupsafe._native",
    "markupsafe._compat",
    "bench.bench_short_empty_string",
    "markupsafe",
    "bench.bench_long_empty_string",
    "runbench",
    "bench_short_empty_string",
    "_native",
    "bench.bench_largestring",
    "bench_long_empty_string",
    "bench_basic",
    "bench.runbench",
    "markupsafe.tests",
    "bench",
    "markupsafe._constants",
    "bench_largestring",
    "bench.bench_long_suffix",
    "_compat"
]