{
    "archive_url": "https://api.github.com/repos/mitsuhiko/flask-openid/{archive_format}{/ref}",
    "assignees_url": "https://api.github.com/repos/mitsuhiko/flask-openid/assignees{/user}",
    "blobs_url": "https://api.github.com/repos/mitsuhiko/flask-openid/git/blobs{/sha}",
    "branches_url": "https://api.github.com/repos/mitsuhiko/flask-openid/branches{/branch}",
    "clone_url": "https://github.com/mitsuhiko/flask-openid.git",
    "collaborators_url": "https://api.github.com/repos/mitsuhiko/flask-openid/collaborators{/collaborator}",
    "comments_url": "https://api.github.com/repos/mitsuhiko/flask-openid/comments{/number}",
    "commits_url": "https://api.github.com/repos/mitsuhiko/flask-openid/commits{/sha}",
    "compare_url": "https://api.github.com/repos/mitsuhiko/flask-openid/compare/{base}...{head}",
    "contents_url": "https://api.github.com/repos/mitsuhiko/flask-openid/contents/{+path}",
    "contributors_url": "https://api.github.com/repos/mitsuhiko/flask-openid/contributors",
    "created_at": "2010-05-06T11:08:54Z",
    "default_branch": "master",
    "description": "Flask-OpenID adds openid support to flask applications",
    "downloads_url": "https://api.github.com/repos/mitsuhiko/flask-openid/downloads",
    "events_url": "https://api.github.com/repos/mitsuhiko/flask-openid/events",
    "fork": false,
    "forks": 28,
    "forks_count": 28,
    "forks_url": "https://api.github.com/repos/mitsuhiko/flask-openid/forks",
    "full_name": "mitsuhiko/flask-openid",
    "git_commits_url": "https://api.github.com/repos/mitsuhiko/flask-openid/git/commits{/sha}",
    "git_refs_url": "https://api.github.com/repos/mitsuhiko/flask-openid/git/refs{/sha}",
    "git_tags_url": "https://api.github.com/repos/mitsuhiko/flask-openid/git/tags{/sha}",
    "git_url": "git://github.com/mitsuhiko/flask-openid.git",
    "has_downloads": true,
    "has_issues": true,
    "has_wiki": false,
    "homepage": "",
    "hooks_url": "https://api.github.com/repos/mitsuhiko/flask-openid/hooks",
    "html_url": "https://github.com/mitsuhiko/flask-openid",
    "id": 650118,
    "issue_comment_url": "https://api.github.com/repos/mitsuhiko/flask-openid/issues/comments/{number}",
    "issue_events_url": "https://api.github.com/repos/mitsuhiko/flask-openid/issues/events{/number}",
    "issues_url": "https://api.github.com/repos/mitsuhiko/flask-openid/issues{/number}",
    "keys_url": "https://api.github.com/repos/mitsuhiko/flask-openid/keys{/key_id}",
    "labels_url": "https://api.github.com/repos/mitsuhiko/flask-openid/labels{/name}",
    "language": "Python",
    "languages_url": "https://api.github.com/repos/mitsuhiko/flask-openid/languages",
    "merges_url": "https://api.github.com/repos/mitsuhiko/flask-openid/merges",
    "milestones_url": "https://api.github.com/repos/mitsuhiko/flask-openid/milestones{/number}",
    "mirror_url": null,
    "name": "flask-openid",
    "notifications_url": "https://api.github.com/repos/mitsuhiko/flask-openid/notifications{?since,all,participating}",
    "open_issues": 3,
    "open_issues_count": 3,
    "owner": {
        "avatar_url": "https://avatars.githubusercontent.com/u/7396?",
        "events_url": "https://api.github.com/users/mitsuhiko/events{/privacy}",
        "followers_url": "https://api.github.com/users/mitsuhiko/followers",
        "following_url": "https://api.github.com/users/mitsuhiko/following{/other_user}",
        "gists_url": "https://api.github.com/users/mitsuhiko/gists{/gist_id}",
        "gravatar_id": "181de1fb11dffe39774f3e2e23cda3b6",
        "html_url": "https://github.com/mitsuhiko",
        "id": 7396,
        "login": "mitsuhiko",
        "organizations_url": "https://api.github.com/users/mitsuhiko/orgs",
        "received_events_url": "https://api.github.com/users/mitsuhiko/received_events",
        "repos_url": "https://api.github.com/users/mitsuhiko/repos",
        "site_admin": false,
        "starred_url": "https://api.github.com/users/mitsuhiko/starred{/owner}{/repo}",
        "subscriptions_url": "https://api.github.com/users/mitsuhiko/subscriptions",
        "type": "User",
        "url": "https://api.github.com/users/mitsuhiko"
    },
    "private": false,
    "pulls_url": "https://api.github.com/repos/mitsuhiko/flask-openid/pulls{/number}",
    "pushed_at": "2014-04-26T13:10:32Z",
    "releases_url": "https://api.github.com/repos/mitsuhiko/flask-openid/releases{/id}",
    "score": 1.0,
    "size": 1050,
    "ssh_url": "git@github.com:mitsuhiko/flask-openid.git",
    "stargazers_count": 112,
    "stargazers_url": "https://api.github.com/repos/mitsuhiko/flask-openid/stargazers",
    "statuses_url": "https://api.github.com/repos/mitsuhiko/flask-openid/statuses/{sha}",
    "subscribers_url": "https://api.github.com/repos/mitsuhiko/flask-openid/subscribers",
    "subscription_url": "https://api.github.com/repos/mitsuhiko/flask-openid/subscription",
    "svn_url": "https://github.com/mitsuhiko/flask-openid",
    "tags_url": "https://api.github.com/repos/mitsuhiko/flask-openid/tags",
    "teams_url": "https://api.github.com/repos/mitsuhiko/flask-openid/teams",
    "trees_url": "https://api.github.com/repos/mitsuhiko/flask-openid/git/trees{/sha}",
    "updated_at": "2014-04-26T15:37:09Z",
    "url": "https://api.github.com/repos/mitsuhiko/flask-openid",
    "watchers": 112,
    "watchers_count": 112
}