{
    "libs": [
        "audioop",
        "unittest",
        "random",
        "datetime",
        "bs4",
        "numbers",
        "dateutil",
        "re",
        "yaml",
        "json",
        "feedparser",
        "getp",
        "smtplib",
        "email",
        "mock",
        "mpd",
        "pocketsphinx",
        "glob",
        "urllib2",
        "wave",
        "sys",
        "pytz",
        "facebook",
        "scheduler",
        "subprocess",
        "Queue",
        "dates",
        "logging",
        "pyaudio",
        "difflib",
        "imaplib",
        "requests",
        "os",
        "MIMEText"
    ]
}