{
    "libs": [
        "copy",
        "contenttype",
        "socket",
        "guppy",
        "glob",
        "traceback",
        "pygraphviz",
        "datetime",
        "sys",
        "re",
        "markmin2latex",
        "html",
        "gluon",
        "time",
        "shelve",
        "fileutils",
        "shutil",
        "os",
        "restricted",
        "math"
    ]
}