{
    "archive_url": "https://api.github.com/repos/bmihelac/django-import-export/{archive_format}{/ref}",
    "assignees_url": "https://api.github.com/repos/bmihelac/django-import-export/assignees{/user}",
    "blobs_url": "https://api.github.com/repos/bmihelac/django-import-export/git/blobs{/sha}",
    "branches_url": "https://api.github.com/repos/bmihelac/django-import-export/branches{/branch}",
    "clone_url": "https://github.com/bmihelac/django-import-export.git",
    "collaborators_url": "https://api.github.com/repos/bmihelac/django-import-export/collaborators{/collaborator}",
    "comments_url": "https://api.github.com/repos/bmihelac/django-import-export/comments{/number}",
    "commits_url": "https://api.github.com/repos/bmihelac/django-import-export/commits{/sha}",
    "compare_url": "https://api.github.com/repos/bmihelac/django-import-export/compare/{base}...{head}",
    "contents_url": "https://api.github.com/repos/bmihelac/django-import-export/contents/{+path}",
    "contributors_url": "https://api.github.com/repos/bmihelac/django-import-export/contributors",
    "created_at": "2012-11-15T13:12:22Z",
    "default_branch": "master",
    "description": "Django application and library for importing and exporting data with admin integration.",
    "downloads_url": "https://api.github.com/repos/bmihelac/django-import-export/downloads",
    "events_url": "https://api.github.com/repos/bmihelac/django-import-export/events",
    "fork": false,
    "forks": 59,
    "forks_count": 59,
    "forks_url": "https://api.github.com/repos/bmihelac/django-import-export/forks",
    "full_name": "bmihelac/django-import-export",
    "git_commits_url": "https://api.github.com/repos/bmihelac/django-import-export/git/commits{/sha}",
    "git_refs_url": "https://api.github.com/repos/bmihelac/django-import-export/git/refs{/sha}",
    "git_tags_url": "https://api.github.com/repos/bmihelac/django-import-export/git/tags{/sha}",
    "git_url": "git://github.com/bmihelac/django-import-export.git",
    "has_downloads": true,
    "has_issues": true,
    "has_wiki": false,
    "homepage": "https://django-import-export.readthedocs.org/en/latest/",
    "hooks_url": "https://api.github.com/repos/bmihelac/django-import-export/hooks",
    "html_url": "https://github.com/bmihelac/django-import-export",
    "id": 6704888,
    "issue_comment_url": "https://api.github.com/repos/bmihelac/django-import-export/issues/comments/{number}",
    "issue_events_url": "https://api.github.com/repos/bmihelac/django-import-export/issues/events{/number}",
    "issues_url": "https://api.github.com/repos/bmihelac/django-import-export/issues{/number}",
    "keys_url": "https://api.github.com/repos/bmihelac/django-import-export/keys{/key_id}",
    "labels_url": "https://api.github.com/repos/bmihelac/django-import-export/labels{/name}",
    "language": "Python",
    "languages_url": "https://api.github.com/repos/bmihelac/django-import-export/languages",
    "merges_url": "https://api.github.com/repos/bmihelac/django-import-export/merges",
    "milestones_url": "https://api.github.com/repos/bmihelac/django-import-export/milestones{/number}",
    "mirror_url": null,
    "name": "django-import-export",
    "notifications_url": "https://api.github.com/repos/bmihelac/django-import-export/notifications{?since,all,participating}",
    "open_issues": 14,
    "open_issues_count": 14,
    "owner": {
        "avatar_url": "https://avatars.githubusercontent.com/u/13813?",
        "events_url": "https://api.github.com/users/bmihelac/events{/privacy}",
        "followers_url": "https://api.github.com/users/bmihelac/followers",
        "following_url": "https://api.github.com/users/bmihelac/following{/other_user}",
        "gists_url": "https://api.github.com/users/bmihelac/gists{/gist_id}",
        "gravatar_id": "a7baeb0c45e5dbaac5bc496f2380061f",
        "html_url": "https://github.com/bmihelac",
        "id": 13813,
        "login": "bmihelac",
        "organizations_url": "https://api.github.com/users/bmihelac/orgs",
        "received_events_url": "https://api.github.com/users/bmihelac/received_events",
        "repos_url": "https://api.github.com/users/bmihelac/repos",
        "site_admin": false,
        "starred_url": "https://api.github.com/users/bmihelac/starred{/owner}{/repo}",
        "subscriptions_url": "https://api.github.com/users/bmihelac/subscriptions",
        "type": "User",
        "url": "https://api.github.com/users/bmihelac"
    },
    "private": false,
    "pulls_url": "https://api.github.com/repos/bmihelac/django-import-export/pulls{/number}",
    "pushed_at": "2014-04-30T12:34:03Z",
    "releases_url": "https://api.github.com/repos/bmihelac/django-import-export/releases{/id}",
    "score": 1.0,
    "size": 1952,
    "ssh_url": "git@github.com:bmihelac/django-import-export.git",
    "stargazers_count": 263,
    "stargazers_url": "https://api.github.com/repos/bmihelac/django-import-export/stargazers",
    "statuses_url": "https://api.github.com/repos/bmihelac/django-import-export/statuses/{sha}",
    "subscribers_url": "https://api.github.com/repos/bmihelac/django-import-export/subscribers",
    "subscription_url": "https://api.github.com/repos/bmihelac/django-import-export/subscription",
    "svn_url": "https://github.com/bmihelac/django-import-export",
    "tags_url": "https://api.github.com/repos/bmihelac/django-import-export/tags",
    "teams_url": "https://api.github.com/repos/bmihelac/django-import-export/teams",
    "trees_url": "https://api.github.com/repos/bmihelac/django-import-export/git/trees{/sha}",
    "updated_at": "2014-05-06T16:24:51Z",
    "url": "https://api.github.com/repos/bmihelac/django-import-export",
    "watchers": 263,
    "watchers_count": 263
}