{
    "archive_url": "https://api.github.com/repos/unitedstates/python-us/{archive_format}{/ref}",
    "assignees_url": "https://api.github.com/repos/unitedstates/python-us/assignees{/user}",
    "blobs_url": "https://api.github.com/repos/unitedstates/python-us/git/blobs{/sha}",
    "branches_url": "https://api.github.com/repos/unitedstates/python-us/branches{/branch}",
    "clone_url": "https://github.com/unitedstates/python-us.git",
    "collaborators_url": "https://api.github.com/repos/unitedstates/python-us/collaborators{/collaborator}",
    "comments_url": "https://api.github.com/repos/unitedstates/python-us/comments{/number}",
    "commits_url": "https://api.github.com/repos/unitedstates/python-us/commits{/sha}",
    "compare_url": "https://api.github.com/repos/unitedstates/python-us/compare/{base}...{head}",
    "contents_url": "https://api.github.com/repos/unitedstates/python-us/contents/{+path}",
    "contributors_url": "https://api.github.com/repos/unitedstates/python-us/contributors",
    "created_at": "2012-08-15T15:28:04Z",
    "default_branch": "master",
    "description": "US state metadata and other incredible fun stuff",
    "downloads_url": "https://api.github.com/repos/unitedstates/python-us/downloads",
    "events_url": "https://api.github.com/repos/unitedstates/python-us/events",
    "fork": false,
    "forks": 4,
    "forks_count": 4,
    "forks_url": "https://api.github.com/repos/unitedstates/python-us/forks",
    "full_name": "unitedstates/python-us",
    "git_commits_url": "https://api.github.com/repos/unitedstates/python-us/git/commits{/sha}",
    "git_refs_url": "https://api.github.com/repos/unitedstates/python-us/git/refs{/sha}",
    "git_tags_url": "https://api.github.com/repos/unitedstates/python-us/git/tags{/sha}",
    "git_url": "git://github.com/unitedstates/python-us.git",
    "has_downloads": true,
    "has_issues": true,
    "has_wiki": true,
    "homepage": "https://pypi.python.org/pypi/us",
    "hooks_url": "https://api.github.com/repos/unitedstates/python-us/hooks",
    "html_url": "https://github.com/unitedstates/python-us",
    "id": 5427753,
    "issue_comment_url": "https://api.github.com/repos/unitedstates/python-us/issues/comments/{number}",
    "issue_events_url": "https://api.github.com/repos/unitedstates/python-us/issues/events{/number}",
    "issues_url": "https://api.github.com/repos/unitedstates/python-us/issues{/number}",
    "keys_url": "https://api.github.com/repos/unitedstates/python-us/keys{/key_id}",
    "labels_url": "https://api.github.com/repos/unitedstates/python-us/labels{/name}",
    "language": "Python",
    "languages_url": "https://api.github.com/repos/unitedstates/python-us/languages",
    "merges_url": "https://api.github.com/repos/unitedstates/python-us/merges",
    "milestones_url": "https://api.github.com/repos/unitedstates/python-us/milestones{/number}",
    "mirror_url": null,
    "name": "python-us",
    "notifications_url": "https://api.github.com/repos/unitedstates/python-us/notifications{?since,all,participating}",
    "open_issues": 2,
    "open_issues_count": 2,
    "owner": {
        "avatar_url": "https://avatars.githubusercontent.com/u/2200203?",
        "events_url": "https://api.github.com/users/unitedstates/events{/privacy}",
        "followers_url": "https://api.github.com/users/unitedstates/followers",
        "following_url": "https://api.github.com/users/unitedstates/following{/other_user}",
        "gists_url": "https://api.github.com/users/unitedstates/gists{/gist_id}",
        "gravatar_id": "13407a4bedf3a760924bb0dd57d776d0",
        "html_url": "https://github.com/unitedstates",
        "id": 2200203,
        "login": "unitedstates",
        "organizations_url": "https://api.github.com/users/unitedstates/orgs",
        "received_events_url": "https://api.github.com/users/unitedstates/received_events",
        "repos_url": "https://api.github.com/users/unitedstates/repos",
        "site_admin": false,
        "starred_url": "https://api.github.com/users/unitedstates/starred{/owner}{/repo}",
        "subscriptions_url": "https://api.github.com/users/unitedstates/subscriptions",
        "type": "Organization",
        "url": "https://api.github.com/users/unitedstates"
    },
    "private": false,
    "pulls_url": "https://api.github.com/repos/unitedstates/python-us/pulls{/number}",
    "pushed_at": "2014-02-03T17:05:10Z",
    "releases_url": "https://api.github.com/repos/unitedstates/python-us/releases{/id}",
    "score": 1.0,
    "size": 306,
    "ssh_url": "git@github.com:unitedstates/python-us.git",
    "stargazers_count": 52,
    "stargazers_url": "https://api.github.com/repos/unitedstates/python-us/stargazers",
    "statuses_url": "https://api.github.com/repos/unitedstates/python-us/statuses/{sha}",
    "subscribers_url": "https://api.github.com/repos/unitedstates/python-us/subscribers",
    "subscription_url": "https://api.github.com/repos/unitedstates/python-us/subscription",
    "svn_url": "https://github.com/unitedstates/python-us",
    "tags_url": "https://api.github.com/repos/unitedstates/python-us/tags",
    "teams_url": "https://api.github.com/repos/unitedstates/python-us/teams",
    "trees_url": "https://api.github.com/repos/unitedstates/python-us/git/trees{/sha}",
    "updated_at": "2014-04-06T16:15:02Z",
    "url": "https://api.github.com/repos/unitedstates/python-us",
    "watchers": 52,
    "watchers_count": 52
}