{
    "libs": [
        "tokenize",
        "zlib",
        "locale",
        "unittest",
        "webservice",
        "subprocess",
        "win32file",
        "disc",
        "shutil",
        "msvcrt",
        "select",
        "musicbrainzngs",
        "struct",
        "trial",
        "tempfile",
        "errno",
        "gtk",
        "BeautifulSoup",
        "urllib",
        "CDDB",
        "re",
        "json",
        "h",
        "ConfigParser",
        "math",
        "difflib",
        "fcntl",
        "cdio",
        "stat",
        "optparse",
        "glob",
        "inspect",
        "urllib2",
        "sys",
        "fnmatch",
        "codecs",
        "copy",
        "socket",
        "b",
        "gst",
        "keyword",
        "xdg",
        "os",
        "traceback",
        "pkg_resources",
        "urlparse",
        "sha",
        "command",
        "t",
        "time",
        "win32pipe",
        "gobject",
        "pickle"
    ]
}