[
    "004-TestExtension.005-MailTransaction",
    "001-empty.003-criticctl.004-listusers",
    "tests.001-main.001-empty.003-criticctl.004-listusers",
    "001-main.004-extensions.002-tests.004-TestExtension.001-echo",
    "configuration.services",
    "004-TestExtension.999-missing",
    "004-config",
    "001-anonymous.010-createreview",
    "src.operation.applyfilters",
    "src.critic",
    "page.basic",
    "004-mixed.002-email",
    "017-showcommit-merge-replay",
    "001-main.003-self.004-createreview",
    "testing.tests.001-main.001-empty.004-mixed.004-password",
    "configuration.extensions",
    "001-main.003-self.025-trackedbranch",
    "001-main.001-empty.001-anonymous.007-home",
    "001-empty.003-criticctl.002-adduser-deluser",
    "migrations.dbschema.createtable.timezones",
    "001-main.001-empty.002-authenticated.100-preferences.003-timezone",
    "page.branches",
    "tests.001-main.003-self.025-trackedbranch",
    "check-branches",
    "tests.001-main.004-extensions.002-tests.005-install-SystemExtension",
    "001-main.003-self.026-searchreview",
    "page.utils",
    "htmlutils",
    "100-reviewing.001-comments.basic",
    "tests.001-main.001-empty.002-authenticated.100-preferences.001-commit.diff.rulerColumn",
    "src.inpututils",
    "src.maintenance.dumppreferences",
    "testing.tests.001-main.001-empty.004-mixed.002-email",
    "src.page.createuser",
    "page.showbranch",
    "004-TestExtension.011-User",
    "showtree",
    "src.textutils",
    "testing.tools",
    "src.operation.checkrebase",
    "templates.configuration",
    "showreview",
    "002-late-upgrade.003-upgrade",
    "operation.servicemanager",
    "001-main.002-createrepository",
    "operation.editresource",
    "installation.migrations.dbschema.altertable.previousreachable.rebase.ondeletecascade",
    "src.operation.trackedbranch",
    "tests.001-main.003-self.014-non-ascii-filenames",
    "tests.001-main.001-empty.002-authenticated.003-search",
    "001-empty.001-anonymous.001-dashboard",
    "001-main.003-self.001-rulerColumn",
    "001-main.005-unittests.001-local",
    "createreview",
    "installation.config-pyc-file-permissions",
    "reviewing.filters",
    "100-preferences",
    "search",
    "testing.tests.001-main.001-empty.003-criticctl.004-listusers",
    "tests.001-main.004-extensions.002-tests.006-manifest-checks",
    "src.index",
    "urlutils",
    "src.page.editresource",
    "src.page",
    "tests.001-main.005-unittests",
    "001-main.003-self.017-showcommit-merge-replay",
    "002-tests.004-TestExtension.001-echo",
    "tests.002-late-upgrade.002-pre-upgrade",
    "004-first-review-created",
    "003-self.004-first-review-created",
    "testing.tests.001-main.003-self.024-customizations.githook",
    "testing.tests.001-main.001-empty.002-authenticated.012-statistics",
    "001-local.001-independence",
    "002-authenticated.002-branches",
    "applyfilters",
    "changeset.html",
    "testing.tests.001-main.004-extensions.001-enable",
    "testing.tests.001-main.003-self.003-binaryfile",
    "auth.provider",
    "auth.oauth",
    "reviewing.comment.propagate",
    "installation.migrations.dbschema.fixup-extensionroles",
    "src.page.managereviewers",
    "src.auth.provider",
    "installation.initd",
    "src.syntaxhighlight",
    "tests.001-main.001-empty.001-anonymous.002-branches",
    "003-self.015-non-ascii-line-diff",
    "tests.001-main.001-empty.002-authenticated.009-services",
    "installation.apache",
    "pythonversion",
    "001-main.001-empty.003-criticctl",
    "001-main.001-empty.001-anonymous.100-preferences.001-commit.diff.rulerColumn",
    "002-review.defaultOptOut",
    "001-empty.001-anonymous.009-services",
    "006-showreview-reviewfilter",
    "src.page.parameters",
    "tests.001-main.002-createrepository",
    "migrations.dbschema.createtable.knownremotes",
    "testing.tests.001-main.005-unittests.001-local.002-operation",
    "003-criticctl.006-restart",
    "install",
    "001-main.004-extensions.002-tests.004-TestExtension.010-restrictions",
    "001-main.001-empty.002-authenticated.100-preferences",
    "001-main.003-self.018-detect-moves-no-moved-code",
    "tests.001-main.004-extensions.001-enable",
    "smtp",
    "tests.001-main.003-self.020-fixup-review-via-push",
    "operation.blame",
    "reviewing",
    "migrations.dbschema.altertable.commentchainchanges.addressed_by",
    "src.reviewing.report",
    "025-trackedbranch",
    "tests.001-main.003-self.011-linkification-custom",
    "003-self.024-customizations.githook",
    "001-anonymous.001-dashboard",
    "installation.migrations.dbschema.altertable.reviewrecipientfilters.uid-can-be-null",
    "001-empty.001-anonymous.100-preferences.001-commit.diff.rulerColumn",
    "dbschema.per-repository-or-filter-preferences",
    "installation.migrations.dbschema.altertable.repositories.drop.relay",
    "showreviewlog",
    "001-empty.002-authenticated.011-manageextensions",
    "002-late-upgrade.002-pre-upgrade",
    "config",
    "018-detect-moves-no-moved-code",
    "004-extensions.002-tests.004-TestExtension.004-Review.list",
    "providers.github",
    "src.operation.extensioninstallation",
    "001-tutorial",
    "testing.tests.001-main.001-empty.002-authenticated.100-preferences.002-review.defaultOptOut",
    "testing.utils",
    "src.page.showbranch",
    "009-services",
    "testing.repository",
    "001-enable",
    "016-showcommit-ranges",
    "001-empty.001-anonymous.008-repositories",
    "tests.001-main.004-extensions.002-tests.004-TestExtension.001-echo",
    "src.profiling",
    "github",
    "002-tests.004-TestExtension.005-MailTransaction",
    "src.maintenance",
    "dbschema.altertable.systemidentities.url-prefix",
    "003-self.004-first-review-created.001-addreviewfilters-bogus",
    "src.extensions.role.processcommits",
    "maintenance.progress",
    "changeset.client",
    "testing.tests.001-main.004-extensions.002-tests.004-TestExtension.013-storage",
    "tests.001-main.001-empty.004-mixed.002-email",
    "uninstall",
    "frontend",
    "src.reviewing.filters",
    "004-TestExtension",
    "005-unittests.001-local.001-independence",
    "installation.migrations.dbschema.altertable.systemidentities.add.installed_sha1.installed_at",
    "001-main.001-empty.001-anonymous",
    "testing.tests.001-main.003-self",
    "installation.migrations.dbschema.altertable.reviewmergeconfirmations.add.tail",
    "filters",
    "installation.extensions",
    "001-main.003-self.024-customizations.githook",
    "001-main.001-empty.003-criticctl.001-basic",
    "cli",
    "configuration.executables",
    "migrations.dbschema.altertable.systemidentities.url-prefix",
    "001-main.003-self.028-gitemails",
    "textformatting",
    "001-main.001-empty.001-anonymous.013-static-resource",
    "004-extensions.002-tests.004-TestExtension.008-processcommits",
    "002-tests.004-TestExtension.014-Repository.run",
    "testing.tests.001-main.001-empty.001-anonymous.100-preferences",
    "004-mixed.003-oauth",
    "tests.001-main.004-extensions",
    "001-commit.diff.rulerColumn",
    "001-main.001-empty.001-anonymous.100-preferences.002-review.defaultOptOut",
    "testing.tests.001-main.003-self.002-emptyfile",
    "001-main.004-extensions.002-tests.004-TestExtension.011-User",
    "tests.001-main.003-self.006-showreview-reviewfilter",
    "004-post-upgrade",
    "manipulateassignments",
    "templates.configuration.smtp",
    "012-replayrebase",
    "src.extensions",
    "src.operation.manipulatefilters",
    "100-preferences.001-commit.diff.rulerColumn",
    "002-late-upgrade.004-post-upgrade",
    "src.page.basic",
    "src.changeset.load",
    "debug",
    "dbschema.altertable.systemidentities.add.installed_sha1.installed_at",
    "testing.tests.001-main.001-empty.002-authenticated.005-tutorial",
    "src.diff.analyze",
    "operation.applyfilters",
    "templates.configuration.database",
    "tests.001-main.003-self.004-first-review-created",
    "input.customization",
    "003-version",
    "src.syntaxhighlight.request",
    "004-extensions.002-tests.004-TestExtension.012-resources",
    "tests.001-main.001-empty.002-authenticated.100-preferences.003-timezone",
    "page.showreview",
    "001-main.003-self.012-replayrebase",
    "testing.tests.001-main.001-empty",
    "expect",
    "src.background",
    "tests.001-main.004-extensions.002-tests.001-tutorial",
    "testing.tests.001-main.004-extensions.002-tests.004-TestExtension.999-missing",
    "src.auth",
    "001-empty.002-authenticated.006-news",
    "001-main.004-extensions.002-tests.003-install-TestExtension",
    "background.branchtrackerhook",
    "002-authenticated.008-repositories",
    "page.managereviewers",
    "testing.tests.001-main.003-self.004-first-review-created.001-addreviewfilters-bogus",
    "testing.tests.001-main.001-empty.001-anonymous.012-statistics",
    "testing.tests.001-main.003-self.022-removereviewfilter-bogus",
    "createcomment",
    "src.page.login",
    "base",
    "001-extensions",
    "004-extensions.002-tests.004-TestExtension.005-MailTransaction",
    "src.page.statistics",
    "auth.providers.google",
    "generate",
    "src.communicate",
    "tests.001-main.001-empty.003-criticctl.003-addrole-delrole",
    "autocompletedata",
    "004-TestExtension.006-inject",
    "comment.propagate",
    "tests.001-main.001-empty.002-authenticated.011-manageextensions",
    "001-empty.001-anonymous.004-config",
    "001-main.003-self.002-emptyfile",
    "001-main.003-self.015-non-ascii-line-diff",
    "001-main.003-self.004-first-review-created.001-addreviewfilters-bogus",
    "tests.002-late-upgrade.004-post-upgrade",
    "testing.tests.001-main.004-extensions.002-tests.004-TestExtension.003-empty",
    "001-empty.002-authenticated.008-repositories",
    "testing.tests.001-main.001-empty.001-anonymous.010-createreview",
    "012-createreview-recipients",
    "004-password",
    "002-authenticated.009-services",
    "customization",
    "004-TestExtension.014-Repository.run",
    "002-late-upgrade.001-install",
    "src.page.utils",
    "testing.main",
    "src.background.wait-for-pidfiles",
    "tests.001-main.001-empty.001-anonymous.003-search",
    "maintenance.check-branches",
    "page.dashboard",
    "tests.002-late-upgrade.002-pre-upgrade.001-extensions.001-enable",
    "dbschema.fixup-extensionroles",
    "showcomment",
    "showbatch",
    "configuration.limits",
    "src.operation",
    "001-empty.001-anonymous.002-branches",
    "dbschema.createtable.usersessions",
    "testing.tests.001-main.004-extensions.002-tests.005-install-SystemExtension",
    "004-extensions.002-tests.004-TestExtension.003-empty",
    "001-main.003-self.022-removereviewfilter-bogus",
    "addrepository",
    "tests.001-main",
    "installation.templates.configuration.services",
    "002-authenticated.100-preferences.003-timezone",
    "002-authenticated.100-preferences.002-review.defaultOptOut",
    "testing.__main__",
    "htmlutils_unittest",
    "026-searchreview",
    "maildelivery",
    "tests.001-main.001-empty.002-authenticated.002-branches",
    "auth.providers.dummy",
    "003-criticctl.001-basic",
    "src.diff.html",
    "dbutils.system",
    "page.manageextensions",
    "dbschema.altertable.usergitemails",
    "001-main.005-unittests",
    "tests.001-main.003-self.004-first-review-created.001-addreviewfilters-bogus",
    "001-empty.002-authenticated.100-preferences",
    "__main__",
    "migrations.dbschema.external-authentication",
    "paths",
    "dbschema.external-authentication",
    "migrations.news.review-quick-search",
    "installation.git",
    "preference.commit.diff.rulerColumn",
    "001-main.003-self.005-checkbranch",
    "diff.context",
    "installation.migrations.news.filter-system-rewrite",
    "tests.001-main.001-empty.001-anonymous",
    "tests.001-main.004-extensions.002-tests.004-TestExtension.006-inject",
    "002-nothandled",
    "testing.tests.001-main.001-empty.002-authenticated",
    "002-late-upgrade.002-pre-upgrade.001-extensions.001-enable",
    "001-empty.001-anonymous.013-static-resource",
    "tests.001-main.003-self.027-whitespace-filenames",
    "dbschema.droptable.knownhosts",
    "services",
    "background.githook",
    "001-empty.002-authenticated.009-services",
    "002-late-upgrade.004-post-upgrade.001-extensions.001-version",
    "dummy",
    "tests.002-late-upgrade.003-upgrade",
    "input.customization.githook",
    "001-main.001-empty.002-authenticated.100-preferences.002-review.defaultOptOut",
    "testing.tests.001-main.001-empty.001-anonymous.004-config",
    "001-empty.001-anonymous.100-preferences.002-review.defaultOptOut",
    "operation.savesettings",
    "src.log.html",
    "src.page.verifyemail",
    "testing.tests.001-main.004-extensions.002-tests.004-TestExtension.008-processcommits",
    "changeset",
    "wsgi",
    "006-manifest-checks",
    "tests.001-main.003-self.009-fetchremotebranch",
    "src.dbutils.session",
    "003-criticctl.003-addrole-delrole",
    "dbschema.createtable.knownremotes",
    "installation.database",
    "check-commits",
    "session",
    "001-main.001-empty.003-criticctl.004-listusers",
    "operation.markfiles",
    "src.operation.fetchlines",
    "installation.templates.configuration.mimetypes",
    "001-main.004-extensions.002-tests.004-TestExtension.013-storage",
    "basictypes",
    "src.syntaxhighlight.cpp",
    "testing.tests.001-main.001-empty.003-criticctl.006-restart",
    "parameters",
    "testing.tests.001-main.003-self.001-rulerColumn",
    "003-self.005-checkbranch",
    "page.addrepository",
    "tests.001-main.001-empty.004-mixed.003-oauth",
    "tests.001-main.001-empty.002-authenticated.010-createreview",
    "001-anonymous.005-tutorial",
    "002-tests.004-TestExtension",
    "installation.templates.configuration.limits",
    "src.operation.blame",
    "002-tests.004-TestExtension.002-nothandled",
    "operation.draftchanges",
    "004-TestExtension.002-nothandled",
    "004-extensions.002-tests.004-TestExtension.010-restrictions",
    "report",
    "005-unittests.001-local",
    "tests.001-main.003-self.002-emptyfile",
    "008-processcommits",
    "page.search",
    "003-self.006-showreview-reviewfilter",
    "003-self.003-binaryfile",
    "001-main.001-empty.001-anonymous.003-search",
    "testing.tools.install",
    "page.statistics",
    "dbschema.files-and-directories",
    "migrations.dbschema.altertable.previousreachable.rebase.ondeletecascade",
    "src.reviewing",
    "001-main.001-empty.002-authenticated.007-home",
    "testing",
    "src.background.maildelivery",
    "004-extensions.002-tests.004-TestExtension.014-Repository.run",
    "tests.001-main.003-self.010-linkification",
    "tests.001-main.001-empty.003-criticctl.006-restart",
    "tests.001-main.004-extensions.002-tests.004-TestExtension.010-restrictions",
    "testing.virtualbox",
    "001-empty.002-authenticated.100-preferences.002-review.defaultOptOut",
    "004-extensions.002-tests.004-TestExtension.001-echo",
    "src.background.daemon",
    "003-empty",
    "tests.001-main.001-empty.001-anonymous.006-news",
    "003-self.019-showtree-showfile-bogus",
    "migrations.dbschema.per-repository-or-filter-preferences",
    "showbranch",
    "001-main.003-self.007-http-backend",
    "page.createuser",
    "002-late-upgrade.002-pre-upgrade.001-extensions",
    "testing.tests.001-main.001-empty.001-anonymous.009-services",
    "003-self.028-gitemails",
    "001-main.004-extensions.002-tests.004-TestExtension.999-missing",
    "profiling",
    "002-tests.004-TestExtension.013-storage",
    "extend",
    "003-self.018-detect-moves-no-moved-code",
    "testing.local",
    "999-missing",
    "tests.001-main.001-empty",
    "dbutils.branch",
    "002-install-TestExtension",
    "news",
    "installation.migrations.dbschema.per-repository-or-filter-preferences",
    "001-main.001-empty.002-authenticated.100-preferences.001-commit.diff.rulerColumn",
    "testing.tests.001-main.001-empty.001-anonymous.100-preferences.001-commit.diff.rulerColumn",
    "002-emptyfile",
    "operation.news",
    "testing.tests.001-main.003-self.006-showreview-reviewfilter",
    "src.diff",
    "001-main.001-empty.004-mixed.004-password",
    "context",
    "login",
    "testing.tests.001-main.003-self.010-linkification",
    "load",
    "006-news",
    "configuration.mimetypes",
    "apache",
    "001-empty.003-criticctl.006-restart",
    "installation.migrations.dbschema.createtable.usersessions",
    "diff",
    "dbschema.altertable.reviewmergeconfirmations.add.tail",
    "002-tests.004-TestExtension.012-resources",
    "tests.001-main.003-self.022-removereviewfilter-bogus",
    "src.page.home",
    "create",
    "tests.001-main.900-uninstall-reinstall",
    "installation.migrations.dbschema.altertable.commentchainchanges.addressed_by",
    "100-reviewing",
    "src.dbutils.user",
    "testing.tests.001-main.004-extensions.002-tests.004-TestExtension.001-echo",
    "003-self.002-emptyfile",
    "installation.migrations.dbschema.createindex.misc",
    "maintenance",
    "basic",
    "002-pre-upgrade.001-extensions.001-enable",
    "syntaxhighlight.generic",
    "005-configtest",
    "testing.input.customization.linktypes",
    "tests.001-main.001-empty.003-criticctl",
    "testing.tests.001-main.003-self.020-reviewrebase",
    "001-main.004-extensions.002-tests.004-TestExtension.008-processcommits",
    "tests.001-main.001-empty.002-authenticated",
    "prereqs",
    "testing.tests.002-late-upgrade.002-pre-upgrade.001-extensions",
    "001-main.001-empty.001-anonymous.009-services",
    "001-main.001-empty.003-criticctl.005-configtest",
    "tools.install",
    "changeset.load",
    "tests.001-main.001-empty.003-criticctl.001-basic",
    "src.changeset.client",
    "900-uninstall-reinstall",
    "changeset.detectmoves",
    "page.checkbranch",
    "dashboard",
    "004-TestExtension.012-resources",
    "008-initial-commit-diff",
    "tests.001-main.001-empty.002-authenticated.100-preferences.002-review.defaultOptOut",
    "002-tests.004-TestExtension.007-version",
    "001-empty.001-anonymous.100-preferences",
    "page.editresource",
    "page.showtree",
    "diff.analyze",
    "testing.input.customization",
    "tests.001-main.001-empty.001-anonymous.100-preferences.001-commit.diff.rulerColumn",
    "testing.mailbox",
    "testing.tests.001-main.004-extensions.002-tests.004-TestExtension.014-Repository.run",
    "dbschema.altertable.commentchainchanges.addressed_by",
    "001-main.004-extensions.002-tests.004-TestExtension.006-inject",
    "syntaxhighlight.generate",
    "testing.tests.001-main.001-empty.003-criticctl.003-addrole-delrole",
    "testing.tests.002-late-upgrade.002-pre-upgrade.001-extensions.002-install-TestExtension",
    "003-self.012-replayrebase",
    "src.page.showreview",
    "001-extensions.001-enable",
    "tests.001-main.004-extensions.002-tests.004-TestExtension.002-nothandled",
    "configuration.database",
    "tests.001-main.001-empty.002-authenticated.006-news",
    "installation.migrations.dbschema.droptable.knownhosts",
    "installation.paths",
    "007-home",
    "tests.001-main.001-empty.004-mixed.004-password",
    "templates",
    "tests.001-main.003-self.024-customizations.githook",
    "tests.001-main.001-empty.002-authenticated.001-dashboard",
    "wait-for-pidfiles",
    "dbutils.review",
    "002-authenticated.100-preferences.001-commit.diff.rulerColumn",
    "user",
    "tests.001-main.003-self.015-non-ascii-line-diff",
    "024-customizations.githook",
    "tests.001-main.003-self.026-searchreview",
    "src.page.showreviewlog",
    "src.syntaxhighlight.context",
    "page.showcomment",
    "database",
    "001-empty.001-anonymous",
    "tests.001-main.003-self.001-rulerColumn",
    "client",
    "base_unittest",
    "linkify",
    "003-self.012-createreview-recipients",
    "001-empty.001-anonymous.011-manageextensions",
    "templates.configuration.debug",
    "reviewing.utils",
    "src.diff.merge",
    "src.dbutils.database",
    "002-tests.004-TestExtension.004-Review.list",
    "operation.extensioninstallation",
    "testing.frontend",
    "011-linkification-custom",
    "testing.tests.001-main.000-install",
    "testing.tests.002-late-upgrade.003-upgrade",
    "src.syntaxhighlight.generic",
    "installation.migrations",
    "001-main.004-extensions.002-tests.005-install-SystemExtension",
    "input",
    "013-storage",
    "migrations.news.filter-system-rewrite",
    "tests.001-main.003-self.021-updatereview-bogus",
    "003-self.017-showcommit-merge-replay",
    "installation.config",
    "002-tests.004-TestExtension.006-inject",
    "page.config",
    "background",
    "003-self.021-updatereview-bogus",
    "src.maintenance.configtest",
    "src.reviewing.html",
    "001-main.001-empty.003-criticctl.006-restart",
    "daemon",
    "tests.001-main.003-self.005-checkbranch",
    "028-gitemails",
    "dbschema.createtable.useremails",
    "001-anonymous.008-repositories",
    "003-self.016-showcommit-ranges",
    "manifest",
    "tests.001-main.000-install",
    "src.page.rebasetrackingreview",
    "002-authenticated",
    "createuser",
    "src.page.showcomment",
    "001-main.001-empty.002-authenticated.003-search",
    "findtests",
    "003-self.004-createreview",
    "002-tests.004-TestExtension.008-processcommits",
    "google",
    "page.home",
    "mailutils",
    "004-TestExtension.007-version",
    "001-main.003-self.011-linkification-custom",
    "testing.tests.001-main.003-self.018-detect-moves-no-moved-code",
    "001-empty.002-authenticated.007-home",
    "testing.tests.001-main.003-self.004-createreview",
    "operation.createcomment",
    "src.changeset.detectmoves",
    "001-rulerColumn",
    "019-showtree-showfile-bogus",
    "002-tests.006-manifest-checks",
    "tutorial",
    "001-anonymous.006-news",
    "page.createreview",
    "014-non-ascii-filenames",
    "page.filterchanges",
    "tests.001-main.001-empty.002-authenticated.004-config",
    "tests.001-main.001-empty.002-authenticated.005-tutorial",
    "extensions.role.inject",
    "100-preferences.002-review.defaultOptOut",
    "src.base",
    "001-main.001-empty.003-criticctl.003-addrole-delrole",
    "004-extensions",
    "src.auth.oauth",
    "004-extensions.002-tests.004-TestExtension.009-error-messages",
    "001-anonymous.100-preferences.001-commit.diff.rulerColumn",
    "operation.basictypes",
    "testing.input.customization.githook",
    "repository",
    "installation.migrations.dbschema.createtable.knownremotes",
    "002-authenticated.100-preferences",
    "003-self.014-non-ascii-filenames",
    "src.operation.basictypes",
    "001-basic",
    "tests.001-main.001-empty.001-anonymous.005-tutorial",
    "004-extensions.002-tests.004-TestExtension",
    "configuration.smtp",
    "templates.configuration.paths",
    "001-empty.004-mixed.004-password",
    "background.wait-for-pidfiles",
    "testing.findtests",
    "extensions",
    "operation.manipulatecomment",
    "background.watchdog",
    "001-main.001-empty.002-authenticated.006-news",
    "installation.templates.configuration.extensions",
    "testing.tests.001-main.001-empty.001-anonymous.007-home",
    "background.maintenance",
    "src.changeset.create",
    "tests.001-main.001-empty.001-anonymous.100-preferences",
    "src.background.utils",
    "testing.tests.001-main.003-self.012-createreview-recipients",
    "001-anonymous.100-preferences.003-timezone",
    "002-manageextensions",
    "001-addreviewfilters-bogus",
    "001-main.004-extensions.002-tests.004-TestExtension.007-version",
    "installation.admin",
    "src.operation.markfiles",
    "002-late-upgrade",
    "maintenance.configtest",
    "tests.001-main.001-empty.001-anonymous.010-createreview",
    "001-empty.002-authenticated",
    "001-anonymous.100-preferences.002-review.defaultOptOut",
    "git",
    "testing.tests.001-main.004-extensions.002-tests.004-TestExtension",
    "002-authenticated.011-manageextensions",
    "003-self.009-fetchremotebranch",
    "testing.tests.002-late-upgrade.002-pre-upgrade.001-extensions.003-version",
    "004-extensions.002-tests.004-TestExtension.013-storage",
    "004-extensions.002-tests.003-install-TestExtension",
    "001-main.001-empty.001-anonymous.100-preferences",
    "001-empty.001-anonymous.006-news",
    "002-authenticated.010-createreview",
    "src.extensions.extension",
    "src.maintenance.progress",
    "001-anonymous.100-preferences",
    "files",
    "testing.tests.001-main.003-self.026-searchreview",
    "tests.001-main.001-empty.001-anonymous.012-statistics",
    "001-empty.003-criticctl.001-basic",
    "operation.manipulateassignments",
    "migrations.dbschema.altertable.usergitemails",
    "tests.001-main.001-empty.001-anonymous.013-static-resource",
    "001-main.001-empty.002-authenticated.011-manageextensions",
    "001-main.001-empty.001-anonymous.008-repositories",
    "004-extensions.002-tests.006-manifest-checks",
    "syntaxhighlight.request",
    "page.verifyemail",
    "002-adduser-deluser",
    "tests.001-main.004-extensions.002-tests.004-TestExtension.999-missing",
    "src.page.manageextensions",
    "020-fixup-review-via-push",
    "highlight",
    "src.background.changeset",
    "extensions.manifest",
    "testing.tests.001-main.004-extensions.002-tests.004-TestExtension.011-User",
    "src.operation.searchreview",
    "installation.smtp",
    "page.services",
    "002-authenticated.012-statistics",
    "testing.tests.001-main.003-self.029-log-bogus",
    "src.operation.usersession",
    "tests.001-main.001-empty.002-authenticated.008-repositories",
    "testing.tests.001-main.003-self.008-initial-commit-diff",
    "configuration.debug",
    "installation.prereqs",
    "testing.tests.001-main.005-unittests.001-local.001-independence",
    "testing.tests.001-main.001-empty.001-anonymous.001-dashboard",
    "diff.html",
    "src.changeset",
    "007-http-backend",
    "src.operation.createcomment",
    "001-main.001-empty.004-mixed.002-email",
    "role",
    "003-addrole-delrole",
    "installation.migrations.dbschema.files-and-directories",
    "006-inject",
    "001-empty.001-anonymous.012-statistics",
    "012-statistics",
    "installation.migrations.preference.commit.diff.rulerColumn",
    "001-main.003-self.014-non-ascii-filenames",
    "src.dbutils.paths",
    "100-preferences.003-timezone",
    "dbutils.paths",
    "testing.expect",
    "src.changeset.process",
    "tests.001-main.004-extensions.002-tests",
    "operation.addrepository",
    "diffutils",
    "004-extensions.002-tests.005-install-SystemExtension",
    "002-authenticated.003-search",
    "001-echo",
    "001-extensions.002-install-TestExtension",
    "003-self.100-reviewing",
    "005-checkbranch",
    "tools.upgrade",
    "src.operation.registeruser",
    "migrations.dbschema.droptable.knownhosts",
    "operation.typechecker",
    "manipulatefilters",
    "src.operation.typechecker_unittest",
    "commitset",
    "tests.001-main.004-extensions.002-tests.004-TestExtension",
    "installation.migrations.dbschema.altertable.changesets.parent.dropnotnull",
    "001-main.003-self.020-reviewrebase",
    "testing.tests.001-main.004-extensions.002-tests.004-TestExtension.007-version",
    "001-local",
    "templates.configuration.auth",
    "page.showbatch",
    "manipulateuser",
    "001-install",
    "001-main.004-extensions.002-tests.004-TestExtension.012-resources",
    "002-operation",
    "003-self.100-reviewing.001-comments.basic",
    "testing.tests.001-main.004-extensions.002-tests.004-TestExtension.006-inject",
    "001-empty.003-criticctl.003-addrole-delrole",
    "tests.001-main.003-self.029-log-bogus",
    "tests.001-main.003-self.007-http-backend",
    "tests.002-late-upgrade.001-install",
    "src.page.config",
    "testing.tests.001-main.001-empty.002-authenticated.004-config",
    "001-main.001-empty.002-authenticated.001-dashboard",
    "testing.tests.001-main.003-self.014-non-ascii-filenames",
    "001-empty.001-anonymous.007-home",
    "tests.001-main.004-extensions.002-tests.004-TestExtension.004-Review.list",
    "migrations.dbschema.createtable.useremails",
    "testing.tests.001-main.005-unittests.001-local",
    "src.page.services",
    "src.background.servicemanager",
    "002-tests.003-install-TestExtension",
    "src.operation.editresource",
    "dbutils",
    "tests.001-main.003-self.100-reviewing.001-comments.basic",
    "page.repositories",
    "wsgistartup",
    "installation.migrations.dbschema.createtable.useremails",
    "src.changeset.html",
    "reviewing.mail",
    "role.inject",
    "src.operation.addrepository",
    "tests.001-main.005-unittests.001-local",
    "templates.configuration.services",
    "index",
    "migrations.dbschema.fixup-extensionroles",
    "operation.manipulatefilters",
    "001-main.900-uninstall-reinstall",
    "src.page.dashboard",
    "001-empty.002-authenticated.004-config",
    "001-main.003-self.009-fetchremotebranch",
    "testing.tests.001-main.001-empty.001-anonymous.011-manageextensions",
    "tests.001-main.003-self.028-gitemails",
    "001-anonymous",
    "testing.tests.001-main.004-extensions.002-tests.001-tutorial",
    "dbutils.user",
    "operation.createreview",
    "manageextensions",
    "page.news",
    "001-anonymous.012-statistics",
    "extensions.role.processcommits",
    "001-empty.001-anonymous.005-tutorial",
    "src.background.branchtracker",
    "002-tests.004-TestExtension.010-restrictions",
    "migrations.dbschema.review-constraints-tweaking",
    "src.operation.autocompletedata",
    "src.urlutils",
    "showfile",
    "002-tests.005-install-SystemExtension",
    "004-extensions.002-tests.004-TestExtension.999-missing",
    "testing.tests.001-main.001-empty.002-authenticated.008-repositories",
    "migrations.dbschema.createtable.usersessions",
    "001-empty.003-criticctl",
    "trackedbranch",
    "002-authenticated.005-tutorial",
    "installation.utils",
    "src.request",
    "001-main",
    "tests.001-main.001-empty.001-anonymous.004-config",
    "testing.tests.001-main.003-self.019-showtree-showfile-bogus",
    "dbschema.altertable.reviewrecipientfilters.uid-can-be-null",
    "001-main.003-self.021-updatereview-bogus",
    "reviewing.report",
    "src.operation.manipulateuser",
    "tools",
    "changeset.text",
    "testing.tests.001-main.003-self.015-non-ascii-line-diff",
    "testing.tests.001-main.004-extensions.002-tests.003-install-TestExtension",
    "001-empty.002-authenticated.100-preferences.003-timezone",
    "004-extensions.001-enable",
    "operation.checkrebase",
    "testing.tests.002-late-upgrade.004-post-upgrade.001-extensions",
    "src.page.confirmmerge",
    "001-main.004-extensions.001-enable",
    "tests.001-main.003-self.008-initial-commit-diff",
    "tests.001-main.004-extensions.002-tests.004-TestExtension.008-processcommits",
    "auth.providers.github",
    "001-empty.002-authenticated.100-preferences.001-commit.diff.rulerColumn",
    "004-mixed.001-newswriter",
    "dbschema.createtable.timezones",
    "verifyemail",
    "src.operation.createreview",
    "configuration.paths",
    "tests.002-late-upgrade.004-post-upgrade.001-extensions.001-version",
    "page.login",
    "001-empty.002-authenticated.002-branches",
    "tests.001-main.004-extensions.002-tests.003-install-TestExtension",
    "001-main.001-empty.002-authenticated.010-createreview",
    "002-pre-upgrade.001-extensions.003-version",
    "src.page.showfile",
    "src.syntaxhighlight.clexer",
    "draftchanges",
    "src.operation.rebasereview",
    "012-resources",
    "background.servicemanager",
    "installation.input",
    "005-unittests.001-local.002-operation",
    "installation.files",
    "testing.tests.001-main.001-empty.001-anonymous.005-tutorial",
    "tests.001-main.003-self.100-reviewing",
    "001-main.001-empty.002-authenticated.004-config",
    "001-main.001-empty.002-authenticated.005-tutorial",
    "src.wsgi",
    "testing.tests.002-late-upgrade.001-install",
    "testing.tests.001-main.004-extensions.002-tests.004-TestExtension.009-error-messages",
    "004-TestExtension.004-Review.list",
    "002-late-upgrade.004-post-upgrade.001-extensions",
    "src.reviewing.mail",
    "providers",
    "process",
    "tests.002-late-upgrade.002-pre-upgrade.001-extensions",
    "dbschema.createindex.misc",
    "tests.001-main.004-extensions.002-tests.004-TestExtension.013-storage",
    "testing.tests.001-main.004-extensions",
    "critic",
    "src.page.createreview",
    "001-main.001-empty.001-anonymous.006-news",
    "tests.001-main.004-extensions.002-tests.004-TestExtension.003-empty",
    "001-anonymous.013-static-resource",
    "src.auth.providers.github",
    "001-main.003-self.010-linkification",
    "configtest",
    "004-TestExtension.001-echo",
    "src.htmlutils",
    "testing.tests.001-main.004-extensions.002-tests.004-TestExtension.005-MailTransaction",
    "migrations.dbschema.altertable.changesets.parent.dropnotnull",
    "001-empty.002-authenticated.012-statistics",
    "003-self.022-removereviewfilter-bogus",
    "migrations.dbschema.files-and-directories",
    "001-main.001-empty.001-anonymous.100-preferences.003-timezone",
    "029-log-bogus",
    "installation.prefs",
    "testing.tests.001-main.001-empty.002-authenticated.001-dashboard",
    "extensions.installation",
    "testing.tests.001-main.004-extensions.002-tests",
    "tests.001-main.001-empty.002-authenticated.100-preferences",
    "dbutils.database",
    "001-main.001-empty.001-anonymous.002-branches",
    "001-main.004-extensions.002-tests.004-TestExtension.002-nothandled",
    "branches",
    "004-TestExtension.003-empty",
    "001-main.004-extensions",
    "002-authenticated.004-config",
    "001-main.004-extensions.002-tests.006-manifest-checks",
    "001-empty.004-mixed.001-newswriter",
    "extensions.role.page",
    "001-main.004-extensions.002-tests.002-manageextensions",
    "002-late-upgrade.002-pre-upgrade.001-extensions.003-version",
    "001-main.003-self.100-reviewing.001-comments.basic",
    "migrations.dbschema.altertable.reviewmergeconfirmations.add.tail",
    "dbschema.altertable.changesets.parent.dropnotnull",
    "src.textutils_unittest",
    "confirmmerge",
    "src.coverage",
    "001-empty.004-mixed.003-oauth",
    "002-tests.004-TestExtension.011-User",
    "markfiles",
    "004-post-upgrade.001-extensions",
    "syntaxhighlight.context",
    "003-oauth",
    "tests.001-main.004-extensions.002-tests.004-TestExtension.011-User",
    "installation.templates.configuration",
    "src.operation.typechecker",
    "background.highlight",
    "tests.002-late-upgrade.004-post-upgrade.001-extensions",
    "mail",
    "main",
    "tests.002-late-upgrade.002-pre-upgrade.001-extensions.003-version",
    "003-criticctl.004-listusers",
    "page.rebasetrackingreview",
    "operation.usersession",
    "testing.tests",
    "src.operation.draftchanges",
    "auth",
    "tests.001-main.001-empty.001-anonymous.008-repositories",
    "testing.tests.001-main.004-extensions.002-tests.004-TestExtension.002-nothandled",
    "003-search",
    "dumppreferences",
    "001-empty.004-mixed.002-email",
    "execute",
    "checkbranch",
    "repositories",
    "002-authenticated.006-news",
    "src.extensions.resource",
    "003-criticctl.002-adduser-deluser",
    "merge",
    "migrate",
    "001-empty.002-authenticated.010-createreview",
    "usersession",
    "src.maintenance.check-branches",
    "installation.templates.configuration.executables",
    "001-anonymous.007-home",
    "tests.001-main.001-empty.003-criticctl.005-configtest",
    "searchreview",
    "testing.tests.001-main.001-empty.002-authenticated.007-home",
    "diff.parse",
    "testing.tests.001-main.003-self.012-replayrebase",
    "testing.tests.001-main.001-empty.001-anonymous.013-static-resource",
    "installation.templates.configuration.paths",
    "src.page.showcommit",
    "008-repositories",
    "role.page",
    "src.page.filterchanges",
    "testing.tests.001-main.001-empty.002-authenticated.002-branches",
    "gitutils",
    "configuration.base",
    "installation.system",
    "005-tutorial",
    "testing.tests.001-main.001-empty.002-authenticated.100-preferences",
    "015-non-ascii-line-diff",
    "testing.tests.001-main.001-empty.002-authenticated.100-preferences.003-timezone",
    "003-criticctl",
    "criticctl",
    "testing.tests.001-main.001-empty.004-mixed.001-newswriter",
    "operation.manipulateuser",
    "001-extensions.003-version",
    "001-main.001-empty.004-mixed",
    "src.gitutils",
    "testing.tests.001-main.004-extensions.002-tests.006-manifest-checks",
    "testing.tests.001-main.003-self.100-reviewing.001-comments.basic",
    "extensions.resource",
    "rebasetrackingreview",
    "testing.tests.001-main.003-self.009-fetchremotebranch",
    "src.extensions.manifest",
    "testing.tests.001-main.900-uninstall-reinstall",
    "src.dbaccess",
    "002-tests.004-TestExtension.003-empty",
    "testing.tests.001-main.001-empty.002-authenticated.100-preferences.001-commit.diff.rulerColumn",
    "testing.tests.001-main.004-extensions.002-tests.004-TestExtension.010-restrictions",
    "installation.templates.configuration.base",
    "src.background.highlight",
    "installation.templates.configuration.auth",
    "tests.001-main.001-empty.001-anonymous.100-preferences.003-timezone",
    "004-extensions.002-tests.004-TestExtension.002-nothandled",
    "installation.migrations.dbschema.altertable.systemidentities.url-prefix",
    "installation.process",
    "testing.tests.001-main.005-unittests",
    "operation.registeruser",
    "002-pre-upgrade.001-extensions",
    "009-error-messages",
    "003-self.027-whitespace-filenames",
    "extensions.execute",
    "src.page.addrepository",
    "002-tests",
    "src.diffutils",
    "src.changeset.text",
    "system",
    "src.page.search",
    "input.customization.linktypes",
    "src.reviewing.comment",
    "operation.fetchlines",
    "001-main.001-empty.002-authenticated.008-repositories",
    "dbutils.session",
    "migrations.dbschema.altertable.reviewrecipientfilters.uid-can-be-null",
    "tests.001-main.003-self.017-showcommit-merge-replay",
    "migrations.dbschema.createindex.misc",
    "src.page.showtree",
    "src.auth.providers",
    "testing.tests.001-main.001-empty.003-criticctl",
    "background.utils",
    "analyze",
    "001-main.004-extensions.002-tests.001-tutorial",
    "003-self.007-http-backend",
    "providers.google",
    "dbschema.review-constraints-tweaking",
    "002-tests.002-manageextensions",
    "tests.001-main.004-extensions.002-tests.004-TestExtension.009-error-messages",
    "001-main.003-self.006-showreview-reviewfilter",
    "src.operation.recipientfilter",
    "testing.tests.001-main.001-empty.001-anonymous.008-repositories",
    "005-unittests",
    "extensions.role",
    "001-empty.003-criticctl.005-configtest",
    "src.textformatting",
    "001-newswriter",
    "003-self.020-fixup-review-via-push",
    "001-dashboard",
    "testing.tests.001-main.001-empty.002-authenticated.003-search",
    "001-main.003-self.100-reviewing",
    "001-main.004-extensions.002-tests.004-TestExtension.014-Repository.run",
    "021-updatereview-bogus",
    "src.operation.manipulatecomment",
    "001-main.001-empty.001-anonymous.011-manageextensions",
    "001-main.001-empty.004-mixed.001-newswriter",
    "src.operation.unittest",
    "testing.tests.001-main.003-self.005-checkbranch",
    "filterchanges",
    "templates.configuration.limits",
    "testing.tests.001-main.003-self.028-gitemails",
    "001-local.002-operation",
    "src.background.branchtrackerhook",
    "testing.tools.upgrade",
    "src.background.watchdog",
    "003-self.020-reviewrebase",
    "migrations.dbschema.altertable.repositories.drop.relay",
    "testing.tests.002-late-upgrade",
    "dbschema.altertable.commentchainlines.drop.commit",
    "004-extensions.002-tests",
    "request",
    "page.showreviewlog",
    "001-comments.basic",
    "tests.001-main.001-empty.002-authenticated.007-home",
    "src.cli",
    "001-main.001-empty",
    "text",
    "savesettings",
    "004-post-upgrade.001-extensions.001-version",
    "001-main.001-empty.004-mixed.003-oauth",
    "006-restart",
    "tests.001-main.001-empty.004-mixed",
    "testing.tests.001-main.001-empty.001-anonymous.100-preferences.003-timezone",
    "installation.migrations.dbschema.altertable.usergitemails",
    "001-main.003-self.008-initial-commit-diff",
    "022-removereviewfilter-bogus",
    "upgrade",
    "changeset.process",
    "installation.templates.configuration.debug",
    "001-main.003-self.012-createreview-recipients",
    "operation.basictypes_unittest",
    "tests.001-main.005-unittests.001-local.001-independence",
    "providers.dummy",
    "editresource",
    "news.filter-system-rewrite",
    "002-tests.004-TestExtension.009-error-messages",
    "testing.tests.001-main.003-self.020-fixup-review-via-push",
    "local",
    "migrations.installation.config-pyc-file-permissions",
    "001-main.003-self",
    "003-timezone",
    "testing.tests.001-main.001-empty.002-authenticated.011-manageextensions",
    "textutils",
    "002-createrepository",
    "inpututils",
    "resource",
    "src.base_unittest",
    "004-extensions.002-tests.004-TestExtension.011-User",
    "rebase",
    "027-whitespace-filenames",
    "syntaxhighlight.clexer",
    "testing.tests.002-late-upgrade.002-pre-upgrade",
    "src.operation.news",
    "dbaccess",
    "testing.tests.001-main.003-self.007-http-backend",
    "src.operation.manipulateassignments",
    "timezones",
    "fetchlines",
    "004-extensions.002-tests.004-TestExtension.007-version",
    "testing.tests.001-main.001-empty.001-anonymous.006-news",
    "002-late-upgrade.002-pre-upgrade.001-extensions.002-install-TestExtension",
    "002-email",
    "src.background.maintenance",
    "001-main.005-unittests.001-local.002-operation",
    "maintenance.dumppreferences",
    "reviewing.rebase",
    "src.dbutils",
    "log.commitset",
    "tests.001-main.004-extensions.002-tests.004-TestExtension.012-resources",
    "page.showfile",
    "review",
    "migrations",
    "role.processcommits",
    "001-main.004-extensions.002-tests.004-TestExtension.004-Review.list",
    "background.maildelivery",
    "005-MailTransaction",
    "tests.001-main.003-self.016-showcommit-ranges",
    "progress",
    "003-self.001-rulerColumn",
    "001-main.003-self.029-log-bogus",
    "001-main.003-self.004-first-review-created",
    "installation.migrations.installation.config-pyc-file-permissions",
    "src.page.repositories",
    "src.operation.basictypes_unittest",
    "004-TestExtension.013-storage",
    "blame",
    "001-main.004-extensions.002-tests.004-TestExtension",
    "tests.001-main.001-empty.002-authenticated.012-statistics",
    "001-main.003-self.027-whitespace-filenames",
    "mailbox",
    "installation",
    "limits",
    "dbschema.altertable.previousreachable.rebase.ondeletecascade",
    "admin",
    "log.html",
    "comment",
    "installation.migrations.dbschema.external-authentication",
    "testing.tests.001-main.002-createrepository",
    "010-restrictions",
    "020-reviewrebase",
    "dbschema.altertable.repositories.drop.relay",
    "statistics",
    "executables",
    "migrations.dbschema.altertable.commentchainlines.drop.commit",
    "changeset.create",
    "001-main.001-empty.003-criticctl.002-adduser-deluser",
    "unittest",
    "001-anonymous.002-branches",
    "templates.configuration.mimetypes",
    "src.extensions.role",
    "installation.migrations.dbschema.altertable.commentchainlines.drop.commit",
    "configuration",
    "003-binaryfile",
    "testing.tests.001-main.001-empty.001-anonymous.100-preferences.002-review.defaultOptOut",
    "syntaxhighlight.cpp",
    "auth.providers",
    "operation.trackedbranch",
    "src.reviewing.utils",
    "001-main.001-empty.001-anonymous.001-dashboard",
    "src.reviewing.comment.propagate",
    "src.extensions.execute",
    "migrations.preference.commit.diff.rulerColumn",
    "linktypes",
    "002-branches",
    "001-main.004-extensions.002-tests",
    "dbutils.unittest",
    "configuration.auth",
    "src.log",
    "001-empty.001-anonymous.100-preferences.003-timezone",
    "testing.tests.001-main.004-extensions.002-tests.004-TestExtension.012-resources",
    "001-anonymous.003-search",
    "src.operation.savesettings",
    "004-mixed.004-password",
    "tests.001-main.003-self.003-binaryfile",
    "src.background.githook",
    "004-createreview",
    "operation.recipientfilter",
    "testing.tests.001-main.003-self.027-whitespace-filenames",
    "tests.001-main.001-empty.004-mixed.001-newswriter",
    "004-mixed",
    "tests.001-main.005-unittests.001-local.002-operation",
    "010-createreview",
    "operation.autocompletedata",
    "diff.merge",
    "utils",
    "003-self.008-initial-commit-diff",
    "004-extensions.002-tests.002-manageextensions",
    "tests.001-main.004-extensions.002-tests.002-manageextensions",
    "parse",
    "initd",
    "001-anonymous.011-manageextensions",
    "src.extensions.role.page",
    "src.linkify",
    "dbutils.timezones",
    "001-independence",
    "tests.001-main.003-self.004-createreview",
    "001-empty.002-authenticated.005-tutorial",
    "generic",
    "news.review-quick-search",
    "004-extensions.002-tests.004-TestExtension.006-inject",
    "html",
    "002-pre-upgrade",
    "src.maintenance.check-commits",
    "propagate",
    "typechecker_unittest",
    "reviewing.html",
    "004-TestExtension.010-restrictions",
    "src.reviewing.rebase",
    "011-manageextensions",
    "tests.001-main.001-empty.001-anonymous.001-dashboard",
    "001-version",
    "testing.tests.001-main.001-empty.001-anonymous.003-search",
    "001-main.001-empty.001-anonymous.010-createreview",
    "001-main.001-empty.002-authenticated",
    "testing.tests.001-main.001-empty.002-authenticated.009-services",
    "tests.001-main.004-extensions.002-tests.004-TestExtension.007-version",
    "testing.tests.001-main.003-self.021-updatereview-bogus",
    "src.htmlutils_unittest",
    "processcommits",
    "001-main.003-self.003-binaryfile",
    "typechecker",
    "005-install-SystemExtension",
    "testing.input",
    "src.dbutils.unittest",
    "001-main.001-empty.002-authenticated.002-branches",
    "testing.tests.001-main.001-empty.004-mixed",
    "src.page.news",
    "src.page.tutorial",
    "001-main.003-self.019-showtree-showfile-bogus",
    "003-install-TestExtension",
    "001-main.001-empty.001-anonymous.005-tutorial",
    "tests.001-main.003-self.020-reviewrebase",
    "003-self.025-trackedbranch",
    "001-main.000-install",
    "001-empty.002-authenticated.001-dashboard",
    "001-empty",
    "tests.001-main.003-self",
    "servicemanager",
    "changeset.utils",
    "testing.tests.002-late-upgrade.004-post-upgrade.001-extensions.001-version",
    "testing.tests.002-late-upgrade.004-post-upgrade",
    "testing.tests.002-late-upgrade.002-pre-upgrade.001-extensions.001-enable",
    "tests",
    "testing.tests.001-main.003-self.016-showcommit-ranges",
    "testing.tests.001-main.003-self.011-linkification-custom",
    "clexer",
    "src.maintenance.criticctl",
    "tests.001-main.001-empty.001-anonymous.009-services",
    "installation.criticctl",
    "testing.tests.001-main.004-extensions.002-tests.004-TestExtension.004-Review.list",
    "002-tests.004-TestExtension.999-missing",
    "tests.001-main.003-self.018-detect-moves-no-moved-code",
    "003-self.029-log-bogus",
    "testing.tests.001-main.001-empty.003-criticctl.005-configtest",
    "001-main.004-extensions.002-tests.004-TestExtension.003-empty",
    "operation.manipulatereview",
    "004-extensions.002-tests.001-tutorial",
    "003-upgrade",
    "page",
    "installation.migrations.dbschema.createtable.timezones",
    "syntaxhighlight",
    "001-main.001-empty.001-anonymous.012-statistics",
    "installation.templates.configuration.database",
    "004-TestExtension.009-error-messages",
    "tests.001-main.003-self.012-createreview-recipients",
    "testing.tests.001-main.004-extensions.002-tests.002-manageextensions",
    "src.dbutils.branch",
    "home",
    "installation.migrate",
    "001-main.003-self.020-fixup-review-via-push",
    "branchtracker",
    "installation.templates.configuration.smtp",
    "basictypes_unittest",
    "002-tests.001-tutorial",
    "inject",
    "provider",
    "testing.tests.001-main.001-empty.001-anonymous",
    "001-main.001-empty.002-authenticated.012-statistics",
    "src.mailutils",
    "communicate",
    "operation.unittest",
    "testing.tests.001-main.001-empty.003-criticctl.001-basic",
    "testing.tests.001-main.003-self.100-reviewing",
    "src.auth.providers.google",
    "showcommit",
    "src.extensions.utils",
    "testing.tests.001-main.001-empty.002-authenticated.006-news",
    "src",
    "003-self.011-linkification-custom",
    "extensions.utils",
    "extension",
    "maintenance.check-commits",
    "branchtrackerhook",
    "manipulatecomment",
    "001-empty.004-mixed",
    "page.confirmmerge",
    "003-self",
    "src.operation.manipulatereview",
    "testing.tests.001-main.001-empty.003-criticctl.002-adduser-deluser",
    "tests.002-late-upgrade",
    "background.changeset",
    "page.tutorial",
    "extensions.extension",
    "reviewing.comment",
    "coverage",
    "src.extensions.installation",
    "003-criticctl.005-configtest",
    "src.diff.parse",
    "testing.tests.001-main",
    "000-install",
    "rebasereview",
    "002-pre-upgrade.001-extensions.002-install-TestExtension",
    "watchdog",
    "src.wsgistartup",
    "004-TestExtension.008-processcommits",
    "virtualbox",
    "001-main.003-self.016-showcommit-ranges",
    "extensioninstallation",
    "testing.tests.001-main.003-self.004-first-review-created",
    "tests.001-main.003-self.012-replayrebase",
    "log",
    "recipientfilter",
    "011-User",
    "001-empty.001-anonymous.010-createreview",
    "installation.templates",
    "githook",
    "testing.tests.001-main.001-empty.004-mixed.003-oauth",
    "src.dbutils.review",
    "src.auth.providers.dummy",
    "001-empty.001-anonymous.003-search",
    "007-version",
    "src.dbutils.system",
    "001-empty.002-authenticated.003-search",
    "checkrebase",
    "background.branchtracker",
    "templates.configuration.base",
    "oauth",
    "testing.tests.001-main.001-empty.002-authenticated.010-createreview",
    "testing.tests.001-main.003-self.017-showcommit-merge-replay",
    "src.page.showbatch",
    "002-authenticated.007-home",
    "src.diff.context",
    "prefs",
    "operation.typechecker_unittest",
    "tests.001-main.004-extensions.002-tests.004-TestExtension.014-Repository.run",
    "installation.migrations.news.review-quick-search",
    "src.page.checkbranch",
    "001-anonymous.004-config",
    "maintenance.criticctl",
    "src.dbutils.timezones",
    "src.syntaxhighlight.generate",
    "background.daemon",
    "manipulatereview",
    "001-anonymous.009-services",
    "testing.tests.001-main.001-empty.001-anonymous.002-branches",
    "tests.002-late-upgrade.002-pre-upgrade.001-extensions.002-install-TestExtension",
    "src.log.commitset",
    "004-listusers",
    "installation.migrations.dbschema.review-constraints-tweaking",
    "001-main.001-empty.001-anonymous.004-config",
    "tests.001-main.003-self.019-showtree-showfile-bogus",
    "src.operation.servicemanager",
    "registeruser",
    "operation.rebasereview",
    "001-main.004-extensions.002-tests.004-TestExtension.005-MailTransaction",
    "001-main.004-extensions.002-tests.004-TestExtension.009-error-messages",
    "004-Review.list",
    "014-Repository.run",
    "managereviewers",
    "001-extensions.001-version",
    "operation",
    "013-static-resource",
    "010-linkification",
    "002-authenticated.001-dashboard",
    "tests.001-main.004-extensions.002-tests.004-TestExtension.005-MailTransaction",
    "branch",
    "src.extensions.role.inject",
    "tests.001-main.001-empty.003-criticctl.002-adduser-deluser",
    "004-first-review-created.001-addreviewfilters-bogus",
    "detectmoves",
    "001-main.001-empty.002-authenticated.009-services",
    "mimetypes",
    "003-self.010-linkification",
    "testing.tests.001-main.003-self.025-trackedbranch",
    "textutils_unittest",
    "customization.githook",
    "page.parameters",
    "tests.001-main.001-empty.001-anonymous.100-preferences.002-review.defaultOptOut",
    "003-self.026-searchreview",
    "tests.001-main.001-empty.001-anonymous.007-home",
    "009-fetchremotebranch",
    "templates.configuration.executables",
    "page.showcommit",
    "tests.001-main.001-empty.001-anonymous.011-manageextensions",
    "customization.linktypes",
    "src.changeset.utils",
    "migrations.dbschema.altertable.systemidentities.add.installed_sha1.installed_at",
    "operation.searchreview",
    "src.page.branches",
    "templates.configuration.extensions",
    "cpp",
    "001-main.005-unittests.001-local.001-independence"
]