{
    "archive_url": "https://api.github.com/repos/eldarion/django-oauth-access/{archive_format}{/ref}",
    "assignees_url": "https://api.github.com/repos/eldarion/django-oauth-access/assignees{/user}",
    "blobs_url": "https://api.github.com/repos/eldarion/django-oauth-access/git/blobs{/sha}",
    "branches_url": "https://api.github.com/repos/eldarion/django-oauth-access/branches{/branch}",
    "clone_url": "https://github.com/eldarion/django-oauth-access.git",
    "collaborators_url": "https://api.github.com/repos/eldarion/django-oauth-access/collaborators{/collaborator}",
    "comments_url": "https://api.github.com/repos/eldarion/django-oauth-access/comments{/number}",
    "commits_url": "https://api.github.com/repos/eldarion/django-oauth-access/commits{/sha}",
    "compare_url": "https://api.github.com/repos/eldarion/django-oauth-access/compare/{base}...{head}",
    "contents_url": "https://api.github.com/repos/eldarion/django-oauth-access/contents/{+path}",
    "contributors_url": "https://api.github.com/repos/eldarion/django-oauth-access/contributors",
    "created_at": "2010-01-13T05:51:06Z",
    "default_branch": "master",
    "description": "centralized OAuth access to OAuth providers in Django",
    "downloads_url": "https://api.github.com/repos/eldarion/django-oauth-access/downloads",
    "events_url": "https://api.github.com/repos/eldarion/django-oauth-access/events",
    "fork": false,
    "forks": 33,
    "forks_count": 33,
    "forks_url": "https://api.github.com/repos/eldarion/django-oauth-access/forks",
    "full_name": "eldarion/django-oauth-access",
    "git_commits_url": "https://api.github.com/repos/eldarion/django-oauth-access/git/commits{/sha}",
    "git_refs_url": "https://api.github.com/repos/eldarion/django-oauth-access/git/refs{/sha}",
    "git_tags_url": "https://api.github.com/repos/eldarion/django-oauth-access/git/tags{/sha}",
    "git_url": "git://github.com/eldarion/django-oauth-access.git",
    "has_downloads": true,
    "has_issues": true,
    "has_wiki": true,
    "homepage": "",
    "hooks_url": "https://api.github.com/repos/eldarion/django-oauth-access/hooks",
    "html_url": "https://github.com/eldarion/django-oauth-access",
    "id": 469961,
    "issue_comment_url": "https://api.github.com/repos/eldarion/django-oauth-access/issues/comments/{number}",
    "issue_events_url": "https://api.github.com/repos/eldarion/django-oauth-access/issues/events{/number}",
    "issues_url": "https://api.github.com/repos/eldarion/django-oauth-access/issues{/number}",
    "keys_url": "https://api.github.com/repos/eldarion/django-oauth-access/keys{/key_id}",
    "labels_url": "https://api.github.com/repos/eldarion/django-oauth-access/labels{/name}",
    "language": "Python",
    "languages_url": "https://api.github.com/repos/eldarion/django-oauth-access/languages",
    "merges_url": "https://api.github.com/repos/eldarion/django-oauth-access/merges",
    "milestones_url": "https://api.github.com/repos/eldarion/django-oauth-access/milestones{/number}",
    "mirror_url": null,
    "name": "django-oauth-access",
    "notifications_url": "https://api.github.com/repos/eldarion/django-oauth-access/notifications{?since,all,participating}",
    "open_issues": 6,
    "open_issues_count": 6,
    "owner": {
        "avatar_url": "https://avatars.githubusercontent.com/u/60045?",
        "events_url": "https://api.github.com/users/eldarion/events{/privacy}",
        "followers_url": "https://api.github.com/users/eldarion/followers",
        "following_url": "https://api.github.com/users/eldarion/following{/other_user}",
        "gists_url": "https://api.github.com/users/eldarion/gists{/gist_id}",
        "gravatar_id": "cceb48375f16e2a05082ea6f7cce1140",
        "html_url": "https://github.com/eldarion",
        "id": 60045,
        "login": "eldarion",
        "organizations_url": "https://api.github.com/users/eldarion/orgs",
        "received_events_url": "https://api.github.com/users/eldarion/received_events",
        "repos_url": "https://api.github.com/users/eldarion/repos",
        "site_admin": false,
        "starred_url": "https://api.github.com/users/eldarion/starred{/owner}{/repo}",
        "subscriptions_url": "https://api.github.com/users/eldarion/subscriptions",
        "type": "Organization",
        "url": "https://api.github.com/users/eldarion"
    },
    "private": false,
    "pulls_url": "https://api.github.com/repos/eldarion/django-oauth-access/pulls{/number}",
    "pushed_at": "2012-07-19T07:08:18Z",
    "releases_url": "https://api.github.com/repos/eldarion/django-oauth-access/releases{/id}",
    "score": 1.0,
    "size": 360,
    "ssh_url": "git@github.com:eldarion/django-oauth-access.git",
    "stargazers_count": 106,
    "stargazers_url": "https://api.github.com/repos/eldarion/django-oauth-access/stargazers",
    "statuses_url": "https://api.github.com/repos/eldarion/django-oauth-access/statuses/{sha}",
    "subscribers_url": "https://api.github.com/repos/eldarion/django-oauth-access/subscribers",
    "subscription_url": "https://api.github.com/repos/eldarion/django-oauth-access/subscription",
    "svn_url": "https://github.com/eldarion/django-oauth-access",
    "tags_url": "https://api.github.com/repos/eldarion/django-oauth-access/tags",
    "teams_url": "https://api.github.com/repos/eldarion/django-oauth-access/teams",
    "trees_url": "https://api.github.com/repos/eldarion/django-oauth-access/git/trees{/sha}",
    "updated_at": "2013-11-26T09:57:31Z",
    "url": "https://api.github.com/repos/eldarion/django-oauth-access",
    "watchers": 106,
    "watchers_count": 106
}