[
    "oauth_access.utils",
    "oauth_access.templatetags.oauth_access_tags",
    "oauth_access.urls",
    "models",
    "docs",
    "utils",
    "loader",
    "oauth_access",
    "conf",
    "oauth_access.callback",
    "oauth_access.models",
    "oauth_access.utils.anyetree",
    "oauth_access.templatetags",
    "docs.conf",
    "oauth_access.utils.loader",
    "oauth_access.views",
    "docs.settings",
    "settings",
    "views",
    "oauth_access_tags",
    "templatetags",
    "utils.loader",
    "templatetags.oauth_access_tags",
    "access",
    "callback",
    "oauth_access.access",
    "urls",
    "anyetree",
    "exceptions",
    "oauth_access.exceptions",
    "utils.anyetree"
]