{
    "archive_url": "https://api.github.com/repos/asenchi/proclaim/{archive_format}{/ref}",
    "assignees_url": "https://api.github.com/repos/asenchi/proclaim/assignees{/user}",
    "blobs_url": "https://api.github.com/repos/asenchi/proclaim/git/blobs{/sha}",
    "branches_url": "https://api.github.com/repos/asenchi/proclaim/branches{/branch}",
    "clone_url": "https://github.com/asenchi/proclaim.git",
    "collaborators_url": "https://api.github.com/repos/asenchi/proclaim/collaborators{/collaborator}",
    "comments_url": "https://api.github.com/repos/asenchi/proclaim/comments{/number}",
    "commits_url": "https://api.github.com/repos/asenchi/proclaim/commits{/sha}",
    "compare_url": "https://api.github.com/repos/asenchi/proclaim/compare/{base}...{head}",
    "contents_url": "https://api.github.com/repos/asenchi/proclaim/contents/{+path}",
    "contributors_url": "https://api.github.com/repos/asenchi/proclaim/contributors",
    "created_at": "2010-07-18T14:27:28Z",
    "default_branch": "master",
    "description": "Conditionally roll out features with redis. (Python version of James Golick's http://github.com/jamesgolick/rollout) ",
    "downloads_url": "https://api.github.com/repos/asenchi/proclaim/downloads",
    "events_url": "https://api.github.com/repos/asenchi/proclaim/events",
    "fork": false,
    "forks": 6,
    "forks_count": 6,
    "forks_url": "https://api.github.com/repos/asenchi/proclaim/forks",
    "full_name": "asenchi/proclaim",
    "git_commits_url": "https://api.github.com/repos/asenchi/proclaim/git/commits{/sha}",
    "git_refs_url": "https://api.github.com/repos/asenchi/proclaim/git/refs{/sha}",
    "git_tags_url": "https://api.github.com/repos/asenchi/proclaim/git/tags{/sha}",
    "git_url": "git://github.com/asenchi/proclaim.git",
    "has_downloads": true,
    "has_issues": true,
    "has_wiki": true,
    "homepage": "",
    "hooks_url": "https://api.github.com/repos/asenchi/proclaim/hooks",
    "html_url": "https://github.com/asenchi/proclaim",
    "id": 781771,
    "issue_comment_url": "https://api.github.com/repos/asenchi/proclaim/issues/comments/{number}",
    "issue_events_url": "https://api.github.com/repos/asenchi/proclaim/issues/events{/number}",
    "issues_url": "https://api.github.com/repos/asenchi/proclaim/issues{/number}",
    "keys_url": "https://api.github.com/repos/asenchi/proclaim/keys{/key_id}",
    "labels_url": "https://api.github.com/repos/asenchi/proclaim/labels{/name}",
    "language": "Python",
    "languages_url": "https://api.github.com/repos/asenchi/proclaim/languages",
    "merges_url": "https://api.github.com/repos/asenchi/proclaim/merges",
    "milestones_url": "https://api.github.com/repos/asenchi/proclaim/milestones{/number}",
    "mirror_url": null,
    "name": "proclaim",
    "notifications_url": "https://api.github.com/repos/asenchi/proclaim/notifications{?since,all,participating}",
    "open_issues": 1,
    "open_issues_count": 1,
    "owner": {
        "avatar_url": "https://avatars.githubusercontent.com/u/1329?",
        "events_url": "https://api.github.com/users/asenchi/events{/privacy}",
        "followers_url": "https://api.github.com/users/asenchi/followers",
        "following_url": "https://api.github.com/users/asenchi/following{/other_user}",
        "gists_url": "https://api.github.com/users/asenchi/gists{/gist_id}",
        "gravatar_id": "41e3a9fab9e827d582caf8b2464140d5",
        "html_url": "https://github.com/asenchi",
        "id": 1329,
        "login": "asenchi",
        "organizations_url": "https://api.github.com/users/asenchi/orgs",
        "received_events_url": "https://api.github.com/users/asenchi/received_events",
        "repos_url": "https://api.github.com/users/asenchi/repos",
        "site_admin": true,
        "starred_url": "https://api.github.com/users/asenchi/starred{/owner}{/repo}",
        "subscriptions_url": "https://api.github.com/users/asenchi/subscriptions",
        "type": "User",
        "url": "https://api.github.com/users/asenchi"
    },
    "private": false,
    "pulls_url": "https://api.github.com/repos/asenchi/proclaim/pulls{/number}",
    "pushed_at": "2010-11-02T14:44:59Z",
    "releases_url": "https://api.github.com/repos/asenchi/proclaim/releases{/id}",
    "score": 1.0,
    "size": 140,
    "ssh_url": "git@github.com:asenchi/proclaim.git",
    "stargazers_count": 64,
    "stargazers_url": "https://api.github.com/repos/asenchi/proclaim/stargazers",
    "statuses_url": "https://api.github.com/repos/asenchi/proclaim/statuses/{sha}",
    "subscribers_url": "https://api.github.com/repos/asenchi/proclaim/subscribers",
    "subscription_url": "https://api.github.com/repos/asenchi/proclaim/subscription",
    "svn_url": "https://github.com/asenchi/proclaim",
    "tags_url": "https://api.github.com/repos/asenchi/proclaim/tags",
    "teams_url": "https://api.github.com/repos/asenchi/proclaim/teams",
    "trees_url": "https://api.github.com/repos/asenchi/proclaim/git/trees{/sha}",
    "updated_at": "2014-01-13T15:16:05Z",
    "url": "https://api.github.com/repos/asenchi/proclaim",
    "watchers": 64,
    "watchers_count": 64
}