{
    "archive_url": "https://api.github.com/repos/pinard/Pymacs/{archive_format}{/ref}",
    "assignees_url": "https://api.github.com/repos/pinard/Pymacs/assignees{/user}",
    "blobs_url": "https://api.github.com/repos/pinard/Pymacs/git/blobs{/sha}",
    "branches_url": "https://api.github.com/repos/pinard/Pymacs/branches{/branch}",
    "clone_url": "https://github.com/pinard/Pymacs.git",
    "collaborators_url": "https://api.github.com/repos/pinard/Pymacs/collaborators{/collaborator}",
    "comments_url": "https://api.github.com/repos/pinard/Pymacs/comments{/number}",
    "commits_url": "https://api.github.com/repos/pinard/Pymacs/commits{/sha}",
    "compare_url": "https://api.github.com/repos/pinard/Pymacs/compare/{base}...{head}",
    "contents_url": "https://api.github.com/repos/pinard/Pymacs/contents/{+path}",
    "contributors_url": "https://api.github.com/repos/pinard/Pymacs/contributors",
    "created_at": "2009-09-27T20:51:01Z",
    "default_branch": "master",
    "description": "Emacs to Python interface",
    "downloads_url": "https://api.github.com/repos/pinard/Pymacs/downloads",
    "events_url": "https://api.github.com/repos/pinard/Pymacs/events",
    "fork": false,
    "forks": 36,
    "forks_count": 36,
    "forks_url": "https://api.github.com/repos/pinard/Pymacs/forks",
    "full_name": "pinard/Pymacs",
    "git_commits_url": "https://api.github.com/repos/pinard/Pymacs/git/commits{/sha}",
    "git_refs_url": "https://api.github.com/repos/pinard/Pymacs/git/refs{/sha}",
    "git_tags_url": "https://api.github.com/repos/pinard/Pymacs/git/tags{/sha}",
    "git_url": "git://github.com/pinard/Pymacs.git",
    "has_downloads": true,
    "has_issues": true,
    "has_wiki": true,
    "homepage": "pymacs.progiciels-bpi.ca",
    "hooks_url": "https://api.github.com/repos/pinard/Pymacs/hooks",
    "html_url": "https://github.com/pinard/Pymacs",
    "id": 319311,
    "issue_comment_url": "https://api.github.com/repos/pinard/Pymacs/issues/comments/{number}",
    "issue_events_url": "https://api.github.com/repos/pinard/Pymacs/issues/events{/number}",
    "issues_url": "https://api.github.com/repos/pinard/Pymacs/issues{/number}",
    "keys_url": "https://api.github.com/repos/pinard/Pymacs/keys{/key_id}",
    "labels_url": "https://api.github.com/repos/pinard/Pymacs/labels{/name}",
    "language": "Python",
    "languages_url": "https://api.github.com/repos/pinard/Pymacs/languages",
    "merges_url": "https://api.github.com/repos/pinard/Pymacs/merges",
    "milestones_url": "https://api.github.com/repos/pinard/Pymacs/milestones{/number}",
    "mirror_url": null,
    "name": "Pymacs",
    "notifications_url": "https://api.github.com/repos/pinard/Pymacs/notifications{?since,all,participating}",
    "open_issues": 18,
    "open_issues_count": 18,
    "owner": {
        "avatar_url": "https://avatars.githubusercontent.com/u/131405?",
        "events_url": "https://api.github.com/users/pinard/events{/privacy}",
        "followers_url": "https://api.github.com/users/pinard/followers",
        "following_url": "https://api.github.com/users/pinard/following{/other_user}",
        "gists_url": "https://api.github.com/users/pinard/gists{/gist_id}",
        "gravatar_id": "8a47722ec9cfd9702f7abefaefa22482",
        "html_url": "https://github.com/pinard",
        "id": 131405,
        "login": "pinard",
        "organizations_url": "https://api.github.com/users/pinard/orgs",
        "received_events_url": "https://api.github.com/users/pinard/received_events",
        "repos_url": "https://api.github.com/users/pinard/repos",
        "site_admin": false,
        "starred_url": "https://api.github.com/users/pinard/starred{/owner}{/repo}",
        "subscriptions_url": "https://api.github.com/users/pinard/subscriptions",
        "type": "User",
        "url": "https://api.github.com/users/pinard"
    },
    "private": false,
    "pulls_url": "https://api.github.com/repos/pinard/Pymacs/pulls{/number}",
    "pushed_at": "2014-03-02T12:41:16Z",
    "releases_url": "https://api.github.com/repos/pinard/Pymacs/releases{/id}",
    "score": 1.0,
    "size": 1685,
    "ssh_url": "git@github.com:pinard/Pymacs.git",
    "stargazers_count": 229,
    "stargazers_url": "https://api.github.com/repos/pinard/Pymacs/stargazers",
    "statuses_url": "https://api.github.com/repos/pinard/Pymacs/statuses/{sha}",
    "subscribers_url": "https://api.github.com/repos/pinard/Pymacs/subscribers",
    "subscription_url": "https://api.github.com/repos/pinard/Pymacs/subscription",
    "svn_url": "https://github.com/pinard/Pymacs",
    "tags_url": "https://api.github.com/repos/pinard/Pymacs/tags",
    "teams_url": "https://api.github.com/repos/pinard/Pymacs/teams",
    "trees_url": "https://api.github.com/repos/pinard/Pymacs/git/trees{/sha}",
    "updated_at": "2014-05-07T05:48:55Z",
    "url": "https://api.github.com/repos/pinard/Pymacs",
    "watchers": 229,
    "watchers_count": 229
}