{
    "libs": [
        "files",
        "cStringIO",
        "management",
        "defaults",
        "StringIO",
        "shortcuts",
        "safestring",
        "db",
        "urllib2",
        "modelsinspector",
        "django",
        "sys",
        "imp",
        "urllib",
        "conf",
        "test",
        "re",
        "translation",
        "os"
    ]
}