{
    "archive_url": "https://api.github.com/repos/ibagrak/algae/{archive_format}{/ref}",
    "assignees_url": "https://api.github.com/repos/ibagrak/algae/assignees{/user}",
    "blobs_url": "https://api.github.com/repos/ibagrak/algae/git/blobs{/sha}",
    "branches_url": "https://api.github.com/repos/ibagrak/algae/branches{/branch}",
    "clone_url": "https://github.com/ibagrak/algae.git",
    "collaborators_url": "https://api.github.com/repos/ibagrak/algae/collaborators{/collaborator}",
    "comments_url": "https://api.github.com/repos/ibagrak/algae/comments{/number}",
    "commits_url": "https://api.github.com/repos/ibagrak/algae/commits{/sha}",
    "compare_url": "https://api.github.com/repos/ibagrak/algae/compare/{base}...{head}",
    "contents_url": "https://api.github.com/repos/ibagrak/algae/contents/{+path}",
    "contributors_url": "https://api.github.com/repos/ibagrak/algae/contributors",
    "created_at": "2012-03-31T00:23:28Z",
    "default_branch": "master",
    "description": "Algae is an application template for Google App Engine",
    "downloads_url": "https://api.github.com/repos/ibagrak/algae/downloads",
    "events_url": "https://api.github.com/repos/ibagrak/algae/events",
    "fork": false,
    "forks": 8,
    "forks_count": 8,
    "forks_url": "https://api.github.com/repos/ibagrak/algae/forks",
    "full_name": "ibagrak/algae",
    "git_commits_url": "https://api.github.com/repos/ibagrak/algae/git/commits{/sha}",
    "git_refs_url": "https://api.github.com/repos/ibagrak/algae/git/refs{/sha}",
    "git_tags_url": "https://api.github.com/repos/ibagrak/algae/git/tags{/sha}",
    "git_url": "git://github.com/ibagrak/algae.git",
    "has_downloads": true,
    "has_issues": true,
    "has_wiki": true,
    "homepage": "http://green-algae.appspot.com",
    "hooks_url": "https://api.github.com/repos/ibagrak/algae/hooks",
    "html_url": "https://github.com/ibagrak/algae",
    "id": 3882120,
    "issue_comment_url": "https://api.github.com/repos/ibagrak/algae/issues/comments/{number}",
    "issue_events_url": "https://api.github.com/repos/ibagrak/algae/issues/events{/number}",
    "issues_url": "https://api.github.com/repos/ibagrak/algae/issues{/number}",
    "keys_url": "https://api.github.com/repos/ibagrak/algae/keys{/key_id}",
    "labels_url": "https://api.github.com/repos/ibagrak/algae/labels{/name}",
    "language": "Python",
    "languages_url": "https://api.github.com/repos/ibagrak/algae/languages",
    "merges_url": "https://api.github.com/repos/ibagrak/algae/merges",
    "milestones_url": "https://api.github.com/repos/ibagrak/algae/milestones{/number}",
    "mirror_url": null,
    "name": "algae",
    "notifications_url": "https://api.github.com/repos/ibagrak/algae/notifications{?since,all,participating}",
    "open_issues": 3,
    "open_issues_count": 3,
    "owner": {
        "avatar_url": "https://avatars.githubusercontent.com/u/330495?",
        "events_url": "https://api.github.com/users/ibagrak/events{/privacy}",
        "followers_url": "https://api.github.com/users/ibagrak/followers",
        "following_url": "https://api.github.com/users/ibagrak/following{/other_user}",
        "gists_url": "https://api.github.com/users/ibagrak/gists{/gist_id}",
        "gravatar_id": "66f8af065d779f14af147bee0fdd87c9",
        "html_url": "https://github.com/ibagrak",
        "id": 330495,
        "login": "ibagrak",
        "organizations_url": "https://api.github.com/users/ibagrak/orgs",
        "received_events_url": "https://api.github.com/users/ibagrak/received_events",
        "repos_url": "https://api.github.com/users/ibagrak/repos",
        "site_admin": false,
        "starred_url": "https://api.github.com/users/ibagrak/starred{/owner}{/repo}",
        "subscriptions_url": "https://api.github.com/users/ibagrak/subscriptions",
        "type": "User",
        "url": "https://api.github.com/users/ibagrak"
    },
    "private": false,
    "pulls_url": "https://api.github.com/repos/ibagrak/algae/pulls{/number}",
    "pushed_at": "2012-12-28T22:41:46Z",
    "releases_url": "https://api.github.com/repos/ibagrak/algae/releases{/id}",
    "score": 1.0,
    "size": 8299,
    "ssh_url": "git@github.com:ibagrak/algae.git",
    "stargazers_count": 45,
    "stargazers_url": "https://api.github.com/repos/ibagrak/algae/stargazers",
    "statuses_url": "https://api.github.com/repos/ibagrak/algae/statuses/{sha}",
    "subscribers_url": "https://api.github.com/repos/ibagrak/algae/subscribers",
    "subscription_url": "https://api.github.com/repos/ibagrak/algae/subscription",
    "svn_url": "https://github.com/ibagrak/algae",
    "tags_url": "https://api.github.com/repos/ibagrak/algae/tags",
    "teams_url": "https://api.github.com/repos/ibagrak/algae/teams",
    "trees_url": "https://api.github.com/repos/ibagrak/algae/git/trees{/sha}",
    "updated_at": "2014-03-12T14:48:17Z",
    "url": "https://api.github.com/repos/ibagrak/algae",
    "watchers": 45,
    "watchers_count": 45
}