{
    "archive_url": "https://api.github.com/repos/waawal/undead/{archive_format}{/ref}",
    "assignees_url": "https://api.github.com/repos/waawal/undead/assignees{/user}",
    "blobs_url": "https://api.github.com/repos/waawal/undead/git/blobs{/sha}",
    "branches_url": "https://api.github.com/repos/waawal/undead/branches{/branch}",
    "clone_url": "https://github.com/waawal/undead.git",
    "collaborators_url": "https://api.github.com/repos/waawal/undead/collaborators{/collaborator}",
    "comments_url": "https://api.github.com/repos/waawal/undead/comments{/number}",
    "commits_url": "https://api.github.com/repos/waawal/undead/commits{/sha}",
    "compare_url": "https://api.github.com/repos/waawal/undead/compare/{base}...{head}",
    "contents_url": "https://api.github.com/repos/waawal/undead/contents/{+path}",
    "contributors_url": "https://api.github.com/repos/waawal/undead/contributors",
    "created_at": "2013-07-08T10:34:43Z",
    "default_branch": "develop",
    "description": "Dead Easy POSIX Daemons for Python (with sane defaults)",
    "downloads_url": "https://api.github.com/repos/waawal/undead/downloads",
    "events_url": "https://api.github.com/repos/waawal/undead/events",
    "fork": false,
    "forks": 4,
    "forks_count": 4,
    "forks_url": "https://api.github.com/repos/waawal/undead/forks",
    "full_name": "waawal/undead",
    "git_commits_url": "https://api.github.com/repos/waawal/undead/git/commits{/sha}",
    "git_refs_url": "https://api.github.com/repos/waawal/undead/git/refs{/sha}",
    "git_tags_url": "https://api.github.com/repos/waawal/undead/git/tags{/sha}",
    "git_url": "git://github.com/waawal/undead.git",
    "has_downloads": true,
    "has_issues": true,
    "has_wiki": false,
    "homepage": "",
    "hooks_url": "https://api.github.com/repos/waawal/undead/hooks",
    "html_url": "https://github.com/waawal/undead",
    "id": 11251830,
    "issue_comment_url": "https://api.github.com/repos/waawal/undead/issues/comments/{number}",
    "issue_events_url": "https://api.github.com/repos/waawal/undead/issues/events{/number}",
    "issues_url": "https://api.github.com/repos/waawal/undead/issues{/number}",
    "keys_url": "https://api.github.com/repos/waawal/undead/keys{/key_id}",
    "labels_url": "https://api.github.com/repos/waawal/undead/labels{/name}",
    "language": "Python",
    "languages_url": "https://api.github.com/repos/waawal/undead/languages",
    "merges_url": "https://api.github.com/repos/waawal/undead/merges",
    "milestones_url": "https://api.github.com/repos/waawal/undead/milestones{/number}",
    "mirror_url": null,
    "name": "undead",
    "notifications_url": "https://api.github.com/repos/waawal/undead/notifications{?since,all,participating}",
    "open_issues": 0,
    "open_issues_count": 0,
    "owner": {
        "avatar_url": "https://avatars.githubusercontent.com/u/961734?",
        "events_url": "https://api.github.com/users/waawal/events{/privacy}",
        "followers_url": "https://api.github.com/users/waawal/followers",
        "following_url": "https://api.github.com/users/waawal/following{/other_user}",
        "gists_url": "https://api.github.com/users/waawal/gists{/gist_id}",
        "gravatar_id": "87b509c79477a547d989727802c5cfd6",
        "html_url": "https://github.com/waawal",
        "id": 961734,
        "login": "waawal",
        "organizations_url": "https://api.github.com/users/waawal/orgs",
        "received_events_url": "https://api.github.com/users/waawal/received_events",
        "repos_url": "https://api.github.com/users/waawal/repos",
        "site_admin": false,
        "starred_url": "https://api.github.com/users/waawal/starred{/owner}{/repo}",
        "subscriptions_url": "https://api.github.com/users/waawal/subscriptions",
        "type": "User",
        "url": "https://api.github.com/users/waawal"
    },
    "private": false,
    "pulls_url": "https://api.github.com/repos/waawal/undead/pulls{/number}",
    "pushed_at": "2013-07-30T20:29:02Z",
    "releases_url": "https://api.github.com/repos/waawal/undead/releases{/id}",
    "score": 1.0,
    "size": 220,
    "ssh_url": "git@github.com:waawal/undead.git",
    "stargazers_count": 184,
    "stargazers_url": "https://api.github.com/repos/waawal/undead/stargazers",
    "statuses_url": "https://api.github.com/repos/waawal/undead/statuses/{sha}",
    "subscribers_url": "https://api.github.com/repos/waawal/undead/subscribers",
    "subscription_url": "https://api.github.com/repos/waawal/undead/subscription",
    "svn_url": "https://github.com/waawal/undead",
    "tags_url": "https://api.github.com/repos/waawal/undead/tags",
    "teams_url": "https://api.github.com/repos/waawal/undead/teams",
    "trees_url": "https://api.github.com/repos/waawal/undead/git/trees{/sha}",
    "updated_at": "2014-01-14T19:46:35Z",
    "url": "https://api.github.com/repos/waawal/undead",
    "watchers": 184,
    "watchers_count": 184
}