[
    "smiley.tests",
    "smiley.db_linecache",
    "hooks",
    "test_db",
    "tests.presentation",
    "syntax",
    "test_jsonutil",
    "smiley.presentation.syntax",
    "commands.listen_cmd",
    "smiley.commands.server",
    "test_uuidstack",
    "test_listener",
    "commands.stats",
    "web",
    "monitor",
    "smiley.tests.web",
    "source",
    "smiley.web.hooks",
    "commands.list",
    "smiley.presentation.pagination",
    "smiley.web.app",
    "presentation",
    "tests.test_util",
    "smiley.listener",
    "test_functional",
    "tests",
    "commands.record",
    "docs",
    "jsonutil",
    "db",
    "pagination",
    "tests.web",
    "listener",
    "web.controllers.files",
    "report",
    "presentation.pagination",
    "smiley.local",
    "tests.web.test_nav",
    "smiley.commands.list",
    "test_publisher",
    "list",
    "html",
    "server",
    "controllers",
    "presentation.stats",
    "output",
    "smiley.report",
    "test_tracer",
    "tracer",
    "presentation.trace",
    "test_util",
    "tests.test_uuidstack",
    "smiley.web.controllers.stats",
    "report.html",
    "tests.test_publisher",
    "replay",
    "smiley.db",
    "smiley.util",
    "commands.report",
    "stats",
    "smiley.commands.run",
    "test_db_linecache",
    "smiley.processor",
    "smiley.presentation.trace",
    "smiley.presentation.stats",
    "smiley",
    "run",
    "tests.test_listener",
    "uuidstack",
    "controllers.stats",
    "smiley.tests.test_publisher",
    "smiley.commands.report",
    "smiley.commands.stats",
    "test_trace",
    "smiley.output",
    "test_pagination",
    "publisher",
    "commands",
    "web.app",
    "smiley.tests.test_uuidstack",
    "tests.test_tracer",
    "smiley.tests.web.test_nav",
    "processor",
    "smiley.publisher",
    "presentation.syntax",
    "tests.test_db",
    "app",
    "smiley.web",
    "smiley.commands.monitor",
    "smiley.tests.web.test_units",
    "smiley.commands",
    "smiley.web.controllers.files",
    "smiley.tests.test_jsonutil",
    "smiley.uuidstack",
    "web.config",
    "tests.test_db_linecache",
    "commands.run",
    "files",
    "web.controllers.root",
    "smiley.web.nav",
    "smiley.web.config",
    "smiley.tests.test_tracer",
    "source.conf",
    "tests.web.test_units",
    "smiley.commands.record",
    "test_nav",
    "smiley.app",
    "test_units",
    "local",
    "tests.presentation.test_pagination",
    "web.hooks",
    "tests.presentation.test_trace",
    "record",
    "docs.source.conf",
    "presentation.test_pagination",
    "root",
    "commands.monitor",
    "smiley.tests.test_db",
    "controllers.root",
    "test_app",
    "web.controllers",
    "commands.replay",
    "smiley.tests.test_listener",
    "web.test_units",
    "conf",
    "smiley.tests.presentation",
    "listen_cmd",
    "presentation.test_trace",
    "docs.source",
    "smiley.commands.listen_cmd",
    "smiley.tests.test_db_linecache",
    "web.controllers.runs",
    "test_app.test",
    "nav",
    "smiley.tests.web.test_functional",
    "test",
    "smiley.web.controllers.root",
    "config",
    "smiley.tests.presentation.test_trace",
    "test_funcs",
    "trace",
    "web.controllers.stats",
    "smiley.web.controllers.runs",
    "controllers.files",
    "test_app.test_funcs",
    "runs",
    "db_linecache",
    "web.test_nav",
    "smiley.jsonutil",
    "smiley.presentation",
    "util",
    "smiley.tests.test_util",
    "smiley.commands.replay",
    "tests.web.test_functional",
    "controllers.runs",
    "tests.test_jsonutil",
    "smiley.report.html",
    "commands.server",
    "web.nav",
    "smiley.tests.presentation.test_pagination",
    "web.test_functional",
    "smiley.web.controllers",
    "smiley.tracer"
]