{
    "libs": [
        "encoding",
        "text",
        "unittest",
        "random",
        "functional",
        "datetime",
        "io",
        "validators",
        "contrib",
        "query",
        "factory",
        "signals",
        "PIL",
        "importlib",
        "ImageEnhance",
        "generic",
        "ImageColor",
        "detail",
        "ImageFilter",
        "timezone",
        "widgets",
        "test",
        "getopt",
        "files",
        "warnings",
        "optparse",
        "zipfile",
        "inspect",
        "db",
        "sys",
        "urlresolvers",
        "v2",
        "translation",
        "print_function",
        "dates",
        "b",
        "logging",
        "fields",
        "Image",
        "list",
        "modelsinspector",
        "django",
        "ImageFile",
        "defaultfilters",
        "exceptions",
        "os"
    ]
}