[
    "usfirst_event_teams_parser",
    "team_controller",
    "admin.admin_sitevar_controller",
    "tests.test_tba_videos_parser",
    "usfirst_event_awards_parser_02",
    "test_usfirst_event_awards_parser_05_06",
    "cloudstorage",
    "admin.admin_team_controller",
    "admin_sitevar_controller",
    "validation_helper",
    "match_helper",
    "user_bundle",
    "helpers.event_helper",
    "main_controller",
    "match.match_test_creator",
    "pytz.reference",
    "twitter_matches_parser",
    "controllers.admin.admin_main_controller",
    "httplib2.test",
    "tests.test_tzinfo",
    "datafeeds",
    "rest_api",
    "test-infra",
    "team_renderer",
    "test.functional.test_proxies",
    "suggestions.suggest_match_video_controller",
    "datafeeds.datafeed_fms",
    "datafeeds.usfirst_legacy_event_details_parser",
    "cron_main",
    "usfirst_pre2003_team_events_parser",
    "test_award_type_parser",
    "controllers.admin",
    "httplib2.socks",
    "usfirst_matches_parser_2002",
    "usfirst_matches_parser_2003",
    "account",
    "controllers.admin.admin_user_controller",
    "pytz.tzinfo",
    "httplib2.test.brokensocket",
    "datafeeds.fms_team_list_parser",
    "test_datafeed_controller",
    "test-infra.s3_cache",
    "test_base_apiv2_controller",
    "subtrees.bootstrap.test-infra.s3_cache",
    "test_usfirst_alliances_parser",
    "test_utils",
    "tests.test_usfirst_legacy_team_details_parser",
    "insights_controller",
    "pytz.tests.test_tzinfo",
    "event.event_test_creator",
    "insights_helper",
    "controllers.suggestions.suggest_event_webcast_controller",
    "common",
    "team",
    "pytz.tzfile",
    "tests.test_usfirst_event_teams_parser",
    "usfirst_event_rankings_parser",
    "tests.test_key_name_validators",
    "reference",
    "event_team_manipulator",
    "datafeeds.usfirst_event_awards_parser",
    "httplib2.test.test_no_socket",
    "test_add_match_times",
    "api.api_event_controller",
    "suggest_match_video_controller",
    "test_datafeed_usfirst_legacy_teams",
    "controllers.admin.admin_team_controller",
    "controllers.api.api_event_controller",
    "helpers.admin_helper",
    "controllers.insights_controller",
    "fms_event_list_parser",
    "brokensocket.socket",
    "tests.test_offseason_matches_parser",
    "errors",
    "datafeed_controller",
    "admin_migration_controller",
    "media_manipulator",
    "tests.test_apiv2_team_controller",
    "tests.test_event",
    "data_fetchers",
    "helpers.tbavideo_helper",
    "data_fetchers.team_details_data_fetcher",
    "controllers.api_controller",
    "firebase_controller",
    "ajax_controller",
    "award_type",
    "datafeeds.datafeed_offseason",
    "httplib2.test.miniserver",
    "tests.test_usfirst_match_schedule_parser",
    "lazy",
    "tests.test_datafeed_usfirst_teams",
    "httplib2.test.smoke_test",
    "admin_media_suggestions_review_controller",
    "tests.test_usfirst_event_offseason_list_parser",
    "controllers.suggestions.suggest_team_media_controller",
    "usfirst_matches_parser",
    "match_controller",
    "tests.test_csv_alliance_selections_parser",
    "three2four_match",
    "suggestions.admin_media_suggestions_review_controller",
    "datafeed_tba",
    "tests.test_event_team_repairer",
    "suggestions.match_suggestion_accepter",
    "helpers.media_manipulator",
    "admin",
    "tests.test_award_type_parser",
    "csv_teams_parser",
    "datafeeds.datafeed_usfirst_legacy",
    "helpers",
    "base_controller",
    "suggestion",
    "usfirst_alliances_parser",
    "controllers.admin.admin_award_controller",
    "admin.admin_memcache_controller",
    "test_usfirst_event_rankings_parser",
    "datafeeds.usfirst_matches_parser",
    "test.miniserver",
    "helpers.event.event_test_creator",
    "run_tests",
    "firebase.firebase_pusher",
    "match_manipulator",
    "helpers.bulkloader_helper",
    "api",
    "miniserver",
    "tests.test_lazy",
    "team_helper",
    "event_type",
    "admin_user_controller",
    "admin.admin_award_controller",
    "cloudstorage.storage_api",
    "test.smoke_test",
    "linter",
    "BeautifulSoup",
    "controllers.firebase_controller",
    "tests.test_event_team_updater",
    "test_event_api",
    "tests.test_event_test_creator",
    "admin.admin_offseason_scraper_controller",
    "media_type",
    "models.account",
    "suggestions.admin_match_video_suggestions_review_controller",
    "models.award",
    "usfirst_legacy_event_teams_parser",
    "admin.admin_match_controller",
    "suggestions",
    "insight_manipulator",
    "award",
    "tzinfo",
    "memcache",
    "functional.test_proxies",
    "test_event",
    "tbavideo_helper",
    "tzfile",
    "subtrees.bootstrap",
    "controllers.event_controller",
    "helpers.api_helper",
    "test_usfirst_event_awards_parser",
    "my_filters",
    "datafeeds.tba_videos_parser",
    "test_fms_team_list_parser",
    "tests.test_usfirst_alliances_parser",
    "test_csv_teams_parser",
    "test_usfirst_event_teams_parser",
    "cloudstorage_api",
    "datafeeds.usfirst_matches_parser_2002",
    "datafeeds.parser_base",
    "helpers.event_team",
    "test_offseason_matches_parser",
    "controllers.api.api_base_controller",
    "test_match",
    "helpers.event_team_manipulator",
    "models.match",
    "test_usfirst_legacy_event_teams_parser",
    "models.event",
    "helpers.firebase.firebase_pusher",
    "admin_event_controller",
    "datafeed_usfirst",
    "test_event_get_short_name",
    "controllers.admin.admin_match_controller",
    "helpers.cache_clearer",
    "tests.test_usfirst_event_awards_parser",
    "datafeeds.usfirst_alliances_parser",
    "usfirst_match_schedule_parser",
    "pytz.tests",
    "admin_event_webcast_suggestions_review_controller",
    "tests.test_datafeed_usfirst_legacy_events",
    "consts.award_type",
    "suggestions.suggest_team_media_controller",
    "helpers.firebase",
    "helpers.typeahead_helper",
    "datafeeds.fms_event_list_parser",
    "subtrees",
    "bootstrap.test-infra.s3_cache",
    "tests.test_fms_team_list_parser",
    "tests.test_api_cache_clearer",
    "admin_match_controller",
    "admin_media_controller",
    "typeahead_helper",
    "do_compress",
    "tests.test_datafeed_usfirst_events",
    "admin.admin_event_controller",
    "admin_team_controller",
    "models.team",
    "datafeeds.usfirst_event_awards_parser_05_06",
    "tests.test_event_get_timezone_id",
    "subtrees.bootstrap.test-infra",
    "controllers.gameday2_controller",
    "offseason_matches_parser",
    "cloudstorage.errors",
    "tests.test_csv_awards_parser",
    "pytz.exceptions",
    "suggestions.admin_event_webcast_suggestions_review_controller",
    "suggest_team_media_controller",
    "test_datafeed_usfirst_events",
    "test_usfirst_event_type_parser",
    "datafeeds.usfirst_team_details_parser",
    "csv_alliance_selections_parser",
    "event_team_test_creator",
    "test_event_district_name_parser",
    "test_event_manipulator",
    "datafeeds.usfirst_matches_parser_2003",
    "tests.test_usfirst_matches_parser",
    "tests.test_csv_teams_parser",
    "datafeed_fms",
    "api_main",
    "datafeeds.datafeed_base",
    "tests.test_add_match_times",
    "utils",
    "datafeed_usfirst_legacy",
    "helpers.user_bundle",
    "api_utils",
    "tests.test_award_manipulator",
    "controllers.cron_controller",
    "usfirst_event_details_parser",
    "admin_match_video_suggestions_review_controller",
    "suggest_event_webcast_controller",
    "cloudstorage.rest_api",
    "test_usfirst_event_awards_parser_02",
    "controllers.admin.admin_offseason_scraper_controller",
    "controllers.suggestions.suggest_match_video_controller",
    "test_event_group_by_week",
    "media",
    "controllers.api.api_trusted_controller",
    "test_datafeed_usfirst_matches",
    "api_helper",
    "httplib2.iri2uri",
    "admin.suggestions.admin_media_suggestions_review_controller",
    "datafeeds.usfirst_legacy_event_teams_parser",
    "test_validation_helper",
    "api_event_controller",
    "brokensocket",
    "test_usfirst_legacy_team_details_parser",
    "insight",
    "tests.test_usfirst_matches_parser_2003",
    "tests.test_usfirst_matches_parser_2002",
    "datafeed_twitter",
    "admin.suggestions",
    "controllers.admin.suggestions",
    "tests.test_team_api",
    "renderers.team_renderer",
    "award_manipulator",
    "usfirst_event_awards_parser_03_04",
    "exceptions",
    "tests.test_usfirst_legacy_event_teams_parser",
    "helpers.event_team.event_team_test_creator",
    "pytz.lazy",
    "test_fms_event_list_parser",
    "helpers.suggestions",
    "pytz.tests.test_docs",
    "usfirst_legacy_event_details_parser",
    "test_event_team_repairer",
    "helpers.suggestions.match_suggestion_accepter",
    "controllers.api.api_team_controller",
    "tests.test_datafeed_usfirst_matches",
    "model_to_dict",
    "main",
    "match",
    "test_usfirst_event_details_parser",
    "tests",
    "tests.test_event_get_short_name",
    "helpers.manipulator_base",
    "controllers.admin.admin_migration_controller",
    "admin.admin_media_controller",
    "media_helper",
    "models.media",
    "functional",
    "cron_controller",
    "tests.test_base_apiv2_controller",
    "test_event_get_timezone_id",
    "memcache.memcache_webcast_flusher",
    "tests.test_math_event_team_update",
    "test_tba_videos_parser",
    "admin_award_controller",
    "test_datafeed_fms_events",
    "helpers.event_team_repairer",
    "test_datafeed_fms_teams",
    "event.event_webcast_adder",
    "test_match_manipulator",
    "test_team_manipulator",
    "pavement",
    "test_key_name_validators",
    "helpers.team_manipulator",
    "controllers.account_controller",
    "admin_memcache_controller",
    "event_controller",
    "admin.suggestions.admin_match_video_suggestions_review_controller",
    "api_controller",
    "admin.suggestions.admin_event_webcast_suggestions_review_controller",
    "district_type",
    "controllers.admin.suggestions.admin_match_video_suggestions_review_controller",
    "team_details_data_fetcher",
    "sitevar",
    "datafeeds.usfirst_event_awards_parser_02",
    "bulkloader_helper",
    "datafeeds.datafeed_usfirst",
    "controllers.admin.suggestions.admin_media_suggestions_review_controller",
    "tba_videos_parser",
    "tests.test_usfirst_legacy_event_details_parser",
    "appengine_config",
    "datafeeds.usfirst_event_rankings_parser",
    "api.api_team_controller",
    "test_usfirst_team_details_parser",
    "parser_base",
    "consts.media_type",
    "event",
    "models.insight",
    "helpers.matchstats_helper",
    "httplib2.test.functional.test_proxies",
    "tests.test_match_cleanup",
    "event_team.event_team_test_creator",
    "datafeed_offseason",
    "tests.test_match_manipulator",
    "admin.admin_migration_controller",
    "models.event_team",
    "deploy",
    "fms_team_list_parser",
    "helpers.match_manipulator",
    "usfirst_event_offseason_list_parser",
    "tests.test_event_group_by_week",
    "test_csv_alliance_selections_parser",
    "tests.test_usfirst_event_rankings_parser",
    "account_controller",
    "datafeeds.datafeed_tba",
    "test_usfirst_matches_parser_2002",
    "test_usfirst_matches_parser_2003",
    "renderers",
    "datafeeds.usfirst_legacy_team_details_parser",
    "bootstrap.test-infra",
    "usfirst_event_list_parser",
    "tests.test_usfirst_event_list_parser",
    "test.brokensocket.socket",
    "admin_offseason_scraper_controller",
    "helpers.award_helper",
    "test_tzinfo",
    "helpers.event_team_updater",
    "consts",
    "test_usfirst_event_offseason_list_parser",
    "test.brokensocket",
    "helpers.insight_manipulator",
    "usfirst_event_awards_parser_05_06",
    "utils.three2four_match",
    "tests.test_event_district_name_parser",
    "socket",
    "test_usfirst_legacy_event_details_parser",
    "event_team_updater",
    "test_datafeed_usfirst_teams",
    "tests.test_match_suggestion_accepter",
    "helpers.event.event_webcast_adder",
    "cloudstorage.cloudstorage_api",
    "cache_clearer",
    "datafeeds.usfirst_pre2003_team_events_parser",
    "event_helper",
    "test_usfirst_matches_parser",
    "test_usfirst_event_list_parser",
    "api_team_controller",
    "datafeeds.offseason_matches_parser",
    "test.test_no_socket",
    "helpers.event_manipulator",
    "test_apiv2_team_controller",
    "team_manipulator",
    "test_api_cache_clearer",
    "test_proxies",
    "helpers.data_fetchers.team_details_data_fetcher",
    "datafeeds.usfirst_event_teams_parser",
    "socks",
    "tests.test_event_api",
    "s3_cache",
    "controllers.main_controller",
    "controllers",
    "event_test_creator",
    "datafeeds.usfirst_event_list_parser",
    "event_team_repairer",
    "helpers.match.match_test_creator",
    "helpers.match_helper",
    "datafeeds.csv_awards_parser",
    "helpers.memcache",
    "tests.test_fms_event_list_parser",
    "award_helper",
    "test_match_cleanup",
    "test_team_api",
    "tests.test_datafeed_fms_teams",
    "controllers.team_controller",
    "test_award_manipulator",
    "event_team",
    "helpers.event",
    "test_csv_awards_parser",
    "datafeed_base",
    "tests.test_usfirst_event_awards_parser_02",
    "consts.district_type",
    "usfirst_event_awards_parser",
    "models.user",
    "match_suggestion_accepter",
    "firebase",
    "datafeeds.twitter_matches_parser",
    "datafeeds.usfirst_event_details_parser",
    "gameday2_controller",
    "tests.test_apiv2_event_controller",
    "api_base_controller",
    "helpers.data_fetchers",
    "admin.admin_user_controller",
    "tests.test_datafeed_usfirst_legacy_teams",
    "typeahead_entry",
    "datafeeds.datafeed_usfirst_offseason",
    "tests.test_usfirst_event_type_parser",
    "cloudstorage.test_utils",
    "models.typeahead_entry",
    "test_no_socket",
    "api_trusted_controller",
    "api.api_base_controller",
    "helpers.insights_helper",
    "manipulator_base",
    "controllers.admin.admin_event_controller",
    "controllers.api",
    "tests.test_usfirst_event_details_parser",
    "admin_main",
    "controllers.datafeed_controller",
    "firebase_pusher",
    "event_webcast_adder",
    "test_usfirst_match_schedule_parser",
    "test_datafeed_usfirst_legacy_events",
    "test_event_test_creator",
    "storage_api",
    "test_math_event_team_update",
    "helpers.team_helper",
    "bootstrap",
    "match_test_creator",
    "tba_config",
    "datafeeds.datafeed_twitter",
    "event_manipulator",
    "tests.test_docs",
    "httplib2.test.brokensocket.socket",
    "consts.event_type",
    "tests.test_match",
    "test_docs",
    "admin.admin_main_controller",
    "models.sitevar",
    "controllers.ajax_controller",
    "smoke_test",
    "controllers.match_controller",
    "usfirst_legacy_team_details_parser",
    "test_apiv2_event_controller",
    "helpers.media_helper",
    "httplib2.test.functional",
    "common.my_filters",
    "tests.test_usfirst_event_awards_parser_05_06",
    "cloudstorage.api_utils",
    "cloudstorage.common",
    "user",
    "tests.test_usfirst_team_details_parser",
    "controllers.admin.admin_media_controller",
    "tests.test_usfirst_event_awards_parser_03_04",
    "helpers.validation_helper",
    "controllers.suggestions",
    "tests.test_team_manipulator",
    "controllers.admin.admin_memcache_controller",
    "admin_helper",
    "controllers.admin.admin_sitevar_controller",
    "test",
    "usfirst_team_details_parser",
    "csv_awards_parser",
    "helpers.award_manipulator",
    "admin_main_controller",
    "test_match_suggestion_accepter",
    "backup_controller",
    "iri2uri",
    "memcache_webcast_flusher",
    "models",
    "httplib2",
    "tests.test_datafeed_fms_events",
    "tests.test_event_manipulator",
    "tests.test_datafeed_controller",
    "datafeeds.usfirst_match_schedule_parser",
    "test.functional",
    "models.suggestion",
    "test_event_team_updater",
    "controllers.admin.suggestions.admin_event_webcast_suggestions_review_controller",
    "helpers.match",
    "tests.test_validation_helper",
    "helpers.model_to_dict",
    "datafeed_usfirst_offseason",
    "datafeeds.usfirst_event_offseason_list_parser",
    "controllers.base_controller",
    "api.api_trusted_controller",
    "test_usfirst_event_awards_parser_03_04",
    "datafeeds.csv_alliance_selections_parser",
    "test_lazy",
    "pytz",
    "matchstats_helper",
    "suggestions.suggest_event_webcast_controller",
    "helpers.memcache.memcache_webcast_flusher",
    "datafeeds.csv_teams_parser",
    "controllers.backup_controller",
    "datafeeds.usfirst_event_awards_parser_03_04",
    "pytz.tests.test_lazy"
]