{
    "libs": [
        "bin",
        "shortcuts",
        "utils",
        "random",
        "interface",
        "conf",
        "contrib",
        "ax",
        "calendar",
        "management",
        "tempfile",
        "selenium",
        "urllib",
        "json",
        "template",
        "localsettings",
        "decorators",
        "unittest",
        "store",
        "cgi",
        "openid",
        "http",
        "rfc822",
        "pape",
        "Deprecated",
        "db",
        "urllib2",
        "auth",
        "textwrap",
        "sys",
        "yadis",
        "oauth",
        "sreg",
        "md5",
        "minidom",
        "httplib",
        "b",
        "logging",
        "h",
        "django",
        "urlparse",
        "test_data",
        "extensions",
        "defaults",
        "time",
        "urlresolvers",
        "os",
        "hmac"
    ]
}