[
    "tests",
    "tests.test_safe_exec",
    "django_integration",
    "codejail.tests.pylib",
    "module",
    "test_json_safe",
    "doit",
    "codejail.django_integration",
    "codejail",
    "codejail.jail_code",
    "tests.test_jail_code",
    "test_jail_code",
    "codejail.tests.test_jail_code",
    "tests.test_json_safe",
    "codejail.tests.pylib.module",
    "tests.pylib",
    "codejail.util",
    "codejail.tests.test_json_safe",
    "pylib",
    "util",
    "codejail.tests.test_safe_exec",
    "jail_code",
    "codejail.tests",
    "pylib.module",
    "codejail.tests.doit",
    "tests.doit",
    "test_safe_exec",
    "safe_exec",
    "tests.pylib.module",
    "codejail.safe_exec"
]