{
    "libs": [
        "core",
        "phonenumbers",
        "management",
        "phonenumberutil",
        "fields",
        "utils",
        "db",
        "modelsinspector",
        "data",
        "sys",
        "exceptions",
        "conf",
        "babel",
        "test",
        "translation",
        "os",
        "forms"
    ]
}