{
    "archive_url": "https://api.github.com/repos/fergalwalsh/pico/{archive_format}{/ref}",
    "assignees_url": "https://api.github.com/repos/fergalwalsh/pico/assignees{/user}",
    "blobs_url": "https://api.github.com/repos/fergalwalsh/pico/git/blobs{/sha}",
    "branches_url": "https://api.github.com/repos/fergalwalsh/pico/branches{/branch}",
    "clone_url": "https://github.com/fergalwalsh/pico.git",
    "collaborators_url": "https://api.github.com/repos/fergalwalsh/pico/collaborators{/collaborator}",
    "comments_url": "https://api.github.com/repos/fergalwalsh/pico/comments{/number}",
    "commits_url": "https://api.github.com/repos/fergalwalsh/pico/commits{/sha}",
    "compare_url": "https://api.github.com/repos/fergalwalsh/pico/compare/{base}...{head}",
    "contents_url": "https://api.github.com/repos/fergalwalsh/pico/contents/{+path}",
    "contributors_url": "https://api.github.com/repos/fergalwalsh/pico/contributors",
    "created_at": "2011-07-31T12:04:39Z",
    "default_branch": "master",
    "description": "Pico is a very small web application framework for Python.",
    "downloads_url": "https://api.github.com/repos/fergalwalsh/pico/downloads",
    "events_url": "https://api.github.com/repos/fergalwalsh/pico/events",
    "fork": false,
    "forks": 13,
    "forks_count": 13,
    "forks_url": "https://api.github.com/repos/fergalwalsh/pico/forks",
    "full_name": "fergalwalsh/pico",
    "git_commits_url": "https://api.github.com/repos/fergalwalsh/pico/git/commits{/sha}",
    "git_refs_url": "https://api.github.com/repos/fergalwalsh/pico/git/refs{/sha}",
    "git_tags_url": "https://api.github.com/repos/fergalwalsh/pico/git/tags{/sha}",
    "git_url": "git://github.com/fergalwalsh/pico.git",
    "has_downloads": true,
    "has_issues": true,
    "has_wiki": true,
    "homepage": "http://fergalwalsh.github.com/pico/",
    "hooks_url": "https://api.github.com/repos/fergalwalsh/pico/hooks",
    "html_url": "https://github.com/fergalwalsh/pico",
    "id": 2132159,
    "issue_comment_url": "https://api.github.com/repos/fergalwalsh/pico/issues/comments/{number}",
    "issue_events_url": "https://api.github.com/repos/fergalwalsh/pico/issues/events{/number}",
    "issues_url": "https://api.github.com/repos/fergalwalsh/pico/issues{/number}",
    "keys_url": "https://api.github.com/repos/fergalwalsh/pico/keys{/key_id}",
    "labels_url": "https://api.github.com/repos/fergalwalsh/pico/labels{/name}",
    "language": "Python",
    "languages_url": "https://api.github.com/repos/fergalwalsh/pico/languages",
    "merges_url": "https://api.github.com/repos/fergalwalsh/pico/merges",
    "milestones_url": "https://api.github.com/repos/fergalwalsh/pico/milestones{/number}",
    "mirror_url": null,
    "name": "pico",
    "notifications_url": "https://api.github.com/repos/fergalwalsh/pico/notifications{?since,all,participating}",
    "open_issues": 1,
    "open_issues_count": 1,
    "owner": {
        "avatar_url": "https://avatars.githubusercontent.com/u/454756?",
        "events_url": "https://api.github.com/users/fergalwalsh/events{/privacy}",
        "followers_url": "https://api.github.com/users/fergalwalsh/followers",
        "following_url": "https://api.github.com/users/fergalwalsh/following{/other_user}",
        "gists_url": "https://api.github.com/users/fergalwalsh/gists{/gist_id}",
        "gravatar_id": "2e3d2ffc00b7ff346be9275d2de35535",
        "html_url": "https://github.com/fergalwalsh",
        "id": 454756,
        "login": "fergalwalsh",
        "organizations_url": "https://api.github.com/users/fergalwalsh/orgs",
        "received_events_url": "https://api.github.com/users/fergalwalsh/received_events",
        "repos_url": "https://api.github.com/users/fergalwalsh/repos",
        "site_admin": false,
        "starred_url": "https://api.github.com/users/fergalwalsh/starred{/owner}{/repo}",
        "subscriptions_url": "https://api.github.com/users/fergalwalsh/subscriptions",
        "type": "User",
        "url": "https://api.github.com/users/fergalwalsh"
    },
    "private": false,
    "pulls_url": "https://api.github.com/repos/fergalwalsh/pico/pulls{/number}",
    "pushed_at": "2013-11-30T05:56:41Z",
    "releases_url": "https://api.github.com/repos/fergalwalsh/pico/releases{/id}",
    "score": 1.0,
    "size": 1420,
    "ssh_url": "git@github.com:fergalwalsh/pico.git",
    "stargazers_count": 58,
    "stargazers_url": "https://api.github.com/repos/fergalwalsh/pico/stargazers",
    "statuses_url": "https://api.github.com/repos/fergalwalsh/pico/statuses/{sha}",
    "subscribers_url": "https://api.github.com/repos/fergalwalsh/pico/subscribers",
    "subscription_url": "https://api.github.com/repos/fergalwalsh/pico/subscription",
    "svn_url": "https://github.com/fergalwalsh/pico",
    "tags_url": "https://api.github.com/repos/fergalwalsh/pico/tags",
    "teams_url": "https://api.github.com/repos/fergalwalsh/pico/teams",
    "trees_url": "https://api.github.com/repos/fergalwalsh/pico/git/trees{/sha}",
    "updated_at": "2013-12-02T10:55:17Z",
    "url": "https://api.github.com/repos/fergalwalsh/pico",
    "watchers": 58,
    "watchers_count": 58
}