{
    "archive_url": "https://api.github.com/repos/OpenRCE/pydbg/{archive_format}{/ref}",
    "assignees_url": "https://api.github.com/repos/OpenRCE/pydbg/assignees{/user}",
    "blobs_url": "https://api.github.com/repos/OpenRCE/pydbg/git/blobs{/sha}",
    "branches_url": "https://api.github.com/repos/OpenRCE/pydbg/branches{/branch}",
    "clone_url": "https://github.com/OpenRCE/pydbg.git",
    "collaborators_url": "https://api.github.com/repos/OpenRCE/pydbg/collaborators{/collaborator}",
    "comments_url": "https://api.github.com/repos/OpenRCE/pydbg/comments{/number}",
    "commits_url": "https://api.github.com/repos/OpenRCE/pydbg/commits{/sha}",
    "compare_url": "https://api.github.com/repos/OpenRCE/pydbg/compare/{base}...{head}",
    "contents_url": "https://api.github.com/repos/OpenRCE/pydbg/contents/{+path}",
    "contributors_url": "https://api.github.com/repos/OpenRCE/pydbg/contributors",
    "created_at": "2012-04-03T15:59:54Z",
    "default_branch": "master",
    "description": "A pure-python win32 debugger interface.",
    "downloads_url": "https://api.github.com/repos/OpenRCE/pydbg/downloads",
    "events_url": "https://api.github.com/repos/OpenRCE/pydbg/events",
    "fork": false,
    "forks": 54,
    "forks_count": 54,
    "forks_url": "https://api.github.com/repos/OpenRCE/pydbg/forks",
    "full_name": "OpenRCE/pydbg",
    "git_commits_url": "https://api.github.com/repos/OpenRCE/pydbg/git/commits{/sha}",
    "git_refs_url": "https://api.github.com/repos/OpenRCE/pydbg/git/refs{/sha}",
    "git_tags_url": "https://api.github.com/repos/OpenRCE/pydbg/git/tags{/sha}",
    "git_url": "git://github.com/OpenRCE/pydbg.git",
    "has_downloads": true,
    "has_issues": true,
    "has_wiki": true,
    "homepage": "",
    "hooks_url": "https://api.github.com/repos/OpenRCE/pydbg/hooks",
    "html_url": "https://github.com/OpenRCE/pydbg",
    "id": 3919729,
    "issue_comment_url": "https://api.github.com/repos/OpenRCE/pydbg/issues/comments/{number}",
    "issue_events_url": "https://api.github.com/repos/OpenRCE/pydbg/issues/events{/number}",
    "issues_url": "https://api.github.com/repos/OpenRCE/pydbg/issues{/number}",
    "keys_url": "https://api.github.com/repos/OpenRCE/pydbg/keys{/key_id}",
    "labels_url": "https://api.github.com/repos/OpenRCE/pydbg/labels{/name}",
    "language": "Python",
    "languages_url": "https://api.github.com/repos/OpenRCE/pydbg/languages",
    "merges_url": "https://api.github.com/repos/OpenRCE/pydbg/merges",
    "milestones_url": "https://api.github.com/repos/OpenRCE/pydbg/milestones{/number}",
    "mirror_url": null,
    "name": "pydbg",
    "notifications_url": "https://api.github.com/repos/OpenRCE/pydbg/notifications{?since,all,participating}",
    "open_issues": 3,
    "open_issues_count": 3,
    "owner": {
        "avatar_url": "https://avatars.githubusercontent.com/u/1609235?",
        "events_url": "https://api.github.com/users/OpenRCE/events{/privacy}",
        "followers_url": "https://api.github.com/users/OpenRCE/followers",
        "following_url": "https://api.github.com/users/OpenRCE/following{/other_user}",
        "gists_url": "https://api.github.com/users/OpenRCE/gists{/gist_id}",
        "gravatar_id": "6028687db247da9b5f2270f3137e5bde",
        "html_url": "https://github.com/OpenRCE",
        "id": 1609235,
        "login": "OpenRCE",
        "organizations_url": "https://api.github.com/users/OpenRCE/orgs",
        "received_events_url": "https://api.github.com/users/OpenRCE/received_events",
        "repos_url": "https://api.github.com/users/OpenRCE/repos",
        "site_admin": false,
        "starred_url": "https://api.github.com/users/OpenRCE/starred{/owner}{/repo}",
        "subscriptions_url": "https://api.github.com/users/OpenRCE/subscriptions",
        "type": "Organization",
        "url": "https://api.github.com/users/OpenRCE"
    },
    "private": false,
    "pulls_url": "https://api.github.com/repos/OpenRCE/pydbg/pulls{/number}",
    "pushed_at": "2012-04-03T16:03:51Z",
    "releases_url": "https://api.github.com/repos/OpenRCE/pydbg/releases{/id}",
    "score": 1.0,
    "size": 178,
    "ssh_url": "git@github.com:OpenRCE/pydbg.git",
    "stargazers_count": 110,
    "stargazers_url": "https://api.github.com/repos/OpenRCE/pydbg/stargazers",
    "statuses_url": "https://api.github.com/repos/OpenRCE/pydbg/statuses/{sha}",
    "subscribers_url": "https://api.github.com/repos/OpenRCE/pydbg/subscribers",
    "subscription_url": "https://api.github.com/repos/OpenRCE/pydbg/subscription",
    "svn_url": "https://github.com/OpenRCE/pydbg",
    "tags_url": "https://api.github.com/repos/OpenRCE/pydbg/tags",
    "teams_url": "https://api.github.com/repos/OpenRCE/pydbg/teams",
    "trees_url": "https://api.github.com/repos/OpenRCE/pydbg/git/trees{/sha}",
    "updated_at": "2014-05-01T10:18:15Z",
    "url": "https://api.github.com/repos/OpenRCE/pydbg",
    "watchers": 110,
    "watchers_count": 110
}