[
    "tests",
    "views",
    "models",
    "tests.test_urls",
    "tos_i18n.tests",
    "tos_i18n.views",
    "tos.admin",
    "test_models",
    "tos_i18n",
    "tests.test_views",
    "translation",
    "tos.tests.test_urls",
    "tos_i18n.translation",
    "tos.views",
    "test_views",
    "admin",
    "tos.tests.test_models",
    "tos.urls",
    "tos.tests.test_views",
    "tos",
    "tests.test_settings",
    "test_urls",
    "tos.models",
    "urls",
    "test_settings",
    "tos_i18n.models",
    "tos.tests.test_settings",
    "tos_i18n.admin",
    "tests.test_models",
    "tos.tests"
]