{
    "libs": [
        "pylab",
        "OpenGL",
        "GLUT",
        "fft",
        "misc",
        "PyQt4",
        "exp_smoothing_conv",
        "fftpack",
        "io",
        "path",
        "Qwt5",
        "GLU",
        "string",
        "fir_filter_design",
        "sip",
        "stats",
        "QtGui",
        "platform",
        "Image",
        "pyplot",
        "cl",
        "norm_square",
        "re",
        "lookup_table",
        "linear_interp",
        "signaltools",
        "fftw3",
        "numpy",
        "math",
        "fractions",
        "expat",
        "pyfftw",
        "cProfile",
        "optparse",
        "time",
        "zipfile",
        "textwrap",
        "matplotlib",
        "sys",
        "scipy",
        "filter_opt",
        "pickle",
        "GL",
        "anfft",
        "QtCore",
        "signal",
        "sigtools",
        "random",
        "pstats",
        "debug",
        "os",
        "pyaudio"
    ]
}