{
    "libs": [
        "linux",
        "argparse",
        "traceback",
        "struct",
        "re",
        "tempfile",
        "utils",
        "random",
        "urllib2",
        "subprocess",
        "sys",
        "atexit",
        "math",
        "contextlib",
        "select",
        "dns",
        "time",
        "threading",
        "os",
        "inet",
        "socket"
    ]
}