{
    "libs": [
        "sys",
        "unicodedata",
        "pyquery",
        "sgmllib",
        "cairo",
        "pangocairo",
        "urllib2",
        "urllib",
        "urlparse",
        "re",
        "core",
        "HTMLParser",
        "html4css1",
        "codecs",
        "PIL",
        "pango",
        "copy",
        "os",
        "types",
        "StringIO"
    ]
}