{
    "archive_url": "https://api.github.com/repos/vz-risk/veris/{archive_format}{/ref}",
    "assignees_url": "https://api.github.com/repos/vz-risk/veris/assignees{/user}",
    "blobs_url": "https://api.github.com/repos/vz-risk/veris/git/blobs{/sha}",
    "branches_url": "https://api.github.com/repos/vz-risk/veris/branches{/branch}",
    "clone_url": "https://github.com/vz-risk/veris.git",
    "collaborators_url": "https://api.github.com/repos/vz-risk/veris/collaborators{/collaborator}",
    "comments_url": "https://api.github.com/repos/vz-risk/veris/comments{/number}",
    "commits_url": "https://api.github.com/repos/vz-risk/veris/commits{/sha}",
    "compare_url": "https://api.github.com/repos/vz-risk/veris/compare/{base}...{head}",
    "contents_url": "https://api.github.com/repos/vz-risk/veris/contents/{+path}",
    "contributors_url": "https://api.github.com/repos/vz-risk/veris/contributors",
    "created_at": "2013-01-04T17:19:19Z",
    "default_branch": "master",
    "description": "Vocabulary for Event Recording and Incident Sharing (VERIS)",
    "downloads_url": "https://api.github.com/repos/vz-risk/veris/downloads",
    "events_url": "https://api.github.com/repos/vz-risk/veris/events",
    "fork": false,
    "forks": 10,
    "forks_count": 10,
    "forks_url": "https://api.github.com/repos/vz-risk/veris/forks",
    "full_name": "vz-risk/veris",
    "git_commits_url": "https://api.github.com/repos/vz-risk/veris/git/commits{/sha}",
    "git_refs_url": "https://api.github.com/repos/vz-risk/veris/git/refs{/sha}",
    "git_tags_url": "https://api.github.com/repos/vz-risk/veris/git/tags{/sha}",
    "git_url": "git://github.com/vz-risk/veris.git",
    "has_downloads": true,
    "has_issues": true,
    "has_wiki": true,
    "homepage": "http://veriscommunity.net",
    "hooks_url": "https://api.github.com/repos/vz-risk/veris/hooks",
    "html_url": "https://github.com/vz-risk/veris",
    "id": 7444162,
    "issue_comment_url": "https://api.github.com/repos/vz-risk/veris/issues/comments/{number}",
    "issue_events_url": "https://api.github.com/repos/vz-risk/veris/issues/events{/number}",
    "issues_url": "https://api.github.com/repos/vz-risk/veris/issues{/number}",
    "keys_url": "https://api.github.com/repos/vz-risk/veris/keys{/key_id}",
    "labels_url": "https://api.github.com/repos/vz-risk/veris/labels{/name}",
    "language": "Python",
    "languages_url": "https://api.github.com/repos/vz-risk/veris/languages",
    "merges_url": "https://api.github.com/repos/vz-risk/veris/merges",
    "milestones_url": "https://api.github.com/repos/vz-risk/veris/milestones{/number}",
    "mirror_url": null,
    "name": "veris",
    "notifications_url": "https://api.github.com/repos/vz-risk/veris/notifications{?since,all,participating}",
    "open_issues": 4,
    "open_issues_count": 4,
    "owner": {
        "avatar_url": "https://avatars.githubusercontent.com/u/3170933?",
        "events_url": "https://api.github.com/users/vz-risk/events{/privacy}",
        "followers_url": "https://api.github.com/users/vz-risk/followers",
        "following_url": "https://api.github.com/users/vz-risk/following{/other_user}",
        "gists_url": "https://api.github.com/users/vz-risk/gists{/gist_id}",
        "gravatar_id": "2177da054eb1557ad9d0559f0c024a9e",
        "html_url": "https://github.com/vz-risk",
        "id": 3170933,
        "login": "vz-risk",
        "organizations_url": "https://api.github.com/users/vz-risk/orgs",
        "received_events_url": "https://api.github.com/users/vz-risk/received_events",
        "repos_url": "https://api.github.com/users/vz-risk/repos",
        "site_admin": false,
        "starred_url": "https://api.github.com/users/vz-risk/starred{/owner}{/repo}",
        "subscriptions_url": "https://api.github.com/users/vz-risk/subscriptions",
        "type": "Organization",
        "url": "https://api.github.com/users/vz-risk"
    },
    "private": false,
    "pulls_url": "https://api.github.com/repos/vz-risk/veris/pulls{/number}",
    "pushed_at": "2014-05-06T16:21:49Z",
    "releases_url": "https://api.github.com/repos/vz-risk/veris/releases{/id}",
    "score": 1.0,
    "size": 3809,
    "ssh_url": "git@github.com:vz-risk/veris.git",
    "stargazers_count": 45,
    "stargazers_url": "https://api.github.com/repos/vz-risk/veris/stargazers",
    "statuses_url": "https://api.github.com/repos/vz-risk/veris/statuses/{sha}",
    "subscribers_url": "https://api.github.com/repos/vz-risk/veris/subscribers",
    "subscription_url": "https://api.github.com/repos/vz-risk/veris/subscription",
    "svn_url": "https://github.com/vz-risk/veris",
    "tags_url": "https://api.github.com/repos/vz-risk/veris/tags",
    "teams_url": "https://api.github.com/repos/vz-risk/veris/teams",
    "trees_url": "https://api.github.com/repos/vz-risk/veris/git/trees{/sha}",
    "updated_at": "2014-05-06T16:21:50Z",
    "url": "https://api.github.com/repos/vz-risk/veris",
    "watchers": 45,
    "watchers_count": 45
}