{
    "libs": [
        "esky",
        "cStringIO",
        "surfarray",
        "zlib",
        "transform",
        "OpenGL",
        "unicode_literals",
        "functools",
        "random",
        "subprocess",
        "absolute_import",
        "datetime",
        "atexit",
        "contextlib",
        "mixer",
        "cursors",
        "AppKit",
        "operator",
        "array",
        "shutil",
        "mouse",
        "GLU",
        "locals",
        "weakref",
        "copy",
        "struct",
        "lib",
        "pymclevel",
        "ARB",
        "umath",
        "event",
        "platform",
        "materials",
        "collections",
        "pygame",
        "cProfile",
        "minecraft_server",
        "csv",
        "numpy",
        "unittest",
        "rele",
        "generators",
        "division",
        "warnings",
        "comp",
        "time",
        "zipfile",
        "textwrap",
        "squ",
        "pocket",
        "ctypes",
        "mclevelb",
        "path",
        "GL",
        "print_function",
        "ConfigParser",
        "box",
        "sys",
        "httplib",
        "logging",
        "wintypes",
        "level",
        "bisect",
        "traceback",
        "Numeric",
        "win32",
        "tempfile",
        "itertools",
        "client",
        "math",
        "win32gui",
        "win32con",
        "gc",
        "infiniteworld",
        "os",
        "GLUT",
        "win32api"
    ]
}