{
    "libs": [
        "heapq",
        "reactor",
        "functools",
        "random",
        "absolute_import",
        "subprocess",
        "runpy",
        "copy",
        "struct",
        "cache",
        "entities",
        "collections",
        "main",
        "bin",
        "division",
        "python",
        "zipfile",
        "textwrap",
        "datetime",
        "pycurl",
        "httplib",
        "resolve",
        "h",
        "signal",
        "uuid",
        "threading",
        "hosts",
        "multiprocessing",
        "cStringIO",
        "cookies",
        "with_statement",
        "stat",
        "calendar",
        "_thread",
        "plistlib",
        "urllib",
        "re",
        "internet",
        "fcntl",
        "interfaces",
        "inspect",
        "ctypes",
        "codecs",
        "path",
        "print_function",
        "posixpath",
        "logging",
        "socket",
        "handlers",
        "traceback",
        "weakref",
        "itertools",
        "doctest",
        "posixb",
        "os",
        "curses",
        "unittest",
        "array",
        "pkgutil",
        "imp",
        "errno",
        "json",
        "utils",
        "sublime_plugin",
        "b",
        "wintypes",
        "zlib",
        "abstract",
        "sublime",
        "py2",
        "parse",
        "numbers",
        "io",
        "monotime",
        "gettext",
        "csv",
        "unittest2",
        "mimetypes",
        "pycares",
        "sys",
        "types",
        "futures",
        "urlparse",
        "linecache",
        "client",
        "time",
        "gzip",
        "hmac"
    ]
}