{
    "archive_url": "https://api.github.com/repos/emmetio/livestyle-sublime/{archive_format}{/ref}",
    "assignees_url": "https://api.github.com/repos/emmetio/livestyle-sublime/assignees{/user}",
    "blobs_url": "https://api.github.com/repos/emmetio/livestyle-sublime/git/blobs{/sha}",
    "branches_url": "https://api.github.com/repos/emmetio/livestyle-sublime/branches{/branch}",
    "clone_url": "https://github.com/emmetio/livestyle-sublime.git",
    "collaborators_url": "https://api.github.com/repos/emmetio/livestyle-sublime/collaborators{/collaborator}",
    "comments_url": "https://api.github.com/repos/emmetio/livestyle-sublime/comments{/number}",
    "commits_url": "https://api.github.com/repos/emmetio/livestyle-sublime/commits{/sha}",
    "compare_url": "https://api.github.com/repos/emmetio/livestyle-sublime/compare/{base}...{head}",
    "contents_url": "https://api.github.com/repos/emmetio/livestyle-sublime/contents/{+path}",
    "contributors_url": "https://api.github.com/repos/emmetio/livestyle-sublime/contributors",
    "created_at": "2013-06-16T18:06:12Z",
    "default_branch": "master",
    "description": "Live bi-directional CSS edit of new generation",
    "downloads_url": "https://api.github.com/repos/emmetio/livestyle-sublime/downloads",
    "events_url": "https://api.github.com/repos/emmetio/livestyle-sublime/events",
    "fork": false,
    "forks": 22,
    "forks_count": 22,
    "forks_url": "https://api.github.com/repos/emmetio/livestyle-sublime/forks",
    "full_name": "emmetio/livestyle-sublime",
    "git_commits_url": "https://api.github.com/repos/emmetio/livestyle-sublime/git/commits{/sha}",
    "git_refs_url": "https://api.github.com/repos/emmetio/livestyle-sublime/git/refs{/sha}",
    "git_tags_url": "https://api.github.com/repos/emmetio/livestyle-sublime/git/tags{/sha}",
    "git_url": "git://github.com/emmetio/livestyle-sublime.git",
    "has_downloads": true,
    "has_issues": true,
    "has_wiki": true,
    "homepage": "http://livestyle.emmet.io",
    "hooks_url": "https://api.github.com/repos/emmetio/livestyle-sublime/hooks",
    "html_url": "https://github.com/emmetio/livestyle-sublime",
    "id": 10723664,
    "issue_comment_url": "https://api.github.com/repos/emmetio/livestyle-sublime/issues/comments/{number}",
    "issue_events_url": "https://api.github.com/repos/emmetio/livestyle-sublime/issues/events{/number}",
    "issues_url": "https://api.github.com/repos/emmetio/livestyle-sublime/issues{/number}",
    "keys_url": "https://api.github.com/repos/emmetio/livestyle-sublime/keys{/key_id}",
    "labels_url": "https://api.github.com/repos/emmetio/livestyle-sublime/labels{/name}",
    "language": "Python",
    "languages_url": "https://api.github.com/repos/emmetio/livestyle-sublime/languages",
    "merges_url": "https://api.github.com/repos/emmetio/livestyle-sublime/merges",
    "milestones_url": "https://api.github.com/repos/emmetio/livestyle-sublime/milestones{/number}",
    "mirror_url": null,
    "name": "livestyle-sublime",
    "notifications_url": "https://api.github.com/repos/emmetio/livestyle-sublime/notifications{?since,all,participating}",
    "open_issues": 40,
    "open_issues_count": 40,
    "owner": {
        "avatar_url": "https://avatars.githubusercontent.com/u/2185347?",
        "events_url": "https://api.github.com/users/emmetio/events{/privacy}",
        "followers_url": "https://api.github.com/users/emmetio/followers",
        "following_url": "https://api.github.com/users/emmetio/following{/other_user}",
        "gists_url": "https://api.github.com/users/emmetio/gists{/gist_id}",
        "gravatar_id": "56e63d4d229aafd3a05ea34a46cf2600",
        "html_url": "https://github.com/emmetio",
        "id": 2185347,
        "login": "emmetio",
        "organizations_url": "https://api.github.com/users/emmetio/orgs",
        "received_events_url": "https://api.github.com/users/emmetio/received_events",
        "repos_url": "https://api.github.com/users/emmetio/repos",
        "site_admin": false,
        "starred_url": "https://api.github.com/users/emmetio/starred{/owner}{/repo}",
        "subscriptions_url": "https://api.github.com/users/emmetio/subscriptions",
        "type": "Organization",
        "url": "https://api.github.com/users/emmetio"
    },
    "private": false,
    "pulls_url": "https://api.github.com/repos/emmetio/livestyle-sublime/pulls{/number}",
    "pushed_at": "2014-01-16T21:06:25Z",
    "releases_url": "https://api.github.com/repos/emmetio/livestyle-sublime/releases{/id}",
    "score": 1.0,
    "size": 1363,
    "ssh_url": "git@github.com:emmetio/livestyle-sublime.git",
    "stargazers_count": 234,
    "stargazers_url": "https://api.github.com/repos/emmetio/livestyle-sublime/stargazers",
    "statuses_url": "https://api.github.com/repos/emmetio/livestyle-sublime/statuses/{sha}",
    "subscribers_url": "https://api.github.com/repos/emmetio/livestyle-sublime/subscribers",
    "subscription_url": "https://api.github.com/repos/emmetio/livestyle-sublime/subscription",
    "svn_url": "https://github.com/emmetio/livestyle-sublime",
    "tags_url": "https://api.github.com/repos/emmetio/livestyle-sublime/tags",
    "teams_url": "https://api.github.com/repos/emmetio/livestyle-sublime/teams",
    "trees_url": "https://api.github.com/repos/emmetio/livestyle-sublime/git/trees{/sha}",
    "updated_at": "2014-04-26T10:26:36Z",
    "url": "https://api.github.com/repos/emmetio/livestyle-sublime",
    "watchers": 234,
    "watchers_count": 234
}