{
    "libs": [
        "functools",
        "random",
        "subprocess",
        "atexit",
        "sqlite3dbm",
        "BeautifulSoup",
        "re",
        "json",
        "collections",
        "lazy_reload",
        "simplejson",
        "optparse",
        "inspect",
        "sys",
        "codecs",
        "path",
        "ConfigParser",
        "logging",
        "os",
        "signal",
        "traceback",
        "threading",
        "time",
        "requests",
        "jabberbot"
    ]
}