{
    "libs": [
        "cherrypy",
        "process",
        "unittest",
        "random",
        "wsgiserver",
        "parse",
        "gevent",
        "io",
        "_gevent",
        "wsaccel",
        "select",
        "backend",
        "mako",
        "queue",
        "uuid",
        "tempfile",
        "json",
        "lookup",
        "pool",
        "template",
        "internet",
        "android",
        "math",
        "simple_server",
        "parser",
        "tornado",
        "pywsgi",
        "inspect",
        "sys",
        "ssl",
        "path",
        "copy",
        "types",
        "struct",
        "argparse",
        "b",
        "logging",
        "socket",
        "handlers",
        "h",
        "wsgiref",
        "urlparse",
        "threading",
        "mock",
        "time",
        "os",
        "multiprocessing"
    ]
}