{
    "archive_url": "https://api.github.com/repos/vially/googlemusic-xbmc/{archive_format}{/ref}",
    "assignees_url": "https://api.github.com/repos/vially/googlemusic-xbmc/assignees{/user}",
    "blobs_url": "https://api.github.com/repos/vially/googlemusic-xbmc/git/blobs{/sha}",
    "branches_url": "https://api.github.com/repos/vially/googlemusic-xbmc/branches{/branch}",
    "clone_url": "https://github.com/vially/googlemusic-xbmc.git",
    "collaborators_url": "https://api.github.com/repos/vially/googlemusic-xbmc/collaborators{/collaborator}",
    "comments_url": "https://api.github.com/repos/vially/googlemusic-xbmc/comments{/number}",
    "commits_url": "https://api.github.com/repos/vially/googlemusic-xbmc/commits{/sha}",
    "compare_url": "https://api.github.com/repos/vially/googlemusic-xbmc/compare/{base}...{head}",
    "contents_url": "https://api.github.com/repos/vially/googlemusic-xbmc/contents/{+path}",
    "contributors_url": "https://api.github.com/repos/vially/googlemusic-xbmc/contributors",
    "created_at": "2012-06-10T01:07:24Z",
    "default_branch": "develop",
    "description": "Google Music addon for XBMC",
    "downloads_url": "https://api.github.com/repos/vially/googlemusic-xbmc/downloads",
    "events_url": "https://api.github.com/repos/vially/googlemusic-xbmc/events",
    "fork": false,
    "forks": 24,
    "forks_count": 24,
    "forks_url": "https://api.github.com/repos/vially/googlemusic-xbmc/forks",
    "full_name": "vially/googlemusic-xbmc",
    "git_commits_url": "https://api.github.com/repos/vially/googlemusic-xbmc/git/commits{/sha}",
    "git_refs_url": "https://api.github.com/repos/vially/googlemusic-xbmc/git/refs{/sha}",
    "git_tags_url": "https://api.github.com/repos/vially/googlemusic-xbmc/git/tags{/sha}",
    "git_url": "git://github.com/vially/googlemusic-xbmc.git",
    "has_downloads": true,
    "has_issues": true,
    "has_wiki": true,
    "homepage": null,
    "hooks_url": "https://api.github.com/repos/vially/googlemusic-xbmc/hooks",
    "html_url": "https://github.com/vially/googlemusic-xbmc",
    "id": 4611809,
    "issue_comment_url": "https://api.github.com/repos/vially/googlemusic-xbmc/issues/comments/{number}",
    "issue_events_url": "https://api.github.com/repos/vially/googlemusic-xbmc/issues/events{/number}",
    "issues_url": "https://api.github.com/repos/vially/googlemusic-xbmc/issues{/number}",
    "keys_url": "https://api.github.com/repos/vially/googlemusic-xbmc/keys{/key_id}",
    "labels_url": "https://api.github.com/repos/vially/googlemusic-xbmc/labels{/name}",
    "language": "Python",
    "languages_url": "https://api.github.com/repos/vially/googlemusic-xbmc/languages",
    "merges_url": "https://api.github.com/repos/vially/googlemusic-xbmc/merges",
    "milestones_url": "https://api.github.com/repos/vially/googlemusic-xbmc/milestones{/number}",
    "mirror_url": null,
    "name": "googlemusic-xbmc",
    "notifications_url": "https://api.github.com/repos/vially/googlemusic-xbmc/notifications{?since,all,participating}",
    "open_issues": 13,
    "open_issues_count": 13,
    "owner": {
        "avatar_url": "https://avatars.githubusercontent.com/u/433598?",
        "events_url": "https://api.github.com/users/vially/events{/privacy}",
        "followers_url": "https://api.github.com/users/vially/followers",
        "following_url": "https://api.github.com/users/vially/following{/other_user}",
        "gists_url": "https://api.github.com/users/vially/gists{/gist_id}",
        "gravatar_id": "4329f705a6d4ea0185f3aca9ee823d74",
        "html_url": "https://github.com/vially",
        "id": 433598,
        "login": "vially",
        "organizations_url": "https://api.github.com/users/vially/orgs",
        "received_events_url": "https://api.github.com/users/vially/received_events",
        "repos_url": "https://api.github.com/users/vially/repos",
        "site_admin": false,
        "starred_url": "https://api.github.com/users/vially/starred{/owner}{/repo}",
        "subscriptions_url": "https://api.github.com/users/vially/subscriptions",
        "type": "User",
        "url": "https://api.github.com/users/vially"
    },
    "private": false,
    "pulls_url": "https://api.github.com/repos/vially/googlemusic-xbmc/pulls{/number}",
    "pushed_at": "2014-01-17T18:38:25Z",
    "releases_url": "https://api.github.com/repos/vially/googlemusic-xbmc/releases{/id}",
    "score": 1.0,
    "size": 655,
    "ssh_url": "git@github.com:vially/googlemusic-xbmc.git",
    "stargazers_count": 91,
    "stargazers_url": "https://api.github.com/repos/vially/googlemusic-xbmc/stargazers",
    "statuses_url": "https://api.github.com/repos/vially/googlemusic-xbmc/statuses/{sha}",
    "subscribers_url": "https://api.github.com/repos/vially/googlemusic-xbmc/subscribers",
    "subscription_url": "https://api.github.com/repos/vially/googlemusic-xbmc/subscription",
    "svn_url": "https://github.com/vially/googlemusic-xbmc",
    "tags_url": "https://api.github.com/repos/vially/googlemusic-xbmc/tags",
    "teams_url": "https://api.github.com/repos/vially/googlemusic-xbmc/teams",
    "trees_url": "https://api.github.com/repos/vially/googlemusic-xbmc/git/trees{/sha}",
    "updated_at": "2014-04-28T02:12:47Z",
    "url": "https://api.github.com/repos/vially/googlemusic-xbmc",
    "watchers": 91,
    "watchers_count": 91
}