{
    "archive_url": "https://api.github.com/repos/badges/cocoapod-badges/{archive_format}{/ref}",
    "assignees_url": "https://api.github.com/repos/badges/cocoapod-badges/assignees{/user}",
    "blobs_url": "https://api.github.com/repos/badges/cocoapod-badges/git/blobs{/sha}",
    "branches_url": "https://api.github.com/repos/badges/cocoapod-badges/branches{/branch}",
    "clone_url": "https://github.com/badges/cocoapod-badges.git",
    "collaborators_url": "https://api.github.com/repos/badges/cocoapod-badges/collaborators{/collaborator}",
    "comments_url": "https://api.github.com/repos/badges/cocoapod-badges/comments{/number}",
    "commits_url": "https://api.github.com/repos/badges/cocoapod-badges/commits{/sha}",
    "compare_url": "https://api.github.com/repos/badges/cocoapod-badges/compare/{base}...{head}",
    "contents_url": "https://api.github.com/repos/badges/cocoapod-badges/contents/{+path}",
    "contributors_url": "https://api.github.com/repos/badges/cocoapod-badges/contributors",
    "created_at": "2013-05-29T18:35:11Z",
    "default_branch": "master",
    "description": "Status badges to inform a pod's latest version and platform released on Cocoapods!",
    "downloads_url": "https://api.github.com/repos/badges/cocoapod-badges/downloads",
    "events_url": "https://api.github.com/repos/badges/cocoapod-badges/events",
    "fork": false,
    "forks": 9,
    "forks_count": 9,
    "forks_url": "https://api.github.com/repos/badges/cocoapod-badges/forks",
    "full_name": "badges/cocoapod-badges",
    "git_commits_url": "https://api.github.com/repos/badges/cocoapod-badges/git/commits{/sha}",
    "git_refs_url": "https://api.github.com/repos/badges/cocoapod-badges/git/refs{/sha}",
    "git_tags_url": "https://api.github.com/repos/badges/cocoapod-badges/git/tags{/sha}",
    "git_url": "git://github.com/badges/cocoapod-badges.git",
    "has_downloads": true,
    "has_issues": true,
    "has_wiki": true,
    "homepage": "http://badges.github.io/cocoapod-badges/",
    "hooks_url": "https://api.github.com/repos/badges/cocoapod-badges/hooks",
    "html_url": "https://github.com/badges/cocoapod-badges",
    "id": 10366612,
    "issue_comment_url": "https://api.github.com/repos/badges/cocoapod-badges/issues/comments/{number}",
    "issue_events_url": "https://api.github.com/repos/badges/cocoapod-badges/issues/events{/number}",
    "issues_url": "https://api.github.com/repos/badges/cocoapod-badges/issues{/number}",
    "keys_url": "https://api.github.com/repos/badges/cocoapod-badges/keys{/key_id}",
    "labels_url": "https://api.github.com/repos/badges/cocoapod-badges/labels{/name}",
    "language": "Python",
    "languages_url": "https://api.github.com/repos/badges/cocoapod-badges/languages",
    "merges_url": "https://api.github.com/repos/badges/cocoapod-badges/merges",
    "milestones_url": "https://api.github.com/repos/badges/cocoapod-badges/milestones{/number}",
    "mirror_url": null,
    "name": "cocoapod-badges",
    "notifications_url": "https://api.github.com/repos/badges/cocoapod-badges/notifications{?since,all,participating}",
    "open_issues": 1,
    "open_issues_count": 1,
    "owner": {
        "avatar_url": "https://avatars.githubusercontent.com/u/6254238?",
        "events_url": "https://api.github.com/users/badges/events{/privacy}",
        "followers_url": "https://api.github.com/users/badges/followers",
        "following_url": "https://api.github.com/users/badges/following{/other_user}",
        "gists_url": "https://api.github.com/users/badges/gists{/gist_id}",
        "gravatar_id": "2e7541e4b61497f34ab33bd1c1f42cac",
        "html_url": "https://github.com/badges",
        "id": 6254238,
        "login": "badges",
        "organizations_url": "https://api.github.com/users/badges/orgs",
        "received_events_url": "https://api.github.com/users/badges/received_events",
        "repos_url": "https://api.github.com/users/badges/repos",
        "site_admin": false,
        "starred_url": "https://api.github.com/users/badges/starred{/owner}{/repo}",
        "subscriptions_url": "https://api.github.com/users/badges/subscriptions",
        "type": "Organization",
        "url": "https://api.github.com/users/badges"
    },
    "private": false,
    "pulls_url": "https://api.github.com/repos/badges/cocoapod-badges/pulls{/number}",
    "pushed_at": "2014-01-30T17:50:42Z",
    "releases_url": "https://api.github.com/repos/badges/cocoapod-badges/releases{/id}",
    "score": 1.0,
    "size": 1131,
    "ssh_url": "git@github.com:badges/cocoapod-badges.git",
    "stargazers_count": 56,
    "stargazers_url": "https://api.github.com/repos/badges/cocoapod-badges/stargazers",
    "statuses_url": "https://api.github.com/repos/badges/cocoapod-badges/statuses/{sha}",
    "subscribers_url": "https://api.github.com/repos/badges/cocoapod-badges/subscribers",
    "subscription_url": "https://api.github.com/repos/badges/cocoapod-badges/subscription",
    "svn_url": "https://github.com/badges/cocoapod-badges",
    "tags_url": "https://api.github.com/repos/badges/cocoapod-badges/tags",
    "teams_url": "https://api.github.com/repos/badges/cocoapod-badges/teams",
    "trees_url": "https://api.github.com/repos/badges/cocoapod-badges/git/trees{/sha}",
    "updated_at": "2014-05-07T03:24:42Z",
    "url": "https://api.github.com/repos/badges/cocoapod-badges",
    "watchers": 56,
    "watchers_count": 56
}