[
    "example.models",
    "flask_peewee.tests.test_app",
    "conf",
    "example.auth",
    "test_app",
    "app",
    "example.app",
    "rest",
    "example.views",
    "flask_peewee.db",
    "api",
    "filters",
    "flask_peewee.tests",
    "tests.rest",
    "tests.base",
    "example.admin",
    "forms",
    "example.run_example",
    "tests.test_app",
    "flask_peewee.exceptions",
    "test_config",
    "tests.admin",
    "flask_peewee.utils",
    "flask_peewee.tests.auth",
    "flask_peewee.tests.test_config",
    "flask_peewee.tests.base",
    "models",
    "flask_peewee.admin",
    "example.main",
    "tests.utils",
    "flask_peewee.tests.serializer",
    "flask_peewee.forms",
    "main",
    "config",
    "utils",
    "flask_peewee.rest",
    "example.config",
    "tests",
    "views",
    "flask_peewee.auth",
    "docs",
    "flask_peewee",
    "db",
    "auth",
    "flask_peewee.tests.rest",
    "tests.auth",
    "flask_peewee.serializer",
    "example.api",
    "docs.conf",
    "tests.serializer",
    "flask_peewee.tests.admin",
    "flask_peewee.tests.utils",
    "admin",
    "tests.test_config",
    "base",
    "flask_peewee.filters",
    "runtests",
    "exceptions",
    "run_example",
    "example",
    "serializer"
]