{
    "libs": [
        "ioloop",
        "web",
        "httpserver",
        "websocket",
        "uuid",
        "os",
        "escape",
        "textwrap",
        "urllib",
        "gen",
        "random",
        "json",
        "auth",
        "time",
        "path",
        "datetime",
        "pymongo",
        "options",
        "httpclient"
    ]
}