{
    "libs": [
        "encoding",
        "shortcuts",
        "random",
        "datetime",
        "conf",
        "contrib",
        "shutil",
        "buildout",
        "manage_additional",
        "tempfile",
        "signals",
        "re",
        "html",
        "template",
        "http",
        "warnings",
        "optparse",
        "db",
        "urllib2",
        "sys",
        "exceptions",
        "ctypes",
        "path",
        "translation",
        "subprocess",
        "b",
        "signal",
        "xmlrpclib",
        "pkg_resources",
        "django",
        "formsets",
        "defaults",
        "time",
        "urlresolvers",
        "webbrowser",
        "os",
        "safestring"
    ]
}