{
    "libs": [
        "http",
        "defaults",
        "generic",
        "db",
        "datetime",
        "signals",
        "urlresolvers",
        "contenttypes",
        "shortcuts",
        "conf",
        "contrib",
        "decorators",
        "template"
    ]
}