{
    "libs": [
        "family",
        "gridspec",
        "cholmod",
        "unittest",
        "pylab",
        "var",
        "api",
        "numbers",
        "io",
        "pand",
        "shutil",
        "numdifftools",
        "tensor",
        "graph",
        "pyplot",
        "nnet",
        "patsy",
        "json",
        "collections",
        "sqlite3",
        "numpy",
        "functools",
        "mock",
        "division",
        "testing",
        "ops",
        "mstats",
        "glob",
        "inspect",
        "matplotlib",
        "sys",
        "warnings",
        "linalg",
        "scipy",
        "copy",
        "print_function",
        "pkgutil",
        "b",
        "uuid",
        "display",
        "random",
        "itertools",
        "printing",
        "nose",
        "sparse",
        "time",
        "theano",
        "os",
        "multiprocessing"
    ]
}