{
    "libs": [
        "mimetools",
        "parse",
        "parsers",
        "HTMLParser",
        "operator",
        "sgmllib",
        "sublime_plugin",
        "re",
        "urllib",
        "entities",
        "json",
        "collections",
        "glob",
        "etree",
        "string",
        "UserDict",
        "sgmlop",
        "htmlentitydefs",
        "sys",
        "webbrowser",
        "xmllib",
        "copy",
        "b",
        "logging",
        "socket",
        "StringIO",
        "threading",
        "os",
        "sublime"
    ]
}