[
    "src",
    "conf",
    "examples.webapp2_example",
    "docs",
    "bottle_example",
    "examples.exception_mapping_example",
    "src.mimerender",
    "examples",
    "webpy_example",
    "examples.bottle_example",
    "exception_mapping_example",
    "webapp2_example",
    "examples.webpy_example",
    "flask_example",
    "mimerender",
    "docs.conf",
    "examples.flask_example"
]