{
    "archive_url": "https://api.github.com/repos/eriky/ESClient/{archive_format}{/ref}",
    "assignees_url": "https://api.github.com/repos/eriky/ESClient/assignees{/user}",
    "blobs_url": "https://api.github.com/repos/eriky/ESClient/git/blobs{/sha}",
    "branches_url": "https://api.github.com/repos/eriky/ESClient/branches{/branch}",
    "clone_url": "https://github.com/eriky/ESClient.git",
    "collaborators_url": "https://api.github.com/repos/eriky/ESClient/collaborators{/collaborator}",
    "comments_url": "https://api.github.com/repos/eriky/ESClient/comments{/number}",
    "commits_url": "https://api.github.com/repos/eriky/ESClient/commits{/sha}",
    "compare_url": "https://api.github.com/repos/eriky/ESClient/compare/{base}...{head}",
    "contents_url": "https://api.github.com/repos/eriky/ESClient/contents/{+path}",
    "contributors_url": "https://api.github.com/repos/eriky/ESClient/contributors",
    "created_at": "2012-02-22T09:57:40Z",
    "default_branch": "master",
    "description": "A lightweight and easy to use Python client for ElasticSearch",
    "downloads_url": "https://api.github.com/repos/eriky/ESClient/downloads",
    "events_url": "https://api.github.com/repos/eriky/ESClient/events",
    "fork": false,
    "forks": 15,
    "forks_count": 15,
    "forks_url": "https://api.github.com/repos/eriky/ESClient/forks",
    "full_name": "eriky/ESClient",
    "git_commits_url": "https://api.github.com/repos/eriky/ESClient/git/commits{/sha}",
    "git_refs_url": "https://api.github.com/repos/eriky/ESClient/git/refs{/sha}",
    "git_tags_url": "https://api.github.com/repos/eriky/ESClient/git/tags{/sha}",
    "git_url": "git://github.com/eriky/ESClient.git",
    "has_downloads": true,
    "has_issues": true,
    "has_wiki": true,
    "homepage": "",
    "hooks_url": "https://api.github.com/repos/eriky/ESClient/hooks",
    "html_url": "https://github.com/eriky/ESClient",
    "id": 3513273,
    "issue_comment_url": "https://api.github.com/repos/eriky/ESClient/issues/comments/{number}",
    "issue_events_url": "https://api.github.com/repos/eriky/ESClient/issues/events{/number}",
    "issues_url": "https://api.github.com/repos/eriky/ESClient/issues{/number}",
    "keys_url": "https://api.github.com/repos/eriky/ESClient/keys{/key_id}",
    "labels_url": "https://api.github.com/repos/eriky/ESClient/labels{/name}",
    "language": "Python",
    "languages_url": "https://api.github.com/repos/eriky/ESClient/languages",
    "merges_url": "https://api.github.com/repos/eriky/ESClient/merges",
    "milestones_url": "https://api.github.com/repos/eriky/ESClient/milestones{/number}",
    "mirror_url": null,
    "name": "ESClient",
    "notifications_url": "https://api.github.com/repos/eriky/ESClient/notifications{?since,all,participating}",
    "open_issues": 6,
    "open_issues_count": 6,
    "owner": {
        "avatar_url": "https://avatars.githubusercontent.com/u/839521?",
        "events_url": "https://api.github.com/users/eriky/events{/privacy}",
        "followers_url": "https://api.github.com/users/eriky/followers",
        "following_url": "https://api.github.com/users/eriky/following{/other_user}",
        "gists_url": "https://api.github.com/users/eriky/gists{/gist_id}",
        "gravatar_id": "e4388cc7b85a938e9a7c2b703fbbb2d2",
        "html_url": "https://github.com/eriky",
        "id": 839521,
        "login": "eriky",
        "organizations_url": "https://api.github.com/users/eriky/orgs",
        "received_events_url": "https://api.github.com/users/eriky/received_events",
        "repos_url": "https://api.github.com/users/eriky/repos",
        "site_admin": false,
        "starred_url": "https://api.github.com/users/eriky/starred{/owner}{/repo}",
        "subscriptions_url": "https://api.github.com/users/eriky/subscriptions",
        "type": "User",
        "url": "https://api.github.com/users/eriky"
    },
    "private": false,
    "pulls_url": "https://api.github.com/repos/eriky/ESClient/pulls{/number}",
    "pushed_at": "2014-04-21T20:30:01Z",
    "releases_url": "https://api.github.com/repos/eriky/ESClient/releases{/id}",
    "score": 1.0,
    "size": 493,
    "ssh_url": "git@github.com:eriky/ESClient.git",
    "stargazers_count": 44,
    "stargazers_url": "https://api.github.com/repos/eriky/ESClient/stargazers",
    "statuses_url": "https://api.github.com/repos/eriky/ESClient/statuses/{sha}",
    "subscribers_url": "https://api.github.com/repos/eriky/ESClient/subscribers",
    "subscription_url": "https://api.github.com/repos/eriky/ESClient/subscription",
    "svn_url": "https://github.com/eriky/ESClient",
    "tags_url": "https://api.github.com/repos/eriky/ESClient/tags",
    "teams_url": "https://api.github.com/repos/eriky/ESClient/teams",
    "trees_url": "https://api.github.com/repos/eriky/ESClient/git/trees{/sha}",
    "updated_at": "2014-04-21T20:30:01Z",
    "url": "https://api.github.com/repos/eriky/ESClient",
    "watchers": 44,
    "watchers_count": 44
}