[
    "gitmarks_exceptions",
    "gitmarks_keys",
    "config_helpers",
    "gitmark",
    "gitmark_keys",
    "gitmark_web",
    "gitmark_add",
    "gitmark_status",
    "bottle",
    "delicious_import",
    "example_settings",
    "config",
    "gitmark_friend"
]