{
    "libs": [
        "decimal",
        "functools",
        "random",
        "absolute_import",
        "datetime",
        "punycode",
        "web",
        "style",
        "pyquery",
        "uuid",
        "datab",
        "tempfile",
        "psycopg2",
        "gtk",
        "entities",
        "feedparser",
        "collections",
        "tc",
        "etree",
        "db",
        "pdb",
        "gen",
        "cookielib",
        "httplib",
        "qr",
        "h",
        "signal",
        "sha",
        "token",
        "t",
        "multiprocessing",
        "dummy_threading",
        "cStringIO",
        "zlib",
        "win32file",
        "MySQLdb",
        "encodings",
        "ioloop",
        "abc",
        "threading",
        "re",
        "decorators",
        "email",
        "fcntl",
        "optparse",
        "pygtk",
        "Queue",
        "codecs",
        "path",
        "pygeoip",
        "c",
        "logging",
        "socket",
        "imghdr",
        "action_chains",
        "traceback",
        "queue",
        "itertools",
        "extensions",
        "os",
        "marshal",
        "unittest",
        "dispatch",
        "loader",
        "bson",
        "cookiejar",
        "firefox_profile",
        "json",
        "translit",
        "cPickle",
        "webbrowser",
        "pywintypes",
        "copy",
        "pagination",
        "b",
        "pycurl",
        "StringIO",
        "cdecimal",
        "exceptions",
        "pickle",
        "QtNetwork",
        "shortcuts",
        "parse",
        "contextlib",
        "io",
        "shutil",
        "weakref",
        "QtWebKit",
        "csv",
        "pymongo",
        "mimetypes",
        "warnings",
        "keys",
        "win32con",
        "htmlentitydefs",
        "urllib2",
        "sys",
        "v2",
        "argparse",
        "request",
        "django",
        "urlparse",
        "client",
        "clean",
        "time",
        "urlresolvers",
        "QtCore"
    ]
}