[
    "leapcast.environment",
    "leapcast",
    "websocket",
    "leapcast.services.websocket",
    "services.ssdp",
    "utils",
    "__main__",
    "leapcast.utils",
    "leapcast.services.ssdp",
    "leapcast.__main__",
    "leapcast.apps.default",
    "services.leap_factory",
    "leapcast.services.leap",
    "services",
    "leapcast.apps",
    "services.leap",
    "dial",
    "default",
    "services.dial",
    "leapcast.services.dial",
    "apps",
    "services.websocket",
    "leapcast.services",
    "environment",
    "leap",
    "apps.default",
    "ssdp",
    "leapcast.services.leap_factory",
    "leap_factory"
]