{
    "archive_url": "https://api.github.com/repos/livid/picky/{archive_format}{/ref}",
    "assignees_url": "https://api.github.com/repos/livid/picky/assignees{/user}",
    "blobs_url": "https://api.github.com/repos/livid/picky/git/blobs{/sha}",
    "branches_url": "https://api.github.com/repos/livid/picky/branches{/branch}",
    "clone_url": "https://github.com/livid/picky.git",
    "collaborators_url": "https://api.github.com/repos/livid/picky/collaborators{/collaborator}",
    "comments_url": "https://api.github.com/repos/livid/picky/comments{/number}",
    "commits_url": "https://api.github.com/repos/livid/picky/commits{/sha}",
    "compare_url": "https://api.github.com/repos/livid/picky/compare/{base}...{head}",
    "contents_url": "https://api.github.com/repos/livid/picky/contents/{+path}",
    "contributors_url": "https://api.github.com/repos/livid/picky/contributors",
    "created_at": "2010-10-05T16:02:32Z",
    "default_branch": "master",
    "description": "Blog system powered by Google App Engine",
    "downloads_url": "https://api.github.com/repos/livid/picky/downloads",
    "events_url": "https://api.github.com/repos/livid/picky/events",
    "fork": false,
    "forks": 9,
    "forks_count": 9,
    "forks_url": "https://api.github.com/repos/livid/picky/forks",
    "full_name": "livid/picky",
    "git_commits_url": "https://api.github.com/repos/livid/picky/git/commits{/sha}",
    "git_refs_url": "https://api.github.com/repos/livid/picky/git/refs{/sha}",
    "git_tags_url": "https://api.github.com/repos/livid/picky/git/tags{/sha}",
    "git_url": "git://github.com/livid/picky.git",
    "has_downloads": true,
    "has_issues": true,
    "has_wiki": true,
    "homepage": "http://picky.olivida.com/",
    "hooks_url": "https://api.github.com/repos/livid/picky/hooks",
    "html_url": "https://github.com/livid/picky",
    "id": 963965,
    "issue_comment_url": "https://api.github.com/repos/livid/picky/issues/comments/{number}",
    "issue_events_url": "https://api.github.com/repos/livid/picky/issues/events{/number}",
    "issues_url": "https://api.github.com/repos/livid/picky/issues{/number}",
    "keys_url": "https://api.github.com/repos/livid/picky/keys{/key_id}",
    "labels_url": "https://api.github.com/repos/livid/picky/labels{/name}",
    "language": "Python",
    "languages_url": "https://api.github.com/repos/livid/picky/languages",
    "merges_url": "https://api.github.com/repos/livid/picky/merges",
    "milestones_url": "https://api.github.com/repos/livid/picky/milestones{/number}",
    "mirror_url": null,
    "name": "picky",
    "notifications_url": "https://api.github.com/repos/livid/picky/notifications{?since,all,participating}",
    "open_issues": 0,
    "open_issues_count": 0,
    "owner": {
        "avatar_url": "https://avatars.githubusercontent.com/u/11427?",
        "events_url": "https://api.github.com/users/livid/events{/privacy}",
        "followers_url": "https://api.github.com/users/livid/followers",
        "following_url": "https://api.github.com/users/livid/following{/other_user}",
        "gists_url": "https://api.github.com/users/livid/gists{/gist_id}",
        "gravatar_id": "9d208c7fa1e7afa739ced76bc134bfba",
        "html_url": "https://github.com/livid",
        "id": 11427,
        "login": "livid",
        "organizations_url": "https://api.github.com/users/livid/orgs",
        "received_events_url": "https://api.github.com/users/livid/received_events",
        "repos_url": "https://api.github.com/users/livid/repos",
        "site_admin": false,
        "starred_url": "https://api.github.com/users/livid/starred{/owner}{/repo}",
        "subscriptions_url": "https://api.github.com/users/livid/subscriptions",
        "type": "User",
        "url": "https://api.github.com/users/livid"
    },
    "private": false,
    "pulls_url": "https://api.github.com/repos/livid/picky/pulls{/number}",
    "pushed_at": "2010-10-05T16:09:03Z",
    "releases_url": "https://api.github.com/repos/livid/picky/releases{/id}",
    "score": 1.0,
    "size": 354,
    "ssh_url": "git@github.com:livid/picky.git",
    "stargazers_count": 45,
    "stargazers_url": "https://api.github.com/repos/livid/picky/stargazers",
    "statuses_url": "https://api.github.com/repos/livid/picky/statuses/{sha}",
    "subscribers_url": "https://api.github.com/repos/livid/picky/subscribers",
    "subscription_url": "https://api.github.com/repos/livid/picky/subscription",
    "svn_url": "https://github.com/livid/picky",
    "tags_url": "https://api.github.com/repos/livid/picky/tags",
    "teams_url": "https://api.github.com/repos/livid/picky/teams",
    "trees_url": "https://api.github.com/repos/livid/picky/git/trees{/sha}",
    "updated_at": "2013-11-30T16:29:32Z",
    "url": "https://api.github.com/repos/livid/picky",
    "watchers": 45,
    "watchers_count": 45
}