{
    "libs": [
        "Queue",
        "sublime_plugin",
        "thread",
        "re",
        "tempfile",
        "traceback",
        "subprocess",
        "sys",
        "threading",
        "json",
        "collections",
        "platform",
        "time",
        "shutil",
        "os",
        "sublime",
        "shlex"
    ]
}