[
    "tests",
    "shell",
    "application.manager",
    "models",
    "alembic.env",
    "default_settings",
    "manager",
    "manage_tests",
    "runserver",
    "application.models",
    "application.default_settings",
    "tests.manage_tests",
    "application.production",
    "application",
    "production",
    "runtests",
    "env",
    "fabfile",
    "alembic"
]