[
    "Official_Tutorial_Python_Codes.3_imgproc.sobel",
    "3_imgproc.sobel",
    "Official_Tutorial_Python_Codes",
    "Official_Tutorial_Python_Codes.3_imgproc.houghcircles",
    "sobel",
    "BasicLinearTransforms",
    "moments",
    "comparehist",
    "Official_Tutorial_Python_Codes.2_core.add_images",
    "Official_Tutorial_Python_Codes.3_imgproc.border",
    "1_introduction.modify_image",
    "Official_Tutorial_Python_Codes.3_imgproc.morphology_1",
    "pointpolygontest",
    "Official_Tutorial_Python_Codes.3_imgproc.smoothing",
    "houghcircles",
    "convexhull",
    "Official_Tutorial_Python_Codes.3_imgproc.pyramids",
    "linear_filter",
    "3_imgproc.templatematching",
    "Official_Tutorial_Python_Codes.1_introduction.modify_image",
    "OpenCV_Python_Blog.sudoku_v_0.0.6",
    "laplacian",
    "smoothing",
    "3_imgproc.findcontours",
    "Official_Tutorial_Python_Codes.3_imgproc.moments",
    "display_image",
    "Official_Tutorial_Python_Codes.3_imgproc",
    "add_images",
    "1_introduction.display_image",
    "minarearect",
    "fiter2d",
    "3_imgproc.boundingrect",
    "Official_Tutorial_Python_Codes.3_imgproc.equalizehist",
    "geometric_transform",
    "3_imgproc.houghcircles",
    "Official_Tutorial_Python_Codes.2_core.fiter2d",
    "3_imgproc.canny",
    "boundingrect",
    "3_imgproc.border",
    "Official_Tutorial_Python_Codes.3_imgproc.houghlines",
    "Official_Tutorial_Python_Codes.1_introduction",
    "equalizehist",
    "3_imgproc.laplacian",
    "3_imgproc.remap",
    "1_introduction",
    "OpenCV_Python_Blog.sudoku_v_0.0.6.perfect",
    "histogram1d",
    "Official_Tutorial_Python_Codes.3_imgproc.laplacian",
    "sudoku_v_0.0.6.perfect",
    "3_imgproc.linear_filter",
    "Official_Tutorial_Python_Codes.3_imgproc.minarearect",
    "3_imgproc.minarearect",
    "Official_Tutorial_Python_Codes.3_imgproc.comparehist",
    "3_imgproc.comparehist",
    "3_imgproc.morphology_1",
    "border",
    "OpenCV_Python_Blog.sudoku_v_0.0.6.sudoku",
    "Official_Tutorial_Python_Codes.3_imgproc.canny",
    "modify_image",
    "morphology_1",
    "3_imgproc.houghlines",
    "Official_Tutorial_Python_Codes.3_imgproc.pointpolygontest",
    "3_imgproc.pointpolygontest",
    "3_imgproc.convexhull",
    "Official_Tutorial_Python_Codes.3_imgproc.convexhull",
    "Official_Tutorial_Python_Codes.3_imgproc.remap",
    "OpenCV_Python_Blog",
    "templatematching",
    "perfect",
    "remap",
    "Official_Tutorial_Python_Codes.3_imgproc.boundingrect",
    "3_imgproc",
    "3_imgproc.geometric_transform",
    "3_imgproc.equalizehist",
    "Official_Tutorial_Python_Codes.1_introduction.display_image",
    "sudoku_v_0.0.6.sudoku",
    "2_core.add_images",
    "Official_Tutorial_Python_Codes.3_imgproc.histogram1d",
    "3_imgproc.histogram1d",
    "2_core",
    "canny",
    "Official_Tutorial_Python_Codes.3_imgproc.geometric_transform",
    "sudoku_v_0.0.6",
    "3_imgproc.smoothing",
    "2_core.BasicLinearTransforms",
    "sudoku",
    "Official_Tutorial_Python_Codes.2_core.BasicLinearTransforms",
    "findcontours",
    "Official_Tutorial_Python_Codes.3_imgproc.templatematching",
    "houghlines",
    "3_imgproc.pyramids",
    "3_imgproc.moments",
    "Official_Tutorial_Python_Codes.3_imgproc.linear_filter",
    "pyramids",
    "Official_Tutorial_Python_Codes.3_imgproc.findcontours",
    "2_core.fiter2d",
    "Official_Tutorial_Python_Codes.2_core"
]