[
    "testutil",
    "load_example",
    "protocol",
    "producer",
    "test.test_protocol",
    "kafka.client",
    "kafka.consumer",
    "test.service",
    "kafka.util",
    "kafka",
    "test.test_util",
    "test_failover_integration",
    "test_util",
    "test_package",
    "fixtures",
    "conn",
    "kafka.producer",
    "test_consumer",
    "test.test_consumer_integration",
    "service",
    "test.testutil",
    "kafka.queue",
    "test_consumer_integration",
    "codec",
    "test_client",
    "test",
    "kafka.partitioner",
    "queue",
    "kafka.conn",
    "test.test_client",
    "test_protocol",
    "test_codec",
    "kafka.codec",
    "util",
    "kafka.protocol",
    "test.test_consumer",
    "test.fixtures",
    "test.test_conn",
    "test_producer_integration",
    "test.test_package",
    "test.test_producer_integration",
    "kafka.common",
    "partitioner",
    "test_client_integration",
    "client",
    "common",
    "test.test_failover_integration",
    "test.test_client_integration",
    "test_conn",
    "consumer",
    "example",
    "test.test_codec"
]