{
    "archive_url": "https://api.github.com/repos/hmason/datastorytelling/{archive_format}{/ref}",
    "assignees_url": "https://api.github.com/repos/hmason/datastorytelling/assignees{/user}",
    "blobs_url": "https://api.github.com/repos/hmason/datastorytelling/git/blobs{/sha}",
    "branches_url": "https://api.github.com/repos/hmason/datastorytelling/branches{/branch}",
    "clone_url": "https://github.com/hmason/datastorytelling.git",
    "collaborators_url": "https://api.github.com/repos/hmason/datastorytelling/collaborators{/collaborator}",
    "comments_url": "https://api.github.com/repos/hmason/datastorytelling/comments{/number}",
    "commits_url": "https://api.github.com/repos/hmason/datastorytelling/commits{/sha}",
    "compare_url": "https://api.github.com/repos/hmason/datastorytelling/compare/{base}...{head}",
    "contents_url": "https://api.github.com/repos/hmason/datastorytelling/contents/{+path}",
    "contributors_url": "https://api.github.com/repos/hmason/datastorytelling/contributors",
    "created_at": "2013-09-01T21:40:41Z",
    "default_branch": "master",
    "description": "NYU ITP data storytelling",
    "downloads_url": "https://api.github.com/repos/hmason/datastorytelling/downloads",
    "events_url": "https://api.github.com/repos/hmason/datastorytelling/events",
    "fork": false,
    "forks": 27,
    "forks_count": 27,
    "forks_url": "https://api.github.com/repos/hmason/datastorytelling/forks",
    "full_name": "hmason/datastorytelling",
    "git_commits_url": "https://api.github.com/repos/hmason/datastorytelling/git/commits{/sha}",
    "git_refs_url": "https://api.github.com/repos/hmason/datastorytelling/git/refs{/sha}",
    "git_tags_url": "https://api.github.com/repos/hmason/datastorytelling/git/tags{/sha}",
    "git_url": "git://github.com/hmason/datastorytelling.git",
    "has_downloads": true,
    "has_issues": true,
    "has_wiki": false,
    "homepage": null,
    "hooks_url": "https://api.github.com/repos/hmason/datastorytelling/hooks",
    "html_url": "https://github.com/hmason/datastorytelling",
    "id": 12527238,
    "issue_comment_url": "https://api.github.com/repos/hmason/datastorytelling/issues/comments/{number}",
    "issue_events_url": "https://api.github.com/repos/hmason/datastorytelling/issues/events{/number}",
    "issues_url": "https://api.github.com/repos/hmason/datastorytelling/issues{/number}",
    "keys_url": "https://api.github.com/repos/hmason/datastorytelling/keys{/key_id}",
    "labels_url": "https://api.github.com/repos/hmason/datastorytelling/labels{/name}",
    "language": "Python",
    "languages_url": "https://api.github.com/repos/hmason/datastorytelling/languages",
    "merges_url": "https://api.github.com/repos/hmason/datastorytelling/merges",
    "milestones_url": "https://api.github.com/repos/hmason/datastorytelling/milestones{/number}",
    "mirror_url": null,
    "name": "datastorytelling",
    "notifications_url": "https://api.github.com/repos/hmason/datastorytelling/notifications{?since,all,participating}",
    "open_issues": 5,
    "open_issues_count": 5,
    "owner": {
        "avatar_url": "https://avatars.githubusercontent.com/u/17936?",
        "events_url": "https://api.github.com/users/hmason/events{/privacy}",
        "followers_url": "https://api.github.com/users/hmason/followers",
        "following_url": "https://api.github.com/users/hmason/following{/other_user}",
        "gists_url": "https://api.github.com/users/hmason/gists{/gist_id}",
        "gravatar_id": "c87a84cf3b06077036deade1b44aa45e",
        "html_url": "https://github.com/hmason",
        "id": 17936,
        "login": "hmason",
        "organizations_url": "https://api.github.com/users/hmason/orgs",
        "received_events_url": "https://api.github.com/users/hmason/received_events",
        "repos_url": "https://api.github.com/users/hmason/repos",
        "site_admin": false,
        "starred_url": "https://api.github.com/users/hmason/starred{/owner}{/repo}",
        "subscriptions_url": "https://api.github.com/users/hmason/subscriptions",
        "type": "User",
        "url": "https://api.github.com/users/hmason"
    },
    "private": false,
    "pulls_url": "https://api.github.com/repos/hmason/datastorytelling/pulls{/number}",
    "pushed_at": "2013-10-17T15:05:51Z",
    "releases_url": "https://api.github.com/repos/hmason/datastorytelling/releases{/id}",
    "score": 1.0,
    "size": 32506,
    "ssh_url": "git@github.com:hmason/datastorytelling.git",
    "stargazers_count": 48,
    "stargazers_url": "https://api.github.com/repos/hmason/datastorytelling/stargazers",
    "statuses_url": "https://api.github.com/repos/hmason/datastorytelling/statuses/{sha}",
    "subscribers_url": "https://api.github.com/repos/hmason/datastorytelling/subscribers",
    "subscription_url": "https://api.github.com/repos/hmason/datastorytelling/subscription",
    "svn_url": "https://github.com/hmason/datastorytelling",
    "tags_url": "https://api.github.com/repos/hmason/datastorytelling/tags",
    "teams_url": "https://api.github.com/repos/hmason/datastorytelling/teams",
    "trees_url": "https://api.github.com/repos/hmason/datastorytelling/git/trees{/sha}",
    "updated_at": "2014-05-01T05:46:09Z",
    "url": "https://api.github.com/repos/hmason/datastorytelling",
    "watchers": 48,
    "watchers_count": 48
}