[
    "brokenapp.migrations",
    "tests.test_helper_misc",
    "chardet.chardet.big5prober",
    "south.orm",
    "annoying_autoonetoone",
    "python.south.tests.deps_c.migrations.0003_c",
    "lib.python.south.management.commands.migrationcheck",
    "python.south.tests.deps_c.migrations.0001_c",
    "vendor-local.lib.python.south.tests.deps_a.migrations.0005_a",
    "test_lxml",
    "python.south.migration.utils",
    "langgreekmodel",
    "packages.chardet.chardet.mbcssm",
    "otherfakeapp",
    "vendor-local.packages.beautifulsoup4.bs4.diagnose",
    "django-recaptcha.captcha.models",
    "redirects.tests",
    "pyquery",
    "packages.beautifulsoup4.bs4.dammit",
    "lib.l10n_utils.tests.test_files.extract_me",
    "tests.deps_a.migrations",
    "python.south.tests.deps_c.migrations.0005_c",
    "mozorg.hierarchy",
    "bedrock.facebookapps.decorators",
    "commands.migrationcheck",
    "facebookapps.urls",
    "lib.python.south.introspection_plugins.django_audit_log",
    "facebookapps",
    "chardet.chardet.escprober",
    "util",
    "vendor-local.packages.chardet.chardet.utf8prober",
    "l10n_utils.middleware",
    "lib.python.south.tests.brokenapp.migrations.0003_depends_on_higher",
    "vendor-local.packages.chardet.chardet.charsetgroupprober",
    "test_files.extract_me_with_langfiles",
    "test_utils",
    "decorators",
    "helpers.social_widgets",
    "gb2312freq",
    "south.hacks.django_1_0",
    "codingstatemachine",
    "bedrock.legal.models",
    "db.generic",
    "brokenapp.migrations.0002_depends_on_unknown",
    "otherfakeapp.models",
    "python.south.tests.brokenapp.migrations.0003_depends_on_higher",
    "tests.test_forms",
    "python.pyquery.rules",
    "lib.l10n_utils.tests.test_files.extract_me_with_langfiles_lazy",
    "test_htmlparser",
    "mozorg.email_contribute",
    "update.deploy-stage",
    "chardet.chardet.chardistribution",
    "south.creator",
    "pyodbc",
    "research.urls",
    "big5prober",
    "legal.urls",
    "south.tests.otherfakeapp.migrations",
    "bedrock.persona",
    "packages.beautifulsoup4.bs4.tests",
    "python.pyquery.cssselectpatch",
    "vendor-local.packages.chardet.chardet",
    "vendor-local.packages.certifi",
    "bedrock.foundation.models",
    "facebookapps.tests.test_utils",
    "test_footer_form",
    "south.tests.otherfakeapp",
    "emptyapp",
    "vendor-local.lib.python.south.management.commands.graphmigrations",
    "management.commands.testserver",
    "l10n_utils.tests.test_gettext",
    "vendor-local.lib.python.south.tests.brokenapp.migrations.0002_depends_on_unknown",
    "vendor-local.lib.python.south.creator.changes",
    "mozorg.helpers",
    "vendor-local.lib.python.south.tests.deps_a.migrations.0003_a",
    "deps_a.migrations.0003_a",
    "python.south.introspection_plugins.django_tagging",
    "vendor-local.packages.certifi.certifi",
    "persona.urls",
    "python.south.creator.changes",
    "extract_me_with_langfiles",
    "circular_b.migrations.0001_first",
    "vendor-local.lib.python.south.tests.deps_a.migrations.0001_a",
    "south.tests.fakeapp.migrations.0002_eggs",
    "vendor-local.lib.python.south.tests.otherfakeapp.migrations",
    "bedrock.mozorg.tests.test_views",
    "db.firebird",
    "tests.non_managed",
    "lib.python.south.tests.otherfakeapp.migrations.0001_first",
    "bs4.tests.test_tree",
    "changes",
    "chardet.chardet.hebrewprober",
    "lib.python.south.introspection_plugins.django_objectpermissions",
    "tests.otherfakeapp.migrations",
    "mozorg.tests.test_helper_download_buttons",
    "mozorg.decorators",
    "packages.beautifulsoup4.scripts",
    "beautifulsoup4.scripts.demonstrate_parser_differences",
    "management.commands.migrate",
    "migration.utils",
    "bedrock.newsletter.views",
    "lib.python.south.management.commands.test",
    "vendor-local.packages.chardet.chardet.escsm",
    "management.commands.schemamigration",
    "l10n_utils.tests",
    "extract_me_with_langfiles_lazy",
    "settings.newsletters",
    "bedrock.mozorg.tests.test_util",
    "deps_c.migrations.0004_c",
    "python.south.tests.circular_b.models",
    "migration.migrators",
    "vendor-local.lib.python.south.tests.otherfakeapp.models",
    "lib.python.south.introspection_plugins.django_timezones",
    "python.south.management.commands.migrate",
    "packages.chardet.chardet.sjisprober",
    "creator.changes",
    "tests.views",
    "bedrock",
    "tests.deps_c.migrations.0002_c",
    "datamigration",
    "management.commands.graphmigrations",
    "python.south.tests.db_mysql",
    "python.south.tests.deps_c.models",
    "packages.chardet.chardet.langhebrewmodel",
    "bedrock.redirects.tests",
    "bedrock.press",
    "lib.python.south.tests.freezer",
    "deps_a.migrations.0004_a",
    "source.conf",
    "memcache",
    "management.commands.datamigration",
    "vendor-local.packages.chardet.chardet.hebrewprober",
    "press.models",
    "deps_b.migrations.0002_b",
    "test_shim",
    "tests.test_template",
    "vendor-local.lib.python.south.tests.brokenapp.models",
    "update.deploy-prod",
    "chardet.chardet.langcyrillicmodel",
    "south.tests.brokenapp.migrations.0003_depends_on_higher",
    "python.south.models",
    "tests.test_util",
    "newsletter.tests.test_footer_form",
    "tests.deps_c.migrations.0004_c",
    "db.oracle",
    "vendor-local.lib.python.south.tests.inspector",
    "exceptions",
    "python.south.migration.migrators",
    "chardet.chardet.langbulgarianmodel",
    "foundation.models",
    "python.south.tests.fakeapp.migrations.0002_eggs",
    "south.tests.non_managed",
    "bedrock.l10n_example.urls",
    "press.views",
    "tests.deps_b.models",
    "beautifulsoup4.bs4.tests.test_html5lib",
    "bedrock.mozorg.tests.test_helper_download_buttons",
    "captcha",
    "vendor-local.packages.chardet.chardet.charsetprober",
    "escprober",
    "beautifulsoup4.bs4.diagnose",
    "deps_b.migrations.0003_b",
    "bs4.tests.test_lxml",
    "packages.chardet.chardet.escprober",
    "tests.test_helper_download_buttons",
    "vendor-local.packages.chardet.chardet.big5freq",
    "python.south.tests.brokenapp.migrations.0002_depends_on_unknown",
    "chardet.euckrprober",
    "deps_b.migrations.0005_b",
    "python.south.tests.brokenapp",
    "lib.python.south.tests.circular_b.migrations",
    "mbcharsetprober",
    "deps_a.migrations",
    "tests.urls",
    "python.south.tests.deps_c.migrations.0004_c",
    "bedrock.lightbeam.urls",
    "python.south.tests.circular_a.models",
    "vendor-local.lib.python.south.orm",
    "bedrock.mozorg.management",
    "test_tree",
    "legal.forms",
    "lib.l10n_utils.models",
    "python.south.tests.otherfakeapp.migrations.0001_first",
    "captcha.fields",
    "test_helper_misc",
    "south.tests.fakeapp",
    "vendor-local.packages.chardet.chardet.euckrprober",
    "packages.chardet.chardet.eucjpprober",
    "constants",
    "mozorg.tests.test_decorators",
    "vendor-local.lib.python.south.utils",
    "south.db.sql_server.pyodbc",
    "bedrock.firefox.tests",
    "test_dotlang",
    "lib.python.south.management.commands.datamigration",
    "generic",
    "south.management.commands.test",
    "bs4.tests.test_htmlparser",
    "python.south.tests.deps_c.migrations.0002_c",
    "commands.schemamigration",
    "mozorg",
    "tests.test_files.extract_me_with_langfiles",
    "vendor-local.lib.python.south.tests.fakeapp.migrations.0001_spam",
    "chardet.chardet.langthaimodel",
    "l10n_example.models",
    "bs4.tests.test_docs",
    "vendor-local.lib.python.south.tests.logger",
    "hierarchy",
    "tests.test_dotlang",
    "python.south.tests.inspector",
    "bedrock_truncate_database",
    "tabzilla.urls",
    "chardet.chardet",
    "mozorg.tests.views",
    "vendor-local.packages.beautifulsoup4",
    "south.migration",
    "lib.l10n_utils.helpers",
    "lib.python.south.tests.deps_c.models",
    "charsetprober",
    "south.management.commands.schemamigration",
    "south.tests.fakeapp.migrations",
    "db.sql_server.pyodbc",
    "lib.python.south.test_shim",
    "vendor-local.packages.chardet.chardet.langgreekmodel",
    "bs4.tests.test_builder_registry",
    "bin.update.deploy-demo1",
    "bin.update.deploy-demo2",
    "bin.update.deploy-demo3",
    "bin.update.deploy-demo4",
    "bin.update.deploy-demo5",
    "l10n_utils.tests.test_files.extract_me_with_langfiles",
    "lib.python.south.tests.deps_c.migrations.0005_c",
    "vendor-local.lib.python.south.exceptions",
    "deps_a.migrations.0002_a",
    "south.management.commands.convert_to_south",
    "bedrock.tabzilla.middleware",
    "python.south.db",
    "vendor-local.lib.python.pyquery.ajax",
    "test_files",
    "fakeapp",
    "chardet.chardet.euckrfreq",
    "src.django-recaptcha.captcha.tests",
    "vendor-local.packages.chardet.chardet.euctwprober",
    "vendor-local.lib.python.south.management.commands.test",
    "south.management.commands.migrationcheck",
    "south.tests.brokenapp.migrations.0002_depends_on_unknown",
    "tests.test_soup",
    "chardet.chardet.escsm",
    "update.deploy_dev_base",
    "tests.freezer",
    "bedrock.grants",
    "firefox.tests.test_base",
    "vendor-local.packages.beautifulsoup4.bs4.builder._lxml",
    "privacy.views",
    "packages.certifi",
    "vendor-local.lib.python.south.tests.fakeapp.migrations.0002_eggs",
    "langcyrillicmodel",
    "packages.chardet.chardet.utf8prober",
    "crontab",
    "firefox_details",
    "lib.python.south.tests.brokenapp.migrations.0002_depends_on_unknown",
    "dotlang",
    "south.introspection_plugins.django_taggit",
    "newsletter.tests.test_misc",
    "utils.datetime_utils",
    "vendor-local.lib.python.south.tests.circular_b.models",
    "research",
    "python.south.v2",
    "vendor-local.lib.python.south.tests.non_managed",
    "sjisprober",
    "vendor-local.lib.python.south.migration.utils",
    "0002_second",
    "deploy_base",
    "foundation",
    "newsletter.helpers",
    "deps_a.migrations.0005_a",
    "tabzilla",
    "chardet.langhebrewmodel",
    "vendor-local.packages.chardet.chardet.universaldetector",
    "langhungarianmodel",
    "base",
    "tests.test_context_processors",
    "deps_b.migrations.0001_b",
    "datetime_utils",
    "bedrock.grants.views",
    "bedrock.grants.urls",
    "dammit",
    "lib.python.south.tests.logger",
    "vendor-local.packages.chardet",
    "privacy",
    "vendor-local.packages.certifi.certifi.core",
    "south.tests.otherfakeapp.migrations.0001_first",
    "tests.db_mysql",
    "l10n_utils.helpers",
    "cssselectpatch",
    "south.db.sqlite3",
    "lib.python.south.orm",
    "bedrock.facebookapps.tests",
    "deps_b.migrations.0004_b",
    "beautifulsoup4.bs4.testing",
    "vendor-local.lib.python.south.tests.deps_b.migrations.0005_b",
    "misc",
    "circular_a.migrations.0001_first",
    "commands.datamigration",
    "bin.update.deploy_dev_base",
    "tests.brokenapp.migrations",
    "south.tests.db_mysql",
    "facebookapps.views",
    "tests.fakeapp.migrations.0002_eggs",
    "chardistribution",
    "bedrock.newsletter.tests.test_misc",
    "l10n_merge",
    "lib.python.south.management.commands.syncdb",
    "python.south.tests.circular_a.migrations",
    "south.tests.deps_a.models",
    "tests.emptyapp.models",
    "packages.beautifulsoup4.doc.source.conf",
    "vendor-local.lib.python.south.tests.logic",
    "south.tests.brokenapp.migrations.0004_higher",
    "lib.python.south.tests.otherfakeapp.migrations",
    "vendor-local.lib.python.south.tests.deps_b.migrations.0003_b",
    "bedrock.firefox.models",
    "python.south.tests.deps_b",
    "python.south.tests.deps_c",
    "python.south.tests.deps_a",
    "vendor-local.lib.python.pyquery.rules",
    "beautifulsoup4.bs4",
    "tests.circular_a",
    "lib.l10n_utils.tests.test_helpers",
    "bedrock.firefox.tests.test_views",
    "helpers.misc",
    "vendor-local.lib.python.south.modelsinspector",
    "python.south",
    "bedrock.mozorg.tests.urls",
    "certifi",
    "tests.non_managed.models",
    "test_gettext",
    "vendor-local.lib.python.pyquery.cssselectpatch",
    "l10n_example.urls",
    "vendor-local.lib.python.south.models",
    "tests.fakeapp.models",
    "tests.brokenapp.models",
    "south.creator.freezer",
    "bedrock.gigabit",
    "lib.python.south.tests.brokenapp.migrations.0001_depends_on_unmigrated",
    "packages.beautifulsoup4.bs4.builder._lxml",
    "bedrock.styleguide.models",
    "python.south.tests.non_managed.models",
    "bedrock.settings.base",
    "lib.python.south.management.commands.schemamigration",
    "db.sql_server",
    "social_widgets",
    "bs4",
    "chardet.chardet.euctwfreq",
    "newsletter.urls",
    "brokenapp.migrations.0001_depends_on_unmigrated",
    "bedrock.mozorg.middleware",
    "tabzilla.views",
    "migrations.0003_depends_on_higher",
    "lib.python.south.db",
    "lib.l10n_utils.dotlang",
    "packages.beautifulsoup4.bs4.tests.test_lxml",
    "lib",
    "lib.l10n_utils.template",
    "mozorg.views",
    "lib.python.south.models",
    "vendor-local.lib.python.south.introspection_plugins",
    "settings_test",
    "otherfakeapp.migrations",
    "south.utils.datetime_utils",
    "vendor-local.src.django-recaptcha.captcha.fields",
    "tests.circular_b",
    "bedrock.mozorg.helpers",
    "python.south.tests.circular_b",
    "vendor-local.lib.python.south.tests.circular_a.migrations",
    "python.pyquery.ajax",
    "vendor-local.lib.python.south.hacks",
    "vendor-local.lib.python.south.migration.base",
    "mozorg.helpers.social_widgets",
    "packages.chardet.chardet.mbcharsetprober",
    "chardet.chardet.jisfreq",
    "tests.test_html5lib",
    "l10n_utils.tests.test_commands",
    "mozorg.tests.test_context_processors",
    "lib.l10n_utils.cache",
    "lib.python.south.tests.otherfakeapp",
    "introspection_plugins.annoying_autoonetoone",
    "l10n_utils.tests.test_files.urls",
    "bedrock.press.models",
    "bedrock.l10n_example",
    "doc",
    "builder._lxml",
    "l10n_utils.dotlang",
    "tests.test_files",
    "captcha.forms",
    "press.forms",
    "mozorg.tests.test_hierarchy",
    "lib.python.south.tests.circular_b",
    "bedrock.firefox.urls",
    "vendor-local.src.django-recaptcha.captcha.backends.default.urls",
    "0003_alter_spam",
    "migrations.0001_spam",
    "0004_c",
    "0004_b",
    "0004_a",
    "src.django-recaptcha.captcha.widgets",
    "vendor-local.lib.python.south.tests.circular_a",
    "vendor-local.lib.python.south.tests.circular_b",
    "lib.python.south.management.commands.startmigration",
    "vendor-local.packages.beautifulsoup4.bs4.builder._html5lib",
    "bedrock.settings.jenkins",
    "bedrock.facebookapps",
    "vendor-local.lib.python.south.management.commands.testserver",
    "python.south.db.sql_server.pyodbc",
    "python.south.exceptions",
    "tests.deps_c.migrations",
    "commands.bedrock_truncate_database",
    "db",
    "migrators",
    "0001_spam",
    "packages.chardet.chardet.codingstatemachine",
    "bedrock.firefox.context_processors",
    "lib.python.south.introspection_plugins.annoying_autoonetoone",
    "actions",
    "firefox.views",
    "bedrock.mozorg.tests.views",
    "bedrock.lightbeam",
    "tests.brokenapp.migrations.0004_higher",
    "lib.python.south.management.commands.migrate",
    "grants.urls",
    "lib.python.south.tests.inspector",
    "south.db.postgresql_psycopg2",
    "packages.chardet.chardet.langcyrillicmodel",
    "packages.python-memcached",
    "packages.chardet.chardet.euckrprober",
    "bedrock.press.views",
    "python-memcached.memcache",
    "fields",
    "south.tests.brokenapp.migrations",
    "tests.test_base",
    "vendor-local.packages.chardet.chardet.sbcsgroupprober",
    "south.tests.fakeapp.migrations.0001_spam",
    "bedrock.redirects",
    "chardet.langhungarianmodel",
    "bs4.builder._lxml",
    "test_builder_registry",
    "south.tests.deps_a.migrations",
    "creator",
    "chardet.chardet.sbcharsetprober",
    "testing",
    "lib.python.pyquery.cssselectpatch",
    "vendor-local.lib.python.south.tests.deps_b.migrations.0004_b",
    "south.utils.py3",
    "migration",
    "lib.python.south.tests.autodetection",
    "vendor-local.packages.chardet.chardet.langthaimodel",
    "tests.deps_a",
    "tests.deps_b",
    "tests.deps_c",
    "0001_first",
    "vendor-local.lib.python.south.test_shim",
    "doc.source",
    "python.south.tests.fakeapp.migrations.0001_spam",
    "python.south.tests.otherfakeapp.migrations.0003_third",
    "migrations.0001_first",
    "vendor-local.lib.python.south.tests.deps_b.migrations.0002_b",
    "non_managed.models",
    "chardet.eucjpprober",
    "bs4.builder",
    "south.tests.logic",
    "chardet.chardistribution",
    "postgresql_psycopg2",
    "src.django-recaptcha.captcha.forms",
    "south.tests.deps_a.migrations.0002_a",
    "python.south.utils.py3",
    "pyquery.test",
    "lib.python.south.migration",
    "lib.python.south.tests.deps_b.migrations.0002_b",
    "lib.l10n_utils.tests",
    "lib.python.south.tests.circular_a.migrations",
    "0002_a",
    "test_hierarchy",
    "0002_c",
    "0002_b",
    "commands.graphmigrations",
    "migrations.0002_depends_on_unknown",
    "urls",
    "bedrock.lightbeam.models",
    "tests.circular_a.models",
    "facebookapps.tests.test_views",
    "tests.brokenapp.migrations.0001_depends_on_unmigrated",
    "python.south.introspection_plugins.django_objectpermissions",
    "python.south.tests.otherfakeapp.models",
    "mozorg.tests.test_util",
    "tests.test_lxml",
    "tests.test_docs",
    "deps_b.migrations",
    "lib.python.south.tests.non_managed.models",
    "lib.python.south.db.generic",
    "bedrock.mozorg",
    "deps_a.migrations.0001_a",
    "tests.deps_a.migrations.0001_a",
    "packages.beautifulsoup4",
    "beautifulsoup4.bs4.tests.test_builder_registry",
    "vendor-local.lib.python.south",
    "bedrock.mozorg.management.commands.bedrock_truncate_database",
    "vendor-local.lib.python.south.tests.deps_a.migrations",
    "backends",
    "vendor-local.lib.python.south.db.generic",
    "bedrock.mozorg.helpers.social_widgets",
    "src.django-recaptcha.captcha.backends.default",
    "vendor-local.packages.beautifulsoup4.bs4",
    "south.db",
    "lib.l10n_utils.gettext",
    "packages.chardet.chardet.escsm",
    "south.tests",
    "test_email_contribute",
    "south.db.firebird",
    "vendor-local.lib.python.south.tests.brokenapp.migrations",
    "logger",
    "south.management.commands.datamigration",
    "chardet.chardet.langhungarianmodel",
    "default.urls",
    "settings.jenkins",
    "src.django-recaptcha.captcha",
    "lightbeam.urls",
    "db.postgresql_psycopg2",
    "pyquery.cssselectpatch",
    "south.tests.non_managed.models",
    "chardet.chardet.sjisprober",
    "vendor-local.lib.python.pyquery.test",
    "bedrock.research.urls",
    "python.south.db.sql_server",
    "lib.python.south.introspection_plugins.django_tagging",
    "lib.python.south.creator.actions",
    "south.tests.otherfakeapp.models",
    "lightbeam.models",
    "bedrock.mozorg.helpers.misc",
    "bedrock.gigabit.urls",
    "0005_b",
    "0005_c",
    "conf",
    "0005_a",
    "lib.python.south.db.oracle",
    "0002_depends_on_unknown",
    "test_helpers",
    "python.south.tests.circular_b.migrations.0001_first",
    "test_helper_download_buttons",
    "chardet.chardet.constants",
    "south.tests.otherfakeapp.migrations.0002_second",
    "tests.autodetection",
    "packages.chardet.chardet.gb2312freq",
    "south.tests.circular_b.models",
    "lib.python.south.tests",
    "packages.chardet.chardet.langgreekmodel",
    "euctwprober",
    "l10n_extract",
    "tests.test_hierarchy",
    "vendor-local.packages.chardet.chardet.gb2312freq",
    "vendor-local.lib.python.south.introspection_plugins.django_objectpermissions",
    "sqlite3",
    "helpers",
    "chardet.mbcharsetprober",
    "south.v2",
    "deps_a",
    "deps_c",
    "deps_b",
    "bs4.tests.test_html5lib",
    "deploy-stage",
    "tests.test_decorators",
    "vendor-local.src.django-recaptcha.captcha.client",
    "l10n_utils.tests.test_template",
    "south.tests.deps_c.models",
    "deploy_dev_base",
    "python.south.tests.db_firebird",
    "python.south.management.commands.migrationcheck",
    "packages.beautifulsoup4.bs4.tests.test_builder_registry",
    "facebookapps.models",
    "python.south.introspection_plugins.annoying_autoonetoone",
    "lib.python.south.tests.deps_a",
    "lib.python.south.tests.deps_c",
    "lib.python.south.tests.deps_b",
    "client",
    "tests.deps_a.migrations.0005_a",
    "south.tests.brokenapp",
    "migrations.0002_second",
    "south.modelsinspector",
    "lib.python.south.v2",
    "scripts.demonstrate_parser_differences",
    "python.pyquery.test",
    "python.south.tests.non_managed",
    "packages.chardet.chardet.sbcsgroupprober",
    "bedrock.mozorg.hierarchy",
    "tests.emptyapp",
    "packages.beautifulsoup4.bs4.tests.test_html5lib",
    "lib.python.south.creator",
    "press",
    "python.south.db.oracle",
    "mysql",
    "bedrock.facebookapps.tests.test_decorators",
    "gb2312prober",
    "bedrock.persona.models",
    "vendor-local.packages.chardet.chardet.latin1prober",
    "python.south.tests.deps_a.models",
    "bedrock.newsletter.forms",
    "commands.migrate",
    "signals",
    "source",
    "newsletter.tests.test_views",
    "south.tests.emptyapp.models",
    "south.migration.utils",
    "db.mysql",
    "bedrock.gigabit.models",
    "bedrock.legal.views",
    "euckrprober",
    "bin",
    "src.django-recaptcha.captcha.models",
    "manage",
    "lib.python.south.hacks.django_1_0",
    "update_site",
    "firefox.forms",
    "python.south.creator.actions",
    "schemamigration",
    "python.south.utils.datetime_utils",
    "python.south.introspection_plugins.geodjango",
    "l10n_utils.cache",
    "euckrfreq",
    "south.db.generic",
    "vendor-local.lib.python.south.management.commands.startmigration",
    "bedrock.facebookapps.utils",
    "0003_a",
    "0003_b",
    "0003_c",
    "tests.deps_a.migrations.0002_a",
    "grants.views",
    "south.tests.fakeapp.models",
    "lib.python.south.tests.otherfakeapp.migrations.0002_second",
    "0001_b",
    "lib.python.south.tests.circular_b.models",
    "0001_a",
    "l10n_utils.management.commands.l10n_merge",
    "chardet.chardet.gb2312prober",
    "tabzilla.middleware",
    "hacks.django_1_0",
    "bedrock.tabzilla",
    "tests.deps_b.migrations.0004_b",
    "south.tests.brokenapp.migrations.0001_depends_on_unmigrated",
    "south.test_shim",
    "vendor-local.src.django-recaptcha.test_settings",
    "lib.python.south.modelsinspector",
    "firefox.tests",
    "tests.deps_b.migrations.0002_b",
    "pyquery.rules",
    "chardet.gb2312prober",
    "test_soup",
    "doc.source.conf",
    "0001_c",
    "tests.test_builder_registry",
    "newsletter.utils",
    "bs4.dammit",
    "python.south.tests.deps_a.migrations.0004_a",
    "south.management.commands.startmigration",
    "south.tests.deps_a.migrations.0001_a",
    "python.south.tests.circular_a",
    "vendor-local.lib.python.south.tests.circular_a.models",
    "builder._htmlparser",
    "vendor-local.lib.python.south.tests.deps_a.models",
    "test_misc",
    "vendor-local.lib.python.south.management.commands.syncdb",
    "south.creator.actions",
    "lib.python.south.management",
    "chardet.chardet.big5freq",
    "l10n_utils.management",
    "firefox.urls",
    "bedrock.mozorg.tests.test_hierarchy",
    "packages.chardet.chardet.euckrfreq",
    "graphmigrations",
    "packages",
    "tabzilla.tests",
    "bedrock.mozorg.tests.test_context_processors",
    "vendor-local.lib.python.south.tests.otherfakeapp.migrations.0003_third",
    "bs4.tests.test_soup",
    "bedrock.mozorg.views",
    "deps_c.migrations.0001_c",
    "packages.chardet.chardet.langthaimodel",
    "tests.test_tree",
    "big5freq",
    "vendor-local.lib.python.south.creator",
    "python.south.db.generic",
    "redirects.util",
    "tests.test_helper_social_widgets",
    "python.south.hacks",
    "vendor-local.packages.chardet.chardet.mbcsgroupprober",
    "vendor-local.packages.python-memcached.memcache",
    "scripts",
    "otherfakeapp.migrations.0003_third",
    "vendor-local.packages.chardet.chardet.mbcharsetprober",
    "lib.python.south.introspection_plugins",
    "vendor-local.lib.python.south.tests.circular_b.migrations",
    "eucjpprober",
    "python.south.modelsinspector",
    "vendor-local.packages.beautifulsoup4.bs4.builder._htmlparser",
    "lib.python",
    "deploy-prod",
    "backends.default",
    "python.south.tests.freezer",
    "bedrock.firefox.views",
    "sql_server.pyodbc",
    "python.south.hacks.django_1_0",
    "lib.python.south.tests.db",
    "lib.l10n_utils.tests.test_gettext",
    "python.south.tests.fakeapp.models",
    "lib.python.south.tests.deps_c.migrations",
    "south.db.oracle",
    "introspection_plugins.geodjango",
    "python.south.tests.brokenapp.migrations.0001_depends_on_unmigrated",
    "deps_c.migrations.0002_c",
    "vendor-local.lib.python.south.tests.freezer",
    "fakeapp.migrations.0003_alter_spam",
    "south.tests.deps_a.migrations.0003_a",
    "bedrock.legal.tests",
    "south.hacks",
    "bedrock_util",
    "test_helper_social_widgets",
    "bin.update_site",
    "vendor-local.lib.python.south.tests.deps_c.models",
    "grants_db",
    "gigabit.models",
    "middleware",
    "lib.python.south.signals",
    "vendor-local.lib.python.south.hacks.django_1_0",
    "tests.deps_a.migrations.0004_a",
    "south.tests.deps_b.migrations.0004_b",
    "bedrock.firefox",
    "beautifulsoup4.bs4.tests.test_tree",
    "python.south.tests.deps_a.migrations.0002_a",
    "diagnose",
    "south.db.mysql",
    "sbcharsetprober",
    "lib.python.south.tests.deps_a.models",
    "captcha.backends.default.urls",
    "south.tests.deps_b.migrations.0001_b",
    "0003_depends_on_higher",
    "management.commands.l10n_extract",
    "test_docs",
    "lib.python.south.hacks",
    "south.utils",
    "bedrock.persona.urls",
    "packages.chardet.chardet.jpcntx",
    "management.commands.syncdb",
    "vendor-local.src.django-recaptcha.captcha.widgets",
    "newsletter",
    "vendor-local.packages.chardet.chardet.euckrfreq",
    "south.tests.deps_a.migrations.0005_a",
    "bedrock.redirects.urls",
    "langbulgarianmodel",
    "packages.beautifulsoup4.bs4.builder",
    "packages.beautifulsoup4.bs4.builder._htmlparser",
    "packages.certifi.certifi.core",
    "bedrock.firefox.tests.test_base",
    "test",
    "jenkins",
    "bs4.testing",
    "vendor-local.lib.python.south.tests.db_mysql",
    "lib.python.south.db.mysql",
    "captcha.backends.default",
    "lib.python.south.utils.datetime_utils",
    "models",
    "mbcssm",
    "bedrock.mozorg.management.commands",
    "update",
    "south.introspection_plugins.django_objectpermissions",
    "l10n_utils.models",
    "bedrock.newsletter.tests",
    "python-memcached",
    "deps_b.models",
    "vendor-local.src.django-recaptcha.captcha.forms",
    "bedrock.settings",
    "django-recaptcha.test_settings",
    "lib.python.south.tests.deps_c.migrations.0001_c",
    "lib.python.south.db.sqlite3",
    "src.django-recaptcha.captcha.client",
    "chardet.hebrewprober",
    "lib.python.south.tests.deps_c.migrations.0003_c",
    "tests.deps_b.migrations.0001_b",
    "test_base",
    "commands.testserver",
    "south.tests.circular_b.migrations",
    "tests.deps_a.migrations.0003_a",
    "latin1prober",
    "bedrock.mozorg.helpers.download_buttons",
    "oracle",
    "south.introspection_plugins.django_audit_log",
    "l10n_utils",
    "tests.deps_b.migrations.0005_b",
    "python.south.logger",
    "mozorg.tests.test_helper_social_widgets",
    "lib.python.south.tests.db_mysql",
    "0001_depends_on_unmigrated",
    "vendor-local.lib.python.south.introspection_plugins.django_timezones",
    "tests.deps_b.migrations.0003_b",
    "lib.python.pyquery.test",
    "packages.chardet.chardet",
    "tests.test_misc",
    "vendor-local.packages.beautifulsoup4.bs4.tests.test_htmlparser",
    "escsm",
    "jisfreq",
    "introspection_plugins",
    "vendor-local.lib.python.south.db.firebird",
    "vendor-local.lib.python.south.introspection_plugins.annoying_autoonetoone",
    "chardet.chardet.eucjpprober",
    "management.commands.bedrock_truncate_database",
    "vendor-local.lib.python.south.tests.brokenapp.migrations.0003_depends_on_higher",
    "extract_me",
    "vendor-local.lib",
    "south.exceptions",
    "vendor-local.lib.python.south.management.commands",
    "packages.chardet.chardet.latin1prober",
    "bedrock.privacy.models",
    "bs4.diagnose",
    "test_files.extract_me_with_langfiles_lazy",
    "vendor-local.lib.python.south.utils.datetime_utils",
    "lib.python.south.tests.db_firebird",
    "south.tests.logger",
    "otherfakeapp.migrations.0002_second",
    "vendor-local.lib.python.south.management.commands.datamigration",
    "migrations.0003_alter_spam",
    "update.deploy_base",
    "lib.python.south.tests.fakeapp.models",
    "mozorg.helpers.download_buttons",
    "python.south.test_shim",
    "email_contribute",
    "chardet.chardet.codingstatemachine",
    "certifi.core",
    "tests.circular_b.migrations",
    "newsletter.tests.test_forms",
    "python.south.tests.emptyapp.models",
    "python.south.management.commands.test",
    "core",
    "bedrock.mozorg.tests",
    "vendor-local.lib.python.south.management.commands.convert_to_south",
    "bedrock.privacy.views",
    "cron",
    "lib.python.south.management.commands.convert_to_south",
    "vendor-local.src.django-recaptcha.captcha.backends",
    "introspection_plugins.django_objectpermissions",
    "migrations.0002_eggs",
    "commands.syncdb",
    "context_processors",
    "lib.python.south.tests.circular_b.migrations.0001_first",
    "bin.update",
    "python.south.management.commands.syncdb",
    "mozorg.tests.test_email_contribute",
    "template",
    "python.south.tests.autodetection",
    "chardet.big5freq",
    "packages.beautifulsoup4.bs4",
    "fakeapp.migrations",
    "mozorg.management.commands.bedrock_truncate_database",
    "open-compare",
    "lib.python.south.utils.py3",
    "vendor-local.packages.chardet.chardet.mbcssm",
    "python.south.tests.deps_a.migrations.0005_a",
    "lib.l10n_utils.management",
    "south.management.commands.syncdb",
    "vendor-local.packages.chardet.chardet.sjisprober",
    "l10n_utils.tests.test_files",
    "south.tests.deps_b.migrations.0002_b",
    "langthaimodel",
    "south.tests.db_firebird",
    "south.tests.deps_a.migrations.0004_a",
    "python.south.tests.deps_a.migrations.0001_a",
    "mozorg.forms",
    "test_settings",
    "south.tests.deps_b.migrations.0005_b",
    "django-recaptcha.captcha",
    "lib.l10n_utils.tests.test_commands",
    "lib.bedrock_util",
    "vendor-local.lib.python.south.creator.freezer",
    "vendor-local.packages.beautifulsoup4.bs4.tests.test_builder_registry",
    "python.south.tests.deps_a.migrations.0003_a",
    "chardet.big5prober",
    "vendor-local.src.django-recaptcha.captcha.models",
    "introspection_plugins.django_tagging",
    "firefox",
    "python.south.tests.otherfakeapp",
    "south.introspection_plugins.django_timezones",
    "lib.python.south.db.postgresql_psycopg2",
    "tests.test_files.extract_me",
    "tests.circular_b.migrations.0001_first",
    "facebookapps.tests.views",
    "universaldetector",
    "vendor-local.lib.python.south.signals",
    "django_taggit",
    "chardet.mbcssm",
    "bedrock.newsletter.utils",
    "python.south.tests.db",
    "bedrock.mozorg.urls",
    "packages.beautifulsoup4.doc.source",
    "pyquery.ajax",
    "lib.python.south.exceptions",
    "python.south.migration",
    "commands.startmigration",
    "db.sqlite3",
    "firefox.models",
    "captcha.client",
    "python.south.tests.logic",
    "python.south.introspection_plugins",
    "packages.chardet.chardet.sbcharsetprober",
    "chardet.langthaimodel",
    "lib.python.south.tests.deps_c.migrations.0002_c",
    "lib.python.south.tests.brokenapp.models",
    "bedrock.mozorg.util",
    "mozorg.tests.urls",
    "tests.test_footer_form",
    "packages.chardet.chardet.charsetprober",
    "brokenapp.migrations.0004_higher",
    "deps_c.models",
    "packages.chardet",
    "tests.test_utils",
    "tests.circular_b.models",
    "src.django-recaptcha.captcha.fields",
    "mozorg.tests.test_views",
    "chardet.sbcsgroupprober",
    "lib.python.pyquery.rules",
    "privacy.forms",
    "lib.python.south.db.sql_server.pyodbc",
    "bedrock.redirects.util",
    "south.tests.circular_a.migrations",
    "newsletters",
    "lib.python.south.db.sql_server",
    "tests.test_views",
    "chardet.euctwfreq",
    "python.south.tests.deps_b.migrations.0001_b",
    "newsletter.forms",
    "south.tests.brokenapp.models",
    "newsletter.tests",
    "django_1_0",
    "lib.python.south.tests.fakeapp.migrations",
    "bs4.tests",
    "python.south.tests.circular_b.migrations",
    "vendor-local.lib.python.south.logger",
    "lib.l10n_utils",
    "chardet.jpcntx",
    "lib.python.south.tests.brokenapp",
    "beautifulsoup4.doc",
    "packages.chardet.chardet.euctwfreq",
    "mozorg.context_processors",
    "bedrock.mozorg.tests.test_decorators",
    "lib.l10n_utils.tests.test_template",
    "legal.tests",
    "migrations.0003_b",
    "migrations.0003_c",
    "l10n_utils.tests.test_helpers",
    "django-recaptcha.captcha.client",
    "migrations.0001_b",
    "migrations.0001_c",
    "deploy-demo3",
    "deploy-demo2",
    "deploy-demo5",
    "deploy-demo4",
    "python.south.tests.deps_b.models",
    "vendor-local.lib.python.south.tests.deps_c.migrations.0003_c",
    "south.tests.deps_b.models",
    "south.introspection_plugins.annoying_autoonetoone",
    "tests.fakeapp.migrations.0001_spam",
    "vendor-local.packages.beautifulsoup4.bs4.element",
    "commands.l10n_check",
    "bedrock.newsletter.helpers",
    "vendor-local.lib.python.south.tests.deps_c.migrations.0005_c",
    "tests.logic",
    "bedrock.tabzilla.tests",
    "test_files.urls",
    "modelsinspector",
    "element",
    "_html5lib",
    "south.introspection_plugins.geodjango",
    "creator.actions",
    "lib.python.south.tests.deps_c.migrations.0004_c",
    "bin.crontab.gen-crons",
    "south.signals",
    "bedrock.privacy.tests",
    "vendor-local.packages.beautifulsoup4.doc",
    "lib.python.south.tests.fakeapp.migrations.0003_alter_spam",
    "vendor-local.lib.python.south.tests.brokenapp.migrations.0004_higher",
    "vendor-local.lib.python.south.tests.deps_c.migrations",
    "privacy.models",
    "bedrock.facebookapps.urls",
    "l10n_utils.tests.test_files.extract_me_with_langfiles_lazy",
    "vendor-local.packages.python-memcached",
    "vendor-local.lib.python.south.db.postgresql_psycopg2",
    "vendor-local.lib.python.south.management.commands.migrationcheck",
    "vendor-local.packages.chardet.chardet.jpcntx",
    "beautifulsoup4.bs4.element",
    "legal.views",
    "bin.update.deploy-prod",
    "vendor-local.lib.python.south.introspection_plugins.django_tagging",
    "forms",
    "chardet.charsetprober",
    "vendor-local.lib.python.south.tests.otherfakeapp",
    "legal.models",
    "beautifulsoup4.bs4.tests",
    "packages.chardet.chardet.big5prober",
    "migrations.0004_c",
    "lib.l10n_utils.management.commands.l10n_merge",
    "migrations.0004_a",
    "views",
    "python",
    "docs",
    "chardet.sjisprober",
    "lib.python.south.tests.circular_a.models",
    "python.south.orm",
    "l10n_utils.management.commands.l10n_extract",
    "chardet.chardet.euckrprober",
    "django-recaptcha.captcha.backends.default",
    "0004_higher",
    "python.south.creator.freezer",
    "vendor-local.packages.chardet.chardet.euctwfreq",
    "hebrewprober",
    "vendor-local.lib.python.south.tests.deps_c",
    "python.south.db.postgresql_psycopg2",
    "mozorg.management.commands",
    "jpcntx",
    "charsetgroupprober",
    "python.south.signals",
    "mozorg.middleware",
    "tests.fakeapp.migrations.0003_alter_spam",
    "bin.crontab",
    "persona.models",
    "bedrock.mozorg.tests.test_helper_social_widgets",
    "packages.chardet.chardet.universaldetector",
    "bedrock.l10n_example.models",
    "tests.test_email_contribute",
    "vendor-local.lib.python.south.db.sqlite3",
    "test_context_processors",
    "vendor-local.lib.python.south.tests.db_firebird",
    "test_files.extract_me",
    "migrations.0003_a",
    "management.commands.l10n_check",
    "deploy-demo1",
    "lib.python.south",
    "south.management.commands",
    "packages.chardet.chardet.gb2312prober",
    "vendor-local.packages",
    "mozorg.tests",
    "bedrock.redirects.tests.test_util",
    "chardet.chardet.mbcsgroupprober",
    "captcha.models",
    "bedrock.privacy.tests.test_views",
    "vendor-local.packages.beautifulsoup4.bs4.tests.test_tree",
    "sql_server",
    "vendor-local.packages.chardet.chardet.langcyrillicmodel",
    "lib.python.south.tests.circular_a.migrations.0001_first",
    "commands.l10n_extract",
    "tests.test_gettext",
    "test_commands",
    "ajax",
    "orm",
    "south.db.sql_server",
    "packages.beautifulsoup4.bs4.tests.test_tree",
    "beautifulsoup4.bs4.builder._htmlparser",
    "privacy.tests",
    "python.south.management.commands",
    "vendor-local.lib.python.south.tests.emptyapp.models",
    "management.commands",
    "chardet.latin1prober",
    "vendor-local.lib.python.south.db.sql_server.pyodbc",
    "vendor-local.lib.python.south.tests.emptyapp",
    "bedrock.facebookapps.tests.test_utils",
    "migrations.0001_a",
    "lib.python.south.tests.otherfakeapp.migrations.0003_third",
    "packages.beautifulsoup4.bs4.tests.test_docs",
    "chardet.chardet.charsetgroupprober",
    "bedrock.newsletter.urls",
    "chardet.universaldetector",
    "south",
    "lib.l10n_utils.management.commands",
    "bedrock.redirects.models",
    "python.south.tests.deps_b.migrations.0002_b",
    "south.tests.deps_a",
    "south.tests.deps_c",
    "south.tests.deps_b",
    "python.south.tests.logger",
    "update.deploy-demo1",
    "update.deploy-demo3",
    "update.deploy-demo2",
    "update.deploy-demo5",
    "update.deploy-demo4",
    "chardet.constants",
    "vendor-local.lib.python.south.tests.deps_c.migrations.0004_c",
    "bedrock.newsletter",
    "privacy.urls",
    "bedrock.foundation.urls",
    "tests.otherfakeapp.migrations.0001_first",
    "src.django-recaptcha.captcha.backends.default.urls",
    "lib.python.south.management.commands.graphmigrations",
    "management",
    "vendor-local.lib.python.south.tests.otherfakeapp.migrations.0002_second",
    "beautifulsoup4.bs4.builder._html5lib",
    "bedrock.firefox.utils",
    "bs4.builder._htmlparser",
    "circular_a.migrations",
    "packages.beautifulsoup4.bs4.element",
    "bedrock.tabzilla.models",
    "otherfakeapp.migrations.0001_first",
    "widgets",
    "vendor-local.packages.beautifulsoup4.bs4.tests.test_html5lib",
    "utf8prober",
    "vendor-local.lib.python.south.management.commands.migrate",
    "vendor-local.lib.python.pyquery.pyquery",
    "l10n_check",
    "vendor-local.lib.python.south.tests.otherfakeapp.migrations.0001_first",
    "python.south.tests.fakeapp.migrations.0003_alter_spam",
    "fakeapp.models",
    "tests.logger",
    "vendor-local.lib.python.south.tests.deps_c.migrations.0002_c",
    "migrations.0002_a",
    "south.management.commands.migrate",
    "migrations.0002_b",
    "vendor-local.lib.python.south.tests.deps_b.models",
    "src.django-recaptcha.captcha.backends",
    "lib.python.south.tests.emptyapp",
    "python.south.tests.deps_b.migrations.0004_b",
    "chardet",
    "chardet.escsm",
    "chardet.euckrfreq",
    "chardet.utf8prober",
    "src.django-recaptcha",
    "vendor-local.src.django-recaptcha.captcha",
    "press.urls",
    "mozorg.management",
    "py3",
    "django-recaptcha",
    "vendor-local.packages.beautifulsoup4.bs4.tests",
    "lib.python.south.utils",
    "chardet.chardet.mbcssm",
    "gigabit",
    "mozorg.urls",
    "django-recaptcha.captcha.forms",
    "python.south.db.mysql",
    "backends.default.urls",
    "django_timezones",
    "bedrock.mozorg.tests.test_helper_misc",
    "firefox.tests.test_views",
    "certifi.certifi.core",
    "south.tests.circular_b.migrations.0001_first",
    "management.commands.migrationcheck",
    "lib.python.south.logger",
    "freezer",
    "certifi.certifi",
    "beautifulsoup4.doc.source.conf",
    "migrations.0005_b",
    "migrations.0005_c",
    "migrations.0005_a",
    "lib.python.south.tests.fakeapp.migrations.0002_eggs",
    "introspection_plugins.django_taggit",
    "tests.fakeapp",
    "mozorg.util",
    "press.tests",
    "packages.beautifulsoup4.doc",
    "lib.python.south.migration.migrators",
    "geodjango",
    "vendor-local.packages.chardet.chardet.chardistribution",
    "south.tests.otherfakeapp.migrations.0003_third",
    "bedrock.legal.forms",
    "bedrock.mozorg.email_contribute",
    "beautifulsoup4.doc.source",
    "python.south.tests.deps_c.migrations",
    "packages.chardet.chardet.mbcsgroupprober",
    "tests.otherfakeapp.migrations.0003_third",
    "django_tagging",
    "tests.deps_a.models",
    "langhebrewmodel",
    "south.management.commands.graphmigrations",
    "vendor-local.lib.python.south.tests.autodetection",
    "vendor-local.packages.chardet.chardet.big5prober",
    "lib.python.south.tests.deps_b.migrations.0005_b",
    "lib.python.pyquery.pyquery",
    "bedrock.tabzilla.urls",
    "vendor-local.packages.beautifulsoup4.bs4.tests.test_docs",
    "south.logger",
    "vendor-local.lib.python",
    "chardet.chardet.jpcntx",
    "python.south.tests.fakeapp.migrations",
    "python.south.introspection_plugins.django_timezones",
    "lib.python.south.tests.deps_a.migrations.0004_a",
    "captcha.widgets",
    "vendor-local.lib.python.south.migration.migrators",
    "cache",
    "python.south.tests.otherfakeapp.migrations",
    "mozorg.cron",
    "bs4.builder._html5lib",
    "vendor-local.lib.python.pyquery",
    "brokenapp.models",
    "bedrock.grants.grants_db",
    "pyquery.pyquery",
    "packages.chardet.chardet.chardistribution",
    "vendor-local.packages.beautifulsoup4.doc.source",
    "django-recaptcha.captcha.widgets",
    "vendor-local.lib.python.south.db.mysql",
    "migrations.0004_higher",
    "chardet.chardet.langhebrewmodel",
    "tests.test_commands",
    "settings",
    "chardet.chardet.utf8prober",
    "fakeapp.migrations.0002_eggs",
    "django-recaptcha.captcha.backends",
    "facebookapps.utils",
    "python.south.utils",
    "redirects.urls",
    "bedrock.mozorg.context_processors",
    "chardet.chardet.charsetprober",
    "bedrock.legal",
    "packages.certifi.certifi",
    "packages.chardet.chardet.constants",
    "brokenapp.migrations.0003_depends_on_higher",
    "lib.python.south.tests.brokenapp.migrations.0004_higher",
    "vendor-local.lib.python.south.db.oracle",
    "lib.python.south.tests.deps_b.migrations.0001_b",
    "bedrock.facebookapps.models",
    "tests.deps_b.migrations",
    "tests.db",
    "chardet.langcyrillicmodel",
    "beautifulsoup4.bs4.tests.test_htmlparser",
    "python.south.tests.deps_a.migrations",
    "beautifulsoup4",
    "bedrock.facebookapps.tests.test_views",
    "tests.otherfakeapp.models",
    "firefox.utils",
    "vendor-local.lib.python.south.tests.brokenapp",
    "management.commands.l10n_merge",
    "packages.beautifulsoup4.bs4.builder._html5lib",
    "migrations",
    "migrations.0003_third",
    "south.tests.fakeapp.migrations.0003_alter_spam",
    "lib.python.pyquery",
    "bedrock.facebookapps.tests.views",
    "lib.python.south.tests.deps_b.models",
    "tests.test_helpers",
    "tests.fakeapp.migrations",
    "python.south.tests.circular_a.migrations.0001_first",
    "lib.python.south.tests.deps_b.migrations.0003_b",
    "chardet.mbcsgroupprober",
    "l10n_utils.gettext",
    "lib.python.south.migration.utils",
    "vendor-local.lib.python.south.tests.fakeapp.migrations.0003_alter_spam",
    "deps_a.models",
    "python.south.db.firebird",
    "circular_a",
    "circular_b",
    "vendor-local.lib.python.south.tests.non_managed.models",
    "vendor-local.packages.beautifulsoup4.bs4.testing",
    "lib.python.south.introspection_plugins.geodjango",
    "bin.update.deploy-stage",
    "startmigration",
    "bedrock.privacy.forms",
    "lib.python.south.tests.deps_b.migrations",
    "migrations.0001_depends_on_unmigrated",
    "autodetection",
    "commands",
    "styleguide",
    "beautifulsoup4.bs4.dammit",
    "python.south.tests.fakeapp",
    "chardet.langbulgarianmodel",
    "tests.brokenapp.migrations.0003_depends_on_higher",
    "captcha.tests",
    "introspection_plugins.django_timezones",
    "bedrock.press.forms",
    "chardet.escprober",
    "facebookapps.tests.test_decorators",
    "python.south.management.commands.graphmigrations",
    "redirects.models",
    "management.commands.test",
    "deps_c.migrations.0003_c",
    "bedrock.privacy",
    "tests.test_files.extract_me_with_langfiles_lazy",
    "chardet.chardet.euctwprober",
    "firefox.firefox_details",
    "brokenapp",
    "packages.beautifulsoup4.bs4.diagnose",
    "python.south.tests.emptyapp",
    "bedrock.facebookapps.views",
    "vendor-local.packages.chardet.chardet.sbcharsetprober",
    "chardet.chardet.langgreekmodel",
    "logic",
    "packages.chardet.chardet.euctwprober",
    "vendor-local.packages.chardet.chardet.langbulgarianmodel",
    "l10n_utils.template",
    "python.south.management.commands.datamigration",
    "beautifulsoup4.scripts",
    "demonstrate_parser_differences",
    "lib.python.south.tests.otherfakeapp.models",
    "python.south.tests",
    "vendor-local.lib.python.south.introspection_plugins.django_audit_log",
    "db_firebird",
    "tests.test_files.urls",
    "packages.beautifulsoup4.scripts.demonstrate_parser_differences",
    "lightbeam",
    "python.south.management.commands.startmigration",
    "south.tests.deps_c.migrations",
    "vendor-local.lib.python.south.tests.fakeapp.models",
    "south.creator.changes",
    "chardet.chardet.gb2312freq",
    "l10n_example",
    "l10n_utils.management.commands",
    "lib.python.south.tests.fakeapp",
    "packages.chardet.chardet.jisfreq",
    "test_html5lib",
    "chardet.chardet.latin1prober",
    "django_audit_log",
    "south.tests.circular_a.models",
    "packages.chardet.chardet.charsetgroupprober",
    "chardet.sbcharsetprober",
    "bedrock.press.tests",
    "packages.beautifulsoup4.bs4.tests.test_soup",
    "utils",
    "packages.chardet.chardet.hebrewprober",
    "south.tests.deps_c.migrations.0005_c",
    "lib.python.pyquery.ajax",
    "inspector",
    "south.tests.deps_c.migrations.0003_c",
    "privacy.tests.test_views",
    "migrations.0004_b",
    "deps_c.migrations",
    "python.south.management.commands.testserver",
    "bedrock.mozorg.tests.test_email_contribute",
    "vendor-local.lib.python.south.tests.deps_c.migrations.0001_c",
    "vendor-local.packages.chardet.chardet.constants",
    "beautifulsoup4.bs4.builder",
    "bin.open-compare",
    "south.tests.deps_c.migrations.0001_c",
    "mozorg.tests.test_helper_misc",
    "tests.otherfakeapp.migrations.0002_second",
    "bedrock.mozorg.decorators",
    "l10n_utils.tests.test_files.extract_me",
    "vendor-local.lib.python.south.creator.actions",
    "lib.python.south.tests.deps_a.migrations",
    "foundation.urls",
    "lib.l10n_utils.middleware",
    "chardet.euctwprober",
    "lib.python.south.tests.deps_a.migrations.0005_a",
    "persona",
    "tests.circular_a.migrations.0001_first",
    "lib.python.south.tests.non_managed",
    "vendor-local.packages.chardet.chardet.langhungarianmodel",
    "v2",
    "tests.circular_a.migrations",
    "facebookapps.decorators",
    "lib.python.south.introspection_plugins.django_taggit",
    "python.south.management.commands.schemamigration",
    "south.tests.autodetection",
    "builder",
    "creator.freezer",
    "commands.l10n_merge",
    "newsletter.views",
    "vendor-local.packages.chardet.chardet.gb2312prober",
    "bedrock.firefox.forms",
    "python.south.tests.brokenapp.models",
    "vendor-local.lib.python.south.tests.db",
    "lib.python.south.tests.circular_a",
    "redirects",
    "0003_third",
    "non_managed",
    "bs4.element",
    "south.tests.inspector",
    "l10n_utils.tests.test_dotlang",
    "beautifulsoup4.bs4.tests.test_lxml",
    "south.models",
    "deps_c.migrations.0005_c",
    "migrations.0002_c",
    "chardet.chardet.sbcsgroupprober",
    "vendor-local.lib.python.south.db.sql_server",
    "south.introspection_plugins",
    "test_util",
    "south.management.commands.testserver",
    "django-recaptcha.captcha.fields",
    "bedrock.foundation",
    "bedrock.mozorg.cron",
    "bedrock.settings.newsletters",
    "lib.python.south.creator.freezer",
    "test_decorators",
    "builder._html5lib",
    "settings.base",
    "docs.conf",
    "lib.python.south.tests.deps_b.migrations.0004_b",
    "vendor-local.lib.python.south.tests.deps_b.migrations.0001_b",
    "lib.l10n_utils.tests.test_files.extract_me_with_langfiles",
    "south.introspection_plugins.django_tagging",
    "tests",
    "vendor-local.packages.beautifulsoup4.scripts.demonstrate_parser_differences",
    "testserver",
    "rules",
    "redirects.tests.test_util",
    "test_template",
    "l10n_utils.management.commands.l10n_check",
    "chardet.charsetgroupprober",
    "lib.python.south.tests.deps_a.migrations.0003_a",
    "vendor-local.packages.chardet.chardet.codingstatemachine",
    "src.django-recaptcha.test_settings",
    "vendor-local.packages.chardet.chardet.jisfreq",
    "packages.chardet.chardet.langbulgarianmodel",
    "south.tests.circular_a.migrations.0001_first",
    "test_views",
    "lib.python.south.tests.deps_a.migrations.0001_a",
    "bedrock.privacy.urls",
    "vendor-local.src",
    "vendor-local.lib.python.south.v2",
    "crontab.gen-crons",
    "fakeapp.migrations.0001_spam",
    "circular_a.models",
    "bedrock.newsletter.tests.test_footer_form",
    "packages.beautifulsoup4.bs4.tests.test_htmlparser",
    "beautifulsoup4.bs4.tests.test_docs",
    "grants",
    "bedrock.legal.urls",
    "tabzilla.models",
    "python.pyquery.pyquery",
    "vendor-local.packages.beautifulsoup4.doc.source.conf",
    "vendor-local.lib.python.south.tests.brokenapp.migrations.0001_depends_on_unmigrated",
    "python.south.creator",
    "vendor-local.packages.beautifulsoup4.bs4.tests.test_lxml",
    "vendor-local.src.django-recaptcha",
    "vendor-local.packages.beautifulsoup4.bs4.tests.test_soup",
    "vendor-local.lib.python.south.tests.fakeapp.migrations",
    "tests.otherfakeapp",
    "management.commands.startmigration",
    "hacks",
    "python.south.db.sqlite3",
    "bedrock.styleguide.urls",
    "vendor-local.packages.chardet.chardet.langhebrewmodel",
    "migration.base",
    "syncdb",
    "0002_eggs",
    "convert_to_south",
    "styleguide.models",
    "commands.test",
    "vendor-local.packages.beautifulsoup4.bs4.dammit",
    "migrationcheck",
    "lib.l10n_utils.tests.test_files.urls",
    "tests.brokenapp",
    "legal",
    "lib.python.south.management.commands",
    "vendor-local.lib.python.south.tests.deps_a.migrations.0004_a",
    "vendor-local.packages.beautifulsoup4.bs4.builder",
    "bin.update.deploy_base",
    "beautifulsoup4.bs4.builder._lxml",
    "django_objectpermissions",
    "south.tests.deps_b.migrations",
    "django-recaptcha.captcha.tests",
    "python.south.management.commands.convert_to_south",
    "bedrock.mozorg.forms",
    "euctwfreq",
    "vendor-local.lib.python.south.tests",
    "vendor-local.lib.python.south.tests.circular_a.migrations.0001_first",
    "python.south.tests.deps_b.migrations",
    "facebookapps.tests",
    "src",
    "python.south.introspection_plugins.django_taggit",
    "tests.db_firebird",
    "firebird",
    "south.tests.freezer",
    "south.migration.base",
    "vendor-local.lib.python.south.management",
    "packages.chardet.chardet.big5freq",
    "vendor-local",
    "chardet.langgreekmodel",
    "python.south.tests.brokenapp.migrations.0004_higher",
    "sbcsgroupprober",
    "lib.python.south.creator.changes",
    "firefox.context_processors",
    "south.tests.db",
    "beautifulsoup4.bs4.tests.test_soup",
    "south.tests.deps_c.migrations.0004_c",
    "captcha.backends",
    "packages.chardet.chardet.langhungarianmodel",
    "vendor-local.lib.python.south.tests.deps_a",
    "vendor-local.lib.python.south.tests.deps_b",
    "packages.beautifulsoup4.bs4.testing",
    "south.tests.deps_c.migrations.0002_c",
    "mozorg.helpers.misc",
    "introspection_plugins.django_audit_log",
    "vendor-local.lib.python.south.tests.deps_b.migrations",
    "mbcsgroupprober",
    "commands.convert_to_south",
    "bedrock.tabzilla.views",
    "packages.python-memcached.memcache",
    "vendor-local.lib.python.south.db",
    "lib.python.south.tests.emptyapp.models",
    "vendor-local.lib.python.south.tests.deps_a.migrations.0002_a",
    "lib.l10n_utils.tests.test_files",
    "styleguide.urls",
    "tests.inspector",
    "lib.l10n_utils.management.commands.l10n_check",
    "django-recaptcha.captcha.backends.default.urls",
    "utils.py3",
    "south.tests.circular_a",
    "south.tests.circular_b",
    "gen-crons",
    "vendor-local.lib.python.south.utils.py3",
    "tests.brokenapp.migrations.0002_depends_on_unknown",
    "circular_b.models",
    "bedrock.firefox.firefox_details",
    "gigabit.urls",
    "python.pyquery",
    "emptyapp.models",
    "vendor-local.lib.python.south.tests.fakeapp",
    "lib.python.south.migration.base",
    "default",
    "_lxml",
    "lib.python.south.db.firebird",
    "tests.test_htmlparser",
    "chardet.gb2312freq",
    "python.south.management",
    "lib.python.south.tests.brokenapp.migrations",
    "bedrock.research",
    "chardet.chardet.mbcharsetprober",
    "vendor-local.lib.python.south.introspection_plugins.django_taggit",
    "bedrock.styleguide",
    "db_mysql",
    "vendor-local.packages.beautifulsoup4.scripts",
    "migrate",
    "management.commands.convert_to_south",
    "vendor-local.packages.chardet.chardet.eucjpprober",
    "bedrock.grants.models",
    "python.south.migration.base",
    "python.south.introspection_plugins.django_audit_log",
    "vendor-local.lib.python.south.management.commands.schemamigration",
    "chardet.jisfreq",
    "python.south.tests.deps_b.migrations.0003_b",
    "bedrock.newsletter.tests.test_forms",
    "_htmlparser",
    "helpers.download_buttons",
    "south.tests.deps_b.migrations.0003_b",
    "vendor-local.lib.python.south.introspection_plugins.geodjango",
    "lib.python.south.tests.fakeapp.migrations.0001_spam",
    "download_buttons",
    "gettext",
    "vendor-local.lib.python.south.migration",
    "test_forms",
    "vendor-local.src.django-recaptcha.captcha.backends.default",
    "lib.python.south.tests.logic",
    "python.south.tests.otherfakeapp.migrations.0002_second",
    "tests.deps_c.migrations.0003_c",
    "chardet.chardet.universaldetector",
    "grants.models",
    "lib.python.south.tests.deps_a.migrations.0002_a",
    "bedrock.newsletter.tests.test_views",
    "vendor-local.packages.chardet.chardet.escprober",
    "bedrock.press.urls",
    "tests.deps_c.migrations.0001_c",
    "south.tests.emptyapp",
    "vendor-local.src.django-recaptcha.captcha.tests",
    "south.migration.migrators",
    "tests.deps_c.models",
    "lib.l10n_utils.tests.test_dotlang",
    "lib.python.south.management.commands.testserver",
    "python.south.tests.deps_b.migrations.0005_b",
    "south.management",
    "vendor-local.lib.python.south.tests.circular_b.migrations.0001_first",
    "lib.l10n_utils.management.commands.l10n_extract",
    "grants.grants_db",
    "bedrock.urls",
    "circular_b.migrations",
    "python.south.tests.brokenapp.migrations",
    "tests.deps_c.migrations.0005_c",
    "chardet.codingstatemachine"
]