{
    "archive_url": "https://api.github.com/repos/brianjaystanley/django-lockout/{archive_format}{/ref}",
    "assignees_url": "https://api.github.com/repos/brianjaystanley/django-lockout/assignees{/user}",
    "blobs_url": "https://api.github.com/repos/brianjaystanley/django-lockout/git/blobs{/sha}",
    "branches_url": "https://api.github.com/repos/brianjaystanley/django-lockout/branches{/branch}",
    "clone_url": "https://github.com/brianjaystanley/django-lockout.git",
    "collaborators_url": "https://api.github.com/repos/brianjaystanley/django-lockout/collaborators{/collaborator}",
    "comments_url": "https://api.github.com/repos/brianjaystanley/django-lockout/comments{/number}",
    "commits_url": "https://api.github.com/repos/brianjaystanley/django-lockout/commits{/sha}",
    "compare_url": "https://api.github.com/repos/brianjaystanley/django-lockout/compare/{base}...{head}",
    "contents_url": "https://api.github.com/repos/brianjaystanley/django-lockout/contents/{+path}",
    "contributors_url": "https://api.github.com/repos/brianjaystanley/django-lockout/contributors",
    "created_at": "2011-07-24T20:26:16Z",
    "default_branch": "master",
    "description": "cache-based Django app that locks out users after too many failed login attempts",
    "downloads_url": "https://api.github.com/repos/brianjaystanley/django-lockout/downloads",
    "events_url": "https://api.github.com/repos/brianjaystanley/django-lockout/events",
    "fork": false,
    "forks": 9,
    "forks_count": 9,
    "forks_url": "https://api.github.com/repos/brianjaystanley/django-lockout/forks",
    "full_name": "brianjaystanley/django-lockout",
    "git_commits_url": "https://api.github.com/repos/brianjaystanley/django-lockout/git/commits{/sha}",
    "git_refs_url": "https://api.github.com/repos/brianjaystanley/django-lockout/git/refs{/sha}",
    "git_tags_url": "https://api.github.com/repos/brianjaystanley/django-lockout/git/tags{/sha}",
    "git_url": "git://github.com/brianjaystanley/django-lockout.git",
    "has_downloads": true,
    "has_issues": true,
    "has_wiki": true,
    "homepage": "",
    "hooks_url": "https://api.github.com/repos/brianjaystanley/django-lockout/hooks",
    "html_url": "https://github.com/brianjaystanley/django-lockout",
    "id": 2097986,
    "issue_comment_url": "https://api.github.com/repos/brianjaystanley/django-lockout/issues/comments/{number}",
    "issue_events_url": "https://api.github.com/repos/brianjaystanley/django-lockout/issues/events{/number}",
    "issues_url": "https://api.github.com/repos/brianjaystanley/django-lockout/issues{/number}",
    "keys_url": "https://api.github.com/repos/brianjaystanley/django-lockout/keys{/key_id}",
    "labels_url": "https://api.github.com/repos/brianjaystanley/django-lockout/labels{/name}",
    "language": "Python",
    "languages_url": "https://api.github.com/repos/brianjaystanley/django-lockout/languages",
    "merges_url": "https://api.github.com/repos/brianjaystanley/django-lockout/merges",
    "milestones_url": "https://api.github.com/repos/brianjaystanley/django-lockout/milestones{/number}",
    "mirror_url": null,
    "name": "django-lockout",
    "notifications_url": "https://api.github.com/repos/brianjaystanley/django-lockout/notifications{?since,all,participating}",
    "open_issues": 1,
    "open_issues_count": 1,
    "owner": {
        "avatar_url": "https://avatars.githubusercontent.com/u/915754?",
        "events_url": "https://api.github.com/users/brianjaystanley/events{/privacy}",
        "followers_url": "https://api.github.com/users/brianjaystanley/followers",
        "following_url": "https://api.github.com/users/brianjaystanley/following{/other_user}",
        "gists_url": "https://api.github.com/users/brianjaystanley/gists{/gist_id}",
        "gravatar_id": null,
        "html_url": "https://github.com/brianjaystanley",
        "id": 915754,
        "login": "brianjaystanley",
        "organizations_url": "https://api.github.com/users/brianjaystanley/orgs",
        "received_events_url": "https://api.github.com/users/brianjaystanley/received_events",
        "repos_url": "https://api.github.com/users/brianjaystanley/repos",
        "site_admin": false,
        "starred_url": "https://api.github.com/users/brianjaystanley/starred{/owner}{/repo}",
        "subscriptions_url": "https://api.github.com/users/brianjaystanley/subscriptions",
        "type": "User",
        "url": "https://api.github.com/users/brianjaystanley"
    },
    "private": false,
    "pulls_url": "https://api.github.com/repos/brianjaystanley/django-lockout/pulls{/number}",
    "pushed_at": "2011-10-18T15:37:37Z",
    "releases_url": "https://api.github.com/repos/brianjaystanley/django-lockout/releases{/id}",
    "score": 1.0,
    "size": 99,
    "ssh_url": "git@github.com:brianjaystanley/django-lockout.git",
    "stargazers_count": 44,
    "stargazers_url": "https://api.github.com/repos/brianjaystanley/django-lockout/stargazers",
    "statuses_url": "https://api.github.com/repos/brianjaystanley/django-lockout/statuses/{sha}",
    "subscribers_url": "https://api.github.com/repos/brianjaystanley/django-lockout/subscribers",
    "subscription_url": "https://api.github.com/repos/brianjaystanley/django-lockout/subscription",
    "svn_url": "https://github.com/brianjaystanley/django-lockout",
    "tags_url": "https://api.github.com/repos/brianjaystanley/django-lockout/tags",
    "teams_url": "https://api.github.com/repos/brianjaystanley/django-lockout/teams",
    "trees_url": "https://api.github.com/repos/brianjaystanley/django-lockout/git/trees{/sha}",
    "updated_at": "2013-12-20T01:18:15Z",
    "url": "https://api.github.com/repos/brianjaystanley/django-lockout",
    "watchers": 44,
    "watchers_count": 44
}