{
    "archive_url": "https://api.github.com/repos/jwiegley/beancount/{archive_format}{/ref}",
    "assignees_url": "https://api.github.com/repos/jwiegley/beancount/assignees{/user}",
    "blobs_url": "https://api.github.com/repos/jwiegley/beancount/git/blobs{/sha}",
    "branches_url": "https://api.github.com/repos/jwiegley/beancount/branches{/branch}",
    "clone_url": "https://github.com/jwiegley/beancount.git",
    "collaborators_url": "https://api.github.com/repos/jwiegley/beancount/collaborators{/collaborator}",
    "comments_url": "https://api.github.com/repos/jwiegley/beancount/comments{/number}",
    "commits_url": "https://api.github.com/repos/jwiegley/beancount/commits{/sha}",
    "compare_url": "https://api.github.com/repos/jwiegley/beancount/compare/{base}...{head}",
    "contents_url": "https://api.github.com/repos/jwiegley/beancount/contents/{+path}",
    "contributors_url": "https://api.github.com/repos/jwiegley/beancount/contributors",
    "created_at": "2009-01-24T09:16:07Z",
    "default_branch": "master",
    "description": "An implementation of the Ledger data architecture in Python, by Martin Blais",
    "downloads_url": "https://api.github.com/repos/jwiegley/beancount/downloads",
    "events_url": "https://api.github.com/repos/jwiegley/beancount/events",
    "fork": false,
    "forks": 7,
    "forks_count": 7,
    "forks_url": "https://api.github.com/repos/jwiegley/beancount/forks",
    "full_name": "jwiegley/beancount",
    "git_commits_url": "https://api.github.com/repos/jwiegley/beancount/git/commits{/sha}",
    "git_refs_url": "https://api.github.com/repos/jwiegley/beancount/git/refs{/sha}",
    "git_tags_url": "https://api.github.com/repos/jwiegley/beancount/git/tags{/sha}",
    "git_url": "git://github.com/jwiegley/beancount.git",
    "has_downloads": true,
    "has_issues": true,
    "has_wiki": true,
    "homepage": "http://furius.ca/beancount/",
    "hooks_url": "https://api.github.com/repos/jwiegley/beancount/hooks",
    "html_url": "https://github.com/jwiegley/beancount",
    "id": 113740,
    "issue_comment_url": "https://api.github.com/repos/jwiegley/beancount/issues/comments/{number}",
    "issue_events_url": "https://api.github.com/repos/jwiegley/beancount/issues/events{/number}",
    "issues_url": "https://api.github.com/repos/jwiegley/beancount/issues{/number}",
    "keys_url": "https://api.github.com/repos/jwiegley/beancount/keys{/key_id}",
    "labels_url": "https://api.github.com/repos/jwiegley/beancount/labels{/name}",
    "language": "Python",
    "languages_url": "https://api.github.com/repos/jwiegley/beancount/languages",
    "merges_url": "https://api.github.com/repos/jwiegley/beancount/merges",
    "milestones_url": "https://api.github.com/repos/jwiegley/beancount/milestones{/number}",
    "mirror_url": null,
    "name": "beancount",
    "notifications_url": "https://api.github.com/repos/jwiegley/beancount/notifications{?since,all,participating}",
    "open_issues": 0,
    "open_issues_count": 0,
    "owner": {
        "avatar_url": "https://avatars.githubusercontent.com/u/8460?",
        "events_url": "https://api.github.com/users/jwiegley/events{/privacy}",
        "followers_url": "https://api.github.com/users/jwiegley/followers",
        "following_url": "https://api.github.com/users/jwiegley/following{/other_user}",
        "gists_url": "https://api.github.com/users/jwiegley/gists{/gist_id}",
        "gravatar_id": "910fdec093deffebb92d7db019b5996a",
        "html_url": "https://github.com/jwiegley",
        "id": 8460,
        "login": "jwiegley",
        "organizations_url": "https://api.github.com/users/jwiegley/orgs",
        "received_events_url": "https://api.github.com/users/jwiegley/received_events",
        "repos_url": "https://api.github.com/users/jwiegley/repos",
        "site_admin": false,
        "starred_url": "https://api.github.com/users/jwiegley/starred{/owner}{/repo}",
        "subscriptions_url": "https://api.github.com/users/jwiegley/subscriptions",
        "type": "User",
        "url": "https://api.github.com/users/jwiegley"
    },
    "private": false,
    "pulls_url": "https://api.github.com/repos/jwiegley/beancount/pulls{/number}",
    "pushed_at": "2010-09-01T00:31:14Z",
    "releases_url": "https://api.github.com/repos/jwiegley/beancount/releases{/id}",
    "score": 1.0,
    "size": 3042,
    "ssh_url": "git@github.com:jwiegley/beancount.git",
    "stargazers_count": 45,
    "stargazers_url": "https://api.github.com/repos/jwiegley/beancount/stargazers",
    "statuses_url": "https://api.github.com/repos/jwiegley/beancount/statuses/{sha}",
    "subscribers_url": "https://api.github.com/repos/jwiegley/beancount/subscribers",
    "subscription_url": "https://api.github.com/repos/jwiegley/beancount/subscription",
    "svn_url": "https://github.com/jwiegley/beancount",
    "tags_url": "https://api.github.com/repos/jwiegley/beancount/tags",
    "teams_url": "https://api.github.com/repos/jwiegley/beancount/teams",
    "trees_url": "https://api.github.com/repos/jwiegley/beancount/git/trees{/sha}",
    "updated_at": "2014-04-29T07:51:07Z",
    "url": "https://api.github.com/repos/jwiegley/beancount",
    "watchers": 45,
    "watchers_count": 45
}