{
    "libs": [
        "mimetypes",
        "h",
        "keyring",
        "sys",
        "header",
        "chardet",
        "shelve",
        "getp",
        "os",
        "email",
        "imapclient",
        "ConfigParser"
    ]
}