{
    "archive_url": "https://api.github.com/repos/caio1982/Lost-Photos-Found/{archive_format}{/ref}",
    "assignees_url": "https://api.github.com/repos/caio1982/Lost-Photos-Found/assignees{/user}",
    "blobs_url": "https://api.github.com/repos/caio1982/Lost-Photos-Found/git/blobs{/sha}",
    "branches_url": "https://api.github.com/repos/caio1982/Lost-Photos-Found/branches{/branch}",
    "clone_url": "https://github.com/caio1982/Lost-Photos-Found.git",
    "collaborators_url": "https://api.github.com/repos/caio1982/Lost-Photos-Found/collaborators{/collaborator}",
    "comments_url": "https://api.github.com/repos/caio1982/Lost-Photos-Found/comments{/number}",
    "commits_url": "https://api.github.com/repos/caio1982/Lost-Photos-Found/commits{/sha}",
    "compare_url": "https://api.github.com/repos/caio1982/Lost-Photos-Found/compare/{base}...{head}",
    "contents_url": "https://api.github.com/repos/caio1982/Lost-Photos-Found/contents/{+path}",
    "contributors_url": "https://api.github.com/repos/caio1982/Lost-Photos-Found/contributors",
    "created_at": "2012-10-26T11:37:14Z",
    "default_branch": "master",
    "description": "Linux version of the LostPhotos application for Mac/Windows",
    "downloads_url": "https://api.github.com/repos/caio1982/Lost-Photos-Found/downloads",
    "events_url": "https://api.github.com/repos/caio1982/Lost-Photos-Found/events",
    "fork": false,
    "forks": 8,
    "forks_count": 8,
    "forks_url": "https://api.github.com/repos/caio1982/Lost-Photos-Found/forks",
    "full_name": "caio1982/Lost-Photos-Found",
    "git_commits_url": "https://api.github.com/repos/caio1982/Lost-Photos-Found/git/commits{/sha}",
    "git_refs_url": "https://api.github.com/repos/caio1982/Lost-Photos-Found/git/refs{/sha}",
    "git_tags_url": "https://api.github.com/repos/caio1982/Lost-Photos-Found/git/tags{/sha}",
    "git_url": "git://github.com/caio1982/Lost-Photos-Found.git",
    "has_downloads": true,
    "has_issues": true,
    "has_wiki": true,
    "homepage": null,
    "hooks_url": "https://api.github.com/repos/caio1982/Lost-Photos-Found/hooks",
    "html_url": "https://github.com/caio1982/Lost-Photos-Found",
    "id": 6402881,
    "issue_comment_url": "https://api.github.com/repos/caio1982/Lost-Photos-Found/issues/comments/{number}",
    "issue_events_url": "https://api.github.com/repos/caio1982/Lost-Photos-Found/issues/events{/number}",
    "issues_url": "https://api.github.com/repos/caio1982/Lost-Photos-Found/issues{/number}",
    "keys_url": "https://api.github.com/repos/caio1982/Lost-Photos-Found/keys{/key_id}",
    "labels_url": "https://api.github.com/repos/caio1982/Lost-Photos-Found/labels{/name}",
    "language": "Python",
    "languages_url": "https://api.github.com/repos/caio1982/Lost-Photos-Found/languages",
    "merges_url": "https://api.github.com/repos/caio1982/Lost-Photos-Found/merges",
    "milestones_url": "https://api.github.com/repos/caio1982/Lost-Photos-Found/milestones{/number}",
    "mirror_url": null,
    "name": "Lost-Photos-Found",
    "notifications_url": "https://api.github.com/repos/caio1982/Lost-Photos-Found/notifications{?since,all,participating}",
    "open_issues": 1,
    "open_issues_count": 1,
    "owner": {
        "avatar_url": "https://avatars.githubusercontent.com/u/1158947?",
        "events_url": "https://api.github.com/users/caio1982/events{/privacy}",
        "followers_url": "https://api.github.com/users/caio1982/followers",
        "following_url": "https://api.github.com/users/caio1982/following{/other_user}",
        "gists_url": "https://api.github.com/users/caio1982/gists{/gist_id}",
        "gravatar_id": "30b21af442f33010666c226efb679852",
        "html_url": "https://github.com/caio1982",
        "id": 1158947,
        "login": "caio1982",
        "organizations_url": "https://api.github.com/users/caio1982/orgs",
        "received_events_url": "https://api.github.com/users/caio1982/received_events",
        "repos_url": "https://api.github.com/users/caio1982/repos",
        "site_admin": false,
        "starred_url": "https://api.github.com/users/caio1982/starred{/owner}{/repo}",
        "subscriptions_url": "https://api.github.com/users/caio1982/subscriptions",
        "type": "User",
        "url": "https://api.github.com/users/caio1982"
    },
    "private": false,
    "pulls_url": "https://api.github.com/repos/caio1982/Lost-Photos-Found/pulls{/number}",
    "pushed_at": "2014-04-13T22:32:55Z",
    "releases_url": "https://api.github.com/repos/caio1982/Lost-Photos-Found/releases{/id}",
    "score": 1.0,
    "size": 364,
    "ssh_url": "git@github.com:caio1982/Lost-Photos-Found.git",
    "stargazers_count": 102,
    "stargazers_url": "https://api.github.com/repos/caio1982/Lost-Photos-Found/stargazers",
    "statuses_url": "https://api.github.com/repos/caio1982/Lost-Photos-Found/statuses/{sha}",
    "subscribers_url": "https://api.github.com/repos/caio1982/Lost-Photos-Found/subscribers",
    "subscription_url": "https://api.github.com/repos/caio1982/Lost-Photos-Found/subscription",
    "svn_url": "https://github.com/caio1982/Lost-Photos-Found",
    "tags_url": "https://api.github.com/repos/caio1982/Lost-Photos-Found/tags",
    "teams_url": "https://api.github.com/repos/caio1982/Lost-Photos-Found/teams",
    "trees_url": "https://api.github.com/repos/caio1982/Lost-Photos-Found/git/trees{/sha}",
    "updated_at": "2014-04-13T22:32:51Z",
    "url": "https://api.github.com/repos/caio1982/Lost-Photos-Found",
    "watchers": 102,
    "watchers_count": 102
}