[
    "hashitanyway",
    "searchstrategy",
    "tests.test_searchstrategy",
    "hypothesis.tracker",
    "tests.test_hashitanyway",
    "test_testdecorators",
    "hypothesis.tests.test_specmapper",
    "hypothesis.specmapper",
    "hypothesis.tests.test_falsification",
    "hypothesis.tests",
    "tests.test_tracker",
    "verifier",
    "hypothesis.searchstrategy",
    "test_flags",
    "tracker",
    "hypothesis.testdecorators",
    "flags",
    "hypothesis.tests.test_statefultesting",
    "hypothesis.verifier",
    "test_falsification",
    "hypothesis.tests.test_searchstrategy",
    "tests",
    "testdecorators",
    "test_specmapper",
    "tests.test_testdecorators",
    "test_hashitanyway",
    "hypothesis",
    "hypothesis.flags",
    "tests.test_falsification",
    "test_searchstrategy",
    "tests.test_statefultesting",
    "hypothesis.hashitanyway",
    "hypothesis.tests.test_flags",
    "hypothesis.tests.test_testdecorators",
    "statefultesting",
    "tests.test_flags",
    "hypothesis.tests.test_tracker",
    "hypothesis.statefultesting",
    "specmapper",
    "hypothesis.tests.test_hashitanyway",
    "test_tracker",
    "test_statefultesting",
    "tests.test_specmapper"
]