{
    "archive_url": "https://api.github.com/repos/openzoom/deepzoom.py/{archive_format}{/ref}",
    "assignees_url": "https://api.github.com/repos/openzoom/deepzoom.py/assignees{/user}",
    "blobs_url": "https://api.github.com/repos/openzoom/deepzoom.py/git/blobs{/sha}",
    "branches_url": "https://api.github.com/repos/openzoom/deepzoom.py/branches{/branch}",
    "clone_url": "https://github.com/openzoom/deepzoom.py.git",
    "collaborators_url": "https://api.github.com/repos/openzoom/deepzoom.py/collaborators{/collaborator}",
    "comments_url": "https://api.github.com/repos/openzoom/deepzoom.py/comments{/number}",
    "commits_url": "https://api.github.com/repos/openzoom/deepzoom.py/commits{/sha}",
    "compare_url": "https://api.github.com/repos/openzoom/deepzoom.py/compare/{base}...{head}",
    "contents_url": "https://api.github.com/repos/openzoom/deepzoom.py/contents/{+path}",
    "contributors_url": "https://api.github.com/repos/openzoom/deepzoom.py/contributors",
    "created_at": "2009-08-07T17:14:15Z",
    "default_branch": "develop",
    "description": "Python Deep Zoom Tools",
    "downloads_url": "https://api.github.com/repos/openzoom/deepzoom.py/downloads",
    "events_url": "https://api.github.com/repos/openzoom/deepzoom.py/events",
    "fork": false,
    "forks": 17,
    "forks_count": 17,
    "forks_url": "https://api.github.com/repos/openzoom/deepzoom.py/forks",
    "full_name": "openzoom/deepzoom.py",
    "git_commits_url": "https://api.github.com/repos/openzoom/deepzoom.py/git/commits{/sha}",
    "git_refs_url": "https://api.github.com/repos/openzoom/deepzoom.py/git/refs{/sha}",
    "git_tags_url": "https://api.github.com/repos/openzoom/deepzoom.py/git/tags{/sha}",
    "git_url": "git://github.com/openzoom/deepzoom.py.git",
    "has_downloads": true,
    "has_issues": true,
    "has_wiki": true,
    "homepage": "http://openzoom.org/",
    "hooks_url": "https://api.github.com/repos/openzoom/deepzoom.py/hooks",
    "html_url": "https://github.com/openzoom/deepzoom.py",
    "id": 271854,
    "issue_comment_url": "https://api.github.com/repos/openzoom/deepzoom.py/issues/comments/{number}",
    "issue_events_url": "https://api.github.com/repos/openzoom/deepzoom.py/issues/events{/number}",
    "issues_url": "https://api.github.com/repos/openzoom/deepzoom.py/issues{/number}",
    "keys_url": "https://api.github.com/repos/openzoom/deepzoom.py/keys{/key_id}",
    "labels_url": "https://api.github.com/repos/openzoom/deepzoom.py/labels{/name}",
    "language": "Python",
    "languages_url": "https://api.github.com/repos/openzoom/deepzoom.py/languages",
    "merges_url": "https://api.github.com/repos/openzoom/deepzoom.py/merges",
    "milestones_url": "https://api.github.com/repos/openzoom/deepzoom.py/milestones{/number}",
    "mirror_url": null,
    "name": "deepzoom.py",
    "notifications_url": "https://api.github.com/repos/openzoom/deepzoom.py/notifications{?since,all,participating}",
    "open_issues": 6,
    "open_issues_count": 6,
    "owner": {
        "avatar_url": "https://avatars.githubusercontent.com/u/111470?",
        "events_url": "https://api.github.com/users/openzoom/events{/privacy}",
        "followers_url": "https://api.github.com/users/openzoom/followers",
        "following_url": "https://api.github.com/users/openzoom/following{/other_user}",
        "gists_url": "https://api.github.com/users/openzoom/gists{/gist_id}",
        "gravatar_id": "7e57d5f95627d5c83d1fe5d402ea7050",
        "html_url": "https://github.com/openzoom",
        "id": 111470,
        "login": "openzoom",
        "organizations_url": "https://api.github.com/users/openzoom/orgs",
        "received_events_url": "https://api.github.com/users/openzoom/received_events",
        "repos_url": "https://api.github.com/users/openzoom/repos",
        "site_admin": false,
        "starred_url": "https://api.github.com/users/openzoom/starred{/owner}{/repo}",
        "subscriptions_url": "https://api.github.com/users/openzoom/subscriptions",
        "type": "Organization",
        "url": "https://api.github.com/users/openzoom"
    },
    "private": false,
    "pulls_url": "https://api.github.com/repos/openzoom/deepzoom.py/pulls{/number}",
    "pushed_at": "2011-10-18T10:38:18Z",
    "releases_url": "https://api.github.com/repos/openzoom/deepzoom.py/releases{/id}",
    "score": 1.0,
    "size": 211,
    "ssh_url": "git@github.com:openzoom/deepzoom.py.git",
    "stargazers_count": 49,
    "stargazers_url": "https://api.github.com/repos/openzoom/deepzoom.py/stargazers",
    "statuses_url": "https://api.github.com/repos/openzoom/deepzoom.py/statuses/{sha}",
    "subscribers_url": "https://api.github.com/repos/openzoom/deepzoom.py/subscribers",
    "subscription_url": "https://api.github.com/repos/openzoom/deepzoom.py/subscription",
    "svn_url": "https://github.com/openzoom/deepzoom.py",
    "tags_url": "https://api.github.com/repos/openzoom/deepzoom.py/tags",
    "teams_url": "https://api.github.com/repos/openzoom/deepzoom.py/teams",
    "trees_url": "https://api.github.com/repos/openzoom/deepzoom.py/git/trees{/sha}",
    "updated_at": "2014-05-02T10:04:30Z",
    "url": "https://api.github.com/repos/openzoom/deepzoom.py",
    "watchers": 49,
    "watchers_count": 49
}