[
    "structlog._generic",
    "timestamper",
    "test_config",
    "stdlib",
    "_exc",
    "code_examples.processors",
    "tests.test_loggers",
    "docs.code_examples.getting-started.imaginary_web",
    "tests.test_config",
    "code_examples.flask_.some_module",
    "twisted",
    "structlog.twisted",
    "some_module",
    "docs.code_examples",
    "_frames",
    "code_examples.getting-started.imaginary_web",
    "additional_frame",
    "threadlocal",
    "structlog._base",
    "test_twisted",
    "test_loggers",
    "docs",
    "docs.code_examples.processors",
    "code_examples.getting-started.imaginary_web_better",
    "structlog",
    "docs.code_examples.processors.conditional_dropper",
    "imaginary_web",
    "_base",
    "tests.test_twisted",
    "code_examples.flask_",
    "structlog._compat",
    "docs.conf",
    "processors.timestamper",
    "getting-started",
    "test_utils",
    "structlog.threadlocal",
    "_generic",
    "flask_.webapp",
    "structlog._exc",
    "getting-started.imaginary_web_better",
    "tests.test_utils",
    "structlog._loggers",
    "tests.test_threadlocal",
    "conditional_dropper",
    "_compat",
    "processors.conditional_dropper",
    "dropper",
    "structlog.processors",
    "code_examples.flask_.webapp",
    "tests",
    "test_processors",
    "twisted_echo",
    "conf",
    "test_frames",
    "flask_",
    "code_examples.processors.conditional_dropper",
    "processors",
    "structlog.stdlib",
    "tests.test_base",
    "tests.test_generic",
    "test_stdlib",
    "code_examples.twisted_echo",
    "tests.additional_frame",
    "code_examples.processors.dropper",
    "test_generic",
    "tests.test_stdlib",
    "structlog._config",
    "docs.code_examples.twisted_echo",
    "docs.code_examples.flask_.webapp",
    "code_examples.getting-started",
    "structlog._utils",
    "tests.test_processors",
    "_utils",
    "_loggers",
    "getting-started.imaginary_web",
    "test_threadlocal",
    "webapp",
    "docs.code_examples.flask_.some_module",
    "docs.code_examples.processors.timestamper",
    "tests.test_frames",
    "_config",
    "docs.code_examples.flask_",
    "docs.code_examples.getting-started",
    "code_examples.processors.timestamper",
    "docs.code_examples.processors.dropper",
    "flask_.some_module",
    "test_base",
    "code_examples",
    "docs.code_examples.getting-started.imaginary_web_better",
    "processors.dropper",
    "imaginary_web_better",
    "structlog._frames"
]