{
    "libs": [
        "pygst",
        "cozy_interactive_importer",
        "random",
        "subprocess",
        "colors",
        "gc",
        "gdk",
        "pagesizes",
        "PIL",
        "datab",
        "tempfile",
        "gtk",
        "ImageDraw",
        "styles",
        "dogtail",
        "string",
        "zipfile",
        "textwrap",
        "hotshot",
        "pango",
        "testExtr",
        "h",
        "fonts",
        "gtkspell",
        "threading",
        "math",
        "db_tests",
        "webextr",
        "locale",
        "mimetypes",
        "_winreg",
        "flowables",
        "reportlab",
        "stats",
        "tarfile",
        "urllib",
        "poppler",
        "re",
        "template",
        "gtk_extr",
        "orm",
        "ctypes",
        "cb_extr",
        "logging",
        "socket",
        "zip_importer",
        "StringIO",
        "Image",
        "traceback",
        "pstats",
        "os",
        "pdb",
        "pdfb",
        "intl",
        "unittest",
        "sql",
        "loader",
        "path",
        "IPython",
        "array",
        "management",
        "BeautifulSoup",
        "PyRTF",
        "argcomplete",
        "glib",
        "sqlalchemy",
        "ImageExtr",
        "pdfgen",
        "webbrowser",
        "unicodedata",
        "b",
        "winsound",
        "fnmatch",
        "pickle",
        "procedural",
        "dialog_extr",
        "shortcuts",
        "m",
        "utils",
        "PngImagePlugin",
        "sax",
        "shutil",
        "__init__",
        "lxml",
        "fake_db",
        "gettext",
        "units",
        "profile",
        "stat",
        "mealm",
        "http",
        "glob",
        "sys",
        "saxutils",
        "types",
        "argparse",
        "gst",
        "dom",
        "expression",
        "platypus",
        "difflib",
        "django",
        "time",
        "gzip",
        "gobject"
    ]
}