[
    "benchmark.simple-vispy",
    "make.make",
    "_glfw",
    "ext.scriptnamemangler",
    "gl.tests.test_basics",
    "demo.graph",
    "gl",
    "test_use",
    "examples.howto.split-screen",
    "examples.demo.galaxy",
    "graph",
    "vispy_ext",
    "game-of-life",
    "app.simple",
    "vispy.app.backends._glut",
    "vispy.gloo.wrappers",
    "dataio.io",
    "scriptnamemangler",
    "app.backends._test",
    "test_transforms",
    "tutorial.gl",
    "util",
    "app.backends._glut",
    "app.tests.test_app",
    "demo.molecular_viewer",
    "howto.display-lines",
    "vispy.app",
    "tests.test_basics",
    "hello-fbo",
    "vispy.util.tests",
    "gloo.tests.test_globject",
    "glfw",
    "tutorial.gloo.colored-quad",
    "examples.tutorial.app.simple",
    "examples.benchmark.simple-vispy",
    "examples.tutorial.gloo.outlined-cube",
    "show-markers",
    "gloo.colored-cube",
    "post-processing",
    "test_program",
    "util.tests.test_emitter_group",
    "util.tests.test_dict",
    "examples.tutorial.gl.cube",
    "tutorial.gloo.textured-quad",
    "_default_app",
    "gloo.gl.tests",
    "examples.tutorial.app.app-event",
    "vispy",
    "tutorial.app.app-event",
    "doc.ext.examplesgenerator",
    "backends._template",
    "vispy.util.dataio.io",
    "vispy.gloo.initialize",
    "app.app-glfw",
    "pyopengl",
    "gloo.tests.test_wrappers",
    "util.color",
    "vispy.ext.py24_ordereddict",
    "doc.ext.scriptnamemangler",
    "util.tests.test_key",
    "examples.demo.grayscott",
    "vispy.gloo.gl._pyopengl",
    "util.ptime",
    "gloo.textured-cube",
    "vispy.app.canvas",
    "ext.examplesgenerator",
    "app-pyglet",
    "demo.spacy",
    "shader",
    "app._config",
    "ext.glfw",
    "gloo.gl.tests.test_functionality",
    "backends._test",
    "app",
    "app-qt",
    "_geom",
    "gloo.gl._angle",
    "gloo.texture",
    "vispy.util",
    "examples.demo.donut",
    "vispy.app.backends._template",
    "cloud",
    "app.backends._template",
    "examples.howto.display-shape",
    "doc.conf",
    "program",
    "tests.test_buffer",
    "demo",
    "grids.linear-grid",
    "demo.cloud",
    "annotations",
    "examples.tutorial.gloo",
    "vispy.app.backends._pyglet",
    "app.application",
    "_testing",
    "benchmark",
    "demo.rain",
    "vispy.gloo.tests.test_wrappers",
    "util.tests",
    "backends._qt",
    "app.app-pyglet",
    "tutorial.app.app-qt",
    "gloo.colored-quad",
    "grids.log-grid",
    "ext.py24_ordereddict",
    "gl._constants",
    "examples.tutorial.app.fps",
    "vispy.ext",
    "donut",
    "docscrape_sphinx",
    "howto.display-points",
    "examples.benchmark",
    "grids.hex-grid",
    "gloo.gl.desktop",
    "examples.techniques.grids.log-grid",
    "vispy.util._config",
    "util._geom",
    "timer",
    "gloo.variable",
    "vispy.util.ptime",
    "examples.demo.spacy",
    "gl.pyopengl",
    "vispy.util.cube",
    "six",
    "tests.test_variable",
    "backends._glut",
    "fps",
    "examples.tutorial.gl.fireworks",
    "tests.test_cube",
    "util.tests.test_cube",
    "examples.demo.fireworks",
    "howto.animate-shape",
    "vispy.gloo.tests.test_buffer",
    "test_emitter_group",
    "examples.techniques.grids.linear-grid",
    "tests.test_app",
    "app.tests.test_simultaneous",
    "techniques.grids",
    "util.tests.test_config",
    "tutorial.gloo.rotating-quad",
    "demo.game-of-life",
    "simple-glut",
    "examples.benchmark.simple-glut",
    "_qt",
    "gloo.program",
    "howto.display-shape",
    "vispy.gloo.gl.tests.test_names",
    "examples.demo.terrain",
    "webgl",
    "util.dataio.io",
    "test_backends",
    "vispy.util.tests.test_key",
    "gl._desktop",
    "app.app-event",
    "vispy.gloo.gl._constants",
    "tests.test_transforms",
    "galaxy",
    "techniques.post-processing",
    "tests.test_config",
    "app.backends._pyglet",
    "test_basics",
    "vispy.gloo.gl.tests.test_functionality",
    "examples.howto.hello-fbo",
    "app.tests.test_qt",
    "testing.tests",
    "simple-vispy",
    "vispy.app.backends._glfw",
    "ext.docscrape",
    "linear-grid",
    "boids",
    "app-event",
    "examples.glsl-sandbox-cube",
    "vispy.gloo.framebuffer",
    "vispy.gloo.gl.webgl",
    "tutorial.gloo.outlined-cube",
    "howto.animate-images",
    "vispy.gloo.tests.test_shader",
    "gloo.gl._desktop",
    "app.base",
    "ext.six",
    "util.cube",
    "molecular_viewer",
    "tests.test_program",
    "test_dict",
    "tutorial.app.fps",
    "event",
    "canvas",
    "examples.tutorial.app",
    "wavefront",
    "keys",
    "demo.boids",
    "outlined-cube",
    "spacy",
    "vispy.util.event",
    "tests.test_emitter_group",
    "_proxy",
    "examples.techniques.grids",
    "ext.glapigenerator",
    "base",
    "initialize",
    "gl.tests",
    "demo.galaxy",
    "vispy.app.backends._sdl2",
    "vispy.gloo.variable",
    "doc.ext",
    "app-glut",
    "gl.angle",
    "vispy.gloo",
    "codegen",
    "util.transforms",
    "vispy.gloo.util",
    "vispy.app._config",
    "gl.webgl",
    "examples.tutorial.gloo.colored-quad",
    "gloo.shader",
    "test_key",
    "codegen.createglapi",
    "vispy.app.tests.test_backends",
    "tests.test_logging",
    "tests.test_shader",
    "vispy.app.backends._qt",
    "util.event",
    "gloo.gl",
    "demo.markers",
    "vispy.gloo.buffer",
    "_glut",
    "util.dataio.wavefront",
    "rotate-cube",
    "display-points",
    "vispy.gloo.tests.test_texture",
    "util.tests.test_transforms",
    "gloo.wrappers",
    "vispy.util.color",
    "vispy.util.dataio",
    "tests.test_texture",
    "examples.tutorial.gloo.rotating-quad",
    "gloo.tests.test_variable",
    "vispy.gloo.gl.pyopengl",
    "gloo.textured-quad",
    "tests.test_context",
    "quad",
    "textured-cube",
    "test_names",
    "howto.client-buffers",
    "gloo.gl._proxy",
    "vispy.util.tests.test_vispy",
    "examples.demo.atom",
    "gloo.gl.tests.test_basics",
    "vispy.testing._runners",
    "test_app",
    "createglapi",
    "tests.test_globject",
    "post-processing.post-processing",
    "__main__",
    "testing._runners",
    "vispy.util.dataio.wavefront",
    "vispy.testing.tests.test_testing",
    "examples.techniques",
    "angle",
    "app.fps",
    "doc.ext.gloooverviewgenerator",
    "vispy.util._data",
    "howto.rotate-cube",
    "test_functionality",
    "examples.demo.show-markers",
    "gloo",
    "buffer",
    "app.app-glut",
    "vispy.gloo.tests.test_variable",
    "docscrape",
    "util._logging",
    "tutorial.gloo.lighted-cube",
    "gloooverviewgenerator",
    "tests.test_names",
    "_config",
    "doc",
    "vispy.util._geom",
    "howto.split-screen",
    "demo.terrain",
    "app.app-qt",
    "gl.tests.test_names",
    "demo.show-markers",
    "tutorial.gl.cube",
    "vispy.app.backends",
    "animate-shape",
    "vispy.util._logging",
    "tutorial.app.app-glfw",
    "gloo.gl._pyopengl",
    "util.dataio",
    "backends._glfw",
    "util.tests.test_import",
    "tutorial.app",
    "tests.test_functionality",
    "texture",
    "vispy.app.base",
    "vispy.testing.tests",
    "vispy.util.tests.test_cube",
    "gloo.gl._constants",
    "tests.test_key",
    "vispy.gloo.gl._proxy",
    "vispy.gloo.gl.angle",
    "cube",
    "ext.vispy_ext",
    "tutorial.gl.quad",
    "examples.tutorial",
    "gloo.tests.test_shader",
    "vispy.gloo.gl.tests.test_basics",
    "gloo.tests.test_program",
    "test_dataio",
    "vispy.testing._testing",
    "display-shape",
    "_runners",
    "vispy.proxy",
    "textured-quad",
    "test_context",
    "examples.demo.cloud",
    "_desktop",
    "testing",
    "terrain",
    "display-lines",
    "examples.howto.display-lines",
    "vispy.gloo.gl.tests",
    "gloo.gl.tests.test_names",
    "ext.gloooverviewgenerator",
    "tests.test_testing",
    "doc.ext.numpydoc",
    "techniques",
    "gl.quad",
    "examples.demo.mandelbrot",
    "vispy.app.tests",
    "util._data",
    "app.backends._qt",
    "tests.test_qt",
    "vispy.util.tests.test_config",
    "examples.demo.molecular_viewer",
    "util.keys",
    "examples.techniques.grids.hex-grid",
    "examples.demo.markers",
    "gloo.outlined-cube",
    "test_logging",
    "demo.mandelbrot",
    "backends._sdl2",
    "numpydoc",
    "make.__main__",
    "app.canvas",
    "examples.demo.graph",
    "techniques.grids.linear-grid",
    "techniques.post-processing.post-processing",
    "vispy.util.tests.test_import",
    "simple",
    "vispy.app.tests.test_app",
    "test_shader",
    "test_texture",
    "vispy.testing",
    "app.backends._sdl2",
    "examples.tutorial.gloo.textured-quad",
    "vispy.gloo.gl._angle",
    "colored-quad",
    "examples.howto.start",
    "vispy.gloo.tests.test_program",
    "examples.demo.unstructured_2d",
    "examples.demo.boids",
    "backends",
    "tests.test_backends",
    "vispy.util.tests.test_event_emitter",
    "vispy.util.tests.test_dict",
    "tutorial.gloo.textured-cube",
    "tutorial.gloo",
    "_sdl2",
    "backends._pyglet",
    "_logging",
    "animate-images",
    "app-glfw",
    "doc.ext.docscrape",
    "vispy.app._default_app",
    "py24_ordereddict",
    "examples.tutorial.app.app-glut",
    "vispy.app.tests.test_simultaneous",
    "util.tests.test_vispy",
    "gl._angle",
    "vispy.app.tests.test_context",
    "gloo.gl.webgl",
    "ordereddict",
    "ptime",
    "examples.howto.animate-images",
    "dataio",
    "gloo.gl.angle",
    "client-buffers",
    "conf",
    "_template",
    "test_event_emitter",
    "test_testing",
    "techniques.grids.log-grid",
    "codegen.headerparser",
    "examples.tutorial.gloo.colored-cube",
    "examples.howto.animate-shape",
    "make",
    "lighted-cube",
    "examples.demo.rain",
    "gloo.gl.pyopengl",
    "test_cube",
    "app._default_app",
    "wrappers",
    "app.tests",
    "tests.test_simultaneous",
    "examples.techniques.post-processing.post-processing",
    "io",
    "howto.hello-fbo",
    "rain",
    "_pyglet",
    "gloo.framebuffer",
    "util.tests.test_event_emitter",
    "gloo.tests.test_texture",
    "_data",
    "examples.tutorial.app.app-pyglet",
    "util.ordereddict",
    "test_globject",
    "test_simultaneous",
    "globject",
    "app.backends._glfw",
    "vispy.gloo.gl",
    "tests.test_wrappers",
    "doc.ext.vispy_ext",
    "mandelbrot",
    "gloo.globject",
    "transforms",
    "tests.test_use",
    "vispy.app.backends._test",
    "examples.howto.client-buffers",
    "tutorial.gl.fireworks",
    "tutorial.gloo.colored-cube",
    "vispy.util.keys",
    "desktop",
    "color",
    "vispy.util.tests.test_dataio",
    "_test",
    "examples.howto.rotate-cube",
    "vispy.gloo.gl._desktop",
    "tests",
    "test_wrappers",
    "demo.atom",
    "vispy.app.tests.test_qt",
    "vispy.app.application",
    "util.tests.test_dataio",
    "howto",
    "examplesgenerator",
    "vispy.gloo.tests.test_globject",
    "test_import",
    "testing.tests.test_testing",
    "howto.start",
    "tests.test_dataio",
    "util.tests.test_logging",
    "split-screen",
    "gl.tests.test_use",
    "doc.ext.glapigenerator",
    "ext.docscrape_sphinx",
    "examples.demo.game-of-life",
    "tutorial.app.app-pyglet",
    "gloo.buffer",
    "grids",
    "examples.howto",
    "gl.cube",
    "glapigenerator",
    "examples",
    "tutorial",
    "demo.fireworks",
    "tutorial.app.simple",
    "gloo.gl.tests.test_use",
    "vispy.ext.glfw",
    "gl.fireworks",
    "test_config",
    "markers",
    "app.timer",
    "examples.techniques.post-processing",
    "examples.demo",
    "doc.ext.docscrape_sphinx",
    "test_qt",
    "examples.tutorial.gloo.lighted-cube",
    "vispy.gloo.gl.tests.test_use",
    "gl.desktop",
    "ext.numpydoc",
    "codegen.annotations",
    "examples.tutorial.app.app-glfw",
    "examples.howto.display-points",
    "vispy.gloo.tests",
    "examples.tutorial.gl",
    "tutorial.app.app-glut",
    "tests.test_vispy",
    "demo.donut",
    "util._config",
    "gl._pyopengl",
    "variable",
    "unstructured_2d",
    "vispy.util.ordereddict",
    "dataio.wavefront",
    "start",
    "app.backends",
    "techniques.grids.hex-grid",
    "vispy.util.tests.test_logging",
    "hex-grid",
    "app.tests.test_context",
    "vispy.gloo.program",
    "glsl-sandbox-cube",
    "fireworks",
    "headerparser",
    "atom",
    "colored-cube",
    "framebuffer",
    "testing._testing",
    "vispy.util.transforms",
    "_angle",
    "vispy.ext.six",
    "test_vispy",
    "rotating-quad",
    "demo.grayscott",
    "_constants",
    "app.tests.test_backends",
    "examples.tutorial.gloo.textured-cube",
    "grayscott",
    "examples.tutorial.app.app-qt",
    "vispy.gloo.globject",
    "gl.tests.test_functionality",
    "ext",
    "application",
    "gloo.tests.test_buffer",
    "test_variable",
    "demo.unstructured_2d",
    "tests.test_event_emitter",
    "test_buffer",
    "vispy.app.timer",
    "benchmark.simple-glut",
    "vispy.gloo.gl.desktop",
    "gloo.rotating-quad",
    "vispy.gloo.texture",
    "vispy.util.tests.test_transforms",
    "log-grid",
    "gloo.tests",
    "tests.test_import",
    "examples.tutorial.gl.quad",
    "tests.test_dict",
    "_pyopengl",
    "gloo.lighted-cube",
    "vispy.util.tests.test_emitter_group",
    "vispy.gloo.shader",
    "gloo.initialize",
    "gl._proxy",
    "gloo.util"
]