{
    "archive_url": "https://api.github.com/repos/maraujop/django-crispy-forms/{archive_format}{/ref}",
    "assignees_url": "https://api.github.com/repos/maraujop/django-crispy-forms/assignees{/user}",
    "blobs_url": "https://api.github.com/repos/maraujop/django-crispy-forms/git/blobs{/sha}",
    "branches_url": "https://api.github.com/repos/maraujop/django-crispy-forms/branches{/branch}",
    "clone_url": "https://github.com/maraujop/django-crispy-forms.git",
    "collaborators_url": "https://api.github.com/repos/maraujop/django-crispy-forms/collaborators{/collaborator}",
    "comments_url": "https://api.github.com/repos/maraujop/django-crispy-forms/comments{/number}",
    "commits_url": "https://api.github.com/repos/maraujop/django-crispy-forms/commits{/sha}",
    "compare_url": "https://api.github.com/repos/maraujop/django-crispy-forms/compare/{base}...{head}",
    "contents_url": "https://api.github.com/repos/maraujop/django-crispy-forms/contents/{+path}",
    "contributors_url": "https://api.github.com/repos/maraujop/django-crispy-forms/contributors",
    "created_at": "2011-11-01T11:48:03Z",
    "default_branch": "dev",
    "description": "The best way to have DRY Django forms. The app provides a tag and filter that lets you quickly render forms in a div format while providing an enormous amount of capability to configure and control the rendered HTML.",
    "downloads_url": "https://api.github.com/repos/maraujop/django-crispy-forms/downloads",
    "events_url": "https://api.github.com/repos/maraujop/django-crispy-forms/events",
    "fork": false,
    "forks": 233,
    "forks_count": 233,
    "forks_url": "https://api.github.com/repos/maraujop/django-crispy-forms/forks",
    "full_name": "maraujop/django-crispy-forms",
    "git_commits_url": "https://api.github.com/repos/maraujop/django-crispy-forms/git/commits{/sha}",
    "git_refs_url": "https://api.github.com/repos/maraujop/django-crispy-forms/git/refs{/sha}",
    "git_tags_url": "https://api.github.com/repos/maraujop/django-crispy-forms/git/tags{/sha}",
    "git_url": "git://github.com/maraujop/django-crispy-forms.git",
    "has_downloads": true,
    "has_issues": true,
    "has_wiki": false,
    "homepage": "http://django-crispy-forms.rtfd.org",
    "hooks_url": "https://api.github.com/repos/maraujop/django-crispy-forms/hooks",
    "html_url": "https://github.com/maraujop/django-crispy-forms",
    "id": 2687166,
    "issue_comment_url": "https://api.github.com/repos/maraujop/django-crispy-forms/issues/comments/{number}",
    "issue_events_url": "https://api.github.com/repos/maraujop/django-crispy-forms/issues/events{/number}",
    "issues_url": "https://api.github.com/repos/maraujop/django-crispy-forms/issues{/number}",
    "keys_url": "https://api.github.com/repos/maraujop/django-crispy-forms/keys{/key_id}",
    "labels_url": "https://api.github.com/repos/maraujop/django-crispy-forms/labels{/name}",
    "language": "Python",
    "languages_url": "https://api.github.com/repos/maraujop/django-crispy-forms/languages",
    "merges_url": "https://api.github.com/repos/maraujop/django-crispy-forms/merges",
    "milestones_url": "https://api.github.com/repos/maraujop/django-crispy-forms/milestones{/number}",
    "mirror_url": null,
    "name": "django-crispy-forms",
    "notifications_url": "https://api.github.com/repos/maraujop/django-crispy-forms/notifications{?since,all,participating}",
    "open_issues": 68,
    "open_issues_count": 68,
    "owner": {
        "avatar_url": "https://avatars.githubusercontent.com/u/252257?",
        "events_url": "https://api.github.com/users/maraujop/events{/privacy}",
        "followers_url": "https://api.github.com/users/maraujop/followers",
        "following_url": "https://api.github.com/users/maraujop/following{/other_user}",
        "gists_url": "https://api.github.com/users/maraujop/gists{/gist_id}",
        "gravatar_id": "1b6429aafe9e31ea3e3586e2edf80211",
        "html_url": "https://github.com/maraujop",
        "id": 252257,
        "login": "maraujop",
        "organizations_url": "https://api.github.com/users/maraujop/orgs",
        "received_events_url": "https://api.github.com/users/maraujop/received_events",
        "repos_url": "https://api.github.com/users/maraujop/repos",
        "site_admin": false,
        "starred_url": "https://api.github.com/users/maraujop/starred{/owner}{/repo}",
        "subscriptions_url": "https://api.github.com/users/maraujop/subscriptions",
        "type": "User",
        "url": "https://api.github.com/users/maraujop"
    },
    "private": false,
    "pulls_url": "https://api.github.com/repos/maraujop/django-crispy-forms/pulls{/number}",
    "pushed_at": "2014-03-19T11:16:44Z",
    "releases_url": "https://api.github.com/repos/maraujop/django-crispy-forms/releases{/id}",
    "score": 1.0,
    "size": 2912,
    "ssh_url": "git@github.com:maraujop/django-crispy-forms.git",
    "stargazers_count": 1523,
    "stargazers_url": "https://api.github.com/repos/maraujop/django-crispy-forms/stargazers",
    "statuses_url": "https://api.github.com/repos/maraujop/django-crispy-forms/statuses/{sha}",
    "subscribers_url": "https://api.github.com/repos/maraujop/django-crispy-forms/subscribers",
    "subscription_url": "https://api.github.com/repos/maraujop/django-crispy-forms/subscription",
    "svn_url": "https://github.com/maraujop/django-crispy-forms",
    "tags_url": "https://api.github.com/repos/maraujop/django-crispy-forms/tags",
    "teams_url": "https://api.github.com/repos/maraujop/django-crispy-forms/teams",
    "trees_url": "https://api.github.com/repos/maraujop/django-crispy-forms/git/trees{/sha}",
    "updated_at": "2014-05-06T18:14:44Z",
    "url": "https://api.github.com/repos/maraujop/django-crispy-forms",
    "watchers": 1523,
    "watchers_count": 1523
}