[
    "tests.test_tags",
    "test_dynamic_api",
    "crispy_forms.helper",
    "tests.runtests_bootstrap3",
    "tests.test_form_helper",
    "templatetags.crispy_forms_field",
    "crispy_forms.compatibility",
    "crispy_forms.tests.runtests_uniform",
    "flask_theme_support",
    "tests.test_layout",
    "docs._themes",
    "crispy_forms.tests.forms",
    "crispy_forms.tests",
    "tests.base",
    "layout",
    "crispy_forms.templatetags.crispy_forms_filters",
    "crispy_forms.exceptions",
    "forms",
    "crispy_forms_utils",
    "crispy_forms.layout",
    "crispy_forms.tests.test_dynamic_api",
    "utils",
    "tests.runtests_uniform",
    "tests.utils",
    "crispy_forms.layout_slice",
    "tests",
    "docs",
    "runtests_bootstrap3",
    "templatetags.crispy_forms_tags",
    "templatetags.crispy_forms_utils",
    "crispy_forms.tests.test_layout_objects",
    "docs.conf",
    "crispy_forms.tests.test_form_helper",
    "tests.runtests",
    "crispy_forms.utils",
    "settings",
    "test_layout_objects",
    "crispy_forms.tests.utils",
    "crispy_forms_filters",
    "exceptions",
    "runtests_uniform",
    "crispy_forms.templatetags.crispy_forms_tags",
    "conf",
    "helper",
    "test_tags",
    "templatetags.crispy_forms_filters",
    "crispy_forms.tests.test_tags",
    "templatetags",
    "crispy_forms.tests.runtests",
    "test_form_helper",
    "_themes",
    "crispy_forms_field",
    "crispy_forms.templatetags",
    "tests.forms",
    "crispy_forms.models",
    "crispy_forms.templatetags.crispy_forms_field",
    "runtests_bootstrap",
    "tests.test_layout_objects",
    "tests.test_settings",
    "docs.settings",
    "_themes.flask_theme_support",
    "crispy_forms.tests.urls",
    "tests.test_dynamic_api",
    "tests.urls",
    "crispy_forms",
    "crispy_forms.tests.test_layout",
    "crispy_forms.tests.base",
    "crispy_forms.tests.test_settings",
    "docs._themes.flask_theme_support",
    "models",
    "crispy_forms_tags",
    "crispy_forms.templatetags.crispy_forms_utils",
    "base",
    "crispy_forms.bootstrap",
    "compatibility",
    "crispy_forms.base",
    "test_layout",
    "test_settings",
    "bootstrap",
    "layout_slice",
    "crispy_forms.tests.runtests_bootstrap",
    "runtests",
    "urls",
    "tests.runtests_bootstrap",
    "crispy_forms.tests.runtests_bootstrap3"
]