{
    "libs": [
        "version_cl",
        "cStringIO",
        "code",
        "version",
        "text",
        "functools",
        "codecs",
        "tidy",
        "copy",
        "bin",
        "datetime",
        "header",
        "sax",
        "HTMLParser",
        "custom_conf",
        "io",
        "tkSimpleDialog",
        "etree",
        "calendar",
        "shutil",
        "tools",
        "dateutil",
        "sgmllib",
        "lxml",
        "struct",
        "threading",
        "tempfile",
        "iconv_codec",
        "BeautifulSoup",
        "urllib",
        "re",
        "json",
        "html",
        "sqlite3",
        "smtplib",
        "ConfigParser",
        "email",
        "cgi",
        "B",
        "Tkinter",
        "string",
        "simplejson",
        "rfc822",
        "glob",
        "inspect",
        "htmlentitydefs",
        "urllib2",
        "textwrap",
        "sys",
        "getp",
        "webbrowser",
        "logging",
        "saxutils",
        "pickle",
        "path",
        "subprocess",
        "types",
        "md5",
        "argparse",
        "httplib",
        "b",
        "snsb",
        "socket",
        "thread",
        "StringIO",
        "h",
        "Image",
        "zlib",
        "Tidy",
        "hmac",
        "urlparse",
        "imaplib",
        "tkMessageBox",
        "chardet",
        "warnings",
        "time",
        "gzip",
        "requests",
        "os",
        "multiprocessing"
    ]
}