[
    "snspocket",
    "forwarder.old",
    "snsapi.plugin_trial.sina_wap",
    "snsapi.third.oauth2._version",
    "hellosns.test_read_reply",
    "app.forwarder.old.forwarder",
    "snsapi.async",
    "third.oauth2.clients",
    "third.PyRSS2Gen",
    "app.forwarder.forwarder",
    "tests.test_config",
    "forwarder.forwarder",
    "third.oauth2",
    "plugin_trial.sina_wap",
    "snsapi.plugin.rss",
    "platform",
    "snsbase",
    "feedparser",
    "snscrypt",
    "mysofa.mysofa",
    "snsapi.platform",
    "snsconf",
    "test_utils",
    "plugin.tencent",
    "plugin_trial.facebook",
    "test_email",
    "snslog",
    "sqlite",
    "facebook",
    "test_renren",
    "third.oauth",
    "tests.test_rss",
    "app.hellosns.test_write_all",
    "emails",
    "app.clock",
    "snsapi",
    "tests.test_snstype",
    "server",
    "snsapi.snstype",
    "myword.myword",
    "async",
    "clock.clock",
    "old",
    "test_read_all",
    "mysofa",
    "twitter",
    "snsapi.third.PyRSS2Gen",
    "google-reader2snsapi",
    "oauth2.clients",
    "tests.test_email",
    "snsapi.third.twitter",
    "errors",
    "app.clock.clock",
    "clock",
    "test_config",
    "snsapi.snsconf",
    "snsapi.third.oauth2.clients.imap",
    "snsapi.third",
    "snsapi.third.pyDes",
    "backup-renren.backup",
    "app.forwarder.old",
    "app.backup-renren.backup",
    "renren",
    "snsapi.utils",
    "old.forwarder",
    "hellosns.test_write_all",
    "hellosns.test_read_all",
    "sina_wap",
    "snsapi.third.oauth2.clients.smtp",
    "sina",
    "plugin",
    "app.myword.myword",
    "snsapi.snscrypt",
    "_version",
    "plugin_trial",
    "clients.imap",
    "backup",
    "third.server",
    "snsapi.plugin_trial.emails",
    "clients.smtp",
    "snsapi.plugin_trial.twitter",
    "snsapi.third.feedparser",
    "app",
    "oauth2.clients.imap",
    "snsapi.errors",
    "snsapi.third.timezone_sample",
    "tencent",
    "plugin.sina",
    "third.oauth2.clients.smtp",
    "plugin.rss",
    "app.mysofa",
    "test_write_all",
    "plugin_trial.twitter",
    "doc.conf",
    "snsapi.snslog",
    "third.pyDes",
    "snsapi.snsbase",
    "auxiliary.converter",
    "PyRSS2Gen",
    "snscli-async",
    "snsapi.third.oauth2.clients",
    "snsapi.third.oauth",
    "smtp",
    "snsapi.third.oauth2",
    "app.mysofa.mysofa",
    "oauth",
    "tests.test_snsbase",
    "third.timezone_sample",
    "forwarder.old.forwarder",
    "tests.test_snsapi_utils",
    "snsapi.plugin.sina",
    "myword",
    "imap",
    "rss",
    "snsapi.snspocket",
    "oauth2",
    "converter",
    "clients",
    "snsapi.third.server",
    "third.oauth2.clients.imap",
    "auxiliary.converter.google-reader2snsapi",
    "tests.test_utils",
    "forwarder",
    "test_snstype",
    "app.hellosns.test_read_reply",
    "snstype",
    "snscli",
    "app.forwarder",
    "oauth2._version",
    "utils",
    "clock.clock-annotated",
    "tests",
    "snsapi.plugin_trial.sqlite",
    "converter.google-reader2snsapi",
    "conf",
    "app.hellosns",
    "plugin_trial.emails",
    "snsgui",
    "third.facebook",
    "snsapi.third.facebook",
    "third.oauth2._version",
    "test_read_reply",
    "snsapi.plugin_trial",
    "snsapi.plugin",
    "test_snsbase",
    "clock-annotated",
    "snsapi.plugin.tencent",
    "test_rss",
    "hellosns",
    "third.feedparser",
    "timezone_sample",
    "backup-renren",
    "tests.test_renren",
    "app.hellosns.test_read_all",
    "auxiliary",
    "third",
    "app.backup-renren",
    "snsapi.plugin_trial.renren",
    "doc",
    "oauth2.clients.smtp",
    "third.twitter",
    "test_snsapi_utils",
    "app.clock.clock-annotated",
    "plugin_trial.sqlite",
    "snsapi.plugin_trial.facebook",
    "app.myword",
    "pyDes",
    "plugin_trial.renren"
]