The PyGObject Tutorial
======================

An introduction to GTK+ 3 and Python.

http://live.gnome.org/PyGObject

Dependencies
------------
- Sphinx: http://sphinx.pocoo.org


Compile
-------
make html

