{
    "archive_url": "https://api.github.com/repos/nvbn/django-bower/{archive_format}{/ref}",
    "assignees_url": "https://api.github.com/repos/nvbn/django-bower/assignees{/user}",
    "blobs_url": "https://api.github.com/repos/nvbn/django-bower/git/blobs{/sha}",
    "branches_url": "https://api.github.com/repos/nvbn/django-bower/branches{/branch}",
    "clone_url": "https://github.com/nvbn/django-bower.git",
    "collaborators_url": "https://api.github.com/repos/nvbn/django-bower/collaborators{/collaborator}",
    "comments_url": "https://api.github.com/repos/nvbn/django-bower/comments{/number}",
    "commits_url": "https://api.github.com/repos/nvbn/django-bower/commits{/sha}",
    "compare_url": "https://api.github.com/repos/nvbn/django-bower/compare/{base}...{head}",
    "contents_url": "https://api.github.com/repos/nvbn/django-bower/contents/{+path}",
    "contributors_url": "https://api.github.com/repos/nvbn/django-bower/contributors",
    "created_at": "2013-06-11T23:38:18Z",
    "default_branch": "master",
    "description": "Easy way to use bower with your django project",
    "downloads_url": "https://api.github.com/repos/nvbn/django-bower/downloads",
    "events_url": "https://api.github.com/repos/nvbn/django-bower/events",
    "fork": false,
    "forks": 13,
    "forks_count": 13,
    "forks_url": "https://api.github.com/repos/nvbn/django-bower/forks",
    "full_name": "nvbn/django-bower",
    "git_commits_url": "https://api.github.com/repos/nvbn/django-bower/git/commits{/sha}",
    "git_refs_url": "https://api.github.com/repos/nvbn/django-bower/git/refs{/sha}",
    "git_tags_url": "https://api.github.com/repos/nvbn/django-bower/git/tags{/sha}",
    "git_url": "git://github.com/nvbn/django-bower.git",
    "has_downloads": true,
    "has_issues": true,
    "has_wiki": true,
    "homepage": "https://django-bower.readthedocs.org/",
    "hooks_url": "https://api.github.com/repos/nvbn/django-bower/hooks",
    "html_url": "https://github.com/nvbn/django-bower",
    "id": 10633162,
    "issue_comment_url": "https://api.github.com/repos/nvbn/django-bower/issues/comments/{number}",
    "issue_events_url": "https://api.github.com/repos/nvbn/django-bower/issues/events{/number}",
    "issues_url": "https://api.github.com/repos/nvbn/django-bower/issues{/number}",
    "keys_url": "https://api.github.com/repos/nvbn/django-bower/keys{/key_id}",
    "labels_url": "https://api.github.com/repos/nvbn/django-bower/labels{/name}",
    "language": "Python",
    "languages_url": "https://api.github.com/repos/nvbn/django-bower/languages",
    "merges_url": "https://api.github.com/repos/nvbn/django-bower/merges",
    "milestones_url": "https://api.github.com/repos/nvbn/django-bower/milestones{/number}",
    "mirror_url": null,
    "name": "django-bower",
    "notifications_url": "https://api.github.com/repos/nvbn/django-bower/notifications{?since,all,participating}",
    "open_issues": 6,
    "open_issues_count": 6,
    "owner": {
        "avatar_url": "https://avatars.githubusercontent.com/u/1114542?",
        "events_url": "https://api.github.com/users/nvbn/events{/privacy}",
        "followers_url": "https://api.github.com/users/nvbn/followers",
        "following_url": "https://api.github.com/users/nvbn/following{/other_user}",
        "gists_url": "https://api.github.com/users/nvbn/gists{/gist_id}",
        "gravatar_id": "9c2082cdbe74353788ae2845c2bd8281",
        "html_url": "https://github.com/nvbn",
        "id": 1114542,
        "login": "nvbn",
        "organizations_url": "https://api.github.com/users/nvbn/orgs",
        "received_events_url": "https://api.github.com/users/nvbn/received_events",
        "repos_url": "https://api.github.com/users/nvbn/repos",
        "site_admin": false,
        "starred_url": "https://api.github.com/users/nvbn/starred{/owner}{/repo}",
        "subscriptions_url": "https://api.github.com/users/nvbn/subscriptions",
        "type": "User",
        "url": "https://api.github.com/users/nvbn"
    },
    "private": false,
    "pulls_url": "https://api.github.com/repos/nvbn/django-bower/pulls{/number}",
    "pushed_at": "2014-04-21T14:59:19Z",
    "releases_url": "https://api.github.com/repos/nvbn/django-bower/releases{/id}",
    "score": 1.0,
    "size": 504,
    "ssh_url": "git@github.com:nvbn/django-bower.git",
    "stargazers_count": 144,
    "stargazers_url": "https://api.github.com/repos/nvbn/django-bower/stargazers",
    "statuses_url": "https://api.github.com/repos/nvbn/django-bower/statuses/{sha}",
    "subscribers_url": "https://api.github.com/repos/nvbn/django-bower/subscribers",
    "subscription_url": "https://api.github.com/repos/nvbn/django-bower/subscription",
    "svn_url": "https://github.com/nvbn/django-bower",
    "tags_url": "https://api.github.com/repos/nvbn/django-bower/tags",
    "teams_url": "https://api.github.com/repos/nvbn/django-bower/teams",
    "trees_url": "https://api.github.com/repos/nvbn/django-bower/git/trees{/sha}",
    "updated_at": "2014-05-05T21:56:59Z",
    "url": "https://api.github.com/repos/nvbn/django-bower",
    "watchers": 144,
    "watchers_count": 144
}