{
    "archive_url": "https://api.github.com/repos/gotcha/vimpdb/{archive_format}{/ref}",
    "assignees_url": "https://api.github.com/repos/gotcha/vimpdb/assignees{/user}",
    "blobs_url": "https://api.github.com/repos/gotcha/vimpdb/git/blobs{/sha}",
    "branches_url": "https://api.github.com/repos/gotcha/vimpdb/branches{/branch}",
    "clone_url": "https://github.com/gotcha/vimpdb.git",
    "collaborators_url": "https://api.github.com/repos/gotcha/vimpdb/collaborators{/collaborator}",
    "comments_url": "https://api.github.com/repos/gotcha/vimpdb/comments{/number}",
    "commits_url": "https://api.github.com/repos/gotcha/vimpdb/commits{/sha}",
    "compare_url": "https://api.github.com/repos/gotcha/vimpdb/compare/{base}...{head}",
    "contents_url": "https://api.github.com/repos/gotcha/vimpdb/contents/{+path}",
    "contributors_url": "https://api.github.com/repos/gotcha/vimpdb/contributors",
    "created_at": "2010-02-20T14:54:20Z",
    "default_branch": "master",
    "description": "Pdb and Vim integration",
    "downloads_url": "https://api.github.com/repos/gotcha/vimpdb/downloads",
    "events_url": "https://api.github.com/repos/gotcha/vimpdb/events",
    "fork": false,
    "forks": 5,
    "forks_count": 5,
    "forks_url": "https://api.github.com/repos/gotcha/vimpdb/forks",
    "full_name": "gotcha/vimpdb",
    "git_commits_url": "https://api.github.com/repos/gotcha/vimpdb/git/commits{/sha}",
    "git_refs_url": "https://api.github.com/repos/gotcha/vimpdb/git/refs{/sha}",
    "git_tags_url": "https://api.github.com/repos/gotcha/vimpdb/git/tags{/sha}",
    "git_url": "git://github.com/gotcha/vimpdb.git",
    "has_downloads": false,
    "has_issues": true,
    "has_wiki": false,
    "homepage": "",
    "hooks_url": "https://api.github.com/repos/gotcha/vimpdb/hooks",
    "html_url": "https://github.com/gotcha/vimpdb",
    "id": 527488,
    "issue_comment_url": "https://api.github.com/repos/gotcha/vimpdb/issues/comments/{number}",
    "issue_events_url": "https://api.github.com/repos/gotcha/vimpdb/issues/events{/number}",
    "issues_url": "https://api.github.com/repos/gotcha/vimpdb/issues{/number}",
    "keys_url": "https://api.github.com/repos/gotcha/vimpdb/keys{/key_id}",
    "labels_url": "https://api.github.com/repos/gotcha/vimpdb/labels{/name}",
    "language": "Python",
    "languages_url": "https://api.github.com/repos/gotcha/vimpdb/languages",
    "merges_url": "https://api.github.com/repos/gotcha/vimpdb/merges",
    "milestones_url": "https://api.github.com/repos/gotcha/vimpdb/milestones{/number}",
    "mirror_url": null,
    "name": "vimpdb",
    "notifications_url": "https://api.github.com/repos/gotcha/vimpdb/notifications{?since,all,participating}",
    "open_issues": 6,
    "open_issues_count": 6,
    "owner": {
        "avatar_url": "https://avatars.githubusercontent.com/u/105204?",
        "events_url": "https://api.github.com/users/gotcha/events{/privacy}",
        "followers_url": "https://api.github.com/users/gotcha/followers",
        "following_url": "https://api.github.com/users/gotcha/following{/other_user}",
        "gists_url": "https://api.github.com/users/gotcha/gists{/gist_id}",
        "gravatar_id": "fa370c58c6265e0e496668f4cb39e14a",
        "html_url": "https://github.com/gotcha",
        "id": 105204,
        "login": "gotcha",
        "organizations_url": "https://api.github.com/users/gotcha/orgs",
        "received_events_url": "https://api.github.com/users/gotcha/received_events",
        "repos_url": "https://api.github.com/users/gotcha/repos",
        "site_admin": false,
        "starred_url": "https://api.github.com/users/gotcha/starred{/owner}{/repo}",
        "subscriptions_url": "https://api.github.com/users/gotcha/subscriptions",
        "type": "User",
        "url": "https://api.github.com/users/gotcha"
    },
    "private": false,
    "pulls_url": "https://api.github.com/repos/gotcha/vimpdb/pulls{/number}",
    "pushed_at": "2012-03-27T10:02:12Z",
    "releases_url": "https://api.github.com/repos/gotcha/vimpdb/releases{/id}",
    "score": 1.0,
    "size": 1449,
    "ssh_url": "git@github.com:gotcha/vimpdb.git",
    "stargazers_count": 89,
    "stargazers_url": "https://api.github.com/repos/gotcha/vimpdb/stargazers",
    "statuses_url": "https://api.github.com/repos/gotcha/vimpdb/statuses/{sha}",
    "subscribers_url": "https://api.github.com/repos/gotcha/vimpdb/subscribers",
    "subscription_url": "https://api.github.com/repos/gotcha/vimpdb/subscription",
    "svn_url": "https://github.com/gotcha/vimpdb",
    "tags_url": "https://api.github.com/repos/gotcha/vimpdb/tags",
    "teams_url": "https://api.github.com/repos/gotcha/vimpdb/teams",
    "trees_url": "https://api.github.com/repos/gotcha/vimpdb/git/trees{/sha}",
    "updated_at": "2014-01-12T22:47:28Z",
    "url": "https://api.github.com/repos/gotcha/vimpdb",
    "watchers": 89,
    "watchers_count": 89
}