{
    "archive_url": "https://api.github.com/repos/square/SocketRocket/{archive_format}{/ref}",
    "assignees_url": "https://api.github.com/repos/square/SocketRocket/assignees{/user}",
    "blobs_url": "https://api.github.com/repos/square/SocketRocket/git/blobs{/sha}",
    "branches_url": "https://api.github.com/repos/square/SocketRocket/branches{/branch}",
    "clone_url": "https://github.com/square/SocketRocket.git",
    "collaborators_url": "https://api.github.com/repos/square/SocketRocket/collaborators{/collaborator}",
    "comments_url": "https://api.github.com/repos/square/SocketRocket/comments{/number}",
    "commits_url": "https://api.github.com/repos/square/SocketRocket/commits{/sha}",
    "compare_url": "https://api.github.com/repos/square/SocketRocket/compare/{base}...{head}",
    "contents_url": "https://api.github.com/repos/square/SocketRocket/contents/{+path}",
    "contributors_url": "https://api.github.com/repos/square/SocketRocket/contributors",
    "created_at": "2012-01-30T00:21:34Z",
    "default_branch": "master",
    "description": "A conforming Objective-C WebSocket client library.",
    "downloads_url": "https://api.github.com/repos/square/SocketRocket/downloads",
    "events_url": "https://api.github.com/repos/square/SocketRocket/events",
    "fork": false,
    "forks": 459,
    "forks_count": 459,
    "forks_url": "https://api.github.com/repos/square/SocketRocket/forks",
    "full_name": "square/SocketRocket",
    "git_commits_url": "https://api.github.com/repos/square/SocketRocket/git/commits{/sha}",
    "git_refs_url": "https://api.github.com/repos/square/SocketRocket/git/refs{/sha}",
    "git_tags_url": "https://api.github.com/repos/square/SocketRocket/git/tags{/sha}",
    "git_url": "git://github.com/square/SocketRocket.git",
    "has_downloads": true,
    "has_issues": true,
    "has_wiki": true,
    "homepage": "",
    "hooks_url": "https://api.github.com/repos/square/SocketRocket/hooks",
    "html_url": "https://github.com/square/SocketRocket",
    "id": 3301046,
    "issue_comment_url": "https://api.github.com/repos/square/SocketRocket/issues/comments/{number}",
    "issue_events_url": "https://api.github.com/repos/square/SocketRocket/issues/events{/number}",
    "issues_url": "https://api.github.com/repos/square/SocketRocket/issues{/number}",
    "keys_url": "https://api.github.com/repos/square/SocketRocket/keys{/key_id}",
    "labels_url": "https://api.github.com/repos/square/SocketRocket/labels{/name}",
    "language": "Python",
    "languages_url": "https://api.github.com/repos/square/SocketRocket/languages",
    "merges_url": "https://api.github.com/repos/square/SocketRocket/merges",
    "milestones_url": "https://api.github.com/repos/square/SocketRocket/milestones{/number}",
    "mirror_url": null,
    "name": "SocketRocket",
    "notifications_url": "https://api.github.com/repos/square/SocketRocket/notifications{?since,all,participating}",
    "open_issues": 99,
    "open_issues_count": 99,
    "owner": {
        "avatar_url": "https://avatars.githubusercontent.com/u/82592?",
        "events_url": "https://api.github.com/users/square/events{/privacy}",
        "followers_url": "https://api.github.com/users/square/followers",
        "following_url": "https://api.github.com/users/square/following{/other_user}",
        "gists_url": "https://api.github.com/users/square/gists{/gist_id}",
        "gravatar_id": "d87fe401b5fc9a4fc9bfd75febcab7c7",
        "html_url": "https://github.com/square",
        "id": 82592,
        "login": "square",
        "organizations_url": "https://api.github.com/users/square/orgs",
        "received_events_url": "https://api.github.com/users/square/received_events",
        "repos_url": "https://api.github.com/users/square/repos",
        "site_admin": false,
        "starred_url": "https://api.github.com/users/square/starred{/owner}{/repo}",
        "subscriptions_url": "https://api.github.com/users/square/subscriptions",
        "type": "Organization",
        "url": "https://api.github.com/users/square"
    },
    "private": false,
    "pulls_url": "https://api.github.com/repos/square/SocketRocket/pulls{/number}",
    "pushed_at": "2014-03-28T21:36:27Z",
    "releases_url": "https://api.github.com/repos/square/SocketRocket/releases{/id}",
    "score": 1.0,
    "size": 3327,
    "ssh_url": "git@github.com:square/SocketRocket.git",
    "stargazers_count": 2452,
    "stargazers_url": "https://api.github.com/repos/square/SocketRocket/stargazers",
    "statuses_url": "https://api.github.com/repos/square/SocketRocket/statuses/{sha}",
    "subscribers_url": "https://api.github.com/repos/square/SocketRocket/subscribers",
    "subscription_url": "https://api.github.com/repos/square/SocketRocket/subscription",
    "svn_url": "https://github.com/square/SocketRocket",
    "tags_url": "https://api.github.com/repos/square/SocketRocket/tags",
    "teams_url": "https://api.github.com/repos/square/SocketRocket/teams",
    "trees_url": "https://api.github.com/repos/square/SocketRocket/git/trees{/sha}",
    "updated_at": "2014-05-07T03:34:33Z",
    "url": "https://api.github.com/repos/square/SocketRocket",
    "watchers": 2452,
    "watchers_count": 2452
}