[
    "virtualenv",
    "py.chatroom",
    "extern.virtualenv.virtualenv",
    "py",
    "TestChatServer.py.chatroom",
    "sr-testharness.srtestharness.runner",
    "extern.virtualenv",
    "runner",
    "TestChatServer",
    "sr-testharness",
    "TestChatServer.py",
    "TestSupport",
    "virtualenv.virtualenv",
    "srtestharness",
    "TestSupport.sr-testharness.srtestharness.runner",
    "sr-testharness.srtestharness",
    "TestSupport.sr-testharness",
    "chatroom",
    "extern",
    "srtestharness.runner",
    "TestSupport.sr-testharness.srtestharness"
]