[
    "sendgrid.migrations.0003_auto__add_category",
    "example_project.urls",
    "manage",
    "sendgrid.migrations.0008_auto__chg_field_bounceevent_bounce_type__chg_field_bounceevent_bounce_",
    "header",
    "0005_auto__add_eventtype__add_event",
    "message",
    "migrations.0006_change_event_type_column_name",
    "0002_auto__chg_field_emailmessage_to_email__chg_field_emailmessage_from_ema",
    "forms",
    "management",
    "sendgrid.migrations",
    "example_project",
    "signals",
    "utils.testutils",
    "backends",
    "constants",
    "main.tests",
    "mail",
    "fabfile",
    "main",
    "sendgrid.utils.filterutils",
    "0006_change_event_type_column_name",
    "tests",
    "migrations.0005_auto__add_eventtype__add_event",
    "views",
    "migrations.0001_initial",
    "utils.filterutils",
    "sendgrid.migrations.0002_auto__chg_field_emailmessage_to_email__chg_field_emailmessage_from_ema",
    "migrations.0002_auto__chg_field_emailmessage_to_email__chg_field_emailmessage_from_ema",
    "example_project.settings",
    "sendgrid.migrations.0005_auto__add_eventtype__add_event",
    "requestfactory",
    "migrations.0004_auto__add_uniqueargument__add_argument",
    "migrations.0009_auto__add_field_event_timestamp",
    "settings",
    "commands",
    "sendgrid.mixins",
    "migrations.0008_auto__chg_field_bounceevent_bounce_type__chg_field_bounceevent_bounce_",
    "cleanup_email_message_body_data",
    "sendgrid.backends",
    "sendgrid.migrations.0001_initial",
    "example_project.main.forms",
    "sendgrid.message",
    "0008_auto__chg_field_bounceevent_bounce_type__chg_field_bounceevent_bounce_",
    "main.forms",
    "management.commands",
    "sendgrid.header",
    "utils.requestfactory",
    "sendgrid.utils",
    "utils",
    "sendgrid.management.commands",
    "commands.cleanup_email_message_body_data",
    "migrations.0003_auto__add_category",
    "0009_auto__add_field_event_timestamp",
    "sendgrid.utils.requestfactory",
    "sendgrid.management.commands.cleanup_email_message_body_data",
    "sendgrid.admin",
    "management.commands.cleanup_email_message_body_data",
    "sendgrid.migrations.0004_auto__add_uniqueargument__add_argument",
    "sendgrid.urls",
    "utils.cleanup",
    "sendgrid.models",
    "sendgrid",
    "migrations",
    "sendgrid.migrations.0006_change_event_type_column_name",
    "sendgrid.tests",
    "cleanup",
    "sendgrid.utils.cleanup",
    "example_project.manage",
    "sendgrid.management",
    "sendgrid.views",
    "sendgrid.settings",
    "models",
    "mixins",
    "0003_auto__add_category",
    "sendgrid.constants",
    "0001_initial",
    "0007_auto__add_bouncetype__add_droppedevent__add_bouncereason__add_clickurl",
    "main.models",
    "sendgrid.mail",
    "example_project.main.tests",
    "example_project.main.views",
    "example_project.main.models",
    "migrations.0007_auto__add_bouncetype__add_droppedevent__add_bouncereason__add_clickurl",
    "sendgrid.utils.testutils",
    "example_project.main.urls",
    "testutils",
    "example_project.main",
    "admin",
    "sendgrid.migrations.0007_auto__add_bouncetype__add_droppedevent__add_bouncereason__add_clickurl",
    "sendgrid.signals",
    "main.urls",
    "urls",
    "main.views",
    "sendgrid.migrations.0009_auto__add_field_event_timestamp",
    "0004_auto__add_uniqueargument__add_argument",
    "filterutils"
]