{
    "archive_url": "https://api.github.com/repos/mmeeks/bootchart/{archive_format}{/ref}",
    "assignees_url": "https://api.github.com/repos/mmeeks/bootchart/assignees{/user}",
    "blobs_url": "https://api.github.com/repos/mmeeks/bootchart/git/blobs{/sha}",
    "branches_url": "https://api.github.com/repos/mmeeks/bootchart/branches{/branch}",
    "clone_url": "https://github.com/mmeeks/bootchart.git",
    "collaborators_url": "https://api.github.com/repos/mmeeks/bootchart/collaborators{/collaborator}",
    "comments_url": "https://api.github.com/repos/mmeeks/bootchart/comments{/number}",
    "commits_url": "https://api.github.com/repos/mmeeks/bootchart/commits{/sha}",
    "compare_url": "https://api.github.com/repos/mmeeks/bootchart/compare/{base}...{head}",
    "contents_url": "https://api.github.com/repos/mmeeks/bootchart/contents/{+path}",
    "contributors_url": "https://api.github.com/repos/mmeeks/bootchart/contributors",
    "created_at": "2009-11-23T11:59:29Z",
    "default_branch": "master",
    "description": "merge of bootchart-collector and pybootchartgui",
    "downloads_url": "https://api.github.com/repos/mmeeks/bootchart/downloads",
    "events_url": "https://api.github.com/repos/mmeeks/bootchart/events",
    "fork": false,
    "forks": 30,
    "forks_count": 30,
    "forks_url": "https://api.github.com/repos/mmeeks/bootchart/forks",
    "full_name": "mmeeks/bootchart",
    "git_commits_url": "https://api.github.com/repos/mmeeks/bootchart/git/commits{/sha}",
    "git_refs_url": "https://api.github.com/repos/mmeeks/bootchart/git/refs{/sha}",
    "git_tags_url": "https://api.github.com/repos/mmeeks/bootchart/git/tags{/sha}",
    "git_url": "git://github.com/mmeeks/bootchart.git",
    "has_downloads": true,
    "has_issues": true,
    "has_wiki": true,
    "homepage": "",
    "hooks_url": "https://api.github.com/repos/mmeeks/bootchart/hooks",
    "html_url": "https://github.com/mmeeks/bootchart",
    "id": 382466,
    "issue_comment_url": "https://api.github.com/repos/mmeeks/bootchart/issues/comments/{number}",
    "issue_events_url": "https://api.github.com/repos/mmeeks/bootchart/issues/events{/number}",
    "issues_url": "https://api.github.com/repos/mmeeks/bootchart/issues{/number}",
    "keys_url": "https://api.github.com/repos/mmeeks/bootchart/keys{/key_id}",
    "labels_url": "https://api.github.com/repos/mmeeks/bootchart/labels{/name}",
    "language": "Python",
    "languages_url": "https://api.github.com/repos/mmeeks/bootchart/languages",
    "merges_url": "https://api.github.com/repos/mmeeks/bootchart/merges",
    "milestones_url": "https://api.github.com/repos/mmeeks/bootchart/milestones{/number}",
    "mirror_url": null,
    "name": "bootchart",
    "notifications_url": "https://api.github.com/repos/mmeeks/bootchart/notifications{?since,all,participating}",
    "open_issues": 8,
    "open_issues_count": 8,
    "owner": {
        "avatar_url": "https://avatars.githubusercontent.com/u/122848?",
        "events_url": "https://api.github.com/users/mmeeks/events{/privacy}",
        "followers_url": "https://api.github.com/users/mmeeks/followers",
        "following_url": "https://api.github.com/users/mmeeks/following{/other_user}",
        "gists_url": "https://api.github.com/users/mmeeks/gists{/gist_id}",
        "gravatar_id": "612c38ab90da413e9721dd0a64345e48",
        "html_url": "https://github.com/mmeeks",
        "id": 122848,
        "login": "mmeeks",
        "organizations_url": "https://api.github.com/users/mmeeks/orgs",
        "received_events_url": "https://api.github.com/users/mmeeks/received_events",
        "repos_url": "https://api.github.com/users/mmeeks/repos",
        "site_admin": false,
        "starred_url": "https://api.github.com/users/mmeeks/starred{/owner}{/repo}",
        "subscriptions_url": "https://api.github.com/users/mmeeks/subscriptions",
        "type": "User",
        "url": "https://api.github.com/users/mmeeks"
    },
    "private": false,
    "pulls_url": "https://api.github.com/repos/mmeeks/bootchart/pulls{/number}",
    "pushed_at": "2013-10-03T17:37:31Z",
    "releases_url": "https://api.github.com/repos/mmeeks/bootchart/releases{/id}",
    "score": 1.0,
    "size": 1931,
    "ssh_url": "git@github.com:mmeeks/bootchart.git",
    "stargazers_count": 71,
    "stargazers_url": "https://api.github.com/repos/mmeeks/bootchart/stargazers",
    "statuses_url": "https://api.github.com/repos/mmeeks/bootchart/statuses/{sha}",
    "subscribers_url": "https://api.github.com/repos/mmeeks/bootchart/subscribers",
    "subscription_url": "https://api.github.com/repos/mmeeks/bootchart/subscription",
    "svn_url": "https://github.com/mmeeks/bootchart",
    "tags_url": "https://api.github.com/repos/mmeeks/bootchart/tags",
    "teams_url": "https://api.github.com/repos/mmeeks/bootchart/teams",
    "trees_url": "https://api.github.com/repos/mmeeks/bootchart/git/trees{/sha}",
    "updated_at": "2014-04-26T07:48:17Z",
    "url": "https://api.github.com/repos/mmeeks/bootchart",
    "watchers": 71,
    "watchers_count": 71
}