{
    "archive_url": "https://api.github.com/repos/nesaro/pydsl/{archive_format}{/ref}",
    "assignees_url": "https://api.github.com/repos/nesaro/pydsl/assignees{/user}",
    "blobs_url": "https://api.github.com/repos/nesaro/pydsl/git/blobs{/sha}",
    "branches_url": "https://api.github.com/repos/nesaro/pydsl/branches{/branch}",
    "clone_url": "https://github.com/nesaro/pydsl.git",
    "collaborators_url": "https://api.github.com/repos/nesaro/pydsl/collaborators{/collaborator}",
    "comments_url": "https://api.github.com/repos/nesaro/pydsl/comments{/number}",
    "commits_url": "https://api.github.com/repos/nesaro/pydsl/commits{/sha}",
    "compare_url": "https://api.github.com/repos/nesaro/pydsl/compare/{base}...{head}",
    "contents_url": "https://api.github.com/repos/nesaro/pydsl/contents/{+path}",
    "contributors_url": "https://api.github.com/repos/nesaro/pydsl/contributors",
    "created_at": "2012-01-14T19:43:24Z",
    "default_branch": "master",
    "description": "Python Domain Specific Language Tools",
    "downloads_url": "https://api.github.com/repos/nesaro/pydsl/downloads",
    "events_url": "https://api.github.com/repos/nesaro/pydsl/events",
    "fork": false,
    "forks": 4,
    "forks_count": 4,
    "forks_url": "https://api.github.com/repos/nesaro/pydsl/forks",
    "full_name": "nesaro/pydsl",
    "git_commits_url": "https://api.github.com/repos/nesaro/pydsl/git/commits{/sha}",
    "git_refs_url": "https://api.github.com/repos/nesaro/pydsl/git/refs{/sha}",
    "git_tags_url": "https://api.github.com/repos/nesaro/pydsl/git/tags{/sha}",
    "git_url": "git://github.com/nesaro/pydsl.git",
    "has_downloads": true,
    "has_issues": true,
    "has_wiki": true,
    "homepage": "pydsl.org",
    "hooks_url": "https://api.github.com/repos/nesaro/pydsl/hooks",
    "html_url": "https://github.com/nesaro/pydsl",
    "id": 3179823,
    "issue_comment_url": "https://api.github.com/repos/nesaro/pydsl/issues/comments/{number}",
    "issue_events_url": "https://api.github.com/repos/nesaro/pydsl/issues/events{/number}",
    "issues_url": "https://api.github.com/repos/nesaro/pydsl/issues{/number}",
    "keys_url": "https://api.github.com/repos/nesaro/pydsl/keys{/key_id}",
    "labels_url": "https://api.github.com/repos/nesaro/pydsl/labels{/name}",
    "language": "Python",
    "languages_url": "https://api.github.com/repos/nesaro/pydsl/languages",
    "merges_url": "https://api.github.com/repos/nesaro/pydsl/merges",
    "milestones_url": "https://api.github.com/repos/nesaro/pydsl/milestones{/number}",
    "mirror_url": null,
    "name": "pydsl",
    "notifications_url": "https://api.github.com/repos/nesaro/pydsl/notifications{?since,all,participating}",
    "open_issues": 20,
    "open_issues_count": 20,
    "owner": {
        "avatar_url": "https://avatars.githubusercontent.com/u/71460?",
        "events_url": "https://api.github.com/users/nesaro/events{/privacy}",
        "followers_url": "https://api.github.com/users/nesaro/followers",
        "following_url": "https://api.github.com/users/nesaro/following{/other_user}",
        "gists_url": "https://api.github.com/users/nesaro/gists{/gist_id}",
        "gravatar_id": "e086f4ef05e21aeefea7e55c07f4c13d",
        "html_url": "https://github.com/nesaro",
        "id": 71460,
        "login": "nesaro",
        "organizations_url": "https://api.github.com/users/nesaro/orgs",
        "received_events_url": "https://api.github.com/users/nesaro/received_events",
        "repos_url": "https://api.github.com/users/nesaro/repos",
        "site_admin": false,
        "starred_url": "https://api.github.com/users/nesaro/starred{/owner}{/repo}",
        "subscriptions_url": "https://api.github.com/users/nesaro/subscriptions",
        "type": "User",
        "url": "https://api.github.com/users/nesaro"
    },
    "private": false,
    "pulls_url": "https://api.github.com/repos/nesaro/pydsl/pulls{/number}",
    "pushed_at": "2014-04-18T21:58:16Z",
    "releases_url": "https://api.github.com/repos/nesaro/pydsl/releases{/id}",
    "score": 1.0,
    "size": 5985,
    "ssh_url": "git@github.com:nesaro/pydsl.git",
    "stargazers_count": 45,
    "stargazers_url": "https://api.github.com/repos/nesaro/pydsl/stargazers",
    "statuses_url": "https://api.github.com/repos/nesaro/pydsl/statuses/{sha}",
    "subscribers_url": "https://api.github.com/repos/nesaro/pydsl/subscribers",
    "subscription_url": "https://api.github.com/repos/nesaro/pydsl/subscription",
    "svn_url": "https://github.com/nesaro/pydsl",
    "tags_url": "https://api.github.com/repos/nesaro/pydsl/tags",
    "teams_url": "https://api.github.com/repos/nesaro/pydsl/teams",
    "trees_url": "https://api.github.com/repos/nesaro/pydsl/git/trees{/sha}",
    "updated_at": "2014-05-06T07:52:06Z",
    "url": "https://api.github.com/repos/nesaro/pydsl",
    "watchers": 45,
    "watchers_count": 45
}