[
    "Parser.PEG",
    "protocol",
    "Alphabet",
    "test_Tree",
    "pydsl.contrib.transformer.chemicalFormulas",
    "pydsl.contrib.grammar.MimeType",
    "Parser.Backtracing",
    "unit.test_Checker",
    "File.BNF",
    "test_Translate",
    "pydsl.contrib.bnfgrammar",
    "spark_scan_example",
    "test_GrammarDefinition",
    "transformer",
    "grammar.calc_ply",
    "tests.unit.test_Checker",
    "pydsl.Guess",
    "regexps",
    "pydsl.contrib.grammar.protocol",
    "tests.functional.test_Case",
    "test_Checker",
    "unit.test_GrammarDefinition",
    "BNF",
    "Translator",
    "pydsl.contrib.grammar.integerop",
    "grammar.ImageFile",
    "pydsl.Tree",
    "spark_parse_example",
    "spark.spark_parse_example",
    "Regexp",
    "pydsl.contrib.grammar.Grammar2RecursiveDescentParserRecognizer",
    "tests",
    "Grammar",
    "spark_example",
    "Parsley",
    "Token",
    "pydsl.contrib.grammar",
    "spark.spark_example",
    "pydsl.Grammar.Symbol",
    "pydsl.Grammar.PEG",
    "pydsl.Parser",
    "Grammar.Parsley",
    "test_BNFLoad",
    "grammar",
    "integerop",
    "grammar.MimeType",
    "pydsl.external.spark",
    "pydsl.Extract",
    "File.Regexp",
    "mongogrammar",
    "ImageFile",
    "tests.functional.test_LogicGrammars",
    "contrib.regexps",
    "pydsl.contrib.mongogrammar",
    "calc_ply",
    "contrib.grammar.SpanishID",
    "DayOfMonth",
    "pydsl.contrib.alphabet.test_alphabet",
    "grammar.cstring",
    "pydsl.Alphabet",
    "grammar.example_ply",
    "unit.test_Tree",
    "pydsl.external",
    "tests.functional",
    "LR0",
    "grammar.SpanishID",
    "File.Parsley",
    "Parser.LR0",
    "pydsl.Token",
    "chemicalFormulas",
    "pydsl.contrib.regexps",
    "pydsl.Parser.PEG",
    "tests.unit.test_Extract",
    "tests.unit.test_BNF",
    "pydsl.Translator",
    "transformer.echo",
    "unit",
    "contrib.transformer.chemicalFormulas",
    "Lex",
    "Check",
    "contrib.grammar.DayOfMonth",
    "unit.test_BNFLoad",
    "unit.test_Parsley",
    "tests.unit.test_Lexer",
    "Tree",
    "contrib.grammar.MimeType",
    "pydsl.Grammar.Parsley",
    "Exceptions",
    "spark",
    "Parser.LL",
    "contrib.grammar.Grammar2RecursiveDescentParserRecognizer",
    "unit.test_Translate",
    "contrib.grammar",
    "Parser",
    "unit.test_Extract",
    "tests.unit.test_Translate",
    "pydsl.File.Python",
    "tests.unit.test_PEG",
    "contrib.transformer.echo",
    "pydsl.contrib.grammar.DayOfMonth",
    "contrib.transformer",
    "Parser.Parser",
    "pydsl.File.Regexp",
    "unit.test_PEG",
    "test_RegularExpression",
    "functional",
    "echo",
    "pydsl.contrib.alphabet",
    "contrib.grammar.example_ply",
    "pydsl.Parser.LL",
    "pydsl.contrib.spark.spark_scan_example",
    "unit.test_Guess",
    "contrib.spark.spark_scan_example",
    "contrib",
    "PEG",
    "tests.unit.test_Parser",
    "tests.unit.test_Guess",
    "contrib.calculator",
    "test_Guess",
    "pydsl.Grammar",
    "Symbol",
    "cstring",
    "Grammar.PEG",
    "grammar.Grammar2RecursiveDescentParserRecognizer",
    "pydsl.Lex",
    "grammar.protocol",
    "pydsl.contrib.grammar.SpanishID",
    "pydsl.Grammar.BNF",
    "contrib.spark.spark_example",
    "pydsl.File",
    "test_Case",
    "Definition",
    "pydsl.Parser.Parser",
    "SpanishID",
    "tests.unit.test_Parsley",
    "unit.test_Alphabet",
    "contrib.bnfgrammar",
    "pydsl.contrib.grammar.example_ply",
    "contrib.mongogrammar",
    "Grammar.Symbol",
    "test_BNF",
    "external.spark",
    "contrib.spark",
    "pydsl",
    "pydsl.contrib.spark",
    "external",
    "contrib.spark.spark_parse_example",
    "test_Parser",
    "alphabet.test_alphabet",
    "pydsl.contrib.spark.spark_example",
    "pydsl.contrib.transformer.echo",
    "grammar.DayOfMonth",
    "Extract",
    "example_ply",
    "unit.test_Lexer",
    "alphabet",
    "tests.unit.test_Alphabet",
    "Grammar2RecursiveDescentParserRecognizer",
    "test_LogicGrammars",
    "calculator",
    "transformer.chemicalFormulas",
    "contrib.alphabet",
    "test_alphabet",
    "pydsl.Check",
    "pydsl.Grammar.Definition",
    "tests.unit.test_BNFLoad",
    "MimeType",
    "pydsl.contrib.grammar.calc_ply",
    "Grammar.Definition",
    "unit.test_RegularExpression",
    "test_Lexer",
    "pydsl.contrib.spark.spark_parse_example",
    "Python",
    "contrib.alphabet.test_alphabet",
    "Guess",
    "test_PEG",
    "contrib.grammar.protocol",
    "pydsl.contrib",
    "tests.unit.test_RegularExpression",
    "contrib.grammar.integerop",
    "contrib.grammar.cstring",
    "pydsl.File.BNF",
    "unit.test_BNF",
    "spark.spark_scan_example",
    "unit.test_Parser",
    "test_Parsley",
    "Grammar.BNF",
    "test_Extract",
    "contrib.grammar.calc_ply",
    "tests.unit",
    "pydsl.contrib.grammar.cstring",
    "functional.test_Case",
    "grammar.integerop",
    "tests.unit.test_Tree",
    "tests.unit.test_GrammarDefinition",
    "bnfgrammar",
    "contrib.grammar.ImageFile",
    "pydsl.Parser.Backtracing",
    "pydsl.Exceptions",
    "pydsl.Parser.LR0",
    "functional.test_LogicGrammars",
    "pydsl.File.Parsley",
    "File.Python",
    "pydsl.contrib.grammar.ImageFile",
    "File",
    "test_Alphabet",
    "pydsl.contrib.transformer",
    "LL",
    "Backtracing",
    "pydsl.contrib.calculator"
]