[
    "ui.dummy",
    "osx",
    "listdialog.panel_2.MyFrame",
    "filerockclient.ui.client_facade",
    "filerockclient.ui.wxGui.gui",
    "filerockclient.ui.wxGui.dialogs.listdialog",
    "wareboxdialog",
    "ui.wxGui.dialogs.listdialog.ListDialog",
    "panel_3.widgets",
    "ui.wxGui.dialogs.logviewer",
    "ui.wxGui.leaky_bucket",
    "filerockclient.warebox",
    "filerockclient.ui.shellextension.osx",
    "widgets_dict",
    "filerockclient.ui.wxGui.dialogs.sliderdialog.Panels.panels",
    "updater.UpdaterWin32",
    "storage_cache",
    "Communication.ResponseDetails",
    "states.pre_authentication",
    "abstract.worker_watcher",
    "wxGui.default",
    "listdialog",
    "GStatuses",
    "Communication.OperationsHelper",
    "workers.filters.encryption.worker",
    "ui.wxGui.Utils",
    "LinkDialog",
    "util",
    "updater",
    "ui.wxGui.dialogs.linkdialog.LinkDialog",
    "filerockclient.workers.filters.encryption.worker_watcher",
    "filerockclient.osconfig.PlatformSettingsOSX",
    "ui.interfaces",
    "osconfig.platform_settings_win_test",
    "workers.filters.encryption.decrypter",
    "wxGui.robohash",
    "ui.wxGui.dialogs.listdialog.panel_2.MyFrame",
    "filerockclient.bugreporter.Collector",
    "tests.unit.databases.hashes_test",
    "filerockclient.osconfig.PlatformSettingsWindows",
    "ui.wxGui.constants",
    "unit.shellextension.win32",
    "filerockclient.osconfig.PlatformSettingsBase",
    "unit.databases.sqlite_test",
    "filerockclient.workers.filters.encryption.adapter",
    "filerockclient.ui.shellextension.win32.driver.shellext_pb2",
    "default.panel_3.widgets.SettingsWidgets",
    "notify_user",
    "tests.unit.databases",
    "dialogs.dialog.MyMessageDialog",
    "databases.hashes_test",
    "filerockclient.workers.filters.encryption.utils",
    "bugreporter",
    "unit.osconfig.platform_settings_osx_test",
    "filerockclient.ui.wxGui.TBIcon",
    "filerockclient.workers.filters.abstract.worker_watcher",
    "wxGui.dialogs.logviewer.LogFrame",
    "ui.shellextension.win32",
    "filerockclient.ui.wxGui.dialogs.syncdialog.SyncDialog",
    "UpdaterDarwin",
    "dialogs.progressdialog",
    "wxGui.dialogs.sliderdialog",
    "MyFrame",
    "sqlite_test",
    "serversession.transaction_manager",
    "blacklisted_expressions",
    "wxGui.dialogs.dialog.MyMessageDialog",
    "ui.wxGui.dialogs.wareboxdialog",
    "wxGui.dialogs.progressdialog",
    "databases.storage_cache",
    "filerockclient.ui.wxGui.dialogs.logviewer",
    "filerockclient.ui.dummy",
    "metadata",
    "GStatus",
    "filerockclient.workers.worker_pool",
    "states.replication_and_transfer",
    "ui.wxGui.TBIcon",
    "panel_2.MyFrame",
    "util.suspendable_thread",
    "sync_diff",
    "FileRockSharedLibraries.Communication",
    "filerockclient.linker",
    "ui.wxGui.default.panel_2.MyFrame",
    "dialogs.progressdialog.ProgressDialog",
    "serversession",
    "ui.wxGui.dialogs.linkdialog",
    "startup_synchronization",
    "ui.ui_controller",
    "states.integrity_error",
    "filerockclient.ui.wxGui.dialogs.linkdialog",
    "handlers",
    "Communication",
    "ui.wxGui.notify_user",
    "osconfig.PlatformSettingsLinux",
    "sync_download",
    "helpers",
    "filerockclient.bugreporter.HTTPSSender",
    "FileSystemWatcherCrossPlatform",
    "filerockclient.updater.UpdaterBase",
    "shellext_pb2",
    "serversession.sync_operations_test",
    "filerockclient.interfaces",
    "ui.shellextension.osx.label_based_ui",
    "filerockclient",
    "PStatuses",
    "dialogs.wareboxdialog.WareboxDialog",
    "ui.wxGui.dialogs.proxydialog.ProxyDialog",
    "filerockclient.updater.UpdaterLinux",
    "unit",
    "FileRockSharedLibraries.Communication.Messages",
    "CryptoLib",
    "filerockclient.util.ipc_log_receiver",
    "ui.wxGui.dialogs.proxydialog",
    "filters.encryption.adapter",
    "connector",
    "filters.encryption.filter",
    "interfaces.LinkingStatuses",
    "filerockclient.util.match_hostname",
    "filerockclient.exceptions",
    "filerockclient.ui.wxGui",
    "filerockclient.ui.ui_controller",
    "serversession.states",
    "states.register",
    "filerockclient.util.scheduler",
    "UpdaterBase",
    "filesystemwatcher.FileSystemWatcherCrossPlatform",
    "win32.driver.handlers",
    "PStatus",
    "filerockclient.ui.wxGui.dialogs.progressdialog",
    "WareboxDialog",
    "sliderdialog.Panels",
    "filerockclient.ui.wxGui.default.panel_3.widgets",
    "IntegrityCheck.Proof",
    "dialogs.proxydialog.ProxyDialog",
    "filerockclient.databases.sqlite_driver",
    "ui.wxGui.dialogs.sliderdialog.Panels.MyFrame",
    "syncdialog.SyncDialog",
    "filerockclient.ui.wxGui.ask_for_user_input",
    "win32.driver",
    "filerockclient.util.multi_queue",
    "exceptions",
    "interfaces.GStatus",
    "progressdialog",
    "wxGui.dialogs.syncdialog",
    "tests.integration.serversession.sync_integrity_test",
    "filerockclient.ui.wxGui.dialogs.proxydialog",
    "sync_integrity_test",
    "filerockclient.workers.filters.encryption.pkcs7_padder",
    "filerockclient.workers.worker_child",
    "tests.unit.shellextension.win32.driver",
    "dialogs.sliderdialog",
    "wxGui.ask_for_user_input",
    "driver.handlers_test",
    "filerockclient.integritycheck.ProofManager",
    "logviewer",
    "encryption.connector",
    "util.multi_queue",
    "sliderdialog.SliderDialog",
    "filerockclient.ui.wxGui.robohash",
    "filerockclient.serversession.commands",
    "warebox",
    "default.panel_2.MyFrame",
    "Hashing",
    "databases.transaction_cache",
    "filerockclient.workers.filters.encryption.task_wrapper",
    "blacklist.blacklist",
    "win32.driver.ui",
    "driver.handlers",
    "shellextension.win32",
    "transaction_cache",
    "filerockclient.workers.filters.abstract",
    "filerockclient.workers.worker",
    "hashes",
    "constants",
    "filerockclient.ui.wxGui.leaky_bucket",
    "register",
    "util.ipc_log_receiver",
    "serversession.states.commit",
    "wxGui.default.Template.MainWindow",
    "SkipListNode",
    "filerockclient.ui.shellextension.win32",
    "ui.shellextension.win32.driver.handlers",
    "filerockclient.ui.wxGui.dialogs.sliderdialog",
    "filerockclient.util.https_downloader",
    "ui.console",
    "serversession.startup_synchronization",
    "filerockclient.serversession.states.register",
    "default.Template.MainWindow",
    "filters",
    "filerockclient.serversession.states.abstract",
    "abstract_cache",
    "warebox_cache",
    "MainWindow",
    "workers.filters.encryption.utils",
    "Messages",
    "workers.filters.encryption.adapter",
    "PlatformSettingsOSX",
    "ui.wxGui.default",
    "win32.driver.shellext_pb2",
    "proxydialog.ProxyDialog",
    "bugreporter.logger_sender",
    "syncdialog",
    "main",
    "states.abstract",
    "filerockclient.workers.filters.abstract.filter",
    "dialogs.syncdialog.SyncDialog",
    "filerockclient.ui",
    "filerockclient.workers.filters.abstract.connector",
    "FileRockSharedLibraries.Misc.LinkingServiceCodes",
    "tests.unit.osconfig.platform_settings_win_test",
    "unit.shellextension.win32.driver",
    "filerockclient.serversession.states",
    "FileRockSharedLibraries.IntegrityCheck.Hashing",
    "encryption.utils",
    "ui.shellextension.win32.driver",
    "LinkingServiceCodes",
    "ui.wxGui.dialogs.sliderdialog.Panels",
    "config",
    "Utils",
    "ui.shellextension.win32.driver.ui",
    "win32",
    "filerockclient.databases.transaction_cache",
    "serversession.states.replication_and_transfer",
    "wxGui.dialogs.linkdialog",
    "gui",
    "ui.wxGui.dialogs.sliderdialog",
    "dialog.MyMessageDialog",
    "workers.filters.abstract",
    "ui.wxGui.MainWindow",
    "filerockclient.ui.console",
    "filerockclient.ui.wxGui.default.panel_3.widgets.SettingsWidgets",
    "filerockclient.serversession.connection_handling",
    "osx.label_based_ui",
    "transaction_manager",
    "dialogs.wareboxdialog",
    "suspendable_thread",
    "filesystemwatcher",
    "dialogs.listdialog",
    "serversession.connection_lifekeeper",
    "filerockclient.util",
    "filerockclient.integritycheck.IntegrityManager",
    "serversession.states.abstract",
    "connection_handling",
    "workers.filters.encryption.helpers",
    "serversession.commands",
    "filters.abstract.task_wrapper",
    "tests.integration",
    "filerockclient.serversession.server_session",
    "filerockclient.serversession.states.integrity_error",
    "encryption.worker_watcher",
    "filerockclient.ui.wxGui.default.panel_2.MyFrame",
    "wxGui.default.panel_3.widgets.SettingsWidgets",
    "FileRockSharedLibraries.IntegrityCheck.SkipListNode",
    "Collector",
    "ui.wxGui.dialogs.syncdialog",
    "filter",
    "filerockclient.util.suspendable_thread",
    "wxGui.dialogs.proxydialog.ProxyDialog",
    "tests.unit",
    "ui.wxGui.default.panel_3.widgets_dict",
    "filerockclient.databases.storage_cache",
    "listdialog.panel_2",
    "filters.encryption.worker",
    "Communication.Messages",
    "workers.worker",
    "filerockclient.workers.bandwidth",
    "integritycheck.ProofManager",
    "filerockclient.ui.wxGui.dialogs.listdialog.panel_2",
    "workers.filters.abstract.task_wrapper",
    "ipc_log_receiver",
    "ui.wxGui.ask_for_user_input",
    "states.commit",
    "filerockclient.filesystemwatcher.FileSystemWatcherCrossPlatform",
    "encryption.encrypter",
    "tests.unit.osconfig",
    "filerockclient.bugreporter.DevelopCollector",
    "RequestDetails",
    "PlatformSettingsWindows",
    "FileRockSharedLibraries.Cryptography",
    "FileRockSharedLibraries.IntegrityCheck.SkipList",
    "widgets",
    "updater.UpdaterLinux",
    "ui.wxGui.robohash",
    "OperationsHelper",
    "ui.wxGui.dialogs.sliderdialog.SliderDialog",
    "worker_pool",
    "filerockclient.ui.wxGui.constants",
    "tests.unit.shellextension.win32.driver.handlers_test",
    "sliderdialog.Panels.panels",
    "filerockclient.interfaces.PStatuses",
    "panel_3.widgets.SettingsWidgets",
    "blacklist",
    "ProofManager",
    "workers.filters.abstract.worker_watcher",
    "tests.integration.serversession.utilities",
    "serversession.states.sync_diff",
    "filerockclient.integritycheck.ClientSkipList",
    "states.sync_download",
    "win32.driver.handlers_test",
    "filters.abstract.connector",
    "filerockclient.databases.metadata",
    "unit.multi_queue_test",
    "filerockclient.serversession.states.sync_download",
    "unit.filesystemwatcher_test",
    "bugreporter.Collector",
    "states",
    "filerockclient.ui.wxGui.dialogs.wareboxdialog.WareboxDialog",
    "filerockclient.workers.filters.abstract.task_wrapper",
    "databases.abstract_cache",
    "util.utilities",
    "wxGui.dialogs.sliderdialog.Panels",
    "linker",
    "repeating_timer",
    "encryption.pkcs7_padder",
    "FileRockSharedLibraries.Cryptography.CryptoLib",
    "databases.hashes",
    "filters.encryption.pkcs7_padder",
    "osconfig.PlatformSettingsWindows",
    "ui.wxGui.gui",
    "abstract.task_wrapper",
    "ResponseDetails",
    "sliderdialog.Panels.MyFrame",
    "ipc_subprocess_logger",
    "IntegrityManager",
    "filerockclient.ui.wxGui.default.panel_3",
    "filerockclient.ui.wxGui.default.panel_2",
    "https_downloader",
    "filerockclient.ui.wxGui.dialogs.listdialog.panel_2.MyFrame",
    "integration.serversession",
    "updater.UpdaterDarwin",
    "filerockclient.ui.wxGui.dialogs.dialog",
    "ui.wxGui.Messages",
    "encryption.adapter",
    "filerockclient.interfaces.LinkingStatuses",
    "serversession.sync_integrity_test",
    "filerockclient.ui.shellextension.osx.label_based_ui",
    "worker_child",
    "integration.serversession.utilities",
    "wxGui.dialogs.wareboxdialog",
    "dialogs",
    "filerockclient.workers.filters.encryption.decrypter",
    "Panels",
    "filerockclient.interfaces.PStatus",
    "dummy",
    "ui.client_facade",
    "wxGui",
    "progressdialog.ProgressDialog",
    "filerockclient.ui.wxGui.Messages",
    "wxGui.dialogs.listdialog.panel_2.MyFrame",
    "ui.wxGui.default.panel_2",
    "ui.wxGui.default.panel_3",
    "databases",
    "filters.encryption.encrypter",
    "wxGui.default.Template",
    "wxGui.default.panel_3.widgets",
    "panel_2",
    "panel_3",
    "wxGui.dialogs.sliderdialog.Panels.MyFrame",
    "ui.shellextension.win32.driver.shellext_pb2",
    "filerockclient.ui.wxGui.default",
    "unit.osconfig",
    "Template",
    "filerockclient.serversession.transaction",
    "tests.integration.serversession",
    "encrypter",
    "filerockclient.constants",
    "filerockclient.util.repeating_timer",
    "workers.filters.encryption.worker_watcher",
    "server_session",
    "TBIcon",
    "filerockclient.serversession.states.pre_authentication",
    "Template.MainWindow",
    "HTTPSSender",
    "filters.encryption.decrypter",
    "filters.abstract.filter",
    "shellextension.win32.driver.handlers",
    "ui.wxGui",
    "wxGui.dialogs.listdialog.ListDialog",
    "filerockclient.osconfig",
    "filerockclient.serversession.states.replication_and_transfer",
    "integration.serversession.sync_operations_test",
    "workers.filters.abstract.worker",
    "robohash",
    "filerockclient.ui.wxGui.dialogs.sliderdialog.Panels",
    "serversession.connection_handling",
    "dialogs.listdialog.panel_2",
    "Communication.RequestDetails",
    "filerockclient.ui.wxGui.default.panel_3.widgets_dict",
    "dialogs.sliderdialog.Panels",
    "integritycheck.ClientSkipList",
    "filters.encryption.worker_watcher",
    "pkcs7_padder",
    "storage_connector",
    "LogFrame",
    "sqlite_driver",
    "ui.wxGui.dialogs.dialog",
    "filerockclient.ui.wxGui.dialogs",
    "filerockclient.workers.filters",
    "shellextension",
    "FileRockSharedLibraries",
    "filerockclient.ui.wxGui.dialogs.logviewer.LogFrame",
    "filerockclient.ui.wxGui.notify_user",
    "ui.wxGui.default.Template",
    "integrity_error",
    "filerockclient.blacklist.blacklist",
    "filerockclient.ui.wxGui.dialogs.sliderdialog.Panels.MyFrame",
    "filters.abstract.worker_watcher",
    "filerockclient.databases.abstract_cache",
    "encryption.worker",
    "wxGui.dialogs.logviewer",
    "filerockclient.pathname_operation",
    "filerockclient.serversession.states.commit",
    "filerockclient.events_todo_structure",
    "encryption.task_wrapper",
    "platform_settings_osx_test",
    "tests.unit.multi_queue_test",
    "dialogs.linkdialog",
    "filerockclient.ui.wxGui.dialogs.syncdialog",
    "filerockclient.workers.filters.encryption",
    "filerockclient.serversession",
    "interfaces",
    "FileRockSharedLibraries.Communication.OperationsHelper",
    "filerockclient.updater.UpdaterDarwin",
    "client_facade",
    "unit.shellextension",
    "workers.filters.encryption.task_wrapper",
    "filerockclient.databases",
    "filerockclient.osconfig.PlatformSettingsLinux",
    "filerockclient.ui.wxGui.dialogs.dialog.MyMessageDialog",
    "PlatformSettingsLinux",
    "commands",
    "ProgressDialog",
    "filerockclient.ui.wxGui.dialogs.sliderdialog.SliderDialog",
    "workers.filters.encryption.encrypter",
    "adapter",
    "serversession.server_session",
    "FileRockSharedLibraries.Communication.RequestDetails",
    "wxGui.dialogs.listdialog",
    "wxGui.dialogs.sliderdialog.Panels.panels",
    "util.repeating_timer",
    "wxGui.dialogs.progressdialog.ProgressDialog",
    "osconfig.PlatformSettingsBase",
    "ui.wxGui.dialogs.dialog.MyMessageDialog",
    "filerockclient.blacklist",
    "blacklist.blacklisted_expressions",
    "multi_queue_test",
    "workers.filters",
    "ClientSkipList",
    "filerockclient.ui.wxGui.default.Template.MainWindow",
    "encryption.filter",
    "ui.wxGui.default.panel_3.widgets.SettingsWidgets",
    "abstract.filter",
    "ui_controller",
    "filerockclient.workers.filters.encryption.filter",
    "wareboxdialog.WareboxDialog",
    "match_hostname",
    "filters.encryption",
    "filters.encryption.helpers",
    "encryption",
    "bugreporter.DevelopCollector",
    "filerockclient.config",
    "filters.encryption.utils",
    "tests.unit.config_test",
    "abstract",
    "osconfig.PlatformSettingsOSX",
    "unit.blacklist_test",
    "ui.wxGui.default.panel_3.widgets",
    "workers.filters.abstract.filter",
    "FileRockSharedLibraries.IntegrityCheck",
    "dialogs.logviewer",
    "filerockclient.interfaces.GStatus",
    "wxGui.default.panel_3",
    "wxGui.default.panel_2.MyFrame",
    "abstract.connector",
    "pathname_operation",
    "IntegrityCheck",
    "tests.integration.serversession.sync_operations_test",
    "IntegrityCheck.SkipListNode",
    "Misc",
    "wxGui.TBIcon",
    "util.https_downloader",
    "filerockclient.integritycheck",
    "filerockclient.filesystemwatcher",
    "blacklist_test",
    "multi_queue",
    "listdialog.ListDialog",
    "events_queue",
    "filerockclient.ui.shellextension",
    "utils",
    "wxGui.dialogs.linkdialog.LinkDialog",
    "logger_sender",
    "default.panel_3",
    "default.panel_2",
    "filerockclient.workers.filters.encryption.connector",
    "filerockclient.util.ipc_subprocess_logger",
    "wxGui.constants",
    "filerockclient.serversession.transaction_manager",
    "util.match_hostname",
    "connection_lifekeeper",
    "interfaces.PStatuses",
    "shellextension.win32.driver.ui",
    "ui.wxGui.dialogs.syncdialog.SyncDialog",
    "filters.abstract",
    "hashes_test",
    "serversession.states.pre_authentication",
    "ui.wxGui.dialogs",
    "pre_authentication",
    "ask_for_user_input",
    "logging_helper",
    "driver",
    "FileRockSharedLibraries.Misc",
    "filerockclient.storage_connector",
    "driver.ui",
    "workers.filters.encryption",
    "filerockclient.ui.interfaces",
    "transaction",
    "dialogs.logviewer.LogFrame",
    "handlers_test",
    "driver.shellext_pb2",
    "filerockclient.events_queue",
    "serversession.transaction",
    "ListDialog",
    "internal_facade",
    "proxydialog",
    "bandwidth",
    "ui.wxGui.dialogs.listdialog.panel_2",
    "wxGui.MainWindow",
    "databases.sqlite_test",
    "SettingsWidgets",
    "console",
    "states.sync_diff",
    "workers",
    "dialogs.dialog",
    "ui.wxGui.dialogs.sliderdialog.Panels.panels",
    "dialogs.linkdialog.LinkDialog",
    "worker_watcher",
    "filerockclient.ui.wxGui.dialogs.wareboxdialog",
    "wxGui.default.panel_2",
    "osconfig.platform_settings_linux_test",
    "wxGui.dialogs.syncdialog.SyncDialog",
    "SliderDialog",
    "filerockclient.ui.shellextension.win32.driver.ui",
    "Panels.MyFrame",
    "tests",
    "Misc.LinkingServiceCodes",
    "filerockclient.bugreporter.logger_sender",
    "dialogs.syncdialog",
    "Cryptography.CryptoLib",
    "filerockclient.blacklist.blacklisted_expressions",
    "workers.filters.encryption.filter",
    "filerockclient.databases.hashes",
    "ui.wxGui.dialogs.listdialog",
    "filerockclient.databases.warebox_cache",
    "scheduler",
    "DevelopCollector",
    "Proof",
    "dialogs.proxydialog",
    "IntegrityCheck.SkipList",
    "filerockclient.ui.wxGui.dialogs.listdialog.ListDialog",
    "ui.wxGui.dialogs.progressdialog.ProgressDialog",
    "Panels.panels",
    "filerockclient.serversession.states.sync_diff",
    "tests.unit.blacklist_test",
    "filerockclient.ui.shellextension.win32.driver.handlers",
    "filerockclient.interfaces.GStatuses",
    "decrypter",
    "ui.shellextension.osx",
    "serversession.states.sync_download",
    "util.scheduler",
    "abstract.worker",
    "filerockclient.workers.filters.encryption.encrypter",
    "sync_operations_test",
    "integritycheck",
    "filerockclient.ui.wxGui.default.Template",
    "linkdialog",
    "ui.wxGui.dialogs.wareboxdialog.WareboxDialog",
    "ui.wxGui.dialogs.progressdialog",
    "updater.UpdaterBase",
    "encryption.decrypter",
    "filerockclient.ui.wxGui.dialogs.linkdialog.LinkDialog",
    "databases.metadata",
    "integritycheck.IntegrityManager",
    "filters.encryption.connector",
    "unit.databases.hashes_test",
    "interfaces.PStatus",
    "FileRockSharedLibraries.Communication.JsonSerializable",
    "default.panel_3.widgets_dict",
    "filerock",
    "core",
    "filerockclient.main",
    "workers.worker_pool",
    "config_test",
    "filerockclient.updater",
    "task_wrapper",
    "filerockclient.serversession.startup_synchronization",
    "serversession.states.register",
    "serversession.states.integrity_error",
    "ui.wxGui.dialogs.logviewer.LogFrame",
    "abstract_cache_test",
    "filerockclient.workers.filters.encryption.worker",
    "wxGui.gui",
    "logviewer.LogFrame",
    "UpdaterLinux",
    "default.panel_3.widgets",
    "encryption.helpers",
    "wxGui.Messages",
    "filerockclient.logging_helper",
    "tests.unit.osconfig.platform_settings_linux_test",
    "leaky_bucket",
    "dialog",
    "commit",
    "filerockclient.ui.wxGui.MainWindow",
    "tests.unit.shellextension",
    "integration",
    "platform_settings_linux_test",
    "tests.unit.filesystemwatcher_test",
    "JsonSerializable",
    "unit.config_test",
    "wxGui.notify_user",
    "unit.osconfig.platform_settings_linux_test",
    "filerockclient.bugreporter",
    "worker",
    "filerockclient.ui.wxGui.Utils",
    "wxGui.dialogs",
    "filerockclient.core",
    "wxGui.dialogs.sliderdialog.SliderDialog",
    "unit.shellextension.win32.driver.handlers_test",
    "unit.osconfig.platform_settings_win_test",
    "filters.abstract.worker",
    "SyncDialog",
    "unit.databases.abstract_cache_test",
    "sliderdialog",
    "panel_3.widgets_dict",
    "workers.filters.encryption.pkcs7_padder",
    "shellextension.win32.driver.shellext_pb2",
    "ProxyDialog",
    "databases.warebox_cache",
    "replication_and_transfer",
    "shellextension.win32.driver.handlers_test",
    "unit.databases",
    "ui.wxGui.default.Template.MainWindow",
    "workers.bandwidth",
    "databases.sqlite_driver",
    "widgets.SettingsWidgets",
    "dialogs.sliderdialog.Panels.panels",
    "wxGui.default.panel_3.widgets_dict",
    "ui.shellextension",
    "workers.filters.abstract.connector",
    "default",
    "wxGui.leaky_bucket",
    "workers.filters.encryption.connector",
    "tests.unit.databases.abstract_cache_test",
    "ui",
    "dialogs.listdialog.ListDialog",
    "dialogs.sliderdialog.Panels.MyFrame",
    "panels",
    "PlatformSettingsBase",
    "filesystemwatcher_test",
    "shellextension.osx.label_based_ui",
    "default.Template",
    "tests.unit.databases.sqlite_test",
    "filerockclient.ui.wxGui.dialogs.proxydialog.ProxyDialog",
    "IntegrityCheck.Hashing",
    "FileRockSharedLibraries.IntegrityCheck.Proof",
    "filerockclient.application",
    "MyMessageDialog",
    "bugreporter.HTTPSSender",
    "wxGui.Utils",
    "linkdialog.LinkDialog",
    "label_based_ui",
    "serversession.utilities",
    "filters.encryption.task_wrapper",
    "util.ipc_subprocess_logger",
    "application",
    "osconfig",
    "wxGui.dialogs.wareboxdialog.WareboxDialog",
    "wxGui.dialogs.proxydialog",
    "FileRockSharedLibraries.Communication.ResponseDetails",
    "tests.unit.osconfig.platform_settings_osx_test",
    "SkipList",
    "filerockclient.workers",
    "interfaces.GStatuses",
    "filerockclient.internal_facade",
    "filerockclient.ui.shellextension.win32.driver",
    "tests.unit.shellextension.win32",
    "shellextension.osx",
    "dialogs.sliderdialog.SliderDialog",
    "utilities",
    "platform_settings_win_test",
    "shellextension.win32.driver",
    "filerockclient.util.utilities",
    "databases.abstract_cache_test",
    "filerockclient.updater.UpdaterWin32",
    "wxGui.dialogs.dialog",
    "wxGui.dialogs.listdialog.panel_2",
    "Cryptography",
    "dialogs.listdialog.panel_2.MyFrame",
    "integration.serversession.sync_integrity_test",
    "events_todo_structure",
    "osconfig.platform_settings_osx_test",
    "UpdaterWin32",
    "filerockclient.workers.filters.abstract.worker",
    "LinkingStatuses",
    "filerockclient.serversession.connection_lifekeeper",
    "workers.worker_child",
    "runtests",
    "filerockclient.ui.wxGui.dialogs.progressdialog.ProgressDialog",
    "Communication.JsonSerializable",
    "filerockclient.workers.filters.encryption.helpers"
]