{
    "libs": [
        "audioop",
        "with_statement",
        "subprocess",
        "contextlib",
        "select",
        "struct",
        "urllib",
        "re",
        "aifc",
        "wave",
        "sys",
        "ctypes",
        "mad",
        "copy",
        "print_function",
        "Queue",
        "gst",
        "util",
        "threading",
        "time",
        "gobject",
        "os"
    ]
}