{
    "archive_url": "https://api.github.com/repos/martinblech/xmltodict/{archive_format}{/ref}",
    "assignees_url": "https://api.github.com/repos/martinblech/xmltodict/assignees{/user}",
    "blobs_url": "https://api.github.com/repos/martinblech/xmltodict/git/blobs{/sha}",
    "branches_url": "https://api.github.com/repos/martinblech/xmltodict/branches{/branch}",
    "clone_url": "https://github.com/martinblech/xmltodict.git",
    "collaborators_url": "https://api.github.com/repos/martinblech/xmltodict/collaborators{/collaborator}",
    "comments_url": "https://api.github.com/repos/martinblech/xmltodict/comments{/number}",
    "commits_url": "https://api.github.com/repos/martinblech/xmltodict/commits{/sha}",
    "compare_url": "https://api.github.com/repos/martinblech/xmltodict/compare/{base}...{head}",
    "contents_url": "https://api.github.com/repos/martinblech/xmltodict/contents/{+path}",
    "contributors_url": "https://api.github.com/repos/martinblech/xmltodict/contributors",
    "created_at": "2012-04-17T14:38:21Z",
    "default_branch": "master",
    "description": "Python module that makes working with XML feel like you are working with JSON",
    "downloads_url": "https://api.github.com/repos/martinblech/xmltodict/downloads",
    "events_url": "https://api.github.com/repos/martinblech/xmltodict/events",
    "fork": false,
    "forks": 94,
    "forks_count": 94,
    "forks_url": "https://api.github.com/repos/martinblech/xmltodict/forks",
    "full_name": "martinblech/xmltodict",
    "git_commits_url": "https://api.github.com/repos/martinblech/xmltodict/git/commits{/sha}",
    "git_refs_url": "https://api.github.com/repos/martinblech/xmltodict/git/refs{/sha}",
    "git_tags_url": "https://api.github.com/repos/martinblech/xmltodict/git/tags{/sha}",
    "git_url": "git://github.com/martinblech/xmltodict.git",
    "has_downloads": true,
    "has_issues": true,
    "has_wiki": true,
    "homepage": "",
    "hooks_url": "https://api.github.com/repos/martinblech/xmltodict/hooks",
    "html_url": "https://github.com/martinblech/xmltodict",
    "id": 4053456,
    "issue_comment_url": "https://api.github.com/repos/martinblech/xmltodict/issues/comments/{number}",
    "issue_events_url": "https://api.github.com/repos/martinblech/xmltodict/issues/events{/number}",
    "issues_url": "https://api.github.com/repos/martinblech/xmltodict/issues{/number}",
    "keys_url": "https://api.github.com/repos/martinblech/xmltodict/keys{/key_id}",
    "labels_url": "https://api.github.com/repos/martinblech/xmltodict/labels{/name}",
    "language": "Python",
    "languages_url": "https://api.github.com/repos/martinblech/xmltodict/languages",
    "merges_url": "https://api.github.com/repos/martinblech/xmltodict/merges",
    "milestones_url": "https://api.github.com/repos/martinblech/xmltodict/milestones{/number}",
    "mirror_url": null,
    "name": "xmltodict",
    "notifications_url": "https://api.github.com/repos/martinblech/xmltodict/notifications{?since,all,participating}",
    "open_issues": 1,
    "open_issues_count": 1,
    "owner": {
        "avatar_url": "https://avatars.githubusercontent.com/u/78768?",
        "events_url": "https://api.github.com/users/martinblech/events{/privacy}",
        "followers_url": "https://api.github.com/users/martinblech/followers",
        "following_url": "https://api.github.com/users/martinblech/following{/other_user}",
        "gists_url": "https://api.github.com/users/martinblech/gists{/gist_id}",
        "gravatar_id": "57a65be84c4603191e843bdfe04725ba",
        "html_url": "https://github.com/martinblech",
        "id": 78768,
        "login": "martinblech",
        "organizations_url": "https://api.github.com/users/martinblech/orgs",
        "received_events_url": "https://api.github.com/users/martinblech/received_events",
        "repos_url": "https://api.github.com/users/martinblech/repos",
        "site_admin": false,
        "starred_url": "https://api.github.com/users/martinblech/starred{/owner}{/repo}",
        "subscriptions_url": "https://api.github.com/users/martinblech/subscriptions",
        "type": "User",
        "url": "https://api.github.com/users/martinblech"
    },
    "private": false,
    "pulls_url": "https://api.github.com/repos/martinblech/xmltodict/pulls{/number}",
    "pushed_at": "2014-04-17T14:50:29Z",
    "releases_url": "https://api.github.com/repos/martinblech/xmltodict/releases{/id}",
    "score": 1.0,
    "size": 790,
    "ssh_url": "git@github.com:martinblech/xmltodict.git",
    "stargazers_count": 1249,
    "stargazers_url": "https://api.github.com/repos/martinblech/xmltodict/stargazers",
    "statuses_url": "https://api.github.com/repos/martinblech/xmltodict/statuses/{sha}",
    "subscribers_url": "https://api.github.com/repos/martinblech/xmltodict/subscribers",
    "subscription_url": "https://api.github.com/repos/martinblech/xmltodict/subscription",
    "svn_url": "https://github.com/martinblech/xmltodict",
    "tags_url": "https://api.github.com/repos/martinblech/xmltodict/tags",
    "teams_url": "https://api.github.com/repos/martinblech/xmltodict/teams",
    "trees_url": "https://api.github.com/repos/martinblech/xmltodict/git/trees{/sha}",
    "updated_at": "2014-05-06T23:15:14Z",
    "url": "https://api.github.com/repos/martinblech/xmltodict",
    "watchers": 1249,
    "watchers_count": 1249
}