[
    "tests",
    "query_analyzer.templatetags.query_analyzer_tags",
    "views",
    "shortcuts",
    "query_analyzer.models",
    "query_analyzer",
    "query_analyzer.views",
    "templatetags.query_analyzer_tags",
    "query_analyzer.forms",
    "query_analyzer.shortcuts",
    "query_analyzer.decorators",
    "query_analyzer.templatetags",
    "query_analyzer.urls",
    "templatetags",
    "forms",
    "query_analyzer.tests",
    "models",
    "urls",
    "query_analyzer_tags",
    "decorators"
]