{
    "archive_url": "https://api.github.com/repos/migurski/Skeletron/{archive_format}{/ref}",
    "assignees_url": "https://api.github.com/repos/migurski/Skeletron/assignees{/user}",
    "blobs_url": "https://api.github.com/repos/migurski/Skeletron/git/blobs{/sha}",
    "branches_url": "https://api.github.com/repos/migurski/Skeletron/branches{/branch}",
    "clone_url": "https://github.com/migurski/Skeletron.git",
    "collaborators_url": "https://api.github.com/repos/migurski/Skeletron/collaborators{/collaborator}",
    "comments_url": "https://api.github.com/repos/migurski/Skeletron/comments{/number}",
    "commits_url": "https://api.github.com/repos/migurski/Skeletron/commits{/sha}",
    "compare_url": "https://api.github.com/repos/migurski/Skeletron/compare/{base}...{head}",
    "contents_url": "https://api.github.com/repos/migurski/Skeletron/contents/{+path}",
    "contributors_url": "https://api.github.com/repos/migurski/Skeletron/contributors",
    "created_at": "2010-12-19T02:12:48Z",
    "default_branch": "master",
    "description": "Computes straight skeletons of simple polygons",
    "downloads_url": "https://api.github.com/repos/migurski/Skeletron/downloads",
    "events_url": "https://api.github.com/repos/migurski/Skeletron/events",
    "fork": false,
    "forks": 7,
    "forks_count": 7,
    "forks_url": "https://api.github.com/repos/migurski/Skeletron/forks",
    "full_name": "migurski/Skeletron",
    "git_commits_url": "https://api.github.com/repos/migurski/Skeletron/git/commits{/sha}",
    "git_refs_url": "https://api.github.com/repos/migurski/Skeletron/git/refs{/sha}",
    "git_tags_url": "https://api.github.com/repos/migurski/Skeletron/git/tags{/sha}",
    "git_url": "git://github.com/migurski/Skeletron.git",
    "has_downloads": true,
    "has_issues": true,
    "has_wiki": true,
    "homepage": "",
    "hooks_url": "https://api.github.com/repos/migurski/Skeletron/hooks",
    "html_url": "https://github.com/migurski/Skeletron",
    "id": 1180994,
    "issue_comment_url": "https://api.github.com/repos/migurski/Skeletron/issues/comments/{number}",
    "issue_events_url": "https://api.github.com/repos/migurski/Skeletron/issues/events{/number}",
    "issues_url": "https://api.github.com/repos/migurski/Skeletron/issues{/number}",
    "keys_url": "https://api.github.com/repos/migurski/Skeletron/keys{/key_id}",
    "labels_url": "https://api.github.com/repos/migurski/Skeletron/labels{/name}",
    "language": "Python",
    "languages_url": "https://api.github.com/repos/migurski/Skeletron/languages",
    "merges_url": "https://api.github.com/repos/migurski/Skeletron/merges",
    "milestones_url": "https://api.github.com/repos/migurski/Skeletron/milestones{/number}",
    "mirror_url": null,
    "name": "Skeletron",
    "notifications_url": "https://api.github.com/repos/migurski/Skeletron/notifications{?since,all,participating}",
    "open_issues": 2,
    "open_issues_count": 2,
    "owner": {
        "avatar_url": "https://avatars.githubusercontent.com/u/58730?",
        "events_url": "https://api.github.com/users/migurski/events{/privacy}",
        "followers_url": "https://api.github.com/users/migurski/followers",
        "following_url": "https://api.github.com/users/migurski/following{/other_user}",
        "gists_url": "https://api.github.com/users/migurski/gists{/gist_id}",
        "gravatar_id": "039667155d1baa533e461671e97891a1",
        "html_url": "https://github.com/migurski",
        "id": 58730,
        "login": "migurski",
        "organizations_url": "https://api.github.com/users/migurski/orgs",
        "received_events_url": "https://api.github.com/users/migurski/received_events",
        "repos_url": "https://api.github.com/users/migurski/repos",
        "site_admin": false,
        "starred_url": "https://api.github.com/users/migurski/starred{/owner}{/repo}",
        "subscriptions_url": "https://api.github.com/users/migurski/subscriptions",
        "type": "User",
        "url": "https://api.github.com/users/migurski"
    },
    "private": false,
    "pulls_url": "https://api.github.com/repos/migurski/Skeletron/pulls{/number}",
    "pushed_at": "2013-03-17T20:40:38Z",
    "releases_url": "https://api.github.com/repos/migurski/Skeletron/releases{/id}",
    "score": 1.0,
    "size": 414,
    "ssh_url": "git@github.com:migurski/Skeletron.git",
    "stargazers_count": 45,
    "stargazers_url": "https://api.github.com/repos/migurski/Skeletron/stargazers",
    "statuses_url": "https://api.github.com/repos/migurski/Skeletron/statuses/{sha}",
    "subscribers_url": "https://api.github.com/repos/migurski/Skeletron/subscribers",
    "subscription_url": "https://api.github.com/repos/migurski/Skeletron/subscription",
    "svn_url": "https://github.com/migurski/Skeletron",
    "tags_url": "https://api.github.com/repos/migurski/Skeletron/tags",
    "teams_url": "https://api.github.com/repos/migurski/Skeletron/teams",
    "trees_url": "https://api.github.com/repos/migurski/Skeletron/git/trees{/sha}",
    "updated_at": "2014-01-16T16:10:13Z",
    "url": "https://api.github.com/repos/migurski/Skeletron",
    "watchers": 45,
    "watchers_count": 45
}