{
    "libs": [
        "logging",
        "string",
        "grp",
        "handlers",
        "unittest",
        "cmd",
        "pexpect",
        "subprocess",
        "sys",
        "re",
        "signal",
        "time",
        "getp",
        "getopt",
        "readline",
        "os",
        "glob",
        "ConfigParser"
    ]
}