[
    "tests.resources.mail_handlers",
    "auth.friendfeed",
    "gae_xmpp_test",
    "examples.auth.app.urls",
    "tipfy.auth.friendfeed",
    "appengine.acl",
    "xmpp",
    "tipfyext.wtforms.form",
    "docs.project.app",
    "tests.gae_acl_test",
    "tests.resources.i18n",
    "stubs.appengine",
    "tests.gae_xmpp_test",
    "app.hello_world.handlers",
    "manage.config",
    "validators",
    "docs.project.bootstrap",
    "auth.model",
    "appengine.sessions",
    "hello_world.handlers",
    "tipfy.middleware",
    "app.hello_world",
    "tipfy.appengine.sharded_counter",
    "stubs.appengine.hello_world",
    "resources.template",
    "examples.auth.app",
    "project.app.hello_world.handlers",
    "mail",
    "hello_world",
    "main",
    "local",
    "resources",
    "tipfy.routing",
    "stubs.appengine.urls",
    "tipfy.auth.oauth",
    "docs.project",
    "stubs.appengine.main",
    "docs",
    "tests.resources.templates_compiled",
    "db",
    "auth",
    "resources.jinja2_after_environment_created",
    "appengine.xmpp",
    "docs.project.app.config",
    "facebook",
    "tests.gae_db_test",
    "wtforms.form",
    "tests.gae_blobstore_test",
    "tests.resources",
    "test_utils",
    "fields",
    "mail_handlers",
    "appengine.auth",
    "tipfy.scripting",
    "templates_compiled.tmpl_3a79873b1b49be244fd5444b1258ce348be26de8",
    "appengine.urls",
    "tests.routing_test",
    "config_test",
    "examples.auth.app.handlers",
    "middleware",
    "project.app.urls",
    "stubs.appengine.hello_world.handlers",
    "appengine.hello_world.handlers",
    "gae_sharded_counter_test",
    "tipfy.appengine.matcher",
    "tipfy.auth.facebook",
    "twitter",
    "tipfy.appengine.auth",
    "tipfy.auth.openid",
    "docs.project.app.urls",
    "tipfy.handler",
    "examples",
    "tipfy.config",
    "auth.app.handlers",
    "action_install_packages",
    "tipfy.appengine.mail",
    "friendfeed",
    "tests.utils_test",
    "tests.template_test",
    "tipfy.auth",
    "tipfy.appengine.taskqueue",
    "template_test",
    "routing",
    "template",
    "tipfy.local",
    "xmpp_handlers",
    "tipfy",
    "templates_compiled",
    "i18n",
    "model",
    "tests.resources.xmpp_handlers",
    "newaction",
    "i18n_test",
    "manage.stubs.appengine",
    "blobstore",
    "project.app.hello_world",
    "resources.mail_handlers",
    "alternative_routing",
    "manage.stubs.appengine.config",
    "stubs.appengine.config",
    "path",
    "tests.resources.handlers",
    "properties",
    "appengine.mail",
    "tipfyext.wtforms",
    "app.urls",
    "tests.gae_sharded_counter_test",
    "matcher",
    "handlers",
    "resources.alternative_routing",
    "auth.oauth",
    "acl",
    "easy_install",
    "scripting",
    "auth.app.urls",
    "tests.auth_test",
    "manage.manage",
    "tests.gae_mail_test",
    "tipfyext.jinja2",
    "project.bootstrap",
    "tipfy.appengine.auth.model",
    "jinja2.scripts",
    "manage.stubs.appengine.hello_world",
    "app",
    "resources.templates_compiled.tmpl_3a79873b1b49be244fd5444b1258ce348be26de8",
    "run_tests",
    "tipfy.app",
    "google",
    "manage.stubs.appengine.urls",
    "gae_blobstore_test",
    "db.properties",
    "manage",
    "appengine.main",
    "wtforms.widgets",
    "appengine.matcher",
    "gae_taskqueue_test",
    "ext_mako_test",
    "gae_db_test",
    "tests.resources.alternative_routing",
    "source",
    "wtforms.fields",
    "json",
    "secure_cookie_test",
    "auth.twitter",
    "resources.templates_compiled",
    "handler",
    "tipfy.appengine.db",
    "resources.handlers",
    "scripts",
    "widgets",
    "auth.app",
    "manage.argparse",
    "app_test",
    "tests.config_test",
    "app.main",
    "testing",
    "resources.xmpp_handlers",
    "appengine.sharded_counter",
    "sessions",
    "docs.project.app.main",
    "tipfy.i18n",
    "tipfy.utils",
    "oauth",
    "appengine.config",
    "source.conf",
    "tests.resources.jinja2_after_environment_created",
    "examples.auth.app.config",
    "app.handlers",
    "sessions_test",
    "tests.secure_cookie_test",
    "routing_test",
    "tests.ext_mako_test",
    "manage_test",
    "project.app.main",
    "auth_test",
    "tests.resources.templates_compiled.tmpl_3a79873b1b49be244fd5444b1258ce348be26de8",
    "tipfy.testing",
    "tipfyext.mako",
    "stubs",
    "examples.auth.app.main",
    "auth.bootstrap",
    "project",
    "tipfy.json",
    "docs.source.conf",
    "gae_acl_test",
    "tests.test_utils",
    "tipfy.appengine.sessions",
    "resources.i18n",
    "examples.auth.bootstrap",
    "tipfyext.wtforms.widgets",
    "tests.sessions_test",
    "appengine",
    "tipfy.appengine.acl",
    "tests.manage_test",
    "utils",
    "manage.stubs",
    "tests",
    "tipfyext.wtforms.validators",
    "manage.stubs.appengine.hello_world.handlers",
    "conf",
    "tipfy.appengine",
    "manage.path",
    "mako",
    "docs.source",
    "tipfy.template",
    "tests.gae_taskqueue_test",
    "form",
    "utils_test",
    "project.app",
    "tests.resources.template",
    "gae_mail_test",
    "auth.app.config",
    "tests.ext_jinja2_test",
    "manage.newaction",
    "auth.app.main",
    "appengine.hello_world",
    "config",
    "tests.i18n_test",
    "manage.action_install_packages",
    "appengine.auth.model",
    "openid",
    "appengine.db.properties",
    "app.config",
    "tipfyext",
    "tipfyext.wtforms.fields",
    "ext_jinja2_test",
    "tests.app_test",
    "tipfyext.jinja2.scripts",
    "appengine.taskqueue",
    "wtforms.validators",
    "tipfy.appengine.xmpp",
    "jinja2_after_environment_created",
    "auth.openid",
    "examples.auth",
    "project.app.config",
    "tipfy.auth.twitter",
    "argparse",
    "auth.facebook",
    "wtforms",
    "manage.stubs.appengine.main",
    "appengine.db",
    "bootstrap",
    "tipfy.auth.google",
    "tmpl_3a79873b1b49be244fd5444b1258ce348be26de8",
    "taskqueue",
    "appengine.blobstore",
    "urls",
    "sharded_counter",
    "jinja2",
    "tipfy.appengine.blobstore",
    "tipfy.sessions",
    "manage.easy_install",
    "auth.google",
    "tipfy.appengine.db.properties"
]