{
    "archive_url": "https://api.github.com/repos/chrisdrackett/django-typogrify/{archive_format}{/ref}",
    "assignees_url": "https://api.github.com/repos/chrisdrackett/django-typogrify/assignees{/user}",
    "blobs_url": "https://api.github.com/repos/chrisdrackett/django-typogrify/git/blobs{/sha}",
    "branches_url": "https://api.github.com/repos/chrisdrackett/django-typogrify/branches{/branch}",
    "clone_url": "https://github.com/chrisdrackett/django-typogrify.git",
    "collaborators_url": "https://api.github.com/repos/chrisdrackett/django-typogrify/collaborators{/collaborator}",
    "comments_url": "https://api.github.com/repos/chrisdrackett/django-typogrify/comments{/number}",
    "commits_url": "https://api.github.com/repos/chrisdrackett/django-typogrify/commits{/sha}",
    "compare_url": "https://api.github.com/repos/chrisdrackett/django-typogrify/compare/{base}...{head}",
    "contents_url": "https://api.github.com/repos/chrisdrackett/django-typogrify/contents/{+path}",
    "contributors_url": "https://api.github.com/repos/chrisdrackett/django-typogrify/contributors",
    "created_at": "2009-01-15T19:08:12Z",
    "default_branch": "master",
    "description": "Typogrify is a collection of Django template filters that help prettify your web typography by preventing ugly quotes and widows and providing CSS hooks to style some special cases.",
    "downloads_url": "https://api.github.com/repos/chrisdrackett/django-typogrify/downloads",
    "events_url": "https://api.github.com/repos/chrisdrackett/django-typogrify/events",
    "fork": false,
    "forks": 12,
    "forks_count": 12,
    "forks_url": "https://api.github.com/repos/chrisdrackett/django-typogrify/forks",
    "full_name": "chrisdrackett/django-typogrify",
    "git_commits_url": "https://api.github.com/repos/chrisdrackett/django-typogrify/git/commits{/sha}",
    "git_refs_url": "https://api.github.com/repos/chrisdrackett/django-typogrify/git/refs{/sha}",
    "git_tags_url": "https://api.github.com/repos/chrisdrackett/django-typogrify/git/tags{/sha}",
    "git_url": "git://github.com/chrisdrackett/django-typogrify.git",
    "has_downloads": true,
    "has_issues": true,
    "has_wiki": true,
    "homepage": "",
    "hooks_url": "https://api.github.com/repos/chrisdrackett/django-typogrify/hooks",
    "html_url": "https://github.com/chrisdrackett/django-typogrify",
    "id": 108223,
    "issue_comment_url": "https://api.github.com/repos/chrisdrackett/django-typogrify/issues/comments/{number}",
    "issue_events_url": "https://api.github.com/repos/chrisdrackett/django-typogrify/issues/events{/number}",
    "issues_url": "https://api.github.com/repos/chrisdrackett/django-typogrify/issues{/number}",
    "keys_url": "https://api.github.com/repos/chrisdrackett/django-typogrify/keys{/key_id}",
    "labels_url": "https://api.github.com/repos/chrisdrackett/django-typogrify/labels{/name}",
    "language": "Python",
    "languages_url": "https://api.github.com/repos/chrisdrackett/django-typogrify/languages",
    "merges_url": "https://api.github.com/repos/chrisdrackett/django-typogrify/merges",
    "milestones_url": "https://api.github.com/repos/chrisdrackett/django-typogrify/milestones{/number}",
    "mirror_url": null,
    "name": "django-typogrify",
    "notifications_url": "https://api.github.com/repos/chrisdrackett/django-typogrify/notifications{?since,all,participating}",
    "open_issues": 1,
    "open_issues_count": 1,
    "owner": {
        "avatar_url": "https://avatars.githubusercontent.com/u/4378?",
        "events_url": "https://api.github.com/users/chrisdrackett/events{/privacy}",
        "followers_url": "https://api.github.com/users/chrisdrackett/followers",
        "following_url": "https://api.github.com/users/chrisdrackett/following{/other_user}",
        "gists_url": "https://api.github.com/users/chrisdrackett/gists{/gist_id}",
        "gravatar_id": "46d7edb6710bf8b964de86d8effa3c2d",
        "html_url": "https://github.com/chrisdrackett",
        "id": 4378,
        "login": "chrisdrackett",
        "organizations_url": "https://api.github.com/users/chrisdrackett/orgs",
        "received_events_url": "https://api.github.com/users/chrisdrackett/received_events",
        "repos_url": "https://api.github.com/users/chrisdrackett/repos",
        "site_admin": false,
        "starred_url": "https://api.github.com/users/chrisdrackett/starred{/owner}{/repo}",
        "subscriptions_url": "https://api.github.com/users/chrisdrackett/subscriptions",
        "type": "User",
        "url": "https://api.github.com/users/chrisdrackett"
    },
    "private": false,
    "pulls_url": "https://api.github.com/repos/chrisdrackett/django-typogrify/pulls{/number}",
    "pushed_at": "2014-03-18T23:14:30Z",
    "releases_url": "https://api.github.com/repos/chrisdrackett/django-typogrify/releases{/id}",
    "score": 1.0,
    "size": 318,
    "ssh_url": "git@github.com:chrisdrackett/django-typogrify.git",
    "stargazers_count": 83,
    "stargazers_url": "https://api.github.com/repos/chrisdrackett/django-typogrify/stargazers",
    "statuses_url": "https://api.github.com/repos/chrisdrackett/django-typogrify/statuses/{sha}",
    "subscribers_url": "https://api.github.com/repos/chrisdrackett/django-typogrify/subscribers",
    "subscription_url": "https://api.github.com/repos/chrisdrackett/django-typogrify/subscription",
    "svn_url": "https://github.com/chrisdrackett/django-typogrify",
    "tags_url": "https://api.github.com/repos/chrisdrackett/django-typogrify/tags",
    "teams_url": "https://api.github.com/repos/chrisdrackett/django-typogrify/teams",
    "trees_url": "https://api.github.com/repos/chrisdrackett/django-typogrify/git/trees{/sha}",
    "updated_at": "2014-03-18T23:14:30Z",
    "url": "https://api.github.com/repos/chrisdrackett/django-typogrify",
    "watchers": 83,
    "watchers_count": 83
}