[
    "blog_example.tests",
    "blog.models",
    "manage",
    "examples.blog_example.database",
    "test_blog",
    "examples.blog_example.commands",
    "blog_example",
    "examples.blog_example.blog",
    "examples",
    "examples.blog_example.tests",
    "blog.views",
    "src.main",
    "examples.blog_example.main",
    "examples.blog_example",
    "examples.blog_example.blog.views",
    "examples.blog_example.config",
    "blog",
    "blog_example.blog.models",
    "blog_example.blog",
    "main",
    "config",
    "src.commands",
    "blueprint",
    "tests",
    "blog_example.tests.test_blog",
    "views",
    "models",
    "blog_example.database",
    "examples.blog_example.blog.models",
    "blueprint.views",
    "tests.test_blog",
    "src.database",
    "blog_example.commands",
    "commands",
    "blog_example.main",
    "examples.blog_example.tests.test_blog",
    "blog_example.config",
    "database",
    "examples.blog_example.manage",
    "blog_example.blog.views",
    "src.config",
    "src",
    "src.manage",
    "blog_example.manage",
    "blueprint.models"
]