{
    "archive_url": "https://api.github.com/repos/seomoz/qless-core/{archive_format}{/ref}",
    "assignees_url": "https://api.github.com/repos/seomoz/qless-core/assignees{/user}",
    "blobs_url": "https://api.github.com/repos/seomoz/qless-core/git/blobs{/sha}",
    "branches_url": "https://api.github.com/repos/seomoz/qless-core/branches{/branch}",
    "clone_url": "https://github.com/seomoz/qless-core.git",
    "collaborators_url": "https://api.github.com/repos/seomoz/qless-core/collaborators{/collaborator}",
    "comments_url": "https://api.github.com/repos/seomoz/qless-core/comments{/number}",
    "commits_url": "https://api.github.com/repos/seomoz/qless-core/commits{/sha}",
    "compare_url": "https://api.github.com/repos/seomoz/qless-core/compare/{base}...{head}",
    "contents_url": "https://api.github.com/repos/seomoz/qless-core/contents/{+path}",
    "contributors_url": "https://api.github.com/repos/seomoz/qless-core/contributors",
    "created_at": "2012-03-09T11:18:00Z",
    "default_branch": "master",
    "description": "Core Lua Scripts for qless",
    "downloads_url": "https://api.github.com/repos/seomoz/qless-core/downloads",
    "events_url": "https://api.github.com/repos/seomoz/qless-core/events",
    "fork": false,
    "forks": 10,
    "forks_count": 10,
    "forks_url": "https://api.github.com/repos/seomoz/qless-core/forks",
    "full_name": "seomoz/qless-core",
    "git_commits_url": "https://api.github.com/repos/seomoz/qless-core/git/commits{/sha}",
    "git_refs_url": "https://api.github.com/repos/seomoz/qless-core/git/refs{/sha}",
    "git_tags_url": "https://api.github.com/repos/seomoz/qless-core/git/tags{/sha}",
    "git_url": "git://github.com/seomoz/qless-core.git",
    "has_downloads": true,
    "has_issues": true,
    "has_wiki": true,
    "homepage": "",
    "hooks_url": "https://api.github.com/repos/seomoz/qless-core/hooks",
    "html_url": "https://github.com/seomoz/qless-core",
    "id": 3669982,
    "issue_comment_url": "https://api.github.com/repos/seomoz/qless-core/issues/comments/{number}",
    "issue_events_url": "https://api.github.com/repos/seomoz/qless-core/issues/events{/number}",
    "issues_url": "https://api.github.com/repos/seomoz/qless-core/issues{/number}",
    "keys_url": "https://api.github.com/repos/seomoz/qless-core/keys{/key_id}",
    "labels_url": "https://api.github.com/repos/seomoz/qless-core/labels{/name}",
    "language": "Python",
    "languages_url": "https://api.github.com/repos/seomoz/qless-core/languages",
    "merges_url": "https://api.github.com/repos/seomoz/qless-core/merges",
    "milestones_url": "https://api.github.com/repos/seomoz/qless-core/milestones{/number}",
    "mirror_url": null,
    "name": "qless-core",
    "notifications_url": "https://api.github.com/repos/seomoz/qless-core/notifications{?since,all,participating}",
    "open_issues": 12,
    "open_issues_count": 12,
    "owner": {
        "avatar_url": "https://avatars.githubusercontent.com/u/104895?",
        "events_url": "https://api.github.com/users/seomoz/events{/privacy}",
        "followers_url": "https://api.github.com/users/seomoz/followers",
        "following_url": "https://api.github.com/users/seomoz/following{/other_user}",
        "gists_url": "https://api.github.com/users/seomoz/gists{/gist_id}",
        "gravatar_id": "bc25ba9fed3fad4d7593fcb290f1d94f",
        "html_url": "https://github.com/seomoz",
        "id": 104895,
        "login": "seomoz",
        "organizations_url": "https://api.github.com/users/seomoz/orgs",
        "received_events_url": "https://api.github.com/users/seomoz/received_events",
        "repos_url": "https://api.github.com/users/seomoz/repos",
        "site_admin": false,
        "starred_url": "https://api.github.com/users/seomoz/starred{/owner}{/repo}",
        "subscriptions_url": "https://api.github.com/users/seomoz/subscriptions",
        "type": "Organization",
        "url": "https://api.github.com/users/seomoz"
    },
    "private": false,
    "pulls_url": "https://api.github.com/repos/seomoz/qless-core/pulls{/number}",
    "pushed_at": "2014-02-11T20:57:35Z",
    "releases_url": "https://api.github.com/repos/seomoz/qless-core/releases{/id}",
    "score": 1.0,
    "size": 792,
    "ssh_url": "git@github.com:seomoz/qless-core.git",
    "stargazers_count": 42,
    "stargazers_url": "https://api.github.com/repos/seomoz/qless-core/stargazers",
    "statuses_url": "https://api.github.com/repos/seomoz/qless-core/statuses/{sha}",
    "subscribers_url": "https://api.github.com/repos/seomoz/qless-core/subscribers",
    "subscription_url": "https://api.github.com/repos/seomoz/qless-core/subscription",
    "svn_url": "https://github.com/seomoz/qless-core",
    "tags_url": "https://api.github.com/repos/seomoz/qless-core/tags",
    "teams_url": "https://api.github.com/repos/seomoz/qless-core/teams",
    "trees_url": "https://api.github.com/repos/seomoz/qless-core/git/trees{/sha}",
    "updated_at": "2014-04-29T18:59:00Z",
    "url": "https://api.github.com/repos/seomoz/qless-core",
    "watchers": 42,
    "watchers_count": 42
}