{
    "libs": [
        "logging",
        "warnings",
        "almost",
        "numpy",
        "functools",
        "inspect",
        "with_statement",
        "pytest",
        "absolute_import",
        "sys",
        "itertools",
        "mpmath",
        "contextlib",
        "termcolor",
        "stats",
        "copy",
        "os",
        "math",
        "numbers"
    ]
}