{
    "libs": [
        "pylab",
        "cStringIO",
        "curses",
        "mission_pb2",
        "tkFileDialog",
        "v10",
        "random",
        "copy",
        "__builtin__",
        "subprocess",
        "construct",
        "path",
        "operator",
        "etree",
        "array",
        "shutil",
        "serial",
        "protobuf",
        "messagebox",
        "ElementTree",
        "struct",
        "platform",
        "datetime",
        "errno",
        "pyplot",
        "pprint",
        "mavuser",
        "urllib",
        "simplekml",
        "re",
        "json",
        "xsvalB",
        "xmlifB",
        "getopt",
        "mavgen_jav",
        "numpy",
        "math",
        "fcntl",
        "core",
        "expat",
        "Tkinter",
        "string",
        "optparse",
        "UserDict",
        "glob",
        "inspect",
        "zipfile",
        "textwrap",
        "matplotlib",
        "sys",
        "scipy",
        "ctypes",
        "imp",
        "filedialog",
        "logging",
        "elementtree",
        "types",
        "socket",
        "minidom",
        "tkinter",
        "Sax2",
        "_exceptions",
        "StringIO",
        "expatbuilder",
        "decimal",
        "dom",
        "urlparse",
        "tkMessageBox",
        "doctest",
        "time",
        "fnmatch",
        "os"
    ]
}