{
    "archive_url": "https://api.github.com/repos/Max00355/MatchBox/{archive_format}{/ref}",
    "assignees_url": "https://api.github.com/repos/Max00355/MatchBox/assignees{/user}",
    "blobs_url": "https://api.github.com/repos/Max00355/MatchBox/git/blobs{/sha}",
    "branches_url": "https://api.github.com/repos/Max00355/MatchBox/branches{/branch}",
    "clone_url": "https://github.com/Max00355/MatchBox.git",
    "collaborators_url": "https://api.github.com/repos/Max00355/MatchBox/collaborators{/collaborator}",
    "comments_url": "https://api.github.com/repos/Max00355/MatchBox/comments{/number}",
    "commits_url": "https://api.github.com/repos/Max00355/MatchBox/commits{/sha}",
    "compare_url": "https://api.github.com/repos/Max00355/MatchBox/compare/{base}...{head}",
    "contents_url": "https://api.github.com/repos/Max00355/MatchBox/contents/{+path}",
    "contributors_url": "https://api.github.com/repos/Max00355/MatchBox/contributors",
    "created_at": "2013-02-28T02:23:50Z",
    "default_branch": "master",
    "description": "Project now called IonicBackup",
    "downloads_url": "https://api.github.com/repos/Max00355/MatchBox/downloads",
    "events_url": "https://api.github.com/repos/Max00355/MatchBox/events",
    "fork": false,
    "forks": 22,
    "forks_count": 22,
    "forks_url": "https://api.github.com/repos/Max00355/MatchBox/forks",
    "full_name": "Max00355/MatchBox",
    "git_commits_url": "https://api.github.com/repos/Max00355/MatchBox/git/commits{/sha}",
    "git_refs_url": "https://api.github.com/repos/Max00355/MatchBox/git/refs{/sha}",
    "git_tags_url": "https://api.github.com/repos/Max00355/MatchBox/git/tags{/sha}",
    "git_url": "git://github.com/Max00355/MatchBox.git",
    "has_downloads": true,
    "has_issues": true,
    "has_wiki": true,
    "homepage": "",
    "hooks_url": "https://api.github.com/repos/Max00355/MatchBox/hooks",
    "html_url": "https://github.com/Max00355/MatchBox",
    "id": 8470221,
    "issue_comment_url": "https://api.github.com/repos/Max00355/MatchBox/issues/comments/{number}",
    "issue_events_url": "https://api.github.com/repos/Max00355/MatchBox/issues/events{/number}",
    "issues_url": "https://api.github.com/repos/Max00355/MatchBox/issues{/number}",
    "keys_url": "https://api.github.com/repos/Max00355/MatchBox/keys{/key_id}",
    "labels_url": "https://api.github.com/repos/Max00355/MatchBox/labels{/name}",
    "language": "Python",
    "languages_url": "https://api.github.com/repos/Max00355/MatchBox/languages",
    "merges_url": "https://api.github.com/repos/Max00355/MatchBox/merges",
    "milestones_url": "https://api.github.com/repos/Max00355/MatchBox/milestones{/number}",
    "mirror_url": null,
    "name": "MatchBox",
    "notifications_url": "https://api.github.com/repos/Max00355/MatchBox/notifications{?since,all,participating}",
    "open_issues": 1,
    "open_issues_count": 1,
    "owner": {
        "avatar_url": "https://avatars.githubusercontent.com/u/1633507?",
        "events_url": "https://api.github.com/users/Max00355/events{/privacy}",
        "followers_url": "https://api.github.com/users/Max00355/followers",
        "following_url": "https://api.github.com/users/Max00355/following{/other_user}",
        "gists_url": "https://api.github.com/users/Max00355/gists{/gist_id}",
        "gravatar_id": "ee2d935ea9fdcc20c5af4419b67729a5",
        "html_url": "https://github.com/Max00355",
        "id": 1633507,
        "login": "Max00355",
        "organizations_url": "https://api.github.com/users/Max00355/orgs",
        "received_events_url": "https://api.github.com/users/Max00355/received_events",
        "repos_url": "https://api.github.com/users/Max00355/repos",
        "site_admin": false,
        "starred_url": "https://api.github.com/users/Max00355/starred{/owner}{/repo}",
        "subscriptions_url": "https://api.github.com/users/Max00355/subscriptions",
        "type": "User",
        "url": "https://api.github.com/users/Max00355"
    },
    "private": false,
    "pulls_url": "https://api.github.com/repos/Max00355/MatchBox/pulls{/number}",
    "pushed_at": "2013-03-12T02:43:06Z",
    "releases_url": "https://api.github.com/repos/Max00355/MatchBox/releases{/id}",
    "score": 1.0,
    "size": 123,
    "ssh_url": "git@github.com:Max00355/MatchBox.git",
    "stargazers_count": 292,
    "stargazers_url": "https://api.github.com/repos/Max00355/MatchBox/stargazers",
    "statuses_url": "https://api.github.com/repos/Max00355/MatchBox/statuses/{sha}",
    "subscribers_url": "https://api.github.com/repos/Max00355/MatchBox/subscribers",
    "subscription_url": "https://api.github.com/repos/Max00355/MatchBox/subscription",
    "svn_url": "https://github.com/Max00355/MatchBox",
    "tags_url": "https://api.github.com/repos/Max00355/MatchBox/tags",
    "teams_url": "https://api.github.com/repos/Max00355/MatchBox/teams",
    "trees_url": "https://api.github.com/repos/Max00355/MatchBox/git/trees{/sha}",
    "updated_at": "2014-05-01T00:25:21Z",
    "url": "https://api.github.com/repos/Max00355/MatchBox",
    "watchers": 292,
    "watchers_count": 292
}