{
    "archive_url": "https://api.github.com/repos/ralphbean/mattd.core/{archive_format}{/ref}",
    "assignees_url": "https://api.github.com/repos/ralphbean/mattd.core/assignees{/user}",
    "blobs_url": "https://api.github.com/repos/ralphbean/mattd.core/git/blobs{/sha}",
    "branches_url": "https://api.github.com/repos/ralphbean/mattd.core/branches{/branch}",
    "clone_url": "https://github.com/ralphbean/mattd.core.git",
    "collaborators_url": "https://api.github.com/repos/ralphbean/mattd.core/collaborators{/collaborator}",
    "comments_url": "https://api.github.com/repos/ralphbean/mattd.core/comments{/number}",
    "commits_url": "https://api.github.com/repos/ralphbean/mattd.core/commits{/sha}",
    "compare_url": "https://api.github.com/repos/ralphbean/mattd.core/compare/{base}...{head}",
    "contents_url": "https://api.github.com/repos/ralphbean/mattd.core/contents/{+path}",
    "contributors_url": "https://api.github.com/repos/ralphbean/mattd.core/contributors",
    "created_at": "2011-03-25T19:16:34Z",
    "default_branch": "develop",
    "description": "Matt Daemon",
    "downloads_url": "https://api.github.com/repos/ralphbean/mattd.core/downloads",
    "events_url": "https://api.github.com/repos/ralphbean/mattd.core/events",
    "fork": false,
    "forks": 7,
    "forks_count": 7,
    "forks_url": "https://api.github.com/repos/ralphbean/mattd.core/forks",
    "full_name": "ralphbean/mattd.core",
    "git_commits_url": "https://api.github.com/repos/ralphbean/mattd.core/git/commits{/sha}",
    "git_refs_url": "https://api.github.com/repos/ralphbean/mattd.core/git/refs{/sha}",
    "git_tags_url": "https://api.github.com/repos/ralphbean/mattd.core/git/tags{/sha}",
    "git_url": "git://github.com/ralphbean/mattd.core.git",
    "has_downloads": true,
    "has_issues": true,
    "has_wiki": false,
    "homepage": "pypi.python.org/pypi/mattd.core",
    "hooks_url": "https://api.github.com/repos/ralphbean/mattd.core/hooks",
    "html_url": "https://github.com/ralphbean/mattd.core",
    "id": 1526902,
    "issue_comment_url": "https://api.github.com/repos/ralphbean/mattd.core/issues/comments/{number}",
    "issue_events_url": "https://api.github.com/repos/ralphbean/mattd.core/issues/events{/number}",
    "issues_url": "https://api.github.com/repos/ralphbean/mattd.core/issues{/number}",
    "keys_url": "https://api.github.com/repos/ralphbean/mattd.core/keys{/key_id}",
    "labels_url": "https://api.github.com/repos/ralphbean/mattd.core/labels{/name}",
    "language": "Python",
    "languages_url": "https://api.github.com/repos/ralphbean/mattd.core/languages",
    "merges_url": "https://api.github.com/repos/ralphbean/mattd.core/merges",
    "milestones_url": "https://api.github.com/repos/ralphbean/mattd.core/milestones{/number}",
    "mirror_url": null,
    "name": "mattd.core",
    "notifications_url": "https://api.github.com/repos/ralphbean/mattd.core/notifications{?since,all,participating}",
    "open_issues": 4,
    "open_issues_count": 4,
    "owner": {
        "avatar_url": "https://avatars.githubusercontent.com/u/331338?",
        "events_url": "https://api.github.com/users/ralphbean/events{/privacy}",
        "followers_url": "https://api.github.com/users/ralphbean/followers",
        "following_url": "https://api.github.com/users/ralphbean/following{/other_user}",
        "gists_url": "https://api.github.com/users/ralphbean/gists{/gist_id}",
        "gravatar_id": "ba940b433c2695635d32d2c4aec00540",
        "html_url": "https://github.com/ralphbean",
        "id": 331338,
        "login": "ralphbean",
        "organizations_url": "https://api.github.com/users/ralphbean/orgs",
        "received_events_url": "https://api.github.com/users/ralphbean/received_events",
        "repos_url": "https://api.github.com/users/ralphbean/repos",
        "site_admin": false,
        "starred_url": "https://api.github.com/users/ralphbean/starred{/owner}{/repo}",
        "subscriptions_url": "https://api.github.com/users/ralphbean/subscriptions",
        "type": "User",
        "url": "https://api.github.com/users/ralphbean"
    },
    "private": false,
    "pulls_url": "https://api.github.com/repos/ralphbean/mattd.core/pulls{/number}",
    "pushed_at": "2012-08-28T16:08:56Z",
    "releases_url": "https://api.github.com/repos/ralphbean/mattd.core/releases{/id}",
    "score": 1.0,
    "size": 912,
    "ssh_url": "git@github.com:ralphbean/mattd.core.git",
    "stargazers_count": 51,
    "stargazers_url": "https://api.github.com/repos/ralphbean/mattd.core/stargazers",
    "statuses_url": "https://api.github.com/repos/ralphbean/mattd.core/statuses/{sha}",
    "subscribers_url": "https://api.github.com/repos/ralphbean/mattd.core/subscribers",
    "subscription_url": "https://api.github.com/repos/ralphbean/mattd.core/subscription",
    "svn_url": "https://github.com/ralphbean/mattd.core",
    "tags_url": "https://api.github.com/repos/ralphbean/mattd.core/tags",
    "teams_url": "https://api.github.com/repos/ralphbean/mattd.core/teams",
    "trees_url": "https://api.github.com/repos/ralphbean/mattd.core/git/trees{/sha}",
    "updated_at": "2013-11-05T08:23:31Z",
    "url": "https://api.github.com/repos/ralphbean/mattd.core",
    "watchers": 51,
    "watchers_count": 51
}