{
    "libs": [
        "session",
        "cPickle",
        "markdown",
        "os",
        "cherrypy",
        "process",
        "redis",
        "traceback",
        "with_statement",
        "absolute_import",
        "pyatom",
        "client",
        "contextlib",
        "jinja2",
        "zlib",
        "pickle",
        "parser"
    ]
}