{
    "libs": [
        "wsgi",
        "code",
        "functools",
        "random",
        "datetime",
        "serving",
        "query",
        "sqlparse",
        "Shell",
        "uuid",
        "bpython",
        "tempfile",
        "psycopg2",
        "cache",
        "imp",
        "collections",
        "cProfile",
        "NOQA",
        "werkzeug",
        "views",
        "auth",
        "test",
        "hotshot",
        "pydot",
        "decimal",
        "cStringIO",
        "vobject",
        "with_statement",
        "related",
        "MySQLdb",
        "dateutil",
        "py_compile",
        "req",
        "sites",
        "re",
        "version",
        "template",
        "email",
        "core",
        "optparse",
        "inspect",
        "exceptions",
        "loading",
        "codecs",
        "path",
        "notebookapp",
        "importlib",
        "minidom",
        "logging",
        "socket",
        "boto",
        "handlers",
        "traceback",
        "formatters",
        "doctest",
        "smtpd",
        "requests",
        "os",
        "pprint",
        "encoding",
        "unittest",
        "functional",
        "dispatch",
        "loader",
        "_internal",
        "pygments",
        "IPython",
        "log",
        "errno",
        "backends",
        "keyczar",
        "simplejson",
        "webbrowser",
        "translation",
        "exception",
        "b",
        "StringIO",
        "defaultfilters",
        "fnmatch",
        "lexers",
        "unicode_literals",
        "contextlib",
        "io",
        "pip",
        "shutil",
        "moves",
        "generic",
        "six",
        "writer",
        "deletion",
        "getp",
        "csv",
        "mimetypes",
        "shortuuid",
        "warnings",
        "filesystem",
        "urllib2",
        "sys",
        "urlresolvers",
        "v2",
        "notebook",
        "readline",
        "pygraphviz",
        "constants",
        "doc",
        "safestring",
        "xmlrpclib",
        "django",
        "urlparse",
        "psycopg",
        "time",
        "gzip",
        "rlcompleter"
    ]
}