[
    "chat.views",
    "run",
    "urls",
    "views",
    "models",
    "manage",
    "apps",
    "apps.chat",
    "apps.chat.models",
    "chat",
    "apps.chat.views",
    "chat.models",
    "settings"
]