[
    "logpy.arith",
    "logpy.tests.test_facts",
    "dispatch",
    "test_unifymore",
    "examples.commutative",
    "logpy.tests.test_core",
    "logpy.tests.test_term",
    "logpy.variable",
    "test_util",
    "facts",
    "test_arith",
    "test_term",
    "logpy.tests.test_util",
    "commutative",
    "tests.test_term",
    "test_unification",
    "examples.states",
    "assoccomm",
    "logpy.dispatch",
    "tests.test_arith",
    "tests.test_util",
    "tests",
    "arith",
    "term",
    "util",
    "logpy.assoccomm",
    "corleone",
    "unification",
    "goals",
    "unifymore",
    "prime",
    "account",
    "logpy.term",
    "examples.corleone",
    "logpy.facts",
    "logpy.tests.test_variable",
    "test_goals",
    "logpy.goals",
    "logpy.tests.test_unifymore",
    "logpy.unifymore",
    "test_core",
    "test_assoccomm",
    "states",
    "tests.test_unification",
    "examples",
    "logpy.tests.test_goals",
    "tests.test_core",
    "test_variable",
    "examples.user-classes",
    "tests.test_assoccomm",
    "logpy.tests.test_arith",
    "tests.test_unifymore",
    "tests.test_variable",
    "examples.account",
    "tests.test_goals",
    "core",
    "test_facts",
    "logpy.tests.test_assoccomm",
    "variable",
    "tests.test_facts",
    "logpy.core",
    "logpy",
    "logpy.unification",
    "examples.prime",
    "logpy.util",
    "user-classes",
    "logpy.tests",
    "logpy.tests.test_unification"
]