[
    "main",
    "videodownloader.providers.vimeo",
    "providers",
    "vimeo",
    "providers.vimeo",
    "youtube",
    "videodownloader.main",
    "videodownloader.providers.youtube",
    "test",
    "videodownloader.providers",
    "videodownloader",
    "providers.youtube"
]