{
    "libs": [
        "management",
        "defaults",
        "where",
        "db",
        "auth",
        "sys",
        "exceptions",
        "conf",
        "contrib",
        "tools"
    ]
}