[
    "operations",
    "djcouchtest.core",
    "creation",
    "django_couchdb.djcouchtest.urls",
    "django_couchdb.backends.couchdb",
    "django_couchdb.backends.couchdb.utils",
    "django_couchdb.djcouchtest.core.tests.test_creation",
    "django_couchdb",
    "django_couchdb.djcouchtest.core.models",
    "tests.test_auth",
    "djcouchtest.core.admin",
    "djcouchtest.core.models",
    "backends.couchdb.introspection",
    "tests.test_queries",
    "django_couchdb.backends.couchdb.queries",
    "backends",
    "django_couchdb.backends.couchdb.introspection",
    "django_couchdb.djcouchtest.core.views",
    "nodes",
    "django_couchdb.djcouchtest.core.tests.test_queries",
    "django_couchdb.djcouchtest.core.tests.utils",
    "tests",
    "manage",
    "djcouchtest.urls",
    "djcouchtest.settings",
    "views",
    "django_couchdb.djcouchtest",
    "djcouchtest",
    "django_couchdb.djcouchtest.core",
    "couchdb.nodes",
    "djcouchtest.core.tests.utils",
    "test_queries",
    "djcouchtest.core.views",
    "settings",
    "core.tests.test_auth",
    "core.tests.test_creation",
    "djcouchtest.core.tests",
    "backends.couchdb.creation",
    "queries",
    "core.models",
    "core.admin",
    "backends.couchdb.utils",
    "django_couchdb.backends",
    "django_couchdb.backends.couchdb.base",
    "core.tests.utils",
    "django_couchdb.djcouchtest.core.tests.test_auth",
    "utils",
    "django_couchdb.backends.couchdb.operations",
    "couchdb.creation",
    "django_couchdb.backends.couchdb.creation",
    "backends.couchdb.nodes",
    "djcouchtest.core.tests.test_queries",
    "backends.couchdb.base",
    "django_couchdb.djcouchtest.manage",
    "django_couchdb.djcouchtest.core.tests",
    "couchdb",
    "djcouchtest.core.tests.test_auth",
    "introspection",
    "couchdb.operations",
    "tests.utils",
    "core.tests.test_queries",
    "couchdb.introspection",
    "django_couchdb.backends.couchdb.nodes",
    "test_auth",
    "core",
    "core.tests",
    "django_couchdb.djcouchtest.settings",
    "djcouchtest.manage",
    "models",
    "base",
    "backends.couchdb",
    "django_couchdb.djcouchtest.core.admin",
    "djcouchtest.core.tests.test_creation",
    "admin",
    "couchdb.queries",
    "couchdb.base",
    "tests.test_creation",
    "backends.couchdb.operations",
    "couchdb.utils",
    "urls",
    "backends.couchdb.queries",
    "test_creation",
    "core.views"
]