[
    "script.net.cachedObject",
    "carbon.common.script.sys",
    "common.script",
    "carbon.common.script.net.cachedObject",
    "locationWrapper",
    "common.script.sys.row",
    "src.eve.common.script.sys",
    "script.sys.rowset",
    "implants",
    "net.cachedObject",
    "script.sys.crowset",
    "src.exceptions",
    "common.script.sys",
    "examples.datadump",
    "common.lib.utillib",
    "src.carbon.common.script.net.objectCaching",
    "src.carbon.common.script.net.GPSExceptions",
    "src.cache",
    "net.GPSExceptions",
    "const",
    "examples.traits",
    "script",
    "cache",
    "sys.row",
    "common.script.net.cachedObject",
    "cachedObject",
    "eve.common.script.universe.locationWrapper",
    "src.eve.common.script.universe",
    "carbon.common.script.net.objectCaching",
    "datadump",
    "src",
    "carbon.common.lib.utillib",
    "script.net.GPSExceptions",
    "src.eve.common.script.sys.eveCfg",
    "common.script.net.objectCaching",
    "lib.utillib",
    "eve.common.script",
    "common.script.sys.eveCfg",
    "src.pyFSD",
    "src.carbon.common.script.sys",
    "common.script.sys.crowset",
    "carbon.common.script.sys.row",
    "src.embedfs",
    "common.script.net.GPSExceptions",
    "script.sys.eveCfg",
    "_os",
    "script.sys.row",
    "sys.crowset",
    "eve",
    "src.eve.common.script",
    "eve.common.script.universe",
    "src.blue",
    "common",
    "src.config",
    "common.lib",
    "examples",
    "examples.whmap",
    "rowset",
    "src.carbon.common.script.sys.row",
    "eveCfg",
    "src.eve.common.script.universe.locationWrapper",
    "whmap",
    "sys.rowset",
    "carbon.common.lib",
    "pyFSD",
    "script.net.objectCaching",
    "traits",
    "src.localization",
    "src.carbon.common.lib.utillib",
    "src.strings",
    "net.objectCaching",
    "eve.common.script.sys.eveCfg",
    "src._os",
    "carbon.common.script.net.GPSExceptions",
    "blue",
    "sys.eveCfg",
    "src.eve.common.script.sys.rowset",
    "src.carbon.common.script.net",
    "embedfs",
    "lib",
    "carbon.common.script.net",
    "src.carbon.common.script",
    "examples.implants",
    "carbon.common",
    "src.carbon.common.lib",
    "script.universe.locationWrapper",
    "src.const",
    "common.script.universe.locationWrapper",
    "src.util",
    "objectCaching",
    "src.fsd",
    "src.eve.common",
    "net",
    "GPSExceptions",
    "config",
    "carbon.common.script.sys.crowset",
    "src.carbon.common.script.sys.crowset",
    "script.net",
    "carbon.common.script",
    "src.carbon.common",
    "src.carbon.common.script.net.cachedObject",
    "common.script.universe",
    "row",
    "sys",
    "exceptions",
    "carbon",
    "utillib",
    "src.eve",
    "fsd",
    "eve.common",
    "eve.common.script.sys.rowset",
    "util",
    "universe",
    "crowset",
    "common.script.net",
    "src.carbon",
    "localization",
    "universe.locationWrapper",
    "eve.common.script.sys",
    "script.sys",
    "common.script.sys.rowset",
    "strings",
    "script.universe"
]