[
    "authdigest",
    "shell",
    "views",
    "models",
    "route53.views.records",
    "route53.xmltools",
    "slicehost",
    "auth",
    "zones",
    "records",
    "views.records",
    "route53.connection",
    "route53.models",
    "route53",
    "route53.forms",
    "route53.views.zones",
    "xmltools",
    "runserver",
    "forms",
    "connection",
    "views.slicehost",
    "create_db",
    "route53.views.slicehost",
    "views.zones",
    "route53.views.main",
    "main",
    "views.main",
    "route53.views"
]