{
    "libs": [
        "pil",
        "validators",
        "unittest",
        "random",
        "datetime",
        "conf",
        "plugins",
        "timezone",
        "moves",
        "shutil",
        "importlib",
        "tempfile",
        "six",
        "storage",
        "query",
        "test",
        "files",
        "string",
        "warnings",
        "optparse",
        "inspect",
        "db",
        "sys",
        "exceptions",
        "path",
        "struct",
        "b",
        "logging",
        "socket",
        "fields",
        "decimal",
        "django",
        "threading",
        "itertools",
        "django_nose",
        "urlresolvers",
        "os"
    ]
}