{
    "archive_url": "https://api.github.com/repos/paulocheque/django-dynamic-fixture/{archive_format}{/ref}",
    "assignees_url": "https://api.github.com/repos/paulocheque/django-dynamic-fixture/assignees{/user}",
    "blobs_url": "https://api.github.com/repos/paulocheque/django-dynamic-fixture/git/blobs{/sha}",
    "branches_url": "https://api.github.com/repos/paulocheque/django-dynamic-fixture/branches{/branch}",
    "clone_url": "https://github.com/paulocheque/django-dynamic-fixture.git",
    "collaborators_url": "https://api.github.com/repos/paulocheque/django-dynamic-fixture/collaborators{/collaborator}",
    "comments_url": "https://api.github.com/repos/paulocheque/django-dynamic-fixture/comments{/number}",
    "commits_url": "https://api.github.com/repos/paulocheque/django-dynamic-fixture/commits{/sha}",
    "compare_url": "https://api.github.com/repos/paulocheque/django-dynamic-fixture/compare/{base}...{head}",
    "contents_url": "https://api.github.com/repos/paulocheque/django-dynamic-fixture/contents/{+path}",
    "contributors_url": "https://api.github.com/repos/paulocheque/django-dynamic-fixture/contributors",
    "created_at": "2012-04-04T22:54:41Z",
    "default_branch": "master",
    "description": "A complete library to create dynamic model instances for testing purposes.",
    "downloads_url": "https://api.github.com/repos/paulocheque/django-dynamic-fixture/downloads",
    "events_url": "https://api.github.com/repos/paulocheque/django-dynamic-fixture/events",
    "fork": false,
    "forks": 29,
    "forks_count": 29,
    "forks_url": "https://api.github.com/repos/paulocheque/django-dynamic-fixture/forks",
    "full_name": "paulocheque/django-dynamic-fixture",
    "git_commits_url": "https://api.github.com/repos/paulocheque/django-dynamic-fixture/git/commits{/sha}",
    "git_refs_url": "https://api.github.com/repos/paulocheque/django-dynamic-fixture/git/refs{/sha}",
    "git_tags_url": "https://api.github.com/repos/paulocheque/django-dynamic-fixture/git/tags{/sha}",
    "git_url": "git://github.com/paulocheque/django-dynamic-fixture.git",
    "has_downloads": true,
    "has_issues": true,
    "has_wiki": true,
    "homepage": "http://paulocheque.github.com/django-dynamic-fixture",
    "hooks_url": "https://api.github.com/repos/paulocheque/django-dynamic-fixture/hooks",
    "html_url": "https://github.com/paulocheque/django-dynamic-fixture",
    "id": 3934109,
    "issue_comment_url": "https://api.github.com/repos/paulocheque/django-dynamic-fixture/issues/comments/{number}",
    "issue_events_url": "https://api.github.com/repos/paulocheque/django-dynamic-fixture/issues/events{/number}",
    "issues_url": "https://api.github.com/repos/paulocheque/django-dynamic-fixture/issues{/number}",
    "keys_url": "https://api.github.com/repos/paulocheque/django-dynamic-fixture/keys{/key_id}",
    "labels_url": "https://api.github.com/repos/paulocheque/django-dynamic-fixture/labels{/name}",
    "language": "Python",
    "languages_url": "https://api.github.com/repos/paulocheque/django-dynamic-fixture/languages",
    "merges_url": "https://api.github.com/repos/paulocheque/django-dynamic-fixture/merges",
    "milestones_url": "https://api.github.com/repos/paulocheque/django-dynamic-fixture/milestones{/number}",
    "mirror_url": null,
    "name": "django-dynamic-fixture",
    "notifications_url": "https://api.github.com/repos/paulocheque/django-dynamic-fixture/notifications{?since,all,participating}",
    "open_issues": 11,
    "open_issues_count": 11,
    "owner": {
        "avatar_url": "https://avatars.githubusercontent.com/u/94350?",
        "events_url": "https://api.github.com/users/paulocheque/events{/privacy}",
        "followers_url": "https://api.github.com/users/paulocheque/followers",
        "following_url": "https://api.github.com/users/paulocheque/following{/other_user}",
        "gists_url": "https://api.github.com/users/paulocheque/gists{/gist_id}",
        "gravatar_id": "bd07f9815ab0ab5c4927b7e4c1292dca",
        "html_url": "https://github.com/paulocheque",
        "id": 94350,
        "login": "paulocheque",
        "organizations_url": "https://api.github.com/users/paulocheque/orgs",
        "received_events_url": "https://api.github.com/users/paulocheque/received_events",
        "repos_url": "https://api.github.com/users/paulocheque/repos",
        "site_admin": false,
        "starred_url": "https://api.github.com/users/paulocheque/starred{/owner}{/repo}",
        "subscriptions_url": "https://api.github.com/users/paulocheque/subscriptions",
        "type": "User",
        "url": "https://api.github.com/users/paulocheque"
    },
    "private": false,
    "pulls_url": "https://api.github.com/repos/paulocheque/django-dynamic-fixture/pulls{/number}",
    "pushed_at": "2014-04-03T09:07:25Z",
    "releases_url": "https://api.github.com/repos/paulocheque/django-dynamic-fixture/releases{/id}",
    "score": 1.0,
    "size": 3357,
    "ssh_url": "git@github.com:paulocheque/django-dynamic-fixture.git",
    "stargazers_count": 179,
    "stargazers_url": "https://api.github.com/repos/paulocheque/django-dynamic-fixture/stargazers",
    "statuses_url": "https://api.github.com/repos/paulocheque/django-dynamic-fixture/statuses/{sha}",
    "subscribers_url": "https://api.github.com/repos/paulocheque/django-dynamic-fixture/subscribers",
    "subscription_url": "https://api.github.com/repos/paulocheque/django-dynamic-fixture/subscription",
    "svn_url": "https://github.com/paulocheque/django-dynamic-fixture",
    "tags_url": "https://api.github.com/repos/paulocheque/django-dynamic-fixture/tags",
    "teams_url": "https://api.github.com/repos/paulocheque/django-dynamic-fixture/teams",
    "trees_url": "https://api.github.com/repos/paulocheque/django-dynamic-fixture/git/trees{/sha}",
    "updated_at": "2014-05-05T11:12:13Z",
    "url": "https://api.github.com/repos/paulocheque/django-dynamic-fixture",
    "watchers": 179,
    "watchers_count": 179
}