[
    "code",
    "src.math.code.spherical_harmonics",
    "code.spherical_harmonics",
    "src.math",
    "math.code.spherical_harmonics",
    "math.code",
    "exts.convert",
    "math_dollar",
    "conf",
    "src",
    "convert",
    "exts",
    "src.math.code",
    "spherical_harmonics",
    "exts.math_dollar",
    "math"
]