{
    "archive_url": "https://api.github.com/repos/jacek99/corepost/{archive_format}{/ref}",
    "assignees_url": "https://api.github.com/repos/jacek99/corepost/assignees{/user}",
    "blobs_url": "https://api.github.com/repos/jacek99/corepost/git/blobs{/sha}",
    "branches_url": "https://api.github.com/repos/jacek99/corepost/branches{/branch}",
    "clone_url": "https://github.com/jacek99/corepost.git",
    "collaborators_url": "https://api.github.com/repos/jacek99/corepost/collaborators{/collaborator}",
    "comments_url": "https://api.github.com/repos/jacek99/corepost/comments{/number}",
    "commits_url": "https://api.github.com/repos/jacek99/corepost/commits{/sha}",
    "compare_url": "https://api.github.com/repos/jacek99/corepost/compare/{base}...{head}",
    "contents_url": "https://api.github.com/repos/jacek99/corepost/contents/{+path}",
    "contributors_url": "https://api.github.com/repos/jacek99/corepost/contributors",
    "created_at": "2011-08-23T20:10:21Z",
    "default_branch": "master",
    "description": "REST micro-framework for Python Twisted with multi-core support",
    "downloads_url": "https://api.github.com/repos/jacek99/corepost/downloads",
    "events_url": "https://api.github.com/repos/jacek99/corepost/events",
    "fork": false,
    "forks": 10,
    "forks_count": 10,
    "forks_url": "https://api.github.com/repos/jacek99/corepost/forks",
    "full_name": "jacek99/corepost",
    "git_commits_url": "https://api.github.com/repos/jacek99/corepost/git/commits{/sha}",
    "git_refs_url": "https://api.github.com/repos/jacek99/corepost/git/refs{/sha}",
    "git_tags_url": "https://api.github.com/repos/jacek99/corepost/git/tags{/sha}",
    "git_url": "git://github.com/jacek99/corepost.git",
    "has_downloads": true,
    "has_issues": true,
    "has_wiki": true,
    "homepage": "http://jacek99.github.com/corepost/",
    "hooks_url": "https://api.github.com/repos/jacek99/corepost/hooks",
    "html_url": "https://github.com/jacek99/corepost",
    "id": 2257522,
    "issue_comment_url": "https://api.github.com/repos/jacek99/corepost/issues/comments/{number}",
    "issue_events_url": "https://api.github.com/repos/jacek99/corepost/issues/events{/number}",
    "issues_url": "https://api.github.com/repos/jacek99/corepost/issues{/number}",
    "keys_url": "https://api.github.com/repos/jacek99/corepost/keys{/key_id}",
    "labels_url": "https://api.github.com/repos/jacek99/corepost/labels{/name}",
    "language": "Python",
    "languages_url": "https://api.github.com/repos/jacek99/corepost/languages",
    "merges_url": "https://api.github.com/repos/jacek99/corepost/merges",
    "milestones_url": "https://api.github.com/repos/jacek99/corepost/milestones{/number}",
    "mirror_url": null,
    "name": "corepost",
    "notifications_url": "https://api.github.com/repos/jacek99/corepost/notifications{?since,all,participating}",
    "open_issues": 6,
    "open_issues_count": 6,
    "owner": {
        "avatar_url": "https://avatars.githubusercontent.com/u/36376?",
        "events_url": "https://api.github.com/users/jacek99/events{/privacy}",
        "followers_url": "https://api.github.com/users/jacek99/followers",
        "following_url": "https://api.github.com/users/jacek99/following{/other_user}",
        "gists_url": "https://api.github.com/users/jacek99/gists{/gist_id}",
        "gravatar_id": "252ff543dff5ea08dbe7e3110899004a",
        "html_url": "https://github.com/jacek99",
        "id": 36376,
        "login": "jacek99",
        "organizations_url": "https://api.github.com/users/jacek99/orgs",
        "received_events_url": "https://api.github.com/users/jacek99/received_events",
        "repos_url": "https://api.github.com/users/jacek99/repos",
        "site_admin": false,
        "starred_url": "https://api.github.com/users/jacek99/starred{/owner}{/repo}",
        "subscriptions_url": "https://api.github.com/users/jacek99/subscriptions",
        "type": "User",
        "url": "https://api.github.com/users/jacek99"
    },
    "private": false,
    "pulls_url": "https://api.github.com/repos/jacek99/corepost/pulls{/number}",
    "pushed_at": "2014-04-01T18:58:56Z",
    "releases_url": "https://api.github.com/repos/jacek99/corepost/releases{/id}",
    "score": 1.0,
    "size": 890,
    "ssh_url": "git@github.com:jacek99/corepost.git",
    "stargazers_count": 45,
    "stargazers_url": "https://api.github.com/repos/jacek99/corepost/stargazers",
    "statuses_url": "https://api.github.com/repos/jacek99/corepost/statuses/{sha}",
    "subscribers_url": "https://api.github.com/repos/jacek99/corepost/subscribers",
    "subscription_url": "https://api.github.com/repos/jacek99/corepost/subscription",
    "svn_url": "https://github.com/jacek99/corepost",
    "tags_url": "https://api.github.com/repos/jacek99/corepost/tags",
    "teams_url": "https://api.github.com/repos/jacek99/corepost/teams",
    "trees_url": "https://api.github.com/repos/jacek99/corepost/git/trees{/sha}",
    "updated_at": "2014-04-29T00:56:59Z",
    "url": "https://api.github.com/repos/jacek99/corepost",
    "watchers": 45,
    "watchers_count": 45
}