{
    "libs": [
        "heapq",
        "newevent",
        "functools",
        "random",
        "absolute_import",
        "datetime",
        "wx_date_edit",
        "ioloop",
        "uuid",
        "imp",
        "collections",
        "nodes",
        "zmq",
        "string",
        "PySide",
        "python",
        "model_index",
        "backend_wxagg",
        "qt_date_edit",
        "threading",
        "dis",
        "cStringIO",
        "qt_test_",
        "locale",
        "with_statement",
        "enable_canv",
        "yacc",
        "traits",
        "array",
        "dateutil",
        "abc",
        "backend_wx",
        "re",
        "math",
        "winxptheme",
        "optparse",
        "inspect",
        "Appearance",
        "ctypes",
        "lex",
        "path",
        "struct",
        "scales_tick_generator",
        "c",
        "logging",
        "traceback",
        "filter",
        "itertools",
        "opcode",
        "domains",
        "wx_mpl_canv",
        "os",
        "marshal",
        "qt_enable_canv",
        "color",
        "unittest",
        "misc",
        "brush",
        "operator",
        "message",
        "transform",
        "json",
        "embeddedimage",
        "wx_enable_canv",
        "tokenize",
        "updating_plot_view",
        "numpy",
        "cPickle",
        "qt_mpl_canv",
        "autodoc",
        "employee_view",
        "icons_view",
        "b",
        "colorsys",
        "lotka_volterra_ui",
        "viewer",
        "toolkit",
        "hello_world_view",
        "backend_qt4agg",
        "contextlib",
        "images_view",
        "scaly_plot",
        "weakref",
        "enaml_test_c",
        "qt_datetime_edit",
        "person_view",
        "mpl_canv",
        "zmqstream",
        "Qt",
        "warnings",
        "sys",
        "stock_view",
        "wx_test_",
        "types",
        "expando",
        "qt_image",
        "request",
        "urlparse",
        "time"
    ]
}