{
    "libs": [
        "dummy_thread",
        "threading",
        "re",
        "json",
        "sqlite3",
        "math",
        "simplejson",
        "urllib2",
        "sys",
        "xbmcaddon",
        "copy",
        "httplib",
        "b",
        "xbmcgui",
        "socket",
        "thread",
        "h",
        "sha",
        "xbmcvfs",
        "time",
        "os",
        "xbmc"
    ]
}