[
    "rating",
    "traktapi",
    "service",
    "script",
    "default",
    "utilities",
    "scrobbler",
    "sync",
    "queue",
    "globals",
    "traktContextMenu",
    "tagging"
]