[
    "docs.samples.started.newway.pavement",
    "newway",
    "paver.tests.test_shell",
    "paver.version",
    "paver.defaults",
    "started.oldway.oldway",
    "docs.samples.started.oldway.oldway.thecode",
    "samples.started.newway.docs",
    "tests.test_path",
    "paver.tests.utils",
    "oldway",
    "paver.runtime",
    "source",
    "paver.virtual",
    "version",
    "samples",
    "samples.started.newway.newway.thecode",
    "docs.samples.started.oldway.oldway.tests",
    "newway.pavement",
    "test_shell",
    "tests",
    "docs",
    "samples.started.oldway.oldway.tests.test_thecode",
    "docs.samples.started.newway.docs.conf",
    "ssh",
    "paver.doctools",
    "started.newway.pavement",
    "paver.path",
    "docs.conf",
    "paver.tasks",
    "started.newway.newway.tests",
    "started.newway.newway",
    "t2",
    "t1",
    "pavement",
    "defaults",
    "release",
    "docs.samples.started.oldway.oldway.tests.test_thecode",
    "docs.samples.started.newway.docs",
    "tests.test_shell",
    "test_doctools",
    "paver.tests.other_pavement",
    "test_svn",
    "test_path",
    "docs.samples.started.newway.newway.tests",
    "paver.command",
    "paver.path25",
    "paver.ssh",
    "started.newway.docs",
    "thecode",
    "samples.started.oldway.oldway.tests",
    "newway.tests",
    "misctasks",
    "docs.samples.started.newway.newway.thecode",
    "tests.utils",
    "deps.path3",
    "deps.path2",
    "tests.test_git",
    "test_virtualenv",
    "paver.shell",
    "docs.samples.started.oldway.oldway",
    "samples.started.oldway.docs",
    "tests.test_options",
    "started.oldway.oldway.thecode",
    "oldway.oldway.tests.test_thecode",
    "newway.tests.test_thecode",
    "docs.samples.started",
    "samples.started.oldway.oldway",
    "docs.samples.started.newway.newway.tests.test_thecode",
    "started.newway.newway.tests.test_thecode",
    "path25",
    "oldway.tests",
    "samples.started.oldway.docs.conf",
    "docs.samples.started.oldway.docs.conf",
    "samples.started.newway.docs.conf",
    "started.newway.docs.conf",
    "paver.tests.test_tasks",
    "paver.misctasks",
    "paver.deps",
    "started.oldway.oldway.tests.test_thecode",
    "samples.started.oldway",
    "tasks",
    "docs.samples.started.oldway",
    "newway.docs.conf",
    "samples.started.oldway.oldway.thecode",
    "paver.tests.data.t2",
    "paver.tests.data.t1",
    "paver.svn",
    "path",
    "samples.started.newway",
    "test_options",
    "started.newway",
    "git",
    "started.oldway",
    "paver",
    "test_tasks",
    "test_git",
    "docs.samples.started.newway.newway",
    "docs.samples.started.newway",
    "path2",
    "shell",
    "tests.other_pavement",
    "easy",
    "tests.test_doctools",
    "path3",
    "started",
    "paver.tests.test_git",
    "test_thecode",
    "tests_integration.test_virtualenv",
    "paver.deps.six",
    "source.conf",
    "paver.easy",
    "paver.git",
    "tests.test_tasks",
    "tests.data",
    "oldway.thecode",
    "tests.test_thecode",
    "oldway.oldway",
    "started.newway.newway.thecode",
    "paver.tests.test_path",
    "paver.bzr",
    "docs.source.conf",
    "doctools",
    "deps",
    "oldway.tests.test_thecode",
    "paver.tests.test_options",
    "newway.docs",
    "bootstrap",
    "docs.samples.started.oldway.docs",
    "utils",
    "newway.newway.tests.test_thecode",
    "deps.six",
    "docs.samples",
    "conf",
    "samples.started.newway.newway",
    "oldway.oldway.tests",
    "docs.source",
    "data.t1",
    "data.t2",
    "paver.tests.test_svn",
    "paver.tests.test_doctools",
    "six",
    "paver.options",
    "virtual",
    "oldway.docs",
    "newway.thecode",
    "started.oldway.docs",
    "tests.test_svn",
    "paver.release",
    "started.oldway.docs.conf",
    "newway.newway.thecode",
    "started.oldway.oldway.tests",
    "tests.data.t2",
    "tests.data.t1",
    "data",
    "svn",
    "samples.started.newway.pavement",
    "runtime",
    "bzr",
    "oldway.oldway.thecode",
    "newway.newway",
    "paver.deps.path3",
    "paver.deps.path2",
    "other_pavement",
    "paver.tests",
    "options",
    "samples.started.newway.newway.tests",
    "tests_integration",
    "samples.started",
    "command",
    "paver.tests.data",
    "samples.started.newway.newway.tests.test_thecode",
    "oldway.docs.conf",
    "newway.newway.tests"
]