{
    "archive_url": "https://api.github.com/repos/rep/hpfeeds/{archive_format}{/ref}",
    "assignees_url": "https://api.github.com/repos/rep/hpfeeds/assignees{/user}",
    "blobs_url": "https://api.github.com/repos/rep/hpfeeds/git/blobs{/sha}",
    "branches_url": "https://api.github.com/repos/rep/hpfeeds/branches{/branch}",
    "clone_url": "https://github.com/rep/hpfeeds.git",
    "collaborators_url": "https://api.github.com/repos/rep/hpfeeds/collaborators{/collaborator}",
    "comments_url": "https://api.github.com/repos/rep/hpfeeds/comments{/number}",
    "commits_url": "https://api.github.com/repos/rep/hpfeeds/commits{/sha}",
    "compare_url": "https://api.github.com/repos/rep/hpfeeds/compare/{base}...{head}",
    "contents_url": "https://api.github.com/repos/rep/hpfeeds/contents/{+path}",
    "contributors_url": "https://api.github.com/repos/rep/hpfeeds/contributors",
    "created_at": "2011-04-04T15:19:40Z",
    "default_branch": "master",
    "description": "Honeynet Project generic authenticated datafeed protocol",
    "downloads_url": "https://api.github.com/repos/rep/hpfeeds/downloads",
    "events_url": "https://api.github.com/repos/rep/hpfeeds/events",
    "fork": false,
    "forks": 24,
    "forks_count": 24,
    "forks_url": "https://api.github.com/repos/rep/hpfeeds/forks",
    "full_name": "rep/hpfeeds",
    "git_commits_url": "https://api.github.com/repos/rep/hpfeeds/git/commits{/sha}",
    "git_refs_url": "https://api.github.com/repos/rep/hpfeeds/git/refs{/sha}",
    "git_tags_url": "https://api.github.com/repos/rep/hpfeeds/git/tags{/sha}",
    "git_url": "git://github.com/rep/hpfeeds.git",
    "has_downloads": true,
    "has_issues": true,
    "has_wiki": true,
    "homepage": "https://github.com/rep/hpfeeds",
    "hooks_url": "https://api.github.com/repos/rep/hpfeeds/hooks",
    "html_url": "https://github.com/rep/hpfeeds",
    "id": 1567542,
    "issue_comment_url": "https://api.github.com/repos/rep/hpfeeds/issues/comments/{number}",
    "issue_events_url": "https://api.github.com/repos/rep/hpfeeds/issues/events{/number}",
    "issues_url": "https://api.github.com/repos/rep/hpfeeds/issues{/number}",
    "keys_url": "https://api.github.com/repos/rep/hpfeeds/keys{/key_id}",
    "labels_url": "https://api.github.com/repos/rep/hpfeeds/labels{/name}",
    "language": "Python",
    "languages_url": "https://api.github.com/repos/rep/hpfeeds/languages",
    "merges_url": "https://api.github.com/repos/rep/hpfeeds/merges",
    "milestones_url": "https://api.github.com/repos/rep/hpfeeds/milestones{/number}",
    "mirror_url": null,
    "name": "hpfeeds",
    "notifications_url": "https://api.github.com/repos/rep/hpfeeds/notifications{?since,all,participating}",
    "open_issues": 7,
    "open_issues_count": 7,
    "owner": {
        "avatar_url": "https://avatars.githubusercontent.com/u/429384?",
        "events_url": "https://api.github.com/users/rep/events{/privacy}",
        "followers_url": "https://api.github.com/users/rep/followers",
        "following_url": "https://api.github.com/users/rep/following{/other_user}",
        "gists_url": "https://api.github.com/users/rep/gists{/gist_id}",
        "gravatar_id": "cfffcec889c4cce482cc3ae601c479c4",
        "html_url": "https://github.com/rep",
        "id": 429384,
        "login": "rep",
        "organizations_url": "https://api.github.com/users/rep/orgs",
        "received_events_url": "https://api.github.com/users/rep/received_events",
        "repos_url": "https://api.github.com/users/rep/repos",
        "site_admin": false,
        "starred_url": "https://api.github.com/users/rep/starred{/owner}{/repo}",
        "subscriptions_url": "https://api.github.com/users/rep/subscriptions",
        "type": "User",
        "url": "https://api.github.com/users/rep"
    },
    "private": false,
    "pulls_url": "https://api.github.com/repos/rep/hpfeeds/pulls{/number}",
    "pushed_at": "2014-05-06T10:27:56Z",
    "releases_url": "https://api.github.com/repos/rep/hpfeeds/releases{/id}",
    "score": 1.0,
    "size": 184,
    "ssh_url": "git@github.com:rep/hpfeeds.git",
    "stargazers_count": 61,
    "stargazers_url": "https://api.github.com/repos/rep/hpfeeds/stargazers",
    "statuses_url": "https://api.github.com/repos/rep/hpfeeds/statuses/{sha}",
    "subscribers_url": "https://api.github.com/repos/rep/hpfeeds/subscribers",
    "subscription_url": "https://api.github.com/repos/rep/hpfeeds/subscription",
    "svn_url": "https://github.com/rep/hpfeeds",
    "tags_url": "https://api.github.com/repos/rep/hpfeeds/tags",
    "teams_url": "https://api.github.com/repos/rep/hpfeeds/teams",
    "trees_url": "https://api.github.com/repos/rep/hpfeeds/git/trees{/sha}",
    "updated_at": "2014-05-06T10:27:57Z",
    "url": "https://api.github.com/repos/rep/hpfeeds",
    "watchers": 61,
    "watchers_count": 61
}