[
    "broker.feedbroker",
    "appsupport.dionaea.hpfeeds",
    "stripsensor",
    "kippo.hpfeeds",
    "hpfeeds",
    "geoloc.processors",
    "kippo",
    "grabmalware",
    "examples",
    "appsupport",
    "examples.geoloc.processors",
    "examples.basic_mongodb",
    "broker.testbroker",
    "basic_mongodb",
    "examples.thugfiles",
    "geoloc.geoloc",
    "lib",
    "basic_postgres",
    "examples.csv2file",
    "examples.template",
    "template",
    "examples.grabmalware",
    "examples.geoloc.geoloc",
    "examples.stripsensor",
    "broker",
    "testbroker",
    "geoloc",
    "appsupport.dionaea",
    "appsupport.kippo",
    "appsupport.kippo.hpfeeds",
    "feedbroker",
    "examples.basic_postgres",
    "examples.geoloc",
    "dionaea",
    "dionaea.hpfeeds",
    "csv2file",
    "examples.stdin2message",
    "lib.hpfeeds",
    "thugfiles",
    "stdin2message",
    "processors"
]