{
    "archive_url": "https://api.github.com/repos/darcyliu/google-styleguide/{archive_format}{/ref}",
    "assignees_url": "https://api.github.com/repos/darcyliu/google-styleguide/assignees{/user}",
    "blobs_url": "https://api.github.com/repos/darcyliu/google-styleguide/git/blobs{/sha}",
    "branches_url": "https://api.github.com/repos/darcyliu/google-styleguide/branches{/branch}",
    "clone_url": "https://github.com/darcyliu/google-styleguide.git",
    "collaborators_url": "https://api.github.com/repos/darcyliu/google-styleguide/collaborators{/collaborator}",
    "comments_url": "https://api.github.com/repos/darcyliu/google-styleguide/comments{/number}",
    "commits_url": "https://api.github.com/repos/darcyliu/google-styleguide/commits{/sha}",
    "compare_url": "https://api.github.com/repos/darcyliu/google-styleguide/compare/{base}...{head}",
    "contents_url": "https://api.github.com/repos/darcyliu/google-styleguide/contents/{+path}",
    "contributors_url": "https://api.github.com/repos/darcyliu/google-styleguide/contributors",
    "created_at": "2012-05-19T08:28:44Z",
    "default_branch": "master",
    "description": "Mirror of \"Style guides for Google-originated open-source projects\"",
    "downloads_url": "https://api.github.com/repos/darcyliu/google-styleguide/downloads",
    "events_url": "https://api.github.com/repos/darcyliu/google-styleguide/events",
    "fork": false,
    "forks": 65,
    "forks_count": 65,
    "forks_url": "https://api.github.com/repos/darcyliu/google-styleguide/forks",
    "full_name": "darcyliu/google-styleguide",
    "git_commits_url": "https://api.github.com/repos/darcyliu/google-styleguide/git/commits{/sha}",
    "git_refs_url": "https://api.github.com/repos/darcyliu/google-styleguide/git/refs{/sha}",
    "git_tags_url": "https://api.github.com/repos/darcyliu/google-styleguide/git/tags{/sha}",
    "git_url": "git://github.com/darcyliu/google-styleguide.git",
    "has_downloads": true,
    "has_issues": true,
    "has_wiki": true,
    "homepage": "http://code.google.com/p/google-styleguide/",
    "hooks_url": "https://api.github.com/repos/darcyliu/google-styleguide/hooks",
    "html_url": "https://github.com/darcyliu/google-styleguide",
    "id": 4376755,
    "issue_comment_url": "https://api.github.com/repos/darcyliu/google-styleguide/issues/comments/{number}",
    "issue_events_url": "https://api.github.com/repos/darcyliu/google-styleguide/issues/events{/number}",
    "issues_url": "https://api.github.com/repos/darcyliu/google-styleguide/issues{/number}",
    "keys_url": "https://api.github.com/repos/darcyliu/google-styleguide/keys{/key_id}",
    "labels_url": "https://api.github.com/repos/darcyliu/google-styleguide/labels{/name}",
    "language": "Python",
    "languages_url": "https://api.github.com/repos/darcyliu/google-styleguide/languages",
    "merges_url": "https://api.github.com/repos/darcyliu/google-styleguide/merges",
    "milestones_url": "https://api.github.com/repos/darcyliu/google-styleguide/milestones{/number}",
    "mirror_url": null,
    "name": "google-styleguide",
    "notifications_url": "https://api.github.com/repos/darcyliu/google-styleguide/notifications{?since,all,participating}",
    "open_issues": 1,
    "open_issues_count": 1,
    "owner": {
        "avatar_url": "https://avatars.githubusercontent.com/u/384589?",
        "events_url": "https://api.github.com/users/darcyliu/events{/privacy}",
        "followers_url": "https://api.github.com/users/darcyliu/followers",
        "following_url": "https://api.github.com/users/darcyliu/following{/other_user}",
        "gists_url": "https://api.github.com/users/darcyliu/gists{/gist_id}",
        "gravatar_id": null,
        "html_url": "https://github.com/darcyliu",
        "id": 384589,
        "login": "darcyliu",
        "organizations_url": "https://api.github.com/users/darcyliu/orgs",
        "received_events_url": "https://api.github.com/users/darcyliu/received_events",
        "repos_url": "https://api.github.com/users/darcyliu/repos",
        "site_admin": false,
        "starred_url": "https://api.github.com/users/darcyliu/starred{/owner}{/repo}",
        "subscriptions_url": "https://api.github.com/users/darcyliu/subscriptions",
        "type": "User",
        "url": "https://api.github.com/users/darcyliu"
    },
    "private": false,
    "pulls_url": "https://api.github.com/repos/darcyliu/google-styleguide/pulls{/number}",
    "pushed_at": "2013-07-16T05:11:00Z",
    "releases_url": "https://api.github.com/repos/darcyliu/google-styleguide/releases{/id}",
    "score": 1.0,
    "size": 963,
    "ssh_url": "git@github.com:darcyliu/google-styleguide.git",
    "stargazers_count": 271,
    "stargazers_url": "https://api.github.com/repos/darcyliu/google-styleguide/stargazers",
    "statuses_url": "https://api.github.com/repos/darcyliu/google-styleguide/statuses/{sha}",
    "subscribers_url": "https://api.github.com/repos/darcyliu/google-styleguide/subscribers",
    "subscription_url": "https://api.github.com/repos/darcyliu/google-styleguide/subscription",
    "svn_url": "https://github.com/darcyliu/google-styleguide",
    "tags_url": "https://api.github.com/repos/darcyliu/google-styleguide/tags",
    "teams_url": "https://api.github.com/repos/darcyliu/google-styleguide/teams",
    "trees_url": "https://api.github.com/repos/darcyliu/google-styleguide/git/trees{/sha}",
    "updated_at": "2014-04-28T15:19:51Z",
    "url": "https://api.github.com/repos/darcyliu/google-styleguide",
    "watchers": 271,
    "watchers_count": 271
}