{
    "libs": [
        "lxml",
        "logging",
        "socket",
        "warnings",
        "optparse",
        "unittest2",
        "random",
        "pprint",
        "threading",
        "sys",
        "re",
        "itertools",
        "collections",
        "mock",
        "time",
        "types",
        "path",
        "os",
        "unittest",
        "select"
    ]
}