{
    "archive_url": "https://api.github.com/repos/farcaller/DashDoc/{archive_format}{/ref}",
    "assignees_url": "https://api.github.com/repos/farcaller/DashDoc/assignees{/user}",
    "blobs_url": "https://api.github.com/repos/farcaller/DashDoc/git/blobs{/sha}",
    "branches_url": "https://api.github.com/repos/farcaller/DashDoc/branches{/branch}",
    "clone_url": "https://github.com/farcaller/DashDoc.git",
    "collaborators_url": "https://api.github.com/repos/farcaller/DashDoc/collaborators{/collaborator}",
    "comments_url": "https://api.github.com/repos/farcaller/DashDoc/comments{/number}",
    "commits_url": "https://api.github.com/repos/farcaller/DashDoc/commits{/sha}",
    "compare_url": "https://api.github.com/repos/farcaller/DashDoc/compare/{base}...{head}",
    "contents_url": "https://api.github.com/repos/farcaller/DashDoc/contents/{+path}",
    "contributors_url": "https://api.github.com/repos/farcaller/DashDoc/contributors",
    "created_at": "2012-06-27T11:14:50Z",
    "default_branch": "master",
    "description": "Dash integration for Sublime Text",
    "downloads_url": "https://api.github.com/repos/farcaller/DashDoc/downloads",
    "events_url": "https://api.github.com/repos/farcaller/DashDoc/events",
    "fork": false,
    "forks": 39,
    "forks_count": 39,
    "forks_url": "https://api.github.com/repos/farcaller/DashDoc/forks",
    "full_name": "farcaller/DashDoc",
    "git_commits_url": "https://api.github.com/repos/farcaller/DashDoc/git/commits{/sha}",
    "git_refs_url": "https://api.github.com/repos/farcaller/DashDoc/git/refs{/sha}",
    "git_tags_url": "https://api.github.com/repos/farcaller/DashDoc/git/tags{/sha}",
    "git_url": "git://github.com/farcaller/DashDoc.git",
    "has_downloads": true,
    "has_issues": true,
    "has_wiki": true,
    "homepage": "",
    "hooks_url": "https://api.github.com/repos/farcaller/DashDoc/hooks",
    "html_url": "https://github.com/farcaller/DashDoc",
    "id": 4807373,
    "issue_comment_url": "https://api.github.com/repos/farcaller/DashDoc/issues/comments/{number}",
    "issue_events_url": "https://api.github.com/repos/farcaller/DashDoc/issues/events{/number}",
    "issues_url": "https://api.github.com/repos/farcaller/DashDoc/issues{/number}",
    "keys_url": "https://api.github.com/repos/farcaller/DashDoc/keys{/key_id}",
    "labels_url": "https://api.github.com/repos/farcaller/DashDoc/labels{/name}",
    "language": "Python",
    "languages_url": "https://api.github.com/repos/farcaller/DashDoc/languages",
    "merges_url": "https://api.github.com/repos/farcaller/DashDoc/merges",
    "milestones_url": "https://api.github.com/repos/farcaller/DashDoc/milestones{/number}",
    "mirror_url": null,
    "name": "DashDoc",
    "notifications_url": "https://api.github.com/repos/farcaller/DashDoc/notifications{?since,all,participating}",
    "open_issues": 3,
    "open_issues_count": 3,
    "owner": {
        "avatar_url": "https://avatars.githubusercontent.com/u/693?",
        "events_url": "https://api.github.com/users/farcaller/events{/privacy}",
        "followers_url": "https://api.github.com/users/farcaller/followers",
        "following_url": "https://api.github.com/users/farcaller/following{/other_user}",
        "gists_url": "https://api.github.com/users/farcaller/gists{/gist_id}",
        "gravatar_id": "abc432bb0450574a25b15ff23d399d5a",
        "html_url": "https://github.com/farcaller",
        "id": 693,
        "login": "farcaller",
        "organizations_url": "https://api.github.com/users/farcaller/orgs",
        "received_events_url": "https://api.github.com/users/farcaller/received_events",
        "repos_url": "https://api.github.com/users/farcaller/repos",
        "site_admin": false,
        "starred_url": "https://api.github.com/users/farcaller/starred{/owner}{/repo}",
        "subscriptions_url": "https://api.github.com/users/farcaller/subscriptions",
        "type": "User",
        "url": "https://api.github.com/users/farcaller"
    },
    "private": false,
    "pulls_url": "https://api.github.com/repos/farcaller/DashDoc/pulls{/number}",
    "pushed_at": "2014-03-08T09:53:14Z",
    "releases_url": "https://api.github.com/repos/farcaller/DashDoc/releases{/id}",
    "score": 1.0,
    "size": 299,
    "ssh_url": "git@github.com:farcaller/DashDoc.git",
    "stargazers_count": 410,
    "stargazers_url": "https://api.github.com/repos/farcaller/DashDoc/stargazers",
    "statuses_url": "https://api.github.com/repos/farcaller/DashDoc/statuses/{sha}",
    "subscribers_url": "https://api.github.com/repos/farcaller/DashDoc/subscribers",
    "subscription_url": "https://api.github.com/repos/farcaller/DashDoc/subscription",
    "svn_url": "https://github.com/farcaller/DashDoc",
    "tags_url": "https://api.github.com/repos/farcaller/DashDoc/tags",
    "teams_url": "https://api.github.com/repos/farcaller/DashDoc/teams",
    "trees_url": "https://api.github.com/repos/farcaller/DashDoc/git/trees{/sha}",
    "updated_at": "2014-05-06T11:28:17Z",
    "url": "https://api.github.com/repos/farcaller/DashDoc",
    "watchers": 410,
    "watchers_count": 410
}