{
    "libs": [
        "code",
        "random",
        "datetime",
        "struct",
        "UserList",
        "tempfile",
        "pprint",
        "imp",
        "collections",
        "cProfile",
        "pycodegen",
        "string",
        "SocketServer",
        "zipfile",
        "textwrap",
        "dat",
        "subprocess",
        "cookielib",
        "magic",
        "h",
        "Utils",
        "pydoc",
        "sha",
        "dummy_thread",
        "greenlet",
        "cmemcache",
        "cStringIO",
        "with_statement",
        "operator",
        "threading",
        "urllib",
        "re",
        "template",
        "math",
        "UserDict",
        "inspect",
        "ctypes",
        "codecs",
        "path",
        "posixpath",
        "logging",
        "socket",
        "thread",
        "handlers",
        "traceback",
        "pkg_resources",
        "weakref",
        "itertools",
        "pstats",
        "os",
        "marshal",
        "__builtin__",
        "loader",
        "api",
        "IPython",
        "pkgutil",
        "errno",
        "json",
        "Cookie",
        "tokenize",
        "md5",
        "cPickle",
        "B",
        "simplejson",
        "memcache",
        "copy",
        "unicodedata",
        "zlib",
        "fnmatch",
        "contextlib",
        "shutil",
        "lxml",
        "OpenSSL",
        "html",
        "getopt",
        "_speedups",
        "profile",
        "mimetypes",
        "warnings",
        "sets",
        "htmlentitydefs",
        "urllib2",
        "sys",
        "debugrenderer",
        "fl",
        "types",
        "util",
        "xmlrpclib",
        "urlparse",
        "time",
        "hmac"
    ]
}