[
    "devserver.modules",
    "modules.cache",
    "devserver.settings",
    "devserver.modules.ajax",
    "request",
    "utils",
    "devserver.management",
    "devserver",
    "devserver.modules.request",
    "testcases",
    "utils.stats",
    "devserver.tests",
    "devserver.management.commands",
    "commands.runserver",
    "devserver.models",
    "devserver.testcases",
    "management",
    "stats",
    "management.commands.runserver",
    "devserver.management.commands.runserver",
    "cache",
    "devserver.utils",
    "runserver",
    "modules.ajax",
    "logger",
    "modules.profile",
    "profile",
    "devserver.modules.profile",
    "tests",
    "http",
    "modules.sql",
    "models",
    "utils.time",
    "time",
    "devserver.middleware",
    "modules.request",
    "ajax",
    "devserver.modules.cache",
    "sql",
    "devserver.utils.http",
    "stack",
    "devserver.logger",
    "commands",
    "devserver.utils.time",
    "devserver.utils.stack",
    "handlers",
    "utils.http",
    "middleware",
    "settings",
    "modules",
    "devserver.modules.sql",
    "devserver.handlers",
    "devserver.utils.stats",
    "management.commands",
    "utils.stack"
]