{
    "libs": [
        "cStringIO",
        "myobject",
        "html4css1",
        "division",
        "image",
        "pylab",
        "misc",
        "segmentation",
        "transform",
        "feature_extraction",
        "cluster",
        "api",
        "ctypeslib",
        "morphology",
        "images",
        "docutils",
        "shutil",
        "pyamg",
        "skimage",
        "latex",
        "lib",
        "re",
        "agile",
        "pyplot",
        "chaco_plot_editor",
        "feature",
        "imp",
        "directives",
        "mandel",
        "tokenize",
        "integrate",
        "nodes",
        "functools",
        "gridspec",
        "mplot3d",
        "mixture",
        "warnings",
        "itertools",
        "glob",
        "mayavi",
        "interpolate",
        "fortran_module",
        "sys",
        "joblib",
        "latexwriter",
        "scipy",
        "linalg",
        "mathtext",
        "rst",
        "pickle",
        "ticker",
        "gallery",
        "types",
        "md5",
        "cbook",
        "sphinx",
        "lexer",
        "util",
        "h",
        "Image",
        "traceback",
        "cos_module_np",
        "filter",
        "token",
        "doctest",
        "sparse",
        "time",
        "ndimage",
        "dsolve",
        "os",
        "pdb",
        "sklearn"
    ]
}