{
    "archive_url": "https://api.github.com/repos/uggedal/reprise/{archive_format}{/ref}",
    "assignees_url": "https://api.github.com/repos/uggedal/reprise/assignees{/user}",
    "blobs_url": "https://api.github.com/repos/uggedal/reprise/git/blobs{/sha}",
    "branches_url": "https://api.github.com/repos/uggedal/reprise/branches{/branch}",
    "clone_url": "https://github.com/uggedal/reprise.git",
    "collaborators_url": "https://api.github.com/repos/uggedal/reprise/collaborators{/collaborator}",
    "comments_url": "https://api.github.com/repos/uggedal/reprise/comments{/number}",
    "commits_url": "https://api.github.com/repos/uggedal/reprise/commits{/sha}",
    "compare_url": "https://api.github.com/repos/uggedal/reprise/compare/{base}...{head}",
    "contents_url": "https://api.github.com/repos/uggedal/reprise/contents/{+path}",
    "contributors_url": "https://api.github.com/repos/uggedal/reprise/contributors",
    "created_at": "2008-06-29T18:47:10Z",
    "default_branch": "master",
    "description": "Minimal static blog with atom and tag support",
    "downloads_url": "https://api.github.com/repos/uggedal/reprise/downloads",
    "events_url": "https://api.github.com/repos/uggedal/reprise/events",
    "fork": false,
    "forks": 8,
    "forks_count": 8,
    "forks_url": "https://api.github.com/repos/uggedal/reprise/forks",
    "full_name": "uggedal/reprise",
    "git_commits_url": "https://api.github.com/repos/uggedal/reprise/git/commits{/sha}",
    "git_refs_url": "https://api.github.com/repos/uggedal/reprise/git/refs{/sha}",
    "git_tags_url": "https://api.github.com/repos/uggedal/reprise/git/tags{/sha}",
    "git_url": "git://github.com/uggedal/reprise.git",
    "has_downloads": false,
    "has_issues": false,
    "has_wiki": false,
    "homepage": "http://journal.uggedal.com",
    "hooks_url": "https://api.github.com/repos/uggedal/reprise/hooks",
    "html_url": "https://github.com/uggedal/reprise",
    "id": 29799,
    "issue_comment_url": "https://api.github.com/repos/uggedal/reprise/issues/comments/{number}",
    "issue_events_url": "https://api.github.com/repos/uggedal/reprise/issues/events{/number}",
    "issues_url": "https://api.github.com/repos/uggedal/reprise/issues{/number}",
    "keys_url": "https://api.github.com/repos/uggedal/reprise/keys{/key_id}",
    "labels_url": "https://api.github.com/repos/uggedal/reprise/labels{/name}",
    "language": "Python",
    "languages_url": "https://api.github.com/repos/uggedal/reprise/languages",
    "merges_url": "https://api.github.com/repos/uggedal/reprise/merges",
    "milestones_url": "https://api.github.com/repos/uggedal/reprise/milestones{/number}",
    "mirror_url": null,
    "name": "reprise",
    "notifications_url": "https://api.github.com/repos/uggedal/reprise/notifications{?since,all,participating}",
    "open_issues": 0,
    "open_issues_count": 0,
    "owner": {
        "avatar_url": "https://avatars.githubusercontent.com/u/71?",
        "events_url": "https://api.github.com/users/uggedal/events{/privacy}",
        "followers_url": "https://api.github.com/users/uggedal/followers",
        "following_url": "https://api.github.com/users/uggedal/following{/other_user}",
        "gists_url": "https://api.github.com/users/uggedal/gists{/gist_id}",
        "gravatar_id": "0339e3df937c32000f9e2cf1de04298d",
        "html_url": "https://github.com/uggedal",
        "id": 71,
        "login": "uggedal",
        "organizations_url": "https://api.github.com/users/uggedal/orgs",
        "received_events_url": "https://api.github.com/users/uggedal/received_events",
        "repos_url": "https://api.github.com/users/uggedal/repos",
        "site_admin": false,
        "starred_url": "https://api.github.com/users/uggedal/starred{/owner}{/repo}",
        "subscriptions_url": "https://api.github.com/users/uggedal/subscriptions",
        "type": "User",
        "url": "https://api.github.com/users/uggedal"
    },
    "private": false,
    "pulls_url": "https://api.github.com/repos/uggedal/reprise/pulls{/number}",
    "pushed_at": "2010-06-06T09:01:03Z",
    "releases_url": "https://api.github.com/repos/uggedal/reprise/releases{/id}",
    "score": 1.0,
    "size": 134,
    "ssh_url": "git@github.com:uggedal/reprise.git",
    "stargazers_count": 73,
    "stargazers_url": "https://api.github.com/repos/uggedal/reprise/stargazers",
    "statuses_url": "https://api.github.com/repos/uggedal/reprise/statuses/{sha}",
    "subscribers_url": "https://api.github.com/repos/uggedal/reprise/subscribers",
    "subscription_url": "https://api.github.com/repos/uggedal/reprise/subscription",
    "svn_url": "https://github.com/uggedal/reprise",
    "tags_url": "https://api.github.com/repos/uggedal/reprise/tags",
    "teams_url": "https://api.github.com/repos/uggedal/reprise/teams",
    "trees_url": "https://api.github.com/repos/uggedal/reprise/git/trees{/sha}",
    "updated_at": "2014-01-06T00:05:42Z",
    "url": "https://api.github.com/repos/uggedal/reprise",
    "watchers": 73,
    "watchers_count": 73
}