{
    "libs": [
        "logr",
        "random",
        "datetime",
        "array",
        "shutil",
        "plex_b",
        "lxml",
        "struct",
        "re",
        "select",
        "math",
        "fcntl",
        "urllib2",
        "sys",
        "ctypes",
        "copy",
        "wintypes",
        "uuid",
        "b",
        "logging",
        "socket",
        "sync_b",
        "h",
        "traceback",
        "urlparse",
        "threading",
        "itertools",
        "t",
        "time",
        "os",
        "sync_t"
    ]
}