{
    "libs": [
        "operations",
        "unittest",
        "datetime",
        "api",
        "contextlib",
        "speaklater",
        "gettext",
        "Cipher",
        "smtplib",
        "functools",
        "string",
        "sys",
        "fl",
        "itsdangerous",
        "print_function",
        "b",
        "socket",
        "h",
        "wtforms",
        "time",
        "os",
        "hmac"
    ]
}