{
    "archive_url": "https://api.github.com/repos/portante/pycscope/{archive_format}{/ref}",
    "assignees_url": "https://api.github.com/repos/portante/pycscope/assignees{/user}",
    "blobs_url": "https://api.github.com/repos/portante/pycscope/git/blobs{/sha}",
    "branches_url": "https://api.github.com/repos/portante/pycscope/branches{/branch}",
    "clone_url": "https://github.com/portante/pycscope.git",
    "collaborators_url": "https://api.github.com/repos/portante/pycscope/collaborators{/collaborator}",
    "comments_url": "https://api.github.com/repos/portante/pycscope/comments{/number}",
    "commits_url": "https://api.github.com/repos/portante/pycscope/commits{/sha}",
    "compare_url": "https://api.github.com/repos/portante/pycscope/compare/{base}...{head}",
    "contents_url": "https://api.github.com/repos/portante/pycscope/contents/{+path}",
    "contributors_url": "https://api.github.com/repos/portante/pycscope/contributors",
    "created_at": "2012-03-04T13:27:40Z",
    "default_branch": "master",
    "description": "Cscope database generator for Python source code",
    "downloads_url": "https://api.github.com/repos/portante/pycscope/downloads",
    "events_url": "https://api.github.com/repos/portante/pycscope/events",
    "fork": false,
    "forks": 10,
    "forks_count": 10,
    "forks_url": "https://api.github.com/repos/portante/pycscope/forks",
    "full_name": "portante/pycscope",
    "git_commits_url": "https://api.github.com/repos/portante/pycscope/git/commits{/sha}",
    "git_refs_url": "https://api.github.com/repos/portante/pycscope/git/refs{/sha}",
    "git_tags_url": "https://api.github.com/repos/portante/pycscope/git/tags{/sha}",
    "git_url": "git://github.com/portante/pycscope.git",
    "has_downloads": true,
    "has_issues": true,
    "has_wiki": true,
    "homepage": "",
    "hooks_url": "https://api.github.com/repos/portante/pycscope/hooks",
    "html_url": "https://github.com/portante/pycscope",
    "id": 3618292,
    "issue_comment_url": "https://api.github.com/repos/portante/pycscope/issues/comments/{number}",
    "issue_events_url": "https://api.github.com/repos/portante/pycscope/issues/events{/number}",
    "issues_url": "https://api.github.com/repos/portante/pycscope/issues{/number}",
    "keys_url": "https://api.github.com/repos/portante/pycscope/keys{/key_id}",
    "labels_url": "https://api.github.com/repos/portante/pycscope/labels{/name}",
    "language": "Python",
    "languages_url": "https://api.github.com/repos/portante/pycscope/languages",
    "merges_url": "https://api.github.com/repos/portante/pycscope/merges",
    "milestones_url": "https://api.github.com/repos/portante/pycscope/milestones{/number}",
    "mirror_url": null,
    "name": "pycscope",
    "notifications_url": "https://api.github.com/repos/portante/pycscope/notifications{?since,all,participating}",
    "open_issues": 8,
    "open_issues_count": 8,
    "owner": {
        "avatar_url": "https://avatars.githubusercontent.com/u/949097?",
        "events_url": "https://api.github.com/users/portante/events{/privacy}",
        "followers_url": "https://api.github.com/users/portante/followers",
        "following_url": "https://api.github.com/users/portante/following{/other_user}",
        "gists_url": "https://api.github.com/users/portante/gists{/gist_id}",
        "gravatar_id": "d88fc8cfcc2834c925324254770f7f59",
        "html_url": "https://github.com/portante",
        "id": 949097,
        "login": "portante",
        "organizations_url": "https://api.github.com/users/portante/orgs",
        "received_events_url": "https://api.github.com/users/portante/received_events",
        "repos_url": "https://api.github.com/users/portante/repos",
        "site_admin": false,
        "starred_url": "https://api.github.com/users/portante/starred{/owner}{/repo}",
        "subscriptions_url": "https://api.github.com/users/portante/subscriptions",
        "type": "User",
        "url": "https://api.github.com/users/portante"
    },
    "private": false,
    "pulls_url": "https://api.github.com/repos/portante/pycscope/pulls{/number}",
    "pushed_at": "2013-03-17T02:59:43Z",
    "releases_url": "https://api.github.com/repos/portante/pycscope/releases{/id}",
    "score": 1.0,
    "size": 349,
    "ssh_url": "git@github.com:portante/pycscope.git",
    "stargazers_count": 43,
    "stargazers_url": "https://api.github.com/repos/portante/pycscope/stargazers",
    "statuses_url": "https://api.github.com/repos/portante/pycscope/statuses/{sha}",
    "subscribers_url": "https://api.github.com/repos/portante/pycscope/subscribers",
    "subscription_url": "https://api.github.com/repos/portante/pycscope/subscription",
    "svn_url": "https://github.com/portante/pycscope",
    "tags_url": "https://api.github.com/repos/portante/pycscope/tags",
    "teams_url": "https://api.github.com/repos/portante/pycscope/teams",
    "trees_url": "https://api.github.com/repos/portante/pycscope/git/trees{/sha}",
    "updated_at": "2014-05-03T08:22:06Z",
    "url": "https://api.github.com/repos/portante/pycscope",
    "watchers": 43,
    "watchers_count": 43
}