{
    "libs": [
        "parse",
        "socket",
        "unittest",
        "urllib",
        "unittest2",
        "sys",
        "json",
        "httplib2",
        "os",
        "functools",
        "mock"
    ]
}