[
    "tests",
    "blinker",
    "_saferef",
    "docs",
    "tests.test_context",
    "source.conf",
    "base",
    "conf",
    "test_context",
    "_utilities",
    "docs.source",
    "tests.test_saferef",
    "blinker._saferef",
    "docs.source.conf",
    "source",
    "test_signals",
    "tests.test_signals",
    "blinker.base",
    "test_utilities",
    "blinker._utilities",
    "tests.test_utilities",
    "test_saferef"
]