{
    "libs": [
        "fcntl",
        "random",
        "logging",
        "socket",
        "python",
        "h",
        "unittest",
        "six",
        "sys",
        "md5",
        "time",
        "internet",
        "operator",
        "copy",
        "os",
        "select",
        "struct"
    ]
}