{
    "archive_url": "https://api.github.com/repos/wichert/pyrad/{archive_format}{/ref}",
    "assignees_url": "https://api.github.com/repos/wichert/pyrad/assignees{/user}",
    "blobs_url": "https://api.github.com/repos/wichert/pyrad/git/blobs{/sha}",
    "branches_url": "https://api.github.com/repos/wichert/pyrad/branches{/branch}",
    "clone_url": "https://github.com/wichert/pyrad.git",
    "collaborators_url": "https://api.github.com/repos/wichert/pyrad/collaborators{/collaborator}",
    "comments_url": "https://api.github.com/repos/wichert/pyrad/comments{/number}",
    "commits_url": "https://api.github.com/repos/wichert/pyrad/commits{/sha}",
    "compare_url": "https://api.github.com/repos/wichert/pyrad/compare/{base}...{head}",
    "contents_url": "https://api.github.com/repos/wichert/pyrad/contents/{+path}",
    "contributors_url": "https://api.github.com/repos/wichert/pyrad/contributors",
    "created_at": "2011-04-21T10:56:30Z",
    "default_branch": "master",
    "description": "Python RADIUS implementation",
    "downloads_url": "https://api.github.com/repos/wichert/pyrad/downloads",
    "events_url": "https://api.github.com/repos/wichert/pyrad/events",
    "fork": false,
    "forks": 25,
    "forks_count": 25,
    "forks_url": "https://api.github.com/repos/wichert/pyrad/forks",
    "full_name": "wichert/pyrad",
    "git_commits_url": "https://api.github.com/repos/wichert/pyrad/git/commits{/sha}",
    "git_refs_url": "https://api.github.com/repos/wichert/pyrad/git/refs{/sha}",
    "git_tags_url": "https://api.github.com/repos/wichert/pyrad/git/tags{/sha}",
    "git_url": "git://github.com/wichert/pyrad.git",
    "has_downloads": true,
    "has_issues": true,
    "has_wiki": true,
    "homepage": "",
    "hooks_url": "https://api.github.com/repos/wichert/pyrad/hooks",
    "html_url": "https://github.com/wichert/pyrad",
    "id": 1644931,
    "issue_comment_url": "https://api.github.com/repos/wichert/pyrad/issues/comments/{number}",
    "issue_events_url": "https://api.github.com/repos/wichert/pyrad/issues/events{/number}",
    "issues_url": "https://api.github.com/repos/wichert/pyrad/issues{/number}",
    "keys_url": "https://api.github.com/repos/wichert/pyrad/keys{/key_id}",
    "labels_url": "https://api.github.com/repos/wichert/pyrad/labels{/name}",
    "language": "Python",
    "languages_url": "https://api.github.com/repos/wichert/pyrad/languages",
    "merges_url": "https://api.github.com/repos/wichert/pyrad/merges",
    "milestones_url": "https://api.github.com/repos/wichert/pyrad/milestones{/number}",
    "mirror_url": null,
    "name": "pyrad",
    "notifications_url": "https://api.github.com/repos/wichert/pyrad/notifications{?since,all,participating}",
    "open_issues": 18,
    "open_issues_count": 18,
    "owner": {
        "avatar_url": "https://avatars.githubusercontent.com/u/199657?",
        "events_url": "https://api.github.com/users/wichert/events{/privacy}",
        "followers_url": "https://api.github.com/users/wichert/followers",
        "following_url": "https://api.github.com/users/wichert/following{/other_user}",
        "gists_url": "https://api.github.com/users/wichert/gists{/gist_id}",
        "gravatar_id": "cd6e516ad2850fd77a3b20448251f3ca",
        "html_url": "https://github.com/wichert",
        "id": 199657,
        "login": "wichert",
        "organizations_url": "https://api.github.com/users/wichert/orgs",
        "received_events_url": "https://api.github.com/users/wichert/received_events",
        "repos_url": "https://api.github.com/users/wichert/repos",
        "site_admin": false,
        "starred_url": "https://api.github.com/users/wichert/starred{/owner}{/repo}",
        "subscriptions_url": "https://api.github.com/users/wichert/subscriptions",
        "type": "User",
        "url": "https://api.github.com/users/wichert"
    },
    "private": false,
    "pulls_url": "https://api.github.com/repos/wichert/pyrad/pulls{/number}",
    "pushed_at": "2013-07-01T15:57:16Z",
    "releases_url": "https://api.github.com/repos/wichert/pyrad/releases{/id}",
    "score": 1.0,
    "size": 534,
    "ssh_url": "git@github.com:wichert/pyrad.git",
    "stargazers_count": 41,
    "stargazers_url": "https://api.github.com/repos/wichert/pyrad/stargazers",
    "statuses_url": "https://api.github.com/repos/wichert/pyrad/statuses/{sha}",
    "subscribers_url": "https://api.github.com/repos/wichert/pyrad/subscribers",
    "subscription_url": "https://api.github.com/repos/wichert/pyrad/subscription",
    "svn_url": "https://github.com/wichert/pyrad",
    "tags_url": "https://api.github.com/repos/wichert/pyrad/tags",
    "teams_url": "https://api.github.com/repos/wichert/pyrad/teams",
    "trees_url": "https://api.github.com/repos/wichert/pyrad/git/trees{/sha}",
    "updated_at": "2014-05-06T02:52:56Z",
    "url": "https://api.github.com/repos/wichert/pyrad",
    "watchers": 41,
    "watchers_count": 41
}