[
    "testTools",
    "testProxy",
    "example.auth",
    "tests.testTools",
    "pyrad.client",
    "dictfile",
    "pyrad.dictionary",
    "testBidict",
    "packet",
    "pyrad",
    "pyrad.server",
    "conf",
    "tests.testDictionary",
    "curved",
    "tests.testProxy",
    "testClient",
    "pyrad.tests",
    "pyrad.tests.testBidict",
    "pyrad.tests.testHost",
    "tests.testClient",
    "example.server",
    "tools",
    "bidict",
    "pyrad.tests.testPacket",
    "pyrad.packet",
    "pyrad.host",
    "tests.testServer",
    "mock",
    "tests",
    "dictionary",
    "tests.testPacket",
    "tests.testBidict",
    "docs",
    "acct",
    "auth",
    "pyrad.tests.testProxy",
    "example.acct",
    "host",
    "proxy",
    "tests.mock",
    "testHost",
    "pyrad.dictfile",
    "pyrad.tests.mock",
    "docs.conf",
    "pyrad.tools",
    "pyrad.curved",
    "testDictionary",
    "testServer",
    "pyrad.tests.testDictionary",
    "testPacket",
    "pyrad.proxy",
    "pyrad.tests.testTools",
    "tests.testHost",
    "pyrad.tests.testClient",
    "client",
    "pyrad.bidict",
    "server",
    "pyrad.tests.testServer",
    "example"
]