{
    "libs": [
        "cStringIO",
        "functools",
        "datetime",
        "parsers",
        "httplib",
        "ElementTree",
        "tools",
        "handlers",
        "uuid",
        "subprocess",
        "pprint",
        "urllib",
        "re",
        "json",
        "werkzeug",
        "csv",
        "stat",
        "string",
        "optparse",
        "UserDict",
        "inspect",
        "urllib2",
        "sys",
        "copy",
        "fl",
        "md5",
        "unicodedata",
        "b",
        "logging",
        "BibTexParser",
        "h",
        "traceback",
        "pyes",
        "chardet",
        "time",
        "requests",
        "os"
    ]
}