{
    "libs": [
        "protocol",
        "functools",
        "random",
        "subprocess",
        "importlib",
        "tx",
        "lua",
        "tempfile",
        "platform",
        "collections",
        "cProfile",
        "servicemanager",
        "bin",
        "win32event",
        "util",
        "ssl",
        "libs",
        "datetime",
        "cookielib",
        "httplib",
        "resource",
        "h",
        "queues",
        "uuid",
        "threading",
        "t",
        "signal",
        "cookies",
        "stat",
        "_winreg",
        "compat",
        "urllib",
        "docutils",
        "template",
        "math",
        "fcntl",
        "optparse",
        "inspect",
        "Queue",
        "ctypes",
        "re",
        "win32service",
        "struct",
        "logging",
        "socket",
        "traceback",
        "multiprocessing",
        "weakref",
        "itertools",
        "pstats",
        "os",
        "win32api",
        "unittest",
        "contrib",
        "select",
        "cookiejar",
        "imp",
        "errno",
        "Cookie",
        "cPickle",
        "shell",
        "pwd",
        "copy",
        "b",
        "wintypes",
        "setup",
        "zlib",
        "endpoints",
        "pickle",
        "defer",
        "shortcuts",
        "parse",
        "io",
        "_dictconfig",
        "shutil",
        "string",
        "queue",
        "__pypy__",
        "grp",
        "getp",
        "mock",
        "mimetypes",
        "glob",
        "urllib2",
        "sys",
        "gzip",
        "types",
        "urlparse",
        "win32serviceutil",
        "time",
        "pythoncom"
    ]
}