[
    "wsgi",
    "example_project.urls",
    "example_sqlite.example_project",
    "manage",
    "example_sqlite.manage",
    "example_postgis",
    "example_sqlite",
    "example_project.admin",
    "example_sqlite.example_project.models",
    "example_project.settings",
    "example_postgis.example_project.settings",
    "example_sqlite.example_project.urls",
    "example_sqlite.example_project.settings",
    "example_postgis.example_project.admin",
    "example_postgis.manage",
    "example_project",
    "forms",
    "location_field.tests",
    "widgets",
    "tests",
    "example_postgis.example_project",
    "views",
    "models",
    "location_field.forms",
    "example_sqlite.example_project.admin",
    "location_field.views",
    "example_project.wsgi",
    "location_field.models",
    "example_postgis.example_project.models",
    "location_field.urls",
    "example_postgis.example_project.wsgi",
    "location_field",
    "example_postgis.example_project.urls",
    "settings",
    "admin",
    "example_sqlite.example_project.wsgi",
    "location_field.widgets",
    "example_project.models",
    "urls"
]