[
    "mockredis.tests.test_redis",
    "tests.test_list",
    "test_normalize",
    "tests.test_set",
    "lock",
    "mockredis.pipeline",
    "test_scan",
    "mockredis.tests.test_pubsub",
    "test_script",
    "mockredis.tests.test_set",
    "test_hash",
    "fixtures",
    "tests.fixtures",
    "mockredis",
    "tests.test_scan",
    "mockredis.tests.test_zset",
    "test_set",
    "clock",
    "mockredis.tests.fixtures",
    "mockredis.tests.test_scan",
    "tests.test_hash",
    "test_pipeline",
    "test_redis",
    "mockredis.clock",
    "mockredis.tests.test_factories",
    "test_factories",
    "tests.test_zset",
    "mockredis.script",
    "tests",
    "mockredis.tests.test_constants",
    "mockredis.tests.test_script",
    "mockredis.tests.test_sortedset",
    "mockredis.noseplugin",
    "tests.test_script",
    "tests.test_sortedset",
    "mockredis.tests.test_pipeline",
    "mockredis.tests.test_list",
    "mockredis.tests",
    "tests.test_normalize",
    "test_constants",
    "test_pubsub",
    "test_list",
    "test_string",
    "mockredis.tests.test_string",
    "pipeline",
    "tests.test_factories",
    "tests.test_constants",
    "mockredis.tests.test_hash",
    "noseplugin",
    "tests.test_string",
    "tests.test_pipeline",
    "mockredis.client",
    "sortedset",
    "mockredis.sortedset",
    "script",
    "client",
    "mockredis.lock",
    "mockredis.exceptions",
    "mockredis.tests.test_normalize",
    "exceptions",
    "test_zset",
    "test_sortedset",
    "tests.test_redis",
    "tests.test_pubsub"
]