[
    "smtp_channel",
    "examples.ssl_server",
    "store_credentials",
    "secure_smtpd.process_pool",
    "examples.evil_ssl_client",
    "examples",
    "examples.benchmarking.server",
    "secure_smtpd.smtp_channel",
    "secure_smtpd.config.log",
    "log",
    "secure_smtpd",
    "secure_smtpd.proxy_server",
    "config.log",
    "smtp_server",
    "secure_smtpd.smtp_server",
    "secure_smtpd.store_credentials",
    "config",
    "proxy_server",
    "benchmarking.server",
    "process_pool",
    "benchmarking.client",
    "examples.mail_relay",
    "ssl_server",
    "ssl_client",
    "secure_smtpd.config",
    "examples.benchmarking.client",
    "fake_credential_validator",
    "examples.benchmarking",
    "evil_ssl_client",
    "secure_smtpd.fake_credential_validator",
    "server",
    "client",
    "mail_relay",
    "examples.ssl_client",
    "benchmarking"
]