[
    "transports.mxit.tests.test_mxit",
    "middleware.manhole",
    "tests.test_message_store",
    "wechat.message_types",
    "application.tests.test_sandbox",
    "transports.mtn_rwanda",
    "components.message_store_resource",
    "mediafonemc.tests",
    "vumi.blinkenlights.tests.test_metrics",
    "twisted.plugins.vumi_worker_starter",
    "vumi.transports.irc.tests.test_irc",
    "vumi.persist.model",
    "test_mtn_nigeria",
    "tests.test_imimobile_ussd",
    "db_backup",
    "test_httprpc",
    "smpp.deprecated.service",
    "vumi.transports.cellulant.tests.test_cellulant",
    "vumi.scripts.parse_log_messages",
    "vumi.transports.mediafonemc.tests",
    "parlayx.tests.utils",
    "tests.test_schedule_manager",
    "redis_base",
    "transports.cellulant",
    "test_parlayx",
    "vumi.demos.hangman",
    "test_utils",
    "vumi.transports.mtn_nigeria.tests.test_mtn_nigeria",
    "tests.test_netcore",
    "persist.tests.test_fake_redis",
    "dispatchers.endpoint_dispatchers",
    "heartbeat.tests.test_publisher",
    "vumi.transports.integrat.tests.test_integrat",
    "tests.test_infobip",
    "vumi.middleware.tests.test_message_storing",
    "mtn_rwanda_ussd",
    "vumi.blinkenlights.tests.test_message20110707",
    "tests.test_publisher",
    "vumi.transports.imimobile.imimobile_ussd",
    "components.message_store_migrators",
    "plugins",
    "vumi.persist.ast_magic",
    "transports.smpp.deprecated.clientserver.tests.test_client",
    "errors",
    "tests.test_rpc",
    "transports.mtn_nigeria.xml_over_tcp",
    "test_mxit",
    "transports.mediafonemc.tests.test_mediafonemc",
    "transports.vas2nets.tests",
    "vumi.transports.smpp.deprecated.service",
    "persist.model",
    "tests.test_smssync",
    "truteq.tests.test_truteq",
    "vumi.application.http_relay",
    "vumi.dispatchers.simple.tests.test_dispatcher",
    "vumi.transports.mtn_nigeria.tests",
    "persist.txriak_manager",
    "vumi",
    "vumi.transports.smpp.protocol",
    "demos.hangman",
    "publisher",
    "transports.airtel.tests.test_airtel",
    "vumi.sentry",
    "transports.smpp.tests.test_smpp_transport",
    "rapidsms_relay",
    "transports.smpp.tests.test_protocol",
    "transports.smpp.deprecated.clientserver.tests",
    "vumi.blinkenlights.heartbeat.publisher",
    "vumi.application.base",
    "test_cellulant_sms",
    "tests.test_message_store_resource",
    "vumi.transports.smpp.deprecated.clientserver.client",
    "vumi.tests.test_test_helpers",
    "vumi.transports.smpp.tests",
    "parlayx.soaputil",
    "vumi.transports.airtel.airtel",
    "transports.scheduler",
    "test_test_helpers",
    "test_txriak_manager",
    "telnet.telnet",
    "vumi.transports.xmpp",
    "vumi.demos.tests.test_calculator",
    "vumi_bridge.vumi_bridge",
    "transports.mxit",
    "tests.test_dispatcher",
    "calculator",
    "vumi.errors",
    "test_tagpool",
    "vumi.application",
    "processors.mica",
    "deprecated.clientserver.tests",
    "vumi.transports.httprpc.tests.test_httprpc",
    "transports.tests",
    "deprecated.clientserver",
    "transports.httprpc",
    "vumi.transports.api",
    "vumi.transports.parlayx.xmlutil",
    "clientserver.tests.test_client",
    "test_static_reply",
    "sentry",
    "vumi.dispatchers",
    "xmlutil",
    "test_vumi_tagpools",
    "httprpc.auth",
    "test_servicemaker",
    "vumi.transports.integrat",
    "demos.tests.test_words",
    "smpp.sequence",
    "tests.test_calculator",
    "clientserver.server",
    "vumi.blinkenlights.heartbeat",
    "transports.trueafrican.tests.test_transport",
    "test_mtech_kenya",
    "mediaedgegsm.tests.test_mediaedgegsm",
    "demos.tests.test_static_reply",
    "wechat.tests",
    "clear_redis",
    "processors",
    "smpp.tests.test_sequence",
    "blinkenlights.tests.test_metrics",
    "vumi.transports.mtech_kenya.tests",
    "vumi.transports.airtel",
    "vumi.components.tests.test_tagpool",
    "vumi.transports.vodacom_messaging.vodacom_messaging",
    "tests.test_devnull",
    "config",
    "cellulant.tests.test_cellulant_sms",
    "vumi.transports.twitter.tests",
    "tests.test_servicemaker",
    "smpp.pdu_utils",
    "vumi.scripts.db_backup",
    "pdu_utils",
    "servicemaker",
    "vumi.transports.dmark.tests",
    "transports.smpp.sequence",
    "mtech_kenya.mtech_kenya",
    "transports.vumi_bridge.tests.test_client",
    "tests.test_transport",
    "transports.smpp.deprecated.utils",
    "transports.cellulant.tests.test_cellulant_sms",
    "transports.parlayx",
    "vumi.transports.imimobile.tests",
    "vumi.transports.api.tests.test_oldapi",
    "transports.cellulant.tests",
    "persist.tests.test_txriak_manager",
    "transports.vas2nets.tests.test_failures",
    "application.tests.helpers",
    "vumi.transports.mxit.tests",
    "transports.mtn_rwanda.mtn_rwanda_ussd",
    "blinkenlights.heartbeat.tests.test_monitor",
    "vumi.transports.vas2nets.tests.test_vas2nets_stubs",
    "endpoint_dispatchers",
    "vumi.transports.tests.test_scheduler",
    "mtn_nigeria.tests.test_mtn_nigeria",
    "xmpp",
    "test_db_backup",
    "transports.opera.utils",
    "schedule_manager",
    "tests.test_mtech_ussd",
    "transports.api.api",
    "tests.test_config",
    "test_tagger",
    "persist.redis_base",
    "vumi.transports.vumi_bridge.vumi_bridge",
    "demos.words",
    "transports.netcore",
    "vumi.transports.airtel.tests",
    "trueafrican",
    "blinkenlights.message20110818",
    "demos.tests.test_tictactoe",
    "tests.test_metrics",
    "vumi.transports.smssync.smssync",
    "devnull",
    "address_translator",
    "vumi.scripts.model_migrator",
    "test_infobip",
    "components.message_store",
    "transports.truteq.tests",
    "vumi.middleware.tests.test_base",
    "vumi.middleware.manhole_utils",
    "vumi.dispatchers.tests.helpers",
    "tests.test_model_migrator",
    "docs.conf",
    "transports.vumi_bridge.tests",
    "application.tests.test_session",
    "test_message_store_api",
    "tests.test_service",
    "vumi.application.tests",
    "test_soaputil",
    "irc.tests",
    "opera.opera",
    "vumi.transports.telnet.tests",
    "test_devnull",
    "cellulant.tests",
    "transports.parlayx.soaputil",
    "tests.test_fake_redis",
    "ast_magic",
    "components.window_manager",
    "manhole_utils",
    "test_txredis_manager",
    "vumi.tests.test_connectors",
    "transports.safaricom.tests.test_safaricom",
    "vumi.middleware.logging",
    "test_model",
    "test_sequence",
    "test_smpp",
    "vumi.tests.test_message",
    "transport_stubs",
    "xmpp.tests.test_xmpp_stubs",
    "test_xmpp_stubs",
    "test_ircbot",
    "transports.trueafrican",
    "base",
    "transports.mtech_ussd.tests.test_mtech_ussd",
    "logging",
    "vumi.blinkenlights.message20110707",
    "vumi.transports.tests.test_base",
    "vumi.transports.httprpc.tests",
    "test_session",
    "simple.dispatcher",
    "test_message",
    "smpp.processors",
    "heartbeat",
    "vumi.transports.mtn_rwanda.mtn_rwanda_ussd",
    "transports.infobip.infobip",
    "vumi.tests.test_multiworker",
    "vumi.middleware.base",
    "vumi.blinkenlights.tests.test_metrics_workers",
    "dispatchers.tests",
    "vumi.transports.integrat.integrat",
    "persist.fake_redis",
    "tests.test_soaputil",
    "tests.test_irc",
    "service",
    "vumi.transports.scheduler",
    "vumi.transports.wechat.message_types",
    "twisted",
    "transports.httprpc.tests.test_auth",
    "vumi.transports.trueafrican.tests",
    "middleware.tests.test_tagger",
    "transports.vas2nets.tests.test_vas2nets",
    "transports.twitter.tests",
    "vumi.dispatchers.tests.test_endpoint_dispatchers",
    "parlayx.tests.test_parlayx",
    "application.base",
    "parlayx.client",
    "docs.intro.scaleconf01",
    "vas2nets.tests.test_failures",
    "docs.intro.scaleconf02",
    "tests.test_tictactoe",
    "transports.airtel.tests",
    "demos.tests.test_rps",
    "static_reply",
    "tests.test_multiworker",
    "transports.mtn_nigeria.tests.utils",
    "vumi.dispatchers.tests",
    "transports.irc",
    "test_mtn_rwanda_ussd",
    "tests.test_wechat",
    "test_sandbox_rlimiter",
    "test_imimobile_ussd",
    "transports.smpp.protocol",
    "tests.test_xml_over_tcp",
    "scaleconf01",
    "imimobile_ussd",
    "transports.smpp.deprecated.service",
    "tests.test_twitter",
    "vumi.middleware.tests",
    "mxit",
    "vumi.reconnecting_client",
    "tests.test_smpp",
    "transports.vas2nets.vas2nets",
    "vumi.middleware.tests.test_manhole",
    "mtn_rwanda.tests",
    "vumi.persist.tests",
    "smpp.config",
    "apposit.tests",
    "netcore",
    "transports.smpp.pdu_utils",
    "vumi.transports.truteq.tests",
    "vumi.blinkenlights.metrics_workers",
    "vumi.dispatchers.tests.test_base",
    "vumi.persist.fake_redis",
    "vumi.tests.test_reconnecting_client",
    "transports.failures",
    "vumi.persist.tests.test_model",
    "transports.irc.irc",
    "tests.test_manhole",
    "vumi.transports.xmpp.xmpp",
    "vumi.transports.integrat.tests.test_utils",
    "processors.default",
    "vumi.middleware.message_storing",
    "metrics",
    "mtn_nigeria.tests",
    "scripts",
    "vodacom_messaging.tests",
    "transports.apposit",
    "trueafrican.tests",
    "transports.infobip",
    "test_mtech_ussd",
    "components.tests.message_store_old_models",
    "vumi.transports.trueafrican.transport",
    "transports.wechat",
    "components.tests.test_schedule_manager",
    "txredis_manager",
    "httprpc.tests.test_httprpc",
    "tests.test_client",
    "scripts.benchmark_persist",
    "xml_over_tcp",
    "vumi.tests.test_testutils",
    "application.session",
    "transports.vodacom_messaging.tests",
    "transports.telnet.tests",
    "mediaedgegsm.tests",
    "session",
    "integrat.tests.test_utils",
    "transports.smpp.deprecated.transport",
    "dispatchers.simple.dispatcher",
    "smpp.tests.test_smpp_transport",
    "demos.tests.test_ircbot",
    "transports.dmark.dmark_ussd",
    "test_endpoint_dispatchers",
    "test_irc",
    "tests.test_log",
    "vumi.demos.words",
    "dispatchers",
    "tests.test_dmark_ussd",
    "cellulant.tests.test_cellulant",
    "transports.parlayx.tests",
    "vumi.scripts.tests.test_vumi_tagpools",
    "test_message_store",
    "tests.test_xmpp",
    "vumi.transports.mtech_ussd.tests",
    "vumi.transports.mtn_rwanda.tests.test_mtn_rwanda_ussd",
    "tests.test_riak_manager",
    "vumi.transports.netcore",
    "transports.dmark.tests",
    "vumi.application.tests.test_base",
    "tests.test_sentry",
    "vumi.persist.tests.test_riak_manager",
    "tests.test_testutils",
    "multiworker",
    "vumi.scripts.inject_messages",
    "transports.vodacom_messaging.vodacom_messaging",
    "fields",
    "smpp.deprecated.clientserver.tests.test_client",
    "transports.mtech_kenya.tests",
    "persist.tests.test_txredis_manager",
    "vumi.persist.tests.test_redis_manager",
    "blinkenlights.tests.test_message20110707",
    "vumi.application.sandbox_rlimiter",
    "test_service",
    "vumi.components.tests.test_message_store_cache",
    "middleware.tests.test_logging",
    "vumi.transports.parlayx.tests.test_soaputil",
    "smpp.protocol",
    "dispatchers.base",
    "vumi.application.tests.test_rapidsms_relay",
    "vumi.demos.tests.test_static_reply",
    "application.tests.test_test_helpers",
    "transports.devnull.devnull",
    "test_xml_over_tcp",
    "clientserver.tests",
    "vumi.components.session",
    "mxit.tests.test_mxit",
    "vumi.components.window_manager",
    "parlayx.tests.test_xmlutil",
    "tests.test_truteq",
    "tests.test_sandbox",
    "tests.test_storage",
    "demos.tictactoe",
    "transports.twitter.twitter",
    "vumi.transports.mtech_kenya.tests.test_mtech_kenya",
    "vumi.demos.calculator",
    "irc",
    "load_balancer",
    "responses",
    "window_manager",
    "transports.vumi_bridge",
    "tests.test_httprpc",
    "parse_log_messages",
    "vumi.transports.smpp.tests.test_mica",
    "vumi.transports.truteq.tests.test_truteq",
    "vumi.transports.smssync",
    "test_opera",
    "transports.parlayx.tests.test_xmlutil",
    "transports.base",
    "application.tests",
    "test_logging",
    "vumi.components.tests.test_message_store_api",
    "vumi.blinkenlights.heartbeat.tests.test_monitor",
    "vumi.transports.mtn_nigeria.mtn_nigeria_ussd",
    "tests.test_cellulant_sms",
    "test_netcore",
    "vumi.tests.test_service",
    "tests.test_redis_manager",
    "vumi.transports.opera.tests",
    "redis_manager",
    "blinkenlights.message20110707",
    "test_rps",
    "tests.test_http_relay",
    "test_tagpool_api",
    "scaleconf02",
    "simple",
    "test_rpc",
    "demos.tests",
    "blinkenlights.heartbeat.monitor",
    "vumi.transports.mediaedgegsm",
    "test_vas2nets_stubs",
    "test_redis_base",
    "vumi.transports.smpp.deprecated.clientserver.tests.utils",
    "vumi.components.tests.test_schedule_manager",
    "transports.wechat.wechat",
    "transports.safaricom.safaricom",
    "vumi.transports.smpp.smpp_utils",
    "persist.ast_magic",
    "demos.tests.test_hangman",
    "vumi.persist.tests.test_txriak_manager",
    "vumi.transports.mediafonemc.tests.test_mediafonemc",
    "simple.tests.test_dispatcher",
    "message_store_old_models",
    "vumi.transports.opera.tests.test_opera",
    "dispatchers.tests.test_endpoint_dispatchers",
    "worker",
    "test_address_translator",
    "telnet",
    "dispatchers.load_balancer",
    "transports.smssync",
    "blinkenlights.tests.test_metrics_workers",
    "blinkenlights.metrics_workers",
    "vumi.transports.failures",
    "vumi.components",
    "smssync",
    "tests.test_tagpool_api",
    "transports.xmpp",
    "vumi.transports.wechat",
    "tests.test_ircbot",
    "api.oldapi",
    "vumi.rpc",
    "vumi.transports.smpp.deprecated.clientserver.tests.test_server",
    "transports.mtn_nigeria.mtn_nigeria_ussd",
    "message_store_resource",
    "vumi.middleware",
    "vumi.transports.netcore.tests.test_netcore",
    "demos",
    "components.tests.test_tagpool_api",
    "mtech_ussd",
    "tests.test_words",
    "conf",
    "test_manhole",
    "vumi.transports.mtech_kenya.mtech_kenya",
    "message_store_cache",
    "tests.test_parse_log_messages",
    "middleware.tests.test_message_storing",
    "vumi.application.session",
    "api.api",
    "message_types",
    "vumi.transports.truteq.truteq",
    "vumi.components.tests.test_message_store_resource",
    "dmark.dmark_ussd",
    "middleware.tests",
    "vumi.multiworker",
    "vumi.transports.dmark",
    "tests.test_api",
    "infobip",
    "iprocessors",
    "docs.plugins.tikz",
    "tests.test_xmlutil",
    "application.http_relay",
    "fake_amqp",
    "vumi.transports.cellulant.tests.test_cellulant_sms",
    "fake_redis",
    "mtech_kenya.tests.test_mtech_kenya",
    "tests.test_mxit",
    "vumi.service",
    "client",
    "vumi.transports.irc.irc",
    "tests.test_mtn_rwanda_ussd",
    "vumi.middleware.tagger",
    "test_wechat",
    "transports.vumi_bridge.client",
    "protocol",
    "test_cellulant",
    "vumi.components.message_store_api",
    "mediafonemc.mediafonemc",
    "transports.smpp.deprecated.tests.test_smpp",
    "test_safaricom",
    "devnull.tests",
    "transports.smssync.smssync",
    "transports.netcore.tests.test_netcore",
    "transports.xmpp.tests.test_xmpp_stubs",
    "transports.apposit.tests.test_apposit",
    "vumi.transports.mtech_kenya",
    "test_tictactoe",
    "imimobile",
    "vumi.transports.infobip.tests",
    "transports.mtech_kenya.tests.test_mtech_kenya",
    "transports.httprpc.auth",
    "clientserver.client",
    "cellulant_sms",
    "mtn_rwanda.tests.test_mtn_rwanda_ussd",
    "vumi.transports.mediaedgegsm.mediaedgegsm",
    "transports.mediaedgegsm.tests",
    "vumi.components.message_store",
    "transports.smpp.deprecated.clientserver.tests.utils",
    "vumi.transports.smpp.deprecated.clientserver.tests.test_client",
    "netcore.netcore",
    "model_migrator",
    "test_fake_redis",
    "test_storage",
    "vumi.transports.smpp.processors.default",
    "vumi.transports.parlayx.client",
    "smpp.tests.test_mica",
    "test_apposit",
    "vumi.transports.cellulant",
    "transports.parlayx.client",
    "tests.test_smpp_transport",
    "transports.parlayx.tests.test_server",
    "transports.telnet.tests.test_telnet",
    "vumi.components.tagpool",
    "vumi.transports.telnet.tests.test_telnet",
    "vumi.transports.api.api",
    "test_redis_manager",
    "middleware.tests.test_base",
    "test_config",
    "httprpc.tests",
    "vumi.message",
    "mtn_nigeria.tests.test_xml_over_tcp",
    "tests.utils",
    "persist.tests.test_redis_base",
    "dispatchers.tests.utils",
    "vumi_bridge.tests",
    "parlayx.parlayx",
    "vumi.transports.wechat.wechat",
    "transports.cellulant.cellulant",
    "blinkenlights.tests.test_message20110818",
    "mxit.tests",
    "vumi.transports.devnull",
    "components.session",
    "deprecated.service",
    "vumi.transports.wechat.tests",
    "smpp.processors.mica",
    "message_storing",
    "vumi.transports.mtn_rwanda",
    "smpp_transport",
    "test_words",
    "vumi.application.sandbox",
    "metrics_workers",
    "tests.test_test_helpers",
    "blinkenlights.heartbeat",
    "heartbeat.tests.test_storage",
    "tests.test_connectors",
    "tests.test_safaricom",
    "vumi.transports.mtn_rwanda.tests",
    "integrat",
    "vumi.demos.tictactoe",
    "transports.smpp.iprocessors",
    "tests.test_fake_amqp",
    "transports.apposit.tests",
    "vumi.transports.tests.helpers",
    "transports.mtn_nigeria.tests",
    "transports.truteq",
    "vumi.transports.vas2nets.tests.test_failures",
    "transports.smpp",
    "vumi.demos.tests.test_rps",
    "vumi.application.tests.test_test_helpers",
    "vumi.transports.vas2nets.vas2nets",
    "transports.imimobile.tests",
    "components.tests.test_message_store_resource",
    "vumi.transports.smpp.processors",
    "blinkenlights.heartbeat.publisher",
    "tests.fake_amqp",
    "test_mediafonemc",
    "transports.truteq.truteq",
    "vumi.transports.mtech_ussd.tests.test_mtech_ussd",
    "airtel.airtel",
    "vumi.transports.smpp.config",
    "mtech_ussd.tests",
    "vumi.components.tests.test_message_store_migrators",
    "vumi.transports.smssync.tests.test_smssync",
    "tests.test_scheduler",
    "blinkenlights.metrics",
    "apposit.tests.test_apposit",
    "http_relay",
    "vumi.worker",
    "vumi.transports.parlayx.tests.test_server",
    "irc.irc",
    "transports.httprpc.tests.test_httprpc",
    "plugins.tikz",
    "vumi.transports",
    "components.tests.test_window_manager",
    "tictactoe",
    "test_smssync",
    "vumi.tests.test_sentry",
    "vumi.tests.fake_amqp",
    "test_sandbox",
    "vumi.transports.devnull.tests.test_devnull",
    "smpp.deprecated.utils",
    "test_parse_log_messages",
    "vumi.transports.smpp",
    "test_protocol",
    "sandbox_rlimiter",
    "smpp.smpp_utils",
    "vumi.blinkenlights.heartbeat.tests.test_publisher",
    "transports.mxit.tests",
    "test_message_types",
    "tests.test_reconnecting_client",
    "components.tests.test_tagpool",
    "application",
    "vumi.scripts.tests.test_db_backup",
    "smpp.deprecated.tests.test_smpp",
    "integrat.integrat",
    "heartbeat.tests.test_monitor",
    "vumi.transports.tests",
    "transports.wechat.message_types",
    "airtel.tests.test_airtel",
    "middleware.logging",
    "tests.test_integrat",
    "vumi.transports.parlayx.server",
    "wechat",
    "vumi.transports.api.oldapi",
    "components.tests",
    "vodacom_messaging",
    "transports.parlayx.server",
    "vodacom_messaging.vodacom_messaging",
    "opera.tests",
    "vumi.scripts.tests.test_parse_log_messages",
    "test_base",
    "transports.api.oldapi",
    "parlayx.tests",
    "vumi.transports.smpp.deprecated.tests",
    "test_transport",
    "infobip.tests",
    "vumi.transports.smpp.processors.mica",
    "scripts.tests.test_db_backup",
    "vas2nets.tests",
    "soaputil",
    "vumi.demos.tests.test_tictactoe",
    "benchmark_persist",
    "transports.mtn_nigeria.tests.test_mtn_nigeria",
    "transports.mtech_kenya",
    "test_xmpp",
    "transports.parlayx.tests.test_soaputil",
    "tests.test_fields",
    "test_sentry",
    "transports.smssync.tests",
    "vumi.transports.safaricom",
    "wechat.wechat",
    "apposit.apposit",
    "components.tagpool",
    "deprecated.transport",
    "parlayx.server",
    "vumi.transports.vumi_bridge.client",
    "vumi.middleware.tests.test_address_translator",
    "vumi.persist",
    "vumi.transports.airtel.tests.test_airtel",
    "transports.opera.tests",
    "persist.riak_manager",
    "vumi.components.tests.test_message_store",
    "mtech_kenya",
    "mtn_nigeria.tests.utils",
    "transports.mediafonemc.mediafonemc",
    "vumi.tests.test_log",
    "vumi.transports.dmark.dmark_ussd",
    "transports.mtech_ussd.mtech_ussd",
    "tests.test_mediaedgegsm",
    "vumi.transports.vumi_bridge",
    "transports.smpp.config",
    "tests.test_mica",
    "test_message_store_cache",
    "scripts.parse_log_messages",
    "imimobile.tests",
    "vumi_bridge",
    "opera.tests.test_opera",
    "test_xmlutil",
    "vumi.scripts.benchmark_persist",
    "xmpp.xmpp",
    "vumi.blinkenlights.tests",
    "deprecated.clientserver.server",
    "txriak_manager",
    "tests.test_vumi_bridge",
    "vumi.application.tests.test_http_relay",
    "truteq.tests",
    "httprpc.tests.test_auth",
    "xmpp.tests",
    "blinkenlights.heartbeat.storage",
    "vumi.transports.twitter.twitter",
    "mtn_nigeria",
    "netcore.tests.test_netcore",
    "integrat.tests.test_integrat",
    "persist.tests.test_fields",
    "airtel",
    "vumi.demos.tests",
    "transports.opera.tests.test_opera",
    "api.tests",
    "demos.calculator",
    "vumi.dispatchers.endpoint_dispatchers",
    "transports.vodacom_messaging.tests.test_vodacom_messaging",
    "tests.test_mtech_kenya",
    "components.message_store_api",
    "test_integrat",
    "vumi.transports.netcore.netcore",
    "vumi.transports.dmark.tests.test_dmark_ussd",
    "tests.test_airtel",
    "tests.test_model",
    "vumi.transports.xmpp.tests",
    "test_twitter",
    "vumi.components.message_store_resource",
    "helpers",
    "deprecated.tests.test_smpp",
    "tests.test_xmpp_stubs",
    "vumi.transports.mtech_ussd",
    "tests.test_vas2nets_stubs",
    "vumi.dispatchers.base",
    "transports.api.tests",
    "tests.test_tagpool",
    "vumi_tagpools",
    "transports.cellulant.cellulant_sms",
    "api",
    "test_mica",
    "vumi.application.tests.test_sandbox",
    "tests.test_opera",
    "application.tests.utils",
    "deprecated.clientserver.tests.test_client",
    "vumi.transports.smpp.deprecated.clientserver",
    "irc.tests.test_irc",
    "vumi.transports.httprpc",
    "test_fake_amqp",
    "smpp.smpp_transport",
    "vumi.transports.apposit.tests.test_apposit",
    "heartbeat.tests",
    "transports.cellulant.tests.test_cellulant",
    "test_model_migrator",
    "vumi.transports.apposit.apposit",
    "transports.twitter",
    "vumi.tests.test_servicemaker",
    "transports.mtech_ussd.tests",
    "vumi.transports.apposit",
    "mtech_kenya.tests",
    "transports.integrat.tests",
    "smpp.deprecated.transport",
    "heartbeat.storage",
    "vumi.blinkenlights.heartbeat.monitor",
    "tests.test_inject_messages",
    "cellulant.cellulant",
    "transports.netcore.tests",
    "twisted.plugins",
    "tests.test_utils",
    "vumi.persist.tests.test_fields",
    "vumi.demos.tests.test_ircbot",
    "vumi.transports.smpp.deprecated.tests.test_smpp",
    "transports.apposit.apposit",
    "inject_messages",
    "vumi.transports.opera.opera",
    "transports.smpp.deprecated.clientserver.server",
    "demos.tests.test_calculator",
    "heartbeat.monitor",
    "blinkenlights.heartbeat.tests",
    "transports.api",
    "deprecated.utils",
    "vumi.transports.trueafrican.tests.test_transport",
    "scripts.db_backup",
    "vumi.persist.redis_base",
    "tests.test_mediafonemc",
    "scripts.model_migrator",
    "imimobile.imimobile_ussd",
    "wechat.tests.test_wechat",
    "scripts.inject_messages",
    "scripts.tests.test_inject_messages",
    "vumi.transports.parlayx.tests.test_client",
    "transports.opera.opera",
    "dispatchers.tests.test_base",
    "clientserver.tests.utils",
    "vumi.transports.mtn_nigeria.tests.test_xml_over_tcp",
    "parlayx.tests.test_client",
    "httprpc.httprpc",
    "vumi.transports.vas2nets.transport_stubs",
    "transports.smpp.processors.default",
    "transports.imimobile",
    "vumi.transports.smpp.smpp_transport",
    "apposit",
    "vumi.transports.cellulant.tests",
    "riak_manager",
    "vumi.transports.mediafonemc",
    "application.sandbox",
    "transports.vodacom_messaging",
    "vumi.demos.static_reply",
    "vumi.transports.mtn_nigeria.tests.utils",
    "sandbox",
    "mtn_nigeria_ussd",
    "transports.integrat.utils",
    "vumi.log",
    "test_hangman",
    "vumi.transports.irc",
    "docs.plugins",
    "vumi.transports.smpp.deprecated",
    "vumi.transports.twitter",
    "components.message_store_cache",
    "vumi.tests.test_config",
    "tests.test_vodacom_messaging",
    "tagger",
    "tests.test_auth",
    "test_testutils",
    "vumi.application.tests.utils",
    "tests.test_apposit",
    "parlayx.tests.test_server",
    "monitor",
    "transports.mediafonemc.tests",
    "vumi.transports.safaricom.tests",
    "vumi.tests.test_utils",
    "tests.test_session",
    "vumi.servicemaker",
    "vumi.transports.vas2nets.tests.test_vas2nets",
    "application.tests.test_base",
    "transports.irc.tests",
    "api.tests.test_api",
    "vumi.middleware.tests.test_tagger",
    "transports.mtn_rwanda.tests",
    "docs",
    "simple.tests",
    "test_monitor",
    "transports.mtn_nigeria",
    "auth",
    "message_store_migrators",
    "vas2nets.vas2nets",
    "vumi.tests.test_worker",
    "transports.tests.test_test_helpers",
    "tagpool_api",
    "vumi.transports.tests.test_test_helpers",
    "smpp.tests.test_protocol",
    "test_publisher",
    "opera",
    "vumi.transports.safaricom.safaricom",
    "vumi.utils",
    "scripts.tests.test_parse_log_messages",
    "components.tests.test_message_store_cache",
    "vumi.components.message_store_migrators",
    "tests.test_sequence",
    "vumi.persist.txriak_manager",
    "application.tests.test_rapidsms_relay",
    "vumi.transports.mxit",
    "truteq",
    "vumi.transports.smpp.tests.test_sequence",
    "vumi.transports.api.tests",
    "vumi.transports.mediaedgegsm.tests.test_mediaedgegsm",
    "vumi.transports.httprpc.tests.helpers",
    "vumi.transports.mxit.mxit",
    "vumi.persist.redis_manager",
    "vumi.transports.smpp.deprecated.utils",
    "tests.test_sandbox_rlimiter",
    "test_reconnecting_client",
    "test_message_store_migrators",
    "smpp.deprecated.clientserver.client",
    "tests.test_mtn_nigeria",
    "transports.mtech_kenya.mtech_kenya",
    "build-packages",
    "vumi.demos",
    "httprpc",
    "test_log",
    "transports.irc.tests.test_irc",
    "dispatcher",
    "vumi.transports.truteq",
    "message20110707",
    "vumi.transports.httprpc.auth",
    "smpp.deprecated.clientserver",
    "deprecated",
    "transports.integrat.integrat",
    "transports.xmpp.tests.test_xmpp",
    "vumi.components.tests.test_window_manager",
    "middleware.tagger",
    "vumi.blinkenlights",
    "middleware.message_storing",
    "transports.integrat.tests.test_integrat",
    "tests.test_failures",
    "tests.test_rps",
    "tests.test_static_reply",
    "tests.test_logging",
    "vumi.transports.smpp.deprecated.clientserver.server",
    "vumi.transports.tests.utils",
    "message",
    "smpp.deprecated.clientserver.server",
    "tests.test_parlayx",
    "tests.test_message_storing",
    "persist.tests.test_model",
    "transports.mtech_ussd",
    "test_client",
    "test_http_relay",
    "mtn_rwanda",
    "transports.smpp.deprecated.clientserver",
    "tests.test_endpoint_dispatchers",
    "tests.test_telnet",
    "mtech_ussd.mtech_ussd",
    "transports.mediafonemc",
    "test_vumi_bridge",
    "truteq.truteq",
    "wechat.test_message_types",
    "vumi.transports.parlayx.soaputil",
    "manhole",
    "vumi.transports.vodacom_messaging.tests",
    "middleware.tests.utils",
    "transports.opera",
    "components.schedule_manager",
    "test_vas2nets",
    "tests.helpers",
    "smpp",
    "transports.safaricom.tests",
    "transports.parlayx.tests.test_parlayx",
    "blinkenlights",
    "test_metrics",
    "intro.scaleconf02",
    "vumi.transports.netcore.tests",
    "transports.devnull.tests",
    "test_api",
    "connectors",
    "transports.twitter.tests.test_twitter",
    "tests.test_txredis_manager",
    "mediafonemc.tests.test_mediafonemc",
    "vumi.transports.vas2nets.tests",
    "vumi.transports.base",
    "transports.integrat",
    "smpp.deprecated.tests",
    "smssync.tests.test_smssync",
    "vumi.dispatchers.tests.test_test_helpers",
    "transports.smpp.tests.test_sequence",
    "test_vodacom_messaging",
    "application.tests.test_http_relay",
    "tests.test_server",
    "mtn_nigeria.xml_over_tcp",
    "vumi.transports.vumi_bridge.tests.test_vumi_bridge",
    "tests.test_message_store_migrators",
    "vumi.transports.tests.test_failures",
    "vumi.transports.trueafrican",
    "vumi.transports.safaricom.tests.test_safaricom",
    "message_store",
    "tests.test_address_translator",
    "tests.test_txriak_manager",
    "transports.airtel.airtel",
    "vumi.demos.tests.test_words",
    "transports.smpp.deprecated",
    "vumi.scripts.tests",
    "parlayx",
    "vumi.demos.rps",
    "transports.smpp.deprecated.tests",
    "message_store_api",
    "persist.tests",
    "vumi.middleware.tests.test_logging",
    "test_server",
    "vumi.transports.infobip.tests.test_infobip",
    "transports.smpp.smpp_transport",
    "mxit.mxit",
    "transports.tests.helpers",
    "transports.mtn_rwanda.tests.test_mtn_rwanda_ussd",
    "dmark.tests.test_dmark_ussd",
    "vumi.transports.integrat.utils",
    "vumi.transports.smssync.tests",
    "transports.devnull",
    "vumi.persist.tests.test_redis_base",
    "clientserver.tests.test_server",
    "vumi.demos.tests.test_hangman",
    "transports.mediaedgegsm.mediaedgegsm",
    "vumi.transports.smpp.iprocessors",
    "vumi.transports.httprpc.httprpc",
    "test_schedule_manager",
    "transports.smpp.deprecated.clientserver.tests.test_server",
    "smpp.deprecated.clientserver.tests",
    "vumi.transports.mtn_nigeria.xml_over_tcp",
    "tests.test_rapidsms_relay",
    "test_riak_manager",
    "airtel.tests",
    "words",
    "vumi.components.tagpool_api",
    "trueafrican.transport",
    "transports.mediaedgegsm",
    "tikz",
    "vumi.blinkenlights.heartbeat.storage",
    "vumi.tests.test_rpc",
    "components.tests.test_message_store_api",
    "persist.txredis_manager",
    "transports.httprpc.tests.helpers",
    "transports.tests.utils",
    "middleware",
    "transports.telnet",
    "mtn_nigeria.mtn_nigeria_ussd",
    "vumi.transports.mtn_nigeria",
    "tagpool",
    "transports.wechat.tests.test_wechat",
    "transports.smpp.tests.test_mica",
    "intro.scaleconf01",
    "scripts.vumi_tagpools",
    "middleware.manhole_utils",
    "docs.intro",
    "transports.api.tests.test_api",
    "dispatchers.tests.test_test_helpers",
    "test_oldapi",
    "vumi.tests",
    "vumi.components.tests.test_session",
    "test_worker",
    "test_multiworker",
    "vumi.dispatchers.simple",
    "transports.truteq.tests.test_truteq",
    "smpp_utils",
    "test_message_store_resource",
    "vumi.blinkenlights.heartbeat.tests.test_storage",
    "components.tests.test_session",
    "vas2nets",
    "vumi.transports.parlayx.tests",
    "dmark.tests",
    "vumi.middleware.address_translator",
    "smpp.deprecated",
    "integrat.tests",
    "transports.httprpc.httprpc",
    "vumi.transports.smpp.pdu_utils",
    "infobip.infobip",
    "opera.utils",
    "vumi.tests.utils",
    "transports.smpp.processors",
    "tests.test_cellulant",
    "vas2nets.tests.test_vas2nets",
    "vumi.transports.wechat.tests.test_wechat",
    "transports.smpp.tests",
    "tests.test_worker",
    "transports.tests.test_scheduler",
    "vumi.transports.parlayx.tests.test_xmlutil",
    "vumi.transports.parlayx.parlayx",
    "rps",
    "persist.fields",
    "mtn_rwanda.mtn_rwanda_ussd",
    "dispatchers.simple.tests",
    "application.tests.test_sandbox_rlimiter",
    "dmark",
    "mediaedgegsm.mediaedgegsm",
    "scripts.tests",
    "test_dispatcher",
    "transports.infobip.tests",
    "devnull.devnull",
    "transports.imimobile.tests.test_imimobile_ussd",
    "vumi_worker_starter",
    "vumi.transports.mxit.tests.test_mxit",
    "persist.tests.test_redis_manager",
    "vumi.transports.imimobile.tests.test_imimobile_ussd",
    "mxit.responses",
    "tests.test_vas2nets",
    "vumi.components.tests",
    "vumi_bridge.tests.test_client",
    "mediaedgegsm",
    "cellulant",
    "demos.ircbot",
    "vumi.transports.irc.tests",
    "clientserver",
    "tests.test_hangman",
    "transports.xmpp.xmpp",
    "transports.mxit.mxit",
    "vumi.config",
    "vumi.blinkenlights.tests.test_message20110818",
    "tests.test_load_balancer",
    "demos.rps",
    "vumi.transports.api.tests.test_api",
    "transports.trueafrican.tests",
    "vumi.components.tests.test_tagpool_api",
    "transports.vumi_bridge.vumi_bridge",
    "vumi.transports.vodacom_messaging.tests.test_vodacom_messaging",
    "test_mediaedgegsm",
    "vodacom_messaging.tests.test_vodacom_messaging",
    "application.rapidsms_relay",
    "deprecated.tests",
    "transports.mtn_nigeria.tests.test_xml_over_tcp",
    "tests.test_message20110818",
    "vumi.scripts",
    "xmpp.tests.test_xmpp",
    "smpp.deprecated.clientserver.tests.utils",
    "devnull.tests.test_devnull",
    "vumi.persist.tests.test_fake_redis",
    "parlayx.tests.test_soaputil",
    "transports.dmark.tests.test_dmark_ussd",
    "vumi.dispatchers.tests.test_load_balancer",
    "persist.tests.test_riak_manager",
    "message20110818",
    "utils.clear_redis",
    "tests.test_protocol",
    "vumi.transports.smpp.tests.test_protocol",
    "utils",
    "transports.vas2nets.tests.test_vas2nets_stubs",
    "transports.httprpc.tests",
    "dispatchers.simple",
    "vas2nets.tests.test_vas2nets_stubs",
    "vumi.transports.telnet.telnet",
    "transports.airtel",
    "twitter.twitter",
    "transports.parlayx.tests.test_client",
    "vumi.blinkenlights.metrics",
    "middleware.tests.test_manhole",
    "test_truteq",
    "tests.test_message_store_api",
    "transports.tests.test_failures",
    "blinkenlights.heartbeat.tests.test_storage",
    "vumi.persist.txredis_manager",
    "transports.devnull.tests.test_devnull",
    "vumi.dispatchers.tests.utils",
    "safaricom.safaricom",
    "test_failures",
    "vumi.connectors",
    "vumi.dispatchers.load_balancer",
    "vumi.transports.opera.utils",
    "vumi.tests.helpers",
    "hangman",
    "transports.wechat.errors",
    "vumi.components.tests.message_store_old_models",
    "vumi.transports.parlayx.tests.test_parlayx",
    "vumi.persist.riak_manager",
    "vumi.application.tests.helpers",
    "transports.vas2nets.transport_stubs",
    "safaricom",
    "vumi.application.tests.test_sandbox_rlimiter",
    "api.tests.test_oldapi",
    "vumi.dispatchers.simple.tests",
    "vumi.transports.infobip",
    "transports.telnet.telnet",
    "components",
    "test_rapidsms_relay",
    "model",
    "smpp.processors.default",
    "transports.vumi_bridge.tests.test_vumi_bridge",
    "test_inject_messages",
    "infobip.tests.test_infobip",
    "application.sandbox_rlimiter",
    "vumi.scripts.vumi_tagpools",
    "vumi.transports.devnull.tests",
    "tests.test_db_backup",
    "transports.integrat.tests.test_utils",
    "vumi.demos.ircbot",
    "transports.parlayx.parlayx",
    "mediafonemc",
    "test_metrics_workers",
    "plugins.vumi_worker_starter",
    "transports.xmpp.tests",
    "transports.wechat.test_message_types",
    "transports.infobip.tests.test_infobip",
    "dispatchers.simple.tests.test_dispatcher",
    "vumi.application.tests.test_session",
    "components.tests.test_message_store_migrators",
    "dmark_ussd",
    "tests.test_tagger",
    "safaricom.tests.test_safaricom",
    "tests.test_monitor",
    "tests",
    "dispatchers.tests.helpers",
    "vumi.middleware.tests.utils",
    "test_message_storing",
    "scheduler",
    "dispatchers.tests.test_load_balancer",
    "test_smpp_transport",
    "demos.static_reply",
    "vumi.scripts.tests.test_inject_messages",
    "vumi.transports.vumi_bridge.tests.test_client",
    "rpc",
    "server",
    "vumi.transports.smpp.deprecated.transport",
    "transports.imimobile.imimobile_ussd",
    "test_window_manager",
    "transports.netcore.netcore",
    "persist",
    "transports.parlayx.xmlutil",
    "persist.redis_manager",
    "sequence",
    "vumi.components.message_store_cache",
    "twitter",
    "transports.tests.test_base",
    "parlayx.xmlutil",
    "vumi.components.schedule_manager",
    "vumi.dispatchers.simple.dispatcher",
    "tests.message_store_old_models",
    "transport",
    "test_dmark_ussd",
    "tests.test_message",
    "middleware.base",
    "vumi.transports.imimobile",
    "tests.test_metrics_workers",
    "test_telnet",
    "httprpc.tests.helpers",
    "reconnecting_client",
    "smpp.deprecated.clientserver.tests.test_server",
    "blinkenlights.heartbeat.tests.test_publisher",
    "test_auth",
    "vumi.transports.apposit.tests",
    "smssync.smssync",
    "tests.test_oldapi",
    "vumi.transports.httprpc.tests.test_auth",
    "tests.test_redis_base",
    "middleware.address_translator",
    "transports.parlayx.tests.utils",
    "transports.mxit.responses",
    "vumi.transports.vumi_bridge.tests",
    "mtech_ussd.tests.test_mtech_ussd",
    "transports.api.tests.test_oldapi",
    "components.tagpool_api",
    "transports.vas2nets",
    "twitter.tests.test_twitter",
    "smssync.tests",
    "vumi.transports.mtech_ussd.mtech_ussd",
    "vumi.transports.mediaedgegsm.tests",
    "test_fields",
    "deprecated.clientserver.client",
    "deprecated.clientserver.tests.utils",
    "vumi.persist.fields",
    "transports.smssync.tests.test_smssync",
    "cellulant.cellulant_sms",
    "vumi.transports.telnet",
    "transports.mediaedgegsm.tests.test_mediaedgegsm",
    "telnet.tests",
    "vumi.transports.mxit.responses",
    "tests.test_message_store_cache",
    "vumi.transports.vodacom_messaging",
    "vumi.transports.xmpp.tests.test_xmpp_stubs",
    "wechat.errors",
    "log",
    "deprecated.clientserver.tests.test_server",
    "vumi.transports.infobip.infobip",
    "safaricom.tests",
    "middleware.tests.test_address_translator",
    "vumi.transports.xmpp.tests.test_xmpp",
    "scripts.tests.test_vumi_tagpools",
    "vumi.transports.devnull.devnull",
    "vumi.transports.cellulant.cellulant",
    "vumi.transports.opera",
    "tests.test_message20110707",
    "vumi.persist.tests.test_txredis_manager",
    "twitter.tests",
    "test_calculator",
    "vumi.application.rapidsms_relay",
    "test_load_balancer",
    "vumi.scripts.tests.test_model_migrator",
    "vumi.tests.test_fake_amqp",
    "mica",
    "transports.wechat.tests",
    "transports.dmark",
    "netcore.tests",
    "vumi.transports.smpp.sequence",
    "vumi.transports.parlayx",
    "default",
    "trueafrican.tests.test_transport",
    "vumi.blinkenlights.message20110818",
    "blinkenlights.tests",
    "vumi.transports.mediafonemc.mediafonemc",
    "scripts.tests.test_model_migrator",
    "vas2nets.transport_stubs",
    "vumi_bridge.tests.test_vumi_bridge",
    "vumi.blinkenlights.heartbeat.tests",
    "smpp.tests",
    "vumi.transports.parlayx.tests.utils",
    "vumi.transports.cellulant.cellulant_sms",
    "integrat.utils",
    "test_scheduler",
    "heartbeat.publisher",
    "tests.test_window_manager",
    "intro",
    "vumi.middleware.manhole",
    "imimobile.tests.test_imimobile_ussd",
    "telnet.tests.test_telnet",
    "vumi.transports.wechat.test_message_types",
    "ircbot",
    "components.tests.test_message_store",
    "vumi.transports.vas2nets",
    "tests.test_base",
    "oldapi",
    "storage",
    "vumi.transports.smpp.tests.test_smpp_transport",
    "transports.trueafrican.transport",
    "vumi.transports.smpp.deprecated.clientserver.tests",
    "test_connectors",
    "tests.test_vumi_tagpools",
    "vumi.transports.twitter.tests.test_twitter",
    "transports.smpp.smpp_utils",
    "failures",
    "test_message20110707",
    "transports.safaricom",
    "vumi_bridge.client",
    "test_message20110818",
    "vumi.transports.integrat.tests",
    "smpp.iprocessors",
    "transports.smpp.processors.mica",
    "vumi.transports.wechat.errors",
    "transports",
    "transports.smpp.deprecated.clientserver.client",
    "test_airtel"
]