[
    "test_main",
    "tests",
    "stallion.tests",
    "stallion.tests.test_main",
    "docs",
    "stallion.tests.test_metadata",
    "stallion",
    "stallion.metadata",
    "source.conf",
    "write_plist",
    "conf",
    "stallion.main",
    "stallion.write_plist",
    "docs.source",
    "console",
    "source",
    "test_metadata",
    "docs.source.conf",
    "stallion.console",
    "tests.test_main",
    "main",
    "tests.test_metadata",
    "metadata"
]