[
    "unit_tests.test_parsing_trashinfo_contents",
    "test_list_mount_points",
    "integration_tests.test_trash_rm_script",
    "integration_tests.test_file_descriptions",
    "unit_tests.test_fake_ismount",
    "test_parser",
    "test_trashing_a_file",
    "test_trash_rm_script",
    "unit_tests.test_shrink_user",
    "assert_equals_with_unidiff",
    "trashcli.fs",
    "test_volume_of",
    "test_file_descriptions",
    "fstab",
    "test_restore_trash",
    "test_trash_put_reporter",
    "integration_tests.assert_equals_with_unidiff",
    "unit_tests.test_fake_fstab",
    "files",
    "test_persist",
    "trashcli.trash",
    "list_mount_points",
    "output_collector",
    "unit_tests.test_trashdirs_how_to_list_them",
    "unit_tests.test_joining_paths",
    "test_make_script",
    "cmds",
    "integration_tests.test_filesystem",
    "unit_tests.test_parser",
    "test_listing_all_trashinfo_in_a_trashdir",
    "ssh",
    "unit_tests.test_restore_cmd",
    "test_trash_rm",
    "test_trash_put",
    "unit_tests.test_trash",
    "unit_tests.test_make_script",
    "unit_tests.test_trash_rm",
    "integration_tests.describe_trash_list",
    "test_trashdirs_how_to_list_them",
    "test_trashdir",
    "unit_tests.test_method1_security_check",
    "test_list_all_trashinfo_contents",
    "integration_tests.output_collector",
    "trashcli.put",
    "unit_tests.test_list_mount_points",
    "integration_tests.test_trash_rm",
    "unit_tests.test_list_all_trashinfo_contents",
    "integration_tests",
    "unit_tests.test_trash_put",
    "unit_tests.test_trash_dirs_listing",
    "test_trash_dirs_listing",
    "test_joining_paths",
    "unit_tests.test_home_fallback",
    "trashcli.list_mount_points",
    "integration_tests.test_trash_put",
    "test_storing_paths",
    "integration_tests.test_trash_empty",
    "test_global_trashcan",
    "integration_tests.test_restore_trash",
    "unit_tests.test_trashing_a_file",
    "unit_tests.test_volume_of",
    "test_home_fallback",
    "test_fake_ismount",
    "test_parsing_trashinfo_contents",
    "rm",
    "test_shrink_user",
    "trash",
    "integration_tests.test_persist",
    "fs",
    "integration_tests.files",
    "trashinfo",
    "trashcli.cmds",
    "trashcli",
    "trashcli.fstab",
    "describe_trash_list",
    "unit_tests.test_storing_paths",
    "test_restore_cmd",
    "unit_tests.test_trash_put_reporter",
    "test_trash",
    "unit_tests.test_trashdir",
    "test_method1_security_check",
    "test_fake_fstab",
    "check_release_installation",
    "put",
    "unit_tests",
    "integration_tests.trashinfo",
    "trashcli.rm",
    "integration_tests.test_listing_all_trashinfo_in_a_trashdir",
    "test_trash_empty",
    "test_filesystem",
    "unit_tests.test_global_trashcan"
]