{
    "archive_url": "https://api.github.com/repos/centralniak/cmsplugin_gallery/{archive_format}{/ref}",
    "assignees_url": "https://api.github.com/repos/centralniak/cmsplugin_gallery/assignees{/user}",
    "blobs_url": "https://api.github.com/repos/centralniak/cmsplugin_gallery/git/blobs{/sha}",
    "branches_url": "https://api.github.com/repos/centralniak/cmsplugin_gallery/branches{/branch}",
    "clone_url": "https://github.com/centralniak/cmsplugin_gallery.git",
    "collaborators_url": "https://api.github.com/repos/centralniak/cmsplugin_gallery/collaborators{/collaborator}",
    "comments_url": "https://api.github.com/repos/centralniak/cmsplugin_gallery/comments{/number}",
    "commits_url": "https://api.github.com/repos/centralniak/cmsplugin_gallery/commits{/sha}",
    "compare_url": "https://api.github.com/repos/centralniak/cmsplugin_gallery/compare/{base}...{head}",
    "contents_url": "https://api.github.com/repos/centralniak/cmsplugin_gallery/contents/{+path}",
    "contributors_url": "https://api.github.com/repos/centralniak/cmsplugin_gallery/contributors",
    "created_at": "2010-09-27T14:19:09Z",
    "default_branch": "master",
    "description": "Simple photo gallery plugin for DjangoCMS",
    "downloads_url": "https://api.github.com/repos/centralniak/cmsplugin_gallery/downloads",
    "events_url": "https://api.github.com/repos/centralniak/cmsplugin_gallery/events",
    "fork": false,
    "forks": 28,
    "forks_count": 28,
    "forks_url": "https://api.github.com/repos/centralniak/cmsplugin_gallery/forks",
    "full_name": "centralniak/cmsplugin_gallery",
    "git_commits_url": "https://api.github.com/repos/centralniak/cmsplugin_gallery/git/commits{/sha}",
    "git_refs_url": "https://api.github.com/repos/centralniak/cmsplugin_gallery/git/refs{/sha}",
    "git_tags_url": "https://api.github.com/repos/centralniak/cmsplugin_gallery/git/tags{/sha}",
    "git_url": "git://github.com/centralniak/cmsplugin_gallery.git",
    "has_downloads": true,
    "has_issues": true,
    "has_wiki": true,
    "homepage": "http://github.com/centralniak",
    "hooks_url": "https://api.github.com/repos/centralniak/cmsplugin_gallery/hooks",
    "html_url": "https://github.com/centralniak/cmsplugin_gallery",
    "id": 942665,
    "issue_comment_url": "https://api.github.com/repos/centralniak/cmsplugin_gallery/issues/comments/{number}",
    "issue_events_url": "https://api.github.com/repos/centralniak/cmsplugin_gallery/issues/events{/number}",
    "issues_url": "https://api.github.com/repos/centralniak/cmsplugin_gallery/issues{/number}",
    "keys_url": "https://api.github.com/repos/centralniak/cmsplugin_gallery/keys{/key_id}",
    "labels_url": "https://api.github.com/repos/centralniak/cmsplugin_gallery/labels{/name}",
    "language": "Python",
    "languages_url": "https://api.github.com/repos/centralniak/cmsplugin_gallery/languages",
    "merges_url": "https://api.github.com/repos/centralniak/cmsplugin_gallery/merges",
    "milestones_url": "https://api.github.com/repos/centralniak/cmsplugin_gallery/milestones{/number}",
    "mirror_url": null,
    "name": "cmsplugin_gallery",
    "notifications_url": "https://api.github.com/repos/centralniak/cmsplugin_gallery/notifications{?since,all,participating}",
    "open_issues": 6,
    "open_issues_count": 6,
    "owner": {
        "avatar_url": "https://avatars.githubusercontent.com/u/365324?",
        "events_url": "https://api.github.com/users/centralniak/events{/privacy}",
        "followers_url": "https://api.github.com/users/centralniak/followers",
        "following_url": "https://api.github.com/users/centralniak/following{/other_user}",
        "gists_url": "https://api.github.com/users/centralniak/gists{/gist_id}",
        "gravatar_id": "39d19db3a90b824d826965871e0a70f8",
        "html_url": "https://github.com/centralniak",
        "id": 365324,
        "login": "centralniak",
        "organizations_url": "https://api.github.com/users/centralniak/orgs",
        "received_events_url": "https://api.github.com/users/centralniak/received_events",
        "repos_url": "https://api.github.com/users/centralniak/repos",
        "site_admin": false,
        "starred_url": "https://api.github.com/users/centralniak/starred{/owner}{/repo}",
        "subscriptions_url": "https://api.github.com/users/centralniak/subscriptions",
        "type": "User",
        "url": "https://api.github.com/users/centralniak"
    },
    "private": false,
    "pulls_url": "https://api.github.com/repos/centralniak/cmsplugin_gallery/pulls{/number}",
    "pushed_at": "2013-09-17T12:18:25Z",
    "releases_url": "https://api.github.com/repos/centralniak/cmsplugin_gallery/releases{/id}",
    "score": 1.0,
    "size": 197,
    "ssh_url": "git@github.com:centralniak/cmsplugin_gallery.git",
    "stargazers_count": 46,
    "stargazers_url": "https://api.github.com/repos/centralniak/cmsplugin_gallery/stargazers",
    "statuses_url": "https://api.github.com/repos/centralniak/cmsplugin_gallery/statuses/{sha}",
    "subscribers_url": "https://api.github.com/repos/centralniak/cmsplugin_gallery/subscribers",
    "subscription_url": "https://api.github.com/repos/centralniak/cmsplugin_gallery/subscription",
    "svn_url": "https://github.com/centralniak/cmsplugin_gallery",
    "tags_url": "https://api.github.com/repos/centralniak/cmsplugin_gallery/tags",
    "teams_url": "https://api.github.com/repos/centralniak/cmsplugin_gallery/teams",
    "trees_url": "https://api.github.com/repos/centralniak/cmsplugin_gallery/git/trees{/sha}",
    "updated_at": "2014-01-12T00:35:31Z",
    "url": "https://api.github.com/repos/centralniak/cmsplugin_gallery",
    "watchers": 46,
    "watchers_count": 46
}