[
    "testapp.views",
    "migrations.0003_move_images_to_media_path",
    "utils",
    "manage",
    "cmsplugin_gallery.admin",
    "cmsplugin_gallery.migrations.0002_auto__add_field_galleryplugin_template",
    "tests.testproject.settings",
    "testproject.testapp.models",
    "migrations.0002_auto__add_field_galleryplugin_template",
    "cmsplugin_gallery.migrations",
    "forms",
    "tests.testproject.manage",
    "cmsplugin_gallery",
    "cms_plugins",
    "testproject.testapp",
    "testproject.urls",
    "0003_move_images_to_media_path",
    "cmsplugin_gallery.utils",
    "testproject.manage",
    "cmsplugin_gallery.forms",
    "tests.testproject.testapp.views",
    "migrations",
    "tests.testproject.testapp.models",
    "tests",
    "testproject.testapp.tests",
    "testproject.testapp.views",
    "views",
    "models",
    "testproject.settings",
    "migrations.0001_initial",
    "cmsplugin_gallery.settings",
    "testapp.tests",
    "cmsplugin_gallery.models",
    "0001_initial",
    "testapp.models",
    "testapp",
    "tests.testproject.testapp.tests",
    "tests.testproject.testapp",
    "0002_auto__add_field_galleryplugin_template",
    "tests.testproject",
    "admin",
    "settings",
    "cmsplugin_gallery.migrations.0003_move_images_to_media_path",
    "tests.testproject.urls",
    "cmsplugin_gallery.cms_plugins",
    "urls",
    "cmsplugin_gallery.migrations.0001_initial",
    "testproject"
]