[
    "wiremaps.collector.equipment.linux",
    "helpers.arp",
    "wiremaps.web.complete",
    "web.complete",
    "equipment.procurve",
    "collector.database",
    "edp",
    "cdp",
    "collector.helpers",
    "equipment.foundry",
    "helpers.speed",
    "wiremaps.collector.equipment.juniper",
    "web",
    "wiremaps.collector.equipment.netscreen",
    "equipment",
    "wiremaps.collector.helpers.cdp",
    "collector.equipment",
    "wiremaps.collector.equipment.generic",
    "wiremaps.collector.equipment.blade",
    "wiremaps.web.equipment",
    "collector.equipment.foundry",
    "collector.equipment.arrowpoint",
    "web.ports",
    "dell",
    "wiremaps.collector",
    "collector.helpers.arp",
    "twisted.plugins",
    "wiremaps.collector.helpers.nortel",
    "equipment.passport",
    "5510",
    "timetravel",
    "wiremaps.web.common",
    "collector.core",
    "equipment.extreme",
    "wiremaps.collector.helpers.fdb",
    "equipment.5510",
    "wiremaps.web.timetravel",
    "common",
    "helpers.fdb",
    "ports",
    "arp",
    "cisco",
    "web.common",
    "equipment.generic",
    "nortel",
    "wiremaps.collector.equipment.drac",
    "plugins",
    "images",
    "wiremaps_plugin",
    "collector",
    "wiremaps",
    "wiremaps.collector.equipment.5510",
    "collector.helpers.edp",
    "wiremaps.web",
    "speed",
    "collector.equipment.juniper",
    "collector.equipment.linux",
    "twisted.plugins.wiremaps_plugin",
    "wiremaps.core.tac",
    "wiremaps.web.json",
    "helpers.vlan",
    "equipment.blade",
    "wiremaps.collector.equipment.extreme",
    "wiremaps.core.service",
    "wiremaps.collector.helpers.lldp",
    "collector.icollector",
    "collector.helpers.speed",
    "wiremaps.collector.core",
    "proxy",
    "helpers.edp",
    "extreme",
    "search",
    "collector.equipment.cisco",
    "3com",
    "wiremaps.collector.equipment.dell",
    "wiremaps.core.database",
    "collector.equipment.5510",
    "collector.datastore",
    "collector.helpers.lldp",
    "helpers",
    "wiremaps.collector.equipment.cisco",
    "equipment.alteon",
    "wiremaps.collector.datastore",
    "helpers.sonmp",
    "wiremaps.collector.helpers.edp",
    "collector.helpers.nortel",
    "equipment.dell",
    "web.equipment",
    "collector.equipment.drac",
    "api",
    "linux",
    "collector.equipment.dell",
    "wiremaps.collector.equipment",
    "core.database",
    "lldp",
    "service",
    "equipment.3com",
    "wiremaps.collector.icollector",
    "wiremaps.collector.equipment.alteon",
    "wiremaps.web.api",
    "wiremaps.web.search",
    "json",
    "web.search",
    "equipment.cisco",
    "collector.helpers.sonmp",
    "passport",
    "wiremaps.web.site",
    "collector.equipment.alteon",
    "arrowpoint",
    "wiremaps.collector.helpers.sonmp",
    "collector.equipment.extreme",
    "wiremaps.collector.helpers.arp",
    "equipment.drac",
    "collector.equipment.passport",
    "exception",
    "fdb",
    "twisted",
    "web.json",
    "collector.helpers.vlan",
    "blade",
    "plugins.wiremaps_plugin",
    "sonmp",
    "wiremaps.collector.equipment.f5",
    "equipment.juniper",
    "collector.exception",
    "equipment.netscreen",
    "collector.equipment.f5",
    "wiremaps.core",
    "f5",
    "core.tac",
    "equipment.arrowpoint",
    "wiremaps.collector.helpers.port",
    "site",
    "collector.equipment.blade",
    "helpers.nortel",
    "collector.equipment.netscreen",
    "tac",
    "helpers.cdp",
    "datastore",
    "wiremaps.collector.helpers.speed",
    "complete",
    "wiremaps.collector.equipment.procurve",
    "collector.helpers.cdp",
    "procurve",
    "equipment.linux",
    "generic",
    "collector.equipment.generic",
    "core.service",
    "port",
    "wiremaps.collector.database",
    "web.site",
    "wiremaps.collector.proxy",
    "collector.helpers.port",
    "helpers.port",
    "helpers.lldp",
    "wiremaps.collector.exception",
    "collector.equipment.procurve",
    "juniper",
    "alteon",
    "wiremaps.collector.equipment.3com",
    "vlan",
    "netscreen",
    "web.images",
    "drac",
    "core",
    "collector.helpers.fdb",
    "wiremaps.web.images",
    "icollector",
    "collector.proxy",
    "wiremaps.collector.equipment.arrowpoint",
    "equipment.f5",
    "wiremaps.collector.helpers",
    "database",
    "web.timetravel",
    "foundry",
    "wiremaps.collector.equipment.passport",
    "wiremaps.collector.equipment.foundry",
    "wiremaps.collector.helpers.vlan",
    "wiremaps.web.ports",
    "web.api",
    "collector.equipment.3com"
]