[
    "test.test_code_hasher",
    "pyreport.options",
    "version",
    "pyreport.examples.example",
    "pyreport.version",
    "pyreport.test.test_options",
    "test_code_hasher",
    "test.test_main",
    "example",
    "examples",
    "code_hasher",
    "test_options",
    "main",
    "python_parser",
    "examples.example",
    "pyreport.test.test_main",
    "pyreport.test",
    "pyreport.python_parser",
    "pyreport.main",
    "options",
    "test.test_options",
    "test_main",
    "pyreport.examples",
    "test",
    "pyreport.pyreport",
    "pyreport",
    "pyreport.code_hasher",
    "pyreport.test.test_code_hasher"
]