{
    "libs": [
        "curses",
        "locale",
        "random",
        "mimetypes",
        "subprocess",
        "io",
        "shutil",
        "select",
        "configparser",
        "pstats",
        "copy",
        "struct",
        "grp",
        "tempfile",
        "errno",
        "re",
        "collections",
        "cProfile",
        "math",
        "t",
        "fcntl",
        "stat",
        "string",
        "optparse",
        "inspect",
        "termios",
        "sys",
        "pwd",
        "codecs",
        "path",
        "datetime",
        "types",
        "ConfigParser",
        "unicodedata",
        "socket",
        "h",
        "signal",
        "traceback",
        "weakref",
        "chardet",
        "doctest",
        "time",
        "_curses",
        "os"
    ]
}