[
    "contrib.ovs.version",
    "lib.packet.icmpv6",
    "ryu.ryu.app.gre_tunnel",
    "ryu.ryu.controller.handler",
    "operations.util",
    "ofproto.ofproto_v1_3",
    "ofproto.ofproto_v1_2",
    "test_arp",
    "ofproto.ofproto_v1_0",
    "app.simple_switch_stp",
    "pyretic.vendor.ryu.ryu.contrib.ovs.timeval",
    "ovs.bridge",
    "ryu.lib.packet.afi",
    "ryu.ryu.ofproto.ofproto_v1_0_parser",
    "ryu.lib.of_config.constants",
    "tutorial.of_tutorial",
    "ryu.contrib.ncclient.operations.session",
    "pyretic.vendor.ryu.ryu.app.rest_topology",
    "vendor.ryu.ryu.controller",
    "lib.packet.ethernet",
    "ryu.ryu.lib.packet.udp",
    "tests.mininet_tests",
    "vendor.ryu.ryu.tests.unit.lib.test_mod.hoge",
    "pyretic.vendor.ryu.ryu.tests.unit.lib.test_ofctl_v1_3",
    "tests.unit.app.test_wsgi",
    "vendor.ryu.ryu.topology.dumper",
    "ovs.timeval",
    "ryu.lib.netconf",
    "ryu.tests.unit.ofproto.test_ofproto_parser",
    "ryu.ryu.lib.packet.bgp",
    "app.simple_vlan",
    "socket_util",
    "ovs.reconnect",
    "ryu.controller.dpset",
    "pyretic.vendor.ryu.ryu.controller.tunnels",
    "vendor.ryu.ryu.lib.ovs",
    "util",
    "vendor.ryu.ryu.lib",
    "vendor.ryu.ryu.ofproto.ofproto_v1_0",
    "extra-topos",
    "vendor.ryu.ryu.ofproto.ofproto_v1_2",
    "vendor.ryu.ryu.ofproto.ofproto_v1_3",
    "pyretic.vendor.ryu.ryu.controller.mac_to_port",
    "pyretic.vendor.ryu.ryu.tests.mininet.l2",
    "pyretic.vendor.ryu.ryu.app.rest_router",
    "pyretic.examples",
    "mininet.packet_lib.arp",
    "vendor.ryu.ryu.tests.integrated.run_tests_with_ovs12",
    "ryu.app.simple_switch_13",
    "pyretic.vendor.ryu.ryu.tests.unit.packet.test_vrrp",
    "vendor.ryu.ryu.controller.ofp_event",
    "ryu.ryu.lib.packet.bpdu",
    "ofproto.ether",
    "core.language",
    "cmd",
    "vendor.ryu.ryu.contrib.ovs.json",
    "ryu.ryu.tests.mininet.l3.ip_ttl.test_ip_ttl",
    "ryu.lib.stplib",
    "pbb",
    "examples.prefix_route",
    "ryu.ryu.contrib.ovs.fatal_signal",
    "ovs.db_client",
    "pyretic.vendor.ryu.ryu.tests.unit.ofproto.test_inet",
    "test_hub",
    "pyretic.vendor.ryu.ryu.tests.unit.sample",
    "ryu.ryu.ofproto.ether",
    "lib.xflow.sflow",
    "vendor.ryu.tools.normalize_json",
    "llc",
    "pyretic.vendor.ryu.ryu.tests.unit.ofproto.test_parser_v10",
    "vendor.ryu.ryu.lib.of_config",
    "pyretic.vendor.ryu.ryu.contrib.ovs.reconnect",
    "ryu.controller.event",
    "packet.lldp",
    "operations.rpc",
    "tools.install_venv",
    "ryu.app.rest_conf_switch",
    "errors",
    "lib.packet.llc",
    "pyretic.vendor.ryu.ryu.tests.unit.lib.test_ip",
    "contrib.ncclient.operations.errors",
    "version",
    "ryu.lib.netconf.constants",
    "pyretic.tests.test_arp",
    "pyretic.vendor.ryu.ryu.utils",
    "pyretic.vendor.ryu.ryu.lib.of_config.constants",
    "contrib.ovs.ovsuuid",
    "pyretic.vendor.ryu.ryu.tests.unit.app",
    "pyretic.vendor.ryu.ryu.contrib.ovs",
    "tools.normalize_json",
    "pyretic.vendor.ryu.ryu.controller.ofp_handler",
    "patch.asynchat",
    "unit.ofproto.test_parser_compat",
    "vendor.ryu.ryu.app.conf_switch_key",
    "test_dhcp",
    "contrib.ovs.jsonrpc",
    "pyretic.vendor.ryu.ryu.contrib.ovs.db.data",
    "ryu.contrib.ovs.vlog",
    "ryu.lib.ovs.db_client",
    "vendor.ryu.ryu.tests.mininet.l2.vlan",
    "ryu.tests.integrated.run_tests_with_ovs12",
    "pyretic.vendor.ryu.ryu.tests.unit.packet.test_sctp",
    "ryu.ryu.tests.mininet",
    "contrib.ncclient.operations.flowmon",
    "pyretic.vendor.ryu.ryu.contrib.ncclient.operations.edit",
    "pyretic.vendor.ryu.ryu.contrib.ovs.fatal_signal",
    "vendor.ryu.ryu.base",
    "ryu.app.rest_router",
    "ryu.ryu.controller.event",
    "unit.ofproto.test_ofproto_parser",
    "ryu.ofproto.ether",
    "ryu.lib.xflow",
    "ryu.ryu.app.simple_switch_stp",
    "ryu.tests.unit.app.test_wsgi",
    "contrib.ncclient.transport.errors",
    "ncclient.xml_",
    "ryu.tests.unit.lib",
    "vendor.ryu.ryu.lib.xflow.netflow",
    "pyretic.modules.arp",
    "lib.packet.bgp",
    "vendor.ryu.ryu.tests.mininet.l3",
    "ovs.db.error",
    "unit",
    "ncclient.operations.rpc",
    "core.language_tools",
    "ryu.ryu.tests.integrated.test_of_config",
    "ryu.app.rest_topology",
    "vendor.ryu.ryu.base.app_manager",
    "unit.packet.test_ethernet",
    "pyretic.vendor.ryu.ryu.controller.network",
    "ryu.lib.packet.lldp",
    "ryu.ryu.tests.test_lib",
    "pyretic.vendor.ryu.ryu.contrib.ovs.db.error",
    "ncclient.operations.subscribe",
    "pyretic.vendor.ryu.ryu.contrib.ncclient.xml_",
    "tools.topology_graphviz",
    "packet.arp",
    "pyretic.examples.regexp",
    "source.conf",
    "ryu.ryu.controller.mac_to_network",
    "ryu.contrib.ncclient.operations.subscribe",
    "pyretic.vendor.ryu.ryu.contrib.ovs.dirs",
    "pyretic.vendor.ryu.ryu.ofproto.ofproto_common",
    "l2.vlan",
    "ryu.ryu.contrib.ncclient.operations.rpc",
    "packet.slow",
    "packet_lib.arp",
    "pyretic",
    "pyretic.vendor.ryu.ryu.contrib.ovs.daemon",
    "vendor.ryu.ryu.lib.packet.arp",
    "vendor.ryu.ryu.tests.unit.ofproto.test_parser",
    "pyretic.vendor.ryu.ryu.contrib.ncclient.operations.flowmon",
    "ryu.ryu.ofproto.ofproto_v1_2_parser",
    "packet.test_udp",
    "vendor.ryu.ryu.lib.packet.llc",
    "vendor.ryu.ryu.lib.packet.slow",
    "ryu.ryu.lib.packet.slow",
    "ovs.db.parser",
    "unit.packet",
    "ryu.tests.unit.ofproto.test_ofproto_common",
    "ryu.ryu.lib.packet.packet_base",
    "packet.test_vrrp",
    "ofctl_v1_0",
    "ofctl_v1_3",
    "ofctl_v1_2",
    "vendor.ryu.ryu.app.simple_isolation",
    "ryu.contrib.ovs",
    "ryu.lib.packet",
    "unit.lib.test_mod.fuga",
    "ryu.ryu.ofproto.ofproto_v1_3",
    "pyretic.vendor.ryu.ryu.flags",
    "ryu.ryu.ofproto.ofproto_v1_0",
    "vendor.ryu.ryu.contrib.ovs.daemon",
    "unit.sample.test_sample1",
    "tests.mininet.l3",
    "pyretic.tests.tests",
    "contrib.ncclient.transport.ssh",
    "tests.unit.ofproto.test_parser_compat",
    "ryu.tests.unit.packet.test_ethernet",
    "ryu.tests.mininet.l3.ip_ttl",
    "contrib.ncclient.operations.session",
    "pyretic.backend.patch.asynchat",
    "ryu",
    "vendor.ryu.ryu.tests.mininet.l2.vlan.test_vlan",
    "ryu.ryu.topology.switches",
    "pyretic.vendor.ryu.ryu.lib.packet.stream_parser",
    "ovs",
    "ryu.ryu.tests.unit.lib.test_mod.hoge",
    "ryu.tests.unit.packet.test_tcp",
    "vendor.ryu.ryu.tests.unit.packet.test_dhcp",
    "ryu.ryu.ofproto",
    "vlan",
    "vendor.ryu.ryu.contrib.ovs.db.parser",
    "controller.tunnels",
    "pyretic.lib.corelib",
    "ryu.ryu.contrib.ncclient",
    "vendor.ryu.ryu.contrib.ovs.fatal_signal",
    "vendor.ryu.ryu.lib.packet.tcp",
    "vendor.ryu.ryu.tests.mininet.l2.mpls.test_mpls",
    "vendor.ryu.ryu.ofproto.ofproto_v1_3_parser",
    "test_wsgi",
    "types",
    "ryu.ryu.contrib.ncclient.transport",
    "contrib.ovs.process",
    "core.network",
    "tests.integrated.test_add_flow_v10",
    "vendor.ryu.ryu.contrib.ncclient.operations.errors",
    "vendor.ryu.ryu.lib.packet",
    "examples.dpi",
    "tests.unit.ofproto.test_inet",
    "ryu.ryu.contrib.ovs.db.idl",
    "pyretic.vendor.ryu.ryu.tests.unit.packet.test_lldp",
    "topology.dumper",
    "ethernet",
    "pyretic.vendor.ryu.ryu.lib.packet.ethernet",
    "oxm_fields",
    "ryu.ryu.lib.dpid",
    "ryu.tests.unit.packet.test_ipv6",
    "contrib.ncclient.operations.util",
    "operations",
    "ryu.lib.packet.slow",
    "rest_firewall",
    "mininet.l2.mpls",
    "tests.unit.packet.test_pbb",
    "ryu.contrib.ncclient.operations.edit",
    "ryu.ryu.lib.lacplib",
    "vendor.ryu.ryu.app",
    "contrib.ovs.fatal_signal",
    "ryu.app.wsgi",
    "reconnect",
    "pyretic.vendor",
    "lib.ovs.vsctl",
    "pyretic.vendor.ryu.ryu.tests.mininet.l3",
    "packet_utils",
    "vendor.ryu.ryu.tests.unit.lib.test_mod.fuga.mod",
    "contrib.ovs.db.data",
    "ryu.ryu.tests.unit.packet.test_slow",
    "ryu.controller.controller",
    "ryu.ryu.contrib.ovs.db",
    "lib.ovs.vswitch_idl",
    "app.wsgi",
    "vendor.ryu.ryu.tests.unit.lib.test_mac",
    "vendor.ryu.ryu.tests.unit.ofproto.test_ofproto_parser",
    "of_tutorial",
    "tests.mininet.l3.ip_ttl.test_ip_ttl",
    "operations.retrieve",
    "pyretic.vendor.ryu.tools.topology_graphviz",
    "safi",
    "tests.unit.packet.test_vrrp",
    "ryu.ryu.tests.unit.packet",
    "of_client.pox_client",
    "ryu.lib.ovs.bridge",
    "ryu.controller.tunnels",
    "packet.stream_parser",
    "vendor.ryu.ryu.contrib.ncclient.debug",
    "tests.integrated.test_request_reply_v12",
    "ryu.tests.unit.packet",
    "ryu.contrib",
    "vendor.ryu.ryu.tests.unit.lib.test_mod",
    "pyretic.vendor.ryu.ryu.lib.packet.llc",
    "ryu.tests.integrated",
    "ryu.tests.integrated.test_add_flow_v10",
    "ryu.ryu.tests.mininet.l2.mpls",
    "pyretic.vendor.ryu.ryu.contrib.ncclient.operations.session",
    "ryu.ryu.lib.netconf.constants",
    "pyretic.modules.hub",
    "ryu.tests.unit.lib.test_ip",
    "tests.integrated.test_of_config",
    "tests.unit.lib.test_ofp_pktinfilter",
    "ryu.app.conf_switch_key",
    "debug",
    "vendor.ryu.ryu.tests.unit.app.test_wsgi",
    "pyretic.vendor.ryu.ryu.tests.unit.packet.test_arp",
    "packet.llc",
    "classifier",
    "unit.lib.test_stringify",
    "xflow.sflow",
    "tests.unit.lib.test_hub",
    "lib.ip",
    "unit.lib.test_mod.hoge.mod",
    "transport.ssh",
    "pyretic.vendor.ryu.ryu.lib.packet.slow",
    "sample.test_sample1",
    "sample.test_sample2",
    "pyretic.core.language_tools",
    "ncclient.transport.session",
    "test_vrrp",
    "event",
    "topology_graphviz",
    "vendor.ryu.ryu.tests.unit.ofproto.test_ofproto",
    "network",
    "app.rest_conf_switch",
    "ryu.ryu.app.rest_topology",
    "ryu.ofproto.ofproto_common",
    "tests.mininet.l2.mpls",
    "pyretic.vendor.ryu.ryu.app.ofctl_rest",
    "ip_ttl",
    "pyretic.vendor.ryu.ryu.controller.handler",
    "vendor.ryu.ryu.lib.packet.vlan",
    "ryu.tests.unit",
    "pyretic.core",
    "ryu.app.simple_switch_12",
    "tests.unit.packet.test_lldp",
    "vendor.ryu.ryu.contrib.ncclient.operations.edit",
    "dirs",
    "db.idl",
    "pyretic.vendor.ryu.ryu.contrib.ovs.process",
    "vendor.ryu.ryu.contrib.ncclient.operations.lock",
    "app.client",
    "pyretic.vendor.ryu.tools",
    "base",
    "test_parser_ofpmatch",
    "lib.packet.sctp",
    "pyretic.vendor.ryu.ryu.tests.unit.ofproto.test_parser",
    "ryu.ryu.contrib.ovs.timeval",
    "ryu.lib.mac",
    "packet.dhcp",
    "contrib.ovs.db.schema",
    "ryu.contrib.ovs.jsonrpc",
    "pyretic.vendor.ryu.ryu.tests.unit.packet.test_ipv6",
    "pyretic.vendor.ryu.ryu.tests.unit.packet.test_ipv4",
    "vendor.ryu.ryu.lib.packet.bgp",
    "vendor.ryu.ryu.tests.run_tests",
    "lib.test_hub",
    "controller.conf_switch",
    "ryu.ofproto.ofproto_v1_0_parser",
    "ofproto.test_ether",
    "integrated.test_add_flow_v10",
    "ryu.ryu.contrib.ncclient.xml_",
    "controller.controller",
    "ofproto.ofproto_common",
    "unit.sample",
    "ryu.tests.mininet.l3.icmp",
    "vendor.ryu.doc",
    "ryu.app.simple_vlan",
    "pyretic.vendor.ryu.ryu.tests.unit.packet.test_igmp",
    "ryu.app.simple_switch_stp",
    "vendor.ryu.ryu.tests.mininet.l3.icmp.test_icmp",
    "pyretic.vendor.ryu.ryu.app.cbench",
    "lib.test_ofp_pktinfilter",
    "vendor.ryu.ryu.lib.packet.lldp",
    "app_manager",
    "ovs.process",
    "ryu.ryu.tests.integrated.test_request_reply_v12",
    "pyretic.vendor.ryu.ryu.tests.unit.packet.test_bgp",
    "vendor.ryu.ryu.lib.packet.icmpv6",
    "pyretic.vendor.ryu.ryu.ofproto.ofproto_v1_0",
    "pyretic.vendor.ryu.ryu.ofproto.ofproto_v1_2",
    "pyretic.vendor.ryu.ryu.ofproto.ofproto_v1_3",
    "ryu.contrib.ovs.poller",
    "pyretic.backend.backend",
    "vendor.ryu.doc.source.conf",
    "packet.icmp",
    "packet.test_sctp",
    "schema",
    "ryu.ryu.lib.ofctl_v1_0",
    "ryu.ryu.lib.ofctl_v1_2",
    "lib.packet.dhcp",
    "ryu.ryu.tests.unit.app.test_wsgi",
    "vendor.ryu.ryu.lib.quantum_ifaces",
    "vendor.ryu.ryu.lib.packet.safi",
    "ofproto_parser",
    "ryu.ryu.contrib.ovs.process",
    "ryu.ryu.tests.integrated",
    "nx_match",
    "port_no",
    "ryu.ryu.app.rest_tunnel",
    "std",
    "vendor.ryu.ryu.tests.unit.packet.test_igmp",
    "rest_quantum",
    "packet.test_packet",
    "ryu.tests.mininet.l2.mpls",
    "packet.test_bgp",
    "vendor.ryu.ryu.controller.mac_to_network",
    "ryu.ryu.log",
    "xml_",
    "ryu.ryu.controller",
    "ryu.lib.hub",
    "vlan.test_vlan",
    "lib.stplib",
    "unit.packet.test_slow",
    "pyretic.vendor.ryu.ryu.contrib.ncclient.operations.rpc",
    "ryu.contrib.ovs.unixctl",
    "ovs.db.idl",
    "run_tests_with_ovs12",
    "rewrite",
    "vendor.ryu.ryu.app.rest",
    "ovs.unixctl",
    "ryu.app",
    "udp",
    "ofproto.test_ofproto_parser",
    "ofproto",
    "ryu.ryu.lib.ofctl_v1_3",
    "ryu.ryu.contrib.ovs.daemon",
    "simple_switch_stp",
    "vendor.ryu.ryu.tests.unit.packet.test_slow",
    "vendor.ryu.ryu.lib.packet.dhcp",
    "lib",
    "integrated.tester",
    "pyretic.vendor.ryu.ryu.app.simple_switch_stp",
    "timeval",
    "pyretic.vendor.ryu.ryu.ofproto.ofproto_v1_3_parser",
    "l2.mpls",
    "ryu.lib.packet.icmpv6",
    "tests.mininet.packet_lib",
    "tunnels",
    "vendor.ryu.ryu.tests.test_lib",
    "examples.bucket",
    "lib.port_no",
    "unit.lib.test_mod.hoge",
    "pyretic.vendor.ryu.ryu.lib.dpid",
    "lib.std",
    "pyretic.vendor.ryu.ryu.ofproto.nx_match",
    "pyretic.vendor.ryu.ryu.tests.unit.lib.test_ofp_pktinfilter",
    "pyretic.vendor.ryu.ryu",
    "ryu.contrib.ovs.db.data",
    "ryu.lib.packet.dhcp",
    "packet.test_icmp",
    "app.rest_tunnel",
    "vendor.ryu.ryu.app.simple_switch_lacp",
    "doc",
    "pyretic.core.network",
    "ryu.ryu.controller.controller",
    "pyretic.vendor.ryu.ryu.topology.event",
    "lib.packet.icmp",
    "unit.ofproto.test_parser_ofpmatch",
    "ryu.ryu.contrib.ncclient.capabilities",
    "ryu.ryu.lib.packet.lldp",
    "vendor.ryu.ryu.tests.integrated.test_add_flow_v12_actions",
    "wsgi",
    "ryu.tests.test_lib",
    "pyretic.vendor.ryu.ryu.tests.unit.ofproto.test_ofproto_parser",
    "ryu.ryu.contrib.ovs.jsonrpc",
    "ryu.ryu.tests.integrated.test_add_flow_v12_matches",
    "lib.packet.udp",
    "vendor.ryu.ryu.lib.ovs.vsctl",
    "ryu.ryu.lib.quantum_ifaces",
    "session",
    "unit.packet.test_mpls",
    "pyretic.vendor.ryu.ryu.contrib.ncclient.operations.retrieve",
    "ryu.app.cbench",
    "lib.ovs.bridge",
    "ryu.tests.mininet.packet_lib.arp.test_arp",
    "vendor.ryu.ryu.topology",
    "vendor.ryu.tools.install_venv",
    "vendor.ryu.ryu.contrib.ncclient.operations.rpc",
    "lib.xflow.netflow",
    "ryu.ryu.lib.packet.icmpv6",
    "pyretic.vendor.ryu.ryu.contrib.ncclient.transport.errors",
    "ryu.lib.packet.packet",
    "packet.ipv4",
    "packet.ipv6",
    "fuga",
    "ryu.ryu.app.simple_switch_lacp",
    "ryu.lib.packet.arp",
    "pyretic.vendor.ryu.ryu.tests.unit.lib.test_addrconv",
    "vendor.ryu.ryu.app.quantum_adapter",
    "pyretic.vendor.ryu.ryu.lib.packet.igmp",
    "pyretic.vendor.ryu.ryu.lib.ovs",
    "db",
    "ryu.tests.unit.lib.test_stringify",
    "rest",
    "netflow",
    "ryu.controller.conf_switch",
    "pyretic.vendor.ryu.ryu.lib.packet.safi",
    "ryu.contrib.ovs.daemon",
    "ryu.lib.dpid",
    "ryu.lib.addrconv",
    "tunnel_port_updater",
    "lib.test_mod.hoge.mod",
    "pyretic.vendor.ryu.ryu.base.app_manager",
    "vendor.ryu.ryu.lib.mac",
    "ryu.contrib.ovs.util",
    "vlog",
    "unixctl.client",
    "ryu.ryu.tests.mininet.l2",
    "ryu.ryu.lib.ovs.bridge",
    "lib.packet.packet",
    "ryu.ryu.contrib.ncclient.transport.session",
    "ryu.lib.packet.safi",
    "mininet.l3.ip_ttl.test_ip_ttl",
    "ryu.ryu.tests.unit.lib.test_addrconv",
    "arp",
    "ryu.ryu.lib.packet.ipv6",
    "vendor.ryu.ryu.lib.packet.stream_parser",
    "ryu.ryu.lib.packet.ipv4",
    "ovs.json",
    "ryu.ryu.tests.unit",
    "tests.unit_tests",
    "pyretic.vendor.ryu.ryu.tests.run_tests",
    "pyretic.vendor.ryu.ryu.lib.ovs.bridge",
    "pyretic.modules.mac_learner",
    "ryu.ryu.tests.mininet.l3",
    "modules.arp",
    "tests.unit.packet.test_bgp",
    "pyretic.vendor.ryu.ryu.base",
    "stringify",
    "ryu.contrib.ovs.unixctl.server",
    "ryu.tests.mininet.l2.vlan.test_vlan",
    "app.test_wsgi",
    "ryu.tests.unit.lib.test_mod",
    "lib.packet.afi",
    "unit.packet.test_lldp",
    "doc.source",
    "ryu.ryu.tests.unit.packet.test_vrrp",
    "lib.packet.packet_base",
    "pyretic.vendor.ryu.ryu.lib.packet.packet_utils",
    "tests.unit.ofproto.test_parser",
    "pyretic.vendor.ryu.ryu.lib.packet.ipv6",
    "ofp_pktinfilter",
    "pyretic.vendor.ryu.ryu.lib.packet.ipv4",
    "ryu.ryu.app.client",
    "install_venv",
    "ryu.controller.network",
    "lib.netconf.constants",
    "xflow.netflow",
    "ofproto.ofproto_v1_0_parser",
    "ryu.lib.packet.packet_utils",
    "ryu.ryu.tests.unit.packet.test_ipv6",
    "ryu.ryu.tests.unit.packet.test_ipv4",
    "vendor.ryu.ryu.contrib.ncclient.operations.flowmon",
    "pyretic.vendor.ryu.ryu.tests.unit.packet.test_udp",
    "ryu.app.ofctl_rest",
    "vendor.ryu.ryu.contrib.ncclient.transport",
    "vendor.ryu.ryu.app.gre_tunnel",
    "topology",
    "contrib.ovs.poller",
    "lib.quantum_ifaces",
    "test_parser_compat",
    "ryu.ryu.contrib.ovs.poller",
    "ryu.tests.unit.lib.test_mod.hoge.mod",
    "tests.mininet.l2.vlan",
    "mininet.packet_lib",
    "pyretic.vendor.ryu.ryu.contrib.ncclient.operations.subscribe",
    "lib.test_import_module",
    "pyretic.vendor.ryu.ryu.lib.ofctl_v1_2",
    "pyretic.vendor.ryu.ryu.lib.ofctl_v1_0",
    "pyretic.vendor.ryu.ryu.controller.ofp_event",
    "ryu.tests.mininet",
    "pyretic.tests.test_mac_learner",
    "unit.packet.test_packet",
    "bridge",
    "vendor.ryu.ryu.app.wsgi",
    "ncclient",
    "pyretic.vendor.ryu.ryu.contrib.ovs.unixctl.client",
    "vendor.ryu.ryu.tests.mininet.packet_lib.arp.test_arp",
    "ryu.ryu.ofproto.nx_match",
    "pyretic.vendor.ryu.ryu.contrib.ncclient.transport.ssh",
    "tests.unit.ofproto.test_parser_ofpmatch",
    "ryu.ryu.contrib.ncclient.operations.lock",
    "pyretic.examples.dpi",
    "ryu.ryu.app.simple_isolation",
    "operations.flowmon",
    "ether",
    "backend",
    "unit.packet.test_dhcp",
    "tests.mininet.packet_lib.arp",
    "ryu.ofproto.ofproto_parser",
    "ryu.tests.unit.lib.test_mod.fuga.mod",
    "patch",
    "pyretic.vendor.ryu.ryu.lib.stplib",
    "vendor.ryu.ryu.contrib.ncclient.operations.retrieve",
    "pyretic.vendor.ryu.ryu.app.rest",
    "pyretic.vendor.ryu.ryu.contrib",
    "pyretic.vendor.ryu.ryu.cmd",
    "quantum_adapter",
    "vendor.ryu.ryu.tests.unit.app",
    "controller.ofp_event",
    "vendor.ryu.ryu.utils",
    "unit.packet.test_arp",
    "tests.integrated.test_add_flow_v12_actions",
    "ryu.ryu.contrib.ncclient.operations.util",
    "backend.comm",
    "ryu.contrib.ncclient.manager",
    "ovs.stream",
    "ryu.ryu.lib.of_config.constants",
    "ryu.tests.unit.packet.test_icmp",
    "vendor.ryu.ryu.lib.packet.afi",
    "ryu.ryu.controller.tunnels",
    "packet.bpdu",
    "exception",
    "vendor.ryu.doc.source",
    "ncclient.manager",
    "topology.switches",
    "mpls",
    "ryu.lib.xflow.sflow",
    "ovs.poller",
    "ryu.tests.unit.ofproto.test_ofproto",
    "ryu.ryu.tests.unit.packet.test_ethernet",
    "examples.topology_printer",
    "app.quantum_adapter",
    "operations.session",
    "lib.corelib",
    "ip",
    "vendor.ryu.ryu.contrib.ovs.db.schema",
    "pyretic.vendor.ryu.ryu.app.rest_quantum",
    "conf",
    "ryu.cmd",
    "vendor.ryu.ryu.tests.unit.lib.test_hub",
    "ryu.ryu.topology.event",
    "ofproto.inet",
    "dumper",
    "pyretic.vendor.ryu.ryu.lib.packet.vrrp",
    "tests.unit.lib.test_ofctl_v1_3",
    "pyretic.vendor.ryu.ryu.lib.quantum_ifaces",
    "ryu.contrib.ncclient.operations.lock",
    "ryu.contrib.ovs.fatal_signal",
    "test_mpls",
    "ryu.tests.unit.ofproto.test_parser_ofpmatch",
    "ryu.contrib.ncclient.operations.flowmon",
    "vendor.ryu.tools.topology_graphviz",
    "vendor.ryu.ryu.tests.unit.packet.test_udp",
    "integrated.test_add_flow_v12_actions",
    "ryu.ryu.controller.mac_to_port",
    "ryu.ryu.lib.packet.icmp",
    "test_import_module",
    "vendor.ryu.ryu.tests.unit.ofproto.test_ofproto_common",
    "mininet.l2",
    "mininet.l3",
    "tests.unit",
    "ryu.lib.packet.packet_base",
    "pyretic.vendor.ryu.ryu.lib.packet.tcp",
    "pyretic.vendor.ryu.ryu.topology",
    "tests.unit.packet.test_icmpv6",
    "unit.packet.test_icmpv6",
    "ryu.ryu.lib",
    "pyretic.core.runtime",
    "packet.test_ethernet",
    "ryu.ryu.tests.unit.packet.test_sctp",
    "pyretic.core.packet",
    "modules.hub",
    "pyretic.vendor.ryu.ryu.lib.packet.vlan",
    "pyretic.vendor.ryu.ryu.tests.unit.ofproto.test_parser_compat",
    "ryu.contrib.ovs.json",
    "ryu.ryu.lib.packet.packet",
    "ryu.lib.packet.tcp",
    "client",
    "ryu.ryu.tests.unit.packet.test_vlan",
    "lib.lacplib",
    "integrated.run_tests_with_ovs12",
    "tests.unit.packet.test_icmp",
    "ryu.tests.unit.lib.test_hub",
    "pyretic.vendor.ryu.ryu.tests.integrated",
    "operations.errors",
    "ryu.contrib.ovs.dirs",
    "pyretic.vendor.ryu.ryu.topology.switches",
    "vendor.ryu.ryu.tests.unit.packet.test_vrrp",
    "pyretic.vendor.ryu.ryu.contrib.ncclient.operations.lock",
    "unit.packet.test_udp",
    "vendor.ryu.ryu.lib.dpid",
    "lib.of_config",
    "flowmon",
    "ryu.tests.unit.packet.test_vrrp",
    "poller",
    "pyretic.vendor.ryu.ryu.app.gre_tunnel",
    "vswitch_idl",
    "pyretic.vendor.ryu.ryu.contrib.ovs.jsonrpc",
    "tests.unit.packet.test_dhcp",
    "ofproto.nx_match",
    "hoge",
    "vendor.ryu.ryu.app.client",
    "ryu.contrib.ovs.db.schema",
    "transport.session",
    "source",
    "test_ofproto_parser",
    "contrib.ncclient.operations.rpc",
    "test_packet",
    "mac_to_port",
    "vendor.ryu.ryu.controller.conf_switch",
    "vendor",
    "ryu.lib.packet.vlan",
    "run_tests",
    "pyretic.vendor.ryu.ryu.app.quantum_adapter",
    "l3.icmp.test_icmp",
    "vendor.ryu.ryu.contrib.ovs.unixctl",
    "vendor.ryu.ryu.contrib.ncclient.transport.errors",
    "vendor.ryu.ryu.contrib.ovs.unixctl.server",
    "ovs.vswitch_idl",
    "pyretic.vendor.ryu.ryu.tests.unit.app.test_wsgi",
    "ryu.ryu.tests.mininet.l2.vlan",
    "gre_tunnel",
    "vendor.ryu.ryu.lib.packet.igmp",
    "daemon",
    "lib.mac",
    "tests.unit.lib.test_import_module",
    "vendor.ryu.ryu.tests.unit.ofproto.test_ether",
    "tests.unit.lib.test_mod",
    "vendor.ryu.ryu.tests.mininet.l2",
    "packet.afi",
    "ryu.ryu.app.simple_switch",
    "lib.query",
    "app.rest_nw_id",
    "ovs.dirs",
    "ryu.tests.unit.lib.test_mac",
    "pyretic.tutorial",
    "contrib.ncclient.transport.session",
    "ryu.controller.handler",
    "contrib.ovs.unixctl.server",
    "vendor.ryu.ryu.lib.of_config.constants",
    "vendor.ryu.ryu.lib.packet.sctp",
    "of_config.constants",
    "lib.test_ofctl_v1_3",
    "ofproto_common",
    "examples",
    "vendor.ryu.ryu.contrib.ovs.reconnect",
    "lib.test_ip",
    "pyretic.vendor.ryu.ryu.tests.unit.lib.test_mod.fuga.mod",
    "tests.test_hub",
    "tutorial",
    "ryu.ryu.lib.stringify",
    "asynchat",
    "doc.source.conf",
    "vendor.ryu.ryu.contrib.ovs.unixctl.client",
    "operations.lock",
    "packet.test_lldp",
    "tests.utils",
    "test_ipv4",
    "app.simple_isolation",
    "db.types",
    "core",
    "ryu.ryu.lib.netconf",
    "ryu.ryu.tests.unit.lib.test_import_module",
    "vendor.ryu.ryu.app.rest_tunnel",
    "vendor.ryu.ryu.tests.unit.packet.test_ethernet",
    "tests.unit.ofproto",
    "lib.dpid",
    "pyretic.vendor.ryu.ryu.contrib.ovs.db.idl",
    "ryu.ryu.contrib.ncclient.manager",
    "controller.network",
    "contrib.ovs.vlog",
    "ryu.tests.unit.lib.test_mod.fuga",
    "test_ofproto_common",
    "vendor.ryu.ryu.app.rest_quantum",
    "ryu.lib.packet.bpdu",
    "pyretic.vendor.ryu.ryu.contrib.ovs.ovsuuid",
    "ryu.ryu.lib.of_config.capable_switch",
    "pyretic.vendor.ryu.ryu.lib.packet.bgp",
    "bgp",
    "ryu.contrib.ovs.db.types",
    "ryu.ryu.lib.stplib",
    "l2.vlan.test_vlan",
    "runtime",
    "operations.subscribe",
    "pyretic.core.classifier",
    "vendor.ryu.ryu.app.simple_switch",
    "ryu.lib.ofctl_v1_2",
    "ryu.lib.ofctl_v1_3",
    "ryu.lib.ofctl_v1_0",
    "ryu.doc",
    "test_inet",
    "contrib.ovs.stream",
    "ryu.contrib.ovs.ovsuuid",
    "vendor.ryu.ryu.lib.packet.vrrp",
    "test_mod",
    "ryu.ryu.ofproto.ofproto_common",
    "unit.lib.test_mod.fuga.mod",
    "contrib",
    "packet.tcp",
    "ryu.contrib.ovs.socket_util",
    "vendor.ryu.ryu.lib.packet.mpls",
    "ofproto.test_parser",
    "ryu.tests.unit.packet.test_udp",
    "lldp",
    "vendor.ryu.ryu.contrib.ovs.socket_util",
    "pyretic.tutorial.of_tutorial",
    "examples.regexp",
    "packet.ethernet",
    "pyretic.vendor.ryu.ryu.lib.of_config.capable_switch",
    "vendor.ryu.ryu.contrib.ovs.jsonrpc",
    "vendor.ryu.ryu.contrib.ncclient.transport.ssh",
    "integrated.test_add_flow_v12_matches",
    "ryu.ryu.lib.packet.dhcp",
    "pyretic.vendor.ryu.ryu.contrib.ncclient.debug",
    "ryu.ryu.contrib.ovs.unixctl",
    "ryu.contrib.ncclient.transport.errors",
    "ryu.ryu.contrib.ovs.dirs",
    "pyretic.vendor.ryu.ryu.contrib.ovs.unixctl",
    "test_icmp",
    "pyretic.vendor.ryu.ryu.lib.packet.afi",
    "ofproto_v1_0_parser",
    "contrib.ovs.unixctl",
    "lib.packet.safi",
    "icmp",
    "ryu.ryu.contrib.ovs.db.schema",
    "ofproto.ofproto_parser",
    "ryu.ryu.lib.packet.tcp",
    "vendor.ryu.ryu.controller.dpset",
    "pyretic.vendor.ryu.ryu.tests.unit.ofproto",
    "pyretic.vendor.ryu.ryu.contrib.ovs.json",
    "examples.rewrite",
    "test_igmp",
    "mininet.l2.vlan.test_vlan",
    "ryu.ryu.lib.port_no",
    "ryu.lib.xflow.netflow",
    "lib.packet.packet_utils",
    "vendor.ryu.ryu.app.rest_router",
    "ryu.lib.packet.udp",
    "ryu.ryu.lib.mac",
    "ryu.ryu.app.cbench",
    "contrib.ovs.daemon",
    "ryu.controller.mac_to_network",
    "ryu.ryu.tests.unit.packet.test_igmp",
    "ryu.ryu.tests.mininet.l3.ip_ttl",
    "vendor.ryu.ryu.ofproto.inet",
    "vendor.ryu.ryu.controller.event",
    "parser",
    "ryu.flags",
    "mininet.packet_lib.arp.test_arp",
    "unit.lib.test_mod",
    "ryu.ryu.app.rest_nw_id",
    "vendor.ryu.ryu.lib.ip",
    "vendor.ryu.ryu.tests.unit.ofproto",
    "ip_ttl.test_ip_ttl",
    "pyretic.vendor.ryu.ryu.lib.ovs.vswitch_idl",
    "tester",
    "contrib.ovs.unixctl.client",
    "ryu.ofproto",
    "pyretic.vendor.ryu.ryu.app.tunnel_port_updater",
    "ryu.lib.packet.llc",
    "contrib.ncclient.operations",
    "tests.unit.ofproto.test_parser_v12",
    "pyretic.vendor.ryu.tools.install_venv",
    "ovs.unixctl.client",
    "ryu.contrib.ncclient.transport",
    "vendor.ryu.ryu.app.simple_switch_stp",
    "app.rest",
    "ryu.ryu.hooks",
    "ryu.lib.ip",
    "ryu.ryu.contrib.ovs.vlog",
    "pyretic.vendor.ryu.ryu.lib.xflow.sflow",
    "unit.packet.test_ipv4",
    "unit.packet.test_ipv6",
    "ryu.tests.run_tests",
    "ryu.ryu.app.rest_router",
    "pyretic.vendor.ryu.ryu.lib.netconf.constants",
    "ryu.tools.normalize_json",
    "cmd.manager",
    "controller.dpset",
    "ryu.tests.unit.packet.test_mpls",
    "ovs.ovsuuid",
    "ryu.tests.unit.packet.test_ipv4",
    "packet.test_vlan",
    "vendor.ryu.ryu.app.ofctl_rest",
    "modules",
    "vendor.ryu.ryu.tests.unit.packet.test_pbb",
    "ryu.ryu.lib.ovs",
    "ryu.ryu.tests.unit.lib.test_mod.fuga.mod",
    "ncclient.operations.edit",
    "flags",
    "unit.lib.test_mac",
    "ncclient.transport",
    "ryu.app.rest_quantum",
    "pyretic.vendor.ryu.ryu.tests.mininet.l2.mpls.test_mpls",
    "vendor.ryu.ryu.tests.unit.lib.test_mod.hoge.mod",
    "contrib.ovs.db.types",
    "unit.packet.test_pbb",
    "normalize_json",
    "xflow",
    "ryu.tests.unit.lib.test_import_module",
    "hooks",
    "ryu.ryu.tests.unit.lib.test_hub",
    "ryu.base",
    "ryu.ryu.tests.unit.packet.test_pbb",
    "contrib.ncclient.operations.retrieve",
    "switches",
    "examples.aggregate_queries",
    "manager",
    "ryu.tests.unit.packet.test_bgp",
    "ryu.ryu.tests.integrated.tester",
    "ryu.doc.source.conf",
    "query",
    "pyretic.vendor.ryu.ryu.tests.unit.packet.test_tcp",
    "base.app_manager",
    "test_lib",
    "ryu.ryu.lib.packet.igmp",
    "lib.ovs",
    "tests.mininet.packet_lib.arp.test_arp",
    "ryu.tests.unit.lib.test_mod.hoge",
    "vsctl",
    "pyretic.vendor.ryu.ryu.tests.unit.lib.test_mod",
    "vendor.ryu.ryu.contrib.ncclient.xml_",
    "vendor.ryu.ryu.app.simple_switch_13",
    "vendor.ryu.ryu.app.simple_switch_12",
    "stplib",
    "pyretic.vendor.ryu.ryu.contrib.ovs.stream",
    "ryu.ryu.tests.mininet.packet_lib.arp.test_arp",
    "ryu.ryu.tests.unit.ofproto.test_parser_ofpmatch",
    "db.schema",
    "ryu.ryu.app.rest_quantum",
    "vendor.ryu.ryu.tests.unit.lib.test_import_module",
    "pyretic.vendor.ryu.doc.source",
    "pyretic.vendor.ryu.ryu.tests.unit.ofproto.test_ofproto_common",
    "vendor.ryu.ryu.tests.integrated.test_add_flow_v10",
    "vendor.ryu.ryu.controller.network",
    "db.error",
    "lib.packet.slow",
    "tests.integrated.test_add_flow_v12_matches",
    "unixctl.server",
    "ryu.ryu.contrib.ovs.version",
    "ncclient.operations.util",
    "ryu.ryu.contrib.ncclient.transport.errors",
    "ncclient.debug",
    "ryu.tests.unit.ofproto",
    "ryu.ryu.tests.unit.packet.test_icmp",
    "vendor.ryu.ryu.controller.controller",
    "ryu.tests.unit.ofproto.test_parser_compat",
    "examples.port_knocking",
    "pyretic.vendor.ryu.ryu.lib.netconf",
    "pyretic.vendor.ryu.ryu.ofproto.ofproto_v1_2_parser",
    "packet.test_mpls",
    "ryu.ryu.tests.integrated.test_add_flow_v10",
    "test_ether",
    "test_stringify",
    "packet.test_dhcp",
    "ovs.vsctl",
    "app.gre_tunnel",
    "port_knocking",
    "vendor.ryu.ryu.tests",
    "vendor.ryu.ryu.contrib.ovs.dirs",
    "pyretic.vendor.ryu.ryu.controller.dpset",
    "pyretic.examples.topology_printer",
    "pyretic.vendor.ryu.ryu.tests.unit.lib.test_mac",
    "pyretic.vendor.ryu.ryu.contrib.ovs.version",
    "vendor.ryu.ryu.contrib.ovs.ovsuuid",
    "pyretic.vendor.ryu.ryu.lib.addrconv",
    "test_lldp",
    "pyretic.vendor.ryu.ryu.lib.packet.bpdu",
    "ryu.ryu.tests.unit.lib.test_mod",
    "app.rest_quantum",
    "ryu.controller.mac_to_port",
    "vendor.ryu.ryu.contrib.ovs",
    "ryu.tests.unit.packet.test_vlan",
    "tests.unit.packet.test_mpls",
    "lib.test_mod.hoge",
    "packet_lib",
    "tests.unit.ofproto.test_ofproto_v12",
    "core.classifier",
    "ryu.ryu.lib.xflow",
    "ryu.contrib.ovs.version",
    "ryu.ryu.tests.unit.app",
    "ryu.ryu.lib.packet",
    "pyretic.vendor.ryu.ryu.app.conf_switch_key",
    "pyretic.vendor.ryu.ryu.lib.packet",
    "ryu.ryu.lib.packet.ethernet",
    "ryu.lib.packet.sctp",
    "pyretic.vendor.ryu.ryu.contrib.ncclient",
    "vendor.ryu.ryu.tests.unit.lib.test_mod.fuga",
    "contrib.ovs.db.parser",
    "pyretic.vendor.ryu.ryu.tests.mininet.l2.vlan",
    "simple_switch_lacp",
    "pyretic.vendor.ryu.ryu.lib.xflow",
    "ryu.lib.packet.ipv4",
    "ryu.lib.packet.ipv6",
    "ryu.ryu.tests.integrated.run_tests_with_ovs12",
    "tests.unit.packet.test_slow",
    "ofproto.test_ofproto",
    "ryu.ryu.topology",
    "contrib.ovs.timeval",
    "simple_isolation",
    "vendor.ryu.ryu.lib.of_config.capable_switch",
    "vendor.ryu.ryu.lib.port_no",
    "vendor.ryu.ryu.ofproto",
    "ovs.jsonrpc",
    "vendor.ryu.ryu.tests.integrated.test_request_reply_v12",
    "tests.unit.packet.test_arp",
    "app",
    "pyretic.vendor.ryu.ryu.tests.mininet.packet_lib.arp",
    "tests.test_language",
    "ryu.exception",
    "core.util",
    "pyretic.vendor.ryu.ryu.tests.unit.lib.test_stringify",
    "tools",
    "ryu.ryu.tests.unit.ofproto.test_ofproto_v12",
    "ryu.lib.quantum_ifaces",
    "test_mod.hoge.mod",
    "pyretic.vendor.ryu.ryu.controller.event",
    "rest_conf_switch",
    "tests.unit.ofproto.test_ether",
    "vendor.ryu.ryu.tests.unit.packet",
    "ryu.ryu.tests.unit.ofproto.test_ofproto",
    "ryu.contrib.ovs.db",
    "ryu.ryu.contrib.ncclient.transport.ssh",
    "test_of_config",
    "inet",
    "packet.test_arp",
    "ryu.contrib.ncclient.debug",
    "ryu.tests.mininet.l3.icmp.test_icmp",
    "ryu.lib.ofp_pktinfilter",
    "transport.errors",
    "pyretic.backend",
    "ryu.tests.unit.ofproto.test_parser_v10",
    "pyretic.vendor.ryu.ryu.hooks",
    "ryu.tests.unit.ofproto.test_parser_v12",
    "ovs.socket_util",
    "lib.packet.ipv6",
    "ryu.lib.lacplib",
    "pyretic.vendor.ryu.ryu.lib.port_no",
    "tests.unit.lib.test_stringify",
    "vendor.ryu.ryu.topology.event",
    "contrib.ncclient.transport",
    "ryu.ryu.tests.unit.ofproto.test_inet",
    "ryu.ryu.tests.unit.ofproto",
    "pyretic.examples.rewrite",
    "contrib.ncclient.capabilities",
    "ryu.ryu.contrib.ovs.ovsuuid",
    "vendor.ryu.ryu.app.cbench",
    "pyretic.vendor.ryu.ryu.tests.unit.packet",
    "vendor.ryu.ryu.contrib.ovs.db.idl",
    "ryu.ryu.topology.dumper",
    "vendor.ryu.ryu.lib.addrconv",
    "pyretic.backend.patch",
    "jsonrpc",
    "pyretic.vendor.ryu.ryu.tests.unit.packet.test_dhcp",
    "ofproto.test_ofproto_common",
    "pyretic.vendor.ryu.ryu.lib.stringify",
    "app.simple_switch",
    "lib.ofctl_v1_0",
    "ryu.ryu.utils",
    "lib.ofctl_v1_2",
    "lib.ofctl_v1_3",
    "vendor.ryu.ryu.ofproto.oxm_fields",
    "app.conf_switch_key",
    "vendor.ryu.ryu.tests.unit.lib.test_ofctl_v1_3",
    "vendor.ryu.ryu.contrib.ovs.version",
    "pyretic.vendor.ryu.ryu.contrib.ovs.vlog",
    "tests.tests",
    "stream",
    "process",
    "lock",
    "rest_topology",
    "mac_to_network",
    "vendor.ryu.ryu.contrib",
    "ryu.ryu.controller.dpset",
    "lib.packet.ipv4",
    "sample",
    "pyretic.vendor.ryu.ryu.tests.mininet.l3.icmp",
    "ryu.ryu.cmd.manager",
    "ryu.ofproto.ofproto_v1_0",
    "ryu.ofproto.ofproto_v1_3",
    "ryu.ofproto.ofproto_v1_2",
    "examples.simple_ui_firewall",
    "ryu.app.simple_isolation",
    "ovs.db",
    "pyretic.vendor.ryu.ryu.tests.unit.packet.test_icmpv6",
    "vendor.ryu.ryu.tests.unit.ofproto.test_parser_ofpmatch",
    "afi",
    "vendor.ryu.ryu.tests.unit.lib.test_ofp_pktinfilter",
    "ryu.ryu.tests.unit.sample.test_sample2",
    "modules.mac_learner",
    "ryu.ryu.tests.unit.sample.test_sample1",
    "idl",
    "core.packet",
    "ryu.ryu.tests.mininet.l3.icmp.test_icmp",
    "ryu.tests.unit.lib.test_addrconv",
    "bpdu",
    "ryu.lib.ovs",
    "ryu.lib.packet.vrrp",
    "app.rest_firewall",
    "dpset",
    "ryu.ryu.contrib.ovs.json",
    "pyretic.vendor.ryu.ryu.app.simple_switch",
    "ryu.ryu.ofproto.ofproto_v1_2",
    "vendor.ryu.ryu",
    "lib.packet.lldp",
    "vendor.ryu.ryu.controller.handler",
    "mininet.l3.ip_ttl",
    "mac",
    "unit.lib.test_ip",
    "ofproto.test_parser_v10",
    "pyretic.vendor.ryu.ryu.lib.packet.packet_base",
    "ryu.contrib.ncclient.operations.errors",
    "ryu.ryu.tests.unit.packet.test_arp",
    "packet.test_slow",
    "data",
    "unit.sample.test_sample2",
    "lib.test_stringify",
    "vendor.ryu.ryu.lib.stplib",
    "vendor.ryu.ryu.contrib.ncclient.operations.util",
    "ryu.ryu.cmd",
    "ryu.ryu.tests.unit.lib",
    "vendor.ryu.ryu.contrib.ovs.process",
    "of_client",
    "vendor.ryu.ryu.tests.mininet",
    "unit_tests",
    "ovs.db.data",
    "test_ethernet",
    "vendor.ryu.ryu.contrib.ovs.poller",
    "tests.mininet.l2",
    "mininet.l2.mpls.test_mpls",
    "vendor.ryu.ryu.app.rest_topology",
    "lib.test_mod.fuga.mod",
    "netconf.constants",
    "ryu.ryu.lib.packet.vrrp",
    "lib.hub",
    "ryu.ryu.contrib.ovs.unixctl.server",
    "ryu.tests.unit.packet.test_packet",
    "packet.packet_utils",
    "lib.virt",
    "aggregate_queries",
    "ryu.ryu.contrib.ncclient.operations.errors",
    "pyretic.vendor.ryu.ryu.tests.unit.ofproto.test_ether",
    "ryu.contrib.ncclient.operations",
    "unit.app.test_wsgi",
    "packet.icmpv6",
    "pyretic.tests.test_hub",
    "pyretic.vendor.ryu.ryu.tests.unit.lib.test_mod.fuga",
    "pyretic.tests.utils",
    "tests.test_arp",
    "pyretic.vendor.ryu.ryu.tests.unit.packet.test_ethernet",
    "ncclient.transport.ssh",
    "vendor.ryu.ryu.lib.ofp_pktinfilter",
    "ryu.app.rest_firewall",
    "pyretic.vendor.ryu.ryu.lib.ovs.vsctl",
    "ryu.app.rest",
    "controller.event",
    "vendor.ryu.ryu.app.rest_conf_switch",
    "vendor.ryu.ryu.ofproto.ether",
    "vendor.ryu.ryu.lib.ofctl_v1_3",
    "vendor.ryu.ryu.lib.ofctl_v1_2",
    "vendor.ryu.ryu.lib.ofctl_v1_0",
    "pyretic.vendor.ryu.ryu.contrib.ovs.db",
    "ofproto.oxm_fields",
    "pyretic.vendor.ryu.ryu.ofproto.ofproto_v1_0_parser",
    "tests.unit.sample.test_sample1",
    "tests.unit.packet.test_ipv6",
    "unit.ofproto.test_parser_v12",
    "tests.unit.packet.test_ipv4",
    "pyretic.vendor.ryu.ryu.lib.packet.arp",
    "vendor.ryu.ryu.contrib.ncclient",
    "ryu.ryu.contrib.ovs.socket_util",
    "vendor.ryu.ryu.lib.packet.udp",
    "simple_switch",
    "pyretic.tests.test_packet",
    "ryu.utils",
    "test_bgp",
    "ofp_handler",
    "contrib.ncclient.xml_",
    "vendor.ryu.ryu.tests.unit.packet.test_vlan",
    "packet.vlan",
    "vendor.ryu.ryu.lib.packet.pbb",
    "pyretic.vendor.ryu.ryu.tests.unit",
    "vendor.ryu.ryu.tests.unit.ofproto.test_parser_v10",
    "vendor.ryu.ryu.tests.unit.ofproto.test_parser_v12",
    "ofproto_v1_2_parser",
    "tests.unit.lib.test_mod.fuga.mod",
    "corelib",
    "edit",
    "pyretic.vendor.ryu.ryu.lib.packet.mpls",
    "contrib.ncclient.operations.edit",
    "vendor.ryu.ryu.contrib.ncclient.operations.subscribe",
    "vendor.ryu.ryu.contrib.ncclient.operations.session",
    "pyretic.vendor.ryu.ryu.app.simple_switch_13",
    "pyretic.vendor.ryu.ryu.app.simple_switch_12",
    "l2",
    "l3",
    "ryu.ryu.controller.network",
    "ncclient.operations.flowmon",
    "test_pbb",
    "ryu.ryu.tests.unit.packet.test_icmpv6",
    "ryu.ryu.ofproto.inet",
    "pyretic.backend.comm",
    "retrieve",
    "ryu.tests.integrated.test_of_config",
    "db_client",
    "unit.packet.test_vlan",
    "lib.packet.stream_parser",
    "ryu.ryu.lib.of_config",
    "pyretic.vendor.ryu.ryu.tests.unit.lib",
    "pyretic.vendor.ryu.ryu.tests.unit.ofproto.test_ofproto_v12",
    "tests.unit.sample",
    "ryu.ryu.lib.packet.pbb",
    "ryu.ryu.lib.ofp_pktinfilter",
    "test_mod.hoge",
    "ryu.lib",
    "packet.test_igmp",
    "simple_switch_13",
    "simple_switch_12",
    "app.rest_topology",
    "vendor.ryu.ryu.tests.mininet.packet_lib.arp",
    "ryu.tests.integrated.test_add_flow_v12_matches",
    "vendor.ryu.ryu.tests.mininet.l3.icmp",
    "tests.run_tests",
    "ncclient.operations.retrieve",
    "ryu.tests.unit.ofproto.test_ofproto_v12",
    "vrrp",
    "vendor.ryu.ryu.hooks",
    "ryu.app.rest_nw_id",
    "pyretic.vendor.ryu.ryu.tests.mininet.packet_lib.arp.test_arp",
    "dhcp",
    "sctp",
    "igmp",
    "integrated",
    "ryu.ryu.tests.unit.lib.test_mod.hoge.mod",
    "ryu.tests.unit.packet.test_sctp",
    "vendor.ryu.ryu.tests.unit.packet.test_sctp",
    "vendor.ryu.ryu.cmd",
    "pyretic.vendor.ryu.ryu.topology.dumper",
    "test_add_flow_v12_actions",
    "ryu.tests.unit.packet.test_arp",
    "vendor.ryu.ryu.tests.mininet.l2.mpls",
    "ryu.ryu.lib.packet.packet_utils",
    "unit.app",
    "ryu.ryu.app.simple_vlan",
    "ryu.ryu.controller.ofp_handler",
    "ryu.ryu.app.conf_switch_key",
    "language",
    "pyretic.vendor.ryu.ryu.exception",
    "ryu.ryu.tests.integrated.test_add_flow_v12_actions",
    "vendor.ryu.ryu.tests.unit.packet.test_bgp",
    "pyretic.vendor.ryu.ryu.app.rest_nw_id",
    "app.ofctl_rest",
    "ryu.ryu.tests.unit.packet.test_mpls",
    "app.cbench",
    "vendor.ryu.ryu.app.tunnel_port_updater",
    "packet.packet_base",
    "vendor.ryu.ryu.tests.unit.sample",
    "vendor.ryu.ryu.contrib.ovs.db",
    "lib.packet.vrrp",
    "lib.netconf",
    "ofproto.test_parser_v12",
    "packet.igmp",
    "tests.mininet.l3.ip_ttl",
    "vendor.ryu.ryu.contrib.ncclient.operations",
    "pyretic.core.util",
    "pyretic.vendor.ryu.ryu.cmd.manager",
    "ryu.ryu.tests.mininet.l2.mpls.test_mpls",
    "vendor.ryu.ryu.tests.integrated.test_add_flow_v12_matches",
    "vendor.ryu.ryu.exception",
    "vendor.ryu.ryu.contrib.ovs.util",
    "lib.packet.mpls",
    "ryu.ryu.lib.xflow.sflow",
    "arp.test_arp",
    "pyretic.vendor.ryu",
    "pyretic.vendor.ryu.ryu.contrib.ovs.poller",
    "ryu.contrib.ncclient",
    "ryu.ryu.lib.ovs.vsctl",
    "netconf",
    "tests.integrated",
    "ryu.contrib.ncclient.operations.util",
    "ryu.app.tunnel_port_updater",
    "constants",
    "pyretic.vendor.ryu.ryu.log",
    "pyretic.examples.aggregate_queries",
    "ryu.ryu.tests.unit.ofproto.test_parser",
    "ryu.contrib.ncclient.operations.rpc",
    "hub",
    "ryu.ryu.lib.packet.afi",
    "pyretic.vendor.ryu.ryu.tests.unit.packet.test_icmp",
    "pyretic.vendor.ryu.ryu.lib.packet.packet",
    "app.tunnel_port_updater",
    "pyretic.vendor.ryu.ryu.lib.packet.dhcp",
    "ryu.app.simple_switch_lacp",
    "ryu.ryu.contrib.ncclient.operations.session",
    "vendor.ryu.ryu.ofproto.ofproto_common",
    "pyretic.vendor.ryu.ryu.contrib.ncclient.capabilities",
    "unit.ofproto.test_ofproto_v12",
    "prefix_route",
    "pyretic.vendor.ryu.ryu.lib.packet.udp",
    "lib.test_addrconv",
    "packet.test_tcp",
    "pyretic.vendor.ryu.ryu.tests.mininet.l3.ip_ttl",
    "core.runtime",
    "pyretic.vendor.ryu.ryu.controller",
    "lacplib",
    "tests.unit.sample.test_sample2",
    "ryu.contrib.ovs.db.parser",
    "pyretic.vendor.ryu.ryu.tests.integrated.test_add_flow_v10",
    "rest_router",
    "pyretic.lib.query",
    "ryu.ryu.app.simple_switch_12",
    "ryu.ryu.app.simple_switch_13",
    "vendor.ryu.ryu.contrib.ovs.db.error",
    "pyretic.vendor.ryu.ryu.tests.integrated.test_add_flow_v12_actions",
    "ovs.unixctl.server",
    "lib.xflow",
    "test_vlan",
    "ryu.ryu.lib.xflow.netflow",
    "ryu.ryu.lib.packet.stream_parser",
    "ryu.tests.mininet.l3.ip_ttl.test_ip_ttl",
    "language_tools",
    "ryu.app.quantum_adapter",
    "test_mod.fuga",
    "ryu.contrib.ovs.process",
    "pyretic.vendor.ryu.ryu.app.simple_switch_lacp",
    "pyretic.vendor.ryu.ryu.lib.packet.icmpv6",
    "vendor.ryu.ryu.cmd.manager",
    "pyretic.vendor.ryu.ryu.ofproto.oxm_fields",
    "pyretic.vendor.ryu.ryu.app.rest_tunnel",
    "ryu.ryu.contrib.ovs.db.error",
    "packet.test_ipv4",
    "vendor.ryu.ryu.lib.packet.packet_utils",
    "packet.test_ipv6",
    "mininet.l3.icmp",
    "pyretic.vendor.ryu.ryu.tests.unit.lib.test_import_module",
    "ryu.ryu.app.tunnel_port_updater",
    "simple_vlan",
    "ofproto.test_parser_ofpmatch",
    "pyretic.vendor.ryu.ryu.tests",
    "ryu.ryu.tests.unit.lib.test_ofp_pktinfilter",
    "vendor.ryu.ryu.lib.stringify",
    "ryu.ofproto.ofproto_v1_3_parser",
    "test_mac",
    "tests.integrated.run_tests_with_ovs12",
    "ryu.topology.dumper",
    "tests.unit.packet.test_packet",
    "vendor.ryu.ryu.lib.netconf",
    "vendor.ryu.ryu.contrib.ovs.timeval",
    "test_ofproto_v12",
    "ofproto.ofproto_v1_2_parser",
    "l2.mpls.test_mpls",
    "test_ofctl_v1_3",
    "test_ip",
    "ryu.lib.packet.ethernet",
    "mininet.l2.vlan",
    "vendor.ryu.ryu.lib.packet.packet",
    "pyretic.vendor.ryu.ryu.lib.ofp_pktinfilter",
    "pyretic.lib.virt",
    "vendor.ryu.ryu.tests.unit.packet.test_icmp",
    "fatal_signal",
    "app.simple_switch_12",
    "app.simple_switch_13",
    "operations.edit",
    "error",
    "pyretic.vendor.ryu.ryu.tests.unit.lib.test_mod.hoge.mod",
    "vendor.ryu.ryu.controller.tunnels",
    "vendor.ryu.ryu.ofproto.ofproto_parser",
    "ryu.ryu.tests.unit.ofproto.test_ofproto_common",
    "vendor.ryu.ryu.lib.packet.ethernet",
    "ryu.ryu.tests.unit.lib.test_stringify",
    "pyretic.vendor.ryu.ryu.ofproto.ether",
    "vendor.ryu.ryu.lib.ovs.bridge",
    "contrib.ncclient",
    "mpls.test_mpls",
    "pyretic.vendor.ryu.ryu.lib.mac",
    "controller.mac_to_port",
    "pyretic.vendor.ryu.ryu.contrib.ncclient.operations.util",
    "hoge.mod",
    "ryu.ryu.tests.mininet.l3.icmp",
    "slow",
    "ryu.ryu.ofproto.ofproto_parser",
    "ryu.tests.unit.ofproto.test_parser",
    "pyretic.vendor.ryu.ryu.tests.unit.packet.test_vlan",
    "ryu.lib.ovs.vsctl",
    "lib.stringify",
    "pyretic.vendor.ryu.ryu.tests.unit.packet.test_slow",
    "ncclient.operations.session",
    "pyretic.vendor.ryu.ryu.contrib.ncclient.transport",
    "tests.unit.lib.test_mod.hoge.mod",
    "pyretic.vendor.ryu.ryu.tests.unit.lib.test_mod.hoge",
    "vendor.ryu.ryu.tests.unit.packet.test_lldp",
    "pyretic.examples.prefix_route",
    "stream_parser",
    "packet.test_icmpv6",
    "pyretic.vendor.ryu.ryu.ofproto",
    "ryu.contrib.ncclient.capabilities",
    "ryu.topology.event",
    "ryu.app.gre_tunnel",
    "pyretic.vendor.ryu.ryu.contrib.ncclient.operations",
    "pyretic.examples.simple_ui_firewall",
    "ssh",
    "vendor.ryu.ryu.app.rest_firewall",
    "vendor.ryu.ryu.controller.ofp_handler",
    "ryu.ryu.contrib.ovs",
    "ryu.ryu.contrib.ncclient.operations.flowmon",
    "ryu.ryu.tests.mininet.l2.vlan.test_vlan",
    "ryu.tests.mininet.packet_lib",
    "ovs.fatal_signal",
    "vendor.ryu.ryu.ofproto.nx_match",
    "conf_switch",
    "topology_printer",
    "ryu.tests.unit.packet.test_slow",
    "vendor.ryu.ryu.lib.xflow",
    "vendor.ryu.ryu.tests.unit.ofproto.test_ofproto_v12",
    "vendor.ryu.ryu.lib.packet.ipv6",
    "test_ofproto",
    "packet.packet",
    "ryu.ryu.lib.packet.vlan",
    "ryu.lib.ovs.vswitch_idl",
    "vendor.ryu.ryu.lib.ovs.vswitch_idl",
    "ryu.ryu.lib.ip",
    "dpi",
    "vendor.ryu.ryu.lib.xflow.sflow",
    "ryu.ryu.ofproto.ofproto_v1_3_parser",
    "pyretic.vendor.ryu.ryu.lib.of_config",
    "unit.lib.test_hub",
    "pyretic.vendor.ryu.ryu.tests.unit.lib.test_hub",
    "packet",
    "tests.unit.packet.test_vlan",
    "packet_base",
    "ovs.daemon",
    "pyretic.vendor.ryu.ryu.lib.ip",
    "vendor.ryu.ryu.tests.unit.lib",
    "vendor.ryu.ryu.lib.packet.bpdu",
    "ryu.tests.unit.app",
    "ryu.ryu.contrib.ovs.util",
    "vendor.ryu.ryu.contrib.ovs.db.data",
    "pyretic.vendor.ryu.ryu.tests.unit.packet.test_packet",
    "test_mod.fuga.mod",
    "unixctl",
    "lib.test_mac",
    "unit.ofproto",
    "ryu.ryu.tests.unit.ofproto.test_parser_compat",
    "pyretic.examples.port_knocking",
    "test_sctp",
    "backend.backend",
    "vendor.ryu.ryu.lib.packet.packet_base",
    "ryu.contrib.ovs.db.error",
    "pyretic.core.language",
    "tests.unit.lib.test_mac",
    "vendor.ryu.ryu.tests.mininet.packet_lib",
    "pyretic.tests.test_language",
    "lib.packet.tcp",
    "test_ip_ttl",
    "ryu.ryu.tests.unit.packet.test_lldp",
    "tests.unit.ofproto.test_ofproto_parser",
    "ryu.tests",
    "comm",
    "pyretic.vendor.ryu.ryu.contrib.ncclient.operations.errors",
    "vendor.ryu.ryu.ofproto.ofproto_v1_0_parser",
    "packet.udp",
    "ryu.tests.unit.packet.test_igmp",
    "quantum_ifaces",
    "ryu.controller",
    "ryu.ryu.lib.addrconv",
    "ryu.tests.unit.packet.test_pbb",
    "test_udp",
    "ovsuuid",
    "pyretic.vendor.ryu.ryu.tests.mininet.l2.mpls",
    "sflow",
    "ryu.ryu.app.wsgi",
    "unit.ofproto.test_ofproto_common",
    "tests.unit.lib",
    "ryu.lib.packet.stream_parser",
    "packet.vrrp",
    "pyretic.vendor.ryu.ryu.lib.packet.icmp",
    "ryu.tests.integrated.test_request_reply_v12",
    "pyretic.vendor.ryu.ryu.tests.mininet.l3.ip_ttl.test_ip_ttl",
    "packet.test_pbb",
    "packet.pbb",
    "ofproto.test_ofproto_v12",
    "tests.unit.packet.test_ethernet",
    "integrated.test_of_config",
    "ofproto.test_inet",
    "ryu.ryu.contrib.ovs.db.data",
    "vendor.ryu.ryu.tests.unit.packet.test_ipv6",
    "vendor.ryu.ryu.tests.unit.packet.test_ipv4",
    "fuga.mod",
    "subscribe",
    "rpc",
    "ryu.ryu.tests.unit.lib.test_mac",
    "ryu.lib.of_config.capable_switch",
    "ofproto_v1_3_parser",
    "tests.unit.packet.test_tcp",
    "vendor.ryu.ryu.tests.unit.ofproto.test_parser_compat",
    "ryu.tests.unit.ofproto.test_ether",
    "vendor.ryu.ryu.tests.unit.lib.test_ip",
    "unit.packet.test_icmp",
    "vendor.ryu.ryu.tests.unit.lib.test_stringify",
    "tests.unit.lib.test_mod.hoge",
    "json",
    "vendor.ryu.ryu.tests.unit.sample.test_sample1",
    "vendor.ryu.ryu.tests.unit.sample.test_sample2",
    "ryu.tests.unit.sample",
    "ryu.ryu.lib.packet.llc",
    "pyretic.vendor.ryu.ryu.tests.unit.packet.test_mpls",
    "pyretic.vendor.ryu.ryu.controller.mac_to_network",
    "backend.patch.asynchat",
    "test_parser_v10",
    "test_parser_v12",
    "test_addrconv",
    "vendor.ryu",
    "contrib.ovs.dirs",
    "lib.ovs.db_client",
    "lib.test_mod.fuga",
    "lib.addrconv",
    "l3.icmp",
    "pyretic.vendor.ryu.ryu.app.rest_conf_switch",
    "ryu.ryu.tests.unit.ofproto.test_ether",
    "vendor.ryu.ryu.flags",
    "ryu.tests.mininet.l2.vlan",
    "vendor.ryu.ryu.tests.integrated",
    "vendor.ryu.ryu.contrib.ncclient.manager",
    "vendor.ryu.ryu.tests.mininet.l3.ip_ttl.test_ip_ttl",
    "pyretic.vendor.ryu.ryu.lib.lacplib",
    "ryu.ryu.contrib.ovs.stream",
    "contrib.ovs.db",
    "vendor.ryu.ryu.tests.integrated.test_of_config",
    "pyretic.vendor.ryu.ryu.ofproto.inet",
    "ofctl_rest",
    "lib.of_config.constants",
    "pyretic.vendor.ryu.ryu.lib.packet.pbb",
    "unit.lib",
    "ryu.ofproto.oxm_fields",
    "tests.unit.lib.test_ip",
    "unit.ofproto.test_parser_v10",
    "ryu.tests.unit.ofproto.test_inet",
    "unit.lib.test_addrconv",
    "vendor.ryu.ryu.lib.ovs.db_client",
    "ryu.lib.packet.pbb",
    "virt",
    "utils",
    "pyretic.vendor.ryu.ryu.tests.mininet",
    "test_tcp",
    "packet.sctp",
    "pyretic.vendor.ryu.ryu.contrib.ovs.util",
    "ryu.ryu.tests.unit.sample",
    "app.simple_switch_lacp",
    "ryu.topology.switches",
    "ryu.ryu.lib.packet.arp",
    "vendor.ryu.ryu.topology.switches",
    "lib.packet.arp",
    "vendor.ryu.ryu.app.simple_vlan",
    "ryu.lib.port_no",
    "ovs.db.schema",
    "ryu.app.simple_switch",
    "unit.packet.test_tcp",
    "pyretic.vendor.ryu.ryu.app.simple_vlan",
    "ryu.ryu.tests.unit.ofproto.test_parser_v12",
    "ryu.ryu.tests.unit.ofproto.test_parser_v10",
    "pyretic.vendor.ryu.ryu.tests.integrated.tester",
    "vendor.ryu.ryu.contrib.ncclient.capabilities",
    "ryu.ryu.app.rest_firewall",
    "ryu.ryu.contrib.ncclient.debug",
    "vendor.ryu.ryu.lib.packet.icmp",
    "pyretic.vendor.ryu.ryu.contrib.ncclient.transport.session",
    "ryu.base.app_manager",
    "vendor.ryu.ryu.log",
    "pyretic.vendor.ryu.ryu.contrib.ovs.socket_util",
    "ryu.ryu.tests.unit.packet.test_bgp",
    "pyretic.tests.mininet_tests",
    "ncclient.operations",
    "rest_tunnel",
    "ryu.ryu.app",
    "ryu.ryu.base.app_manager",
    "pyretic.vendor.ryu.ryu.lib.ofctl_v1_3",
    "vendor.ryu.ryu.tests.unit.packet.test_mpls",
    "addrconv",
    "ovs.vlog",
    "lib.of_config.capable_switch",
    "ryu.ryu.lib.packet.mpls",
    "pyretic.vendor.ryu.ryu.lib.packet.lldp",
    "test_add_flow_v10",
    "ryu.tools.topology_graphviz",
    "tests.mininet.l3.icmp.test_icmp",
    "ryu.ofproto.nx_match",
    "vendor.ryu.ryu.tests.mininet.l3.ip_ttl",
    "contrib.ovs.reconnect",
    "tests.mininet.l3.icmp",
    "ryu.controller.ofp_event",
    "tests.test_mac_learner",
    "ryu.ryu.contrib",
    "test_slow",
    "l3.ip_ttl",
    "ryu.lib.packet.icmp",
    "ryu.ryu.lib.ovs.vswitch_idl",
    "pyretic.vendor.ryu.ryu.contrib.ncclient.manager",
    "ryu.ryu.contrib.ncclient.operations.retrieve",
    "tcp",
    "lib.packet",
    "pyretic.vendor.ryu.ryu.tests.unit.sample.test_sample1",
    "test_parser",
    "pyretic.vendor.ryu.ryu.tests.unit.sample.test_sample2",
    "vendor.ryu.ryu.tests.unit",
    "tests.unit.lib.test_mod.fuga",
    "contrib.ncclient.debug",
    "pyretic.vendor.ryu.ryu.tests.integrated.run_tests_with_ovs12",
    "lib.packet.pbb",
    "vendor.ryu.ryu.tests.unit.packet.test_arp",
    "test_ofp_pktinfilter",
    "mininet_tests",
    "ryu.tests.unit.lib.test_ofctl_v1_3",
    "ryu.lib.of_config",
    "lib.packet.igmp",
    "ryu.tests.integrated.test_add_flow_v12_actions",
    "vendor.ryu.ryu.lib.packet.ipv4",
    "pyretic.vendor.ryu.ryu.tests.test_lib",
    "ryu.ryu.tests.run_tests",
    "controller.handler",
    "ryu.ryu.tests.unit.lib.test_ofctl_v1_3",
    "capabilities",
    "ryu.ryu.base",
    "contrib.ncclient.operations.subscribe",
    "pyretic.lib",
    "pyretic.lib.std",
    "tests",
    "tests.mininet.l2.mpls.test_mpls",
    "mac_learner",
    "ofproto.ofproto_v1_3_parser",
    "pyretic.vendor.ryu.doc.source.conf",
    "pyretic.vendor.ryu.ryu.contrib.ovs.db.types",
    "ryu.app.client",
    "ncclient.operations.errors",
    "packet.bgp",
    "pyretic.tests.unit_tests",
    "pyretic.vendor.ryu.ryu.lib.xflow.netflow",
    "vendor.ryu.ryu.contrib.ovs.stream",
    "tests.unit.ofproto.test_parser_v10",
    "ryu.contrib.ovs.db.idl",
    "mod",
    "ryu.ryu.app.ofctl_rest",
    "ryu.ryu.tests.unit.lib.test_mod.fuga",
    "server",
    "pyretic.vendor.ryu.ryu.tests.mininet.packet_lib",
    "ryu.ryu.controller.ofp_event",
    "vendor.ryu.ryu.contrib.ncclient.transport.session",
    "ryu.tests.unit.packet.test_lldp",
    "ryu.ryu.app.rest",
    "ryu.ryu.tests.unit.ofproto.test_ofproto_parser",
    "packet.safi",
    "ryu.ryu.exception",
    "vendor.ryu.ryu.tests.integrated.tester",
    "pyretic.vendor.ryu.ryu.app.simple_isolation",
    "pyretic.vendor.ryu.tools.normalize_json",
    "pyretic.vendor.ryu.ryu.ofproto.ofproto_parser",
    "test_icmpv6",
    "ryu.lib.packet.bgp",
    "of_config",
    "ryu.ryu.tests",
    "ryu.controller.ofp_handler",
    "unit.packet.test_bgp",
    "transport",
    "ryu.ryu.tests.unit.packet.test_packet",
    "unit.ofproto.test_inet",
    "pyretic.vendor.ryu.ryu.app.client",
    "tests.unit.packet.test_sctp",
    "ryu.ryu.flags",
    "pyretic.modules",
    "unit.ofproto.test_parser",
    "pyretic.vendor.ryu.ryu.lib.ovs.db_client",
    "test_sample2",
    "test_sample1",
    "ovs.version",
    "ryu.contrib.ncclient.transport.session",
    "ryu.ryu",
    "ryu.lib.packet.mpls",
    "capable_switch",
    "pyretic.vendor.ryu.ryu.lib",
    "ryu.ryu.app.rest_conf_switch",
    "backend.patch",
    "pyretic.vendor.ryu.ryu.tests.unit.ofproto.test_parser_v12",
    "ofproto_v1_0",
    "pyretic.vendor.ryu.ryu.contrib.ovs.db.schema",
    "ofproto_v1_2",
    "ofproto_v1_3",
    "simple_ui_firewall",
    "ryu.tests.unit.packet.test_dhcp",
    "vendor.ryu.ryu.contrib.ovs.db.types",
    "ryu.ryu.lib.packet.sctp",
    "ovs.db.types",
    "contrib.ovs.socket_util",
    "ryu.tests.integrated.tester",
    "dpid",
    "tests.integrated.tester",
    "regexp",
    "ryu.ofproto.inet",
    "pyretic.vendor.ryu.ryu.tests.integrated.test_add_flow_v12_matches",
    "rest_nw_id",
    "pyretic.vendor.ryu.ryu.controller.controller",
    "ryu.ryu.app.quantum_adapter",
    "vendor.ryu.ryu.tests.unit.ofproto.test_inet",
    "vendor.ryu.ryu.ofproto.ofproto_v1_2_parser",
    "pyretic.vendor.ryu.doc",
    "ryu.ryu.lib.hub",
    "pyretic.vendor.ryu.ryu.app.rest_firewall",
    "pyretic.vendor.ryu.ryu.tests.integrated.test_request_reply_v12",
    "tests.unit.app",
    "test_ipv6",
    "ofproto.test_parser_compat",
    "ryu.ofproto.ofproto_v1_2_parser",
    "packet_lib.arp.test_arp",
    "l3.ip_ttl.test_ip_ttl",
    "ryu.topology",
    "unit.ofproto.test_ofproto",
    "ryu.ryu.lib.packet.safi",
    "app.rest_router",
    "packet.mpls",
    "test_add_flow_v12_matches",
    "ryu.tests.mininet.l2",
    "of_config.capable_switch",
    "tests.mininet",
    "ryu.contrib.ncclient.operations.retrieve",
    "unit.ofproto.test_ether",
    "ryu.tools.install_venv",
    "ryu.cmd.manager",
    "vendor.ryu.ryu.controller.mac_to_port",
    "ryu.ryu.contrib.ovs.reconnect",
    "ryu.ryu.contrib.ovs.unixctl.client",
    "ryu.log",
    "ryu.app.rest_tunnel",
    "mininet",
    "log",
    "ncclient.operations.lock",
    "ryu.contrib.ovs.stream",
    "tests.unit.packet",
    "pyretic.vendor.ryu.ryu.lib.packet.sctp",
    "tests.unit.ofproto.test_ofproto",
    "test_language",
    "ncclient.transport.errors",
    "ipv4",
    "vendor.ryu.ryu.tests.unit.packet.test_icmpv6",
    "ipv6",
    "pyretic.vendor.ryu.ryu.tests.mininet.l3.icmp.test_icmp",
    "pyretic.examples.bucket",
    "ryu.ryu.tests.unit.lib.test_ip",
    "ryu.tools",
    "test_request_reply_v12",
    "mininet.extra-topos",
    "handler",
    "tests.unit.ofproto.test_ofproto_common",
    "ryu.tests.unit.lib.test_ofp_pktinfilter",
    "lib.packet.bpdu",
    "ryu.tests.mininet.packet_lib.arp",
    "ryu.ryu.controller.conf_switch",
    "unit.packet.test_vrrp",
    "db.data",
    "vendor.ryu.ryu.lib.hub",
    "ryu.contrib.ovs.unixctl.client",
    "vendor.ryu.ryu.tests.unit.packet.test_tcp",
    "ryu.tests.unit.packet.test_icmpv6",
    "icmpv6",
    "pyretic.vendor.ryu.ryu.tests.integrated.test_of_config",
    "conf_switch_key",
    "ncclient.capabilities",
    "ryu.ryu.tests.mininet.packet_lib",
    "vendor.ryu.ryu.tests.unit.lib.test_addrconv",
    "bucket",
    "vendor.ryu.ryu.lib.netconf.constants",
    "db.parser",
    "mininet.l3.icmp.test_icmp",
    "vendor.ryu.ryu.tests.unit.packet.test_packet",
    "pyretic.vendor.ryu.ryu.contrib.ovs.unixctl.server",
    "ryu.ryu.tests.unit.packet.test_dhcp",
    "contrib.ovs.db.error",
    "ryu.ryu.lib.ovs.db_client",
    "ryu.ryu.tests.unit.packet.test_udp",
    "ryu.contrib.ncclient.transport.ssh",
    "pox_client",
    "contrib.ovs",
    "cbench",
    "contrib.ovs.util",
    "vendor.ryu.ryu.contrib.ovs.vlog",
    "tests.unit.packet.test_udp",
    "pyretic.vendor.ryu.ryu.tests.mininet.l2.vlan.test_vlan",
    "tests.unit.lib.test_addrconv",
    "ovs.util",
    "ryu.doc.source",
    "controller.ofp_handler",
    "contrib.ovs.db.idl",
    "pyretic.vendor.ryu.ryu.controller.conf_switch",
    "contrib.ncclient.operations.lock",
    "ryu.ryu.contrib.ncclient.operations.subscribe",
    "controller.mac_to_network",
    "ofp_event",
    "pyretic.vendor.ryu.ryu.lib.hub",
    "pyretic.vendor.ryu.ryu.tests.unit.packet.test_pbb",
    "unit.packet.test_igmp",
    "pyretic.vendor.ryu.ryu.tests.unit.ofproto.test_ofproto",
    "unit.lib.test_ofctl_v1_3",
    "lib.test_mod",
    "topology.event",
    "ryu.ryu.contrib.ncclient.operations.edit",
    "tests.test_lib",
    "vendor.ryu.tools",
    "ryu.ryu.contrib.ncclient.operations",
    "ryu.ryu.ofproto.oxm_fields",
    "ryu.contrib.ovs.timeval",
    "ryu.contrib.ovs.reconnect",
    "pyretic.vendor.ryu.ryu.app",
    "vendor.ryu.ryu.lib.lacplib",
    "lib.ofp_pktinfilter",
    "ryu.lib.stringify",
    "pyretic.vendor.ryu.ryu.app.wsgi",
    "contrib.ncclient.manager",
    "test_mac_learner",
    "ryu.tests.mininet.l3",
    "icmp.test_icmp",
    "ryu.contrib.ncclient.xml_",
    "ryu.ryu.contrib.ovs.db.parser",
    "unit.packet.test_sctp",
    "pyretic.vendor.ryu.ryu.tests.unit.ofproto.test_parser_ofpmatch",
    "vendor.ryu.ryu.app.rest_nw_id",
    "ryu.hooks",
    "ryu.ryu.tests.mininet.packet_lib.arp",
    "ryu.tests.unit.sample.test_sample1",
    "ryu.tests.unit.sample.test_sample2",
    "tests.mininet.l2.vlan.test_vlan",
    "ryu.tests.mininet.l2.mpls.test_mpls",
    "ryu.ryu.tests.unit.packet.test_tcp",
    "controller",
    "contrib.ovs.json",
    "ryu.lib.packet.igmp",
    "tests.unit.packet.test_igmp",
    "unit.lib.test_ofp_pktinfilter",
    "lib.packet.vlan",
    "ryu.ryu.contrib.ovs.db.types",
    "pyretic.vendor.ryu.ryu.contrib.ovs.db.parser",
    "pyretic.tests",
    "integrated.test_request_reply_v12",
    "unit.lib.test_import_module",
    "tests.test_packet"
]