[
    "Dialogs",
    "CommitList",
    "Wizard",
    "stupidgit_gui.IndexTab",
    "IndexTab",
    "stupidgit_gui.MainWindow",
    "wxutil",
    "DiffViewer",
    "stupidgit_gui.AboutDialog",
    "stupidgit_gui",
    "stupidgit_gui.Dialogs",
    "stupidgit_gui.DiffViewer",
    "HiddenWindow",
    "FetchDialogs",
    "stupidgit_gui.HiddenWindow",
    "PushDialogs",
    "stupidgit_gui.platformspec",
    "stupidgit_gui.run",
    "stupidgit_gui.util",
    "run",
    "platformspec",
    "stupidgit_gui.Wizard",
    "stupidgit_gui.PushDialogs",
    "util",
    "git",
    "stupidgit_gui.git",
    "PasswordDialog",
    "stupidgit_gui.FetchDialogs",
    "stupidgit_gui.SwitchWizard",
    "stupidgit_gui.HistoryTab",
    "SwitchWizard",
    "stupidgit_gui.CommitList",
    "stupidgit_gui.PasswordDialog",
    "HistoryTab",
    "AboutDialog",
    "MainWindow",
    "stupidgit_gui.wxutil"
]