{
    "archive_url": "https://api.github.com/repos/bruth/django-tracking2/{archive_format}{/ref}",
    "assignees_url": "https://api.github.com/repos/bruth/django-tracking2/assignees{/user}",
    "blobs_url": "https://api.github.com/repos/bruth/django-tracking2/git/blobs{/sha}",
    "branches_url": "https://api.github.com/repos/bruth/django-tracking2/branches{/branch}",
    "clone_url": "https://github.com/bruth/django-tracking2.git",
    "collaborators_url": "https://api.github.com/repos/bruth/django-tracking2/collaborators{/collaborator}",
    "comments_url": "https://api.github.com/repos/bruth/django-tracking2/comments{/number}",
    "commits_url": "https://api.github.com/repos/bruth/django-tracking2/commits{/sha}",
    "compare_url": "https://api.github.com/repos/bruth/django-tracking2/compare/{base}...{head}",
    "contents_url": "https://api.github.com/repos/bruth/django-tracking2/contents/{+path}",
    "contributors_url": "https://api.github.com/repos/bruth/django-tracking2/contributors",
    "created_at": "2012-01-17T23:34:12Z",
    "default_branch": "master",
    "description": "django-tracking2 tracks the length of time visitors and registered users spend on your site. Although this will work for websites, this is more applicable to web _applications_ with registered users. This does not replace (nor intend) to replace client-side analytics which is great for understanding aggregate flow of page views.",
    "downloads_url": "https://api.github.com/repos/bruth/django-tracking2/downloads",
    "events_url": "https://api.github.com/repos/bruth/django-tracking2/events",
    "fork": false,
    "forks": 18,
    "forks_count": 18,
    "forks_url": "https://api.github.com/repos/bruth/django-tracking2/forks",
    "full_name": "bruth/django-tracking2",
    "git_commits_url": "https://api.github.com/repos/bruth/django-tracking2/git/commits{/sha}",
    "git_refs_url": "https://api.github.com/repos/bruth/django-tracking2/git/refs{/sha}",
    "git_tags_url": "https://api.github.com/repos/bruth/django-tracking2/git/tags{/sha}",
    "git_url": "git://github.com/bruth/django-tracking2.git",
    "has_downloads": true,
    "has_issues": true,
    "has_wiki": true,
    "homepage": "",
    "hooks_url": "https://api.github.com/repos/bruth/django-tracking2/hooks",
    "html_url": "https://github.com/bruth/django-tracking2",
    "id": 3204388,
    "issue_comment_url": "https://api.github.com/repos/bruth/django-tracking2/issues/comments/{number}",
    "issue_events_url": "https://api.github.com/repos/bruth/django-tracking2/issues/events{/number}",
    "issues_url": "https://api.github.com/repos/bruth/django-tracking2/issues{/number}",
    "keys_url": "https://api.github.com/repos/bruth/django-tracking2/keys{/key_id}",
    "labels_url": "https://api.github.com/repos/bruth/django-tracking2/labels{/name}",
    "language": "Python",
    "languages_url": "https://api.github.com/repos/bruth/django-tracking2/languages",
    "merges_url": "https://api.github.com/repos/bruth/django-tracking2/merges",
    "milestones_url": "https://api.github.com/repos/bruth/django-tracking2/milestones{/number}",
    "mirror_url": null,
    "name": "django-tracking2",
    "notifications_url": "https://api.github.com/repos/bruth/django-tracking2/notifications{?since,all,participating}",
    "open_issues": 9,
    "open_issues_count": 9,
    "owner": {
        "avatar_url": "https://avatars.githubusercontent.com/u/515142?",
        "events_url": "https://api.github.com/users/bruth/events{/privacy}",
        "followers_url": "https://api.github.com/users/bruth/followers",
        "following_url": "https://api.github.com/users/bruth/following{/other_user}",
        "gists_url": "https://api.github.com/users/bruth/gists{/gist_id}",
        "gravatar_id": "304a09daa8db5ccb8c1c0ff2b0c607eb",
        "html_url": "https://github.com/bruth",
        "id": 515142,
        "login": "bruth",
        "organizations_url": "https://api.github.com/users/bruth/orgs",
        "received_events_url": "https://api.github.com/users/bruth/received_events",
        "repos_url": "https://api.github.com/users/bruth/repos",
        "site_admin": false,
        "starred_url": "https://api.github.com/users/bruth/starred{/owner}{/repo}",
        "subscriptions_url": "https://api.github.com/users/bruth/subscriptions",
        "type": "User",
        "url": "https://api.github.com/users/bruth"
    },
    "private": false,
    "pulls_url": "https://api.github.com/repos/bruth/django-tracking2/pulls{/number}",
    "pushed_at": "2014-04-16T19:46:15Z",
    "releases_url": "https://api.github.com/repos/bruth/django-tracking2/releases{/id}",
    "score": 1.0,
    "size": 442,
    "ssh_url": "git@github.com:bruth/django-tracking2.git",
    "stargazers_count": 43,
    "stargazers_url": "https://api.github.com/repos/bruth/django-tracking2/stargazers",
    "statuses_url": "https://api.github.com/repos/bruth/django-tracking2/statuses/{sha}",
    "subscribers_url": "https://api.github.com/repos/bruth/django-tracking2/subscribers",
    "subscription_url": "https://api.github.com/repos/bruth/django-tracking2/subscription",
    "svn_url": "https://github.com/bruth/django-tracking2",
    "tags_url": "https://api.github.com/repos/bruth/django-tracking2/tags",
    "teams_url": "https://api.github.com/repos/bruth/django-tracking2/teams",
    "trees_url": "https://api.github.com/repos/bruth/django-tracking2/git/trees{/sha}",
    "updated_at": "2014-05-04T22:27:05Z",
    "url": "https://api.github.com/repos/bruth/django-tracking2",
    "watchers": 43,
    "watchers_count": 43
}