[
    "crab.recommenders.knn.tests.test_classes",
    "metrics.tests.test_classes",
    "metrics.sampling",
    "recommenders.knn.tests.test_item_strategies",
    "scikits.crab.metrics.tests",
    "metrics.tests",
    "scikits.crab.similarities.basic_similarities",
    "scikits.crab.models.classes",
    "crab.recommenders.svd.classes",
    "metrics.pairwise",
    "scikits.crab.metrics.metrics",
    "similarities",
    "scikits.crab.tests",
    "crab.metrics.cross_validation",
    "crab.recommenders.knn.base",
    "crab.metrics.tests.test_pairwise",
    "recommenders.base",
    "scikits.crab.metrics.tests.test_metrics",
    "tests.test_metrics",
    "scikits.crab.datasets",
    "crab.models",
    "recommenders.knn",
    "crab.metrics.tests",
    "tests",
    "crab.similarities.base",
    "crab.base",
    "metrics.tests.test_pairwise",
    "crab.metrics",
    "tests.test_classes",
    "book_crossing",
    "scikits.crab.utils.extmath",
    "crab.utils.testing",
    "scikits.crab.models.tests",
    "scikits.crab.similarities",
    "scikits.crab.recommenders.knn.tests",
    "scikits.crab.recommenders.knn.base",
    "crab.metrics.pairwise",
    "scikits.crab.models",
    "recommenders.knn.item_strategies",
    "tests.test_base",
    "svd.classes",
    "crab.metrics.classes",
    "recommenders.knn.tests.test_neighborhood_strategies",
    "utils.extmath",
    "scikits.crab.metrics.sampling",
    "tests.test_models",
    "knn.tests",
    "datasets.tests.test_base",
    "scikits.crab.recommenders.knn.tests.test_item_strategies",
    "crab.similarities.tests.test_basic_similarities",
    "knn.classes",
    "metrics.cross_validation",
    "crab.models.base",
    "scikits.crab.datasets.base",
    "knn.tests.test_classes",
    "test_basic_similarities",
    "scikits.crab.recommenders.svd.tests.test_classes",
    "similarities.tests.test_basic_similarities",
    "recommenders.svd",
    "crab.recommenders.svd",
    "crab.models.utils",
    "similarities.base",
    "crab.datasets.tests.test_base",
    "models",
    "recommenders",
    "classes",
    "crab.datasets.book_crossing",
    "utils.testing",
    "models.base",
    "crab.metrics.base",
    "similarities.basic_similarities",
    "test_classes",
    "crab.recommenders.knn.neighborhood_strategies",
    "svd.tests.test_classes",
    "scikits.crab.metrics.pairwise",
    "crab.models.classes",
    "datasets.base",
    "crab.metrics.sampling",
    "base",
    "scikits.crab.metrics.classes",
    "svd.base",
    "test_neighborhood_strategies",
    "scikits.crab.recommenders.svd.classes",
    "metrics.base",
    "metrics.metrics",
    "scikits.crab.recommenders.base",
    "scikits.crab.similarities.tests",
    "test_models",
    "crab.utils.extmath",
    "models.tests.test_models",
    "scikits.crab.recommenders.knn.tests.test_classes",
    "crab.recommenders.knn.classes",
    "scikits.crab.recommenders.knn.classes",
    "crab.utils",
    "scikits.crab.recommenders.knn.tests.test_neighborhood_strategies",
    "datasets.tests",
    "crab.recommenders.knn.tests.test_item_strategies",
    "crab.similarities",
    "scikits.crab.metrics.tests.test_cross_validation",
    "sampling",
    "knn.base",
    "scikits.crab.metrics.tests.test_pairwise",
    "crab.models.tests",
    "crab.recommenders.knn.tests.test_neighborhood_strategies",
    "crab.tests.test_base",
    "metrics.tests.test_cross_validation",
    "crab.similarities.basic_similarities",
    "crab.tests",
    "scikits.crab.recommenders.knn.item_strategies",
    "scikits.crab.recommenders",
    "crab.recommenders",
    "doc.conf",
    "basic_similarities",
    "scikits.crab.models.base",
    "tests.test_item_strategies",
    "tests.test_pairwise",
    "crab",
    "test_pairwise",
    "crab.metrics.tests.test_metrics",
    "scikits.crab.utils",
    "knn",
    "scikits.crab.datasets.book_crossing",
    "testing",
    "similarities.tests.test_base",
    "scikits.crab.metrics.tests.test_classes",
    "recommenders.svd.tests",
    "scikits",
    "crab.recommenders.svd.tests.test_classes",
    "scikits.crab.models.tests.test_models",
    "recommenders.svd.base",
    "datasets",
    "crab.models.tests.test_models",
    "similarities.tests",
    "models.tests",
    "scikits.crab.models.utils",
    "recommenders.knn.base",
    "scikits.crab.datasets.tests.test_base",
    "crab.datasets",
    "models.utils",
    "scikits.crab.similarities.tests.test_basic_similarities",
    "crab.recommenders.knn",
    "scikits.crab.datasets.tests",
    "pairwise",
    "metrics.classes",
    "scikits.crab.recommenders.knn.neighborhood_strategies",
    "scikits.crab.metrics.base",
    "scikits.crab",
    "test_metrics",
    "scikits.crab.tests.test_base",
    "extmath",
    "knn.neighborhood_strategies",
    "knn.tests.test_item_strategies",
    "knn.tests.test_neighborhood_strategies",
    "crab.datasets.base",
    "crab.recommenders.base",
    "scikits.crab.recommenders.svd.tests",
    "test_item_strategies",
    "conf",
    "scikits.crab.metrics.cross_validation",
    "crab.recommenders.svd.tests",
    "metrics.tests.test_metrics",
    "crab.recommenders.knn.tests",
    "utils",
    "recommenders.knn.tests.test_classes",
    "scikits.crab.utils.testing",
    "scikits.crab.recommenders.knn",
    "crab.metrics.tests.test_cross_validation",
    "crab.similarities.tests.test_base",
    "crab.similarities.tests",
    "scikits.crab.base",
    "scikits.crab.recommenders.svd.base",
    "tests.test_neighborhood_strategies",
    "recommenders.knn.tests",
    "cross_validation",
    "models.classes",
    "neighborhood_strategies",
    "item_strategies",
    "tests.test_cross_validation",
    "svd.tests",
    "crab.recommenders.svd.base",
    "recommenders.knn.classes",
    "crab.metrics.metrics",
    "recommenders.svd.classes",
    "test_cross_validation",
    "scikits.crab.recommenders.svd",
    "metrics",
    "scikits.crab.similarities.base",
    "crab.recommenders.knn.item_strategies",
    "scikits.crab.similarities.tests.test_base",
    "scikits.crab.metrics",
    "recommenders.svd.tests.test_classes",
    "datasets.book_crossing",
    "crab.datasets.tests",
    "doc",
    "svd",
    "knn.item_strategies",
    "test_base",
    "crab.metrics.tests.test_classes",
    "tests.test_basic_similarities",
    "recommenders.knn.neighborhood_strategies"
]