{
    "libs": [
        "stat",
        "bin",
        "managers",
        "urllib",
        "cStringIO",
        "text",
        "unittest",
        "random",
        "copy",
        "__builtin__",
        "datetime",
        "email",
        "B",
        "gc",
        "multipart",
        "types",
        "shutil",
        "paramiko",
        "handlers",
        "resource",
        "lxml",
        "struct",
        "imp",
        "tempfile",
        "errno",
        "pprint",
        "multiprocessing",
        "re",
        "json",
        "functools",
        "collections",
        "select",
        "getp",
        "uuid",
        "smtplib",
        "md5",
        "cgi",
        "image",
        "math",
        "fcntl",
        "mimetypes",
        "sqlalchemy",
        "Tkinter",
        "SocketServer",
        "warnings",
        "H",
        "inspect",
        "cPickle",
        "Crypto",
        "termios",
        "urllib2",
        "sys",
        "ctypes",
        "T",
        "codecs",
        "path",
        "subprocess",
        "pool",
        "ConfigParser",
        "c",
        "b",
        "logging",
        "socket",
        "thread",
        "StringIO",
        "h",
        "signal",
        "traceback",
        "request",
        "weakref",
        "meliae",
        "urlparse",
        "threading",
        "itertools",
        "time",
        "audio",
        "os",
        "ssh_exception"
    ]
}