{
    "libs": [
        "shortcuts",
        "random",
        "datetime",
        "timezone",
        "exceptions",
        "PIL",
        "six",
        "ImageFilter",
        "re",
        "json",
        "template",
        "widgets",
        "http",
        "db",
        "sys",
        "test",
        "v2",
        "translation",
        "unicodedata",
        "b",
        "h",
        "django",
        "defaults",
        "time",
        "urlresolvers",
        "os"
    ]
}