{
    "archive_url": "https://api.github.com/repos/mbi/django-simple-captcha/{archive_format}{/ref}",
    "assignees_url": "https://api.github.com/repos/mbi/django-simple-captcha/assignees{/user}",
    "blobs_url": "https://api.github.com/repos/mbi/django-simple-captcha/git/blobs{/sha}",
    "branches_url": "https://api.github.com/repos/mbi/django-simple-captcha/branches{/branch}",
    "clone_url": "https://github.com/mbi/django-simple-captcha.git",
    "collaborators_url": "https://api.github.com/repos/mbi/django-simple-captcha/collaborators{/collaborator}",
    "comments_url": "https://api.github.com/repos/mbi/django-simple-captcha/comments{/number}",
    "commits_url": "https://api.github.com/repos/mbi/django-simple-captcha/commits{/sha}",
    "compare_url": "https://api.github.com/repos/mbi/django-simple-captcha/compare/{base}...{head}",
    "contents_url": "https://api.github.com/repos/mbi/django-simple-captcha/contents/{+path}",
    "contributors_url": "https://api.github.com/repos/mbi/django-simple-captcha/contributors",
    "created_at": "2012-04-04T14:35:36Z",
    "default_branch": "master",
    "description": "Django Simple Captcha is an extremely simple, yet highly customizable Django application to add captcha images to any Django form.",
    "downloads_url": "https://api.github.com/repos/mbi/django-simple-captcha/downloads",
    "events_url": "https://api.github.com/repos/mbi/django-simple-captcha/events",
    "fork": false,
    "forks": 91,
    "forks_count": 91,
    "forks_url": "https://api.github.com/repos/mbi/django-simple-captcha/forks",
    "full_name": "mbi/django-simple-captcha",
    "git_commits_url": "https://api.github.com/repos/mbi/django-simple-captcha/git/commits{/sha}",
    "git_refs_url": "https://api.github.com/repos/mbi/django-simple-captcha/git/refs{/sha}",
    "git_tags_url": "https://api.github.com/repos/mbi/django-simple-captcha/git/tags{/sha}",
    "git_url": "git://github.com/mbi/django-simple-captcha.git",
    "has_downloads": true,
    "has_issues": true,
    "has_wiki": true,
    "homepage": "http://readthedocs.org/docs/django-simple-captcha",
    "hooks_url": "https://api.github.com/repos/mbi/django-simple-captcha/hooks",
    "html_url": "https://github.com/mbi/django-simple-captcha",
    "id": 3929597,
    "issue_comment_url": "https://api.github.com/repos/mbi/django-simple-captcha/issues/comments/{number}",
    "issue_events_url": "https://api.github.com/repos/mbi/django-simple-captcha/issues/events{/number}",
    "issues_url": "https://api.github.com/repos/mbi/django-simple-captcha/issues{/number}",
    "keys_url": "https://api.github.com/repos/mbi/django-simple-captcha/keys{/key_id}",
    "labels_url": "https://api.github.com/repos/mbi/django-simple-captcha/labels{/name}",
    "language": "Python",
    "languages_url": "https://api.github.com/repos/mbi/django-simple-captcha/languages",
    "merges_url": "https://api.github.com/repos/mbi/django-simple-captcha/merges",
    "milestones_url": "https://api.github.com/repos/mbi/django-simple-captcha/milestones{/number}",
    "mirror_url": null,
    "name": "django-simple-captcha",
    "notifications_url": "https://api.github.com/repos/mbi/django-simple-captcha/notifications{?since,all,participating}",
    "open_issues": 11,
    "open_issues_count": 11,
    "owner": {
        "avatar_url": "https://avatars.githubusercontent.com/u/131808?",
        "events_url": "https://api.github.com/users/mbi/events{/privacy}",
        "followers_url": "https://api.github.com/users/mbi/followers",
        "following_url": "https://api.github.com/users/mbi/following{/other_user}",
        "gists_url": "https://api.github.com/users/mbi/gists{/gist_id}",
        "gravatar_id": "fee59a843372de93a13b21a916dad406",
        "html_url": "https://github.com/mbi",
        "id": 131808,
        "login": "mbi",
        "organizations_url": "https://api.github.com/users/mbi/orgs",
        "received_events_url": "https://api.github.com/users/mbi/received_events",
        "repos_url": "https://api.github.com/users/mbi/repos",
        "site_admin": false,
        "starred_url": "https://api.github.com/users/mbi/starred{/owner}{/repo}",
        "subscriptions_url": "https://api.github.com/users/mbi/subscriptions",
        "type": "User",
        "url": "https://api.github.com/users/mbi"
    },
    "private": false,
    "pulls_url": "https://api.github.com/repos/mbi/django-simple-captcha/pulls{/number}",
    "pushed_at": "2014-03-28T08:30:49Z",
    "releases_url": "https://api.github.com/repos/mbi/django-simple-captcha/releases{/id}",
    "score": 1.0,
    "size": 717,
    "ssh_url": "git@github.com:mbi/django-simple-captcha.git",
    "stargazers_count": 180,
    "stargazers_url": "https://api.github.com/repos/mbi/django-simple-captcha/stargazers",
    "statuses_url": "https://api.github.com/repos/mbi/django-simple-captcha/statuses/{sha}",
    "subscribers_url": "https://api.github.com/repos/mbi/django-simple-captcha/subscribers",
    "subscription_url": "https://api.github.com/repos/mbi/django-simple-captcha/subscription",
    "svn_url": "https://github.com/mbi/django-simple-captcha",
    "tags_url": "https://api.github.com/repos/mbi/django-simple-captcha/tags",
    "teams_url": "https://api.github.com/repos/mbi/django-simple-captcha/teams",
    "trees_url": "https://api.github.com/repos/mbi/django-simple-captcha/git/trees{/sha}",
    "updated_at": "2014-05-06T18:24:47Z",
    "url": "https://api.github.com/repos/mbi/django-simple-captcha",
    "watchers": 180,
    "watchers_count": 180
}