{
    "archive_url": "https://api.github.com/repos/mk-fg/graphite-metrics/{archive_format}{/ref}",
    "assignees_url": "https://api.github.com/repos/mk-fg/graphite-metrics/assignees{/user}",
    "blobs_url": "https://api.github.com/repos/mk-fg/graphite-metrics/git/blobs{/sha}",
    "branches_url": "https://api.github.com/repos/mk-fg/graphite-metrics/branches{/branch}",
    "clone_url": "https://github.com/mk-fg/graphite-metrics.git",
    "collaborators_url": "https://api.github.com/repos/mk-fg/graphite-metrics/collaborators{/collaborator}",
    "comments_url": "https://api.github.com/repos/mk-fg/graphite-metrics/comments{/number}",
    "commits_url": "https://api.github.com/repos/mk-fg/graphite-metrics/commits{/sha}",
    "compare_url": "https://api.github.com/repos/mk-fg/graphite-metrics/compare/{base}...{head}",
    "contents_url": "https://api.github.com/repos/mk-fg/graphite-metrics/contents/{+path}",
    "contributors_url": "https://api.github.com/repos/mk-fg/graphite-metrics/contributors",
    "created_at": "2012-03-26T06:06:46Z",
    "default_branch": "master",
    "description": "metric collectors  for various stuff not (or poorly) handled by other monitoring daemons",
    "downloads_url": "https://api.github.com/repos/mk-fg/graphite-metrics/downloads",
    "events_url": "https://api.github.com/repos/mk-fg/graphite-metrics/events",
    "fork": false,
    "forks": 3,
    "forks_count": 3,
    "forks_url": "https://api.github.com/repos/mk-fg/graphite-metrics/forks",
    "full_name": "mk-fg/graphite-metrics",
    "git_commits_url": "https://api.github.com/repos/mk-fg/graphite-metrics/git/commits{/sha}",
    "git_refs_url": "https://api.github.com/repos/mk-fg/graphite-metrics/git/refs{/sha}",
    "git_tags_url": "https://api.github.com/repos/mk-fg/graphite-metrics/git/tags{/sha}",
    "git_url": "git://github.com/mk-fg/graphite-metrics.git",
    "has_downloads": true,
    "has_issues": true,
    "has_wiki": true,
    "homepage": "",
    "hooks_url": "https://api.github.com/repos/mk-fg/graphite-metrics/hooks",
    "html_url": "https://github.com/mk-fg/graphite-metrics",
    "id": 3830105,
    "issue_comment_url": "https://api.github.com/repos/mk-fg/graphite-metrics/issues/comments/{number}",
    "issue_events_url": "https://api.github.com/repos/mk-fg/graphite-metrics/issues/events{/number}",
    "issues_url": "https://api.github.com/repos/mk-fg/graphite-metrics/issues{/number}",
    "keys_url": "https://api.github.com/repos/mk-fg/graphite-metrics/keys{/key_id}",
    "labels_url": "https://api.github.com/repos/mk-fg/graphite-metrics/labels{/name}",
    "language": "Python",
    "languages_url": "https://api.github.com/repos/mk-fg/graphite-metrics/languages",
    "merges_url": "https://api.github.com/repos/mk-fg/graphite-metrics/merges",
    "milestones_url": "https://api.github.com/repos/mk-fg/graphite-metrics/milestones{/number}",
    "mirror_url": null,
    "name": "graphite-metrics",
    "notifications_url": "https://api.github.com/repos/mk-fg/graphite-metrics/notifications{?since,all,participating}",
    "open_issues": 1,
    "open_issues_count": 1,
    "owner": {
        "avatar_url": "https://avatars.githubusercontent.com/u/227121?",
        "events_url": "https://api.github.com/users/mk-fg/events{/privacy}",
        "followers_url": "https://api.github.com/users/mk-fg/followers",
        "following_url": "https://api.github.com/users/mk-fg/following{/other_user}",
        "gists_url": "https://api.github.com/users/mk-fg/gists{/gist_id}",
        "gravatar_id": "db0d5b15da76246bed0ba3c253b5ea82",
        "html_url": "https://github.com/mk-fg",
        "id": 227121,
        "login": "mk-fg",
        "organizations_url": "https://api.github.com/users/mk-fg/orgs",
        "received_events_url": "https://api.github.com/users/mk-fg/received_events",
        "repos_url": "https://api.github.com/users/mk-fg/repos",
        "site_admin": false,
        "starred_url": "https://api.github.com/users/mk-fg/starred{/owner}{/repo}",
        "subscriptions_url": "https://api.github.com/users/mk-fg/subscriptions",
        "type": "User",
        "url": "https://api.github.com/users/mk-fg"
    },
    "private": false,
    "pulls_url": "https://api.github.com/repos/mk-fg/graphite-metrics/pulls{/number}",
    "pushed_at": "2014-01-31T04:02:28Z",
    "releases_url": "https://api.github.com/repos/mk-fg/graphite-metrics/releases{/id}",
    "score": 1.0,
    "size": 440,
    "ssh_url": "git@github.com:mk-fg/graphite-metrics.git",
    "stargazers_count": 70,
    "stargazers_url": "https://api.github.com/repos/mk-fg/graphite-metrics/stargazers",
    "statuses_url": "https://api.github.com/repos/mk-fg/graphite-metrics/statuses/{sha}",
    "subscribers_url": "https://api.github.com/repos/mk-fg/graphite-metrics/subscribers",
    "subscription_url": "https://api.github.com/repos/mk-fg/graphite-metrics/subscription",
    "svn_url": "https://github.com/mk-fg/graphite-metrics",
    "tags_url": "https://api.github.com/repos/mk-fg/graphite-metrics/tags",
    "teams_url": "https://api.github.com/repos/mk-fg/graphite-metrics/teams",
    "trees_url": "https://api.github.com/repos/mk-fg/graphite-metrics/git/trees{/sha}",
    "updated_at": "2014-01-31T04:02:29Z",
    "url": "https://api.github.com/repos/mk-fg/graphite-metrics",
    "watchers": 70,
    "watchers_count": 70
}