[
    "commandline.sonoshell",
    "webapp.index",
    "commandline",
    "examples.commandline.sonoshell",
    "examples.webapp",
    "examples.commandline",
    "commandline.tunein",
    "examples",
    "conf",
    "examples.webapp.index",
    "webapp",
    "tunein",
    "index",
    "soco",
    "doc",
    "doc.conf",
    "examples.commandline.tunein",
    "sonoshell"
]