{
    "libs": [
        "fractions",
        "traceback",
        "keyword",
        "h",
        "functools",
        "pprint",
        "textwrap",
        "contextlib",
        "sys",
        "re",
        "itertools",
        "collections",
        "doctest",
        "codecs",
        "types",
        "getopt",
        "inspect",
        "os",
        "decimal",
        "print_function"
    ]
}