{
    "archive_url": "https://api.github.com/repos/akira-cn/sublime-gbk/{archive_format}{/ref}",
    "assignees_url": "https://api.github.com/repos/akira-cn/sublime-gbk/assignees{/user}",
    "blobs_url": "https://api.github.com/repos/akira-cn/sublime-gbk/git/blobs{/sha}",
    "branches_url": "https://api.github.com/repos/akira-cn/sublime-gbk/branches{/branch}",
    "clone_url": "https://github.com/akira-cn/sublime-gbk.git",
    "collaborators_url": "https://api.github.com/repos/akira-cn/sublime-gbk/collaborators{/collaborator}",
    "comments_url": "https://api.github.com/repos/akira-cn/sublime-gbk/comments{/number}",
    "commits_url": "https://api.github.com/repos/akira-cn/sublime-gbk/commits{/sha}",
    "compare_url": "https://api.github.com/repos/akira-cn/sublime-gbk/compare/{base}...{head}",
    "contents_url": "https://api.github.com/repos/akira-cn/sublime-gbk/contents/{+path}",
    "contributors_url": "https://api.github.com/repos/akira-cn/sublime-gbk/contributors",
    "created_at": "2012-02-23T07:12:21Z",
    "default_branch": "master",
    "description": "support file with gbk encoding",
    "downloads_url": "https://api.github.com/repos/akira-cn/sublime-gbk/downloads",
    "events_url": "https://api.github.com/repos/akira-cn/sublime-gbk/events",
    "fork": false,
    "forks": 40,
    "forks_count": 40,
    "forks_url": "https://api.github.com/repos/akira-cn/sublime-gbk/forks",
    "full_name": "akira-cn/sublime-gbk",
    "git_commits_url": "https://api.github.com/repos/akira-cn/sublime-gbk/git/commits{/sha}",
    "git_refs_url": "https://api.github.com/repos/akira-cn/sublime-gbk/git/refs{/sha}",
    "git_tags_url": "https://api.github.com/repos/akira-cn/sublime-gbk/git/tags{/sha}",
    "git_url": "git://github.com/akira-cn/sublime-gbk.git",
    "has_downloads": true,
    "has_issues": true,
    "has_wiki": true,
    "homepage": "",
    "hooks_url": "https://api.github.com/repos/akira-cn/sublime-gbk/hooks",
    "html_url": "https://github.com/akira-cn/sublime-gbk",
    "id": 3523171,
    "issue_comment_url": "https://api.github.com/repos/akira-cn/sublime-gbk/issues/comments/{number}",
    "issue_events_url": "https://api.github.com/repos/akira-cn/sublime-gbk/issues/events{/number}",
    "issues_url": "https://api.github.com/repos/akira-cn/sublime-gbk/issues{/number}",
    "keys_url": "https://api.github.com/repos/akira-cn/sublime-gbk/keys{/key_id}",
    "labels_url": "https://api.github.com/repos/akira-cn/sublime-gbk/labels{/name}",
    "language": "Python",
    "languages_url": "https://api.github.com/repos/akira-cn/sublime-gbk/languages",
    "merges_url": "https://api.github.com/repos/akira-cn/sublime-gbk/merges",
    "milestones_url": "https://api.github.com/repos/akira-cn/sublime-gbk/milestones{/number}",
    "mirror_url": null,
    "name": "sublime-gbk",
    "notifications_url": "https://api.github.com/repos/akira-cn/sublime-gbk/notifications{?since,all,participating}",
    "open_issues": 11,
    "open_issues_count": 11,
    "owner": {
        "avatar_url": "https://avatars.githubusercontent.com/u/316498?",
        "events_url": "https://api.github.com/users/akira-cn/events{/privacy}",
        "followers_url": "https://api.github.com/users/akira-cn/followers",
        "following_url": "https://api.github.com/users/akira-cn/following{/other_user}",
        "gists_url": "https://api.github.com/users/akira-cn/gists{/gist_id}",
        "gravatar_id": "5039cff9785b0c2dc71e25e0dff9ba40",
        "html_url": "https://github.com/akira-cn",
        "id": 316498,
        "login": "akira-cn",
        "organizations_url": "https://api.github.com/users/akira-cn/orgs",
        "received_events_url": "https://api.github.com/users/akira-cn/received_events",
        "repos_url": "https://api.github.com/users/akira-cn/repos",
        "site_admin": false,
        "starred_url": "https://api.github.com/users/akira-cn/starred{/owner}{/repo}",
        "subscriptions_url": "https://api.github.com/users/akira-cn/subscriptions",
        "type": "User",
        "url": "https://api.github.com/users/akira-cn"
    },
    "private": false,
    "pulls_url": "https://api.github.com/repos/akira-cn/sublime-gbk/pulls{/number}",
    "pushed_at": "2013-11-25T04:14:46Z",
    "releases_url": "https://api.github.com/repos/akira-cn/sublime-gbk/releases{/id}",
    "score": 1.0,
    "size": 141,
    "ssh_url": "git@github.com:akira-cn/sublime-gbk.git",
    "stargazers_count": 68,
    "stargazers_url": "https://api.github.com/repos/akira-cn/sublime-gbk/stargazers",
    "statuses_url": "https://api.github.com/repos/akira-cn/sublime-gbk/statuses/{sha}",
    "subscribers_url": "https://api.github.com/repos/akira-cn/sublime-gbk/subscribers",
    "subscription_url": "https://api.github.com/repos/akira-cn/sublime-gbk/subscription",
    "svn_url": "https://github.com/akira-cn/sublime-gbk",
    "tags_url": "https://api.github.com/repos/akira-cn/sublime-gbk/tags",
    "teams_url": "https://api.github.com/repos/akira-cn/sublime-gbk/teams",
    "trees_url": "https://api.github.com/repos/akira-cn/sublime-gbk/git/trees{/sha}",
    "updated_at": "2014-01-12T02:15:04Z",
    "url": "https://api.github.com/repos/akira-cn/sublime-gbk",
    "watchers": 68,
    "watchers_count": 68
}