[
    "plugins.PacketDumper",
    "networking.PacketSenderManager",
    "DataUtil",
    "plugins.IRC",
    "nbt",
    "PacketListenerManager",
    "PacketSenderManager",
    "plugins",
    "networking.PacketListenerManager",
    "pynbt.nbt",
    "networking.DataUtil",
    "PacketDumper",
    "IRC",
    "networking",
    "pynbt",
    "networking.NetworkManager",
    "start",
    "NetworkManager",
    "pluginloader",
    "Utils"
]