{
    "libs": [
        "shortcuts",
        "unittest",
        "random",
        "datetime",
        "conf",
        "timezone",
        "contrib",
        "query",
        "paginator",
        "django_rq",
        "loading",
        "importlib",
        "imp",
        "tempfile",
        "urllib",
        "re",
        "json",
        "collections",
        "template",
        "test",
        "mail",
        "csv",
        "files",
        "core",
        "http",
        "warnings",
        "inspect",
        "db",
        "auth",
        "sys",
        "urlresolvers",
        "v2",
        "lxml",
        "css_default",
        "csrf",
        "path",
        "copy",
        "properties",
        "b",
        "logging",
        "dj_datab",
        "relationships",
        "StringIO",
        "fields",
        "traceback",
        "difflib",
        "django",
        "urlparse",
        "p",
        "extensions",
        "t",
        "h",
        "exceptions",
        "os"
    ]
}