{
    "archive_url": "https://api.github.com/repos/proxypoke/quickswitch-for-i3/{archive_format}{/ref}",
    "assignees_url": "https://api.github.com/repos/proxypoke/quickswitch-for-i3/assignees{/user}",
    "blobs_url": "https://api.github.com/repos/proxypoke/quickswitch-for-i3/git/blobs{/sha}",
    "branches_url": "https://api.github.com/repos/proxypoke/quickswitch-for-i3/branches{/branch}",
    "clone_url": "https://github.com/proxypoke/quickswitch-for-i3.git",
    "collaborators_url": "https://api.github.com/repos/proxypoke/quickswitch-for-i3/collaborators{/collaborator}",
    "comments_url": "https://api.github.com/repos/proxypoke/quickswitch-for-i3/comments{/number}",
    "commits_url": "https://api.github.com/repos/proxypoke/quickswitch-for-i3/commits{/sha}",
    "compare_url": "https://api.github.com/repos/proxypoke/quickswitch-for-i3/compare/{base}...{head}",
    "contents_url": "https://api.github.com/repos/proxypoke/quickswitch-for-i3/contents/{+path}",
    "contributors_url": "https://api.github.com/repos/proxypoke/quickswitch-for-i3/contributors",
    "created_at": "2012-10-03T23:35:49Z",
    "default_branch": "master",
    "description": "A python utility to quickly change to and locate windows in i3",
    "downloads_url": "https://api.github.com/repos/proxypoke/quickswitch-for-i3/downloads",
    "events_url": "https://api.github.com/repos/proxypoke/quickswitch-for-i3/events",
    "fork": false,
    "forks": 13,
    "forks_count": 13,
    "forks_url": "https://api.github.com/repos/proxypoke/quickswitch-for-i3/forks",
    "full_name": "proxypoke/quickswitch-for-i3",
    "git_commits_url": "https://api.github.com/repos/proxypoke/quickswitch-for-i3/git/commits{/sha}",
    "git_refs_url": "https://api.github.com/repos/proxypoke/quickswitch-for-i3/git/refs{/sha}",
    "git_tags_url": "https://api.github.com/repos/proxypoke/quickswitch-for-i3/git/tags{/sha}",
    "git_url": "git://github.com/proxypoke/quickswitch-for-i3.git",
    "has_downloads": true,
    "has_issues": true,
    "has_wiki": true,
    "homepage": null,
    "hooks_url": "https://api.github.com/repos/proxypoke/quickswitch-for-i3/hooks",
    "html_url": "https://github.com/proxypoke/quickswitch-for-i3",
    "id": 6068492,
    "issue_comment_url": "https://api.github.com/repos/proxypoke/quickswitch-for-i3/issues/comments/{number}",
    "issue_events_url": "https://api.github.com/repos/proxypoke/quickswitch-for-i3/issues/events{/number}",
    "issues_url": "https://api.github.com/repos/proxypoke/quickswitch-for-i3/issues{/number}",
    "keys_url": "https://api.github.com/repos/proxypoke/quickswitch-for-i3/keys{/key_id}",
    "labels_url": "https://api.github.com/repos/proxypoke/quickswitch-for-i3/labels{/name}",
    "language": "Python",
    "languages_url": "https://api.github.com/repos/proxypoke/quickswitch-for-i3/languages",
    "merges_url": "https://api.github.com/repos/proxypoke/quickswitch-for-i3/merges",
    "milestones_url": "https://api.github.com/repos/proxypoke/quickswitch-for-i3/milestones{/number}",
    "mirror_url": null,
    "name": "quickswitch-for-i3",
    "notifications_url": "https://api.github.com/repos/proxypoke/quickswitch-for-i3/notifications{?since,all,participating}",
    "open_issues": 3,
    "open_issues_count": 3,
    "owner": {
        "avatar_url": "https://avatars.githubusercontent.com/u/580178?",
        "events_url": "https://api.github.com/users/proxypoke/events{/privacy}",
        "followers_url": "https://api.github.com/users/proxypoke/followers",
        "following_url": "https://api.github.com/users/proxypoke/following{/other_user}",
        "gists_url": "https://api.github.com/users/proxypoke/gists{/gist_id}",
        "gravatar_id": "0a90087615137e15096162c588d1dc71",
        "html_url": "https://github.com/proxypoke",
        "id": 580178,
        "login": "proxypoke",
        "organizations_url": "https://api.github.com/users/proxypoke/orgs",
        "received_events_url": "https://api.github.com/users/proxypoke/received_events",
        "repos_url": "https://api.github.com/users/proxypoke/repos",
        "site_admin": false,
        "starred_url": "https://api.github.com/users/proxypoke/starred{/owner}{/repo}",
        "subscriptions_url": "https://api.github.com/users/proxypoke/subscriptions",
        "type": "User",
        "url": "https://api.github.com/users/proxypoke"
    },
    "private": false,
    "pulls_url": "https://api.github.com/repos/proxypoke/quickswitch-for-i3/pulls{/number}",
    "pushed_at": "2014-04-15T23:17:49Z",
    "releases_url": "https://api.github.com/repos/proxypoke/quickswitch-for-i3/releases{/id}",
    "score": 1.0,
    "size": 327,
    "ssh_url": "git@github.com:proxypoke/quickswitch-for-i3.git",
    "stargazers_count": 47,
    "stargazers_url": "https://api.github.com/repos/proxypoke/quickswitch-for-i3/stargazers",
    "statuses_url": "https://api.github.com/repos/proxypoke/quickswitch-for-i3/statuses/{sha}",
    "subscribers_url": "https://api.github.com/repos/proxypoke/quickswitch-for-i3/subscribers",
    "subscription_url": "https://api.github.com/repos/proxypoke/quickswitch-for-i3/subscription",
    "svn_url": "https://github.com/proxypoke/quickswitch-for-i3",
    "tags_url": "https://api.github.com/repos/proxypoke/quickswitch-for-i3/tags",
    "teams_url": "https://api.github.com/repos/proxypoke/quickswitch-for-i3/teams",
    "trees_url": "https://api.github.com/repos/proxypoke/quickswitch-for-i3/git/trees{/sha}",
    "updated_at": "2014-05-02T13:56:15Z",
    "url": "https://api.github.com/repos/proxypoke/quickswitch-for-i3",
    "watchers": 47,
    "watchers_count": 47
}