{
    "archive_url": "https://api.github.com/repos/kartograph/kartograph.py/{archive_format}{/ref}",
    "assignees_url": "https://api.github.com/repos/kartograph/kartograph.py/assignees{/user}",
    "blobs_url": "https://api.github.com/repos/kartograph/kartograph.py/git/blobs{/sha}",
    "branches_url": "https://api.github.com/repos/kartograph/kartograph.py/branches{/branch}",
    "clone_url": "https://github.com/kartograph/kartograph.py.git",
    "collaborators_url": "https://api.github.com/repos/kartograph/kartograph.py/collaborators{/collaborator}",
    "comments_url": "https://api.github.com/repos/kartograph/kartograph.py/comments{/number}",
    "commits_url": "https://api.github.com/repos/kartograph/kartograph.py/commits{/sha}",
    "compare_url": "https://api.github.com/repos/kartograph/kartograph.py/compare/{base}...{head}",
    "contents_url": "https://api.github.com/repos/kartograph/kartograph.py/contents/{+path}",
    "contributors_url": "https://api.github.com/repos/kartograph/kartograph.py/contributors",
    "created_at": "2012-01-15T21:28:27Z",
    "default_branch": "master",
    "description": "Renders beautiful SVG maps in Python.",
    "downloads_url": "https://api.github.com/repos/kartograph/kartograph.py/downloads",
    "events_url": "https://api.github.com/repos/kartograph/kartograph.py/events",
    "fork": false,
    "forks": 92,
    "forks_count": 92,
    "forks_url": "https://api.github.com/repos/kartograph/kartograph.py/forks",
    "full_name": "kartograph/kartograph.py",
    "git_commits_url": "https://api.github.com/repos/kartograph/kartograph.py/git/commits{/sha}",
    "git_refs_url": "https://api.github.com/repos/kartograph/kartograph.py/git/refs{/sha}",
    "git_tags_url": "https://api.github.com/repos/kartograph/kartograph.py/git/tags{/sha}",
    "git_url": "git://github.com/kartograph/kartograph.py.git",
    "has_downloads": true,
    "has_issues": true,
    "has_wiki": false,
    "homepage": "http://kartograph.org/docs/kartograph.py",
    "hooks_url": "https://api.github.com/repos/kartograph/kartograph.py/hooks",
    "html_url": "https://github.com/kartograph/kartograph.py",
    "id": 3186075,
    "issue_comment_url": "https://api.github.com/repos/kartograph/kartograph.py/issues/comments/{number}",
    "issue_events_url": "https://api.github.com/repos/kartograph/kartograph.py/issues/events{/number}",
    "issues_url": "https://api.github.com/repos/kartograph/kartograph.py/issues{/number}",
    "keys_url": "https://api.github.com/repos/kartograph/kartograph.py/keys{/key_id}",
    "labels_url": "https://api.github.com/repos/kartograph/kartograph.py/labels{/name}",
    "language": "Python",
    "languages_url": "https://api.github.com/repos/kartograph/kartograph.py/languages",
    "merges_url": "https://api.github.com/repos/kartograph/kartograph.py/merges",
    "milestones_url": "https://api.github.com/repos/kartograph/kartograph.py/milestones{/number}",
    "mirror_url": null,
    "name": "kartograph.py",
    "notifications_url": "https://api.github.com/repos/kartograph/kartograph.py/notifications{?since,all,participating}",
    "open_issues": 43,
    "open_issues_count": 43,
    "owner": {
        "avatar_url": "https://avatars.githubusercontent.com/u/1201535?",
        "events_url": "https://api.github.com/users/kartograph/events{/privacy}",
        "followers_url": "https://api.github.com/users/kartograph/followers",
        "following_url": "https://api.github.com/users/kartograph/following{/other_user}",
        "gists_url": "https://api.github.com/users/kartograph/gists{/gist_id}",
        "gravatar_id": "10bcd7df2bc2086b0118ab18bd2ce6fb",
        "html_url": "https://github.com/kartograph",
        "id": 1201535,
        "login": "kartograph",
        "organizations_url": "https://api.github.com/users/kartograph/orgs",
        "received_events_url": "https://api.github.com/users/kartograph/received_events",
        "repos_url": "https://api.github.com/users/kartograph/repos",
        "site_admin": false,
        "starred_url": "https://api.github.com/users/kartograph/starred{/owner}{/repo}",
        "subscriptions_url": "https://api.github.com/users/kartograph/subscriptions",
        "type": "Organization",
        "url": "https://api.github.com/users/kartograph"
    },
    "private": false,
    "pulls_url": "https://api.github.com/repos/kartograph/kartograph.py/pulls{/number}",
    "pushed_at": "2014-03-27T03:59:39Z",
    "releases_url": "https://api.github.com/repos/kartograph/kartograph.py/releases{/id}",
    "score": 1.0,
    "size": 3016,
    "ssh_url": "git@github.com:kartograph/kartograph.py.git",
    "stargazers_count": 575,
    "stargazers_url": "https://api.github.com/repos/kartograph/kartograph.py/stargazers",
    "statuses_url": "https://api.github.com/repos/kartograph/kartograph.py/statuses/{sha}",
    "subscribers_url": "https://api.github.com/repos/kartograph/kartograph.py/subscribers",
    "subscription_url": "https://api.github.com/repos/kartograph/kartograph.py/subscription",
    "svn_url": "https://github.com/kartograph/kartograph.py",
    "tags_url": "https://api.github.com/repos/kartograph/kartograph.py/tags",
    "teams_url": "https://api.github.com/repos/kartograph/kartograph.py/teams",
    "trees_url": "https://api.github.com/repos/kartograph/kartograph.py/git/trees{/sha}",
    "updated_at": "2014-05-07T03:21:27Z",
    "url": "https://api.github.com/repos/kartograph/kartograph.py",
    "watchers": 575,
    "watchers_count": 575
}