{
    "archive_url": "https://api.github.com/repos/espeed/bulbs/{archive_format}{/ref}",
    "assignees_url": "https://api.github.com/repos/espeed/bulbs/assignees{/user}",
    "blobs_url": "https://api.github.com/repos/espeed/bulbs/git/blobs{/sha}",
    "branches_url": "https://api.github.com/repos/espeed/bulbs/branches{/branch}",
    "clone_url": "https://github.com/espeed/bulbs.git",
    "collaborators_url": "https://api.github.com/repos/espeed/bulbs/collaborators{/collaborator}",
    "comments_url": "https://api.github.com/repos/espeed/bulbs/comments{/number}",
    "commits_url": "https://api.github.com/repos/espeed/bulbs/commits{/sha}",
    "compare_url": "https://api.github.com/repos/espeed/bulbs/compare/{base}...{head}",
    "contents_url": "https://api.github.com/repos/espeed/bulbs/contents/{+path}",
    "contributors_url": "https://api.github.com/repos/espeed/bulbs/contributors",
    "created_at": "2011-07-15T15:04:08Z",
    "default_branch": "master",
    "description": "A Python persistence framework for graph databases like Neo4j, OrientDB and Titan.",
    "downloads_url": "https://api.github.com/repos/espeed/bulbs/downloads",
    "events_url": "https://api.github.com/repos/espeed/bulbs/events",
    "fork": false,
    "forks": 75,
    "forks_count": 75,
    "forks_url": "https://api.github.com/repos/espeed/bulbs/forks",
    "full_name": "espeed/bulbs",
    "git_commits_url": "https://api.github.com/repos/espeed/bulbs/git/commits{/sha}",
    "git_refs_url": "https://api.github.com/repos/espeed/bulbs/git/refs{/sha}",
    "git_tags_url": "https://api.github.com/repos/espeed/bulbs/git/tags{/sha}",
    "git_url": "git://github.com/espeed/bulbs.git",
    "has_downloads": true,
    "has_issues": true,
    "has_wiki": false,
    "homepage": "http://bulbflow.com",
    "hooks_url": "https://api.github.com/repos/espeed/bulbs/hooks",
    "html_url": "https://github.com/espeed/bulbs",
    "id": 2053705,
    "issue_comment_url": "https://api.github.com/repos/espeed/bulbs/issues/comments/{number}",
    "issue_events_url": "https://api.github.com/repos/espeed/bulbs/issues/events{/number}",
    "issues_url": "https://api.github.com/repos/espeed/bulbs/issues{/number}",
    "keys_url": "https://api.github.com/repos/espeed/bulbs/keys{/key_id}",
    "labels_url": "https://api.github.com/repos/espeed/bulbs/labels{/name}",
    "language": "Python",
    "languages_url": "https://api.github.com/repos/espeed/bulbs/languages",
    "merges_url": "https://api.github.com/repos/espeed/bulbs/merges",
    "milestones_url": "https://api.github.com/repos/espeed/bulbs/milestones{/number}",
    "mirror_url": null,
    "name": "bulbs",
    "notifications_url": "https://api.github.com/repos/espeed/bulbs/notifications{?since,all,participating}",
    "open_issues": 25,
    "open_issues_count": 25,
    "owner": {
        "avatar_url": "https://avatars.githubusercontent.com/u/804467?",
        "events_url": "https://api.github.com/users/espeed/events{/privacy}",
        "followers_url": "https://api.github.com/users/espeed/followers",
        "following_url": "https://api.github.com/users/espeed/following{/other_user}",
        "gists_url": "https://api.github.com/users/espeed/gists{/gist_id}",
        "gravatar_id": "21c5aeda0e3c59037354ab55992e80c5",
        "html_url": "https://github.com/espeed",
        "id": 804467,
        "login": "espeed",
        "organizations_url": "https://api.github.com/users/espeed/orgs",
        "received_events_url": "https://api.github.com/users/espeed/received_events",
        "repos_url": "https://api.github.com/users/espeed/repos",
        "site_admin": false,
        "starred_url": "https://api.github.com/users/espeed/starred{/owner}{/repo}",
        "subscriptions_url": "https://api.github.com/users/espeed/subscriptions",
        "type": "User",
        "url": "https://api.github.com/users/espeed"
    },
    "private": false,
    "pulls_url": "https://api.github.com/repos/espeed/bulbs/pulls{/number}",
    "pushed_at": "2014-04-29T00:54:56Z",
    "releases_url": "https://api.github.com/repos/espeed/bulbs/releases{/id}",
    "score": 1.0,
    "size": 1311,
    "ssh_url": "git@github.com:espeed/bulbs.git",
    "stargazers_count": 383,
    "stargazers_url": "https://api.github.com/repos/espeed/bulbs/stargazers",
    "statuses_url": "https://api.github.com/repos/espeed/bulbs/statuses/{sha}",
    "subscribers_url": "https://api.github.com/repos/espeed/bulbs/subscribers",
    "subscription_url": "https://api.github.com/repos/espeed/bulbs/subscription",
    "svn_url": "https://github.com/espeed/bulbs",
    "tags_url": "https://api.github.com/repos/espeed/bulbs/tags",
    "teams_url": "https://api.github.com/repos/espeed/bulbs/teams",
    "trees_url": "https://api.github.com/repos/espeed/bulbs/git/trees{/sha}",
    "updated_at": "2014-05-05T19:41:17Z",
    "url": "https://api.github.com/repos/espeed/bulbs",
    "watchers": 383,
    "watchers_count": 383
}