{
    "libs": [
        "parse",
        "unicode_literals",
        "request",
        "urllib2",
        "urllib",
        "sys",
        "re",
        "json",
        "urlparse",
        "path",
        "os"
    ]
}