{
    "libs": [
        "cStringIO",
        "pkgutil",
        "functools",
        "random",
        "subprocess",
        "datetime",
        "io",
        "shutil",
        "cv",
        "ioloop",
        "web",
        "httpserver",
        "PIL",
        "uuid",
        "tempfile",
        "face_detector",
        "redis",
        "urllib",
        "re",
        "json",
        "Cipher",
        "collections",
        "gridfs",
        "pyvows",
        "pylibmc",
        "pymongo",
        "unittest",
        "math",
        "httpclient",
        "mimetypes",
        "testing",
        "optparse",
        "drop_shadow",
        "glob",
        "sys",
        "jinja2",
        "path",
        "copy",
        "gl",
        "b",
        "logging",
        "socket",
        "h",
        "pkg_resources",
        "hmac",
        "urlparse",
        "itertools",
        "mock",
        "time",
        "colorama",
        "raven",
        "os",
        "options"
    ]
}