{
    "archive_url": "https://api.github.com/repos/2general/django-split-settings/{archive_format}{/ref}",
    "assignees_url": "https://api.github.com/repos/2general/django-split-settings/assignees{/user}",
    "blobs_url": "https://api.github.com/repos/2general/django-split-settings/git/blobs{/sha}",
    "branches_url": "https://api.github.com/repos/2general/django-split-settings/branches{/branch}",
    "clone_url": "https://github.com/2general/django-split-settings.git",
    "collaborators_url": "https://api.github.com/repos/2general/django-split-settings/collaborators{/collaborator}",
    "comments_url": "https://api.github.com/repos/2general/django-split-settings/comments{/number}",
    "commits_url": "https://api.github.com/repos/2general/django-split-settings/commits{/sha}",
    "compare_url": "https://api.github.com/repos/2general/django-split-settings/compare/{base}...{head}",
    "contents_url": "https://api.github.com/repos/2general/django-split-settings/contents/{+path}",
    "contributors_url": "https://api.github.com/repos/2general/django-split-settings/contributors",
    "created_at": "2013-05-17T06:04:30Z",
    "default_branch": "master",
    "description": "Organize Django settings into multiple files and directories. Easily override and modify settings. Use wildcards and optional settings files.",
    "downloads_url": "https://api.github.com/repos/2general/django-split-settings/downloads",
    "events_url": "https://api.github.com/repos/2general/django-split-settings/events",
    "fork": false,
    "forks": 5,
    "forks_count": 5,
    "forks_url": "https://api.github.com/repos/2general/django-split-settings/forks",
    "full_name": "2general/django-split-settings",
    "git_commits_url": "https://api.github.com/repos/2general/django-split-settings/git/commits{/sha}",
    "git_refs_url": "https://api.github.com/repos/2general/django-split-settings/git/refs{/sha}",
    "git_tags_url": "https://api.github.com/repos/2general/django-split-settings/git/tags{/sha}",
    "git_url": "git://github.com/2general/django-split-settings.git",
    "has_downloads": true,
    "has_issues": true,
    "has_wiki": true,
    "homepage": null,
    "hooks_url": "https://api.github.com/repos/2general/django-split-settings/hooks",
    "html_url": "https://github.com/2general/django-split-settings",
    "id": 10117110,
    "issue_comment_url": "https://api.github.com/repos/2general/django-split-settings/issues/comments/{number}",
    "issue_events_url": "https://api.github.com/repos/2general/django-split-settings/issues/events{/number}",
    "issues_url": "https://api.github.com/repos/2general/django-split-settings/issues{/number}",
    "keys_url": "https://api.github.com/repos/2general/django-split-settings/keys{/key_id}",
    "labels_url": "https://api.github.com/repos/2general/django-split-settings/labels{/name}",
    "language": "Python",
    "languages_url": "https://api.github.com/repos/2general/django-split-settings/languages",
    "merges_url": "https://api.github.com/repos/2general/django-split-settings/merges",
    "milestones_url": "https://api.github.com/repos/2general/django-split-settings/milestones{/number}",
    "mirror_url": null,
    "name": "django-split-settings",
    "notifications_url": "https://api.github.com/repos/2general/django-split-settings/notifications{?since,all,participating}",
    "open_issues": 1,
    "open_issues_count": 1,
    "owner": {
        "avatar_url": "https://avatars.githubusercontent.com/u/1608030?",
        "events_url": "https://api.github.com/users/2general/events{/privacy}",
        "followers_url": "https://api.github.com/users/2general/followers",
        "following_url": "https://api.github.com/users/2general/following{/other_user}",
        "gists_url": "https://api.github.com/users/2general/gists{/gist_id}",
        "gravatar_id": "f0dbe8fad15a0354cb60f21d38290f79",
        "html_url": "https://github.com/2general",
        "id": 1608030,
        "login": "2general",
        "organizations_url": "https://api.github.com/users/2general/orgs",
        "received_events_url": "https://api.github.com/users/2general/received_events",
        "repos_url": "https://api.github.com/users/2general/repos",
        "site_admin": false,
        "starred_url": "https://api.github.com/users/2general/starred{/owner}{/repo}",
        "subscriptions_url": "https://api.github.com/users/2general/subscriptions",
        "type": "Organization",
        "url": "https://api.github.com/users/2general"
    },
    "private": false,
    "pulls_url": "https://api.github.com/repos/2general/django-split-settings/pulls{/number}",
    "pushed_at": "2013-10-22T07:54:46Z",
    "releases_url": "https://api.github.com/repos/2general/django-split-settings/releases{/id}",
    "score": 1.0,
    "size": 141,
    "ssh_url": "git@github.com:2general/django-split-settings.git",
    "stargazers_count": 44,
    "stargazers_url": "https://api.github.com/repos/2general/django-split-settings/stargazers",
    "statuses_url": "https://api.github.com/repos/2general/django-split-settings/statuses/{sha}",
    "subscribers_url": "https://api.github.com/repos/2general/django-split-settings/subscribers",
    "subscription_url": "https://api.github.com/repos/2general/django-split-settings/subscription",
    "svn_url": "https://github.com/2general/django-split-settings",
    "tags_url": "https://api.github.com/repos/2general/django-split-settings/tags",
    "teams_url": "https://api.github.com/repos/2general/django-split-settings/teams",
    "trees_url": "https://api.github.com/repos/2general/django-split-settings/git/trees{/sha}",
    "updated_at": "2014-01-17T04:00:40Z",
    "url": "https://api.github.com/repos/2general/django-split-settings",
    "watchers": 44,
    "watchers_count": 44
}