{
    "archive_url": "https://api.github.com/repos/hit9/img2txt/{archive_format}{/ref}",
    "assignees_url": "https://api.github.com/repos/hit9/img2txt/assignees{/user}",
    "blobs_url": "https://api.github.com/repos/hit9/img2txt/git/blobs{/sha}",
    "branches_url": "https://api.github.com/repos/hit9/img2txt/branches{/branch}",
    "clone_url": "https://github.com/hit9/img2txt.git",
    "collaborators_url": "https://api.github.com/repos/hit9/img2txt/collaborators{/collaborator}",
    "comments_url": "https://api.github.com/repos/hit9/img2txt/comments{/number}",
    "commits_url": "https://api.github.com/repos/hit9/img2txt/commits{/sha}",
    "compare_url": "https://api.github.com/repos/hit9/img2txt/compare/{base}...{head}",
    "contents_url": "https://api.github.com/repos/hit9/img2txt/contents/{+path}",
    "contributors_url": "https://api.github.com/repos/hit9/img2txt/contributors",
    "created_at": "2013-01-26T14:00:59Z",
    "default_branch": "master",
    "description": "Image to Ascii Text with color support. Dead simple, something useless. written in Python",
    "downloads_url": "https://api.github.com/repos/hit9/img2txt/downloads",
    "events_url": "https://api.github.com/repos/hit9/img2txt/events",
    "fork": false,
    "forks": 11,
    "forks_count": 11,
    "forks_url": "https://api.github.com/repos/hit9/img2txt/forks",
    "full_name": "hit9/img2txt",
    "git_commits_url": "https://api.github.com/repos/hit9/img2txt/git/commits{/sha}",
    "git_refs_url": "https://api.github.com/repos/hit9/img2txt/git/refs{/sha}",
    "git_tags_url": "https://api.github.com/repos/hit9/img2txt/git/tags{/sha}",
    "git_url": "git://github.com/hit9/img2txt.git",
    "has_downloads": true,
    "has_issues": true,
    "has_wiki": false,
    "homepage": "http://hit9.org/img2txt/",
    "hooks_url": "https://api.github.com/repos/hit9/img2txt/hooks",
    "html_url": "https://github.com/hit9/img2txt",
    "id": 7838461,
    "issue_comment_url": "https://api.github.com/repos/hit9/img2txt/issues/comments/{number}",
    "issue_events_url": "https://api.github.com/repos/hit9/img2txt/issues/events{/number}",
    "issues_url": "https://api.github.com/repos/hit9/img2txt/issues{/number}",
    "keys_url": "https://api.github.com/repos/hit9/img2txt/keys{/key_id}",
    "labels_url": "https://api.github.com/repos/hit9/img2txt/labels{/name}",
    "language": "Python",
    "languages_url": "https://api.github.com/repos/hit9/img2txt/languages",
    "merges_url": "https://api.github.com/repos/hit9/img2txt/merges",
    "milestones_url": "https://api.github.com/repos/hit9/img2txt/milestones{/number}",
    "mirror_url": null,
    "name": "img2txt",
    "notifications_url": "https://api.github.com/repos/hit9/img2txt/notifications{?since,all,participating}",
    "open_issues": 1,
    "open_issues_count": 1,
    "owner": {
        "avatar_url": "https://avatars.githubusercontent.com/u/1687443?",
        "events_url": "https://api.github.com/users/hit9/events{/privacy}",
        "followers_url": "https://api.github.com/users/hit9/followers",
        "following_url": "https://api.github.com/users/hit9/following{/other_user}",
        "gists_url": "https://api.github.com/users/hit9/gists{/gist_id}",
        "gravatar_id": "20dd05347249e3984f2d4546ea0ca127",
        "html_url": "https://github.com/hit9",
        "id": 1687443,
        "login": "hit9",
        "organizations_url": "https://api.github.com/users/hit9/orgs",
        "received_events_url": "https://api.github.com/users/hit9/received_events",
        "repos_url": "https://api.github.com/users/hit9/repos",
        "site_admin": false,
        "starred_url": "https://api.github.com/users/hit9/starred{/owner}{/repo}",
        "subscriptions_url": "https://api.github.com/users/hit9/subscriptions",
        "type": "User",
        "url": "https://api.github.com/users/hit9"
    },
    "private": false,
    "pulls_url": "https://api.github.com/repos/hit9/img2txt/pulls{/number}",
    "pushed_at": "2014-01-10T14:41:07Z",
    "releases_url": "https://api.github.com/repos/hit9/img2txt/releases{/id}",
    "score": 1.0,
    "size": 3522,
    "ssh_url": "git@github.com:hit9/img2txt.git",
    "stargazers_count": 71,
    "stargazers_url": "https://api.github.com/repos/hit9/img2txt/stargazers",
    "statuses_url": "https://api.github.com/repos/hit9/img2txt/statuses/{sha}",
    "subscribers_url": "https://api.github.com/repos/hit9/img2txt/subscribers",
    "subscription_url": "https://api.github.com/repos/hit9/img2txt/subscription",
    "svn_url": "https://github.com/hit9/img2txt",
    "tags_url": "https://api.github.com/repos/hit9/img2txt/tags",
    "teams_url": "https://api.github.com/repos/hit9/img2txt/teams",
    "trees_url": "https://api.github.com/repos/hit9/img2txt/git/trees{/sha}",
    "updated_at": "2014-05-02T06:19:39Z",
    "url": "https://api.github.com/repos/hit9/img2txt",
    "watchers": 71,
    "watchers_count": 71
}