{
    "archive_url": "https://api.github.com/repos/lzyy/chat/{archive_format}{/ref}",
    "assignees_url": "https://api.github.com/repos/lzyy/chat/assignees{/user}",
    "blobs_url": "https://api.github.com/repos/lzyy/chat/git/blobs{/sha}",
    "branches_url": "https://api.github.com/repos/lzyy/chat/branches{/branch}",
    "clone_url": "https://github.com/lzyy/chat.git",
    "collaborators_url": "https://api.github.com/repos/lzyy/chat/collaborators{/collaborator}",
    "comments_url": "https://api.github.com/repos/lzyy/chat/comments{/number}",
    "commits_url": "https://api.github.com/repos/lzyy/chat/commits{/sha}",
    "compare_url": "https://api.github.com/repos/lzyy/chat/compare/{base}...{head}",
    "contents_url": "https://api.github.com/repos/lzyy/chat/contents/{+path}",
    "contributors_url": "https://api.github.com/repos/lzyy/chat/contributors",
    "created_at": "2011-10-26T14:39:54Z",
    "default_branch": "master",
    "description": "a live chat built with python(flask + gevent + apscheduler) + redis",
    "downloads_url": "https://api.github.com/repos/lzyy/chat/downloads",
    "events_url": "https://api.github.com/repos/lzyy/chat/events",
    "fork": false,
    "forks": 33,
    "forks_count": 33,
    "forks_url": "https://api.github.com/repos/lzyy/chat/forks",
    "full_name": "lzyy/chat",
    "git_commits_url": "https://api.github.com/repos/lzyy/chat/git/commits{/sha}",
    "git_refs_url": "https://api.github.com/repos/lzyy/chat/git/refs{/sha}",
    "git_tags_url": "https://api.github.com/repos/lzyy/chat/git/tags{/sha}",
    "git_url": "git://github.com/lzyy/chat.git",
    "has_downloads": true,
    "has_issues": true,
    "has_wiki": true,
    "homepage": "http://blog.leezhong.com/tech/2011/10/26/python-comet.html",
    "hooks_url": "https://api.github.com/repos/lzyy/chat/hooks",
    "html_url": "https://github.com/lzyy/chat",
    "id": 2651457,
    "issue_comment_url": "https://api.github.com/repos/lzyy/chat/issues/comments/{number}",
    "issue_events_url": "https://api.github.com/repos/lzyy/chat/issues/events{/number}",
    "issues_url": "https://api.github.com/repos/lzyy/chat/issues{/number}",
    "keys_url": "https://api.github.com/repos/lzyy/chat/keys{/key_id}",
    "labels_url": "https://api.github.com/repos/lzyy/chat/labels{/name}",
    "language": "Python",
    "languages_url": "https://api.github.com/repos/lzyy/chat/languages",
    "merges_url": "https://api.github.com/repos/lzyy/chat/merges",
    "milestones_url": "https://api.github.com/repos/lzyy/chat/milestones{/number}",
    "mirror_url": null,
    "name": "chat",
    "notifications_url": "https://api.github.com/repos/lzyy/chat/notifications{?since,all,participating}",
    "open_issues": 0,
    "open_issues_count": 0,
    "owner": {
        "avatar_url": "https://avatars.githubusercontent.com/u/35974?",
        "events_url": "https://api.github.com/users/lzyy/events{/privacy}",
        "followers_url": "https://api.github.com/users/lzyy/followers",
        "following_url": "https://api.github.com/users/lzyy/following{/other_user}",
        "gists_url": "https://api.github.com/users/lzyy/gists{/gist_id}",
        "gravatar_id": "44afb80f6ac2f7c81e59852d0306aec1",
        "html_url": "https://github.com/lzyy",
        "id": 35974,
        "login": "lzyy",
        "organizations_url": "https://api.github.com/users/lzyy/orgs",
        "received_events_url": "https://api.github.com/users/lzyy/received_events",
        "repos_url": "https://api.github.com/users/lzyy/repos",
        "site_admin": false,
        "starred_url": "https://api.github.com/users/lzyy/starred{/owner}{/repo}",
        "subscriptions_url": "https://api.github.com/users/lzyy/subscriptions",
        "type": "User",
        "url": "https://api.github.com/users/lzyy"
    },
    "private": false,
    "pulls_url": "https://api.github.com/repos/lzyy/chat/pulls{/number}",
    "pushed_at": "2011-10-31T10:35:24Z",
    "releases_url": "https://api.github.com/repos/lzyy/chat/releases{/id}",
    "score": 1.0,
    "size": 176,
    "ssh_url": "git@github.com:lzyy/chat.git",
    "stargazers_count": 127,
    "stargazers_url": "https://api.github.com/repos/lzyy/chat/stargazers",
    "statuses_url": "https://api.github.com/repos/lzyy/chat/statuses/{sha}",
    "subscribers_url": "https://api.github.com/repos/lzyy/chat/subscribers",
    "subscription_url": "https://api.github.com/repos/lzyy/chat/subscription",
    "svn_url": "https://github.com/lzyy/chat",
    "tags_url": "https://api.github.com/repos/lzyy/chat/tags",
    "teams_url": "https://api.github.com/repos/lzyy/chat/teams",
    "trees_url": "https://api.github.com/repos/lzyy/chat/git/trees{/sha}",
    "updated_at": "2014-04-30T13:04:19Z",
    "url": "https://api.github.com/repos/lzyy/chat",
    "watchers": 127,
    "watchers_count": 127
}