{
    "archive_url": "https://api.github.com/repos/saymedia/python-simpledb/{archive_format}{/ref}",
    "assignees_url": "https://api.github.com/repos/saymedia/python-simpledb/assignees{/user}",
    "blobs_url": "https://api.github.com/repos/saymedia/python-simpledb/git/blobs{/sha}",
    "branches_url": "https://api.github.com/repos/saymedia/python-simpledb/branches{/branch}",
    "clone_url": "https://github.com/saymedia/python-simpledb.git",
    "collaborators_url": "https://api.github.com/repos/saymedia/python-simpledb/collaborators{/collaborator}",
    "comments_url": "https://api.github.com/repos/saymedia/python-simpledb/comments{/number}",
    "commits_url": "https://api.github.com/repos/saymedia/python-simpledb/commits{/sha}",
    "compare_url": "https://api.github.com/repos/saymedia/python-simpledb/compare/{base}...{head}",
    "contents_url": "https://api.github.com/repos/saymedia/python-simpledb/contents/{+path}",
    "contributors_url": "https://api.github.com/repos/saymedia/python-simpledb/contributors",
    "created_at": "2009-06-05T21:34:29Z",
    "default_branch": "master",
    "description": "Open Source Python library for accessing Amazon SimpleDB API",
    "downloads_url": "https://api.github.com/repos/saymedia/python-simpledb/downloads",
    "events_url": "https://api.github.com/repos/saymedia/python-simpledb/events",
    "fork": false,
    "forks": 17,
    "forks_count": 17,
    "forks_url": "https://api.github.com/repos/saymedia/python-simpledb/forks",
    "full_name": "saymedia/python-simpledb",
    "git_commits_url": "https://api.github.com/repos/saymedia/python-simpledb/git/commits{/sha}",
    "git_refs_url": "https://api.github.com/repos/saymedia/python-simpledb/git/refs{/sha}",
    "git_tags_url": "https://api.github.com/repos/saymedia/python-simpledb/git/tags{/sha}",
    "git_url": "git://github.com/saymedia/python-simpledb.git",
    "has_downloads": true,
    "has_issues": true,
    "has_wiki": true,
    "homepage": "http://sixapart.com",
    "hooks_url": "https://api.github.com/repos/saymedia/python-simpledb/hooks",
    "html_url": "https://github.com/saymedia/python-simpledb",
    "id": 219814,
    "issue_comment_url": "https://api.github.com/repos/saymedia/python-simpledb/issues/comments/{number}",
    "issue_events_url": "https://api.github.com/repos/saymedia/python-simpledb/issues/events{/number}",
    "issues_url": "https://api.github.com/repos/saymedia/python-simpledb/issues{/number}",
    "keys_url": "https://api.github.com/repos/saymedia/python-simpledb/keys{/key_id}",
    "labels_url": "https://api.github.com/repos/saymedia/python-simpledb/labels{/name}",
    "language": "Python",
    "languages_url": "https://api.github.com/repos/saymedia/python-simpledb/languages",
    "merges_url": "https://api.github.com/repos/saymedia/python-simpledb/merges",
    "milestones_url": "https://api.github.com/repos/saymedia/python-simpledb/milestones{/number}",
    "mirror_url": null,
    "name": "python-simpledb",
    "notifications_url": "https://api.github.com/repos/saymedia/python-simpledb/notifications{?since,all,participating}",
    "open_issues": 3,
    "open_issues_count": 3,
    "owner": {
        "avatar_url": "https://avatars.githubusercontent.com/u/53830?",
        "events_url": "https://api.github.com/users/saymedia/events{/privacy}",
        "followers_url": "https://api.github.com/users/saymedia/followers",
        "following_url": "https://api.github.com/users/saymedia/following{/other_user}",
        "gists_url": "https://api.github.com/users/saymedia/gists{/gist_id}",
        "gravatar_id": "780512636c6ca6aef904c47fa97f92b3",
        "html_url": "https://github.com/saymedia",
        "id": 53830,
        "login": "saymedia",
        "organizations_url": "https://api.github.com/users/saymedia/orgs",
        "received_events_url": "https://api.github.com/users/saymedia/received_events",
        "repos_url": "https://api.github.com/users/saymedia/repos",
        "site_admin": false,
        "starred_url": "https://api.github.com/users/saymedia/starred{/owner}{/repo}",
        "subscriptions_url": "https://api.github.com/users/saymedia/subscriptions",
        "type": "Organization",
        "url": "https://api.github.com/users/saymedia"
    },
    "private": false,
    "pulls_url": "https://api.github.com/repos/saymedia/python-simpledb/pulls{/number}",
    "pushed_at": "2009-12-10T22:04:02Z",
    "releases_url": "https://api.github.com/repos/saymedia/python-simpledb/releases{/id}",
    "score": 1.0,
    "size": 153,
    "ssh_url": "git@github.com:saymedia/python-simpledb.git",
    "stargazers_count": 72,
    "stargazers_url": "https://api.github.com/repos/saymedia/python-simpledb/stargazers",
    "statuses_url": "https://api.github.com/repos/saymedia/python-simpledb/statuses/{sha}",
    "subscribers_url": "https://api.github.com/repos/saymedia/python-simpledb/subscribers",
    "subscription_url": "https://api.github.com/repos/saymedia/python-simpledb/subscription",
    "svn_url": "https://github.com/saymedia/python-simpledb",
    "tags_url": "https://api.github.com/repos/saymedia/python-simpledb/tags",
    "teams_url": "https://api.github.com/repos/saymedia/python-simpledb/teams",
    "trees_url": "https://api.github.com/repos/saymedia/python-simpledb/git/trees{/sha}",
    "updated_at": "2013-12-11T23:56:01Z",
    "url": "https://api.github.com/repos/saymedia/python-simpledb",
    "watchers": 72,
    "watchers_count": 72
}