{
    "archive_url": "https://api.github.com/repos/theospears/django-speedbar/{archive_format}{/ref}",
    "assignees_url": "https://api.github.com/repos/theospears/django-speedbar/assignees{/user}",
    "blobs_url": "https://api.github.com/repos/theospears/django-speedbar/git/blobs{/sha}",
    "branches_url": "https://api.github.com/repos/theospears/django-speedbar/branches{/branch}",
    "clone_url": "https://github.com/theospears/django-speedbar.git",
    "collaborators_url": "https://api.github.com/repos/theospears/django-speedbar/collaborators{/collaborator}",
    "comments_url": "https://api.github.com/repos/theospears/django-speedbar/comments{/number}",
    "commits_url": "https://api.github.com/repos/theospears/django-speedbar/commits{/sha}",
    "compare_url": "https://api.github.com/repos/theospears/django-speedbar/compare/{base}...{head}",
    "contents_url": "https://api.github.com/repos/theospears/django-speedbar/contents/{+path}",
    "contributors_url": "https://api.github.com/repos/theospears/django-speedbar/contributors",
    "created_at": "2013-10-06T15:42:31Z",
    "default_branch": "master",
    "description": "Instrumentation for django page loads",
    "downloads_url": "https://api.github.com/repos/theospears/django-speedbar/downloads",
    "events_url": "https://api.github.com/repos/theospears/django-speedbar/events",
    "fork": false,
    "forks": 9,
    "forks_count": 9,
    "forks_url": "https://api.github.com/repos/theospears/django-speedbar/forks",
    "full_name": "theospears/django-speedbar",
    "git_commits_url": "https://api.github.com/repos/theospears/django-speedbar/git/commits{/sha}",
    "git_refs_url": "https://api.github.com/repos/theospears/django-speedbar/git/refs{/sha}",
    "git_tags_url": "https://api.github.com/repos/theospears/django-speedbar/git/tags{/sha}",
    "git_url": "git://github.com/theospears/django-speedbar.git",
    "has_downloads": true,
    "has_issues": true,
    "has_wiki": true,
    "homepage": null,
    "hooks_url": "https://api.github.com/repos/theospears/django-speedbar/hooks",
    "html_url": "https://github.com/theospears/django-speedbar",
    "id": 13364381,
    "issue_comment_url": "https://api.github.com/repos/theospears/django-speedbar/issues/comments/{number}",
    "issue_events_url": "https://api.github.com/repos/theospears/django-speedbar/issues/events{/number}",
    "issues_url": "https://api.github.com/repos/theospears/django-speedbar/issues{/number}",
    "keys_url": "https://api.github.com/repos/theospears/django-speedbar/keys{/key_id}",
    "labels_url": "https://api.github.com/repos/theospears/django-speedbar/labels{/name}",
    "language": "Python",
    "languages_url": "https://api.github.com/repos/theospears/django-speedbar/languages",
    "merges_url": "https://api.github.com/repos/theospears/django-speedbar/merges",
    "milestones_url": "https://api.github.com/repos/theospears/django-speedbar/milestones{/number}",
    "mirror_url": null,
    "name": "django-speedbar",
    "notifications_url": "https://api.github.com/repos/theospears/django-speedbar/notifications{?since,all,participating}",
    "open_issues": 0,
    "open_issues_count": 0,
    "owner": {
        "avatar_url": "https://avatars.githubusercontent.com/u/116179?",
        "events_url": "https://api.github.com/users/theospears/events{/privacy}",
        "followers_url": "https://api.github.com/users/theospears/followers",
        "following_url": "https://api.github.com/users/theospears/following{/other_user}",
        "gists_url": "https://api.github.com/users/theospears/gists{/gist_id}",
        "gravatar_id": "40a4eba5584875a9950548f0c01e5e50",
        "html_url": "https://github.com/theospears",
        "id": 116179,
        "login": "theospears",
        "organizations_url": "https://api.github.com/users/theospears/orgs",
        "received_events_url": "https://api.github.com/users/theospears/received_events",
        "repos_url": "https://api.github.com/users/theospears/repos",
        "site_admin": false,
        "starred_url": "https://api.github.com/users/theospears/starred{/owner}{/repo}",
        "subscriptions_url": "https://api.github.com/users/theospears/subscriptions",
        "type": "User",
        "url": "https://api.github.com/users/theospears"
    },
    "private": false,
    "pulls_url": "https://api.github.com/repos/theospears/django-speedbar/pulls{/number}",
    "pushed_at": "2014-04-25T10:47:11Z",
    "releases_url": "https://api.github.com/repos/theospears/django-speedbar/releases{/id}",
    "score": 1.0,
    "size": 704,
    "ssh_url": "git@github.com:theospears/django-speedbar.git",
    "stargazers_count": 233,
    "stargazers_url": "https://api.github.com/repos/theospears/django-speedbar/stargazers",
    "statuses_url": "https://api.github.com/repos/theospears/django-speedbar/statuses/{sha}",
    "subscribers_url": "https://api.github.com/repos/theospears/django-speedbar/subscribers",
    "subscription_url": "https://api.github.com/repos/theospears/django-speedbar/subscription",
    "svn_url": "https://github.com/theospears/django-speedbar",
    "tags_url": "https://api.github.com/repos/theospears/django-speedbar/tags",
    "teams_url": "https://api.github.com/repos/theospears/django-speedbar/teams",
    "trees_url": "https://api.github.com/repos/theospears/django-speedbar/git/trees{/sha}",
    "updated_at": "2014-05-02T14:20:53Z",
    "url": "https://api.github.com/repos/theospears/django-speedbar",
    "watchers": 233,
    "watchers_count": 233
}