[
    "tests.test_descriptors",
    "nitime.tests.test_descriptors",
    "analysis.base",
    "test_timeseries",
    "doc.examples.granger_fmri",
    "analysis.tests.test_correlation",
    "multi_taper_spectral_estimation",
    "plot_directive",
    "analysis.event_related",
    "math_dollar",
    "tests.test_algorithms",
    "analysis.normalization",
    "nitime.lazy",
    "analysis.granger",
    "examples.resting_state_fmri",
    "fmri.hrf",
    "analysis.tests.test_granger",
    "sphinxext.plot_directive",
    "doc.examples.multi_taper_coh",
    "nitime.tests.test_utils",
    "examples.seed_analysis",
    "filtering_fmri",
    "analysis.tests",
    "doc.sphinxext.docscrape_sphinx",
    "doc.examples.resting_state_fmri",
    "tests",
    "doc.sphinxext.plot_directive",
    "fmri.tests.test_io",
    "algorithms.tests",
    "algorithms.wavelet",
    "nitime.analysis.tests.test_snr",
    "nitime.analysis.base",
    "build_modref_templates",
    "multi_taper_coh",
    "tools.gitwash_dumper",
    "algorithms.spectral",
    "tests.test_timeseries",
    "nitime.viz",
    "nitime.fmri.hrf",
    "nitime.tests.test_lazy",
    "event_related_fmri",
    "test_utils",
    "nitime.analysis.tests",
    "sphinxext",
    "nitime.algorithms.autoregressive",
    "examples.event_related_fmri",
    "doc.sphinxext.github",
    "doc.sphinxext.only_directives",
    "nitime.fmri.tests",
    "test_autoregressive",
    "algorithms.tests.test_autoregressive",
    "examples.mtm_baseband_power",
    "nitime.analysis.tests.test_correlation",
    "sphinxext.ipython_console_highlighting",
    "examples.mtm_harmonic_test",
    "grasshopper",
    "nitime.testlib",
    "nitime._mpl_units",
    "examples",
    "test_viz",
    "nitime.fmri",
    "tools.make_examples",
    "test_algorithms",
    "tests.test_io",
    "doc.examples.ar_est_2vars",
    "spectral",
    "tools.apigen",
    "nitime.analysis.tests.test_base",
    "ar_est_2vars",
    "test_lazy",
    "tools",
    "testlib",
    "algorithms.autoregressive",
    "test_coherence",
    "make_examples",
    "version",
    "wavelet",
    "nitime.tests.test_timeseries",
    "nitime.analysis.tests.test_coherence",
    "doc.examples.ar_est_3vars",
    "nitime.fmri.tests.test_io",
    "nitime.tests.test_analysis",
    "fmri",
    "lazy",
    "sphinxext.only_directives",
    "analysis.correlation",
    "algorithms.tests.test_event_related",
    "nitime.analysis.event_related",
    "seed_analysis",
    "sphinxext.math_dollar",
    "nitime.analysis.correlation",
    "test_granger",
    "base",
    "examples.granger_fmri",
    "analysis.tests.test_coherence",
    "examples.filtering_fmri",
    "mtm_harmonic_test",
    "nitime.algorithms.tests.test_autoregressive",
    "tests.test_event_related",
    "sphinxext.numpydoc",
    "nitime.tests",
    "numpydoc",
    "ar_model_fit",
    "filter",
    "tools.toollib",
    "nitime.algorithms.spectral",
    "toollib",
    "nitime.algorithms.correlation",
    "examples.ar_est_2vars",
    "nitime.algorithms.filter",
    "doc",
    "doc.examples.ar_model_fit",
    "viz",
    "cohere",
    "tests.test_viz",
    "analysis.coherence",
    "examples.ar_est_3vars",
    "resting_state_fmri",
    "fmri.io",
    "nitime",
    "nitime.algorithms.wavelet",
    "doc.conf",
    "algorithms.filter",
    "nitime.lazyimports",
    "index_utils",
    "test_event_related",
    "test_analysis",
    "_mpl_units",
    "tests.test_granger",
    "nitime.index_utils",
    "lazyimports",
    "tests.test_spectral",
    "tests.test_autoregressive",
    "analysis.tests.test_snr",
    "algorithms.tests.test_spectral",
    "nitime.fmri.io",
    "tools.sneeze",
    "nitime.analysis.tests.test_granger",
    "examples.snr_example",
    "descriptors",
    "sphinxext.docscrape_sphinx",
    "coherence",
    "mtm_baseband_power",
    "test_io",
    "doc.examples.mtm_baseband_power",
    "test_snr",
    "doc.examples.grasshopper",
    "tests.test_coherence",
    "granger",
    "autoregressive",
    "algorithms.tests.test_correlation",
    "nitime.descriptors",
    "doc.examples",
    "hrf",
    "examples.grasshopper",
    "examples.ar_model_fit",
    "github_stats",
    "examples.ar_est_1var",
    "nitime.utils",
    "nitime.algorithms.tests.test_event_related",
    "docscrape_sphinx",
    "nitime.algorithms.tests.test_correlation",
    "tests.test_utils",
    "nitime.analysis",
    "nitime.analysis.coherence",
    "nitime.algorithms",
    "nitime.analysis.normalization",
    "test_correlation",
    "nitime.algorithms.tests.test_coherence",
    "conf",
    "granger_fmri",
    "utils",
    "doc.examples.ar_est_1var",
    "test_base",
    "examples.multi_taper_spectral_estimation",
    "tests.test_analysis",
    "gitwash_dumper",
    "io",
    "tools.build_modref_templates",
    "tools.github_stats",
    "examples.multi_taper_coh",
    "nitime.algorithms.tests",
    "algorithms.correlation",
    "tests.test_lazy",
    "test_spectral",
    "doc.examples.multi_taper_spectral_estimation",
    "nitime.tests.test_algorithms",
    "fmri.tests",
    "tests.test_base",
    "six",
    "nitime.algorithms.tests.test_spectral",
    "doc.sphinxext.ipython_console_highlighting",
    "event_related",
    "nitime.timeseries",
    "sphinxext.docscrape",
    "algorithms.cohere",
    "nitime.tests.test_viz",
    "tests.test_snr",
    "nitime.six",
    "test_descriptors",
    "doc.examples.event_related_fmri",
    "ipython_console_highlighting",
    "nitime.analysis.snr",
    "only_directives",
    "nitime.version",
    "doc.sphinxext.docscrape",
    "docscrape",
    "doc.sphinxext.numpydoc",
    "nitime.analysis.spectral",
    "algorithms.tests.test_coherence",
    "snr",
    "analysis.snr",
    "timeseries",
    "doc.sphinxext.math_dollar",
    "algorithms.event_related",
    "apigen",
    "sneeze",
    "normalization",
    "doc.examples.seed_analysis",
    "sphinxext.github",
    "github",
    "nitime.analysis.granger",
    "nitime.algorithms.event_related",
    "tests.test_correlation",
    "snr_example",
    "analysis.spectral",
    "analysis",
    "analysis.tests.test_base",
    "nitime.algorithms.cohere",
    "doc.examples.filtering_fmri",
    "algorithms",
    "correlation",
    "ar_est_1var",
    "ar_est_3vars",
    "doc.sphinxext",
    "doc.examples.snr_example",
    "doc.examples.mtm_harmonic_test"
]