[
    "jedi.evaluate",
    "jedi.api.helpers",
    "test.completion.descriptors",
    "evaluate.dynamic",
    "test.helpers",
    "import_tree.pkg.mod1",
    "random",
    "dynamic",
    "test_evaluate.not_in_sys_path.not_in_sys_path",
    "import_tree.mod1",
    "import_tree.mod2",
    "completion.decorators",
    "jedi.api.interpreter",
    "pkg",
    "evaluate.finder",
    "keywords",
    "test_fast_parser",
    "speed.precedence",
    "jedi.evaluate.compiled.fake",
    "test.completion.complex",
    "completion",
    "jedi.evaluate.imports",
    "test.refactor.inline",
    "api.helpers",
    "evaluate.compiled.fake",
    "test_full_name",
    "cache",
    "pkg.ns1_file",
    "test_namespace_package",
    "generators",
    "evaluate.precedence",
    "test_api.test_defined_names",
    "jedi.evaluate.sys_path",
    "evaluate.sys_path",
    "jedi.parser.user_context",
    "not_in_sys_path_package.module",
    "test_interpreter",
    "PyQt4_",
    "test.test_evaluate.test_pyc",
    "compiled",
    "test.test_speed",
    "named_param",
    "refactor.rename",
    "completion.import_tree.recurse_class2",
    "completion.import_tree.recurse_class1",
    "test_unicode",
    "user_context",
    "completion.ordering",
    "test_utils",
    "settings",
    "test.test_api.test_api",
    "jedi.evaluate.precedence",
    "parser.fast",
    "evaluate.param",
    "namespace_package.ns2.pkg.ns2_file",
    "common",
    "test.test_evaluate.namespace_package.ns1.pkg.ns1_file",
    "test.completion.definition",
    "namespace_package",
    "test_evaluate.not_in_sys_path.not_in_sys_path_package",
    "test_integration_keyword",
    "test.completion.isinstance",
    "module",
    "_compatibility",
    "test.test_api.test_api_classes",
    "test.completion.generators",
    "ns1.pkg.ns1_file",
    "not_in_sys_path.not_in_sys_path",
    "wx_check",
    "test.test_cache",
    "test.completion.invalid",
    "absolute_import.local_module",
    "isinstance",
    "test_evaluate.namespace_package.ns2",
    "evaluate.imports",
    "test_api.test_interpreter",
    "import_tree.recurse_class2",
    "thirdparty.jedi_",
    "test.test_evaluate.test_extension",
    "test_debug",
    "jedi",
    "test.completion.arrays",
    "test.completion.import_tree",
    "test_evaluate.namespace_package.ns1.pkg.ns1_file",
    "test_api_classes_follow_definition",
    "docs._themes.flask_theme_support",
    "test_evaluate.namespace_package.ns2.pkg.ns2_file",
    "test_compiled",
    "jedi.settings",
    "test.test_integration_keyword",
    "test.completion.import_tree.recurse_class2",
    "test.completion.import_tree.recurse_class1",
    "completion.thirdparty.psycopg2_",
    "completion.descriptors",
    "jedi.api",
    "jedi.parser.tokenize",
    "test_integration",
    "test.test_evaluate.not_in_sys_path.not_in_sys_path_package.module",
    "api.classes",
    "test.completion.keywords",
    "completion.arrays",
    "pkg.mod1",
    "conftest",
    "helpers",
    "psycopg2_",
    "docstrings",
    "test_evaluate.test_imports",
    "completion.thirdparty.django_",
    "api.interpreter",
    "jedi._compatibility",
    "test.completion.thirdparty.PyQt4_",
    "sith",
    "import_tree.random",
    "refactor.inline",
    "jedi.evaluate.representation",
    "unittest",
    "test.completion.decorators",
    "api",
    "flask_theme_support",
    "param",
    "test.completion.dynamic",
    "fake",
    "test.test_debug",
    "completion.std",
    "iterable",
    "test.completion.classes",
    "test.test_evaluate.absolute_import.unittest",
    "jedi.utils",
    "completion.keywords",
    "jedi.evaluate.cache",
    "basic",
    "test.completion.usages",
    "test.completion.goto",
    "jedi.api.classes",
    "test_evaluate",
    "jedi.evaluate.docstrings",
    "ns2.pkg.ns2_file",
    "test.test_evaluate",
    "test_evaluate.namespace_package",
    "descriptors",
    "test.test_parser",
    "completion.import_tree.rename1",
    "completion.import_tree.rename2",
    "jedi.__main__",
    "test.test_api.test_call_signatures",
    "jedi.evaluate.recursion",
    "lambdas",
    "completion.import_tree.pkg",
    "completion.usages",
    "test.test_evaluate.namespace_package.ns2.pkg",
    "test.test_evaluate.namespace_package.ns2.pkg.ns2_file",
    "test_jedi_system",
    "test_get_code",
    "absolute_import.unittest",
    "test_evaluate.namespace_package.ns2.pkg",
    "test_evaluate.namespace_package.ns1.pkg",
    "jedi.evaluate.compiled",
    "rename",
    "conf",
    "evaluate.representation",
    "utils",
    "completion.thirdparty",
    "test.test_parser.test_get_code",
    "test.completion.thirdparty.jedi_",
    "completion.isinstance",
    "evaluate.docstrings",
    "memory_check",
    "jedi.debug",
    "_themes",
    "django_",
    "ns1_file",
    "recursion",
    "test.test_evaluate.not_in_sys_path.not_in_sys_path",
    "test.speed.precedence",
    "complex",
    "completion.complex",
    "docs",
    "completion.invalid",
    "completion.goto",
    "test.completion.thirdparty.pylab_",
    "profile",
    "test.completion.thirdparty",
    "scripts.wx_check",
    "test.test_parser.test_token",
    "evaluate.cache",
    "completion.dynamic",
    "not_in_sys_path_package",
    "docstring",
    "test.test_evaluate.test_namespace_package",
    "test.completion.precedence",
    "test.completion.basic",
    "test.test_evaluate.namespace_package.ns1.pkg",
    "completion.generators",
    "types",
    "completion.precedence",
    "jedi.parser.representation",
    "test.conftest",
    "test.refactor",
    "completion.import_tree.mod1",
    "completion.imports",
    "completion.functions",
    "completion.basic",
    "pylab_",
    "test_parser",
    "pkg.ns2_file",
    "inline",
    "test_evaluate.absolute_import.local_module",
    "test.refactor.extract",
    "test.test_evaluate.not_in_sys_path.pkg.module",
    "evaluate.recursion",
    "precedence",
    "test_evaluate.absolute_import.unittest",
    "import_tree.rename1",
    "jedi.api.usages",
    "absolute_import",
    "import_tree.rename2",
    "jedi.cache",
    "test.completion.lambdas",
    "invalid",
    "test.test_evaluate.test_docstring",
    "interpreter",
    "jedi.parser.fast",
    "speed",
    "api.keywords",
    "mod1",
    "mod2",
    "rename1",
    "rename2",
    "test.completion.import_tree.random",
    "jedi.parser",
    "test_precedence",
    "test_parser.test_parser",
    "evaluate.iterable",
    "test.completion.functions",
    "_themes.flask_theme_support",
    "docs.conf",
    "test.test_regression",
    "test_evaluate.not_in_sys_path",
    "test.test_evaluate.absolute_import.local_module",
    "jedi.evaluate.iterable",
    "finder",
    "test.completion.imports",
    "test.test_evaluate.test_imports",
    "evaluate",
    "refactoring",
    "test_pyc",
    "test.completion.named_param",
    "test.test_evaluate.namespace_package",
    "scripts.profile",
    "test_parser.test_token",
    "test.run",
    "not_in_sys_path",
    "completion.sys_path",
    "namespace_package.ns1.pkg.ns1_file",
    "test.test_jedi_system",
    "jedi.evaluate.dynamic",
    "test.test_api.test_unicode",
    "debug",
    "completion.thirdparty.PyQt4_",
    "completion.lambdas",
    "jedi.evaluate.param",
    "pkg.module",
    "test_absolute_import",
    "ns2.pkg",
    "representation",
    "docs._themes",
    "jedi.evaluate.finder",
    "thirdparty.PyQt4_",
    "test.test_integration",
    "test_evaluate.absolute_import",
    "completion.classes",
    "parser.user_context",
    "extract",
    "test_docstring",
    "test_extension",
    "test.completion.std",
    "test.test_integration_import",
    "evaluate.compiled",
    "jedi.api.keywords",
    "compiled.fake",
    "test_api.test_unicode",
    "test.test_evaluate.namespace_package.ns2",
    "test.test_evaluate.namespace_package.ns1",
    "test.completion.ordering",
    "test.test_evaluate.not_in_sys_path.not_in_sys_path_package",
    "decorators",
    "not_in_sys_path.pkg.module",
    "test_parser.test_get_code",
    "run",
    "goto",
    "test.test_evaluate.test_precedence",
    "not_in_sys_path.not_in_sys_path_package",
    "import_tree",
    "test_token",
    "jedi.evaluate.helpers",
    "parser.tokenize",
    "test_evaluate.test_extension",
    "definition",
    "test_evaluate.test_pyc",
    "ns2_file",
    "test_evaluate.test_namespace_package",
    "test_api.test_api_classes_follow_definition",
    "test.completion.docstring",
    "test.speed",
    "test.test_evaluate.test_absolute_import",
    "not_in_sys_path.not_in_sys_path_package.module",
    "completion.import_tree.pkg.mod1",
    "api.replstartup",
    "test.refactor.rename",
    "recurse_class1",
    "recurse_class2",
    "completion.definition",
    "test_api.test_api",
    "test.test_evaluate.absolute_import",
    "test_integration_import",
    "test_regression",
    "fast",
    "stdlib",
    "test.test_api.test_full_name",
    "test.test_parser.test_parser",
    "thirdparty.psycopg2_",
    "test.test_evaluate.test_compiled",
    "test_evaluate.not_in_sys_path.pkg.module",
    "test.completion.thirdparty.psycopg2_",
    "ordering",
    "namespace_package.ns1",
    "namespace_package.ns2",
    "test.completion.thirdparty.django_",
    "evaluate.stdlib",
    "test.test_api.test_defined_names",
    "ns1.pkg",
    "replstartup",
    "test.completion.types",
    "test_api.test_api_classes",
    "completion.named_param",
    "test_evaluate.test_compiled",
    "completion.thirdparty.pylab_",
    "tokenize",
    "namespace_package.ns1.pkg",
    "test_speed",
    "local_module",
    "test.completion.import_tree.pkg",
    "refactor.extract",
    "test.completion.import_tree.mod2",
    "ns1",
    "ns2",
    "test.completion.import_tree.mod1",
    "thirdparty.django_",
    "std",
    "arrays",
    "test.test_parser.test_fast_parser",
    "namespace_package.ns2.pkg",
    "test_cache",
    "classes",
    "completion.import_tree.mod2",
    "test.completion",
    "usages",
    "test_call_signatures",
    "test.test_evaluate.not_in_sys_path.pkg",
    "imports",
    "parser",
    "test_evaluate.not_in_sys_path.pkg",
    "completion.thirdparty.jedi_",
    "parser.representation",
    "test_api",
    "test_evaluate.not_in_sys_path.not_in_sys_path_package.module",
    "__main__",
    "completion.import_tree",
    "completion.import_tree.random",
    "thirdparty.pylab_",
    "functions",
    "import_tree.pkg",
    "test_imports",
    "jedi.common",
    "refactor",
    "test.test_api.test_api_classes_follow_definition",
    "evaluate.helpers",
    "test_evaluate.test_precedence",
    "test",
    "test_defined_names",
    "jedi.api.replstartup",
    "test_parser.test_fast_parser",
    "completion.docstring",
    "thirdparty",
    "test_api.test_full_name",
    "test.test_api",
    "jedi_",
    "test.test_utils",
    "scripts",
    "test_evaluate.test_docstring",
    "completion.types",
    "jedi.evaluate.stdlib",
    "test.completion.import_tree.rename2",
    "test.completion.import_tree.rename1",
    "sys_path",
    "not_in_sys_path.pkg",
    "test.test_api.test_interpreter",
    "scripts.memory_check",
    "test_evaluate.namespace_package.ns1",
    "api.usages",
    "test.test_evaluate.not_in_sys_path",
    "test_api_classes",
    "jedi.refactoring",
    "test.completion.import_tree.pkg.mod1",
    "test.completion.sys_path",
    "import_tree.recurse_class1",
    "test_evaluate.test_absolute_import",
    "test_api.test_call_signatures"
]