{
    "archive_url": "https://api.github.com/repos/fenrrir/geditpycompletion/{archive_format}{/ref}",
    "assignees_url": "https://api.github.com/repos/fenrrir/geditpycompletion/assignees{/user}",
    "blobs_url": "https://api.github.com/repos/fenrrir/geditpycompletion/git/blobs{/sha}",
    "branches_url": "https://api.github.com/repos/fenrrir/geditpycompletion/branches{/branch}",
    "clone_url": "https://github.com/fenrrir/geditpycompletion.git",
    "collaborators_url": "https://api.github.com/repos/fenrrir/geditpycompletion/collaborators{/collaborator}",
    "comments_url": "https://api.github.com/repos/fenrrir/geditpycompletion/comments{/number}",
    "commits_url": "https://api.github.com/repos/fenrrir/geditpycompletion/commits{/sha}",
    "compare_url": "https://api.github.com/repos/fenrrir/geditpycompletion/compare/{base}...{head}",
    "contents_url": "https://api.github.com/repos/fenrrir/geditpycompletion/contents/{+path}",
    "contributors_url": "https://api.github.com/repos/fenrrir/geditpycompletion/contributors",
    "created_at": "2008-05-18T14:07:11Z",
    "default_branch": "master",
    "description": "Plugin for autocomplete python code on Gedit.",
    "downloads_url": "https://api.github.com/repos/fenrrir/geditpycompletion/downloads",
    "events_url": "https://api.github.com/repos/fenrrir/geditpycompletion/events",
    "fork": false,
    "forks": 46,
    "forks_count": 46,
    "forks_url": "https://api.github.com/repos/fenrrir/geditpycompletion/forks",
    "full_name": "fenrrir/geditpycompletion",
    "git_commits_url": "https://api.github.com/repos/fenrrir/geditpycompletion/git/commits{/sha}",
    "git_refs_url": "https://api.github.com/repos/fenrrir/geditpycompletion/git/refs{/sha}",
    "git_tags_url": "https://api.github.com/repos/fenrrir/geditpycompletion/git/tags{/sha}",
    "git_url": "git://github.com/fenrrir/geditpycompletion.git",
    "has_downloads": true,
    "has_issues": true,
    "has_wiki": true,
    "homepage": "",
    "hooks_url": "https://api.github.com/repos/fenrrir/geditpycompletion/hooks",
    "html_url": "https://github.com/fenrrir/geditpycompletion",
    "id": 17792,
    "issue_comment_url": "https://api.github.com/repos/fenrrir/geditpycompletion/issues/comments/{number}",
    "issue_events_url": "https://api.github.com/repos/fenrrir/geditpycompletion/issues/events{/number}",
    "issues_url": "https://api.github.com/repos/fenrrir/geditpycompletion/issues{/number}",
    "keys_url": "https://api.github.com/repos/fenrrir/geditpycompletion/keys{/key_id}",
    "labels_url": "https://api.github.com/repos/fenrrir/geditpycompletion/labels{/name}",
    "language": "Python",
    "languages_url": "https://api.github.com/repos/fenrrir/geditpycompletion/languages",
    "merges_url": "https://api.github.com/repos/fenrrir/geditpycompletion/merges",
    "milestones_url": "https://api.github.com/repos/fenrrir/geditpycompletion/milestones{/number}",
    "mirror_url": null,
    "name": "geditpycompletion",
    "notifications_url": "https://api.github.com/repos/fenrrir/geditpycompletion/notifications{?since,all,participating}",
    "open_issues": 3,
    "open_issues_count": 3,
    "owner": {
        "avatar_url": "https://avatars.githubusercontent.com/u/10677?",
        "events_url": "https://api.github.com/users/fenrrir/events{/privacy}",
        "followers_url": "https://api.github.com/users/fenrrir/followers",
        "following_url": "https://api.github.com/users/fenrrir/following{/other_user}",
        "gists_url": "https://api.github.com/users/fenrrir/gists{/gist_id}",
        "gravatar_id": "804234d701ee908e14bf398d98300a69",
        "html_url": "https://github.com/fenrrir",
        "id": 10677,
        "login": "fenrrir",
        "organizations_url": "https://api.github.com/users/fenrrir/orgs",
        "received_events_url": "https://api.github.com/users/fenrrir/received_events",
        "repos_url": "https://api.github.com/users/fenrrir/repos",
        "site_admin": false,
        "starred_url": "https://api.github.com/users/fenrrir/starred{/owner}{/repo}",
        "subscriptions_url": "https://api.github.com/users/fenrrir/subscriptions",
        "type": "User",
        "url": "https://api.github.com/users/fenrrir"
    },
    "private": false,
    "pulls_url": "https://api.github.com/repos/fenrrir/geditpycompletion/pulls{/number}",
    "pushed_at": "2008-12-04T22:49:12Z",
    "releases_url": "https://api.github.com/repos/fenrrir/geditpycompletion/releases{/id}",
    "score": 1.0,
    "size": 398,
    "ssh_url": "git@github.com:fenrrir/geditpycompletion.git",
    "stargazers_count": 74,
    "stargazers_url": "https://api.github.com/repos/fenrrir/geditpycompletion/stargazers",
    "statuses_url": "https://api.github.com/repos/fenrrir/geditpycompletion/statuses/{sha}",
    "subscribers_url": "https://api.github.com/repos/fenrrir/geditpycompletion/subscribers",
    "subscription_url": "https://api.github.com/repos/fenrrir/geditpycompletion/subscription",
    "svn_url": "https://github.com/fenrrir/geditpycompletion",
    "tags_url": "https://api.github.com/repos/fenrrir/geditpycompletion/tags",
    "teams_url": "https://api.github.com/repos/fenrrir/geditpycompletion/teams",
    "trees_url": "https://api.github.com/repos/fenrrir/geditpycompletion/git/trees{/sha}",
    "updated_at": "2014-05-01T22:17:15Z",
    "url": "https://api.github.com/repos/fenrrir/geditpycompletion",
    "watchers": 74,
    "watchers_count": 74
}