{
    "libs": [
        "inspect",
        "logging",
        "struct",
        "h",
        "traceback",
        "sys",
        "re",
        "types",
        "xmpp",
        "_growl",
        "os",
        "time",
        "_growlImage",
        "socket"
    ]
}