{
    "archive_url": "https://api.github.com/repos/klen/pylama/{archive_format}{/ref}",
    "assignees_url": "https://api.github.com/repos/klen/pylama/assignees{/user}",
    "blobs_url": "https://api.github.com/repos/klen/pylama/git/blobs{/sha}",
    "branches_url": "https://api.github.com/repos/klen/pylama/branches{/branch}",
    "clone_url": "https://github.com/klen/pylama.git",
    "collaborators_url": "https://api.github.com/repos/klen/pylama/collaborators{/collaborator}",
    "comments_url": "https://api.github.com/repos/klen/pylama/comments{/number}",
    "commits_url": "https://api.github.com/repos/klen/pylama/commits{/sha}",
    "compare_url": "https://api.github.com/repos/klen/pylama/compare/{base}...{head}",
    "contents_url": "https://api.github.com/repos/klen/pylama/contents/{+path}",
    "contributors_url": "https://api.github.com/repos/klen/pylama/contributors",
    "created_at": "2012-08-17T10:10:10Z",
    "default_branch": "develop",
    "description": "Code audit tool for python.",
    "downloads_url": "https://api.github.com/repos/klen/pylama/downloads",
    "events_url": "https://api.github.com/repos/klen/pylama/events",
    "fork": false,
    "forks": 8,
    "forks_count": 8,
    "forks_url": "https://api.github.com/repos/klen/pylama/forks",
    "full_name": "klen/pylama",
    "git_commits_url": "https://api.github.com/repos/klen/pylama/git/commits{/sha}",
    "git_refs_url": "https://api.github.com/repos/klen/pylama/git/refs{/sha}",
    "git_tags_url": "https://api.github.com/repos/klen/pylama/git/tags{/sha}",
    "git_url": "git://github.com/klen/pylama.git",
    "has_downloads": true,
    "has_issues": true,
    "has_wiki": true,
    "homepage": "http://klen.github.com/pylama/",
    "hooks_url": "https://api.github.com/repos/klen/pylama/hooks",
    "html_url": "https://github.com/klen/pylama",
    "id": 5450742,
    "issue_comment_url": "https://api.github.com/repos/klen/pylama/issues/comments/{number}",
    "issue_events_url": "https://api.github.com/repos/klen/pylama/issues/events{/number}",
    "issues_url": "https://api.github.com/repos/klen/pylama/issues{/number}",
    "keys_url": "https://api.github.com/repos/klen/pylama/keys{/key_id}",
    "labels_url": "https://api.github.com/repos/klen/pylama/labels{/name}",
    "language": "Python",
    "languages_url": "https://api.github.com/repos/klen/pylama/languages",
    "merges_url": "https://api.github.com/repos/klen/pylama/merges",
    "milestones_url": "https://api.github.com/repos/klen/pylama/milestones{/number}",
    "mirror_url": null,
    "name": "pylama",
    "notifications_url": "https://api.github.com/repos/klen/pylama/notifications{?since,all,participating}",
    "open_issues": 2,
    "open_issues_count": 2,
    "owner": {
        "avatar_url": "https://avatars.githubusercontent.com/u/90699?",
        "events_url": "https://api.github.com/users/klen/events{/privacy}",
        "followers_url": "https://api.github.com/users/klen/followers",
        "following_url": "https://api.github.com/users/klen/following{/other_user}",
        "gists_url": "https://api.github.com/users/klen/gists{/gist_id}",
        "gravatar_id": "e449bd976659b2243d356f7abc6e4121",
        "html_url": "https://github.com/klen",
        "id": 90699,
        "login": "klen",
        "organizations_url": "https://api.github.com/users/klen/orgs",
        "received_events_url": "https://api.github.com/users/klen/received_events",
        "repos_url": "https://api.github.com/users/klen/repos",
        "site_admin": false,
        "starred_url": "https://api.github.com/users/klen/starred{/owner}{/repo}",
        "subscriptions_url": "https://api.github.com/users/klen/subscriptions",
        "type": "User",
        "url": "https://api.github.com/users/klen"
    },
    "private": false,
    "pulls_url": "https://api.github.com/repos/klen/pylama/pulls{/number}",
    "pushed_at": "2014-05-07T05:05:59Z",
    "releases_url": "https://api.github.com/repos/klen/pylama/releases{/id}",
    "score": 1.0,
    "size": 1481,
    "ssh_url": "git@github.com:klen/pylama.git",
    "stargazers_count": 40,
    "stargazers_url": "https://api.github.com/repos/klen/pylama/stargazers",
    "statuses_url": "https://api.github.com/repos/klen/pylama/statuses/{sha}",
    "subscribers_url": "https://api.github.com/repos/klen/pylama/subscribers",
    "subscription_url": "https://api.github.com/repos/klen/pylama/subscription",
    "svn_url": "https://github.com/klen/pylama",
    "tags_url": "https://api.github.com/repos/klen/pylama/tags",
    "teams_url": "https://api.github.com/repos/klen/pylama/teams",
    "trees_url": "https://api.github.com/repos/klen/pylama/git/trees{/sha}",
    "updated_at": "2014-05-07T05:06:01Z",
    "url": "https://api.github.com/repos/klen/pylama",
    "watchers": 40,
    "watchers_count": 40
}