[
    "tasks",
    "pylama.lint.pylama_pep8.pep8",
    "hook",
    "pep257",
    "lint.pylama_pyflakes.pyflakes.messages",
    "pylama.lint.pylama_pep257",
    "pylama",
    "importlib",
    "checker",
    "pylama_pep257.pep257",
    "main",
    "lint.pylama_pyflakes.pyflakes.checker",
    "pylama.lint.pylama_pyflakes.pyflakes.checker",
    "tests",
    "lint.pylama_pep8.pep8",
    "lint.pylama_pep257",
    "docs",
    "lint",
    "pylama.lint.pylama_pyflakes",
    "pylama.lint.pylama_pyflakes.pyflakes.messages",
    "pylama_mccabe.mccabe",
    "libs",
    "pylama.main",
    "docs.conf",
    "pylama_mccabe",
    "pylama.lint.pylama_pep8",
    "pylama_pyflakes.pyflakes.checker",
    "pyflakes.messages",
    "pylama_pyflakes.pyflakes",
    "pylama.lint.pylama_pep257.pep257",
    "pylama.config",
    "lint.pylama_mccabe",
    "pylama.tasks",
    "conf",
    "pylama.lint",
    "pylama.lint.pylama_mccabe",
    "pylama.core",
    "pylama.lint.pylama_pyflakes.pyflakes",
    "lint.extensions",
    "inirama",
    "mccabe",
    "lint.pylama_mccabe.mccabe",
    "pylama.lint.extensions",
    "pylama.lint.pylama_mccabe.mccabe",
    "pylama_pyflakes",
    "pylama_pep8",
    "config",
    "pylama_pep257",
    "core",
    "pylama_pyflakes.pyflakes.messages",
    "lint.pylama_pyflakes.pyflakes",
    "pylama.libs.inirama",
    "pylama.libs",
    "pyflakes.checker",
    "libs.importlib",
    "dummy",
    "pylama.libs.importlib",
    "lint.pylama_pyflakes",
    "pyflakes",
    "lint.pylama_pep257.pep257",
    "messages",
    "libs.inirama",
    "pylama.hook",
    "pylama_pep8.pep8",
    "pep8",
    "extensions",
    "lint.pylama_pep8"
]