{
    "libs": [
        "cStringIO",
        "copy_reg",
        "SimpleHTTPServer",
        "unicode_literals",
        "__builtin__",
        "HTMLParser",
        "numbers",
        "ordereddict",
        "gdbm",
        "abc",
        "CGIHTTPServer",
        "UserList",
        "Cookie",
        "print_function",
        "UserString",
        "division",
        "cPickle",
        "B",
        "SocketServer",
        "htmlentitydefs",
        "repr",
        "urllib2",
        "Queue",
        "absolute_import",
        "codecs",
        "cookielib",
        "ConfigParser",
        "decimal",
        "xmlrpclib",
        "threading",
        "dummy_threading"
    ]
}