[
    "dbm",
    "html.entities",
    "functools",
    "urllib.parse",
    "pies.http.client",
    "pies2overrides.builtins",
    "http.client",
    "pies2overrides.configparser",
    "pies.urllib.parse",
    "robotparser",
    "builtins",
    "entities",
    "urllib.robotparser",
    "pies2overrides.http.cookies",
    "pies.dbm",
    "pies2overrides.html",
    "pies2overrides.copyreg",
    "pies.urllib.error",
    "imp",
    "html",
    "collections",
    "dbm.gnu",
    "unittest",
    "pies.dbm.ndbm",
    "pies2overrides._thread",
    "pies2overrides.html.parser",
    "pies2overrides.html.entities",
    "pies.dbm.dumb",
    "pies.pickle",
    "pies2overrides.queue",
    "pies",
    "http.server",
    "pies.urllib",
    "gnu",
    "pies.sys",
    "pies.itertools",
    "pies.version_info",
    "server",
    "html.parser",
    "error",
    "pies2overrides.http.client",
    "pickle",
    "reprlib",
    "cookies",
    "socketserver",
    "parser",
    "tests",
    "parse",
    "dumb",
    "copyreg",
    "pies2overrides.socketserver",
    "pies.collections",
    "xmlrpc.client",
    "configparser",
    "queue",
    "test_pies",
    "_thread",
    "xmlrpc",
    "pies2overrides.xmlrpc",
    "urllib",
    "pies.unittest",
    "dbm.dumb",
    "pies.ast",
    "pies.http",
    "dbm.ndbm",
    "pies.http.cookies",
    "pies.overrides",
    "http",
    "pies.imp",
    "version_info",
    "http.cookiejar",
    "pies2overrides.xmlrpc.client",
    "urllib.request",
    "pies2overrides",
    "pies.urllib.request",
    "pies.http.server",
    "ndbm",
    "pies.functools",
    "ast",
    "_utils",
    "http.cookies",
    "cookiejar",
    "pies.dbm.gnu",
    "pies2overrides.http",
    "sys",
    "pies2overrides.reprlib",
    "pies2overrides.http.cookiejar",
    "StringIO",
    "overrides",
    "request",
    "pies.urllib.robotparser",
    "pies2overrides.http.server",
    "urllib.error",
    "itertools",
    "client",
    "pies._utils",
    "pies.StringIO"
]