{
    "archive_url": "https://api.github.com/repos/odyniec/font-awesome-to-png/{archive_format}{/ref}",
    "assignees_url": "https://api.github.com/repos/odyniec/font-awesome-to-png/assignees{/user}",
    "blobs_url": "https://api.github.com/repos/odyniec/font-awesome-to-png/git/blobs{/sha}",
    "branches_url": "https://api.github.com/repos/odyniec/font-awesome-to-png/branches{/branch}",
    "clone_url": "https://github.com/odyniec/font-awesome-to-png.git",
    "collaborators_url": "https://api.github.com/repos/odyniec/font-awesome-to-png/collaborators{/collaborator}",
    "comments_url": "https://api.github.com/repos/odyniec/font-awesome-to-png/comments{/number}",
    "commits_url": "https://api.github.com/repos/odyniec/font-awesome-to-png/commits{/sha}",
    "compare_url": "https://api.github.com/repos/odyniec/font-awesome-to-png/compare/{base}...{head}",
    "contents_url": "https://api.github.com/repos/odyniec/font-awesome-to-png/contents/{+path}",
    "contributors_url": "https://api.github.com/repos/odyniec/font-awesome-to-png/contributors",
    "created_at": "2012-08-04T13:28:49Z",
    "default_branch": "master",
    "description": "Exports Font Awesome icons as PNG images",
    "downloads_url": "https://api.github.com/repos/odyniec/font-awesome-to-png/downloads",
    "events_url": "https://api.github.com/repos/odyniec/font-awesome-to-png/events",
    "fork": false,
    "forks": 85,
    "forks_count": 85,
    "forks_url": "https://api.github.com/repos/odyniec/font-awesome-to-png/forks",
    "full_name": "odyniec/font-awesome-to-png",
    "git_commits_url": "https://api.github.com/repos/odyniec/font-awesome-to-png/git/commits{/sha}",
    "git_refs_url": "https://api.github.com/repos/odyniec/font-awesome-to-png/git/refs{/sha}",
    "git_tags_url": "https://api.github.com/repos/odyniec/font-awesome-to-png/git/tags{/sha}",
    "git_url": "git://github.com/odyniec/font-awesome-to-png.git",
    "has_downloads": true,
    "has_issues": true,
    "has_wiki": true,
    "homepage": null,
    "hooks_url": "https://api.github.com/repos/odyniec/font-awesome-to-png/hooks",
    "html_url": "https://github.com/odyniec/font-awesome-to-png",
    "id": 5295720,
    "issue_comment_url": "https://api.github.com/repos/odyniec/font-awesome-to-png/issues/comments/{number}",
    "issue_events_url": "https://api.github.com/repos/odyniec/font-awesome-to-png/issues/events{/number}",
    "issues_url": "https://api.github.com/repos/odyniec/font-awesome-to-png/issues{/number}",
    "keys_url": "https://api.github.com/repos/odyniec/font-awesome-to-png/keys{/key_id}",
    "labels_url": "https://api.github.com/repos/odyniec/font-awesome-to-png/labels{/name}",
    "language": "Python",
    "languages_url": "https://api.github.com/repos/odyniec/font-awesome-to-png/languages",
    "merges_url": "https://api.github.com/repos/odyniec/font-awesome-to-png/merges",
    "milestones_url": "https://api.github.com/repos/odyniec/font-awesome-to-png/milestones{/number}",
    "mirror_url": null,
    "name": "font-awesome-to-png",
    "notifications_url": "https://api.github.com/repos/odyniec/font-awesome-to-png/notifications{?since,all,participating}",
    "open_issues": 15,
    "open_issues_count": 15,
    "owner": {
        "avatar_url": "https://avatars.githubusercontent.com/u/407008?",
        "events_url": "https://api.github.com/users/odyniec/events{/privacy}",
        "followers_url": "https://api.github.com/users/odyniec/followers",
        "following_url": "https://api.github.com/users/odyniec/following{/other_user}",
        "gists_url": "https://api.github.com/users/odyniec/gists{/gist_id}",
        "gravatar_id": "6564e8becbf7720081bfcef12d5eee80",
        "html_url": "https://github.com/odyniec",
        "id": 407008,
        "login": "odyniec",
        "organizations_url": "https://api.github.com/users/odyniec/orgs",
        "received_events_url": "https://api.github.com/users/odyniec/received_events",
        "repos_url": "https://api.github.com/users/odyniec/repos",
        "site_admin": false,
        "starred_url": "https://api.github.com/users/odyniec/starred{/owner}{/repo}",
        "subscriptions_url": "https://api.github.com/users/odyniec/subscriptions",
        "type": "User",
        "url": "https://api.github.com/users/odyniec"
    },
    "private": false,
    "pulls_url": "https://api.github.com/repos/odyniec/font-awesome-to-png/pulls{/number}",
    "pushed_at": "2014-04-25T20:43:03Z",
    "releases_url": "https://api.github.com/repos/odyniec/font-awesome-to-png/releases{/id}",
    "score": 1.0,
    "size": 385,
    "ssh_url": "git@github.com:odyniec/font-awesome-to-png.git",
    "stargazers_count": 295,
    "stargazers_url": "https://api.github.com/repos/odyniec/font-awesome-to-png/stargazers",
    "statuses_url": "https://api.github.com/repos/odyniec/font-awesome-to-png/statuses/{sha}",
    "subscribers_url": "https://api.github.com/repos/odyniec/font-awesome-to-png/subscribers",
    "subscription_url": "https://api.github.com/repos/odyniec/font-awesome-to-png/subscription",
    "svn_url": "https://github.com/odyniec/font-awesome-to-png",
    "tags_url": "https://api.github.com/repos/odyniec/font-awesome-to-png/tags",
    "teams_url": "https://api.github.com/repos/odyniec/font-awesome-to-png/teams",
    "trees_url": "https://api.github.com/repos/odyniec/font-awesome-to-png/git/trees{/sha}",
    "updated_at": "2014-05-06T02:09:38Z",
    "url": "https://api.github.com/repos/odyniec/font-awesome-to-png",
    "watchers": 295,
    "watchers_count": 295
}