{
    "archive_url": "https://api.github.com/repos/moskytw/zipcodetw/{archive_format}{/ref}",
    "assignees_url": "https://api.github.com/repos/moskytw/zipcodetw/assignees{/user}",
    "blobs_url": "https://api.github.com/repos/moskytw/zipcodetw/git/blobs{/sha}",
    "branches_url": "https://api.github.com/repos/moskytw/zipcodetw/branches{/branch}",
    "clone_url": "https://github.com/moskytw/zipcodetw.git",
    "collaborators_url": "https://api.github.com/repos/moskytw/zipcodetw/collaborators{/collaborator}",
    "comments_url": "https://api.github.com/repos/moskytw/zipcodetw/comments{/number}",
    "commits_url": "https://api.github.com/repos/moskytw/zipcodetw/commits{/sha}",
    "compare_url": "https://api.github.com/repos/moskytw/zipcodetw/compare/{base}...{head}",
    "contents_url": "https://api.github.com/repos/moskytw/zipcodetw/contents/{+path}",
    "contributors_url": "https://api.github.com/repos/moskytw/zipcodetw/contributors",
    "created_at": "2014-01-31T14:08:06Z",
    "default_branch": "dev",
    "description": "Find Taiwan ZIP code by address fuzzily.",
    "downloads_url": "https://api.github.com/repos/moskytw/zipcodetw/downloads",
    "events_url": "https://api.github.com/repos/moskytw/zipcodetw/events",
    "fork": false,
    "forks": 10,
    "forks_count": 10,
    "forks_url": "https://api.github.com/repos/moskytw/zipcodetw/forks",
    "full_name": "moskytw/zipcodetw",
    "git_commits_url": "https://api.github.com/repos/moskytw/zipcodetw/git/commits{/sha}",
    "git_refs_url": "https://api.github.com/repos/moskytw/zipcodetw/git/refs{/sha}",
    "git_tags_url": "https://api.github.com/repos/moskytw/zipcodetw/git/tags{/sha}",
    "git_url": "git://github.com/moskytw/zipcodetw.git",
    "has_downloads": true,
    "has_issues": true,
    "has_wiki": true,
    "homepage": "",
    "hooks_url": "https://api.github.com/repos/moskytw/zipcodetw/hooks",
    "html_url": "https://github.com/moskytw/zipcodetw",
    "id": 16409619,
    "issue_comment_url": "https://api.github.com/repos/moskytw/zipcodetw/issues/comments/{number}",
    "issue_events_url": "https://api.github.com/repos/moskytw/zipcodetw/issues/events{/number}",
    "issues_url": "https://api.github.com/repos/moskytw/zipcodetw/issues{/number}",
    "keys_url": "https://api.github.com/repos/moskytw/zipcodetw/keys{/key_id}",
    "labels_url": "https://api.github.com/repos/moskytw/zipcodetw/labels{/name}",
    "language": "Python",
    "languages_url": "https://api.github.com/repos/moskytw/zipcodetw/languages",
    "merges_url": "https://api.github.com/repos/moskytw/zipcodetw/merges",
    "milestones_url": "https://api.github.com/repos/moskytw/zipcodetw/milestones{/number}",
    "mirror_url": null,
    "name": "zipcodetw",
    "notifications_url": "https://api.github.com/repos/moskytw/zipcodetw/notifications{?since,all,participating}",
    "open_issues": 3,
    "open_issues_count": 3,
    "owner": {
        "avatar_url": "https://avatars.githubusercontent.com/u/594141?",
        "events_url": "https://api.github.com/users/moskytw/events{/privacy}",
        "followers_url": "https://api.github.com/users/moskytw/followers",
        "following_url": "https://api.github.com/users/moskytw/following{/other_user}",
        "gists_url": "https://api.github.com/users/moskytw/gists{/gist_id}",
        "gravatar_id": "d16bc1f94b17ddc794c2dfb48ef59456",
        "html_url": "https://github.com/moskytw",
        "id": 594141,
        "login": "moskytw",
        "organizations_url": "https://api.github.com/users/moskytw/orgs",
        "received_events_url": "https://api.github.com/users/moskytw/received_events",
        "repos_url": "https://api.github.com/users/moskytw/repos",
        "site_admin": false,
        "starred_url": "https://api.github.com/users/moskytw/starred{/owner}{/repo}",
        "subscriptions_url": "https://api.github.com/users/moskytw/subscriptions",
        "type": "User",
        "url": "https://api.github.com/users/moskytw"
    },
    "private": false,
    "pulls_url": "https://api.github.com/repos/moskytw/zipcodetw/pulls{/number}",
    "pushed_at": "2014-05-06T16:34:30Z",
    "releases_url": "https://api.github.com/repos/moskytw/zipcodetw/releases{/id}",
    "score": 1.0,
    "size": 12471,
    "ssh_url": "git@github.com:moskytw/zipcodetw.git",
    "stargazers_count": 63,
    "stargazers_url": "https://api.github.com/repos/moskytw/zipcodetw/stargazers",
    "statuses_url": "https://api.github.com/repos/moskytw/zipcodetw/statuses/{sha}",
    "subscribers_url": "https://api.github.com/repos/moskytw/zipcodetw/subscribers",
    "subscription_url": "https://api.github.com/repos/moskytw/zipcodetw/subscription",
    "svn_url": "https://github.com/moskytw/zipcodetw",
    "tags_url": "https://api.github.com/repos/moskytw/zipcodetw/tags",
    "teams_url": "https://api.github.com/repos/moskytw/zipcodetw/teams",
    "trees_url": "https://api.github.com/repos/moskytw/zipcodetw/git/trees{/sha}",
    "updated_at": "2014-05-06T16:34:31Z",
    "url": "https://api.github.com/repos/moskytw/zipcodetw",
    "watchers": 63,
    "watchers_count": 63
}