{
    "archive_url": "https://api.github.com/repos/jmcnamara/XlsxWriter/{archive_format}{/ref}",
    "assignees_url": "https://api.github.com/repos/jmcnamara/XlsxWriter/assignees{/user}",
    "blobs_url": "https://api.github.com/repos/jmcnamara/XlsxWriter/git/blobs{/sha}",
    "branches_url": "https://api.github.com/repos/jmcnamara/XlsxWriter/branches{/branch}",
    "clone_url": "https://github.com/jmcnamara/XlsxWriter.git",
    "collaborators_url": "https://api.github.com/repos/jmcnamara/XlsxWriter/collaborators{/collaborator}",
    "comments_url": "https://api.github.com/repos/jmcnamara/XlsxWriter/comments{/number}",
    "commits_url": "https://api.github.com/repos/jmcnamara/XlsxWriter/commits{/sha}",
    "compare_url": "https://api.github.com/repos/jmcnamara/XlsxWriter/compare/{base}...{head}",
    "contents_url": "https://api.github.com/repos/jmcnamara/XlsxWriter/contents/{+path}",
    "contributors_url": "https://api.github.com/repos/jmcnamara/XlsxWriter/contributors",
    "created_at": "2013-01-04T01:07:06Z",
    "default_branch": "master",
    "description": "A Python module for creating Excel XLSX files.",
    "downloads_url": "https://api.github.com/repos/jmcnamara/XlsxWriter/downloads",
    "events_url": "https://api.github.com/repos/jmcnamara/XlsxWriter/events",
    "fork": false,
    "forks": 47,
    "forks_count": 47,
    "forks_url": "https://api.github.com/repos/jmcnamara/XlsxWriter/forks",
    "full_name": "jmcnamara/XlsxWriter",
    "git_commits_url": "https://api.github.com/repos/jmcnamara/XlsxWriter/git/commits{/sha}",
    "git_refs_url": "https://api.github.com/repos/jmcnamara/XlsxWriter/git/refs{/sha}",
    "git_tags_url": "https://api.github.com/repos/jmcnamara/XlsxWriter/git/tags{/sha}",
    "git_url": "git://github.com/jmcnamara/XlsxWriter.git",
    "has_downloads": true,
    "has_issues": true,
    "has_wiki": false,
    "homepage": "https://xlsxwriter.readthedocs.org/",
    "hooks_url": "https://api.github.com/repos/jmcnamara/XlsxWriter/hooks",
    "html_url": "https://github.com/jmcnamara/XlsxWriter",
    "id": 7433211,
    "issue_comment_url": "https://api.github.com/repos/jmcnamara/XlsxWriter/issues/comments/{number}",
    "issue_events_url": "https://api.github.com/repos/jmcnamara/XlsxWriter/issues/events{/number}",
    "issues_url": "https://api.github.com/repos/jmcnamara/XlsxWriter/issues{/number}",
    "keys_url": "https://api.github.com/repos/jmcnamara/XlsxWriter/keys{/key_id}",
    "labels_url": "https://api.github.com/repos/jmcnamara/XlsxWriter/labels{/name}",
    "language": "Python",
    "languages_url": "https://api.github.com/repos/jmcnamara/XlsxWriter/languages",
    "merges_url": "https://api.github.com/repos/jmcnamara/XlsxWriter/merges",
    "milestones_url": "https://api.github.com/repos/jmcnamara/XlsxWriter/milestones{/number}",
    "mirror_url": null,
    "name": "XlsxWriter",
    "notifications_url": "https://api.github.com/repos/jmcnamara/XlsxWriter/notifications{?since,all,participating}",
    "open_issues": 10,
    "open_issues_count": 10,
    "owner": {
        "avatar_url": "https://avatars.githubusercontent.com/u/94267?",
        "events_url": "https://api.github.com/users/jmcnamara/events{/privacy}",
        "followers_url": "https://api.github.com/users/jmcnamara/followers",
        "following_url": "https://api.github.com/users/jmcnamara/following{/other_user}",
        "gists_url": "https://api.github.com/users/jmcnamara/gists{/gist_id}",
        "gravatar_id": "b8c3b1025babebf20168dd90ea8f268c",
        "html_url": "https://github.com/jmcnamara",
        "id": 94267,
        "login": "jmcnamara",
        "organizations_url": "https://api.github.com/users/jmcnamara/orgs",
        "received_events_url": "https://api.github.com/users/jmcnamara/received_events",
        "repos_url": "https://api.github.com/users/jmcnamara/repos",
        "site_admin": false,
        "starred_url": "https://api.github.com/users/jmcnamara/starred{/owner}{/repo}",
        "subscriptions_url": "https://api.github.com/users/jmcnamara/subscriptions",
        "type": "User",
        "url": "https://api.github.com/users/jmcnamara"
    },
    "private": false,
    "pulls_url": "https://api.github.com/repos/jmcnamara/XlsxWriter/pulls{/number}",
    "pushed_at": "2014-05-05T23:35:39Z",
    "releases_url": "https://api.github.com/repos/jmcnamara/XlsxWriter/releases{/id}",
    "score": 1.0,
    "size": 58827,
    "ssh_url": "git@github.com:jmcnamara/XlsxWriter.git",
    "stargazers_count": 182,
    "stargazers_url": "https://api.github.com/repos/jmcnamara/XlsxWriter/stargazers",
    "statuses_url": "https://api.github.com/repos/jmcnamara/XlsxWriter/statuses/{sha}",
    "subscribers_url": "https://api.github.com/repos/jmcnamara/XlsxWriter/subscribers",
    "subscription_url": "https://api.github.com/repos/jmcnamara/XlsxWriter/subscription",
    "svn_url": "https://github.com/jmcnamara/XlsxWriter",
    "tags_url": "https://api.github.com/repos/jmcnamara/XlsxWriter/tags",
    "teams_url": "https://api.github.com/repos/jmcnamara/XlsxWriter/teams",
    "trees_url": "https://api.github.com/repos/jmcnamara/XlsxWriter/git/trees{/sha}",
    "updated_at": "2014-05-07T03:55:36Z",
    "url": "https://api.github.com/repos/jmcnamara/XlsxWriter",
    "watchers": 182,
    "watchers_count": 182
}