{
    "libs": [
        "sys",
        "management",
        "http",
        "template",
        "simplejson",
        "imp",
        "shortcuts",
        "utils",
        "db",
        "dispatch",
        "django",
        "urlresolvers",
        "contrib",
        "query",
        "defaults",
        "signals",
        "test",
        "mail",
        "translation",
        "conf",
        "re"
    ]
}