{
    "libs": [
        "pyx",
        "traceback",
        "PublicKey",
        "random",
        "with_statement",
        "__builtin__",
        "subprocess",
        "atexit",
        "code",
        "dnet",
        "IPython",
        "array",
        "select",
        "bz2",
        "imp",
        "tempfile",
        "pcap",
        "re",
        "Cipher",
        "generators",
        "H",
        "getopt",
        "math",
        "fcntl",
        "cPickle",
        "string",
        "warnings",
        "popen2",
        "glob",
        "struct",
        "collections",
        "sys",
        "visual",
        "new",
        "path",
        "readline",
        "copy",
        "geo",
        "types",
        "md5",
        "b",
        "logging",
        "socket",
        "thread",
        "rlcompleter",
        "zlib",
        "sha",
        "itertools",
        "pcapy",
        "time",
        "gzip",
        "h",
        "os",
        "hmac"
    ]
}