[
    "all",
    "layers.rip",
    "solaris",
    "scapy.utils",
    "layers.tftp",
    "scapy.asn1.asn1",
    "scapy.as_resolvers",
    "scapy.arch.bsd",
    "themes",
    "scapy.conf",
    "rtp",
    "modules.geoip",
    "inet6",
    "scapy.volatile",
    "scapy.ansmachine",
    "layers",
    "scapy.layers.all",
    "scapy.base_classes",
    "scapy.layers.gprs",
    "layers.rtp",
    "scapy.modules",
    "pflog",
    "asn1",
    "isakmp",
    "scapy.layers.inet",
    "layers.pflog",
    "crypto.cert",
    "p0f",
    "queso",
    "scapy.route6",
    "layers.ir",
    "base_classes",
    "mobileip",
    "scapy.layers.dhcp6",
    "arch.unix",
    "netflow",
    "scapy.arch.pcapdnet",
    "utils6",
    "voip",
    "pton_ntop",
    "scapy.layers",
    "scapy.layers.hsrp",
    "fields",
    "scapy",
    "pcapdnet",
    "route6",
    "asn1.mib",
    "scapy.tools.UTscapy",
    "l2",
    "scapy.dadict",
    "scapy.autorun",
    "dadict",
    "check_asdis",
    "layers.all",
    "gprs",
    "layers.netbios",
    "scapy.crypto",
    "arch.pcapdnet",
    "scapy.pton_ntop",
    "packet",
    "crypto",
    "scapy.data",
    "skinny",
    "radius",
    "layers.l2tp",
    "layers.llmnr",
    "bluetooth",
    "UTscapy",
    "layers.gprs",
    "dot11",
    "scapy.layers.snmp",
    "scapy.layers.ntp",
    "asn1fields",
    "volatile",
    "scapy.layers.ir",
    "scapy.main",
    "dhcp",
    "sctp",
    "scapy.layers.dhcp",
    "smb",
    "scapy.layers.sctp",
    "scapy.layers.bluetooth",
    "layers.smb",
    "ntp",
    "scapy.crypto.cert",
    "layers.bluetooth",
    "scapy.layers.mgcp",
    "layers.l2",
    "asn1.asn1",
    "scapy.layers.inet6",
    "scapy.asn1.mib",
    "arch",
    "sendrecv",
    "layers.skinny",
    "scapy.asn1.ber",
    "route",
    "layers.ppp",
    "scapy.layers.ppp",
    "cert",
    "scapy.utils6",
    "scapy.layers.rtp",
    "scapy.tools.check_asdis",
    "modules.p0f",
    "tftp",
    "automaton",
    "scapy.layers.dns",
    "doc.scapy.conf",
    "layers.dot11",
    "llmnr",
    "nmap",
    "snmp",
    "layers.snmp",
    "scapy.packet",
    "ansmachine",
    "unix",
    "ppp",
    "as_resolvers",
    "linux",
    "supersocket",
    "layers.x509",
    "tools",
    "scapy.tools",
    "scapy.layers.skinny",
    "scapy.layers.dot11",
    "modules.voip",
    "scapy.layers.mobileip",
    "scapy.sendrecv",
    "layers.mgcp",
    "scapy.route",
    "dns",
    "vrrp",
    "layers.radius",
    "netbios",
    "inet",
    "main",
    "scapy.layers.llmnr",
    "scapy.all",
    "l2tp",
    "modules.queso",
    "scapy.automaton",
    "autorun",
    "hsrp",
    "scapy.asn1",
    "layers.vrrp",
    "scapy.supersocket",
    "scapy.modules.voip",
    "scapy.layers.netflow",
    "sebek",
    "scapy.layers.netbios",
    "scapy.layers.smb",
    "tools.UTscapy",
    "scapy.arch.solaris",
    "scapy.error",
    "geoip",
    "scapy.arch.unix",
    "scapy.plist",
    "layers.inet",
    "error",
    "ber",
    "scapy.layers.tftp",
    "doc.scapy",
    "scapy.layers.vrrp",
    "layers.isakmp",
    "layers.dhcp6",
    "utils",
    "ir",
    "asn1.ber",
    "rip",
    "scapy.modules.nmap",
    "scapy.layers.isakmp",
    "asn1packet",
    "conf",
    "dhcp6",
    "scapy.arch.linux",
    "plist",
    "layers.sebek",
    "scapy.fields",
    "scapy.layers.l2",
    "scapy.layers.pflog",
    "mib",
    "scapy.layers.rip",
    "scapy.config",
    "layers.ntp",
    "scapy.arch",
    "modules.nmap",
    "config",
    "layers.inet6",
    "arch.linux",
    "layers.dns",
    "scapy.themes",
    "x509",
    "tools.check_asdis",
    "scapy.modules.queso",
    "scapy.layers.x509",
    "scapy.modules.p0f",
    "scapy.asn1fields",
    "layers.hsrp",
    "bsd",
    "layers.dhcp",
    "data",
    "layers.mobileip",
    "layers.netflow",
    "arch.bsd",
    "scapy.layers.radius",
    "doc",
    "modules",
    "scapy.layers.l2tp",
    "scapy.modules.geoip",
    "arch.solaris",
    "layers.sctp",
    "scapy.asn1packet",
    "scapy.layers.sebek",
    "mgcp"
]