{
    "libs": [
        "weakref",
        "pexpect",
        "DesktopEntry",
        "errno",
        "signal",
        "gtk",
        "glade",
        "sys",
        "gconf",
        "time",
        "appindicator",
        "os"
    ]
}