{
    "archive_url": "https://api.github.com/repos/txels/ddt/{archive_format}{/ref}",
    "assignees_url": "https://api.github.com/repos/txels/ddt/assignees{/user}",
    "blobs_url": "https://api.github.com/repos/txels/ddt/git/blobs{/sha}",
    "branches_url": "https://api.github.com/repos/txels/ddt/branches{/branch}",
    "clone_url": "https://github.com/txels/ddt.git",
    "collaborators_url": "https://api.github.com/repos/txels/ddt/collaborators{/collaborator}",
    "comments_url": "https://api.github.com/repos/txels/ddt/comments{/number}",
    "commits_url": "https://api.github.com/repos/txels/ddt/commits{/sha}",
    "compare_url": "https://api.github.com/repos/txels/ddt/compare/{base}...{head}",
    "contents_url": "https://api.github.com/repos/txels/ddt/contents/{+path}",
    "contributors_url": "https://api.github.com/repos/txels/ddt/contributors",
    "created_at": "2012-02-11T22:57:10Z",
    "default_branch": "master",
    "description": "Data-Driven Tests",
    "downloads_url": "https://api.github.com/repos/txels/ddt/downloads",
    "events_url": "https://api.github.com/repos/txels/ddt/events",
    "fork": false,
    "forks": 12,
    "forks_count": 12,
    "forks_url": "https://api.github.com/repos/txels/ddt/forks",
    "full_name": "txels/ddt",
    "git_commits_url": "https://api.github.com/repos/txels/ddt/git/commits{/sha}",
    "git_refs_url": "https://api.github.com/repos/txels/ddt/git/refs{/sha}",
    "git_tags_url": "https://api.github.com/repos/txels/ddt/git/tags{/sha}",
    "git_url": "git://github.com/txels/ddt.git",
    "has_downloads": true,
    "has_issues": true,
    "has_wiki": true,
    "homepage": "http://ddt.readthedocs.org/",
    "hooks_url": "https://api.github.com/repos/txels/ddt/hooks",
    "html_url": "https://github.com/txels/ddt",
    "id": 3418575,
    "issue_comment_url": "https://api.github.com/repos/txels/ddt/issues/comments/{number}",
    "issue_events_url": "https://api.github.com/repos/txels/ddt/issues/events{/number}",
    "issues_url": "https://api.github.com/repos/txels/ddt/issues{/number}",
    "keys_url": "https://api.github.com/repos/txels/ddt/keys{/key_id}",
    "labels_url": "https://api.github.com/repos/txels/ddt/labels{/name}",
    "language": "Python",
    "languages_url": "https://api.github.com/repos/txels/ddt/languages",
    "merges_url": "https://api.github.com/repos/txels/ddt/merges",
    "milestones_url": "https://api.github.com/repos/txels/ddt/milestones{/number}",
    "mirror_url": null,
    "name": "ddt",
    "notifications_url": "https://api.github.com/repos/txels/ddt/notifications{?since,all,participating}",
    "open_issues": 1,
    "open_issues_count": 1,
    "owner": {
        "avatar_url": "https://avatars.githubusercontent.com/u/874958?",
        "events_url": "https://api.github.com/users/txels/events{/privacy}",
        "followers_url": "https://api.github.com/users/txels/followers",
        "following_url": "https://api.github.com/users/txels/following{/other_user}",
        "gists_url": "https://api.github.com/users/txels/gists{/gist_id}",
        "gravatar_id": "41ef9667ad41af0727bd686196c5f21b",
        "html_url": "https://github.com/txels",
        "id": 874958,
        "login": "txels",
        "organizations_url": "https://api.github.com/users/txels/orgs",
        "received_events_url": "https://api.github.com/users/txels/received_events",
        "repos_url": "https://api.github.com/users/txels/repos",
        "site_admin": false,
        "starred_url": "https://api.github.com/users/txels/starred{/owner}{/repo}",
        "subscriptions_url": "https://api.github.com/users/txels/subscriptions",
        "type": "User",
        "url": "https://api.github.com/users/txels"
    },
    "private": false,
    "pulls_url": "https://api.github.com/repos/txels/ddt/pulls{/number}",
    "pushed_at": "2014-03-21T20:36:16Z",
    "releases_url": "https://api.github.com/repos/txels/ddt/releases{/id}",
    "score": 1.0,
    "size": 563,
    "ssh_url": "git@github.com:txels/ddt.git",
    "stargazers_count": 70,
    "stargazers_url": "https://api.github.com/repos/txels/ddt/stargazers",
    "statuses_url": "https://api.github.com/repos/txels/ddt/statuses/{sha}",
    "subscribers_url": "https://api.github.com/repos/txels/ddt/subscribers",
    "subscription_url": "https://api.github.com/repos/txels/ddt/subscription",
    "svn_url": "https://github.com/txels/ddt",
    "tags_url": "https://api.github.com/repos/txels/ddt/tags",
    "teams_url": "https://api.github.com/repos/txels/ddt/teams",
    "trees_url": "https://api.github.com/repos/txels/ddt/git/trees{/sha}",
    "updated_at": "2014-05-03T07:34:05Z",
    "url": "https://api.github.com/repos/txels/ddt",
    "watchers": 70,
    "watchers_count": 70
}