{
    "libs": [
        "cStringIO",
        "tty",
        "getp",
        "simpleparse",
        "decimal",
        "unittest",
        "with_statement",
        "pymysql",
        "datetime",
        "interface",
        "parsers",
        "contextlib",
        "io",
        "operator",
        "pyparsing",
        "ElementTree",
        "select",
        "manhole_tap",
        "web",
        "copy",
        "builtins",
        "struct",
        "service",
        "re",
        "tempfile",
        "psycopg2",
        "rebuild",
        "pprint",
        "redis",
        "connection",
        "urllib",
        "error",
        "docutils",
        "json",
        "version",
        "collections",
        "internet",
        "sqlite3",
        "telnetlib",
        "smtplib",
        "csv",
        "cgi",
        "functools",
        "mock",
        "_bounce_module",
        "Cipher",
        "simplejson",
        "warnings",
        "python",
        "inspect",
        "termios",
        "sys",
        "cElementTree",
        "pwd",
        "pytz",
        "_autoacl_module",
        "saxutils",
        "rst",
        "path",
        "IPy",
        "b",
        "types",
        "ConfigParser",
        "commands",
        "dispatchprocessor",
        "logging",
        "socket",
        "StringIO",
        "conch",
        "signal",
        "plugin",
        "fcntl",
        "xmlreader",
        "urlparse",
        "threading",
        "itertools",
        "MySQLdb",
        "extensions",
        "common",
        "policies",
        "time",
        "os",
        "marshal",
        "ssh"
    ]
}