{
    "archive_url": "https://api.github.com/repos/ifduyue/wet/{archive_format}{/ref}",
    "assignees_url": "https://api.github.com/repos/ifduyue/wet/assignees{/user}",
    "blobs_url": "https://api.github.com/repos/ifduyue/wet/git/blobs{/sha}",
    "branches_url": "https://api.github.com/repos/ifduyue/wet/branches{/branch}",
    "clone_url": "https://github.com/ifduyue/wet.git",
    "collaborators_url": "https://api.github.com/repos/ifduyue/wet/collaborators{/collaborator}",
    "comments_url": "https://api.github.com/repos/ifduyue/wet/comments{/number}",
    "commits_url": "https://api.github.com/repos/ifduyue/wet/commits{/sha}",
    "compare_url": "https://api.github.com/repos/ifduyue/wet/compare/{base}...{head}",
    "contents_url": "https://api.github.com/repos/ifduyue/wet/contents/{+path}",
    "contributors_url": "https://api.github.com/repos/ifduyue/wet/contributors",
    "created_at": "2011-04-28T07:44:03Z",
    "default_branch": "master",
    "description": "sync twitter status to other sites (sina weibo, renren, douban, facebook,  etc..)",
    "downloads_url": "https://api.github.com/repos/ifduyue/wet/downloads",
    "events_url": "https://api.github.com/repos/ifduyue/wet/events",
    "fork": false,
    "forks": 10,
    "forks_count": 10,
    "forks_url": "https://api.github.com/repos/ifduyue/wet/forks",
    "full_name": "ifduyue/wet",
    "git_commits_url": "https://api.github.com/repos/ifduyue/wet/git/commits{/sha}",
    "git_refs_url": "https://api.github.com/repos/ifduyue/wet/git/refs{/sha}",
    "git_tags_url": "https://api.github.com/repos/ifduyue/wet/git/tags{/sha}",
    "git_url": "git://github.com/ifduyue/wet.git",
    "has_downloads": true,
    "has_issues": true,
    "has_wiki": true,
    "homepage": "http://lyxint.com/archives/106",
    "hooks_url": "https://api.github.com/repos/ifduyue/wet/hooks",
    "html_url": "https://github.com/ifduyue/wet",
    "id": 1674672,
    "issue_comment_url": "https://api.github.com/repos/ifduyue/wet/issues/comments/{number}",
    "issue_events_url": "https://api.github.com/repos/ifduyue/wet/issues/events{/number}",
    "issues_url": "https://api.github.com/repos/ifduyue/wet/issues{/number}",
    "keys_url": "https://api.github.com/repos/ifduyue/wet/keys{/key_id}",
    "labels_url": "https://api.github.com/repos/ifduyue/wet/labels{/name}",
    "language": "Python",
    "languages_url": "https://api.github.com/repos/ifduyue/wet/languages",
    "merges_url": "https://api.github.com/repos/ifduyue/wet/merges",
    "milestones_url": "https://api.github.com/repos/ifduyue/wet/milestones{/number}",
    "mirror_url": null,
    "name": "wet",
    "notifications_url": "https://api.github.com/repos/ifduyue/wet/notifications{?since,all,participating}",
    "open_issues": 1,
    "open_issues_count": 1,
    "owner": {
        "avatar_url": "https://avatars.githubusercontent.com/u/568900?",
        "events_url": "https://api.github.com/users/ifduyue/events{/privacy}",
        "followers_url": "https://api.github.com/users/ifduyue/followers",
        "following_url": "https://api.github.com/users/ifduyue/following{/other_user}",
        "gists_url": "https://api.github.com/users/ifduyue/gists{/gist_id}",
        "gravatar_id": "266173ad2a05c6816f6f28319ac71d0d",
        "html_url": "https://github.com/ifduyue",
        "id": 568900,
        "login": "ifduyue",
        "organizations_url": "https://api.github.com/users/ifduyue/orgs",
        "received_events_url": "https://api.github.com/users/ifduyue/received_events",
        "repos_url": "https://api.github.com/users/ifduyue/repos",
        "site_admin": false,
        "starred_url": "https://api.github.com/users/ifduyue/starred{/owner}{/repo}",
        "subscriptions_url": "https://api.github.com/users/ifduyue/subscriptions",
        "type": "User",
        "url": "https://api.github.com/users/ifduyue"
    },
    "private": false,
    "pulls_url": "https://api.github.com/repos/ifduyue/wet/pulls{/number}",
    "pushed_at": "2012-11-28T15:08:08Z",
    "releases_url": "https://api.github.com/repos/ifduyue/wet/releases{/id}",
    "score": 1.0,
    "size": 273,
    "ssh_url": "git@github.com:ifduyue/wet.git",
    "stargazers_count": 60,
    "stargazers_url": "https://api.github.com/repos/ifduyue/wet/stargazers",
    "statuses_url": "https://api.github.com/repos/ifduyue/wet/statuses/{sha}",
    "subscribers_url": "https://api.github.com/repos/ifduyue/wet/subscribers",
    "subscription_url": "https://api.github.com/repos/ifduyue/wet/subscription",
    "svn_url": "https://github.com/ifduyue/wet",
    "tags_url": "https://api.github.com/repos/ifduyue/wet/tags",
    "teams_url": "https://api.github.com/repos/ifduyue/wet/teams",
    "trees_url": "https://api.github.com/repos/ifduyue/wet/git/trees{/sha}",
    "updated_at": "2014-01-05T01:51:40Z",
    "url": "https://api.github.com/repos/ifduyue/wet",
    "watchers": 60,
    "watchers_count": 60
}