{
    "libs": [
        "bin",
        "sqlite",
        "pprint",
        "dbm",
        "_io",
        "libcomps",
        "unicode_literals",
        "functools",
        "random",
        "Queue",
        "absolute_import",
        "subprocess",
        "parse",
        "bugzilla",
        "contextlib",
        "io",
        "operator",
        "locale",
        "shutil",
        "rpm",
        "gpgme",
        "lzma",
        "queue",
        "const",
        "struct",
        "docutils",
        "tempfile",
        "errno",
        "curses",
        "json",
        "gettext",
        "re",
        "autoer",
        "collections",
        "print_function",
        "test",
        "md5",
        "unittest",
        "fcntl",
        "division",
        "stat",
        "sqlite3",
        "string",
        "warnings",
        "java",
        "glob",
        "inspect",
        "textwrap",
        "termios",
        "iniparse",
        "sys",
        "gzip",
        "pwd",
        "__builtin__",
        "compat",
        "hawkey",
        "path",
        "librepo",
        "copy",
        "types",
        "bz2",
        "argparse",
        "b",
        "keyword",
        "StringIO",
        "h",
        "signal",
        "importlib",
        "editutil",
        "threading",
        "itertools",
        "sha",
        "shlex",
        "time",
        "fnmatch",
        "urlparse",
        "os",
        "multiprocessing"
    ]
}