{
    "archive_url": "https://api.github.com/repos/sivel/speedtest-cli/{archive_format}{/ref}",
    "assignees_url": "https://api.github.com/repos/sivel/speedtest-cli/assignees{/user}",
    "blobs_url": "https://api.github.com/repos/sivel/speedtest-cli/git/blobs{/sha}",
    "branches_url": "https://api.github.com/repos/sivel/speedtest-cli/branches{/branch}",
    "clone_url": "https://github.com/sivel/speedtest-cli.git",
    "collaborators_url": "https://api.github.com/repos/sivel/speedtest-cli/collaborators{/collaborator}",
    "comments_url": "https://api.github.com/repos/sivel/speedtest-cli/comments{/number}",
    "commits_url": "https://api.github.com/repos/sivel/speedtest-cli/commits{/sha}",
    "compare_url": "https://api.github.com/repos/sivel/speedtest-cli/compare/{base}...{head}",
    "contents_url": "https://api.github.com/repos/sivel/speedtest-cli/contents/{+path}",
    "contributors_url": "https://api.github.com/repos/sivel/speedtest-cli/contributors",
    "created_at": "2012-09-10T19:17:53Z",
    "default_branch": "master",
    "description": "Command line interface for testing internet bandwidth using speedtest.net",
    "downloads_url": "https://api.github.com/repos/sivel/speedtest-cli/downloads",
    "events_url": "https://api.github.com/repos/sivel/speedtest-cli/events",
    "fork": false,
    "forks": 148,
    "forks_count": 148,
    "forks_url": "https://api.github.com/repos/sivel/speedtest-cli/forks",
    "full_name": "sivel/speedtest-cli",
    "git_commits_url": "https://api.github.com/repos/sivel/speedtest-cli/git/commits{/sha}",
    "git_refs_url": "https://api.github.com/repos/sivel/speedtest-cli/git/refs{/sha}",
    "git_tags_url": "https://api.github.com/repos/sivel/speedtest-cli/git/tags{/sha}",
    "git_url": "git://github.com/sivel/speedtest-cli.git",
    "has_downloads": true,
    "has_issues": true,
    "has_wiki": true,
    "homepage": null,
    "hooks_url": "https://api.github.com/repos/sivel/speedtest-cli/hooks",
    "html_url": "https://github.com/sivel/speedtest-cli",
    "id": 5754504,
    "issue_comment_url": "https://api.github.com/repos/sivel/speedtest-cli/issues/comments/{number}",
    "issue_events_url": "https://api.github.com/repos/sivel/speedtest-cli/issues/events{/number}",
    "issues_url": "https://api.github.com/repos/sivel/speedtest-cli/issues{/number}",
    "keys_url": "https://api.github.com/repos/sivel/speedtest-cli/keys{/key_id}",
    "labels_url": "https://api.github.com/repos/sivel/speedtest-cli/labels{/name}",
    "language": "Python",
    "languages_url": "https://api.github.com/repos/sivel/speedtest-cli/languages",
    "merges_url": "https://api.github.com/repos/sivel/speedtest-cli/merges",
    "milestones_url": "https://api.github.com/repos/sivel/speedtest-cli/milestones{/number}",
    "mirror_url": null,
    "name": "speedtest-cli",
    "notifications_url": "https://api.github.com/repos/sivel/speedtest-cli/notifications{?since,all,participating}",
    "open_issues": 4,
    "open_issues_count": 4,
    "owner": {
        "avatar_url": "https://avatars.githubusercontent.com/u/39340?",
        "events_url": "https://api.github.com/users/sivel/events{/privacy}",
        "followers_url": "https://api.github.com/users/sivel/followers",
        "following_url": "https://api.github.com/users/sivel/following{/other_user}",
        "gists_url": "https://api.github.com/users/sivel/gists{/gist_id}",
        "gravatar_id": "0cceb204e6cfa42aadee1fec717b1d2c",
        "html_url": "https://github.com/sivel",
        "id": 39340,
        "login": "sivel",
        "organizations_url": "https://api.github.com/users/sivel/orgs",
        "received_events_url": "https://api.github.com/users/sivel/received_events",
        "repos_url": "https://api.github.com/users/sivel/repos",
        "site_admin": false,
        "starred_url": "https://api.github.com/users/sivel/starred{/owner}{/repo}",
        "subscriptions_url": "https://api.github.com/users/sivel/subscriptions",
        "type": "User",
        "url": "https://api.github.com/users/sivel"
    },
    "private": false,
    "pulls_url": "https://api.github.com/repos/sivel/speedtest-cli/pulls{/number}",
    "pushed_at": "2014-04-30T14:10:07Z",
    "releases_url": "https://api.github.com/repos/sivel/speedtest-cli/releases{/id}",
    "score": 1.0,
    "size": 1254,
    "ssh_url": "git@github.com:sivel/speedtest-cli.git",
    "stargazers_count": 1154,
    "stargazers_url": "https://api.github.com/repos/sivel/speedtest-cli/stargazers",
    "statuses_url": "https://api.github.com/repos/sivel/speedtest-cli/statuses/{sha}",
    "subscribers_url": "https://api.github.com/repos/sivel/speedtest-cli/subscribers",
    "subscription_url": "https://api.github.com/repos/sivel/speedtest-cli/subscription",
    "svn_url": "https://github.com/sivel/speedtest-cli",
    "tags_url": "https://api.github.com/repos/sivel/speedtest-cli/tags",
    "teams_url": "https://api.github.com/repos/sivel/speedtest-cli/teams",
    "trees_url": "https://api.github.com/repos/sivel/speedtest-cli/git/trees{/sha}",
    "updated_at": "2014-05-07T04:49:32Z",
    "url": "https://api.github.com/repos/sivel/speedtest-cli",
    "watchers": 1154,
    "watchers_count": 1154
}