{
    "libs": [
        "management",
        "re",
        "os",
        "functools",
        "settings",
        "db",
        "contrib",
        "datetime",
        "sys",
        "test",
        "options",
        "exceptions",
        "translation",
        "copy",
        "widgets",
        "safestring"
    ]
}