[
    "views.vars",
    "forum.startup",
    "migrations.0002_auto__add_likedcomment__del_field_repute_positive__del_field_repute_ne",
    "forum.modules.decorators",
    "minrep",
    "forum.middleware.django_cookies",
    "forum.badges",
    "forum.migrations.0035_auto__del_field_award_object_id__del_field_award_content_type__add_uni",
    "0007_q_and_a_to_node",
    "pgfulltext.settings",
    "updates.urls",
    "forum.migrations.0029_repute_dates",
    "migrations.0009_convert_revisions",
    "migrations.0018_comments_to_node",
    "auth",
    "0030_auto__chg_field_action_extra__chg_field_keyvalue_value",
    "sphinxfulltext.dependencies",
    "oauthauth.lib.oauth2.httplib2.test.smoke_test",
    "templatetags.user_tags",
    "migrations.0003_repute_changes",
    "forum.settings.static",
    "httplib2.iri2uri",
    "migrations.0045_auto__add_openidassociation__add_openidnonce__add_field_tag_created_at",
    "0019_auto__del_likedcomment__del_comment__add_field_node_abs_parent__chg_fi",
    "0018_comments_to_node",
    "lib.oauth2.httplib2.test.brokensocket",
    "middleware.request_utils",
    "forum.views",
    "forum.models.action",
    "recaptcha.lib",
    "migrations.0004_auto__del_field_repute_negative__del_field_repute_positive__del_field_",
    "forum.utils.userlinking",
    "forum.migrations.0045_auto__add_openidassociation__add_openidnonce__add_field_tag_created_at",
    "forum.migrations.0026_reset_deleted_and_lastedited_flags",
    "repgain",
    "faq",
    "forum.migrations.0024_auto__del_repute__del_vote__del_answer__del_flaggeditem__del_anonymous",
    "forum.settings.minrep",
    "forum.views.writers",
    "updates.base",
    "updates",
    "mysqlfulltext.startup",
    "skins.default.tests.users_page",
    "forum.migrations.0003_repute_changes",
    "forum_modules.recaptcha.lib",
    "message_to_everyone",
    "0011_auto__add_field_node_active_revision",
    "0031_alter_pickle_storage",
    "forum_modules.oauthauth.consumer",
    "forum_modules.akismet",
    "oauth2.httplib2",
    "oauth2.httplib2.socks",
    "upload",
    "settings.upload",
    "settings.email",
    "0005_fill_accepted_by_field",
    "utils.lists",
    "qanda",
    "forum.migrations.0019_auto__del_likedcomment__del_comment__add_field_node_abs_parent__chg_fi",
    "modules.template_loader",
    "forum.views.decorators",
    "forum.migrations.0010_auto__del_questionrevision__del_answerrevision__del_field_answer_vote_",
    "migrations.0014_auto__add_field_question_accepted_answer",
    "models.action",
    "forum.settings.sidebar",
    "httplib2.test.test_no_socket",
    "utils.mail",
    "commands.module_command",
    "commands.test_ui",
    "oauth2.clients",
    "0044_markdown_cache_migration",
    "forum.feed",
    "brokensocket.socket",
    "oauth2.httplib2.test.miniserver",
    "extra_tags",
    "settings.sidebar",
    "user_tags",
    "forum.models.meta",
    "forum_modules.facebookauth.authentication",
    "migrations.0039_auto__del_field_tag_deleted__del_field_tag_deleted_by__del_field_tag_d",
    "forum_modules.default_badges.badges",
    "settings.minrep",
    "0027_auto__del_activity",
    "importer",
    "migrations.0020_create_absolute_parents",
    "forum.templatetags.general_sidebar_tags",
    "forum_modules.oauthauth.lib.oauth2.httplib2",
    "migrations.0040_auto__chg_field_nodestate_action__add_field_node_extra",
    "pgfulltext",
    "openidauth.authentication",
    "akismet.lib",
    "forum.migrations",
    "modules.decorators",
    "default_badges.settings",
    "settings.view",
    "models.tests.test_user",
    "skins.default.tests.faq_page",
    "forum_modules.project_badges",
    "forum.migrations.0002_auto__add_likedcomment__del_field_repute_positive__del_field_repute_ne",
    "forum",
    "handlers",
    "robotstxt",
    "migrations.0028_auto__add_field_action_canceled_ip__add_field_actionrepute_date",
    "_version",
    "forum.views.meta",
    "utils.decorators",
    "base",
    "django_cookies",
    "action",
    "oauthauth.consumer",
    "test.test_no_socket",
    "forum.templatetags.node_tags",
    "migrations.0048_zero_count_tags_fix",
    "test.miniserver",
    "views.auth",
    "0021_create_new_pg_fts_triggers",
    "migrations.0016_auto__del_field_question_answer_accepted__chg_field_question_node_ptr",
    "oauthauth.lib.oauth2.httplib2.iri2uri",
    "forum.markdownext.mdx_auto_linker",
    "management.commands.base_command",
    "ldapauth.settings",
    "management.commands.sample_command",
    "forum.migrations.0033_auto__add_flag__add_vote__add_field_badge_cls__del_unique_badge_type_n",
    "management.commands.create_extended_user",
    "test.smoke_test",
    "forum_modules",
    "middleware.extended_user",
    "migrations.0021_create_new_pg_fts_triggers",
    "pgfulltext.handlers",
    "migrations.0033_auto__add_flag__add_vote__add_field_badge_cls__del_unique_badge_type_n",
    "exporter.orm",
    "user_messages.context_processors",
    "tests.registration_login",
    "modules.ui",
    "forum.models.page",
    "migrations.0024_auto__del_repute__del_vote__del_answer__del_flaggeditem__del_anonymous",
    "forum.management",
    "sphinxfulltext.settings",
    "socket",
    "forum.migrations.0050_auto__chg_field_action_canceled_ip__chg_field_action_ip",
    "pagination",
    "migrations.0008_auto__add_noderevision__del_field_vote_object_id__del_field_vote_conte",
    "lib.oauth2",
    "forum.migrations.0017_auto__add_field_repute_node__add_field_repute_canceled",
    "forum_modules.mysqlfulltext",
    "forum.migrations.0040_auto__chg_field_nodestate_action__add_field_node_extra",
    "forum_modules.oauthauth.lib.oauth2.httplib2.test.functional.test_proxies",
    "tag",
    "migrations.0032_auto__del_field_user_hide_ignored_questions__del_field_user_questions_",
    "exporter.importer",
    "extended_user",
    "forum.views.admin",
    "sximporter.urls",
    "tests.tags_page",
    "sphinxfulltext.models",
    "faq_page",
    "smtp",
    "accept",
    "oauthauth.lib.oauth2.clients.imap",
    "captcha",
    "models.node",
    "migrations.0036_auto__add_nodestate__chg_field_award_action__add_field_node_state_stri",
    "forum_modules.sximporter.urls",
    "lib.oauth2.httplib2.test.functional",
    "forum.migrations.0041_action_ip_fixes",
    "forum.middleware",
    "akismet.lib.akismet",
    "forum.migrations.0030_auto__chg_field_action_extra__chg_field_keyvalue_value",
    "pgfulltext.startup",
    "forum.migrations.0004_auto__del_field_repute_negative__del_field_repute_positive__del_field_",
    "migrations.0027_auto__del_activity",
    "writers",
    "answer",
    "forum.migrations.0038_auto__del_field_node_wiki__del_field_node_deleted__del_field_node_extr",
    "settings.users",
    "actions.page",
    "forum_modules.sximporter.importer",
    "forum.actions.user",
    "forum_modules.oauthauth.lib.oauth2.clients.smtp",
    "settings.moderation",
    "forum.middleware.extended_user",
    "models.question",
    "forum.forms.general",
    "ui_objects",
    "forum.markdownext.mdx_limitedsyntax",
    "settings.accept",
    "commands.send_email_alerts",
    "openidauth.models",
    "node_tags",
    "models.page",
    "forum_modules.ldapauth.authentication",
    "settings.basic",
    "management.commands.render_bodies",
    "checkinstall",
    "updates.settings",
    "module_command",
    "extra_filters",
    "forum.models.tests.test_user",
    "forum_modules.exporter.importer",
    "test_user",
    "views.meta",
    "vars",
    "forum.templatetags.extra_tags",
    "forum_modules.updates.settings",
    "forum_modules.sximporter.views",
    "httplib2.test.brokensocket.socket",
    "forum.management.commands",
    "forum.skins.default.tests.users_page",
    "forum.settings.email",
    "forum_modules.recaptcha",
    "forum_modules.pgfulltext.settings",
    "forum_modules.mysqlfulltext.startup",
    "migrations.0023_flaten_node_inheritance_create_actions",
    "badges",
    "tests.users_page",
    "forum_modules.localauth.urls",
    "lib.oauth2.clients.smtp",
    "forms",
    "forum_modules.oauthauth.lib.oauth2.httplib2.test.test_no_socket",
    "test_ui",
    "html",
    "forum_modules.oauthauth.lib.oauth2.httplib2.test.functional",
    "0051_auto__chg_field_action_action_type",
    "mail",
    "facebookauth",
    "forum.views.readers",
    "migrations.0026_reset_deleted_and_lastedited_flags",
    "views",
    "migrations.0041_action_ip_fixes",
    "0026_reset_deleted_and_lastedited_flags",
    "project_badges",
    "forum.utils.time",
    "httplib2",
    "migrations.0015_accepted_answer_changes",
    "lib.oauth2.clients.imap",
    "markdownext.mdx_auto_linker",
    "settings",
    "management.commands.test_ui",
    "html2text",
    "forum_modules.akismet.settings",
    "lib.oauth2.httplib2",
    "forum.migrations.0025_auto__add_field_node_extra_action__add_field_node_deleted__add_field_n",
    "forum_modules.updates",
    "forum.models.utils",
    "forum.utils.html",
    "recaptcha",
    "skins",
    "meta",
    "static",
    "markdownext.mdx_settingsparser",
    "send_email_alerts",
    "recaptcha.settings",
    "management.commands.checkinstall",
    "lib.oauth2._version",
    "httplib2.test.functional.test_proxies",
    "forum.migrations.0031_alter_pickle_storage",
    "forum.templatetags.user_tags",
    "skins.default.tests.tags_page",
    "0048_zero_count_tags_fix",
    "updates.startup",
    "mdx_limitedsyntax",
    "0038_auto__del_field_node_wiki__del_field_node_deleted__del_field_node_extr",
    "forum.migrations.0015_accepted_answer_changes",
    "create_subscriptions",
    "forum_modules.openidauth",
    "forum_modules.pgfulltext",
    "utils.time",
    "0014_auto__add_field_question_accepted_answer",
    "forum.migrations.0018_comments_to_node",
    "oauthauth.lib.oauth2.httplib2.test.functional",
    "migrations.0010_auto__del_questionrevision__del_answerrevision__del_field_answer_vote_",
    "admin_messages",
    "0003_repute_changes",
    "settings.static",
    "forum_modules.sphinxfulltext.dependencies",
    "exporter.views",
    "views.users",
    "forum.admin",
    "test.brokensocket",
    "forum.settings.voting",
    "users",
    "middleware.admin_messages",
    "0036_auto__add_nodestate__chg_field_award_action__add_field_node_state_stri",
    "forum.migrations.0008_auto__add_noderevision__del_field_vote_object_id__del_field_vote_conte",
    "akismet.startup",
    "tags_page",
    "forms.admin",
    "settings.sitemaps",
    "userlinking",
    "0006_auto__add_node__add_field_vote_node__add_field_comment_node__add_field",
    "forum.migrations.0051_auto__chg_field_action_action_type",
    "forum.middleware.cancel",
    "forum_modules.oauthauth.lib.oauth2.httplib2.iri2uri",
    "forum_modules.sphinxfulltext.models",
    "localauth",
    "migrations.0011_auto__add_field_node_active_revision",
    "localauth.views",
    "clients.smtp",
    "forum_modules.oauthauth",
    "forum_modules.oauthauth.lib.oauth2.httplib2.test.brokensocket",
    "openidauth.settings",
    "email_tags",
    "utils.userlinking",
    "forum_modules.localauth.views",
    "middleware.cancel",
    "forum_modules.oauthauth.authentication",
    "sximporter.importer",
    "oauthauth.lib.oauth2.httplib2.test.miniserver",
    "forum_modules.project_badges.badges",
    "0029_repute_dates",
    "management",
    "forum.skins.default.tests.faq_page",
    "exporter.commands",
    "forum_modules.localauth.authentication",
    "settings.repgain",
    "commands.create_subscriptions",
    "forum.migrations.0021_create_new_pg_fts_triggers",
    "recaptcha.formfield",
    "forum_modules.exporter.startup",
    "forum_modules.localauth.forms",
    "akismet",
    "forum.skins.default.tests.registration_login",
    "forum_modules.pgfulltext.startup",
    "forum_modules.exporter",
    "oauth2.clients.imap",
    "models.user",
    "oauthauth.lib",
    "forum_modules.oauthauth.lib.oauth2.httplib2.test.brokensocket.socket",
    "migrations.0012_set_active_revision",
    "robotstxt.settings",
    "forum_modules.openidauth.authentication",
    "lists",
    "openidauth",
    "views.writers",
    "forum_modules.sximporter",
    "forum.migrations.0027_auto__del_activity",
    "forms.qanda",
    "forum.migrations.0012_set_active_revision",
    "actions.node",
    "clients",
    "forum.management.commands.create_extended_user",
    "lib.oauth2.httplib2.socks",
    "forum.forms.auth",
    "forum.actions.node",
    "forms.general",
    "store",
    "forum.migrations.0039_auto__del_field_tag_deleted__del_field_tag_deleted_by__del_field_tag_d",
    "oauthauth.lib.oauth2.clients",
    "forum.models.user",
    "forum.migrations.0001_initial",
    "0016_auto__del_field_question_answer_accepted__chg_field_question_node_ptr",
    "exporter.exporter",
    "0034_new_badge_and_award",
    "sphinxfulltext.handlers",
    "exporter.forms",
    "forum.models.node",
    "forum.settings.upload",
    "forum.utils.diff",
    "oauth2.httplib2.iri2uri",
    "default_badges",
    "httplib2.test.functional",
    "mappings",
    "forum.settings",
    "forum.authentication.base",
    "forum.markdownext",
    "create_extended_user",
    "forum.migrations.0009_convert_revisions",
    "management.commands.maintaindb",
    "forum_modules.ldapauth.settings",
    "iri2uri",
    "context_processors",
    "forum_modules.robotstxt.urls",
    "ui_registry",
    "0049_auto__chg_field_user_reputation",
    "forum_modules.sphinxfulltext.handlers",
    "sitemaps",
    "forum.migrations.0037_fill_node_state",
    "project_badges.settings",
    "middleware.custom_pages",
    "lib.oauth2.httplib2.test.test_no_socket",
    "robotstxt.urls",
    "migrations.0017_auto__add_field_repute_node__add_field_repute_canceled",
    "general_sidebar_tags",
    "forum_modules.exporter.exporter",
    "lib.oauth2.httplib2.test.smoke_test",
    "0041_action_ip_fixes",
    "0002_auto__add_likedcomment__del_field_repute_positive__del_field_repute_ne",
    "forum_modules.mysqlfulltext.models",
    "0035_auto__del_field_award_object_id__del_field_award_content_type__add_uni",
    "forum_modules.oauthauth.lib.oauth2.httplib2.socks",
    "templatetags.general_sidebar_tags",
    "forum.settings.forms",
    "0013_auto__del_anonymousquestion__del_anonymousanswer__add_anonymousnode",
    "voting",
    "forum.migrations.0005_fill_accepted_by_field",
    "0047_auto__del_field_subscriptionsettings_questions_asked__del_field_subscr",
    "forum.migrations.0028_auto__add_field_action_canceled_ip__add_field_actionrepute_date",
    "question_list_tags",
    "forum.migrations.0046_set_tag_dates",
    "forum.management.commands.checkinstall",
    "default.tests.tags_page",
    "oauthauth.lib.oauth2.httplib2.test.test_no_socket",
    "default_badges.badges",
    "httplib2.test",
    "commands.checkinstall",
    "forum.forms",
    "migrations.0031_alter_pickle_storage",
    "oauthauth.settings",
    "test.functional.test_proxies",
    "recaptcha.lib.captcha",
    "lib.oauth2.httplib2.test",
    "forum.settings.about",
    "forum_modules.project_badges.settings",
    "0022_auto__add_actionrepute__add_action__add_favoritenode__del_field_node_v",
    "test_no_socket",
    "management.commands.message_to_everyone",
    "forum.settings.faq",
    "forum.migrations.0022_auto__add_actionrepute__add_action__add_favoritenode__del_field_node_v",
    "httplib2.socks",
    "0033_auto__add_flag__add_vote__add_field_badge_cls__del_unique_badge_type_n",
    "lib.oauth2.httplib2.test.miniserver",
    "modules.ui_objects",
    "httplib2.test.brokensocket",
    "project_badges.badges",
    "migrations.0043_auto__add_field_subscriptionsettings_send_digest__add_field_action_rea",
    "oauthauth.lib.oauth2.httplib2.test.brokensocket.socket",
    "migrations.0049_auto__chg_field_user_reputation",
    "decorators",
    "settings.urls",
    "forum.management.commands.module_command",
    "forum.markdownext.mdx_settingsparser",
    "utils.diff",
    "forum.management.commands.test_ui",
    "migrations.0034_new_badge_and_award",
    "0024_auto__del_repute__del_vote__del_answer__del_flaggeditem__del_anonymous",
    "forum_modules.oauthauth.lib.oauth2._version",
    "feed",
    "management.commands",
    "view",
    "forum_modules.updates.urls",
    "render_bodies",
    "forum_modules.exporter.orm",
    "models.answer",
    "locale",
    "startup",
    "forum.templatetags.email_tags",
    "forum_modules.localauth",
    "forum.models.answer",
    "forum.models",
    "0015_accepted_answer_changes",
    "utils.djangofix",
    "0046_set_tag_dates",
    "models.utils",
    "commands.maintaindb",
    "markdownext",
    "oauthauth.lib.oauth2.clients.smtp",
    "migrations.0022_auto__add_actionrepute__add_action__add_favoritenode__del_field_node_v",
    "forum.skins.default.tests",
    "user",
    "migrations",
    "forum.templatetags.ui_registry",
    "lib.oauth2.httplib2.iri2uri",
    "migrations.0030_auto__chg_field_action_extra__chg_field_keyvalue_value",
    "forms.auth",
    "exporter.urls",
    "forum.migrations.0034_new_badge_and_award",
    "forum_modules.exporter.views",
    "oauthauth",
    "email",
    "mdx_settingsparser",
    "ldapauth",
    "forum_modules.oauthauth.lib.oauth2.clients",
    "httplib2.test.smoke_test",
    "forum.modules.ui",
    "forum.templatetags",
    "templatetags.email_tags",
    "forum_modules.akismet.startup",
    "commands",
    "forum.skins.default.tests.tags_page",
    "oauthauth.lib.oauth2.httplib2.test.functional.test_proxies",
    "forum.management.commands.send_email_alerts",
    "forum_modules.default_badges.settings",
    "forum_modules.akismet.lib.akismet",
    "oauth2.httplib2.test",
    "settings.forms",
    "localauth.urls",
    "forum.migrations.0006_auto__add_node__add_field_vote_node__add_field_comment_node__add_field",
    "context",
    "comment",
    "oauth2.httplib2.test.test_no_socket",
    "migrations.0013_auto__del_anonymousquestion__del_anonymousanswer__add_anonymousnode",
    "forum.management.commands.render_bodies",
    "httplib2.test.miniserver",
    "migrations.0042_auto__add_userproperty",
    "miniserver",
    "custom_pages",
    "diff",
    "oauth2",
    "views.commands",
    "forum.management.commands.create_subscriptions",
    "forum_modules.openidauth.settings",
    "forum.templatetags.extra_filters",
    "base_command",
    "oauth2._version",
    "forum.urls",
    "migrations.0025_auto__add_field_node_extra_action__add_field_node_deleted__add_field_n",
    "commands.message_to_everyone",
    "views.admin",
    "forum.modules.template_loader",
    "migrations.0001_initial",
    "moderation",
    "management.commands.send_email_alerts",
    "functional.test_proxies",
    "facebookauth.settings",
    "localauth.forms",
    "exporter.mappings",
    "forum.models.comment",
    "imap",
    "0020_create_absolute_parents",
    "forum.middleware.request_utils",
    "facebookauth.authentication",
    "lib.captcha",
    "models.tests",
    "tests.faq_page",
    "forum.utils.decorators",
    "admin",
    "forum_modules.openidauth.consumer",
    "forum.settings.sitemaps",
    "migrations.0044_markdown_cache_migration",
    "0040_auto__chg_field_nodestate_action__add_field_node_extra",
    "migrations.0050_auto__chg_field_action_canceled_ip__chg_field_action_ip",
    "exporter.settings",
    "forum.modules",
    "sximporter",
    "forum.migrations.0047_auto__del_field_subscriptionsettings_questions_asked__del_field_subscr",
    "utils",
    "0043_auto__add_field_subscriptionsettings_send_digest__add_field_action_rea",
    "forum.migrations.0036_auto__add_nodestate__chg_field_award_action__add_field_node_state_stri",
    "templatetags.question_list_tags",
    "sximporter.views",
    "forum.registry",
    "formfield",
    "forum.settings.basic",
    "0004_auto__del_field_repute_negative__del_field_repute_positive__del_field_",
    "forum_modules.mysqlfulltext.settings",
    "forum.badges.base",
    "0012_set_active_revision",
    "forum_modules.oauthauth.lib.oauth2",
    "0017_auto__add_field_repute_node__add_field_repute_canceled",
    "default.tests.faq_page",
    "0037_fill_node_state",
    "authentication",
    "0042_auto__add_userproperty",
    "utils.html2text",
    "lib.oauth2.httplib2.test.functional.test_proxies",
    "forum.models.tests",
    "forum.management.commands.maintaindb",
    "skins.default.tests.registration_login",
    "urls",
    "sphinxfulltext",
    "forum.migrations.0016_auto__del_field_question_answer_accepted__chg_field_question_node_ptr",
    "forum.migrations.0043_auto__add_field_subscriptionsettings_send_digest__add_field_action_rea",
    "clients.imap",
    "forum_modules.oauthauth.lib.oauth2.clients.imap",
    "forum.sitemap",
    "forum.migrations.0044_markdown_cache_migration",
    "akismet.settings",
    "forum.management.commands.sample_command",
    "lib",
    "forum.utils.djangofix",
    "forum.migrations.0007_q_and_a_to_node",
    "markdownext.mdx_limitedsyntax",
    "views.decorators",
    "forum.migrations.0032_auto__del_field_user_hide_ignored_questions__del_field_user_questions_",
    "forum.migrations.0014_auto__add_field_question_accepted_answer",
    "models.tag",
    "settings.extkeys",
    "forum_modules.exporter.urls",
    "oauth2.httplib2.test.smoke_test",
    "request_utils",
    "brokensocket",
    "actions",
    "forum_modules.oauthauth.lib",
    "forum.base",
    "anon_user",
    "dependencies",
    "settings.about",
    "forum_modules.exporter.commands",
    "sidebar",
    "templatetags.ui_registry",
    "oauthauth.lib.oauth2",
    "forum.forms.admin",
    "authentication.base",
    "readers",
    "http_responses",
    "forum_modules.recaptcha.settings",
    "templatetags.extra_tags",
    "settings.base",
    "actions.user",
    "default.tests.users_page",
    "forum_modules.oauthauth.settings",
    "tests",
    "manage",
    "mysqlfulltext.settings",
    "skins.default.tests",
    "migrations.0029_repute_dates",
    "forum_modules.robotstxt.settings",
    "templatetags.node_tags",
    "test",
    "forum.views.vars",
    "forum.user_messages",
    "updates.views",
    "migrations.0035_auto__del_field_award_object_id__del_field_award_content_type__add_uni",
    "forum.authentication",
    "forum.views.auth",
    "settings.voting",
    "forum.context",
    "oauthauth.lib.oauth2._version",
    "forum.management.commands.message_to_everyone",
    "forum.http_responses",
    "forum.settings.extkeys",
    "forum.utils.lists",
    "badges.base",
    "forum.actions",
    "openidauth.consumer",
    "forum.settings.accept",
    "forum_modules.exporter.mappings",
    "tests.test_user",
    "forum_modules.recaptcha.formfield",
    "forum.migrations.0049_auto__chg_field_user_reputation",
    "page",
    "0023_flaten_node_inheritance_create_actions",
    "forum.actions.meta",
    "smart_if",
    "templatetags.smart_if",
    "0028_auto__add_field_action_canceled_ip__add_field_actionrepute_date",
    "ldapauth.authentication",
    "forum.migrations.0048_zero_count_tags_fix",
    "models.meta",
    "forum.subscriptions",
    "migrations.0006_auto__add_node__add_field_vote_node__add_field_comment_node__add_field",
    "forum.middleware.anon_user",
    "mysqlfulltext.models",
    "oauthauth.lib.oauth2.httplib2",
    "basic",
    "forum_modules.sphinxfulltext",
    "forum_modules.akismet.lib",
    "forum_modules.recaptcha.handlers",
    "templatetags",
    "migrations.0038_auto__del_field_node_wiki__del_field_node_deleted__del_field_node_extr",
    "forum.settings.users",
    "forum.forms.qanda",
    "models.base",
    "forum_modules.updates.base",
    "user_messages",
    "subscriptions",
    "locale.phrases",
    "test.brokensocket.socket",
    "forum_modules.recaptcha.lib.captcha",
    "forum.settings.form",
    "middleware.anon_user",
    "views.readers",
    "forum_modules.robotstxt",
    "default.tests.registration_login",
    "utils.html",
    "0045_auto__add_openidassociation__add_openidnonce__add_field_tag_created_at",
    "about",
    "migrations.0007_q_and_a_to_node",
    "forum.models.tag",
    "migrations.0046_set_tag_dates",
    "management.commands.module_command",
    "forum_modules.ldapauth",
    "forum.views.commands",
    "forum_modules.sphinxfulltext.settings",
    "sitemap",
    "templatetags.extra_filters",
    "0001_initial",
    "0008_auto__add_noderevision__del_field_vote_object_id__del_field_vote_conte",
    "0050_auto__chg_field_action_canceled_ip__chg_field_action_ip",
    "forum.utils.mail",
    "oauthauth.lib.oauth2.httplib2.socks",
    "template_loader",
    "oauthauth.lib.oauth2.httplib2.test",
    "test_proxies",
    "forum.settings.moderation",
    "functional",
    "socks",
    "forum_modules.facebookauth.settings",
    "orm",
    "settings.faq",
    "oauth2.httplib2.test.functional.test_proxies",
    "commands.render_bodies",
    "middleware.django_cookies",
    "0032_auto__del_field_user_hide_ignored_questions__del_field_user_questions_",
    "forum.settings.repgain",
    "forum.settings.base",
    "migrations.0047_auto__del_field_subscriptionsettings_questions_asked__del_field_subscr",
    "forum.templatetags.question_list_tags",
    "oauth2.httplib2.test.brokensocket.socket",
    "phrases",
    "question",
    "forum.migrations.0011_auto__add_field_node_active_revision",
    "forum.user_messages.context_processors",
    "exporter.startup",
    "cancel",
    "migrations.0037_fill_node_state",
    "forum.skins",
    "djangofix",
    "forum_modules.exporter.settings",
    "form",
    "forum_modules.oauthauth.lib.oauth2.httplib2.test.miniserver",
    "commands.create_extended_user",
    "forum.utils.pagination",
    "users_page",
    "oauth2.httplib2.test.brokensocket",
    "forum.migrations.0042_auto__add_userproperty",
    "forum.models.base",
    "forum.settings.urls",
    "forum_modules.oauthauth.lib.oauth2.httplib2.test.smoke_test",
    "migrations.0005_fill_accepted_by_field",
    "mdx_auto_linker",
    "commands.base_command",
    "forum_modules.default_badges",
    "default",
    "middleware",
    "forum.templatetags.smart_if",
    "lib.oauth2.httplib2.test.brokensocket.socket",
    "forum.migrations.0020_create_absolute_parents",
    "default.tests",
    "ui",
    "registration_login",
    "forum.middleware.custom_pages",
    "settings.form",
    "forum.utils.html2text",
    "forum.utils",
    "0009_convert_revisions",
    "0010_auto__del_questionrevision__del_answerrevision__del_field_answer_vote_",
    "oauthauth.authentication",
    "modules",
    "forum.management.commands.base_command",
    "management.commands.create_subscriptions",
    "0025_auto__add_field_node_extra_action__add_field_node_deleted__add_field_n",
    "general",
    "forum.middleware.admin_messages",
    "forum_modules.facebookauth",
    "forum.actions.page",
    "forum.views.users",
    "forum.modules.ui_objects",
    "smoke_test",
    "forum_modules.pgfulltext.handlers",
    "forum_modules.oauthauth.lib.oauth2.httplib2.test",
    "actions.meta",
    "commands.sample_command",
    "extkeys",
    "0039_auto__del_field_tag_deleted__del_field_tag_deleted_by__del_field_tag_d",
    "forum_modules.updates.views",
    "forum_modules.openidauth.store",
    "migrations.0019_auto__del_likedcomment__del_comment__add_field_node_abs_parent__chg_fi",
    "lib.oauth2.clients",
    "node",
    "sample_command",
    "exporter",
    "forum_modules.exporter.forms",
    "utils.pagination",
    "models",
    "lib.akismet",
    "forum.settings.view",
    "forum.migrations.0023_flaten_node_inheritance_create_actions",
    "forum_modules.updates.startup",
    "forum.skins.default",
    "recaptcha.handlers",
    "forum.migrations.0013_auto__del_anonymousquestion__del_anonymousanswer__add_anonymousnode",
    "registry",
    "maintaindb",
    "test.functional",
    "forum_modules.openidauth.models",
    "openidauth.store",
    "migrations.0051_auto__chg_field_action_action_type",
    "consumer",
    "localauth.authentication",
    "oauth2.clients.smtp",
    "oauthauth.lib.oauth2.httplib2.test.brokensocket",
    "skins.default",
    "oauth2.httplib2.test.functional",
    "mysqlfulltext",
    "time",
    "forum.models.question",
    "models.comment"
]