{
    "archive_url": "https://api.github.com/repos/whit537/assertEquals/{archive_format}{/ref}",
    "assignees_url": "https://api.github.com/repos/whit537/assertEquals/assignees{/user}",
    "blobs_url": "https://api.github.com/repos/whit537/assertEquals/git/blobs{/sha}",
    "branches_url": "https://api.github.com/repos/whit537/assertEquals/branches{/branch}",
    "clone_url": "https://github.com/whit537/assertEquals.git",
    "collaborators_url": "https://api.github.com/repos/whit537/assertEquals/collaborators{/collaborator}",
    "comments_url": "https://api.github.com/repos/whit537/assertEquals/comments{/number}",
    "commits_url": "https://api.github.com/repos/whit537/assertEquals/commits{/sha}",
    "compare_url": "https://api.github.com/repos/whit537/assertEquals/compare/{base}...{head}",
    "contents_url": "https://api.github.com/repos/whit537/assertEquals/contents/{+path}",
    "contributors_url": "https://api.github.com/repos/whit537/assertEquals/contributors",
    "created_at": "2012-03-29T03:23:20Z",
    "default_branch": "master",
    "description": "An epic testing interface for Python",
    "downloads_url": "https://api.github.com/repos/whit537/assertEquals/downloads",
    "events_url": "https://api.github.com/repos/whit537/assertEquals/events",
    "fork": false,
    "forks": 2,
    "forks_count": 2,
    "forks_url": "https://api.github.com/repos/whit537/assertEquals/forks",
    "full_name": "whit537/assertEquals",
    "git_commits_url": "https://api.github.com/repos/whit537/assertEquals/git/commits{/sha}",
    "git_refs_url": "https://api.github.com/repos/whit537/assertEquals/git/refs{/sha}",
    "git_tags_url": "https://api.github.com/repos/whit537/assertEquals/git/tags{/sha}",
    "git_url": "git://github.com/whit537/assertEquals.git",
    "has_downloads": true,
    "has_issues": true,
    "has_wiki": true,
    "homepage": "",
    "hooks_url": "https://api.github.com/repos/whit537/assertEquals/hooks",
    "html_url": "https://github.com/whit537/assertEquals",
    "id": 3862240,
    "issue_comment_url": "https://api.github.com/repos/whit537/assertEquals/issues/comments/{number}",
    "issue_events_url": "https://api.github.com/repos/whit537/assertEquals/issues/events{/number}",
    "issues_url": "https://api.github.com/repos/whit537/assertEquals/issues{/number}",
    "keys_url": "https://api.github.com/repos/whit537/assertEquals/keys{/key_id}",
    "labels_url": "https://api.github.com/repos/whit537/assertEquals/labels{/name}",
    "language": "Python",
    "languages_url": "https://api.github.com/repos/whit537/assertEquals/languages",
    "merges_url": "https://api.github.com/repos/whit537/assertEquals/merges",
    "milestones_url": "https://api.github.com/repos/whit537/assertEquals/milestones{/number}",
    "mirror_url": null,
    "name": "assertEquals",
    "notifications_url": "https://api.github.com/repos/whit537/assertEquals/notifications{?since,all,participating}",
    "open_issues": 0,
    "open_issues_count": 0,
    "owner": {
        "avatar_url": "https://avatars.githubusercontent.com/u/134455?",
        "events_url": "https://api.github.com/users/whit537/events{/privacy}",
        "followers_url": "https://api.github.com/users/whit537/followers",
        "following_url": "https://api.github.com/users/whit537/following{/other_user}",
        "gists_url": "https://api.github.com/users/whit537/gists{/gist_id}",
        "gravatar_id": "fb054b407a6461e417ee6b6ae084da37",
        "html_url": "https://github.com/whit537",
        "id": 134455,
        "login": "whit537",
        "organizations_url": "https://api.github.com/users/whit537/orgs",
        "received_events_url": "https://api.github.com/users/whit537/received_events",
        "repos_url": "https://api.github.com/users/whit537/repos",
        "site_admin": false,
        "starred_url": "https://api.github.com/users/whit537/starred{/owner}{/repo}",
        "subscriptions_url": "https://api.github.com/users/whit537/subscriptions",
        "type": "User",
        "url": "https://api.github.com/users/whit537"
    },
    "private": false,
    "pulls_url": "https://api.github.com/repos/whit537/assertEquals/pulls{/number}",
    "pushed_at": "2013-06-19T12:23:53Z",
    "releases_url": "https://api.github.com/repos/whit537/assertEquals/releases{/id}",
    "score": 1.0,
    "size": 283,
    "ssh_url": "git@github.com:whit537/assertEquals.git",
    "stargazers_count": 48,
    "stargazers_url": "https://api.github.com/repos/whit537/assertEquals/stargazers",
    "statuses_url": "https://api.github.com/repos/whit537/assertEquals/statuses/{sha}",
    "subscribers_url": "https://api.github.com/repos/whit537/assertEquals/subscribers",
    "subscription_url": "https://api.github.com/repos/whit537/assertEquals/subscription",
    "svn_url": "https://github.com/whit537/assertEquals",
    "tags_url": "https://api.github.com/repos/whit537/assertEquals/tags",
    "teams_url": "https://api.github.com/repos/whit537/assertEquals/teams",
    "trees_url": "https://api.github.com/repos/whit537/assertEquals/git/trees{/sha}",
    "updated_at": "2014-04-27T21:09:00Z",
    "url": "https://api.github.com/repos/whit537/assertEquals",
    "watchers": 48,
    "watchers_count": 48
}