{
    "archive_url": "https://api.github.com/repos/UCB-ICSI-Vision-Group/decaf-release/{archive_format}{/ref}",
    "assignees_url": "https://api.github.com/repos/UCB-ICSI-Vision-Group/decaf-release/assignees{/user}",
    "blobs_url": "https://api.github.com/repos/UCB-ICSI-Vision-Group/decaf-release/git/blobs{/sha}",
    "branches_url": "https://api.github.com/repos/UCB-ICSI-Vision-Group/decaf-release/branches{/branch}",
    "clone_url": "https://github.com/UCB-ICSI-Vision-Group/decaf-release.git",
    "collaborators_url": "https://api.github.com/repos/UCB-ICSI-Vision-Group/decaf-release/collaborators{/collaborator}",
    "comments_url": "https://api.github.com/repos/UCB-ICSI-Vision-Group/decaf-release/comments{/number}",
    "commits_url": "https://api.github.com/repos/UCB-ICSI-Vision-Group/decaf-release/commits{/sha}",
    "compare_url": "https://api.github.com/repos/UCB-ICSI-Vision-Group/decaf-release/compare/{base}...{head}",
    "contents_url": "https://api.github.com/repos/UCB-ICSI-Vision-Group/decaf-release/contents/{+path}",
    "contributors_url": "https://api.github.com/repos/UCB-ICSI-Vision-Group/decaf-release/contributors",
    "created_at": "2013-10-21T00:23:01Z",
    "default_branch": "master",
    "description": "Decaf is DEPRECATED! Please visit http://caffe.berkeleyvision.org/ for Caffe, the new framework that has all the good things: GPU computation, full train/test scripts, native C++, and an active community!",
    "downloads_url": "https://api.github.com/repos/UCB-ICSI-Vision-Group/decaf-release/downloads",
    "events_url": "https://api.github.com/repos/UCB-ICSI-Vision-Group/decaf-release/events",
    "fork": false,
    "forks": 61,
    "forks_count": 61,
    "forks_url": "https://api.github.com/repos/UCB-ICSI-Vision-Group/decaf-release/forks",
    "full_name": "UCB-ICSI-Vision-Group/decaf-release",
    "git_commits_url": "https://api.github.com/repos/UCB-ICSI-Vision-Group/decaf-release/git/commits{/sha}",
    "git_refs_url": "https://api.github.com/repos/UCB-ICSI-Vision-Group/decaf-release/git/refs{/sha}",
    "git_tags_url": "https://api.github.com/repos/UCB-ICSI-Vision-Group/decaf-release/git/tags{/sha}",
    "git_url": "git://github.com/UCB-ICSI-Vision-Group/decaf-release.git",
    "has_downloads": true,
    "has_issues": true,
    "has_wiki": true,
    "homepage": "",
    "hooks_url": "https://api.github.com/repos/UCB-ICSI-Vision-Group/decaf-release/hooks",
    "html_url": "https://github.com/UCB-ICSI-Vision-Group/decaf-release",
    "id": 13729551,
    "issue_comment_url": "https://api.github.com/repos/UCB-ICSI-Vision-Group/decaf-release/issues/comments/{number}",
    "issue_events_url": "https://api.github.com/repos/UCB-ICSI-Vision-Group/decaf-release/issues/events{/number}",
    "issues_url": "https://api.github.com/repos/UCB-ICSI-Vision-Group/decaf-release/issues{/number}",
    "keys_url": "https://api.github.com/repos/UCB-ICSI-Vision-Group/decaf-release/keys{/key_id}",
    "labels_url": "https://api.github.com/repos/UCB-ICSI-Vision-Group/decaf-release/labels{/name}",
    "language": "Python",
    "languages_url": "https://api.github.com/repos/UCB-ICSI-Vision-Group/decaf-release/languages",
    "merges_url": "https://api.github.com/repos/UCB-ICSI-Vision-Group/decaf-release/merges",
    "milestones_url": "https://api.github.com/repos/UCB-ICSI-Vision-Group/decaf-release/milestones{/number}",
    "mirror_url": null,
    "name": "decaf-release",
    "notifications_url": "https://api.github.com/repos/UCB-ICSI-Vision-Group/decaf-release/notifications{?since,all,participating}",
    "open_issues": 2,
    "open_issues_count": 2,
    "owner": {
        "avatar_url": "https://avatars.githubusercontent.com/u/913791?",
        "events_url": "https://api.github.com/users/UCB-ICSI-Vision-Group/events{/privacy}",
        "followers_url": "https://api.github.com/users/UCB-ICSI-Vision-Group/followers",
        "following_url": "https://api.github.com/users/UCB-ICSI-Vision-Group/following{/other_user}",
        "gists_url": "https://api.github.com/users/UCB-ICSI-Vision-Group/gists{/gist_id}",
        "gravatar_id": "1ab44bd302a8981196ebc54e7b192ecf",
        "html_url": "https://github.com/UCB-ICSI-Vision-Group",
        "id": 913791,
        "login": "UCB-ICSI-Vision-Group",
        "organizations_url": "https://api.github.com/users/UCB-ICSI-Vision-Group/orgs",
        "received_events_url": "https://api.github.com/users/UCB-ICSI-Vision-Group/received_events",
        "repos_url": "https://api.github.com/users/UCB-ICSI-Vision-Group/repos",
        "site_admin": false,
        "starred_url": "https://api.github.com/users/UCB-ICSI-Vision-Group/starred{/owner}{/repo}",
        "subscriptions_url": "https://api.github.com/users/UCB-ICSI-Vision-Group/subscriptions",
        "type": "Organization",
        "url": "https://api.github.com/users/UCB-ICSI-Vision-Group"
    },
    "private": false,
    "pulls_url": "https://api.github.com/repos/UCB-ICSI-Vision-Group/decaf-release/pulls{/number}",
    "pushed_at": "2014-02-11T04:10:22Z",
    "releases_url": "https://api.github.com/repos/UCB-ICSI-Vision-Group/decaf-release/releases{/id}",
    "score": 1.0,
    "size": 11059,
    "ssh_url": "git@github.com:UCB-ICSI-Vision-Group/decaf-release.git",
    "stargazers_count": 113,
    "stargazers_url": "https://api.github.com/repos/UCB-ICSI-Vision-Group/decaf-release/stargazers",
    "statuses_url": "https://api.github.com/repos/UCB-ICSI-Vision-Group/decaf-release/statuses/{sha}",
    "subscribers_url": "https://api.github.com/repos/UCB-ICSI-Vision-Group/decaf-release/subscribers",
    "subscription_url": "https://api.github.com/repos/UCB-ICSI-Vision-Group/decaf-release/subscription",
    "svn_url": "https://github.com/UCB-ICSI-Vision-Group/decaf-release",
    "tags_url": "https://api.github.com/repos/UCB-ICSI-Vision-Group/decaf-release/tags",
    "teams_url": "https://api.github.com/repos/UCB-ICSI-Vision-Group/decaf-release/teams",
    "trees_url": "https://api.github.com/repos/UCB-ICSI-Vision-Group/decaf-release/git/trees{/sha}",
    "updated_at": "2014-04-28T02:27:37Z",
    "url": "https://api.github.com/repos/UCB-ICSI-Vision-Group/decaf-release",
    "watchers": 113,
    "watchers_count": 113
}