{
    "libs": [
        "cStringIO",
        "b",
        "unittest",
        "time",
        "datetime",
        "sys",
        "re",
        "nose",
        "tokenize",
        "path"
    ]
}