{
    "libs": [
        "random",
        "datetime",
        "atexit",
        "contextlib",
        "array",
        "shutil",
        "_evwsgi",
        "bz2",
        "tempfile",
        "errno",
        "fapws",
        "json",
        "collections",
        "csv",
        "numpy",
        "simple_server",
        "cPickle",
        "optparse",
        "urllib2",
        "sys",
        "webbrowser",
        "argparse",
        "b",
        "logging",
        "socket",
        "util",
        "multiprocessing",
        "urlparse",
        "itertools",
        "gzip",
        "os",
        "marshal"
    ]
}