{
    "libs": [
        "os",
        "distutils",
        "unittest",
        "random",
        "subprocess",
        "atexit",
        "io",
        "psutil",
        "operator",
        "shutil",
        "web",
        "copy",
        "pkgutil",
        "grp",
        "platform",
        "tempfile",
        "pprint",
        "adapters",
        "re",
        "json",
        "version",
        "exceptions",
        "getp",
        "netifaces",
        "log",
        "stat",
        "sched",
        "optparse",
        "inspect",
        "urllib2",
        "sys",
        "ssl",
        "pwd",
        "pika",
        "imp",
        "credentials",
        "datetime",
        "ConfigParser",
        "M2Crypto",
        "Queue",
        "b",
        "logging",
        "socket",
        "StringIO",
        "h",
        "signal",
        "traceback",
        "uuid",
        "queue",
        "threading",
        "select_connection",
        "t",
        "time",
        "restful_lib",
        "urlparse",
        "pickle"
    ]
}