[
    "joblib.test.test_format_stack",
    "test_func_inspect",
    "test_memory",
    "my_exceptions",
    "joblib._compat",
    "func_inspect",
    "joblib.pool",
    "test.test_parallel",
    "parallel_memmap",
    "joblib.test.test_disk",
    "disk",
    "joblib.test.test_logger",
    "joblib.format_stack",
    "test_numpy_pickle",
    "_multiprocessing_helpers",
    "parallel_numpy_fixture",
    "format_stack",
    "doc.conf",
    "joblib.test.common",
    "sphinxext.phantom_import",
    "autosummary",
    "memory",
    "logger",
    "doc.sphinxext.docscrape_sphinx",
    "phantom_import",
    "testing",
    "sphinxext.docscrape_sphinx",
    "joblib.func_inspect",
    "sphinxext.docscrape",
    "sphinx_pypi_upload",
    "joblib._multiprocessing_helpers",
    "joblib.test.test_my_exceptions",
    "test_parallel",
    "sphinxext",
    "docscrape_sphinx",
    "doc.sphinxext.autosummary_generate",
    "sphinxext.autosummary",
    "test_hashing",
    "test.test_format_stack",
    "test_disk",
    "numpy_pickle",
    "joblib.test.test_hashing",
    "joblib.logger",
    "joblib.test.test_func_inspect",
    "test.test_memory",
    "joblib.disk",
    "joblib.numpy_pickle",
    "examples",
    "conf",
    "joblib.test.test_pool",
    "doc.sphinxext.phantom_import",
    "test.test_my_exceptions",
    "test_my_exceptions",
    "joblib.hashing",
    "doc.sphinxext.autosummary",
    "test.test_func_inspect",
    "test.common",
    "test.test_logger",
    "joblib.test",
    "examples.parallel_memmap",
    "test",
    "joblib.test.test_parallel",
    "autosummary_generate",
    "test.test_pool",
    "test.test_hashing",
    "common",
    "joblib.test.test_memory",
    "test.test_numpy_pickle",
    "joblib.memory",
    "doc.sphinxext.docscrape",
    "doc.parallel_numpy_fixture",
    "docscrape",
    "doc.sphinxext.numpydoc",
    "joblib",
    "sphinxext.autosummary_generate",
    "test_logger",
    "joblib.test.test_numpy_pickle",
    "joblib.my_exceptions",
    "parallel",
    "pool",
    "hashing",
    "sphinxext.numpydoc",
    "joblib.parallel",
    "doc",
    "_compat",
    "numpydoc",
    "joblib.testing",
    "test_pool",
    "test_format_stack",
    "test.test_disk",
    "doc.sphinxext"
]