{
    "archive_url": "https://api.github.com/repos/tjfontaine/linode-python/{archive_format}{/ref}",
    "assignees_url": "https://api.github.com/repos/tjfontaine/linode-python/assignees{/user}",
    "blobs_url": "https://api.github.com/repos/tjfontaine/linode-python/git/blobs{/sha}",
    "branches_url": "https://api.github.com/repos/tjfontaine/linode-python/branches{/branch}",
    "clone_url": "https://github.com/tjfontaine/linode-python.git",
    "collaborators_url": "https://api.github.com/repos/tjfontaine/linode-python/collaborators{/collaborator}",
    "comments_url": "https://api.github.com/repos/tjfontaine/linode-python/comments{/number}",
    "commits_url": "https://api.github.com/repos/tjfontaine/linode-python/commits{/sha}",
    "compare_url": "https://api.github.com/repos/tjfontaine/linode-python/compare/{base}...{head}",
    "contents_url": "https://api.github.com/repos/tjfontaine/linode-python/contents/{+path}",
    "contributors_url": "https://api.github.com/repos/tjfontaine/linode-python/contributors",
    "created_at": "2010-08-05T16:38:26Z",
    "default_branch": "master",
    "description": "Linode API Python Bindings",
    "downloads_url": "https://api.github.com/repos/tjfontaine/linode-python/downloads",
    "events_url": "https://api.github.com/repos/tjfontaine/linode-python/events",
    "fork": false,
    "forks": 22,
    "forks_count": 22,
    "forks_url": "https://api.github.com/repos/tjfontaine/linode-python/forks",
    "full_name": "tjfontaine/linode-python",
    "git_commits_url": "https://api.github.com/repos/tjfontaine/linode-python/git/commits{/sha}",
    "git_refs_url": "https://api.github.com/repos/tjfontaine/linode-python/git/refs{/sha}",
    "git_tags_url": "https://api.github.com/repos/tjfontaine/linode-python/git/tags{/sha}",
    "git_url": "git://github.com/tjfontaine/linode-python.git",
    "has_downloads": true,
    "has_issues": true,
    "has_wiki": true,
    "homepage": "http://www.linode.com/api",
    "hooks_url": "https://api.github.com/repos/tjfontaine/linode-python/hooks",
    "html_url": "https://github.com/tjfontaine/linode-python",
    "id": 819566,
    "issue_comment_url": "https://api.github.com/repos/tjfontaine/linode-python/issues/comments/{number}",
    "issue_events_url": "https://api.github.com/repos/tjfontaine/linode-python/issues/events{/number}",
    "issues_url": "https://api.github.com/repos/tjfontaine/linode-python/issues{/number}",
    "keys_url": "https://api.github.com/repos/tjfontaine/linode-python/keys{/key_id}",
    "labels_url": "https://api.github.com/repos/tjfontaine/linode-python/labels{/name}",
    "language": "Python",
    "languages_url": "https://api.github.com/repos/tjfontaine/linode-python/languages",
    "merges_url": "https://api.github.com/repos/tjfontaine/linode-python/merges",
    "milestones_url": "https://api.github.com/repos/tjfontaine/linode-python/milestones{/number}",
    "mirror_url": null,
    "name": "linode-python",
    "notifications_url": "https://api.github.com/repos/tjfontaine/linode-python/notifications{?since,all,participating}",
    "open_issues": 3,
    "open_issues_count": 3,
    "owner": {
        "avatar_url": "https://avatars.githubusercontent.com/u/146447?",
        "events_url": "https://api.github.com/users/tjfontaine/events{/privacy}",
        "followers_url": "https://api.github.com/users/tjfontaine/followers",
        "following_url": "https://api.github.com/users/tjfontaine/following{/other_user}",
        "gists_url": "https://api.github.com/users/tjfontaine/gists{/gist_id}",
        "gravatar_id": "5b0065d5124e5a0fb38e0e7dc998e094",
        "html_url": "https://github.com/tjfontaine",
        "id": 146447,
        "login": "tjfontaine",
        "organizations_url": "https://api.github.com/users/tjfontaine/orgs",
        "received_events_url": "https://api.github.com/users/tjfontaine/received_events",
        "repos_url": "https://api.github.com/users/tjfontaine/repos",
        "site_admin": false,
        "starred_url": "https://api.github.com/users/tjfontaine/starred{/owner}{/repo}",
        "subscriptions_url": "https://api.github.com/users/tjfontaine/subscriptions",
        "type": "User",
        "url": "https://api.github.com/users/tjfontaine"
    },
    "private": false,
    "pulls_url": "https://api.github.com/repos/tjfontaine/linode-python/pulls{/number}",
    "pushed_at": "2013-04-24T01:31:19Z",
    "releases_url": "https://api.github.com/repos/tjfontaine/linode-python/releases{/id}",
    "score": 1.0,
    "size": 451,
    "ssh_url": "git@github.com:tjfontaine/linode-python.git",
    "stargazers_count": 98,
    "stargazers_url": "https://api.github.com/repos/tjfontaine/linode-python/stargazers",
    "statuses_url": "https://api.github.com/repos/tjfontaine/linode-python/statuses/{sha}",
    "subscribers_url": "https://api.github.com/repos/tjfontaine/linode-python/subscribers",
    "subscription_url": "https://api.github.com/repos/tjfontaine/linode-python/subscription",
    "svn_url": "https://github.com/tjfontaine/linode-python",
    "tags_url": "https://api.github.com/repos/tjfontaine/linode-python/tags",
    "teams_url": "https://api.github.com/repos/tjfontaine/linode-python/teams",
    "trees_url": "https://api.github.com/repos/tjfontaine/linode-python/git/trees{/sha}",
    "updated_at": "2014-01-02T21:14:08Z",
    "url": "https://api.github.com/repos/tjfontaine/linode-python",
    "watchers": 98,
    "watchers_count": 98
}