[
    "postfix_autoreply.models",
    "extensions.admin.migrations.0017_set_permissions",
    "migrations.0021_default_superadmin_ownership",
    "amavis_tags",
    "0020_rename_amavis_ext",
    "extensions.webmail.lib.utils",
    "admin.migrations.0020_rename_amavis_ext",
    "modoboa.extensions.admin.migrations.0005_increase_columns_length",
    "postfix_autoreply.management.commands",
    "extensions.admin.views",
    "admin.migrations.0015_move_passwords",
    "extensions.admin.migrations.0028_auto__chg_field_mailbox_quota",
    "amavis.migrations",
    "extensions.admin.migrations.0014_auto__add_unique_domain_name",
    "migrations.0022_auto__del_field_mailbox_uid__del_field_mailbox_gid__del_field_mailbox_",
    "modoboa.extensions.admin.forms.export",
    "extensions.limits.urls",
    "modoboa.extensions.admin.tests.domain_alias",
    "0037_rename_tables",
    "modoboa.extensions.limits.urls",
    "webmail.general_callbacks",
    "modoboa.extensions.admin.forms.alias",
    "0026_set_quota_mbox",
    "extensions.stats",
    "modoboa.extensions.admin.forms.forward",
    "modoboa.extensions.admin.tests.import_",
    "modoboa.extensions.amavis.general_callbacks",
    "modoboa.extensions.amavis.management.commands.qcleanup",
    "postfix_relay_domains.tests",
    "lib.signals",
    "account",
    "core.urls",
    "migrations.0007_auto__del_field_alias_full_address__chg_field_alias_address__del_field",
    "extensions.admin.forms.forward",
    "modoboa.core.templatetags",
    "modoboa",
    "webmail.templatetags",
    "forms.export",
    "webmail_tags",
    "webmail.lib.fetch_parser",
    "0024_create_quotas",
    "extensions.admin.views.export",
    "admin.tests.export",
    "0021_default_superadmin_ownership",
    "fetch_parser",
    "admin.migrations.0030_update_permissions",
    "admin.management.commands",
    "core.models",
    "modoboa.extensions.admin.migrations.0012_fill_object_dates",
    "dbutils",
    "views.import",
    "admin.views.domain",
    "admin.migrations.0022_auto__del_field_mailbox_uid__del_field_mailbox_gid__del_field_mailbox_",
    "admin.management.commands.handle_mailbox_operations",
    "templatetags.core_tags",
    "modoboa.lib.models",
    "0014_auto__add_unique_domain_name",
    "extensions.amavis.migrations.0001_initial",
    "admin.migrations.0001_initial",
    "admin.urls",
    "stats.urls",
    "admin.views.user",
    "modoboa.extensions.admin.tests.domain",
    "extensions.admin.migrations.0008_update_mailbox_path",
    "webmail.lib.listing",
    "compat",
    "modoboa.extensions.admin.migrations.0037_rename_tables",
    "extensions.amavis.views",
    "migrations.0002_auto__add_armessage__add_arhistoric",
    "lib.migrations.0002_move_secret_key",
    "webmail.lib.tables",
    "modoboa.extensions.webmail.templatetags.webmail_tags",
    "limits_callbacks",
    "modoboa.lib.dbutils",
    "extensions.admin.migrations.0032_auto__chg_field_quota_bytes",
    "domain_alias",
    "migrations.0003_create_domalias_records",
    "extensions.admin.views.user",
    "extensions.admin.migrations.0027_auto__add_field_mailbox_use_domain_quota",
    "modoboa.lib.migrations.0005_rename_table",
    "modoboa.extensions.limits.lib",
    "lib.dbutils",
    "modoboa.extensions.webmail.lib.utils",
    "migrations.0036_auto__add_mailboxoperation",
    "extensions.sievefilters.test",
    "modoboa.extensions.postfix_relay_domains.limits_callbacks",
    "core.password_hashers.base",
    "dbrouter",
    "core.app_settings",
    "modoboa.extensions.webmail.general_callbacks",
    "0035_set_local_flag",
    "extensions.admin.lib",
    "modoboa.core.commands",
    "modoboa.extensions.amavis.urls",
    "modoboa.extensions.webmail.lib.listing",
    "postfix_autoreply.migrations.0002_auto__add_armessage__add_arhistoric",
    "modoboa.extensions.admin.tests.account",
    "extensions.postfix_autoreply.views",
    "sievefilters.forms",
    "extensions.admin.migrations.0023_auto__add_quota",
    "lib.utils",
    "amavis",
    "stats.lib",
    "modoboa.extensions.sievefilters.test",
    "lib.authbackends",
    "password_hashers.base",
    "migrations.0003_auto__chg_field_arhistoric_sender",
    "admin.migrations.0027_auto__add_field_mailbox_use_domain_quota",
    "extensions.webmail",
    "modoboa.extensions.amavis.models",
    "amavis.views",
    "modoboa.extensions.postfix_autoreply",
    "views.auth",
    "0002_create_records",
    "admin.migrations.0035_set_local_flag",
    "modoboa.extensions.admin.migrations.0020_rename_amavis_ext",
    "amavis.app_settings",
    "lib.singleton",
    "limits.migrations",
    "modoboa.tools.pfxadmin_migrate.models",
    "migrations.0004_add_permissions",
    "extensions.limits.migrations",
    "extensions.postfix_autoreply.migrations.0005_auto__add_field_armessage_fromdate",
    "bin.modoboa-admin",
    "modoboa.extensions.webmail.lib.signature",
    "doc.conf",
    "extensions.admin.models.alias",
    "extensions.admin.tests.alias",
    "modoboa.extensions.admin.models.domain_alias",
    "modoboa.extensions.postfix_autoreply.migrations.0006_auto__chg_field_armessage_untildate",
    "extensions.webmail.lib.fetch_parser",
    "commands.logparser",
    "lib.templatetags",
    "extensions.admin.templatetags",
    "extensions.postfix_autoreply.management.commands",
    "modoboa.lib.tables",
    "modoboa.lib.migrations.0004_auto__add_log__chg_field_userparameter_user",
    "extensions.admin.migrations.0015_move_passwords",
    "modoboa.extensions.admin.migrations.0026_set_quota_mbox",
    "webmail.lib",
    "modoboa.extensions.admin.templatetags",
    "core.management.commands.cleanlogs",
    "extensions.postfix_autoreply.general_callbacks",
    "factories",
    "extensions.stats.general_callbacks",
    "modoboa.extensions.postfix_autoreply.models",
    "webmail.lib.imapheader",
    "amnotify",
    "0009_auto__add_field_alias_extmboxes",
    "modoboa.extensions.webmail.app_settings",
    "modoboa.extensions.admin.migrations.0003_auto__add_extension",
    "core.loggers",
    "lib.sendmail",
    "extensions.postfix_autoreply.migrations",
    "lib.fetch_parser",
    "extensions.amavis.migrations.0002_create_records",
    "modoboa.core.management.commands",
    "postfix_relay_domains.factories",
    "modoboa.extensions.admin.tests.export",
    "models.alias",
    "models.domain_alias",
    "tests.export",
    "exceptions",
    "extensions.limits.lib",
    "extensions.admin.factories",
    "modoboa.extensions.amavis.migrations.0001_initial",
    "extensions.limits.migrations.0003_auto__chg_field_limitspool_user",
    "extensions.postfix_autoreply.models",
    "extensions.admin.models.mailbox",
    "webmail.lib.imaputils",
    "admin.templatetags.admin_tags",
    "modoboa.extensions.admin.migrations.0002_auto__del_field_alias_mbox",
    "postfix_relay_domains.forms",
    "modoboa.extensions.webmail.exceptions",
    "0027_auto__add_field_mailbox_use_domain_quota",
    "extensions.admin.templatetags.admin_tags",
    "0005_rename_table",
    "modoboa.core.tables",
    "modoboa.lib.templatetags.lib_tags",
    "postfix_relay_domains.lib",
    "extensions.amavis.app_settings",
    "admin.migrations.0037_rename_tables",
    "sfilters_tags",
    "amavis.dbrouter",
    "extensions.postfix_relay_domains.forms",
    "0031_auto__add_aliases_to_alias",
    "modoboa.core.password_hashers.base",
    "modoboa.lib",
    "modoboa.extensions.postfix_relay_domains.urls",
    "extensions.stats.lib",
    "modoboa.extensions.limits.migrations.0003_auto__chg_field_limitspool_user",
    "modoboa.extensions.webmail.lib.attachments",
    "postfix_relay_domains.app_settings",
    "webmail.lib.attachments",
    "webmail.lib.signature",
    "0032_auto__chg_field_quota_bytes",
    "loggers",
    "extensions.limits.tests",
    "extensions.admin.migrations.0024_create_quotas",
    "migrations.0009_auto__add_field_alias_extmboxes",
    "migrations.0025_auto__add_field_quota_mbox",
    "modoboa.extensions.admin",
    "admin.migrations.0010_fill_alias_domain",
    "admin.migrations.0019_set_default_group",
    "lib.migrations.0003_clean_parameters",
    "admin.templatetags",
    "postfix_autoreply.migrations.0004_auto__add_unique_arhistoric_sender_armessage",
    "admin.models.domain",
    "0002_move_secret_key",
    "admin.models.domain_alias",
    "modoboa.extensions.admin.forms.account",
    "extensions.postfix_autoreply.migrations.0003_auto__chg_field_arhistoric_sender",
    "admin.migrations.0016_auto__add_objectaccess__add_unique_objectaccess_user_content_type_obje",
    "modoboa.tools.pfxadmin_migrate",
    "lib.tests",
    "core.views.auth",
    "alias",
    "migrations.0019_set_default_group",
    "0004_auto__add_log__chg_field_userparameter_user",
    "modoboa.extensions.admin.forms.domain",
    "sievefilters.app_settings",
    "extensions.postfix_autoreply.management",
    "tests.account",
    "logparser",
    "views.domain",
    "help",
    "modoboa.lib.singleton",
    "modoboa.extensions.admin.views.identity",
    "modoboa.core.views.admin",
    "modoboa.lib.ldaputils",
    "modoboa.extensions.webmail.templatetags",
    "extensions.admin.migrations.0004_add_permissions",
    "modoboa.extensions.admin.migrations.0029_auto__add_user__chg_field_mailbox_user__chg_field_objectaccess_user",
    "extensions.postfix_autoreply.app_settings",
    "modoboa.extensions.amavis.lib",
    "admin.factories",
    "modoboa.extensions.amavis",
    "modoboa.lib.webutils",
    "modoboa.core.factories",
    "postfix_autoreply.migrations",
    "extensions.admin.migrations.0019_set_default_group",
    "admin.tests.password_schemes",
    "lib.compat",
    "modoboa.extensions.admin.app_settings",
    "migrations.0018_auto__add_unique_alias_domain_address",
    "modoboa.core.views",
    "modoboa.extensions.amavis.app_settings",
    "modoboa.extensions.stats.graphics",
    "extensions.webmail.lib.imaputils",
    "modoboa.extensions.admin.migrations.0025_auto__add_field_quota_mbox",
    "extensions.webmail.exceptions",
    "admin.tests.import_",
    "modoboa.lib.tests",
    "extensions.webmail.templatetags.webmail_tags",
    "tests.domain",
    "admin.views",
    "views",
    "core.commands",
    "extensions.admin.migrations",
    "admin.views.alias",
    "extensions.amavis.lib",
    "lib.cryptutils",
    "modoboa.extensions.admin.management",
    "0022_auto__del_field_mailbox_uid__del_field_mailbox_gid__del_field_mailbox_",
    "stats.management.commands.logparser",
    "modoboa.extensions.amavis.management.commands",
    "permissions",
    "postfix_relay_domains.models",
    "0002_auto__del_field_alias_mbox",
    "0013_update_mailbox_path",
    "extensions.limits.app_settings",
    "modoboa.extensions.admin.migrations.0004_add_permissions",
    "modoboa.extensions.admin.migrations.0030_update_permissions",
    "amavis.templatetags",
    "migrate",
    "admin.views.identity",
    "modoboa.extensions.limits.migrations.0002_update_user_foreign_key",
    "extensions.admin.forms.domain",
    "modoboa.extensions.admin.migrations.0007_auto__del_field_alias_full_address__chg_field_alias_address__del_field",
    "modoboa.extensions.postfix_autoreply.migrations.0001_initial",
    "modoboa.lib.compat",
    "modoboa.extensions.amavis.views",
    "domain",
    "modoboa.lib.migrations",
    "extensions.admin.tests.user",
    "attachments",
    "postfix_autoreply.views",
    "0033_auto__chg_field_mailbox_address__chg_field_quota_username",
    "modoboa.lib.migrations.0001_initial",
    "admin.forms.forward",
    "extensions.sievefilters.general_callbacks",
    "postfix_relay_domains.amavis_callbacks",
    "modoboa.core.migrations",
    "modoboa.extensions.admin.views.alias",
    "amavis.management.commands",
    "migrations.0014_auto__add_unique_domain_name",
    "modoboa.core.templatetags.core_tags",
    "amavis.general_callbacks",
    "password_schemes",
    "0003_auto__chg_field_limitspool_user",
    "admin.models",
    "0016_auto__add_objectaccess__add_unique_objectaccess_user_content_type_obje",
    "modoboa.extensions.admin.migrations.0011_auto__add_objectdates__add_field_domain_dates__add_field_domainalias_d",
    "extensions.stats.management.commands",
    "0017_set_permissions",
    "autoreply",
    "pfxadmin_migrate.models",
    "core.tests",
    "extensions.admin.migrations.0016_auto__add_objectaccess__add_unique_objectaccess_user_content_type_obje",
    "extensions.admin.migrations.0007_auto__del_field_alias_full_address__chg_field_alias_address__del_field",
    "modoboa.extensions.limits",
    "extensions.postfix_relay_domains.views",
    "modoboa.extensions.postfix_relay_domains.factories",
    "modoboa.extensions.limits.models",
    "amavis.lib",
    "limits.forms",
    "modoboa.extensions.postfix_relay_domains.forms",
    "sendmail",
    "admin.tests.account",
    "extensions.limits.views",
    "modoboa.extensions.postfix_relay_domains.models",
    "modoboa.extensions.postfix_autoreply.management",
    "core.management.commands",
    "base",
    "modoboa.core.views.user",
    "extensions.admin.tests.import_",
    "demo.views",
    "extensions.admin.views.import",
    "stats.views",
    "extensions.admin.migrations.0033_auto__chg_field_mailbox_address__chg_field_quota_username",
    "lib.imapemail",
    "extensions.sievefilters.urls",
    "lib.listing",
    "modoboa.extensions.postfix_autoreply.tests",
    "extensions.admin.migrations.0003_auto__add_extension",
    "management.commands",
    "admin.migrations.0036_auto__add_mailboxoperation",
    "admin.migrations",
    "extensions.amavis.dbrouter",
    "0003_update_md5crypt_passwords",
    "modoboa.extensions.admin.migrations.0024_create_quotas",
    "modoboa.extensions.postfix_relay_domains.amavis_callbacks",
    "extensions.admin.migrations.0025_auto__add_field_quota_mbox",
    "signature",
    "extensions.sievefilters.forms",
    "tests.alias",
    "extensions.admin.migrations.0012_fill_object_dates",
    "auth",
    "migrations.0004_auto__chg_field_user_password",
    "extensions.sievefilters.lib",
    "admin.migrations.0017_set_permissions",
    "modoboa.extensions.admin.migrations.0008_update_mailbox_path",
    "webmail.lib.utils",
    "migrations.0013_update_mailbox_path",
    "modoboa.extensions.admin.tables",
    "amavis.models",
    "0007_auto__del_field_alias_full_address__chg_field_alias_address__del_field",
    "modoboa.extensions.admin.models.alias",
    "admin.forms",
    "core.password_hashers.advanced",
    "modoboa.extensions.admin.forms",
    "0028_auto__chg_field_mailbox_quota",
    "lib.imap_utf7",
    "modoboa.extensions.amavis.migrations",
    "management",
    "forms.alias",
    "modoboa.extensions.admin.migrations.0010_fill_alias_domain",
    "management.commands.autoreply",
    "modoboa.extensions.sievefilters.templatetags",
    "extensions.amavis.general_callbacks",
    "postfix_autoreply.management",
    "models.mailbox",
    "admin.migrations.0008_update_mailbox_path",
    "identity",
    "modoboa.extensions.limits.views",
    "templatetags.lib_tags",
    "email_listing",
    "modoboa.extensions.amavis.dbrouter",
    "modoboa.extensions.amavis.migrations.0003_create_domalias_records",
    "modoboa.extensions.sievefilters.forms",
    "modoboa.extensions.admin.migrations.0028_auto__chg_field_mailbox_quota",
    "lib.webutils",
    "modoboa.extensions.stats.general_callbacks",
    "tests.domain_alias",
    "core.views.admin",
    "migrations.0003_auto__chg_field_limitspool_user",
    "formutils",
    "postfix_autoreply.forms",
    "extensions.postfix_relay_domains.urls",
    "extensions.postfix_relay_domains",
    "amavis.forms",
    "imaputils",
    "admin.migrations.0011_auto__add_objectdates__add_field_domain_dates__add_field_domainalias_d",
    "extensions.postfix_relay_domains.models",
    "extensions.admin.migrations.0037_rename_tables",
    "extensions.admin.migrations.0001_initial",
    "migrations.0003_clean_parameters",
    "extensions.admin.migrations.0036_auto__add_mailboxoperation",
    "admin.migrations.0034_auto__add_field_user_is_local",
    "limits.migrations.0003_auto__chg_field_limitspool_user",
    "core.password_hashers",
    "0003_auto__chg_field_arhistoric_sender",
    "modoboa.lib.middleware",
    "0005_auto__add_field_armessage_fromdate",
    "modoboa.extensions.webmail.lib.fetch_parser",
    "views.user",
    "modoboa.extensions.postfix_autoreply.migrations.0004_auto__add_unique_arhistoric_sender_armessage",
    "extensions.admin.tests.password_schemes",
    "extensions.webmail.lib",
    "admin.migrations.0031_auto__add_aliases_to_alias",
    "admin.views.export",
    "0004_add_permissions",
    "amavis.migrations.0003_create_domalias_records",
    "modoboa.extensions.admin.migrations.0035_set_local_flag",
    "core.templatetags.core_tags",
    "admin.views.import",
    "extensions.admin.tests.export",
    "extensions.admin.migrations.0006_auto__add_domainalias",
    "extensions.admin.views.domain",
    "admin.migrations.0032_auto__chg_field_quota_bytes",
    "extensions.postfix_relay_domains.lib",
    "extensions.admin",
    "admin.migrations.0018_auto__add_unique_alias_domain_address",
    "modoboa.demo.urls",
    "extensions.webmail.templatetags",
    "lib",
    "lib.migrations",
    "webutils",
    "postfix_relay_domains.views",
    "extensions.sievefilters.templatetags",
    "ldaputils",
    "modoboa.extensions.admin.migrations.0036_auto__add_mailboxoperation",
    "extensions.postfix_relay_domains.app_settings",
    "lib.attachments",
    "admin.tests.domain_alias",
    "extensions.postfix_autoreply.migrations.0004_auto__add_unique_arhistoric_sender_armessage",
    "modoboa.core.models",
    "management.commands.handle_mailbox_operations",
    "tools.pfxadmin_migrate",
    "admin.forms.alias",
    "deploy",
    "modoboa.extensions.postfix_relay_domains",
    "extensions.admin.migrations.0035_set_local_flag",
    "sievefilters.templatetags",
    "migrations.0006_auto__add_domainalias",
    "tests.import_",
    "admin.tests.user",
    "migrations.0012_fill_object_dates",
    "modoboa.lib.sysutils",
    "forms.domain",
    "extensions.admin.migrations.0005_increase_columns_length",
    "migrations.0033_auto__chg_field_mailbox_address__chg_field_quota_username",
    "extensions.sievefilters.views",
    "admin.forms.import_",
    "doc",
    "migrations.0023_auto__add_quota",
    "extensions.amavis.management.commands",
    "modoboa.extensions.postfix_autoreply.app_settings",
    "modoboa.extensions.admin.migrations.0006_auto__add_domainalias",
    "modoboa.extensions.stats.management",
    "extensions",
    "modoboa.extensions.admin.models",
    "extensions.amavis",
    "tests.password_schemes",
    "extensions.limits",
    "postfix_autoreply.migrations.0003_auto__chg_field_arhistoric_sender",
    "qcleanup",
    "extensions.webmail.general_callbacks",
    "migrations.0002_create_records",
    "extensions.admin.migrations.0009_auto__add_field_alias_extmboxes",
    "lib.migrations.0001_initial",
    "core.tables",
    "extensions.webmail.lib.imapheader",
    "management.commands.qcleanup",
    "extensions.admin.management",
    "webmail.views",
    "extensions.postfix_relay_domains.amavis_callbacks",
    "core.migrations.0003_update_md5crypt_passwords",
    "parameters",
    "admin.app_settings",
    "modoboa.extensions.admin.lib",
    "extensions.stats.management",
    "modoboa.extensions.admin.views",
    "extensions.admin.models.domain_alias",
    "controls",
    "modoboa.extensions.webmail.lib.imapheader",
    "admin_tags",
    "sievefilters.test",
    "modoboa.extensions.amavis.migrations.0002_create_records",
    "commands.cleanlogs",
    "modoboa.extensions.webmail.urls",
    "modoboa.extensions.admin.migrations.0009_auto__add_field_alias_extmboxes",
    "extensions.amavis.templatetags",
    "modoboa.extensions.amavis.forms",
    "pfxadmin_migrate",
    "admin.management",
    "modoboa.extensions.sievefilters.urls",
    "modoboa.core.migrations.0003_update_md5crypt_passwords",
    "admin.migrations.0005_increase_columns_length",
    "modoboa.extensions.admin.views.export",
    "extensions.limits.controls",
    "limits.urls",
    "modoboa.extensions.stats.management.commands.logparser",
    "u2u_decode",
    "sievefilters.urls",
    "modoboa.extensions.admin.tests.password_schemes",
    "modoboa.extensions.admin.migrations.0001_initial",
    "admin.migrations.0007_auto__del_field_alias_full_address__chg_field_alias_address__del_field",
    "0002_auto__add_armessage__add_arhistoric",
    "lib.tables",
    "postfix_autoreply",
    "lib.migrations.0006_move_parameters",
    "0019_set_default_group",
    "extensions.admin.forms.import_",
    "extensions.stats.views",
    "amavis.migrations.0001_initial",
    "extensions.admin.tests",
    "lib.u2u_decode",
    "migrations.0024_create_quotas",
    "migrations.0005_auto__add_field_armessage_fromdate",
    "tests.install_from_scratch",
    "modoboa.demo",
    "connections",
    "admin.models.base",
    "extensions.amavis.urls",
    "imapheader",
    "extensions.webmail.lib.sendmail",
    "modoboa.core",
    "limits.lib",
    "modoboa.extensions.postfix_relay_domains.tests",
    "extensions.webmail.lib.attachments",
    "extensions.admin.app_settings",
    "stats",
    "extensions.postfix_autoreply.management.commands.autoreply",
    "modoboa.lib.migrations.0003_clean_parameters",
    "modoboa.extensions.admin.migrations.0013_update_mailbox_path",
    "migrations",
    "stats.general_callbacks",
    "templatetags.sfilters_tags",
    "0034_auto__add_field_user_is_local",
    "webmail.exceptions",
    "extensions.admin.forms",
    "import",
    "modoboa.extensions.postfix_autoreply.management.commands",
    "extensions.amavis.migrations",
    "modoboa.extensions.admin.views.import",
    "extensions.admin.forms.alias",
    "migrations.0034_auto__add_field_user_is_local",
    "migrations.0035_set_local_flag",
    "stats.graphics",
    "0003_clean_parameters",
    "modoboa-admin",
    "amavis.migrations.0002_create_records",
    "mailbox",
    "core.migrations.0002_update_permissions",
    "cryptutils",
    "migrations.0003_auto__add_extension",
    "core.templatetags",
    "modoboa.extensions.admin.views.domain",
    "extensions.webmail.views",
    "commands",
    "limits",
    "extensions.stats.app_settings",
    "admin",
    "postfix_autoreply.general_callbacks",
    "0029_auto__add_user__chg_field_mailbox_user__chg_field_objectaccess_user",
    "extensions.postfix_autoreply.forms",
    "sql_listing",
    "extensions.webmail.lib.tables",
    "urls",
    "admin.migrations.0026_set_quota_mbox",
    "forms.import_",
    "extensions.amavis.management.commands.qcleanup",
    "lib.imaputils",
    "extensions.stats.management.commands.logparser",
    "0030_update_permissions",
    "admin.models.mailbox",
    "modoboa.core.commands.postfix_maps",
    "postfix_relay_domains.limits_callbacks",
    "commands.amnotify",
    "modoboa.extensions.postfix_autoreply.general_callbacks",
    "extensions.webmail.forms",
    "extensions.amavis.migrations.0003_create_domalias_records",
    "migrations.0016_auto__add_objectaccess__add_unique_objectaccess_user_content_type_obje",
    "modoboa.lib.permissions",
    "sievefilters.templatetags.sfilters_tags",
    "lib.models",
    "extensions.sievefilters.app_settings",
    "extensions.webmail.lib.imapemail",
    "modoboa.extensions",
    "modoboa.extensions.stats.lib",
    "extensions.admin.migrations.0011_auto__add_objectdates__add_field_domain_dates__add_field_domainalias_d",
    "modoboa.extensions.admin.urls",
    "forms",
    "extensions.postfix_autoreply.tests",
    "modoboa.extensions.sievefilters.templatetags.sfilters_tags",
    "migrations.0002_update_permissions",
    "modoboa.extensions.postfix_autoreply.migrations.0002_auto__add_armessage__add_arhistoric",
    "modoboa.core.management.commands.cleanlogs",
    "extensions.admin.forms.export",
    "modoboa.extensions.webmail.lib",
    "extensions.limits.migrations.0001_initial",
    "migrations.0032_auto__chg_field_quota_bytes",
    "migrations.0004_auto__add_unique_arhistoric_sender_armessage",
    "views.admin",
    "modoboa.lib.cryptutils",
    "modoboa.core.app_settings",
    "general_callbacks",
    "extensions.admin.migrations.0010_fill_alias_domain",
    "0006_auto__chg_field_armessage_untildate",
    "listing",
    "migrations.0001_initial",
    "extensions.admin.migrations.0029_auto__add_user__chg_field_mailbox_user__chg_field_objectaccess_user",
    "migrations.0027_auto__add_field_mailbox_use_domain_quota",
    "modoboa.extensions.admin.migrations",
    "graphics",
    "webmail.templatetags.webmail_tags",
    "admin.migrations.0012_fill_object_dates",
    "modoboa.extensions.stats.management.commands",
    "admin.migrations.0004_add_permissions",
    "extensions.postfix_relay_domains.limits_callbacks",
    "modoboa.extensions.sievefilters.lib",
    "modoboa.extensions.admin.migrations.0016_auto__add_objectaccess__add_unique_objectaccess_user_content_type_obje",
    "modoboa.core.tests",
    "modoboa.lib.authbackends",
    "lib.emailutils",
    "modoboa.extensions.limits.migrations.0001_initial",
    "management.commands.logparser",
    "modoboa.core.views.auth",
    "extensions.admin.migrations.0002_auto__del_field_alias_mbox",
    "sievefilters.lib",
    "modoboa.extensions.limits.forms",
    "lib_tags",
    "modoboa.extensions.webmail.lib.imaputils",
    "modoboa.extensions.admin.migrations.0032_auto__chg_field_quota_bytes",
    "modoboa.extensions.stats.views",
    "lib.signature",
    "limits.controls",
    "modoboa.extensions.sievefilters.general_callbacks",
    "extensions.amavis.management",
    "migrations.0017_set_permissions",
    "demo",
    "modoboa.extensions.admin.views.user",
    "modoboa.extensions.amavis.templatetags",
    "core.views.user",
    "admin.migrations.0006_auto__add_domainalias",
    "modoboa.extensions.postfix_relay_domains.views",
    "migrations.0002_auto__del_field_alias_mbox",
    "conf",
    "extensions.admin.tables",
    "commands.autoreply",
    "modoboa.extensions.admin.migrations.0021_default_superadmin_ownership",
    "modoboa.extensions.admin.migrations.0017_set_permissions",
    "admin.migrations.0009_auto__add_field_alias_extmboxes",
    "postfix_autoreply.migrations.0001_initial",
    "migrations.0037_rename_tables",
    "modoboa.core.commands.deploy",
    "extensions.admin.migrations.0026_set_quota_mbox",
    "modoboa.lib.emailutils",
    "core.migrations",
    "extensions.admin.migrations.0013_update_mailbox_path",
    "limits.general_callbacks",
    "events",
    "extensions.limits.general_callbacks",
    "password_hashers.advanced",
    "modoboa.core.commands.help",
    "extensions.admin.tests.domain_alias",
    "0011_auto__add_objectdates__add_field_domain_dates__add_field_domainalias_d",
    "0010_fill_alias_domain",
    "0008_update_mailbox_path",
    "modoboa.extensions.postfix_autoreply.views",
    "install_from_scratch",
    "user",
    "limits.migrations.0002_update_user_foreign_key",
    "amavis.management",
    "extensions.admin.tests.account",
    "amavis.management.commands.amnotify",
    "modoboa.extensions.admin.migrations.0023_auto__add_quota",
    "modoboa.extensions.admin.models.domain",
    "import_",
    "0004_auto__chg_field_user_password",
    "modoboa.extensions.limits.app_settings",
    "lib.templatetags.lib_tags",
    "commands.qcleanup",
    "modoboa.extensions.webmail.lib.sendmail",
    "migrations.0004_auto__add_log__chg_field_userparameter_user",
    "modoboa.extensions.limits.tests",
    "extensions.postfix_autoreply.migrations.0002_auto__add_armessage__add_arhistoric",
    "stats.management.commands",
    "core.commands.deploy",
    "admin.lib",
    "extensions.postfix_relay_domains.tests",
    "amavis.management.commands.qcleanup",
    "migrations.0003_update_md5crypt_passwords",
    "tools.pfxadmin_migrate.migrate",
    "commands.help",
    "core.views",
    "admin.migrations.0028_auto__chg_field_mailbox_quota",
    "modoboa.extensions.admin.migrations.0018_auto__add_unique_alias_domain_address",
    "modoboa.core.forms",
    "core.migrations.0001_initial",
    "modoboa.core.migrations.0004_auto__chg_field_user_password",
    "lib.parameters",
    "core.commands.help",
    "migrations.0008_update_mailbox_path",
    "extensions.admin.models",
    "0036_auto__add_mailboxoperation",
    "commands.postfix_maps",
    "0023_auto__add_quota",
    "migrations.0002_move_secret_key",
    "lib.ldaputils",
    "tables",
    "postfix_autoreply.migrations.0006_auto__chg_field_armessage_untildate",
    "lib.migrations.0004_auto__add_log__chg_field_userparameter_user",
    "modoboa.lib.migrations.0006_move_parameters",
    "signals",
    "management.commands.amnotify",
    "amavis.templatetags.amavis_tags",
    "demo.urls",
    "modoboa.extensions.sievefilters.app_settings",
    "modoboa.extensions.webmail.views",
    "modoboa.extensions.admin.migrations.0033_auto__chg_field_mailbox_address__chg_field_quota_username",
    "stats.app_settings",
    "modoboa.extensions.postfix_relay_domains.general_callbacks",
    "bin",
    "extensions.postfix_relay_domains.factories",
    "tests",
    "extensions.webmail.lib.signature",
    "extensions.admin.models.base",
    "extensions.admin.migrations.0030_update_permissions",
    "postfix_relay_domains",
    "modoboa.extensions.admin.models.mailbox",
    "extensions.admin.views.identity",
    "core.migrations.0004_auto__chg_field_user_password",
    "core.commands.postfix_maps",
    "0006_move_parameters",
    "modoboa.extensions.postfix_autoreply.management.commands.autoreply",
    "modoboa.extensions.limits.controls",
    "modoboa.extensions.stats.app_settings",
    "admin.forms.account",
    "lib.permissions",
    "modoboa.lib.migrations.0002_move_secret_key",
    "advanced",
    "extensions.amavis.templatetags.amavis_tags",
    "modoboa.extensions.amavis.management",
    "webmail.lib.imapemail",
    "modoboa.extensions.postfix_relay_domains.lib",
    "migrations.0028_auto__chg_field_mailbox_quota",
    "extensions.admin.tests.domain",
    "core.forms",
    "modoboa.extensions.postfix_autoreply.migrations.0005_auto__add_field_armessage_fromdate",
    "postfix_autoreply.management.commands.autoreply",
    "migrations.0006_move_parameters",
    "views.identity",
    "migrations.0006_auto__chg_field_armessage_untildate",
    "modoboa.lib.events",
    "webmail.app_settings",
    "webmail.forms",
    "admin.migrations.0003_auto__add_extension",
    "sysutils",
    "modoboa.tools.pfxadmin_migrate.migrate",
    "modoboa.extensions.admin.migrations.0031_auto__add_aliases_to_alias",
    "modoboa.lib.signals",
    "emailutils",
    "0003_create_domalias_records",
    "extensions.admin.migrations.0020_rename_amavis_ext",
    "postfix_relay_domains.urls",
    "lib.migrations.0005_rename_table",
    "modoboa.extensions.amavis.management.commands.amnotify",
    "imap_utf7",
    "modoboa.extensions.admin.tests.alias",
    "extensions.admin.models.domain",
    "modoboa.extensions.webmail",
    "extensions.admin.migrations.0018_auto__add_unique_alias_domain_address",
    "admin.migrations.0023_auto__add_quota",
    "app_settings",
    "modoboa.lib.connections",
    "admin.migrations.0033_auto__chg_field_mailbox_address__chg_field_quota_username",
    "modoboa.extensions.limits.general_callbacks",
    "lib.connections",
    "modoboa.extensions.admin.factories",
    "modoboa.extensions.amavis.templatetags.amavis_tags",
    "migrations.0011_auto__add_objectdates__add_field_domain_dates__add_field_domainalias_d",
    "core.management",
    "webmail.lib.sendmail",
    "templatetags",
    "modoboa.extensions.postfix_relay_domains.app_settings",
    "templatetags.amavis_tags",
    "templatetags.admin_tags",
    "modoboa.urls",
    "modoboa.core.loggers",
    "modoboa.extensions.stats",
    "extensions.postfix_relay_domains.general_callbacks",
    "0005_increase_columns_length",
    "models.base",
    "modoboa.lib.parameters",
    "limits.views",
    "sievefilters.views",
    "core",
    "password_hashers",
    "modoboa.core.urls",
    "stats.management",
    "handle_mailbox_operations",
    "migrations.0005_increase_columns_length",
    "modoboa.core.extensions",
    "extensions.postfix_autoreply.migrations.0006_auto__chg_field_armessage_untildate",
    "migrations.0010_fill_alias_domain",
    "extensions.postfix_autoreply.migrations.0001_initial",
    "modoboa.extensions.webmail.lib.tables",
    "extensions.sievefilters.templatetags.sfilters_tags",
    "0003_auto__add_extension",
    "views.export",
    "modoboa.tools",
    "core_tags",
    "0012_fill_object_dates",
    "modoboa.lib.exceptions",
    "commands.deploy",
    "forms.forward",
    "admin.migrations.0002_auto__del_field_alias_mbox",
    "0002_update_user_foreign_key",
    "modoboa.lib.templatetags",
    "management.commands.cleanlogs",
    "modoboa.extensions.limits.migrations",
    "lib.imapheader",
    "amavis.urls",
    "admin.tests",
    "modoboa.extensions.admin.templatetags.admin_tags",
    "modoboa.core.password_hashers",
    "tests.user",
    "tools.pfxadmin_migrate.models",
    "modoboa.lib.u2u_decode",
    "commands.handle_mailbox_operations",
    "migrations.0015_move_passwords",
    "modoboa.extensions.amavis.sql_listing",
    "lib.exceptions",
    "modoboa.lib.imap_utf7",
    "modoboa.extensions.postfix_autoreply.migrations.0003_auto__chg_field_arhistoric_sender",
    "core.factories",
    "lib.events",
    "extensions.limits.forms",
    "imapemail",
    "modoboa.core.management",
    "cleanlogs",
    "extensions.limits.models",
    "modoboa.extensions.admin.management.commands.handle_mailbox_operations",
    "limits.tests",
    "modoboa.extensions.admin.migrations.0015_move_passwords",
    "modoboa.extensions.admin.tests.user",
    "modoboa.lib.formutils",
    "modoboa.extensions.webmail.lib.imapemail",
    "extensions.admin.forms.account",
    "templatetags.webmail_tags",
    "extensions.admin.migrations.0031_auto__add_aliases_to_alias",
    "extensions.amavis.management.commands.amnotify",
    "extensions.admin.urls",
    "forward",
    "modoboa.lib.listing",
    "extensions.webmail.urls",
    "amavis_callbacks",
    "postfix_relay_domains.general_callbacks",
    "amavis.sql_listing",
    "admin.forms.export",
    "migrations.0031_auto__add_aliases_to_alias",
    "modoboa.core.migrations.0002_update_permissions",
    "extensions.admin.migrations.0022_auto__del_field_mailbox_uid__del_field_mailbox_gid__del_field_mailbox_",
    "extensions.stats.urls",
    "extensions.admin.migrations.0021_default_superadmin_ownership",
    "webmail.urls",
    "extensions.admin.management.commands.handle_mailbox_operations",
    "modoboa.demo.views",
    "modoboa.extensions.webmail.forms",
    "tools",
    "modoboa.core.password_hashers.advanced",
    "admin.tests.domain",
    "admin.migrations.0021_default_superadmin_ownership",
    "migrations.0020_rename_amavis_ext",
    "extensions.admin.migrations.0034_auto__add_field_user_is_local",
    "modoboa.extensions.admin.migrations.0034_auto__add_field_user_is_local",
    "admin.migrations.0013_update_mailbox_path",
    "pfxadmin_migrate.migrate",
    "0025_auto__add_field_quota_mbox",
    "0002_update_permissions",
    "postfix_maps",
    "middleware",
    "modoboa.extensions.admin.migrations.0014_auto__add_unique_domain_name",
    "extensions.stats.graphics",
    "limits.app_settings",
    "admin.forms.domain",
    "extensions.postfix_autoreply",
    "export",
    "extensions.amavis.forms",
    "extensions.webmail.lib.listing",
    "models.domain",
    "extensions.admin.views.alias",
    "core.extensions",
    "migrations.0002_update_user_foreign_key",
    "admin.tests.alias",
    "admin.migrations.0024_create_quotas",
    "modoboa.extensions.admin.management.commands",
    "sievefilters",
    "utils",
    "sievefilters.general_callbacks",
    "modoboa.extensions.postfix_autoreply.migrations",
    "admin.models.alias",
    "modoboa.extensions.admin.forms.import_",
    "postfix_autoreply.tests",
    "modoboa.extensions.admin.migrations.0022_auto__del_field_mailbox_uid__del_field_mailbox_gid__del_field_mailbox_",
    "authbackends",
    "extensions.sievefilters",
    "webmail",
    "admin.migrations.0029_auto__add_user__chg_field_mailbox_user__chg_field_objectaccess_user",
    "extensions.webmail.app_settings",
    "migrations.0029_auto__add_user__chg_field_mailbox_user__chg_field_objectaccess_user",
    "test",
    "extensions.amavis.models",
    "modoboa.lib.email_listing",
    "lib.middleware",
    "postfix_autoreply.migrations.0005_auto__add_field_armessage_fromdate",
    "0004_auto__add_unique_arhistoric_sender_armessage",
    "0006_auto__add_domainalias",
    "modoboa.extensions.sievefilters",
    "modoboa.extensions.sievefilters.views",
    "models",
    "modoboa.extensions.admin.tests",
    "lib.sysutils",
    "0015_move_passwords",
    "0018_auto__add_unique_alias_domain_address",
    "admin.migrations.0014_auto__add_unique_domain_name",
    "modoboa.extensions.stats.urls",
    "0001_initial",
    "extensions.amavis.sql_listing",
    "modoboa.extensions.postfix_autoreply.forms",
    "modoboa.extensions.admin.migrations.0019_set_default_group",
    "singleton",
    "modoboa.core.migrations.0001_initial",
    "extensions.admin.management.commands",
    "admin.tables",
    "migrations.0030_update_permissions",
    "views.alias",
    "migrations.0026_set_quota_mbox",
    "modoboa.extensions.admin.models.base",
    "extensions.limits.migrations.0002_update_user_foreign_key",
    "lib.email_listing",
    "postfix_autoreply.app_settings",
    "admin.migrations.0025_auto__add_field_quota_mbox",
    "limits.models",
    "migrations.0005_rename_table",
    "lib.formutils",
    "limits.migrations.0001_initial",
    "modoboa.extensions.admin.migrations.0027_auto__add_field_mailbox_use_domain_quota",
    "forms.account"
]