{
    "libs": [
        "unittest",
        "datetime",
        "filters",
        "lxml",
        "pprint",
        "re",
        "json",
        "html",
        "email",
        "feedparser",
        "simplejson",
        "glob",
        "sys",
        "traceback",
        "difflib",
        "urlparse",
        "chardet",
        "clean",
        "time",
        "os",
        "multiprocessing"
    ]
}