{
    "libs": [
        "minidom",
        "expat",
        "logging",
        "unittest",
        "random",
        "datetime",
        "sys",
        "re",
        "collections",
        "print_function",
        "saxutils",
        "time",
        "etree",
        "copy",
        "os",
        "pdb",
        "math"
    ]
}