{
    "libs": [
        "etree",
        "dom",
        "h",
        "tarfile",
        "urllib2",
        "sys",
        "time",
        "sqlite3",
        "ElementTree",
        "os"
    ]
}