{
    "archive_url": "https://api.github.com/repos/SciTools/iris/{archive_format}{/ref}",
    "assignees_url": "https://api.github.com/repos/SciTools/iris/assignees{/user}",
    "blobs_url": "https://api.github.com/repos/SciTools/iris/git/blobs{/sha}",
    "branches_url": "https://api.github.com/repos/SciTools/iris/branches{/branch}",
    "clone_url": "https://github.com/SciTools/iris.git",
    "collaborators_url": "https://api.github.com/repos/SciTools/iris/collaborators{/collaborator}",
    "comments_url": "https://api.github.com/repos/SciTools/iris/comments{/number}",
    "commits_url": "https://api.github.com/repos/SciTools/iris/commits{/sha}",
    "compare_url": "https://api.github.com/repos/SciTools/iris/compare/{base}...{head}",
    "contents_url": "https://api.github.com/repos/SciTools/iris/contents/{+path}",
    "contributors_url": "https://api.github.com/repos/SciTools/iris/contributors",
    "created_at": "2012-08-06T10:09:14Z",
    "default_branch": "master",
    "description": "A powerful, easy to use, and community-driven Python library for analysing and visualising meteorological and oceanographic data sets.",
    "downloads_url": "https://api.github.com/repos/SciTools/iris/downloads",
    "events_url": "https://api.github.com/repos/SciTools/iris/events",
    "fork": false,
    "forks": 50,
    "forks_count": 50,
    "forks_url": "https://api.github.com/repos/SciTools/iris/forks",
    "full_name": "SciTools/iris",
    "git_commits_url": "https://api.github.com/repos/SciTools/iris/git/commits{/sha}",
    "git_refs_url": "https://api.github.com/repos/SciTools/iris/git/refs{/sha}",
    "git_tags_url": "https://api.github.com/repos/SciTools/iris/git/tags{/sha}",
    "git_url": "git://github.com/SciTools/iris.git",
    "has_downloads": true,
    "has_issues": true,
    "has_wiki": true,
    "homepage": "http://scitools.org.uk/iris/",
    "hooks_url": "https://api.github.com/repos/SciTools/iris/hooks",
    "html_url": "https://github.com/SciTools/iris",
    "id": 5312648,
    "issue_comment_url": "https://api.github.com/repos/SciTools/iris/issues/comments/{number}",
    "issue_events_url": "https://api.github.com/repos/SciTools/iris/issues/events{/number}",
    "issues_url": "https://api.github.com/repos/SciTools/iris/issues{/number}",
    "keys_url": "https://api.github.com/repos/SciTools/iris/keys{/key_id}",
    "labels_url": "https://api.github.com/repos/SciTools/iris/labels{/name}",
    "language": "Python",
    "languages_url": "https://api.github.com/repos/SciTools/iris/languages",
    "merges_url": "https://api.github.com/repos/SciTools/iris/merges",
    "milestones_url": "https://api.github.com/repos/SciTools/iris/milestones{/number}",
    "mirror_url": null,
    "name": "iris",
    "notifications_url": "https://api.github.com/repos/SciTools/iris/notifications{?since,all,participating}",
    "open_issues": 167,
    "open_issues_count": 167,
    "owner": {
        "avatar_url": "https://avatars.githubusercontent.com/u/1391487?",
        "events_url": "https://api.github.com/users/SciTools/events{/privacy}",
        "followers_url": "https://api.github.com/users/SciTools/followers",
        "following_url": "https://api.github.com/users/SciTools/following{/other_user}",
        "gists_url": "https://api.github.com/users/SciTools/gists{/gist_id}",
        "gravatar_id": null,
        "html_url": "https://github.com/SciTools",
        "id": 1391487,
        "login": "SciTools",
        "organizations_url": "https://api.github.com/users/SciTools/orgs",
        "received_events_url": "https://api.github.com/users/SciTools/received_events",
        "repos_url": "https://api.github.com/users/SciTools/repos",
        "site_admin": false,
        "starred_url": "https://api.github.com/users/SciTools/starred{/owner}{/repo}",
        "subscriptions_url": "https://api.github.com/users/SciTools/subscriptions",
        "type": "Organization",
        "url": "https://api.github.com/users/SciTools"
    },
    "private": false,
    "pulls_url": "https://api.github.com/repos/SciTools/iris/pulls{/number}",
    "pushed_at": "2014-05-06T14:18:24Z",
    "releases_url": "https://api.github.com/repos/SciTools/iris/releases{/id}",
    "score": 1.0,
    "size": 125254,
    "ssh_url": "git@github.com:SciTools/iris.git",
    "stargazers_count": 60,
    "stargazers_url": "https://api.github.com/repos/SciTools/iris/stargazers",
    "statuses_url": "https://api.github.com/repos/SciTools/iris/statuses/{sha}",
    "subscribers_url": "https://api.github.com/repos/SciTools/iris/subscribers",
    "subscription_url": "https://api.github.com/repos/SciTools/iris/subscription",
    "svn_url": "https://github.com/SciTools/iris",
    "tags_url": "https://api.github.com/repos/SciTools/iris/tags",
    "teams_url": "https://api.github.com/repos/SciTools/iris/teams",
    "trees_url": "https://api.github.com/repos/SciTools/iris/git/trees{/sha}",
    "updated_at": "2014-05-06T14:18:26Z",
    "url": "https://api.github.com/repos/SciTools/iris",
    "watchers": 60,
    "watchers_count": 60
}