{
    "libs": [
        "http",
        "conf",
        "generic",
        "utils",
        "sys",
        "test",
        "json",
        "client",
        "urls",
        "urlresolvers"
    ]
}