{
    "archive_url": "https://api.github.com/repos/brentp/cruzdb/{archive_format}{/ref}",
    "assignees_url": "https://api.github.com/repos/brentp/cruzdb/assignees{/user}",
    "blobs_url": "https://api.github.com/repos/brentp/cruzdb/git/blobs{/sha}",
    "branches_url": "https://api.github.com/repos/brentp/cruzdb/branches{/branch}",
    "clone_url": "https://github.com/brentp/cruzdb.git",
    "collaborators_url": "https://api.github.com/repos/brentp/cruzdb/collaborators{/collaborator}",
    "comments_url": "https://api.github.com/repos/brentp/cruzdb/comments{/number}",
    "commits_url": "https://api.github.com/repos/brentp/cruzdb/commits{/sha}",
    "compare_url": "https://api.github.com/repos/brentp/cruzdb/compare/{base}...{head}",
    "contents_url": "https://api.github.com/repos/brentp/cruzdb/contents/{+path}",
    "contributors_url": "https://api.github.com/repos/brentp/cruzdb/contributors",
    "created_at": "2011-09-02T15:36:33Z",
    "default_branch": "master",
    "description": "python access to UCSC genomes database",
    "downloads_url": "https://api.github.com/repos/brentp/cruzdb/downloads",
    "events_url": "https://api.github.com/repos/brentp/cruzdb/events",
    "fork": false,
    "forks": 16,
    "forks_count": 16,
    "forks_url": "https://api.github.com/repos/brentp/cruzdb/forks",
    "full_name": "brentp/cruzdb",
    "git_commits_url": "https://api.github.com/repos/brentp/cruzdb/git/commits{/sha}",
    "git_refs_url": "https://api.github.com/repos/brentp/cruzdb/git/refs{/sha}",
    "git_tags_url": "https://api.github.com/repos/brentp/cruzdb/git/tags{/sha}",
    "git_url": "git://github.com/brentp/cruzdb.git",
    "has_downloads": true,
    "has_issues": true,
    "has_wiki": true,
    "homepage": "",
    "hooks_url": "https://api.github.com/repos/brentp/cruzdb/hooks",
    "html_url": "https://github.com/brentp/cruzdb",
    "id": 2314723,
    "issue_comment_url": "https://api.github.com/repos/brentp/cruzdb/issues/comments/{number}",
    "issue_events_url": "https://api.github.com/repos/brentp/cruzdb/issues/events{/number}",
    "issues_url": "https://api.github.com/repos/brentp/cruzdb/issues{/number}",
    "keys_url": "https://api.github.com/repos/brentp/cruzdb/keys{/key_id}",
    "labels_url": "https://api.github.com/repos/brentp/cruzdb/labels{/name}",
    "language": "Python",
    "languages_url": "https://api.github.com/repos/brentp/cruzdb/languages",
    "merges_url": "https://api.github.com/repos/brentp/cruzdb/merges",
    "milestones_url": "https://api.github.com/repos/brentp/cruzdb/milestones{/number}",
    "mirror_url": null,
    "name": "cruzdb",
    "notifications_url": "https://api.github.com/repos/brentp/cruzdb/notifications{?since,all,participating}",
    "open_issues": 7,
    "open_issues_count": 7,
    "owner": {
        "avatar_url": "https://avatars.githubusercontent.com/u/1739?",
        "events_url": "https://api.github.com/users/brentp/events{/privacy}",
        "followers_url": "https://api.github.com/users/brentp/followers",
        "following_url": "https://api.github.com/users/brentp/following{/other_user}",
        "gists_url": "https://api.github.com/users/brentp/gists{/gist_id}",
        "gravatar_id": "673a112cceaf8a4714ac6c3b6ae91690",
        "html_url": "https://github.com/brentp",
        "id": 1739,
        "login": "brentp",
        "organizations_url": "https://api.github.com/users/brentp/orgs",
        "received_events_url": "https://api.github.com/users/brentp/received_events",
        "repos_url": "https://api.github.com/users/brentp/repos",
        "site_admin": false,
        "starred_url": "https://api.github.com/users/brentp/starred{/owner}{/repo}",
        "subscriptions_url": "https://api.github.com/users/brentp/subscriptions",
        "type": "User",
        "url": "https://api.github.com/users/brentp"
    },
    "private": false,
    "pulls_url": "https://api.github.com/repos/brentp/cruzdb/pulls{/number}",
    "pushed_at": "2014-03-29T03:35:35Z",
    "releases_url": "https://api.github.com/repos/brentp/cruzdb/releases{/id}",
    "score": 1.0,
    "size": 3325,
    "ssh_url": "git@github.com:brentp/cruzdb.git",
    "stargazers_count": 40,
    "stargazers_url": "https://api.github.com/repos/brentp/cruzdb/stargazers",
    "statuses_url": "https://api.github.com/repos/brentp/cruzdb/statuses/{sha}",
    "subscribers_url": "https://api.github.com/repos/brentp/cruzdb/subscribers",
    "subscription_url": "https://api.github.com/repos/brentp/cruzdb/subscription",
    "svn_url": "https://github.com/brentp/cruzdb",
    "tags_url": "https://api.github.com/repos/brentp/cruzdb/tags",
    "teams_url": "https://api.github.com/repos/brentp/cruzdb/teams",
    "trees_url": "https://api.github.com/repos/brentp/cruzdb/git/trees{/sha}",
    "updated_at": "2014-03-29T03:35:35Z",
    "url": "https://api.github.com/repos/brentp/cruzdb",
    "watchers": 40,
    "watchers_count": 40
}