[
    "tests.test_parse",
    "mrjob.examples.mr_grep",
    "mrjob.fs.ssh",
    "tests.mr_just_a_jar",
    "mrjob.tools.emr.create_job_flow",
    "tests.mr_filter_job",
    "mrjob.examples.mr_cmd",
    "terminate_job_flow",
    "tests.quiet",
    "fs.test_s3",
    "test_hadoop",
    "BashWordcount",
    "suite",
    "tests.tools",
    "local",
    "tests.test_util",
    "mr_most_used_word",
    "mrboss",
    "mrjob.tools.emr.report_long_jobs",
    "tests.test_conf",
    "mr_word_count",
    "mr_travelling_salesman",
    "mrjob.examples.mr_next_word_stats",
    "test_ssh",
    "util",
    "examples.mr_jar_step_example",
    "ssh",
    "tests.test_job",
    "tools.emr.terminate_idle_job_flows",
    "fs.base",
    "cmd",
    "mr_text_classifier",
    "tests.mr_exit_42_job",
    "mrjob.retry",
    "emr",
    "mr_two_step_job",
    "tools.emr.test_mrboss",
    "mr_cmd_job",
    "tests.test_step",
    "tests.test_retry",
    "mockssh",
    "examples.bash_wrap",
    "mrjob.ssh",
    "mr_log_sampler",
    "mrjob.fs.hadoop",
    "tests.mr_test_cmdenv",
    "tests.mr_nomapper_multistep",
    "docs.options_extension",
    "compat",
    "mrjob.examples.mr_travelling_salesman.mr_travelling_salesman",
    "mrjob.emr",
    "mr_page_rank",
    "tools.emr.test_terminate_job_flow",
    "test_terminate_idle_job_flows",
    "test_mrboss",
    "fetch_logs",
    "mrjob.tools.emr",
    "mrjob.tools.emr.job_flow_pool",
    "examples.mr_cmd",
    "job",
    "tools.emr.audit_usage",
    "tests.fs.test_s3",
    "test_fetch_logs",
    "mrjob.tools.emr.fetch_logs",
    "py3k_word_freq_count",
    "tests.mr_hadoop_format_job",
    "mr_two_step_hadoop_format_job",
    "quiet",
    "tools.emr.job_flow_pool",
    "test_pool",
    "tests.mr_test_jobconf",
    "mr_postfix_bounce.mr_postfix_bounce",
    "test_inline",
    "options",
    "emr.test_s3_tmpwatch",
    "mr_wc",
    "mrjob.tools.emr.terminate_job_flow",
    "emr.test_fetch_logs",
    "emr.test_terminate_idle_job_flows",
    "mrjob.tools.emr.mrboss",
    "examples.contrib",
    "tools",
    "tests.mr_two_step_hadoop_format_job",
    "tests.tools.emr.test_s3_tmpwatch",
    "mrjob.examples.mr_page_rank",
    "examples.mr_wc",
    "tests.tools.emr.test_job_flow_pool",
    "test_compat",
    "mrjob.fs.composite",
    "composite",
    "examples.mr_travelling_salesman",
    "mrjob.fs.base",
    "tests.mockboto",
    "mrjob.examples.mr_log_sampler",
    "mr_hadoop_format_job",
    "terminate_idle_job_flows",
    "tools.emr.create_job_flow",
    "options_extension",
    "emr.test_report_long_jobs",
    "mrjob.conf",
    "fs.test_hadoop",
    "emr.audit_usage",
    "launch",
    "mrjob.examples.mr_word_freq_count",
    "test_conf",
    "test_parse",
    "test_emr",
    "mrjob.examples.mr_most_used_word",
    "examples.mr_most_used_word",
    "parse",
    "test_launch",
    "conf",
    "mrjob.examples.mr_postfix_bounce.mr_postfix_bounce",
    "mrjob.tools",
    "mr_os_walk_job",
    "tests.fs.test_ssh",
    "mrjob.step",
    "test_retry",
    "s3",
    "fs.s3",
    "mrjob.examples",
    "hadoop",
    "mr_cmd",
    "test_step",
    "tests.test_compat",
    "sim",
    "mrjob.examples.mr_wc",
    "fs.composite",
    "fs",
    "tests.test_ssh",
    "examples.mr_page_rank",
    "mr_test_cmdenv",
    "mr_exit_42_job",
    "test_s3_tmpwatch",
    "mr_just_a_jar",
    "emr.mrboss",
    "job_flow_pool",
    "tools.emr.fetch_logs",
    "emr.job_flow_pool",
    "logparsers",
    "mr_travelling_salesman.mr_travelling_salesman",
    "test_s3",
    "mrjob.examples.mr_travelling_salesman",
    "tests.tools.emr.test_audit_usage",
    "tests.mr_jar_and_streaming",
    "examples.mr_text_classifier",
    "tests.tools.emr",
    "tests.sandbox",
    "mrjob.pool",
    "sandbox",
    "inline",
    "s3_tmpwatch",
    "tests.fs",
    "tests.mr_counting_job",
    "tests.suite",
    "protocol",
    "tools.emr.test_job_flow_pool",
    "tests.mr_cmd_job",
    "examples.mr_next_word_stats",
    "tests.mr_two_step_job",
    "emr.test_job_flow_pool",
    "mrjob.compat",
    "mr_test_jobconf",
    "test_util",
    "tests.test_hadoop",
    "tests.mr_os_walk_job",
    "mrjob.local",
    "tools.emr",
    "mr_jar_step_example",
    "mrjob.util",
    "mrjob.tools.emr.audit_usage",
    "docs.conf",
    "mrjob",
    "mrjob.examples.py3k_word_freq_count",
    "mrjob.logparsers",
    "fs.hadoop",
    "tests",
    "mr_counting_job",
    "docs",
    "test_cmd",
    "tools.emr.s3_tmpwatch",
    "tests.mr_test_per_step_jobconf",
    "tests.mr_word_count",
    "examples.bash_wrap.BashWordcount",
    "tools.emr.test_s3_tmpwatch",
    "mr_job_where_are_you",
    "emr.terminate_job_flow",
    "test_create_job_flow",
    "test_option_store",
    "tests.test_launch",
    "mrjob.examples.contrib.mr_pegasos_svm",
    "test_audit_usage",
    "mr_next_word_stats",
    "audit_usage",
    "mrjob.options",
    "mrjob.fs",
    "mrjob.fs.local",
    "examples",
    "tools.emr.test_create_job_flow",
    "mr_jar_and_streaming",
    "emr.test_audit_usage",
    "tests.compress",
    "test_job",
    "retry",
    "emr.create_job_flow",
    "mrjob.fs.s3",
    "tools.emr.mrboss",
    "mrjob.aws",
    "tests.test_local",
    "test_runner",
    "mr_nomapper_multistep",
    "aws",
    "mrjob.sim",
    "tests.tools.emr.test_fetch_logs",
    "fs.test_ssh",
    "step",
    "base",
    "tests.test_inline",
    "tests.test_pool",
    "tools.emr.terminate_job_flow",
    "mrjob.inline",
    "emr.fetch_logs",
    "emr.test_terminate_job_flow",
    "tests.mr_job_where_are_you",
    "mr_tower_of_powers",
    "mrjob.launch",
    "mrjob.examples.contrib",
    "tests.test_protocol",
    "mr_word_freq_count",
    "tests.mr_verbose_job",
    "mr_postfix_bounce",
    "test_terminate_job_flow",
    "contrib",
    "tools.emr.test_terminate_idle_job_flows",
    "tools.emr.test_report_long_jobs",
    "mrjob.examples.mr_jar_step_example",
    "emr.report_long_jobs",
    "report_long_jobs",
    "bash_wrap",
    "examples.mr_log_sampler",
    "test_job_flow_pool",
    "mrjob.tools.emr.terminate_idle_job_flows",
    "mr_verbose_job",
    "emr.s3_tmpwatch",
    "mrjob.runner",
    "emr.test_mrboss",
    "tools.emr.test_audit_usage",
    "mockhadoop",
    "mrjob.job",
    "fs.ssh",
    "tools.emr.test_fetch_logs",
    "tools.emr.report_long_jobs",
    "tests.mr_tower_of_powers",
    "mr_test_per_step_jobconf",
    "examples.mr_travelling_salesman.mr_travelling_salesman",
    "tests.tools.emr.test_terminate_idle_job_flows",
    "mrjob.protocol",
    "examples.mr_word_freq_count",
    "mrjob.examples.bash_wrap",
    "tests.mockssh",
    "examples.contrib.mr_pegasos_svm",
    "tests.fs.test_hadoop",
    "runner",
    "mrjob.cmd",
    "mr_pegasos_svm",
    "examples.mr_postfix_bounce.mr_postfix_bounce",
    "emr.terminate_idle_job_flows",
    "examples.mr_grep",
    "tests.test_runner",
    "tests.mockhadoop",
    "tests.test_emr",
    "test_protocol",
    "tests.fs.test_local",
    "mr_grep",
    "mrjob.examples.bash_wrap.BashWordcount",
    "tests.tools.emr.test_mrboss",
    "examples.py3k_word_freq_count",
    "tests.test_cmd",
    "emr.test_create_job_flow",
    "mrjob.hadoop",
    "tests.tools.emr.test_report_long_jobs",
    "mrjob.examples.mr_postfix_bounce",
    "mr_filter_job",
    "fs.test_local",
    "test_report_long_jobs",
    "compress",
    "bash_wrap.BashWordcount",
    "mockboto",
    "tests.tools.emr.test_terminate_job_flow",
    "tests.tools.emr.test_create_job_flow",
    "pool",
    "mrjob.tools.emr.s3_tmpwatch",
    "mrjob.examples.mr_text_classifier",
    "contrib.mr_pegasos_svm",
    "test_local",
    "examples.mr_postfix_bounce",
    "create_job_flow",
    "tests.test_option_store",
    "fs.local",
    "mrjob.parse"
]