{
    "archive_url": "https://api.github.com/repos/juanriaza/python-mega/{archive_format}{/ref}",
    "assignees_url": "https://api.github.com/repos/juanriaza/python-mega/assignees{/user}",
    "blobs_url": "https://api.github.com/repos/juanriaza/python-mega/git/blobs{/sha}",
    "branches_url": "https://api.github.com/repos/juanriaza/python-mega/branches{/branch}",
    "clone_url": "https://github.com/juanriaza/python-mega.git",
    "collaborators_url": "https://api.github.com/repos/juanriaza/python-mega/collaborators{/collaborator}",
    "comments_url": "https://api.github.com/repos/juanriaza/python-mega/comments{/number}",
    "commits_url": "https://api.github.com/repos/juanriaza/python-mega/commits{/sha}",
    "compare_url": "https://api.github.com/repos/juanriaza/python-mega/compare/{base}...{head}",
    "contents_url": "https://api.github.com/repos/juanriaza/python-mega/contents/{+path}",
    "contributors_url": "https://api.github.com/repos/juanriaza/python-mega/contributors",
    "created_at": "2013-01-31T18:09:13Z",
    "default_branch": "master",
    "description": "Wrapper around the Mega API",
    "downloads_url": "https://api.github.com/repos/juanriaza/python-mega/downloads",
    "events_url": "https://api.github.com/repos/juanriaza/python-mega/events",
    "fork": false,
    "forks": 15,
    "forks_count": 15,
    "forks_url": "https://api.github.com/repos/juanriaza/python-mega/forks",
    "full_name": "juanriaza/python-mega",
    "git_commits_url": "https://api.github.com/repos/juanriaza/python-mega/git/commits{/sha}",
    "git_refs_url": "https://api.github.com/repos/juanriaza/python-mega/git/refs{/sha}",
    "git_tags_url": "https://api.github.com/repos/juanriaza/python-mega/git/tags{/sha}",
    "git_url": "git://github.com/juanriaza/python-mega.git",
    "has_downloads": true,
    "has_issues": true,
    "has_wiki": true,
    "homepage": "",
    "hooks_url": "https://api.github.com/repos/juanriaza/python-mega/hooks",
    "html_url": "https://github.com/juanriaza/python-mega",
    "id": 7942349,
    "issue_comment_url": "https://api.github.com/repos/juanriaza/python-mega/issues/comments/{number}",
    "issue_events_url": "https://api.github.com/repos/juanriaza/python-mega/issues/events{/number}",
    "issues_url": "https://api.github.com/repos/juanriaza/python-mega/issues{/number}",
    "keys_url": "https://api.github.com/repos/juanriaza/python-mega/keys{/key_id}",
    "labels_url": "https://api.github.com/repos/juanriaza/python-mega/labels{/name}",
    "language": "Python",
    "languages_url": "https://api.github.com/repos/juanriaza/python-mega/languages",
    "merges_url": "https://api.github.com/repos/juanriaza/python-mega/merges",
    "milestones_url": "https://api.github.com/repos/juanriaza/python-mega/milestones{/number}",
    "mirror_url": null,
    "name": "python-mega",
    "notifications_url": "https://api.github.com/repos/juanriaza/python-mega/notifications{?since,all,participating}",
    "open_issues": 4,
    "open_issues_count": 4,
    "owner": {
        "avatar_url": "https://avatars.githubusercontent.com/u/554079?",
        "events_url": "https://api.github.com/users/juanriaza/events{/privacy}",
        "followers_url": "https://api.github.com/users/juanriaza/followers",
        "following_url": "https://api.github.com/users/juanriaza/following{/other_user}",
        "gists_url": "https://api.github.com/users/juanriaza/gists{/gist_id}",
        "gravatar_id": "2b15e7d28b45c399fdb4aa7525235b30",
        "html_url": "https://github.com/juanriaza",
        "id": 554079,
        "login": "juanriaza",
        "organizations_url": "https://api.github.com/users/juanriaza/orgs",
        "received_events_url": "https://api.github.com/users/juanriaza/received_events",
        "repos_url": "https://api.github.com/users/juanriaza/repos",
        "site_admin": false,
        "starred_url": "https://api.github.com/users/juanriaza/starred{/owner}{/repo}",
        "subscriptions_url": "https://api.github.com/users/juanriaza/subscriptions",
        "type": "User",
        "url": "https://api.github.com/users/juanriaza"
    },
    "private": false,
    "pulls_url": "https://api.github.com/repos/juanriaza/python-mega/pulls{/number}",
    "pushed_at": "2014-02-05T10:15:12Z",
    "releases_url": "https://api.github.com/repos/juanriaza/python-mega/releases{/id}",
    "score": 1.0,
    "size": 182,
    "ssh_url": "git@github.com:juanriaza/python-mega.git",
    "stargazers_count": 71,
    "stargazers_url": "https://api.github.com/repos/juanriaza/python-mega/stargazers",
    "statuses_url": "https://api.github.com/repos/juanriaza/python-mega/statuses/{sha}",
    "subscribers_url": "https://api.github.com/repos/juanriaza/python-mega/subscribers",
    "subscription_url": "https://api.github.com/repos/juanriaza/python-mega/subscription",
    "svn_url": "https://github.com/juanriaza/python-mega",
    "tags_url": "https://api.github.com/repos/juanriaza/python-mega/tags",
    "teams_url": "https://api.github.com/repos/juanriaza/python-mega/teams",
    "trees_url": "https://api.github.com/repos/juanriaza/python-mega/git/trees{/sha}",
    "updated_at": "2014-04-30T18:10:36Z",
    "url": "https://api.github.com/repos/juanriaza/python-mega",
    "watchers": 71,
    "watchers_count": 71
}