[
    "compliance",
    "protocol",
    "websockets.client",
    "websockets.handshake",
    "test_framing",
    "websockets.test_http",
    "conf",
    "websockets.version",
    "websockets",
    "handshake",
    "example.server",
    "websockets.exceptions",
    "version",
    "test_client",
    "websockets.protocol",
    "compliance.test_server",
    "websockets.test_handshake",
    "http",
    "websockets.http",
    "test_protocol",
    "compliance.test_client",
    "docs",
    "websockets.test_client_server",
    "exceptions",
    "websockets.framing",
    "framing",
    "websockets.uri",
    "websockets.server",
    "docs.conf",
    "example.client",
    "websockets.test_framing",
    "test_uri",
    "uri",
    "test_client_server",
    "server",
    "test_http",
    "client",
    "websockets.test_protocol",
    "test_handshake",
    "test_server",
    "websockets.test_uri",
    "example"
]