{
    "archive_url": "https://api.github.com/repos/vim-scripts/Pydiction/{archive_format}{/ref}",
    "assignees_url": "https://api.github.com/repos/vim-scripts/Pydiction/assignees{/user}",
    "blobs_url": "https://api.github.com/repos/vim-scripts/Pydiction/git/blobs{/sha}",
    "branches_url": "https://api.github.com/repos/vim-scripts/Pydiction/branches{/branch}",
    "clone_url": "https://github.com/vim-scripts/Pydiction.git",
    "collaborators_url": "https://api.github.com/repos/vim-scripts/Pydiction/collaborators{/collaborator}",
    "comments_url": "https://api.github.com/repos/vim-scripts/Pydiction/comments{/number}",
    "commits_url": "https://api.github.com/repos/vim-scripts/Pydiction/commits{/sha}",
    "compare_url": "https://api.github.com/repos/vim-scripts/Pydiction/compare/{base}...{head}",
    "contents_url": "https://api.github.com/repos/vim-scripts/Pydiction/contents/{+path}",
    "contributors_url": "https://api.github.com/repos/vim-scripts/Pydiction/contributors",
    "created_at": "2010-10-18T18:24:17Z",
    "default_branch": "master",
    "description": "Tab-complete your Python code",
    "downloads_url": "https://api.github.com/repos/vim-scripts/Pydiction/downloads",
    "events_url": "https://api.github.com/repos/vim-scripts/Pydiction/events",
    "fork": false,
    "forks": 12,
    "forks_count": 12,
    "forks_url": "https://api.github.com/repos/vim-scripts/Pydiction/forks",
    "full_name": "vim-scripts/Pydiction",
    "git_commits_url": "https://api.github.com/repos/vim-scripts/Pydiction/git/commits{/sha}",
    "git_refs_url": "https://api.github.com/repos/vim-scripts/Pydiction/git/refs{/sha}",
    "git_tags_url": "https://api.github.com/repos/vim-scripts/Pydiction/git/tags{/sha}",
    "git_url": "git://github.com/vim-scripts/Pydiction.git",
    "has_downloads": true,
    "has_issues": false,
    "has_wiki": false,
    "homepage": "http://www.vim.org/scripts/script.php?script_id=850",
    "hooks_url": "https://api.github.com/repos/vim-scripts/Pydiction/hooks",
    "html_url": "https://github.com/vim-scripts/Pydiction",
    "id": 999673,
    "issue_comment_url": "https://api.github.com/repos/vim-scripts/Pydiction/issues/comments/{number}",
    "issue_events_url": "https://api.github.com/repos/vim-scripts/Pydiction/issues/events{/number}",
    "issues_url": "https://api.github.com/repos/vim-scripts/Pydiction/issues{/number}",
    "keys_url": "https://api.github.com/repos/vim-scripts/Pydiction/keys{/key_id}",
    "labels_url": "https://api.github.com/repos/vim-scripts/Pydiction/labels{/name}",
    "language": "Python",
    "languages_url": "https://api.github.com/repos/vim-scripts/Pydiction/languages",
    "merges_url": "https://api.github.com/repos/vim-scripts/Pydiction/merges",
    "milestones_url": "https://api.github.com/repos/vim-scripts/Pydiction/milestones{/number}",
    "mirror_url": null,
    "name": "Pydiction",
    "notifications_url": "https://api.github.com/repos/vim-scripts/Pydiction/notifications{?since,all,participating}",
    "open_issues": 0,
    "open_issues_count": 0,
    "owner": {
        "avatar_url": "https://avatars.githubusercontent.com/u/443562?",
        "events_url": "https://api.github.com/users/vim-scripts/events{/privacy}",
        "followers_url": "https://api.github.com/users/vim-scripts/followers",
        "following_url": "https://api.github.com/users/vim-scripts/following{/other_user}",
        "gists_url": "https://api.github.com/users/vim-scripts/gists{/gist_id}",
        "gravatar_id": "b7fa89418f6767ac5fe5bfbe8e86a014",
        "html_url": "https://github.com/vim-scripts",
        "id": 443562,
        "login": "vim-scripts",
        "organizations_url": "https://api.github.com/users/vim-scripts/orgs",
        "received_events_url": "https://api.github.com/users/vim-scripts/received_events",
        "repos_url": "https://api.github.com/users/vim-scripts/repos",
        "site_admin": false,
        "starred_url": "https://api.github.com/users/vim-scripts/starred{/owner}{/repo}",
        "subscriptions_url": "https://api.github.com/users/vim-scripts/subscriptions",
        "type": "User",
        "url": "https://api.github.com/users/vim-scripts"
    },
    "private": false,
    "pulls_url": "https://api.github.com/repos/vim-scripts/Pydiction/pulls{/number}",
    "pushed_at": "2014-04-30T01:30:12Z",
    "releases_url": "https://api.github.com/repos/vim-scripts/Pydiction/releases{/id}",
    "score": 1.0,
    "size": 1821,
    "ssh_url": "git@github.com:vim-scripts/Pydiction.git",
    "stargazers_count": 45,
    "stargazers_url": "https://api.github.com/repos/vim-scripts/Pydiction/stargazers",
    "statuses_url": "https://api.github.com/repos/vim-scripts/Pydiction/statuses/{sha}",
    "subscribers_url": "https://api.github.com/repos/vim-scripts/Pydiction/subscribers",
    "subscription_url": "https://api.github.com/repos/vim-scripts/Pydiction/subscription",
    "svn_url": "https://github.com/vim-scripts/Pydiction",
    "tags_url": "https://api.github.com/repos/vim-scripts/Pydiction/tags",
    "teams_url": "https://api.github.com/repos/vim-scripts/Pydiction/teams",
    "trees_url": "https://api.github.com/repos/vim-scripts/Pydiction/git/trees{/sha}",
    "updated_at": "2014-05-06T19:20:06Z",
    "url": "https://api.github.com/repos/vim-scripts/Pydiction",
    "watchers": 45,
    "watchers_count": 45
}