{
    "libs": [
        "conf",
        "random",
        "site",
        "subprocess",
        "io",
        "encodings",
        "struct",
        "re",
        "imp",
        "Integer",
        "fs",
        "inspect",
        "sys",
        "getopt",
        "pyc",
        "types",
        "lang",
        "c",
        "os",
        "traceback",
        "itertools",
        "time",
        "pickle"
    ]
}