[
    "tests",
    "models",
    "testing.settings",
    "utils",
    "testing",
    "testing.runtests",
    "base",
    "tests.models",
    "djorm_expressions",
    "djorm_expressions.models",
    "djorm_expressions.base",
    "settings",
    "tree",
    "djorm_expressions.tests.models",
    "djorm_expressions.tree",
    "djorm_expressions.utils",
    "djorm_expressions.tests",
    "runtests"
]