{
    "archive_url": "https://api.github.com/repos/sloria/PythonORMSleepy/{archive_format}{/ref}",
    "assignees_url": "https://api.github.com/repos/sloria/PythonORMSleepy/assignees{/user}",
    "blobs_url": "https://api.github.com/repos/sloria/PythonORMSleepy/git/blobs{/sha}",
    "branches_url": "https://api.github.com/repos/sloria/PythonORMSleepy/branches{/branch}",
    "clone_url": "https://github.com/sloria/PythonORMSleepy.git",
    "collaborators_url": "https://api.github.com/repos/sloria/PythonORMSleepy/collaborators{/collaborator}",
    "comments_url": "https://api.github.com/repos/sloria/PythonORMSleepy/comments{/number}",
    "commits_url": "https://api.github.com/repos/sloria/PythonORMSleepy/commits{/sha}",
    "compare_url": "https://api.github.com/repos/sloria/PythonORMSleepy/compare/{base}...{head}",
    "contents_url": "https://api.github.com/repos/sloria/PythonORMSleepy/contents/{+path}",
    "contributors_url": "https://api.github.com/repos/sloria/PythonORMSleepy/contributors",
    "created_at": "2013-12-01T07:07:43Z",
    "default_branch": "master",
    "description": "Python ORM/ODM Examples, For The Sleepy",
    "downloads_url": "https://api.github.com/repos/sloria/PythonORMSleepy/downloads",
    "events_url": "https://api.github.com/repos/sloria/PythonORMSleepy/events",
    "fork": false,
    "forks": 5,
    "forks_count": 5,
    "forks_url": "https://api.github.com/repos/sloria/PythonORMSleepy/forks",
    "full_name": "sloria/PythonORMSleepy",
    "git_commits_url": "https://api.github.com/repos/sloria/PythonORMSleepy/git/commits{/sha}",
    "git_refs_url": "https://api.github.com/repos/sloria/PythonORMSleepy/git/refs{/sha}",
    "git_tags_url": "https://api.github.com/repos/sloria/PythonORMSleepy/git/tags{/sha}",
    "git_url": "git://github.com/sloria/PythonORMSleepy.git",
    "has_downloads": true,
    "has_issues": true,
    "has_wiki": true,
    "homepage": "",
    "hooks_url": "https://api.github.com/repos/sloria/PythonORMSleepy/hooks",
    "html_url": "https://github.com/sloria/PythonORMSleepy",
    "id": 14835020,
    "issue_comment_url": "https://api.github.com/repos/sloria/PythonORMSleepy/issues/comments/{number}",
    "issue_events_url": "https://api.github.com/repos/sloria/PythonORMSleepy/issues/events{/number}",
    "issues_url": "https://api.github.com/repos/sloria/PythonORMSleepy/issues{/number}",
    "keys_url": "https://api.github.com/repos/sloria/PythonORMSleepy/keys{/key_id}",
    "labels_url": "https://api.github.com/repos/sloria/PythonORMSleepy/labels{/name}",
    "language": "Python",
    "languages_url": "https://api.github.com/repos/sloria/PythonORMSleepy/languages",
    "merges_url": "https://api.github.com/repos/sloria/PythonORMSleepy/merges",
    "milestones_url": "https://api.github.com/repos/sloria/PythonORMSleepy/milestones{/number}",
    "mirror_url": null,
    "name": "PythonORMSleepy",
    "notifications_url": "https://api.github.com/repos/sloria/PythonORMSleepy/notifications{?since,all,participating}",
    "open_issues": 0,
    "open_issues_count": 0,
    "owner": {
        "avatar_url": "https://avatars.githubusercontent.com/u/2379650?",
        "events_url": "https://api.github.com/users/sloria/events{/privacy}",
        "followers_url": "https://api.github.com/users/sloria/followers",
        "following_url": "https://api.github.com/users/sloria/following{/other_user}",
        "gists_url": "https://api.github.com/users/sloria/gists{/gist_id}",
        "gravatar_id": "c74f9cfd7776305a82ede0b765d65402",
        "html_url": "https://github.com/sloria",
        "id": 2379650,
        "login": "sloria",
        "organizations_url": "https://api.github.com/users/sloria/orgs",
        "received_events_url": "https://api.github.com/users/sloria/received_events",
        "repos_url": "https://api.github.com/users/sloria/repos",
        "site_admin": false,
        "starred_url": "https://api.github.com/users/sloria/starred{/owner}{/repo}",
        "subscriptions_url": "https://api.github.com/users/sloria/subscriptions",
        "type": "User",
        "url": "https://api.github.com/users/sloria"
    },
    "private": false,
    "pulls_url": "https://api.github.com/repos/sloria/PythonORMSleepy/pulls{/number}",
    "pushed_at": "2013-12-31T16:08:23Z",
    "releases_url": "https://api.github.com/repos/sloria/PythonORMSleepy/releases{/id}",
    "score": 1.0,
    "size": 214,
    "ssh_url": "git@github.com:sloria/PythonORMSleepy.git",
    "stargazers_count": 97,
    "stargazers_url": "https://api.github.com/repos/sloria/PythonORMSleepy/stargazers",
    "statuses_url": "https://api.github.com/repos/sloria/PythonORMSleepy/statuses/{sha}",
    "subscribers_url": "https://api.github.com/repos/sloria/PythonORMSleepy/subscribers",
    "subscription_url": "https://api.github.com/repos/sloria/PythonORMSleepy/subscription",
    "svn_url": "https://github.com/sloria/PythonORMSleepy",
    "tags_url": "https://api.github.com/repos/sloria/PythonORMSleepy/tags",
    "teams_url": "https://api.github.com/repos/sloria/PythonORMSleepy/teams",
    "trees_url": "https://api.github.com/repos/sloria/PythonORMSleepy/git/trees{/sha}",
    "updated_at": "2014-05-03T01:44:05Z",
    "url": "https://api.github.com/repos/sloria/PythonORMSleepy",
    "watchers": 97,
    "watchers_count": 97
}