[
    "articles.models",
    "examples.blog.settings",
    "blog.articles.views",
    "mongonaut.urls",
    "mongonaut.templatetags",
    "manage",
    "sites",
    "blog.articles.tests.test_models",
    "form_utils",
    "examples.blog.articles.tests",
    "mongonaut.utils",
    "mongonaut.forms.forms",
    "form_mixins",
    "articles.tests",
    "blog.testrunner",
    "blog.manage",
    "articles.tests.test_models",
    "mongonaut.forms.widgets",
    "blog",
    "examples.blog.testrunner",
    "examples.blog.manage",
    "widgets",
    "tests.common",
    "tests",
    "views",
    "blog.articles.models",
    "tests.sites_tests",
    "mixins",
    "mongonaut.mixins",
    "mongonaut.forms.form_utils",
    "sites_tests",
    "docs.conf",
    "articles",
    "settings",
    "blog.articles.urls",
    "examples.blog.articles.views",
    "examples.blog",
    "common",
    "mongonaut.views",
    "exceptions",
    "articles.mongoadmin",
    "tests.test_models",
    "templatetags.mongonaut_tags",
    "view_tests",
    "examples.blog.urls",
    "utils",
    "mongonaut.templatetags.mongonaut_tags",
    "examples",
    "conf",
    "forms.forms",
    "examples.blog.articles",
    "mongonaut.exceptions",
    "examples.blog.articles.tests.test_models",
    "blog.articles.tests",
    "blog.articles.mongoadmin",
    "mongonaut.forms",
    "mongonaut.models",
    "forms.widgets",
    "forms",
    "testrunner",
    "blog.articles",
    "mongonaut.forms.form_mixins",
    "docs",
    "tests.runtests",
    "mongonaut_tags",
    "examples.blog.articles.models",
    "urls",
    "articles.urls",
    "models",
    "forms.form_mixins",
    "examples.blog.articles.urls",
    "blog.urls",
    "mongonaut.sites",
    "tests.common.utils",
    "examples.blog.articles.mongoadmin",
    "mongonaut",
    "tests.view_tests",
    "mongoadmin",
    "blog.settings",
    "templatetags",
    "test_models",
    "forms.form_utils",
    "common.utils",
    "articles.views",
    "runtests"
]