[
    "code",
    "code.convex_hull",
    "test_emptiness",
    "shapely.tests.test_multilinestring",
    "shapely.tests.test_iterops",
    "test_operators",
    "tests.test_multipolygon",
    "ftools",
    "shapely.geometry.multipolygon",
    "multipoint",
    "code.parallel_offset_mitre",
    "code.parallel_offset",
    "geometry.geo",
    "threading_test",
    "shapely.tests.test_validation",
    "tests.test_affinity",
    "examples.geoms",
    "geometry.linestring",
    "test_multilinestring",
    "shapely.tests.threading_test",
    "shapely.ctypes_declarations",
    "tests.test_vectorized",
    "tests.test_doctests",
    "difference",
    "geo",
    "multipolygon",
    "docs.code.rotate",
    "test_box",
    "shapely.tests.test_multipolygon",
    "geoms",
    "intersection-sym-difference",
    "geometry.multilinestring",
    "docs.code.multipolygon",
    "shapely.tests.test_styles",
    "iterops",
    "shapely.tests.test_operators",
    "shapely.tests.test_invalid_geometries",
    "apigen",
    "test_collection",
    "tests.test_styles",
    "test_geointerface",
    "test_invalid_geometries",
    "tests.test_box",
    "docs.sphinxext.apigen",
    "shapely.geometry.multipoint",
    "intersect",
    "shapely.tests.test_linestring",
    "multilinestring",
    "tests.test_multipoint",
    "code.difference",
    "tests.test_speedups",
    "geometry.polygon",
    "examples.world",
    "parallel_offset_mitre",
    "test_point",
    "test_prepared",
    "shapely.examples",
    "examples.intersect",
    "linestring",
    "tests.test_transform",
    "numpydoc",
    "test_operations",
    "dissolve",
    "shapely.tests.test_cga",
    "figures",
    "shapely.wkb",
    "code.scale",
    "shapely.topology",
    "docs.code.geometrycollection",
    "point",
    "shapely.tests.test_doctests",
    "code.polygon2",
    "test_union",
    "tests.test_collection",
    "docs.sphinxext.numpydoc",
    "cascaded_union",
    "shapely.tests.test_multipoint",
    "shapely.geometry.collection",
    "geometry.base",
    "shapely.algorithms.cga",
    "shapely.algorithms",
    "union",
    "code.rotate",
    "skew",
    "shapely.tests.test_vectorized",
    "test_iterops",
    "test_delegated",
    "docs.code.intersection-sym-difference",
    "shapely.tests.test_geomseq",
    "topology",
    "geometry.collection",
    "tests.test_prepared",
    "docs.code.convex_hull",
    "tests.test_operators",
    "shapely.geometry.proxy",
    "tests.test_ndarrays",
    "sphinxext.apigen",
    "tests.test_cga",
    "tests.test_linestring",
    "shapely.geometry.linestring",
    "geometry.multipolygon",
    "tests.test_mapping",
    "shapely.geometry.point",
    "tests.test_point",
    "test_speedups",
    "docscrape_sphinx",
    "tests.test_equality",
    "tests.test_xy",
    "docs.code.cascaded_union",
    "shapely.tests.test_linemerge",
    "docs.code.multilinestring",
    "test_linear_referencing",
    "test_multipoint",
    "wkb",
    "tests.threading_test",
    "shapely.tests.test_ndarrays",
    "shapely.wkt",
    "tests.test_delegated",
    "conf",
    "convex_hull",
    "wkt",
    "sphinxext.inheritance_diagram",
    "tests.test_polygonize",
    "test_doctests",
    "test_polygonize",
    "tests.test_geointerface",
    "test_transform",
    "shapely.geometry.polygon",
    "shapely.geometry.geo",
    "tests.test_polygon",
    "sphinxext.ipython_console_highlighting",
    "shapely.tests.test_products_z",
    "collection",
    "docs.code.simplify",
    "test_xy",
    "predicates",
    "docs.code.linestring",
    "shapely.tests.test_locale",
    "shapely.examples.world",
    "inheritance_diagram",
    "tests.test_locale",
    "tests.test_getitem",
    "algorithms",
    "tests.test_singularity",
    "docs.code.figures",
    "shapely.tests.test_dlls",
    "tests.test_predicates",
    "validation",
    "docs.code.parallel_offset",
    "algorithms.cga",
    "docs.code.buffer",
    "shapely.tests.test_linear_referencing",
    "world",
    "shapely.predicates",
    "test_styles",
    "test_ndarrays",
    "shapely.tests.test_collection",
    "shapely.geos",
    "tests.test_iterops",
    "affinity",
    "docs.conf",
    "shapely.prepared",
    "tests",
    "shapely.tests.test_delegated",
    "ops",
    "docs",
    "tests.test_dlls",
    "shapely.tests.test_affinity",
    "code.linestring",
    "code.intersection-sym-difference",
    "tests.test_pickle",
    "shapely.tests.test_mapping",
    "tests.test_linemerge",
    "docs.sphinxext.docscrape_sphinx",
    "rotate",
    "test_products_z",
    "test_singularity",
    "sphinxext",
    "docs.code.polygon",
    "coords",
    "test_validation",
    "docs.code.difference",
    "geometry.multipoint",
    "shapely.examples.geoms",
    "shapely.tests.test_speedups",
    "shapely.tests",
    "examples",
    "ipython_console_highlighting",
    "linref",
    "docs.code.union",
    "test_equality",
    "scale",
    "shapely.tests.test_polygonize",
    "shapely.tests.test_predicates",
    "geos",
    "buffer",
    "shapely.coords",
    "test_pickle",
    "test_affinity",
    "tests.test_validation",
    "test_mapping",
    "cga",
    "base",
    "proxy",
    "tests.test_invalid_geometries",
    "docs.code.polygon2",
    "shapely.tests.test_union",
    "shapely.tests.test_persist",
    "shapely.tests.test_prepared",
    "linearring",
    "code.union",
    "sphinxext.numpydoc",
    "geometry",
    "shapely.iterops",
    "shapely.tests.test_geointerface",
    "shapely.affinity",
    "geometry.point",
    "shapely",
    "code.cascaded_union",
    "shapely.tests.test_equality",
    "test_multipolygon",
    "tests.test_linear_referencing",
    "code.linearring",
    "tests.test_geomseq",
    "shapely.tests.test_xy",
    "code.polygon",
    "shapely.tests.test_point",
    "docs.code.parallel_offset_mitre",
    "geometrycollection",
    "docs.code.skew",
    "parallel_offset",
    "test_persist",
    "code.simplify",
    "docscrape",
    "sphinxext.docscrape_sphinx",
    "docs.code.linearring",
    "test_dlls",
    "shapely.ftools",
    "shapely.linref",
    "shapely.geometry.multilinestring",
    "test_getitem",
    "docs.sphinxext.inheritance_diagram",
    "code.geometrycollection",
    "tests.test_multilinestring",
    "shapely.ops",
    "polygon2",
    "shapely.tests.test_polygon",
    "code.buffer",
    "code.multipolygon",
    "code.multilinestring",
    "shapely.tests.test_getitem",
    "impl",
    "shapely.tests.test_singularity",
    "geometry.proxy",
    "test_predicates",
    "docs.sphinxext",
    "code.skew",
    "shapely.tests.test_box",
    "test_locale",
    "polygon",
    "shapely.tests.test_transform",
    "shapely.geometry.base",
    "tests.test_operations",
    "shapely.tests.test_emptiness",
    "shapely.impl",
    "sphinxext.docscrape",
    "shapely.tests.test_operations",
    "tests.test_products_z",
    "shapely.geometry",
    "tests.test_union",
    "test_geomseq",
    "ctypes_declarations",
    "prepared",
    "simplify",
    "docs.code.scale",
    "tests.test_emptiness",
    "test_linemerge",
    "docs.sphinxext.docscrape",
    "shapely.examples.intersect",
    "shapely.validation",
    "test_linestring",
    "shapely.tests.test_pickle",
    "test_cga",
    "test_vectorized",
    "docs.sphinxext.ipython_console_highlighting",
    "examples.dissolve",
    "shapely.examples.dissolve",
    "code.figures",
    "test_polygon",
    "tests.test_persist",
    "docs.code"
]