{
    "archive_url": "https://api.github.com/repos/moxie0/chapcrack/{archive_format}{/ref}",
    "assignees_url": "https://api.github.com/repos/moxie0/chapcrack/assignees{/user}",
    "blobs_url": "https://api.github.com/repos/moxie0/chapcrack/git/blobs{/sha}",
    "branches_url": "https://api.github.com/repos/moxie0/chapcrack/branches{/branch}",
    "clone_url": "https://github.com/moxie0/chapcrack.git",
    "collaborators_url": "https://api.github.com/repos/moxie0/chapcrack/collaborators{/collaborator}",
    "comments_url": "https://api.github.com/repos/moxie0/chapcrack/comments{/number}",
    "commits_url": "https://api.github.com/repos/moxie0/chapcrack/commits{/sha}",
    "compare_url": "https://api.github.com/repos/moxie0/chapcrack/compare/{base}...{head}",
    "contents_url": "https://api.github.com/repos/moxie0/chapcrack/contents/{+path}",
    "contributors_url": "https://api.github.com/repos/moxie0/chapcrack/contributors",
    "created_at": "2012-06-05T06:56:22Z",
    "default_branch": "master",
    "description": "",
    "downloads_url": "https://api.github.com/repos/moxie0/chapcrack/downloads",
    "events_url": "https://api.github.com/repos/moxie0/chapcrack/events",
    "fork": false,
    "forks": 31,
    "forks_count": 31,
    "forks_url": "https://api.github.com/repos/moxie0/chapcrack/forks",
    "full_name": "moxie0/chapcrack",
    "git_commits_url": "https://api.github.com/repos/moxie0/chapcrack/git/commits{/sha}",
    "git_refs_url": "https://api.github.com/repos/moxie0/chapcrack/git/refs{/sha}",
    "git_tags_url": "https://api.github.com/repos/moxie0/chapcrack/git/tags{/sha}",
    "git_url": "git://github.com/moxie0/chapcrack.git",
    "has_downloads": true,
    "has_issues": true,
    "has_wiki": true,
    "homepage": null,
    "hooks_url": "https://api.github.com/repos/moxie0/chapcrack/hooks",
    "html_url": "https://github.com/moxie0/chapcrack",
    "id": 4556774,
    "issue_comment_url": "https://api.github.com/repos/moxie0/chapcrack/issues/comments/{number}",
    "issue_events_url": "https://api.github.com/repos/moxie0/chapcrack/issues/events{/number}",
    "issues_url": "https://api.github.com/repos/moxie0/chapcrack/issues{/number}",
    "keys_url": "https://api.github.com/repos/moxie0/chapcrack/keys{/key_id}",
    "labels_url": "https://api.github.com/repos/moxie0/chapcrack/labels{/name}",
    "language": "Python",
    "languages_url": "https://api.github.com/repos/moxie0/chapcrack/languages",
    "merges_url": "https://api.github.com/repos/moxie0/chapcrack/merges",
    "milestones_url": "https://api.github.com/repos/moxie0/chapcrack/milestones{/number}",
    "mirror_url": null,
    "name": "chapcrack",
    "notifications_url": "https://api.github.com/repos/moxie0/chapcrack/notifications{?since,all,participating}",
    "open_issues": 10,
    "open_issues_count": 10,
    "owner": {
        "avatar_url": "https://avatars.githubusercontent.com/u/512439?",
        "events_url": "https://api.github.com/users/moxie0/events{/privacy}",
        "followers_url": "https://api.github.com/users/moxie0/followers",
        "following_url": "https://api.github.com/users/moxie0/following{/other_user}",
        "gists_url": "https://api.github.com/users/moxie0/gists{/gist_id}",
        "gravatar_id": "3039ee38b82701f3d0dd0fbb901a754f",
        "html_url": "https://github.com/moxie0",
        "id": 512439,
        "login": "moxie0",
        "organizations_url": "https://api.github.com/users/moxie0/orgs",
        "received_events_url": "https://api.github.com/users/moxie0/received_events",
        "repos_url": "https://api.github.com/users/moxie0/repos",
        "site_admin": false,
        "starred_url": "https://api.github.com/users/moxie0/starred{/owner}{/repo}",
        "subscriptions_url": "https://api.github.com/users/moxie0/subscriptions",
        "type": "User",
        "url": "https://api.github.com/users/moxie0"
    },
    "private": false,
    "pulls_url": "https://api.github.com/repos/moxie0/chapcrack/pulls{/number}",
    "pushed_at": "2012-09-22T19:04:20Z",
    "releases_url": "https://api.github.com/repos/moxie0/chapcrack/releases{/id}",
    "score": 1.0,
    "size": 254,
    "ssh_url": "git@github.com:moxie0/chapcrack.git",
    "stargazers_count": 159,
    "stargazers_url": "https://api.github.com/repos/moxie0/chapcrack/stargazers",
    "statuses_url": "https://api.github.com/repos/moxie0/chapcrack/statuses/{sha}",
    "subscribers_url": "https://api.github.com/repos/moxie0/chapcrack/subscribers",
    "subscription_url": "https://api.github.com/repos/moxie0/chapcrack/subscription",
    "svn_url": "https://github.com/moxie0/chapcrack",
    "tags_url": "https://api.github.com/repos/moxie0/chapcrack/tags",
    "teams_url": "https://api.github.com/repos/moxie0/chapcrack/teams",
    "trees_url": "https://api.github.com/repos/moxie0/chapcrack/git/trees{/sha}",
    "updated_at": "2014-04-28T06:39:03Z",
    "url": "https://api.github.com/repos/moxie0/chapcrack",
    "watchers": 159,
    "watchers_count": 159
}