{
    "archive_url": "https://api.github.com/repos/hasgeek/lastuser/{archive_format}{/ref}",
    "assignees_url": "https://api.github.com/repos/hasgeek/lastuser/assignees{/user}",
    "blobs_url": "https://api.github.com/repos/hasgeek/lastuser/git/blobs{/sha}",
    "branches_url": "https://api.github.com/repos/hasgeek/lastuser/branches{/branch}",
    "clone_url": "https://github.com/hasgeek/lastuser.git",
    "collaborators_url": "https://api.github.com/repos/hasgeek/lastuser/collaborators{/collaborator}",
    "comments_url": "https://api.github.com/repos/hasgeek/lastuser/comments{/number}",
    "commits_url": "https://api.github.com/repos/hasgeek/lastuser/commits{/sha}",
    "compare_url": "https://api.github.com/repos/hasgeek/lastuser/compare/{base}...{head}",
    "contents_url": "https://api.github.com/repos/hasgeek/lastuser/contents/{+path}",
    "contributors_url": "https://api.github.com/repos/hasgeek/lastuser/contributors",
    "created_at": "2011-02-17T14:58:31Z",
    "default_branch": "master",
    "description": "User management in each new app is a pain. This is the last time you should be doing it",
    "downloads_url": "https://api.github.com/repos/hasgeek/lastuser/downloads",
    "events_url": "https://api.github.com/repos/hasgeek/lastuser/events",
    "fork": false,
    "forks": 28,
    "forks_count": 28,
    "forks_url": "https://api.github.com/repos/hasgeek/lastuser/forks",
    "full_name": "hasgeek/lastuser",
    "git_commits_url": "https://api.github.com/repos/hasgeek/lastuser/git/commits{/sha}",
    "git_refs_url": "https://api.github.com/repos/hasgeek/lastuser/git/refs{/sha}",
    "git_tags_url": "https://api.github.com/repos/hasgeek/lastuser/git/tags{/sha}",
    "git_url": "git://github.com/hasgeek/lastuser.git",
    "has_downloads": true,
    "has_issues": true,
    "has_wiki": true,
    "homepage": "https://auth.hasgeek.com/",
    "hooks_url": "https://api.github.com/repos/hasgeek/lastuser/hooks",
    "html_url": "https://github.com/hasgeek/lastuser",
    "id": 1378511,
    "issue_comment_url": "https://api.github.com/repos/hasgeek/lastuser/issues/comments/{number}",
    "issue_events_url": "https://api.github.com/repos/hasgeek/lastuser/issues/events{/number}",
    "issues_url": "https://api.github.com/repos/hasgeek/lastuser/issues{/number}",
    "keys_url": "https://api.github.com/repos/hasgeek/lastuser/keys{/key_id}",
    "labels_url": "https://api.github.com/repos/hasgeek/lastuser/labels{/name}",
    "language": "Python",
    "languages_url": "https://api.github.com/repos/hasgeek/lastuser/languages",
    "merges_url": "https://api.github.com/repos/hasgeek/lastuser/merges",
    "milestones_url": "https://api.github.com/repos/hasgeek/lastuser/milestones{/number}",
    "mirror_url": null,
    "name": "lastuser",
    "notifications_url": "https://api.github.com/repos/hasgeek/lastuser/notifications{?since,all,participating}",
    "open_issues": 50,
    "open_issues_count": 50,
    "owner": {
        "avatar_url": "https://avatars.githubusercontent.com/u/443850?",
        "events_url": "https://api.github.com/users/hasgeek/events{/privacy}",
        "followers_url": "https://api.github.com/users/hasgeek/followers",
        "following_url": "https://api.github.com/users/hasgeek/following{/other_user}",
        "gists_url": "https://api.github.com/users/hasgeek/gists{/gist_id}",
        "gravatar_id": "ad81a36b5b843e41cbd8af57c4846b4a",
        "html_url": "https://github.com/hasgeek",
        "id": 443850,
        "login": "hasgeek",
        "organizations_url": "https://api.github.com/users/hasgeek/orgs",
        "received_events_url": "https://api.github.com/users/hasgeek/received_events",
        "repos_url": "https://api.github.com/users/hasgeek/repos",
        "site_admin": false,
        "starred_url": "https://api.github.com/users/hasgeek/starred{/owner}{/repo}",
        "subscriptions_url": "https://api.github.com/users/hasgeek/subscriptions",
        "type": "Organization",
        "url": "https://api.github.com/users/hasgeek"
    },
    "private": false,
    "pulls_url": "https://api.github.com/repos/hasgeek/lastuser/pulls{/number}",
    "pushed_at": "2014-04-30T11:59:19Z",
    "releases_url": "https://api.github.com/repos/hasgeek/lastuser/releases{/id}",
    "score": 1.0,
    "size": 2637,
    "ssh_url": "git@github.com:hasgeek/lastuser.git",
    "stargazers_count": 89,
    "stargazers_url": "https://api.github.com/repos/hasgeek/lastuser/stargazers",
    "statuses_url": "https://api.github.com/repos/hasgeek/lastuser/statuses/{sha}",
    "subscribers_url": "https://api.github.com/repos/hasgeek/lastuser/subscribers",
    "subscription_url": "https://api.github.com/repos/hasgeek/lastuser/subscription",
    "svn_url": "https://github.com/hasgeek/lastuser",
    "tags_url": "https://api.github.com/repos/hasgeek/lastuser/tags",
    "teams_url": "https://api.github.com/repos/hasgeek/lastuser/teams",
    "trees_url": "https://api.github.com/repos/hasgeek/lastuser/git/trees{/sha}",
    "updated_at": "2014-04-30T11:59:18Z",
    "url": "https://api.github.com/repos/hasgeek/lastuser",
    "watchers": 89,
    "watchers_count": 89
}