[
    "lastuser_ui.forms.org",
    "alembic.versions.165f20377abe_timestamp_team_membe",
    "models.notice",
    "views.client",
    "test_db",
    "16f88a0a1ad3_client_ids_for_user_",
    "mailclient",
    "session",
    "lastuser_core.models.notice",
    "lastuser_ui.views.profile",
    "fixtures",
    "runserver",
    "views.sms",
    "2dcc6f5ab4cf_one_claim_per_email_",
    "lastuser_ui.forms.client",
    "165f20377abe_timestamp_team_membe",
    "signals",
    "test_model_client",
    "lastuser_oauth.providers.openid",
    "tests",
    "views",
    "lastuserapp",
    "auth",
    "versions.4072c5dbca9f_email_length",
    "alembic.versions.25e7a9839cd4_user_status_flag",
    "lastuser_oauth.forms.auth",
    "providers.twitter",
    "lastuser_oauth.providers.twitter",
    "184ed1055383_init",
    "resource",
    "versions.25e7a9839cd4_user_status_flag",
    "alembic.versions.184ed1055383_init",
    "views.resource",
    "25e7a9839cd4_user_status_flag",
    "lastuser_core.models",
    "versions.16f88a0a1ad3_client_ids_for_user_",
    "4072c5dbca9f_email_length",
    "lastuser_oauth.views.helpers",
    "alembic.versions.3a4e0ea70ef_user_sessions",
    "google",
    "tests.test_model_user",
    "openid",
    "twitter",
    "versions.3e15e2b894d5_longer_scope",
    "views.notify",
    "lastuser_oauth.views.login",
    "index",
    "lastuser_oauth.views.account",
    "views.helpers",
    "rqinit",
    "forms.login",
    "sms",
    "instance.testing",
    "alembic.versions.4072c5dbca9f_email_length",
    "forms.auth",
    "lastuser_ui.views.org",
    "versions.7b0ba76b89e_resource_namespace",
    "providers.openid",
    "views.login",
    "lastuser_oauth.views.notify",
    "notice",
    "lastuser_ui",
    "versions.3b3583fcbaea_namespace_column",
    "org",
    "versions.11a71745a9a8_referring_user_for_i",
    "models.client",
    "11a71745a9a8_referring_user_for_i",
    "_version",
    "test_model_notice",
    "alembic.versions.3b3583fcbaea_namespace_column",
    "helpers",
    "login",
    "lastuser_ui.views.index",
    "alembic",
    "user",
    "manage",
    "lastuser_ui.forms.profile",
    "3a4e0ea70ef_user_sessions",
    "lastuser_oauth.views",
    "tests.test_model_notice",
    "lastuser_oauth.mailclient",
    "notify",
    "lastuser_oauth.forms.profile",
    "lastuser_oauth.forms.login",
    "tests.fixtures",
    "lastuser_oauth.views.profile",
    "forms",
    "lastuser_ui.views.sms",
    "lastuser_core.models.user",
    "versions.184ed1055383_init",
    "lastuser_oauth",
    "alembic.versions.11a71745a9a8_referring_user_for_i",
    "versions.2dcc6f5ab4cf_one_claim_per_email_",
    "lastuser_core.models.client",
    "settings-sample",
    "models.user",
    "versions.3a4e0ea70ef_user_sessions",
    "7b0ba76b89e_resource_namespace",
    "testing",
    "models.session",
    "alembic.versions.3e15e2b894d5_longer_scope",
    "alembic.versions.35a6ffd7a079_restricted_resources",
    "alembic.versions.16f88a0a1ad3_client_ids_for_user_",
    "sitecustomize",
    "test_model_user",
    "oauth",
    "lastuserapp._version",
    "lastuser_oauth.providers.linkedin",
    "lastuser_oauth.providers.google",
    "views.oauth",
    "account",
    "versions",
    "providers.google",
    "rqdev",
    "lastuser_oauth.views.resource",
    "website",
    "lastuser_core.registry",
    "providers",
    "lastuser_core.signals",
    "utils",
    "alembic.versions.2dcc6f5ab4cf_one_claim_per_email_",
    "linkedin",
    "forms.client",
    "shell",
    "instance.settings-sample",
    "tests.test_model_client",
    "versions.165f20377abe_timestamp_team_membe",
    "3b3583fcbaea_namespace_column",
    "tests.test_db",
    "lastuser_oauth.views.oauth",
    "instance",
    "lastuser_ui.views",
    "lastuser_ui.views.client",
    "env",
    "alembic.versions.7b0ba76b89e_resource_namespace",
    "lastuser_core",
    "profile",
    "providers.github",
    "lastuser_oauth.forms",
    "views.account",
    "lastuser_ui.forms",
    "lastuser_oauth.providers",
    "views.index",
    "models",
    "alembic.env",
    "views.org",
    "lastuser_core.utils",
    "registry",
    "views.profile",
    "github",
    "lastuser_core.models.session",
    "lastuser_oauth.providers.github",
    "providers.linkedin",
    "3e15e2b894d5_longer_scope",
    "alembic.versions",
    "client",
    "35a6ffd7a079_restricted_resources",
    "versions.35a6ffd7a079_restricted_resources",
    "forms.profile",
    "forms.org"
]