{
    "archive_url": "https://api.github.com/repos/dcramer/django-paging/{archive_format}{/ref}",
    "assignees_url": "https://api.github.com/repos/dcramer/django-paging/assignees{/user}",
    "blobs_url": "https://api.github.com/repos/dcramer/django-paging/git/blobs{/sha}",
    "branches_url": "https://api.github.com/repos/dcramer/django-paging/branches{/branch}",
    "clone_url": "https://github.com/dcramer/django-paging.git",
    "collaborators_url": "https://api.github.com/repos/dcramer/django-paging/collaborators{/collaborator}",
    "comments_url": "https://api.github.com/repos/dcramer/django-paging/comments{/number}",
    "commits_url": "https://api.github.com/repos/dcramer/django-paging/commits{/sha}",
    "compare_url": "https://api.github.com/repos/dcramer/django-paging/compare/{base}...{head}",
    "contents_url": "https://api.github.com/repos/dcramer/django-paging/contents/{+path}",
    "contributors_url": "https://api.github.com/repos/dcramer/django-paging/contributors",
    "created_at": "2010-07-14T18:41:00Z",
    "default_branch": "master",
    "description": "Sexy pagination in Django",
    "downloads_url": "https://api.github.com/repos/dcramer/django-paging/downloads",
    "events_url": "https://api.github.com/repos/dcramer/django-paging/events",
    "fork": false,
    "forks": 23,
    "forks_count": 23,
    "forks_url": "https://api.github.com/repos/dcramer/django-paging/forks",
    "full_name": "dcramer/django-paging",
    "git_commits_url": "https://api.github.com/repos/dcramer/django-paging/git/commits{/sha}",
    "git_refs_url": "https://api.github.com/repos/dcramer/django-paging/git/refs{/sha}",
    "git_tags_url": "https://api.github.com/repos/dcramer/django-paging/git/tags{/sha}",
    "git_url": "git://github.com/dcramer/django-paging.git",
    "has_downloads": true,
    "has_issues": true,
    "has_wiki": true,
    "homepage": "",
    "hooks_url": "https://api.github.com/repos/dcramer/django-paging/hooks",
    "html_url": "https://github.com/dcramer/django-paging",
    "id": 775164,
    "issue_comment_url": "https://api.github.com/repos/dcramer/django-paging/issues/comments/{number}",
    "issue_events_url": "https://api.github.com/repos/dcramer/django-paging/issues/events{/number}",
    "issues_url": "https://api.github.com/repos/dcramer/django-paging/issues{/number}",
    "keys_url": "https://api.github.com/repos/dcramer/django-paging/keys{/key_id}",
    "labels_url": "https://api.github.com/repos/dcramer/django-paging/labels{/name}",
    "language": "Python",
    "languages_url": "https://api.github.com/repos/dcramer/django-paging/languages",
    "merges_url": "https://api.github.com/repos/dcramer/django-paging/merges",
    "milestones_url": "https://api.github.com/repos/dcramer/django-paging/milestones{/number}",
    "mirror_url": null,
    "name": "django-paging",
    "notifications_url": "https://api.github.com/repos/dcramer/django-paging/notifications{?since,all,participating}",
    "open_issues": 9,
    "open_issues_count": 9,
    "owner": {
        "avatar_url": "https://avatars.githubusercontent.com/u/23610?",
        "events_url": "https://api.github.com/users/dcramer/events{/privacy}",
        "followers_url": "https://api.github.com/users/dcramer/followers",
        "following_url": "https://api.github.com/users/dcramer/following{/other_user}",
        "gists_url": "https://api.github.com/users/dcramer/gists{/gist_id}",
        "gravatar_id": "51567a4f786cd8a2c41c513b592de9f9",
        "html_url": "https://github.com/dcramer",
        "id": 23610,
        "login": "dcramer",
        "organizations_url": "https://api.github.com/users/dcramer/orgs",
        "received_events_url": "https://api.github.com/users/dcramer/received_events",
        "repos_url": "https://api.github.com/users/dcramer/repos",
        "site_admin": false,
        "starred_url": "https://api.github.com/users/dcramer/starred{/owner}{/repo}",
        "subscriptions_url": "https://api.github.com/users/dcramer/subscriptions",
        "type": "User",
        "url": "https://api.github.com/users/dcramer"
    },
    "private": false,
    "pulls_url": "https://api.github.com/repos/dcramer/django-paging/pulls{/number}",
    "pushed_at": "2013-05-07T06:51:54Z",
    "releases_url": "https://api.github.com/repos/dcramer/django-paging/releases{/id}",
    "score": 1.0,
    "size": 170,
    "ssh_url": "git@github.com:dcramer/django-paging.git",
    "stargazers_count": 96,
    "stargazers_url": "https://api.github.com/repos/dcramer/django-paging/stargazers",
    "statuses_url": "https://api.github.com/repos/dcramer/django-paging/statuses/{sha}",
    "subscribers_url": "https://api.github.com/repos/dcramer/django-paging/subscribers",
    "subscription_url": "https://api.github.com/repos/dcramer/django-paging/subscription",
    "svn_url": "https://github.com/dcramer/django-paging",
    "tags_url": "https://api.github.com/repos/dcramer/django-paging/tags",
    "teams_url": "https://api.github.com/repos/dcramer/django-paging/teams",
    "trees_url": "https://api.github.com/repos/dcramer/django-paging/git/trees{/sha}",
    "updated_at": "2014-05-06T22:34:30Z",
    "url": "https://api.github.com/repos/dcramer/django-paging",
    "watchers": 96,
    "watchers_count": 96
}