[
    "hello_class.classes",
    "pquiz",
    "tools",
    "classes",
    "classic-games.hello_class.game",
    "game",
    "classic-games",
    "pquiz.pquiz",
    "classic-games.hello_class.classes",
    "classic-games.hello_class",
    "hello_class.game",
    "tools.pquiz.pquiz",
    "hello_class",
    "tools.pquiz"
]