[
    "blist.test.sorteddict_tests",
    "test_support",
    "blist.test.test_set",
    "test_list",
    "blist.test.test_list",
    "unittest",
    "test.seq_tests",
    "replot",
    "test.test_list",
    "sortedlist_tests",
    "blist._btuple",
    "test.test_support",
    "conf",
    "test.sortedlist_tests",
    "test.mapping_tests",
    "blist.test",
    "btuple_tests",
    "_sortedlist",
    "test_set",
    "test.list_tests",
    "list_tests",
    "doc.conf",
    "speed_test",
    "blist",
    "test",
    "prototype",
    "test_blist",
    "test.unittest",
    "blist.test.test_support",
    "blist.test.mapping_tests",
    "blist.test.unittest",
    "blist.test.seq_tests",
    "mapping_tests",
    "summarize",
    "speed_test_native",
    "test.test_set",
    "_btuple",
    "blist.test.btuple_tests",
    "prototype.blist",
    "blist.test.sortedlist_tests",
    "doc",
    "fuzz",
    "blist._sortedlist",
    "blist.test.list_tests",
    "test.btuple_tests",
    "sorteddict_tests",
    "_sorteddict",
    "blist._sorteddict",
    "seq_tests",
    "test.sorteddict_tests"
]