{
    "archive_url": "https://api.github.com/repos/justzx2011/openyoudao/{archive_format}{/ref}",
    "assignees_url": "https://api.github.com/repos/justzx2011/openyoudao/assignees{/user}",
    "blobs_url": "https://api.github.com/repos/justzx2011/openyoudao/git/blobs{/sha}",
    "branches_url": "https://api.github.com/repos/justzx2011/openyoudao/branches{/branch}",
    "clone_url": "https://github.com/justzx2011/openyoudao.git",
    "collaborators_url": "https://api.github.com/repos/justzx2011/openyoudao/collaborators{/collaborator}",
    "comments_url": "https://api.github.com/repos/justzx2011/openyoudao/comments{/number}",
    "commits_url": "https://api.github.com/repos/justzx2011/openyoudao/commits{/sha}",
    "compare_url": "https://api.github.com/repos/justzx2011/openyoudao/compare/{base}...{head}",
    "contents_url": "https://api.github.com/repos/justzx2011/openyoudao/contents/{+path}",
    "contributors_url": "https://api.github.com/repos/justzx2011/openyoudao/contributors",
    "created_at": "2012-05-30T18:40:25Z",
    "default_branch": "master",
    "description": "openyoudao is a youdao client for linux.\u6709\u9053\u5b57\u5178\u5728Linux\u4e0b\u7684\u5ba2\u6237\u7aef\uff0c\u76ee\u524d\u7a0b\u5e8f\u5df2\u7ecf\u8fdb\u5165aur\u6e90\uff0c\u5e76\u652f\u6301Debian/Ubuntu fedora/centos \u7b49\u5e38\u7528\u53d1\u884c\u7248linux",
    "downloads_url": "https://api.github.com/repos/justzx2011/openyoudao/downloads",
    "events_url": "https://api.github.com/repos/justzx2011/openyoudao/events",
    "fork": false,
    "forks": 70,
    "forks_count": 70,
    "forks_url": "https://api.github.com/repos/justzx2011/openyoudao/forks",
    "full_name": "justzx2011/openyoudao",
    "git_commits_url": "https://api.github.com/repos/justzx2011/openyoudao/git/commits{/sha}",
    "git_refs_url": "https://api.github.com/repos/justzx2011/openyoudao/git/refs{/sha}",
    "git_tags_url": "https://api.github.com/repos/justzx2011/openyoudao/git/tags{/sha}",
    "git_url": "git://github.com/justzx2011/openyoudao.git",
    "has_downloads": true,
    "has_issues": true,
    "has_wiki": true,
    "homepage": "http://openyoudao.org",
    "hooks_url": "https://api.github.com/repos/justzx2011/openyoudao/hooks",
    "html_url": "https://github.com/justzx2011/openyoudao",
    "id": 4498553,
    "issue_comment_url": "https://api.github.com/repos/justzx2011/openyoudao/issues/comments/{number}",
    "issue_events_url": "https://api.github.com/repos/justzx2011/openyoudao/issues/events{/number}",
    "issues_url": "https://api.github.com/repos/justzx2011/openyoudao/issues{/number}",
    "keys_url": "https://api.github.com/repos/justzx2011/openyoudao/keys{/key_id}",
    "labels_url": "https://api.github.com/repos/justzx2011/openyoudao/labels{/name}",
    "language": "Python",
    "languages_url": "https://api.github.com/repos/justzx2011/openyoudao/languages",
    "merges_url": "https://api.github.com/repos/justzx2011/openyoudao/merges",
    "milestones_url": "https://api.github.com/repos/justzx2011/openyoudao/milestones{/number}",
    "mirror_url": null,
    "name": "openyoudao",
    "notifications_url": "https://api.github.com/repos/justzx2011/openyoudao/notifications{?since,all,participating}",
    "open_issues": 19,
    "open_issues_count": 19,
    "owner": {
        "avatar_url": "https://avatars.githubusercontent.com/u/1185865?",
        "events_url": "https://api.github.com/users/justzx2011/events{/privacy}",
        "followers_url": "https://api.github.com/users/justzx2011/followers",
        "following_url": "https://api.github.com/users/justzx2011/following{/other_user}",
        "gists_url": "https://api.github.com/users/justzx2011/gists{/gist_id}",
        "gravatar_id": "d25cbf1e563ce8b3ab741458aac024eb",
        "html_url": "https://github.com/justzx2011",
        "id": 1185865,
        "login": "justzx2011",
        "organizations_url": "https://api.github.com/users/justzx2011/orgs",
        "received_events_url": "https://api.github.com/users/justzx2011/received_events",
        "repos_url": "https://api.github.com/users/justzx2011/repos",
        "site_admin": false,
        "starred_url": "https://api.github.com/users/justzx2011/starred{/owner}{/repo}",
        "subscriptions_url": "https://api.github.com/users/justzx2011/subscriptions",
        "type": "User",
        "url": "https://api.github.com/users/justzx2011"
    },
    "private": false,
    "pulls_url": "https://api.github.com/repos/justzx2011/openyoudao/pulls{/number}",
    "pushed_at": "2014-04-29T14:43:16Z",
    "releases_url": "https://api.github.com/repos/justzx2011/openyoudao/releases{/id}",
    "score": 1.0,
    "size": 7504,
    "ssh_url": "git@github.com:justzx2011/openyoudao.git",
    "stargazers_count": 116,
    "stargazers_url": "https://api.github.com/repos/justzx2011/openyoudao/stargazers",
    "statuses_url": "https://api.github.com/repos/justzx2011/openyoudao/statuses/{sha}",
    "subscribers_url": "https://api.github.com/repos/justzx2011/openyoudao/subscribers",
    "subscription_url": "https://api.github.com/repos/justzx2011/openyoudao/subscription",
    "svn_url": "https://github.com/justzx2011/openyoudao",
    "tags_url": "https://api.github.com/repos/justzx2011/openyoudao/tags",
    "teams_url": "https://api.github.com/repos/justzx2011/openyoudao/teams",
    "trees_url": "https://api.github.com/repos/justzx2011/openyoudao/git/trees{/sha}",
    "updated_at": "2014-05-06T17:58:04Z",
    "url": "https://api.github.com/repos/justzx2011/openyoudao",
    "watchers": 116,
    "watchers_count": 116
}