[
    "redis_router.tcp_interface",
    "examples.tcp_server",
    "http_interface",
    "tcp_server",
    "redis_router.http_interface",
    "tests",
    "redis_router",
    "examples.http_server",
    "tcp_interface",
    "http_server",
    "router",
    "redis_router.router",
    "examples"
]