{
    "archive_url": "https://api.github.com/repos/holland-backup/holland/{archive_format}{/ref}",
    "assignees_url": "https://api.github.com/repos/holland-backup/holland/assignees{/user}",
    "blobs_url": "https://api.github.com/repos/holland-backup/holland/git/blobs{/sha}",
    "branches_url": "https://api.github.com/repos/holland-backup/holland/branches{/branch}",
    "clone_url": "https://github.com/holland-backup/holland.git",
    "collaborators_url": "https://api.github.com/repos/holland-backup/holland/collaborators{/collaborator}",
    "comments_url": "https://api.github.com/repos/holland-backup/holland/comments{/number}",
    "commits_url": "https://api.github.com/repos/holland-backup/holland/commits{/sha}",
    "compare_url": "https://api.github.com/repos/holland-backup/holland/compare/{base}...{head}",
    "contents_url": "https://api.github.com/repos/holland-backup/holland/contents/{+path}",
    "contributors_url": "https://api.github.com/repos/holland-backup/holland/contributors",
    "created_at": "2010-03-18T22:20:14Z",
    "default_branch": "master",
    "description": "Holland Backup Manager",
    "downloads_url": "https://api.github.com/repos/holland-backup/holland/downloads",
    "events_url": "https://api.github.com/repos/holland-backup/holland/events",
    "fork": false,
    "forks": 18,
    "forks_count": 18,
    "forks_url": "https://api.github.com/repos/holland-backup/holland/forks",
    "full_name": "holland-backup/holland",
    "git_commits_url": "https://api.github.com/repos/holland-backup/holland/git/commits{/sha}",
    "git_refs_url": "https://api.github.com/repos/holland-backup/holland/git/refs{/sha}",
    "git_tags_url": "https://api.github.com/repos/holland-backup/holland/git/tags{/sha}",
    "git_url": "git://github.com/holland-backup/holland.git",
    "has_downloads": true,
    "has_issues": true,
    "has_wiki": true,
    "homepage": "http://hollandbackup.org",
    "hooks_url": "https://api.github.com/repos/holland-backup/holland/hooks",
    "html_url": "https://github.com/holland-backup/holland",
    "id": 569024,
    "issue_comment_url": "https://api.github.com/repos/holland-backup/holland/issues/comments/{number}",
    "issue_events_url": "https://api.github.com/repos/holland-backup/holland/issues/events{/number}",
    "issues_url": "https://api.github.com/repos/holland-backup/holland/issues{/number}",
    "keys_url": "https://api.github.com/repos/holland-backup/holland/keys{/key_id}",
    "labels_url": "https://api.github.com/repos/holland-backup/holland/labels{/name}",
    "language": "Python",
    "languages_url": "https://api.github.com/repos/holland-backup/holland/languages",
    "merges_url": "https://api.github.com/repos/holland-backup/holland/merges",
    "milestones_url": "https://api.github.com/repos/holland-backup/holland/milestones{/number}",
    "mirror_url": null,
    "name": "holland",
    "notifications_url": "https://api.github.com/repos/holland-backup/holland/notifications{?since,all,participating}",
    "open_issues": 2,
    "open_issues_count": 2,
    "owner": {
        "avatar_url": "https://avatars.githubusercontent.com/u/225716?",
        "events_url": "https://api.github.com/users/holland-backup/events{/privacy}",
        "followers_url": "https://api.github.com/users/holland-backup/followers",
        "following_url": "https://api.github.com/users/holland-backup/following{/other_user}",
        "gists_url": "https://api.github.com/users/holland-backup/gists{/gist_id}",
        "gravatar_id": "e83effe5f26b7eb76ce2b36cac788d5f",
        "html_url": "https://github.com/holland-backup",
        "id": 225716,
        "login": "holland-backup",
        "organizations_url": "https://api.github.com/users/holland-backup/orgs",
        "received_events_url": "https://api.github.com/users/holland-backup/received_events",
        "repos_url": "https://api.github.com/users/holland-backup/repos",
        "site_admin": false,
        "starred_url": "https://api.github.com/users/holland-backup/starred{/owner}{/repo}",
        "subscriptions_url": "https://api.github.com/users/holland-backup/subscriptions",
        "type": "Organization",
        "url": "https://api.github.com/users/holland-backup"
    },
    "private": false,
    "pulls_url": "https://api.github.com/repos/holland-backup/holland/pulls{/number}",
    "pushed_at": "2014-02-07T04:40:42Z",
    "releases_url": "https://api.github.com/repos/holland-backup/holland/releases{/id}",
    "score": 1.0,
    "size": 36149,
    "ssh_url": "git@github.com:holland-backup/holland.git",
    "stargazers_count": 54,
    "stargazers_url": "https://api.github.com/repos/holland-backup/holland/stargazers",
    "statuses_url": "https://api.github.com/repos/holland-backup/holland/statuses/{sha}",
    "subscribers_url": "https://api.github.com/repos/holland-backup/holland/subscribers",
    "subscription_url": "https://api.github.com/repos/holland-backup/holland/subscription",
    "svn_url": "https://github.com/holland-backup/holland",
    "tags_url": "https://api.github.com/repos/holland-backup/holland/tags",
    "teams_url": "https://api.github.com/repos/holland-backup/holland/teams",
    "trees_url": "https://api.github.com/repos/holland-backup/holland/git/trees{/sha}",
    "updated_at": "2014-04-27T02:53:05Z",
    "url": "https://api.github.com/repos/holland-backup/holland",
    "watchers": 54,
    "watchers_count": 54
}