{
    "archive_url": "https://api.github.com/repos/SpiderLabs/Responder/{archive_format}{/ref}",
    "assignees_url": "https://api.github.com/repos/SpiderLabs/Responder/assignees{/user}",
    "blobs_url": "https://api.github.com/repos/SpiderLabs/Responder/git/blobs{/sha}",
    "branches_url": "https://api.github.com/repos/SpiderLabs/Responder/branches{/branch}",
    "clone_url": "https://github.com/SpiderLabs/Responder.git",
    "collaborators_url": "https://api.github.com/repos/SpiderLabs/Responder/collaborators{/collaborator}",
    "comments_url": "https://api.github.com/repos/SpiderLabs/Responder/comments{/number}",
    "commits_url": "https://api.github.com/repos/SpiderLabs/Responder/commits{/sha}",
    "compare_url": "https://api.github.com/repos/SpiderLabs/Responder/compare/{base}...{head}",
    "contents_url": "https://api.github.com/repos/SpiderLabs/Responder/contents/{+path}",
    "contributors_url": "https://api.github.com/repos/SpiderLabs/Responder/contributors",
    "created_at": "2012-10-24T14:35:12Z",
    "default_branch": "master",
    "description": "Responder is a LLMNR, NBT-NS and MDNS poisoner, with built-in HTTP/SMB/MSSQL/FTP/LDAP rogue authentication server supporting NTLMv1/NTLMv2/LMv2, Extended Security NTLMSSP and Basic HTTP authentication.",
    "downloads_url": "https://api.github.com/repos/SpiderLabs/Responder/downloads",
    "events_url": "https://api.github.com/repos/SpiderLabs/Responder/events",
    "fork": false,
    "forks": 42,
    "forks_count": 42,
    "forks_url": "https://api.github.com/repos/SpiderLabs/Responder/forks",
    "full_name": "SpiderLabs/Responder",
    "git_commits_url": "https://api.github.com/repos/SpiderLabs/Responder/git/commits{/sha}",
    "git_refs_url": "https://api.github.com/repos/SpiderLabs/Responder/git/refs{/sha}",
    "git_tags_url": "https://api.github.com/repos/SpiderLabs/Responder/git/tags{/sha}",
    "git_url": "git://github.com/SpiderLabs/Responder.git",
    "has_downloads": true,
    "has_issues": true,
    "has_wiki": true,
    "homepage": "",
    "hooks_url": "https://api.github.com/repos/SpiderLabs/Responder/hooks",
    "html_url": "https://github.com/SpiderLabs/Responder",
    "id": 6371338,
    "issue_comment_url": "https://api.github.com/repos/SpiderLabs/Responder/issues/comments/{number}",
    "issue_events_url": "https://api.github.com/repos/SpiderLabs/Responder/issues/events{/number}",
    "issues_url": "https://api.github.com/repos/SpiderLabs/Responder/issues{/number}",
    "keys_url": "https://api.github.com/repos/SpiderLabs/Responder/keys{/key_id}",
    "labels_url": "https://api.github.com/repos/SpiderLabs/Responder/labels{/name}",
    "language": "Python",
    "languages_url": "https://api.github.com/repos/SpiderLabs/Responder/languages",
    "merges_url": "https://api.github.com/repos/SpiderLabs/Responder/merges",
    "milestones_url": "https://api.github.com/repos/SpiderLabs/Responder/milestones{/number}",
    "mirror_url": null,
    "name": "Responder",
    "notifications_url": "https://api.github.com/repos/SpiderLabs/Responder/notifications{?since,all,participating}",
    "open_issues": 1,
    "open_issues_count": 1,
    "owner": {
        "avatar_url": "https://avatars.githubusercontent.com/u/508521?",
        "events_url": "https://api.github.com/users/SpiderLabs/events{/privacy}",
        "followers_url": "https://api.github.com/users/SpiderLabs/followers",
        "following_url": "https://api.github.com/users/SpiderLabs/following{/other_user}",
        "gists_url": "https://api.github.com/users/SpiderLabs/gists{/gist_id}",
        "gravatar_id": "b3a704249eadfd59c2c96c456ca680f9",
        "html_url": "https://github.com/SpiderLabs",
        "id": 508521,
        "login": "SpiderLabs",
        "organizations_url": "https://api.github.com/users/SpiderLabs/orgs",
        "received_events_url": "https://api.github.com/users/SpiderLabs/received_events",
        "repos_url": "https://api.github.com/users/SpiderLabs/repos",
        "site_admin": false,
        "starred_url": "https://api.github.com/users/SpiderLabs/starred{/owner}{/repo}",
        "subscriptions_url": "https://api.github.com/users/SpiderLabs/subscriptions",
        "type": "Organization",
        "url": "https://api.github.com/users/SpiderLabs"
    },
    "private": false,
    "pulls_url": "https://api.github.com/repos/SpiderLabs/Responder/pulls{/number}",
    "pushed_at": "2014-04-23T05:40:10Z",
    "releases_url": "https://api.github.com/repos/SpiderLabs/Responder/releases{/id}",
    "score": 1.0,
    "size": 1276,
    "ssh_url": "git@github.com:SpiderLabs/Responder.git",
    "stargazers_count": 162,
    "stargazers_url": "https://api.github.com/repos/SpiderLabs/Responder/stargazers",
    "statuses_url": "https://api.github.com/repos/SpiderLabs/Responder/statuses/{sha}",
    "subscribers_url": "https://api.github.com/repos/SpiderLabs/Responder/subscribers",
    "subscription_url": "https://api.github.com/repos/SpiderLabs/Responder/subscription",
    "svn_url": "https://github.com/SpiderLabs/Responder",
    "tags_url": "https://api.github.com/repos/SpiderLabs/Responder/tags",
    "teams_url": "https://api.github.com/repos/SpiderLabs/Responder/teams",
    "trees_url": "https://api.github.com/repos/SpiderLabs/Responder/git/trees{/sha}",
    "updated_at": "2014-05-02T10:36:05Z",
    "url": "https://api.github.com/repos/SpiderLabs/Responder",
    "watchers": 162,
    "watchers_count": 162
}