{
    "archive_url": "https://api.github.com/repos/metajack/commitbot/{archive_format}{/ref}",
    "assignees_url": "https://api.github.com/repos/metajack/commitbot/assignees{/user}",
    "blobs_url": "https://api.github.com/repos/metajack/commitbot/git/blobs{/sha}",
    "branches_url": "https://api.github.com/repos/metajack/commitbot/branches{/branch}",
    "clone_url": "https://github.com/metajack/commitbot.git",
    "collaborators_url": "https://api.github.com/repos/metajack/commitbot/collaborators{/collaborator}",
    "comments_url": "https://api.github.com/repos/metajack/commitbot/comments{/number}",
    "commits_url": "https://api.github.com/repos/metajack/commitbot/commits{/sha}",
    "compare_url": "https://api.github.com/repos/metajack/commitbot/compare/{base}...{head}",
    "contents_url": "https://api.github.com/repos/metajack/commitbot/contents/{+path}",
    "contributors_url": "https://api.github.com/repos/metajack/commitbot/contributors",
    "created_at": "2008-12-04T20:41:31Z",
    "default_branch": "master",
    "description": "XMPP bot that posts commit summaries to MUCs.",
    "downloads_url": "https://api.github.com/repos/metajack/commitbot/downloads",
    "events_url": "https://api.github.com/repos/metajack/commitbot/events",
    "fork": false,
    "forks": 8,
    "forks_count": 8,
    "forks_url": "https://api.github.com/repos/metajack/commitbot/forks",
    "full_name": "metajack/commitbot",
    "git_commits_url": "https://api.github.com/repos/metajack/commitbot/git/commits{/sha}",
    "git_refs_url": "https://api.github.com/repos/metajack/commitbot/git/refs{/sha}",
    "git_tags_url": "https://api.github.com/repos/metajack/commitbot/git/tags{/sha}",
    "git_url": "git://github.com/metajack/commitbot.git",
    "has_downloads": true,
    "has_issues": true,
    "has_wiki": true,
    "homepage": "http://github.com/metajack/commitbot/tree/master",
    "hooks_url": "https://api.github.com/repos/metajack/commitbot/hooks",
    "html_url": "https://github.com/metajack/commitbot",
    "id": 85148,
    "issue_comment_url": "https://api.github.com/repos/metajack/commitbot/issues/comments/{number}",
    "issue_events_url": "https://api.github.com/repos/metajack/commitbot/issues/events{/number}",
    "issues_url": "https://api.github.com/repos/metajack/commitbot/issues{/number}",
    "keys_url": "https://api.github.com/repos/metajack/commitbot/keys{/key_id}",
    "labels_url": "https://api.github.com/repos/metajack/commitbot/labels{/name}",
    "language": "Python",
    "languages_url": "https://api.github.com/repos/metajack/commitbot/languages",
    "merges_url": "https://api.github.com/repos/metajack/commitbot/merges",
    "milestones_url": "https://api.github.com/repos/metajack/commitbot/milestones{/number}",
    "mirror_url": null,
    "name": "commitbot",
    "notifications_url": "https://api.github.com/repos/metajack/commitbot/notifications{?since,all,participating}",
    "open_issues": 2,
    "open_issues_count": 2,
    "owner": {
        "avatar_url": "https://avatars.githubusercontent.com/u/28357?",
        "events_url": "https://api.github.com/users/metajack/events{/privacy}",
        "followers_url": "https://api.github.com/users/metajack/followers",
        "following_url": "https://api.github.com/users/metajack/following{/other_user}",
        "gists_url": "https://api.github.com/users/metajack/gists{/gist_id}",
        "gravatar_id": "405d91268cec8f5e75be74c75cce1c79",
        "html_url": "https://github.com/metajack",
        "id": 28357,
        "login": "metajack",
        "organizations_url": "https://api.github.com/users/metajack/orgs",
        "received_events_url": "https://api.github.com/users/metajack/received_events",
        "repos_url": "https://api.github.com/users/metajack/repos",
        "site_admin": false,
        "starred_url": "https://api.github.com/users/metajack/starred{/owner}{/repo}",
        "subscriptions_url": "https://api.github.com/users/metajack/subscriptions",
        "type": "User",
        "url": "https://api.github.com/users/metajack"
    },
    "private": false,
    "pulls_url": "https://api.github.com/repos/metajack/commitbot/pulls{/number}",
    "pushed_at": "2013-09-13T16:21:51Z",
    "releases_url": "https://api.github.com/repos/metajack/commitbot/releases{/id}",
    "score": 1.0,
    "size": 170,
    "ssh_url": "git@github.com:metajack/commitbot.git",
    "stargazers_count": 42,
    "stargazers_url": "https://api.github.com/repos/metajack/commitbot/stargazers",
    "statuses_url": "https://api.github.com/repos/metajack/commitbot/statuses/{sha}",
    "subscribers_url": "https://api.github.com/repos/metajack/commitbot/subscribers",
    "subscription_url": "https://api.github.com/repos/metajack/commitbot/subscription",
    "svn_url": "https://github.com/metajack/commitbot",
    "tags_url": "https://api.github.com/repos/metajack/commitbot/tags",
    "teams_url": "https://api.github.com/repos/metajack/commitbot/teams",
    "trees_url": "https://api.github.com/repos/metajack/commitbot/git/trees{/sha}",
    "updated_at": "2013-12-19T09:09:45Z",
    "url": "https://api.github.com/repos/metajack/commitbot",
    "watchers": 42,
    "watchers_count": 42
}