{
    "archive_url": "https://api.github.com/repos/brady-vitrano/dsgrid/{archive_format}{/ref}",
    "assignees_url": "https://api.github.com/repos/brady-vitrano/dsgrid/assignees{/user}",
    "blobs_url": "https://api.github.com/repos/brady-vitrano/dsgrid/git/blobs{/sha}",
    "branches_url": "https://api.github.com/repos/brady-vitrano/dsgrid/branches{/branch}",
    "clone_url": "https://github.com/brady-vitrano/dsgrid.git",
    "collaborators_url": "https://api.github.com/repos/brady-vitrano/dsgrid/collaborators{/collaborator}",
    "comments_url": "https://api.github.com/repos/brady-vitrano/dsgrid/comments{/number}",
    "commits_url": "https://api.github.com/repos/brady-vitrano/dsgrid/commits{/sha}",
    "compare_url": "https://api.github.com/repos/brady-vitrano/dsgrid/compare/{base}...{head}",
    "contents_url": "https://api.github.com/repos/brady-vitrano/dsgrid/contents/{+path}",
    "contributors_url": "https://api.github.com/repos/brady-vitrano/dsgrid/contributors",
    "created_at": "2013-10-07T03:53:54Z",
    "default_branch": "master",
    "description": "Docker Selenium Grid - Build and Manage a Selenium Grid using Docker",
    "downloads_url": "https://api.github.com/repos/brady-vitrano/dsgrid/downloads",
    "events_url": "https://api.github.com/repos/brady-vitrano/dsgrid/events",
    "fork": false,
    "forks": 12,
    "forks_count": 12,
    "forks_url": "https://api.github.com/repos/brady-vitrano/dsgrid/forks",
    "full_name": "brady-vitrano/dsgrid",
    "git_commits_url": "https://api.github.com/repos/brady-vitrano/dsgrid/git/commits{/sha}",
    "git_refs_url": "https://api.github.com/repos/brady-vitrano/dsgrid/git/refs{/sha}",
    "git_tags_url": "https://api.github.com/repos/brady-vitrano/dsgrid/git/tags{/sha}",
    "git_url": "git://github.com/brady-vitrano/dsgrid.git",
    "has_downloads": true,
    "has_issues": true,
    "has_wiki": true,
    "homepage": "",
    "hooks_url": "https://api.github.com/repos/brady-vitrano/dsgrid/hooks",
    "html_url": "https://github.com/brady-vitrano/dsgrid",
    "id": 13374726,
    "issue_comment_url": "https://api.github.com/repos/brady-vitrano/dsgrid/issues/comments/{number}",
    "issue_events_url": "https://api.github.com/repos/brady-vitrano/dsgrid/issues/events{/number}",
    "issues_url": "https://api.github.com/repos/brady-vitrano/dsgrid/issues{/number}",
    "keys_url": "https://api.github.com/repos/brady-vitrano/dsgrid/keys{/key_id}",
    "labels_url": "https://api.github.com/repos/brady-vitrano/dsgrid/labels{/name}",
    "language": "Python",
    "languages_url": "https://api.github.com/repos/brady-vitrano/dsgrid/languages",
    "merges_url": "https://api.github.com/repos/brady-vitrano/dsgrid/merges",
    "milestones_url": "https://api.github.com/repos/brady-vitrano/dsgrid/milestones{/number}",
    "mirror_url": null,
    "name": "dsgrid",
    "notifications_url": "https://api.github.com/repos/brady-vitrano/dsgrid/notifications{?since,all,participating}",
    "open_issues": 11,
    "open_issues_count": 11,
    "owner": {
        "avatar_url": "https://avatars.githubusercontent.com/u/1927917?",
        "events_url": "https://api.github.com/users/brady-vitrano/events{/privacy}",
        "followers_url": "https://api.github.com/users/brady-vitrano/followers",
        "following_url": "https://api.github.com/users/brady-vitrano/following{/other_user}",
        "gists_url": "https://api.github.com/users/brady-vitrano/gists{/gist_id}",
        "gravatar_id": "2f75ffa483d2da4b9876e9ba1ecca19d",
        "html_url": "https://github.com/brady-vitrano",
        "id": 1927917,
        "login": "brady-vitrano",
        "organizations_url": "https://api.github.com/users/brady-vitrano/orgs",
        "received_events_url": "https://api.github.com/users/brady-vitrano/received_events",
        "repos_url": "https://api.github.com/users/brady-vitrano/repos",
        "site_admin": false,
        "starred_url": "https://api.github.com/users/brady-vitrano/starred{/owner}{/repo}",
        "subscriptions_url": "https://api.github.com/users/brady-vitrano/subscriptions",
        "type": "User",
        "url": "https://api.github.com/users/brady-vitrano"
    },
    "private": false,
    "pulls_url": "https://api.github.com/repos/brady-vitrano/dsgrid/pulls{/number}",
    "pushed_at": "2014-03-20T01:06:56Z",
    "releases_url": "https://api.github.com/repos/brady-vitrano/dsgrid/releases{/id}",
    "score": 1.0,
    "size": 395,
    "ssh_url": "git@github.com:brady-vitrano/dsgrid.git",
    "stargazers_count": 49,
    "stargazers_url": "https://api.github.com/repos/brady-vitrano/dsgrid/stargazers",
    "statuses_url": "https://api.github.com/repos/brady-vitrano/dsgrid/statuses/{sha}",
    "subscribers_url": "https://api.github.com/repos/brady-vitrano/dsgrid/subscribers",
    "subscription_url": "https://api.github.com/repos/brady-vitrano/dsgrid/subscription",
    "svn_url": "https://github.com/brady-vitrano/dsgrid",
    "tags_url": "https://api.github.com/repos/brady-vitrano/dsgrid/tags",
    "teams_url": "https://api.github.com/repos/brady-vitrano/dsgrid/teams",
    "trees_url": "https://api.github.com/repos/brady-vitrano/dsgrid/git/trees{/sha}",
    "updated_at": "2014-05-02T21:25:38Z",
    "url": "https://api.github.com/repos/brady-vitrano/dsgrid",
    "watchers": 49,
    "watchers_count": 49
}