{
    "archive_url": "https://api.github.com/repos/dagwieers/dstat/{archive_format}{/ref}",
    "assignees_url": "https://api.github.com/repos/dagwieers/dstat/assignees{/user}",
    "blobs_url": "https://api.github.com/repos/dagwieers/dstat/git/blobs{/sha}",
    "branches_url": "https://api.github.com/repos/dagwieers/dstat/branches{/branch}",
    "clone_url": "https://github.com/dagwieers/dstat.git",
    "collaborators_url": "https://api.github.com/repos/dagwieers/dstat/collaborators{/collaborator}",
    "comments_url": "https://api.github.com/repos/dagwieers/dstat/comments{/number}",
    "commits_url": "https://api.github.com/repos/dagwieers/dstat/commits{/sha}",
    "compare_url": "https://api.github.com/repos/dagwieers/dstat/compare/{base}...{head}",
    "contents_url": "https://api.github.com/repos/dagwieers/dstat/contents/{+path}",
    "contributors_url": "https://api.github.com/repos/dagwieers/dstat/contributors",
    "created_at": "2011-04-11T17:11:00Z",
    "default_branch": "master",
    "description": "Versatile resource statistics tool",
    "downloads_url": "https://api.github.com/repos/dagwieers/dstat/downloads",
    "events_url": "https://api.github.com/repos/dagwieers/dstat/events",
    "fork": false,
    "forks": 85,
    "forks_count": 85,
    "forks_url": "https://api.github.com/repos/dagwieers/dstat/forks",
    "full_name": "dagwieers/dstat",
    "git_commits_url": "https://api.github.com/repos/dagwieers/dstat/git/commits{/sha}",
    "git_refs_url": "https://api.github.com/repos/dagwieers/dstat/git/refs{/sha}",
    "git_tags_url": "https://api.github.com/repos/dagwieers/dstat/git/tags{/sha}",
    "git_url": "git://github.com/dagwieers/dstat.git",
    "has_downloads": true,
    "has_issues": true,
    "has_wiki": true,
    "homepage": "http://dag.wieers.com/home-made/dstat/",
    "hooks_url": "https://api.github.com/repos/dagwieers/dstat/hooks",
    "html_url": "https://github.com/dagwieers/dstat",
    "id": 1600038,
    "issue_comment_url": "https://api.github.com/repos/dagwieers/dstat/issues/comments/{number}",
    "issue_events_url": "https://api.github.com/repos/dagwieers/dstat/issues/events{/number}",
    "issues_url": "https://api.github.com/repos/dagwieers/dstat/issues{/number}",
    "keys_url": "https://api.github.com/repos/dagwieers/dstat/keys{/key_id}",
    "labels_url": "https://api.github.com/repos/dagwieers/dstat/labels{/name}",
    "language": "Python",
    "languages_url": "https://api.github.com/repos/dagwieers/dstat/languages",
    "merges_url": "https://api.github.com/repos/dagwieers/dstat/merges",
    "milestones_url": "https://api.github.com/repos/dagwieers/dstat/milestones{/number}",
    "mirror_url": null,
    "name": "dstat",
    "notifications_url": "https://api.github.com/repos/dagwieers/dstat/notifications{?since,all,participating}",
    "open_issues": 23,
    "open_issues_count": 23,
    "owner": {
        "avatar_url": "https://avatars.githubusercontent.com/u/388198?",
        "events_url": "https://api.github.com/users/dagwieers/events{/privacy}",
        "followers_url": "https://api.github.com/users/dagwieers/followers",
        "following_url": "https://api.github.com/users/dagwieers/following{/other_user}",
        "gists_url": "https://api.github.com/users/dagwieers/gists{/gist_id}",
        "gravatar_id": "a1e62ad6faa63e1217ef555cf6e63df4",
        "html_url": "https://github.com/dagwieers",
        "id": 388198,
        "login": "dagwieers",
        "organizations_url": "https://api.github.com/users/dagwieers/orgs",
        "received_events_url": "https://api.github.com/users/dagwieers/received_events",
        "repos_url": "https://api.github.com/users/dagwieers/repos",
        "site_admin": false,
        "starred_url": "https://api.github.com/users/dagwieers/starred{/owner}{/repo}",
        "subscriptions_url": "https://api.github.com/users/dagwieers/subscriptions",
        "type": "User",
        "url": "https://api.github.com/users/dagwieers"
    },
    "private": false,
    "pulls_url": "https://api.github.com/repos/dagwieers/dstat/pulls{/number}",
    "pushed_at": "2014-02-12T08:31:00Z",
    "releases_url": "https://api.github.com/repos/dagwieers/dstat/releases{/id}",
    "score": 1.0,
    "size": 1550,
    "ssh_url": "git@github.com:dagwieers/dstat.git",
    "stargazers_count": 253,
    "stargazers_url": "https://api.github.com/repos/dagwieers/dstat/stargazers",
    "statuses_url": "https://api.github.com/repos/dagwieers/dstat/statuses/{sha}",
    "subscribers_url": "https://api.github.com/repos/dagwieers/dstat/subscribers",
    "subscription_url": "https://api.github.com/repos/dagwieers/dstat/subscription",
    "svn_url": "https://github.com/dagwieers/dstat",
    "tags_url": "https://api.github.com/repos/dagwieers/dstat/tags",
    "teams_url": "https://api.github.com/repos/dagwieers/dstat/teams",
    "trees_url": "https://api.github.com/repos/dagwieers/dstat/git/trees{/sha}",
    "updated_at": "2014-05-05T06:09:47Z",
    "url": "https://api.github.com/repos/dagwieers/dstat",
    "watchers": 253,
    "watchers_count": 253
}