{
    "libs": [
        "unicodedata",
        "plistlib",
        "pybonjour",
        "itertools",
        "urllib2",
        "urllib",
        "subprocess",
        "sys",
        "re",
        "json",
        "time",
        "fnmatch",
        "requests",
        "ElementTree",
        "os",
        "select"
    ]
}