[
    "profile",
    "pytagcloud.profile.profile",
    "tests",
    "counter",
    "pytagcloud.test.tests",
    "pytagcloud.test.font_align",
    "pytagcloud.lang.stopwords",
    "lang.counter",
    "pytagcloud.colors",
    "colors",
    "pytagcloud",
    "pytagcloud.test",
    "pytagcloud.profile",
    "pytagcloud.lang.counter",
    "pytagcloud.lang",
    "lang",
    "font_align",
    "lang.stopwords",
    "stopwords",
    "test",
    "profile.profile",
    "test.tests",
    "test.font_align"
]