{
    "archive_url": "https://api.github.com/repos/alex/rply/{archive_format}{/ref}",
    "assignees_url": "https://api.github.com/repos/alex/rply/assignees{/user}",
    "blobs_url": "https://api.github.com/repos/alex/rply/git/blobs{/sha}",
    "branches_url": "https://api.github.com/repos/alex/rply/branches{/branch}",
    "clone_url": "https://github.com/alex/rply.git",
    "collaborators_url": "https://api.github.com/repos/alex/rply/collaborators{/collaborator}",
    "comments_url": "https://api.github.com/repos/alex/rply/comments{/number}",
    "commits_url": "https://api.github.com/repos/alex/rply/commits{/sha}",
    "compare_url": "https://api.github.com/repos/alex/rply/compare/{base}...{head}",
    "contents_url": "https://api.github.com/repos/alex/rply/contents/{+path}",
    "contributors_url": "https://api.github.com/repos/alex/rply/contributors",
    "created_at": "2012-08-06T00:56:54Z",
    "default_branch": "master",
    "description": "An attempt to port David Beazley's PLY to RPython, and give it a cooler API.",
    "downloads_url": "https://api.github.com/repos/alex/rply/downloads",
    "events_url": "https://api.github.com/repos/alex/rply/events",
    "fork": false,
    "forks": 21,
    "forks_count": 21,
    "forks_url": "https://api.github.com/repos/alex/rply/forks",
    "full_name": "alex/rply",
    "git_commits_url": "https://api.github.com/repos/alex/rply/git/commits{/sha}",
    "git_refs_url": "https://api.github.com/repos/alex/rply/git/refs{/sha}",
    "git_tags_url": "https://api.github.com/repos/alex/rply/git/tags{/sha}",
    "git_url": "git://github.com/alex/rply.git",
    "has_downloads": true,
    "has_issues": true,
    "has_wiki": true,
    "homepage": null,
    "hooks_url": "https://api.github.com/repos/alex/rply/hooks",
    "html_url": "https://github.com/alex/rply",
    "id": 5308421,
    "issue_comment_url": "https://api.github.com/repos/alex/rply/issues/comments/{number}",
    "issue_events_url": "https://api.github.com/repos/alex/rply/issues/events{/number}",
    "issues_url": "https://api.github.com/repos/alex/rply/issues{/number}",
    "keys_url": "https://api.github.com/repos/alex/rply/keys{/key_id}",
    "labels_url": "https://api.github.com/repos/alex/rply/labels{/name}",
    "language": "Python",
    "languages_url": "https://api.github.com/repos/alex/rply/languages",
    "merges_url": "https://api.github.com/repos/alex/rply/merges",
    "milestones_url": "https://api.github.com/repos/alex/rply/milestones{/number}",
    "mirror_url": null,
    "name": "rply",
    "notifications_url": "https://api.github.com/repos/alex/rply/notifications{?since,all,participating}",
    "open_issues": 10,
    "open_issues_count": 10,
    "owner": {
        "avatar_url": "https://avatars.githubusercontent.com/u/772?",
        "events_url": "https://api.github.com/users/alex/events{/privacy}",
        "followers_url": "https://api.github.com/users/alex/followers",
        "following_url": "https://api.github.com/users/alex/following{/other_user}",
        "gists_url": "https://api.github.com/users/alex/gists{/gist_id}",
        "gravatar_id": "edcdfd5affb524e0f88ec1a00ed3fe5d",
        "html_url": "https://github.com/alex",
        "id": 772,
        "login": "alex",
        "organizations_url": "https://api.github.com/users/alex/orgs",
        "received_events_url": "https://api.github.com/users/alex/received_events",
        "repos_url": "https://api.github.com/users/alex/repos",
        "site_admin": false,
        "starred_url": "https://api.github.com/users/alex/starred{/owner}{/repo}",
        "subscriptions_url": "https://api.github.com/users/alex/subscriptions",
        "type": "User",
        "url": "https://api.github.com/users/alex"
    },
    "private": false,
    "pulls_url": "https://api.github.com/repos/alex/rply/pulls{/number}",
    "pushed_at": "2014-01-26T18:44:54Z",
    "releases_url": "https://api.github.com/repos/alex/rply/releases{/id}",
    "score": 1.0,
    "size": 593,
    "ssh_url": "git@github.com:alex/rply.git",
    "stargazers_count": 103,
    "stargazers_url": "https://api.github.com/repos/alex/rply/stargazers",
    "statuses_url": "https://api.github.com/repos/alex/rply/statuses/{sha}",
    "subscribers_url": "https://api.github.com/repos/alex/rply/subscribers",
    "subscription_url": "https://api.github.com/repos/alex/rply/subscription",
    "svn_url": "https://github.com/alex/rply",
    "tags_url": "https://api.github.com/repos/alex/rply/tags",
    "teams_url": "https://api.github.com/repos/alex/rply/teams",
    "trees_url": "https://api.github.com/repos/alex/rply/git/trees{/sha}",
    "updated_at": "2014-04-28T09:36:42Z",
    "url": "https://api.github.com/repos/alex/rply",
    "watchers": 103,
    "watchers_count": 103
}