{
    "archive_url": "https://api.github.com/repos/severb/graypy/{archive_format}{/ref}",
    "assignees_url": "https://api.github.com/repos/severb/graypy/assignees{/user}",
    "blobs_url": "https://api.github.com/repos/severb/graypy/git/blobs{/sha}",
    "branches_url": "https://api.github.com/repos/severb/graypy/branches{/branch}",
    "clone_url": "https://github.com/severb/graypy.git",
    "collaborators_url": "https://api.github.com/repos/severb/graypy/collaborators{/collaborator}",
    "comments_url": "https://api.github.com/repos/severb/graypy/comments{/number}",
    "commits_url": "https://api.github.com/repos/severb/graypy/commits{/sha}",
    "compare_url": "https://api.github.com/repos/severb/graypy/compare/{base}...{head}",
    "contents_url": "https://api.github.com/repos/severb/graypy/contents/{+path}",
    "contributors_url": "https://api.github.com/repos/severb/graypy/contributors",
    "created_at": "2011-02-27T09:02:02Z",
    "default_branch": "master",
    "description": "Python logging handler for Graylog2 that sends messages in GELF (Graylog Extended Log Format).",
    "downloads_url": "https://api.github.com/repos/severb/graypy/downloads",
    "events_url": "https://api.github.com/repos/severb/graypy/events",
    "fork": false,
    "forks": 28,
    "forks_count": 28,
    "forks_url": "https://api.github.com/repos/severb/graypy/forks",
    "full_name": "severb/graypy",
    "git_commits_url": "https://api.github.com/repos/severb/graypy/git/commits{/sha}",
    "git_refs_url": "https://api.github.com/repos/severb/graypy/git/refs{/sha}",
    "git_tags_url": "https://api.github.com/repos/severb/graypy/git/tags{/sha}",
    "git_url": "git://github.com/severb/graypy.git",
    "has_downloads": true,
    "has_issues": true,
    "has_wiki": false,
    "homepage": "http://graylog2.org/",
    "hooks_url": "https://api.github.com/repos/severb/graypy/hooks",
    "html_url": "https://github.com/severb/graypy",
    "id": 1417372,
    "issue_comment_url": "https://api.github.com/repos/severb/graypy/issues/comments/{number}",
    "issue_events_url": "https://api.github.com/repos/severb/graypy/issues/events{/number}",
    "issues_url": "https://api.github.com/repos/severb/graypy/issues{/number}",
    "keys_url": "https://api.github.com/repos/severb/graypy/keys{/key_id}",
    "labels_url": "https://api.github.com/repos/severb/graypy/labels{/name}",
    "language": "Python",
    "languages_url": "https://api.github.com/repos/severb/graypy/languages",
    "merges_url": "https://api.github.com/repos/severb/graypy/merges",
    "milestones_url": "https://api.github.com/repos/severb/graypy/milestones{/number}",
    "mirror_url": null,
    "name": "graypy",
    "notifications_url": "https://api.github.com/repos/severb/graypy/notifications{?since,all,participating}",
    "open_issues": 5,
    "open_issues_count": 5,
    "owner": {
        "avatar_url": "https://avatars.githubusercontent.com/u/125867?",
        "events_url": "https://api.github.com/users/severb/events{/privacy}",
        "followers_url": "https://api.github.com/users/severb/followers",
        "following_url": "https://api.github.com/users/severb/following{/other_user}",
        "gists_url": "https://api.github.com/users/severb/gists{/gist_id}",
        "gravatar_id": "d95f53cd3a716f157102929c69f4f848",
        "html_url": "https://github.com/severb",
        "id": 125867,
        "login": "severb",
        "organizations_url": "https://api.github.com/users/severb/orgs",
        "received_events_url": "https://api.github.com/users/severb/received_events",
        "repos_url": "https://api.github.com/users/severb/repos",
        "site_admin": false,
        "starred_url": "https://api.github.com/users/severb/starred{/owner}{/repo}",
        "subscriptions_url": "https://api.github.com/users/severb/subscriptions",
        "type": "User",
        "url": "https://api.github.com/users/severb"
    },
    "private": false,
    "pulls_url": "https://api.github.com/repos/severb/graypy/pulls{/number}",
    "pushed_at": "2013-12-03T15:41:50Z",
    "releases_url": "https://api.github.com/repos/severb/graypy/releases{/id}",
    "score": 1.0,
    "size": 214,
    "ssh_url": "git@github.com:severb/graypy.git",
    "stargazers_count": 48,
    "stargazers_url": "https://api.github.com/repos/severb/graypy/stargazers",
    "statuses_url": "https://api.github.com/repos/severb/graypy/statuses/{sha}",
    "subscribers_url": "https://api.github.com/repos/severb/graypy/subscribers",
    "subscription_url": "https://api.github.com/repos/severb/graypy/subscription",
    "svn_url": "https://github.com/severb/graypy",
    "tags_url": "https://api.github.com/repos/severb/graypy/tags",
    "teams_url": "https://api.github.com/repos/severb/graypy/teams",
    "trees_url": "https://api.github.com/repos/severb/graypy/git/trees{/sha}",
    "updated_at": "2014-01-14T14:04:40Z",
    "url": "https://api.github.com/repos/severb/graypy",
    "watchers": 48,
    "watchers_count": 48
}