{
    "archive_url": "https://api.github.com/repos/Roguelazer/onepasswordpy/{archive_format}{/ref}",
    "assignees_url": "https://api.github.com/repos/Roguelazer/onepasswordpy/assignees{/user}",
    "blobs_url": "https://api.github.com/repos/Roguelazer/onepasswordpy/git/blobs{/sha}",
    "branches_url": "https://api.github.com/repos/Roguelazer/onepasswordpy/branches{/branch}",
    "clone_url": "https://github.com/Roguelazer/onepasswordpy.git",
    "collaborators_url": "https://api.github.com/repos/Roguelazer/onepasswordpy/collaborators{/collaborator}",
    "comments_url": "https://api.github.com/repos/Roguelazer/onepasswordpy/comments{/number}",
    "commits_url": "https://api.github.com/repos/Roguelazer/onepasswordpy/commits{/sha}",
    "compare_url": "https://api.github.com/repos/Roguelazer/onepasswordpy/compare/{base}...{head}",
    "contents_url": "https://api.github.com/repos/Roguelazer/onepasswordpy/contents/{+path}",
    "contributors_url": "https://api.github.com/repos/Roguelazer/onepasswordpy/contributors",
    "created_at": "2013-02-10T21:16:12Z",
    "default_branch": "master",
    "description": "Python implementation of 1Password keychains",
    "downloads_url": "https://api.github.com/repos/Roguelazer/onepasswordpy/downloads",
    "events_url": "https://api.github.com/repos/Roguelazer/onepasswordpy/events",
    "fork": false,
    "forks": 3,
    "forks_count": 3,
    "forks_url": "https://api.github.com/repos/Roguelazer/onepasswordpy/forks",
    "full_name": "Roguelazer/onepasswordpy",
    "git_commits_url": "https://api.github.com/repos/Roguelazer/onepasswordpy/git/commits{/sha}",
    "git_refs_url": "https://api.github.com/repos/Roguelazer/onepasswordpy/git/refs{/sha}",
    "git_tags_url": "https://api.github.com/repos/Roguelazer/onepasswordpy/git/tags{/sha}",
    "git_url": "git://github.com/Roguelazer/onepasswordpy.git",
    "has_downloads": true,
    "has_issues": true,
    "has_wiki": true,
    "homepage": null,
    "hooks_url": "https://api.github.com/repos/Roguelazer/onepasswordpy/hooks",
    "html_url": "https://github.com/Roguelazer/onepasswordpy",
    "id": 8128200,
    "issue_comment_url": "https://api.github.com/repos/Roguelazer/onepasswordpy/issues/comments/{number}",
    "issue_events_url": "https://api.github.com/repos/Roguelazer/onepasswordpy/issues/events{/number}",
    "issues_url": "https://api.github.com/repos/Roguelazer/onepasswordpy/issues{/number}",
    "keys_url": "https://api.github.com/repos/Roguelazer/onepasswordpy/keys{/key_id}",
    "labels_url": "https://api.github.com/repos/Roguelazer/onepasswordpy/labels{/name}",
    "language": "Python",
    "languages_url": "https://api.github.com/repos/Roguelazer/onepasswordpy/languages",
    "merges_url": "https://api.github.com/repos/Roguelazer/onepasswordpy/merges",
    "milestones_url": "https://api.github.com/repos/Roguelazer/onepasswordpy/milestones{/number}",
    "mirror_url": null,
    "name": "onepasswordpy",
    "notifications_url": "https://api.github.com/repos/Roguelazer/onepasswordpy/notifications{?since,all,participating}",
    "open_issues": 1,
    "open_issues_count": 1,
    "owner": {
        "avatar_url": "https://avatars.githubusercontent.com/u/263424?",
        "events_url": "https://api.github.com/users/Roguelazer/events{/privacy}",
        "followers_url": "https://api.github.com/users/Roguelazer/followers",
        "following_url": "https://api.github.com/users/Roguelazer/following{/other_user}",
        "gists_url": "https://api.github.com/users/Roguelazer/gists{/gist_id}",
        "gravatar_id": "59b145952d73a9fb2d2c175fb84bb770",
        "html_url": "https://github.com/Roguelazer",
        "id": 263424,
        "login": "Roguelazer",
        "organizations_url": "https://api.github.com/users/Roguelazer/orgs",
        "received_events_url": "https://api.github.com/users/Roguelazer/received_events",
        "repos_url": "https://api.github.com/users/Roguelazer/repos",
        "site_admin": false,
        "starred_url": "https://api.github.com/users/Roguelazer/starred{/owner}{/repo}",
        "subscriptions_url": "https://api.github.com/users/Roguelazer/subscriptions",
        "type": "User",
        "url": "https://api.github.com/users/Roguelazer"
    },
    "private": false,
    "pulls_url": "https://api.github.com/repos/Roguelazer/onepasswordpy/pulls{/number}",
    "pushed_at": "2014-04-22T17:26:01Z",
    "releases_url": "https://api.github.com/repos/Roguelazer/onepasswordpy/releases{/id}",
    "score": 1.0,
    "size": 727,
    "ssh_url": "git@github.com:Roguelazer/onepasswordpy.git",
    "stargazers_count": 78,
    "stargazers_url": "https://api.github.com/repos/Roguelazer/onepasswordpy/stargazers",
    "statuses_url": "https://api.github.com/repos/Roguelazer/onepasswordpy/statuses/{sha}",
    "subscribers_url": "https://api.github.com/repos/Roguelazer/onepasswordpy/subscribers",
    "subscription_url": "https://api.github.com/repos/Roguelazer/onepasswordpy/subscription",
    "svn_url": "https://github.com/Roguelazer/onepasswordpy",
    "tags_url": "https://api.github.com/repos/Roguelazer/onepasswordpy/tags",
    "teams_url": "https://api.github.com/repos/Roguelazer/onepasswordpy/teams",
    "trees_url": "https://api.github.com/repos/Roguelazer/onepasswordpy/git/trees{/sha}",
    "updated_at": "2014-04-30T13:47:08Z",
    "url": "https://api.github.com/repos/Roguelazer/onepasswordpy",
    "watchers": 78,
    "watchers_count": 78
}