{
    "libs": [
        "cStringIO",
        "gevent",
        "robotparser",
        "queue",
        "lxml",
        "monkey",
        "re",
        "pprint",
        "yaml",
        "json",
        "getopt",
        "sys",
        "beanstalkc",
        "pool",
        "b",
        "logging",
        "cssselect",
        "urlparse",
        "itertools",
        "chardet",
        "time",
        "gzip",
        "requests",
        "os"
    ]
}