{
    "libs": [
        "os",
        "related",
        "datetime",
        "conf",
        "contrib",
        "urllib",
        "json",
        "Cipher",
        "test",
        "bin",
        "core",
        "http",
        "simplejson",
        "reversion",
        "db",
        "urllib2",
        "v2",
        "csrf",
        "b",
        "h",
        "django",
        "urlparse",
        "itertools",
        "pickle"
    ]
}