{
    "libs": [
        "sys",
        "simplejson",
        "unittest",
        "request",
        "urllib2",
        "urllib",
        "parse",
        "json",
        "requests",
        "os"
    ]
}