{
    "archive_url": "https://api.github.com/repos/tomchristie/django-pdb/{archive_format}{/ref}",
    "assignees_url": "https://api.github.com/repos/tomchristie/django-pdb/assignees{/user}",
    "blobs_url": "https://api.github.com/repos/tomchristie/django-pdb/git/blobs{/sha}",
    "branches_url": "https://api.github.com/repos/tomchristie/django-pdb/branches{/branch}",
    "clone_url": "https://github.com/tomchristie/django-pdb.git",
    "collaborators_url": "https://api.github.com/repos/tomchristie/django-pdb/collaborators{/collaborator}",
    "comments_url": "https://api.github.com/repos/tomchristie/django-pdb/comments{/number}",
    "commits_url": "https://api.github.com/repos/tomchristie/django-pdb/commits{/sha}",
    "compare_url": "https://api.github.com/repos/tomchristie/django-pdb/compare/{base}...{head}",
    "contents_url": "https://api.github.com/repos/tomchristie/django-pdb/contents/{+path}",
    "contributors_url": "https://api.github.com/repos/tomchristie/django-pdb/contributors",
    "created_at": "2011-07-29T19:01:18Z",
    "default_branch": "master",
    "description": "Gives you `manage.py runserver --pdb` and `manage.py test --pdb`",
    "downloads_url": "https://api.github.com/repos/tomchristie/django-pdb/downloads",
    "events_url": "https://api.github.com/repos/tomchristie/django-pdb/events",
    "fork": false,
    "forks": 16,
    "forks_count": 16,
    "forks_url": "https://api.github.com/repos/tomchristie/django-pdb/forks",
    "full_name": "tomchristie/django-pdb",
    "git_commits_url": "https://api.github.com/repos/tomchristie/django-pdb/git/commits{/sha}",
    "git_refs_url": "https://api.github.com/repos/tomchristie/django-pdb/git/refs{/sha}",
    "git_tags_url": "https://api.github.com/repos/tomchristie/django-pdb/git/tags{/sha}",
    "git_url": "git://github.com/tomchristie/django-pdb.git",
    "has_downloads": true,
    "has_issues": true,
    "has_wiki": true,
    "homepage": null,
    "hooks_url": "https://api.github.com/repos/tomchristie/django-pdb/hooks",
    "html_url": "https://github.com/tomchristie/django-pdb",
    "id": 2125518,
    "issue_comment_url": "https://api.github.com/repos/tomchristie/django-pdb/issues/comments/{number}",
    "issue_events_url": "https://api.github.com/repos/tomchristie/django-pdb/issues/events{/number}",
    "issues_url": "https://api.github.com/repos/tomchristie/django-pdb/issues{/number}",
    "keys_url": "https://api.github.com/repos/tomchristie/django-pdb/keys{/key_id}",
    "labels_url": "https://api.github.com/repos/tomchristie/django-pdb/labels{/name}",
    "language": "Python",
    "languages_url": "https://api.github.com/repos/tomchristie/django-pdb/languages",
    "merges_url": "https://api.github.com/repos/tomchristie/django-pdb/merges",
    "milestones_url": "https://api.github.com/repos/tomchristie/django-pdb/milestones{/number}",
    "mirror_url": null,
    "name": "django-pdb",
    "notifications_url": "https://api.github.com/repos/tomchristie/django-pdb/notifications{?since,all,participating}",
    "open_issues": 5,
    "open_issues_count": 5,
    "owner": {
        "avatar_url": "https://avatars.githubusercontent.com/u/647359?",
        "events_url": "https://api.github.com/users/tomchristie/events{/privacy}",
        "followers_url": "https://api.github.com/users/tomchristie/followers",
        "following_url": "https://api.github.com/users/tomchristie/following{/other_user}",
        "gists_url": "https://api.github.com/users/tomchristie/gists{/gist_id}",
        "gravatar_id": "c498214bc28f28b61212169dcc372fbf",
        "html_url": "https://github.com/tomchristie",
        "id": 647359,
        "login": "tomchristie",
        "organizations_url": "https://api.github.com/users/tomchristie/orgs",
        "received_events_url": "https://api.github.com/users/tomchristie/received_events",
        "repos_url": "https://api.github.com/users/tomchristie/repos",
        "site_admin": false,
        "starred_url": "https://api.github.com/users/tomchristie/starred{/owner}{/repo}",
        "subscriptions_url": "https://api.github.com/users/tomchristie/subscriptions",
        "type": "User",
        "url": "https://api.github.com/users/tomchristie"
    },
    "private": false,
    "pulls_url": "https://api.github.com/repos/tomchristie/django-pdb/pulls{/number}",
    "pushed_at": "2014-04-30T09:27:13Z",
    "releases_url": "https://api.github.com/repos/tomchristie/django-pdb/releases{/id}",
    "score": 1.0,
    "size": 191,
    "ssh_url": "git@github.com:tomchristie/django-pdb.git",
    "stargazers_count": 198,
    "stargazers_url": "https://api.github.com/repos/tomchristie/django-pdb/stargazers",
    "statuses_url": "https://api.github.com/repos/tomchristie/django-pdb/statuses/{sha}",
    "subscribers_url": "https://api.github.com/repos/tomchristie/django-pdb/subscribers",
    "subscription_url": "https://api.github.com/repos/tomchristie/django-pdb/subscription",
    "svn_url": "https://github.com/tomchristie/django-pdb",
    "tags_url": "https://api.github.com/repos/tomchristie/django-pdb/tags",
    "teams_url": "https://api.github.com/repos/tomchristie/django-pdb/teams",
    "trees_url": "https://api.github.com/repos/tomchristie/django-pdb/git/trees{/sha}",
    "updated_at": "2014-05-02T13:59:06Z",
    "url": "https://api.github.com/repos/tomchristie/django-pdb",
    "watchers": 198,
    "watchers_count": 198
}