[
    "commands",
    "management",
    "conch",
    "django_conch.models",
    "django_conch.checker",
    "django_conch.management.commands",
    "management.commands.conch",
    "models",
    "checker",
    "commands.conch",
    "django_conch",
    "django_conch.management",
    "management.commands",
    "django_conch.management.commands.conch"
]