{
    "archive_url": "https://api.github.com/repos/alex/django-templatetag-sugar/{archive_format}{/ref}",
    "assignees_url": "https://api.github.com/repos/alex/django-templatetag-sugar/assignees{/user}",
    "blobs_url": "https://api.github.com/repos/alex/django-templatetag-sugar/git/blobs{/sha}",
    "branches_url": "https://api.github.com/repos/alex/django-templatetag-sugar/branches{/branch}",
    "clone_url": "https://github.com/alex/django-templatetag-sugar.git",
    "collaborators_url": "https://api.github.com/repos/alex/django-templatetag-sugar/collaborators{/collaborator}",
    "comments_url": "https://api.github.com/repos/alex/django-templatetag-sugar/comments{/number}",
    "commits_url": "https://api.github.com/repos/alex/django-templatetag-sugar/commits{/sha}",
    "compare_url": "https://api.github.com/repos/alex/django-templatetag-sugar/compare/{base}...{head}",
    "contents_url": "https://api.github.com/repos/alex/django-templatetag-sugar/contents/{+path}",
    "contributors_url": "https://api.github.com/repos/alex/django-templatetag-sugar/contributors",
    "created_at": "2009-11-07T00:27:25Z",
    "default_branch": "master",
    "description": "This project exists to make defining template tags in Django kickass",
    "downloads_url": "https://api.github.com/repos/alex/django-templatetag-sugar/downloads",
    "events_url": "https://api.github.com/repos/alex/django-templatetag-sugar/events",
    "fork": false,
    "forks": 24,
    "forks_count": 24,
    "forks_url": "https://api.github.com/repos/alex/django-templatetag-sugar/forks",
    "full_name": "alex/django-templatetag-sugar",
    "git_commits_url": "https://api.github.com/repos/alex/django-templatetag-sugar/git/commits{/sha}",
    "git_refs_url": "https://api.github.com/repos/alex/django-templatetag-sugar/git/refs{/sha}",
    "git_tags_url": "https://api.github.com/repos/alex/django-templatetag-sugar/git/tags{/sha}",
    "git_url": "git://github.com/alex/django-templatetag-sugar.git",
    "has_downloads": true,
    "has_issues": true,
    "has_wiki": true,
    "homepage": "",
    "hooks_url": "https://api.github.com/repos/alex/django-templatetag-sugar/hooks",
    "html_url": "https://github.com/alex/django-templatetag-sugar",
    "id": 363957,
    "issue_comment_url": "https://api.github.com/repos/alex/django-templatetag-sugar/issues/comments/{number}",
    "issue_events_url": "https://api.github.com/repos/alex/django-templatetag-sugar/issues/events{/number}",
    "issues_url": "https://api.github.com/repos/alex/django-templatetag-sugar/issues{/number}",
    "keys_url": "https://api.github.com/repos/alex/django-templatetag-sugar/keys{/key_id}",
    "labels_url": "https://api.github.com/repos/alex/django-templatetag-sugar/labels{/name}",
    "language": "Python",
    "languages_url": "https://api.github.com/repos/alex/django-templatetag-sugar/languages",
    "merges_url": "https://api.github.com/repos/alex/django-templatetag-sugar/merges",
    "milestones_url": "https://api.github.com/repos/alex/django-templatetag-sugar/milestones{/number}",
    "mirror_url": null,
    "name": "django-templatetag-sugar",
    "notifications_url": "https://api.github.com/repos/alex/django-templatetag-sugar/notifications{?since,all,participating}",
    "open_issues": 5,
    "open_issues_count": 5,
    "owner": {
        "avatar_url": "https://avatars.githubusercontent.com/u/772?",
        "events_url": "https://api.github.com/users/alex/events{/privacy}",
        "followers_url": "https://api.github.com/users/alex/followers",
        "following_url": "https://api.github.com/users/alex/following{/other_user}",
        "gists_url": "https://api.github.com/users/alex/gists{/gist_id}",
        "gravatar_id": "edcdfd5affb524e0f88ec1a00ed3fe5d",
        "html_url": "https://github.com/alex",
        "id": 772,
        "login": "alex",
        "organizations_url": "https://api.github.com/users/alex/orgs",
        "received_events_url": "https://api.github.com/users/alex/received_events",
        "repos_url": "https://api.github.com/users/alex/repos",
        "site_admin": false,
        "starred_url": "https://api.github.com/users/alex/starred{/owner}{/repo}",
        "subscriptions_url": "https://api.github.com/users/alex/subscriptions",
        "type": "User",
        "url": "https://api.github.com/users/alex"
    },
    "private": false,
    "pulls_url": "https://api.github.com/repos/alex/django-templatetag-sugar/pulls{/number}",
    "pushed_at": "2014-03-24T04:28:41Z",
    "releases_url": "https://api.github.com/repos/alex/django-templatetag-sugar/releases{/id}",
    "score": 1.0,
    "size": 251,
    "ssh_url": "git@github.com:alex/django-templatetag-sugar.git",
    "stargazers_count": 200,
    "stargazers_url": "https://api.github.com/repos/alex/django-templatetag-sugar/stargazers",
    "statuses_url": "https://api.github.com/repos/alex/django-templatetag-sugar/statuses/{sha}",
    "subscribers_url": "https://api.github.com/repos/alex/django-templatetag-sugar/subscribers",
    "subscription_url": "https://api.github.com/repos/alex/django-templatetag-sugar/subscription",
    "svn_url": "https://github.com/alex/django-templatetag-sugar",
    "tags_url": "https://api.github.com/repos/alex/django-templatetag-sugar/tags",
    "teams_url": "https://api.github.com/repos/alex/django-templatetag-sugar/teams",
    "trees_url": "https://api.github.com/repos/alex/django-templatetag-sugar/git/trees{/sha}",
    "updated_at": "2014-03-24T04:28:42Z",
    "url": "https://api.github.com/repos/alex/django-templatetag-sugar",
    "watchers": 200,
    "watchers_count": 200
}