[
    "turbulenz_tools.utils.disassembler",
    "tools.pointmap",
    "tools.vmath",
    "utils.profiler",
    "utils.dependencies",
    "tools.node",
    "turbulenz_tools.tools.templates",
    "turbulenz_tools.tools.obj2json",
    "turbulenz_tools.utils.json_utils",
    "turbulenz_tools.tools",
    "asset2json",
    "json2stats",
    "tools",
    "turbulenz_tools.tools.dae2json",
    "turbulenz_tools.tools.toolsexception",
    "utils.json_utils",
    "turbulenz_tools.tools.pointmap",
    "turbulenz_tools.utils.json_stats",
    "turbulenz_tools.tools.bmfont2json",
    "xml_json",
    "turbulenz_tools.tools.vmath",
    "turbulenz_tools.utils.xml_json",
    "coloured_writer",
    "turbulenz_tools.tools.json2json",
    "json2tar",
    "turbulenz_tools.tools.appcodegen",
    "json_utils",
    "utils.subproc",
    "turbulenz_tools.tools.json2txt",
    "turbulenz_tools.tools.json2tar",
    "tools.templates",
    "tools.dae2json",
    "material",
    "turbulenz_tools.version",
    "tools.exportevents",
    "turbulenz_tools",
    "tools.stdtool",
    "json2txt",
    "turbulenz_tools.utils.coloured_writer",
    "tools.json2txt",
    "tools.material",
    "json2json",
    "dae2json",
    "makehtml",
    "effect2json",
    "material2json",
    "utils.json_stats",
    "htmlmin",
    "turbulenz_tools.tools.mesh",
    "exportevents",
    "tools.appcodegen",
    "tools.makehtml",
    "tools.material2json",
    "utils",
    "turbulenz_tools.tools.material",
    "tools.json2tar",
    "turbulenz_tools.tools.effect2json",
    "tools.json2json",
    "appcodegen",
    "profiler",
    "turbulenz_tools.utils.htmlmin",
    "disassembler",
    "turbulenz_tools.tools.maketzjs",
    "turbulenz_tools.utils.dependencies",
    "turbulenz_tools.tools.asset2json",
    "turbulenz_tools.utils.subproc",
    "tools.maketzjs",
    "bmfont2json",
    "obj2json",
    "utils.htmlmin",
    "vmath",
    "version",
    "turbulenz_tools.tools.material2json",
    "turbulenz_tools.utils.profiler",
    "turbulenz_tools.tools.makehtml",
    "utils.coloured_writer",
    "subproc",
    "stdtool",
    "node",
    "tools.xml2json",
    "hash",
    "maketzjs",
    "utils.xml_json",
    "tools.obj2json",
    "mesh",
    "turbulenz_tools.tools.node",
    "dependencies",
    "pointmap",
    "xml2json",
    "turbulenz_tools.tools.stdtool",
    "tools.effect2json",
    "turbulenz_tools.tools.xml2json",
    "templates",
    "turbulenz_tools.tools.json2stats",
    "tools.mesh",
    "turbulenz_tools.utils.hash",
    "turbulenz_tools.tools.exportevents",
    "toolsexception",
    "utils.disassembler",
    "json_stats",
    "tools.asset2json",
    "tools.bmfont2json",
    "tools.toolsexception",
    "turbulenz_tools.utils",
    "tools.json2stats",
    "utils.hash"
]