{
    "libs": [
        "cStringIO",
        "markdown",
        "ses",
        "cherrypy",
        "SimpleHTTPServer",
        "unittest",
        "random",
        "mimetypes",
        "__builtin__",
        "datetime",
        "fcgi",
        "MySQLdb",
        "google",
        "DBUtils",
        "__init__",
        "handlers",
        "stats",
        "posixpath",
        "threading",
        "subprocess",
        "errno",
        "pprint",
        "consumer",
        "urllib",
        "re",
        "Cookie",
        "cookielib",
        "scgi",
        "tokenize",
        "smtplib",
        "cx_Oracle",
        "email",
        "cgi",
        "cPickle",
        "B",
        "memstore",
        "SocketServer",
        "warnings",
        "UserDict",
        "glob",
        "sets",
        "urllib2",
        "sys",
        "ssl",
        "BeautifulSoup",
        "webbrowser",
        "hotshot",
        "pickle",
        "path",
        "pymssql",
        "copy",
        "ClientForm",
        "types",
        "compiler",
        "kinterb",
        "httplib",
        "b",
        "socket",
        "StringIO",
        "util",
        "h",
        "Utils",
        "traceback",
        "OpenSSL",
        "urlparse",
        "sha",
        "itertools",
        "extensions",
        "doctest",
        "time",
        "exceptions",
        "Message",
        "os",
        "hmac",
        "token"
    ]
}