{
    "archive_url": "https://api.github.com/repos/ofri/Open-Knesset/{archive_format}{/ref}",
    "assignees_url": "https://api.github.com/repos/ofri/Open-Knesset/assignees{/user}",
    "blobs_url": "https://api.github.com/repos/ofri/Open-Knesset/git/blobs{/sha}",
    "branches_url": "https://api.github.com/repos/ofri/Open-Knesset/branches{/branch}",
    "clone_url": "https://github.com/ofri/Open-Knesset.git",
    "collaborators_url": "https://api.github.com/repos/ofri/Open-Knesset/collaborators{/collaborator}",
    "comments_url": "https://api.github.com/repos/ofri/Open-Knesset/comments{/number}",
    "commits_url": "https://api.github.com/repos/ofri/Open-Knesset/commits{/sha}",
    "compare_url": "https://api.github.com/repos/ofri/Open-Knesset/compare/{base}...{head}",
    "contents_url": "https://api.github.com/repos/ofri/Open-Knesset/contents/{+path}",
    "contributors_url": "https://api.github.com/repos/ofri/Open-Knesset/contributors",
    "created_at": "2009-07-29T16:58:51Z",
    "default_branch": "master",
    "description": "** The official repo is at https://github.com/hasadna/Open-Knesset/ . Please fork it, instead of my repo.",
    "downloads_url": "https://api.github.com/repos/ofri/Open-Knesset/downloads",
    "events_url": "https://api.github.com/repos/ofri/Open-Knesset/events",
    "fork": false,
    "forks": 223,
    "forks_count": 223,
    "forks_url": "https://api.github.com/repos/ofri/Open-Knesset/forks",
    "full_name": "ofri/Open-Knesset",
    "git_commits_url": "https://api.github.com/repos/ofri/Open-Knesset/git/commits{/sha}",
    "git_refs_url": "https://api.github.com/repos/ofri/Open-Knesset/git/refs{/sha}",
    "git_tags_url": "https://api.github.com/repos/ofri/Open-Knesset/git/tags{/sha}",
    "git_url": "git://github.com/ofri/Open-Knesset.git",
    "has_downloads": true,
    "has_issues": true,
    "has_wiki": true,
    "homepage": "https://github.com/hasadna/Open-Knesset/",
    "hooks_url": "https://api.github.com/repos/ofri/Open-Knesset/hooks",
    "html_url": "https://github.com/ofri/Open-Knesset",
    "id": 263749,
    "issue_comment_url": "https://api.github.com/repos/ofri/Open-Knesset/issues/comments/{number}",
    "issue_events_url": "https://api.github.com/repos/ofri/Open-Knesset/issues/events{/number}",
    "issues_url": "https://api.github.com/repos/ofri/Open-Knesset/issues{/number}",
    "keys_url": "https://api.github.com/repos/ofri/Open-Knesset/keys{/key_id}",
    "labels_url": "https://api.github.com/repos/ofri/Open-Knesset/labels{/name}",
    "language": "Python",
    "languages_url": "https://api.github.com/repos/ofri/Open-Knesset/languages",
    "merges_url": "https://api.github.com/repos/ofri/Open-Knesset/merges",
    "milestones_url": "https://api.github.com/repos/ofri/Open-Knesset/milestones{/number}",
    "mirror_url": null,
    "name": "Open-Knesset",
    "notifications_url": "https://api.github.com/repos/ofri/Open-Knesset/notifications{?since,all,participating}",
    "open_issues": 20,
    "open_issues_count": 20,
    "owner": {
        "avatar_url": "https://avatars.githubusercontent.com/u/105233?",
        "events_url": "https://api.github.com/users/ofri/events{/privacy}",
        "followers_url": "https://api.github.com/users/ofri/followers",
        "following_url": "https://api.github.com/users/ofri/following{/other_user}",
        "gists_url": "https://api.github.com/users/ofri/gists{/gist_id}",
        "gravatar_id": "4437e31fa0c1333736b30c9543891198",
        "html_url": "https://github.com/ofri",
        "id": 105233,
        "login": "ofri",
        "organizations_url": "https://api.github.com/users/ofri/orgs",
        "received_events_url": "https://api.github.com/users/ofri/received_events",
        "repos_url": "https://api.github.com/users/ofri/repos",
        "site_admin": false,
        "starred_url": "https://api.github.com/users/ofri/starred{/owner}{/repo}",
        "subscriptions_url": "https://api.github.com/users/ofri/subscriptions",
        "type": "User",
        "url": "https://api.github.com/users/ofri"
    },
    "private": false,
    "pulls_url": "https://api.github.com/repos/ofri/Open-Knesset/pulls{/number}",
    "pushed_at": "2014-03-24T21:10:32Z",
    "releases_url": "https://api.github.com/repos/ofri/Open-Knesset/releases{/id}",
    "score": 1.0,
    "size": 28727,
    "ssh_url": "git@github.com:ofri/Open-Knesset.git",
    "stargazers_count": 98,
    "stargazers_url": "https://api.github.com/repos/ofri/Open-Knesset/stargazers",
    "statuses_url": "https://api.github.com/repos/ofri/Open-Knesset/statuses/{sha}",
    "subscribers_url": "https://api.github.com/repos/ofri/Open-Knesset/subscribers",
    "subscription_url": "https://api.github.com/repos/ofri/Open-Knesset/subscription",
    "svn_url": "https://github.com/ofri/Open-Knesset",
    "tags_url": "https://api.github.com/repos/ofri/Open-Knesset/tags",
    "teams_url": "https://api.github.com/repos/ofri/Open-Knesset/teams",
    "trees_url": "https://api.github.com/repos/ofri/Open-Knesset/git/trees{/sha}",
    "updated_at": "2014-03-24T21:10:32Z",
    "url": "https://api.github.com/repos/ofri/Open-Knesset",
    "watchers": 98,
    "watchers_count": 98
}