{
    "archive_url": "https://api.github.com/repos/opsschool/curriculum/{archive_format}{/ref}",
    "assignees_url": "https://api.github.com/repos/opsschool/curriculum/assignees{/user}",
    "blobs_url": "https://api.github.com/repos/opsschool/curriculum/git/blobs{/sha}",
    "branches_url": "https://api.github.com/repos/opsschool/curriculum/branches{/branch}",
    "clone_url": "https://github.com/opsschool/curriculum.git",
    "collaborators_url": "https://api.github.com/repos/opsschool/curriculum/collaborators{/collaborator}",
    "comments_url": "https://api.github.com/repos/opsschool/curriculum/comments{/number}",
    "commits_url": "https://api.github.com/repos/opsschool/curriculum/commits{/sha}",
    "compare_url": "https://api.github.com/repos/opsschool/curriculum/compare/{base}...{head}",
    "contents_url": "https://api.github.com/repos/opsschool/curriculum/contents/{+path}",
    "contributors_url": "https://api.github.com/repos/opsschool/curriculum/contributors",
    "created_at": "2012-10-12T13:27:34Z",
    "default_branch": "master",
    "description": "Ops School Curriculum",
    "downloads_url": "https://api.github.com/repos/opsschool/curriculum/downloads",
    "events_url": "https://api.github.com/repos/opsschool/curriculum/events",
    "fork": false,
    "forks": 223,
    "forks_count": 223,
    "forks_url": "https://api.github.com/repos/opsschool/curriculum/forks",
    "full_name": "opsschool/curriculum",
    "git_commits_url": "https://api.github.com/repos/opsschool/curriculum/git/commits{/sha}",
    "git_refs_url": "https://api.github.com/repos/opsschool/curriculum/git/refs{/sha}",
    "git_tags_url": "https://api.github.com/repos/opsschool/curriculum/git/tags{/sha}",
    "git_url": "git://github.com/opsschool/curriculum.git",
    "has_downloads": true,
    "has_issues": true,
    "has_wiki": true,
    "homepage": "http://www.opsschool.org/",
    "hooks_url": "https://api.github.com/repos/opsschool/curriculum/hooks",
    "html_url": "https://github.com/opsschool/curriculum",
    "id": 6190554,
    "issue_comment_url": "https://api.github.com/repos/opsschool/curriculum/issues/comments/{number}",
    "issue_events_url": "https://api.github.com/repos/opsschool/curriculum/issues/events{/number}",
    "issues_url": "https://api.github.com/repos/opsschool/curriculum/issues{/number}",
    "keys_url": "https://api.github.com/repos/opsschool/curriculum/keys{/key_id}",
    "labels_url": "https://api.github.com/repos/opsschool/curriculum/labels{/name}",
    "language": "Python",
    "languages_url": "https://api.github.com/repos/opsschool/curriculum/languages",
    "merges_url": "https://api.github.com/repos/opsschool/curriculum/merges",
    "milestones_url": "https://api.github.com/repos/opsschool/curriculum/milestones{/number}",
    "mirror_url": null,
    "name": "curriculum",
    "notifications_url": "https://api.github.com/repos/opsschool/curriculum/notifications{?since,all,participating}",
    "open_issues": 12,
    "open_issues_count": 12,
    "owner": {
        "avatar_url": "https://avatars.githubusercontent.com/u/2544993?",
        "events_url": "https://api.github.com/users/opsschool/events{/privacy}",
        "followers_url": "https://api.github.com/users/opsschool/followers",
        "following_url": "https://api.github.com/users/opsschool/following{/other_user}",
        "gists_url": "https://api.github.com/users/opsschool/gists{/gist_id}",
        "gravatar_id": null,
        "html_url": "https://github.com/opsschool",
        "id": 2544993,
        "login": "opsschool",
        "organizations_url": "https://api.github.com/users/opsschool/orgs",
        "received_events_url": "https://api.github.com/users/opsschool/received_events",
        "repos_url": "https://api.github.com/users/opsschool/repos",
        "site_admin": false,
        "starred_url": "https://api.github.com/users/opsschool/starred{/owner}{/repo}",
        "subscriptions_url": "https://api.github.com/users/opsschool/subscriptions",
        "type": "Organization",
        "url": "https://api.github.com/users/opsschool"
    },
    "private": false,
    "pulls_url": "https://api.github.com/repos/opsschool/curriculum/pulls{/number}",
    "pushed_at": "2014-04-22T20:19:48Z",
    "releases_url": "https://api.github.com/repos/opsschool/curriculum/releases{/id}",
    "score": 1.0,
    "size": 2230,
    "ssh_url": "git@github.com:opsschool/curriculum.git",
    "stargazers_count": 428,
    "stargazers_url": "https://api.github.com/repos/opsschool/curriculum/stargazers",
    "statuses_url": "https://api.github.com/repos/opsschool/curriculum/statuses/{sha}",
    "subscribers_url": "https://api.github.com/repos/opsschool/curriculum/subscribers",
    "subscription_url": "https://api.github.com/repos/opsschool/curriculum/subscription",
    "svn_url": "https://github.com/opsschool/curriculum",
    "tags_url": "https://api.github.com/repos/opsschool/curriculum/tags",
    "teams_url": "https://api.github.com/repos/opsschool/curriculum/teams",
    "trees_url": "https://api.github.com/repos/opsschool/curriculum/git/trees{/sha}",
    "updated_at": "2014-05-04T05:23:00Z",
    "url": "https://api.github.com/repos/opsschool/curriculum",
    "watchers": 428,
    "watchers_count": 428
}