{
    "libs": [
        "unittest",
        "subprocess",
        "parse",
        "contextlib",
        "io",
        "path",
        "calendar",
        "queue",
        "builtins",
        "tempfile",
        "errno",
        "urllib",
        "re",
        "getopt",
        "unittest2",
        "t",
        "stat",
        "http",
        "string",
        "urllib2",
        "Queue",
        "_thread",
        "types",
        "sys",
        "httplib",
        "logging",
        "socket",
        "thread",
        "StringIO",
        "traceback",
        "request",
        "pkg_resources",
        "urlparse",
        "doctest",
        "time",
        "os",
        "multiprocessing"
    ]
}