{
    "archive_url": "https://api.github.com/repos/Arachnid/bloggart/{archive_format}{/ref}",
    "assignees_url": "https://api.github.com/repos/Arachnid/bloggart/assignees{/user}",
    "blobs_url": "https://api.github.com/repos/Arachnid/bloggart/git/blobs{/sha}",
    "branches_url": "https://api.github.com/repos/Arachnid/bloggart/branches{/branch}",
    "clone_url": "https://github.com/Arachnid/bloggart.git",
    "collaborators_url": "https://api.github.com/repos/Arachnid/bloggart/collaborators{/collaborator}",
    "comments_url": "https://api.github.com/repos/Arachnid/bloggart/comments{/number}",
    "commits_url": "https://api.github.com/repos/Arachnid/bloggart/commits{/sha}",
    "compare_url": "https://api.github.com/repos/Arachnid/bloggart/compare/{base}...{head}",
    "contents_url": "https://api.github.com/repos/Arachnid/bloggart/contents/{+path}",
    "contributors_url": "https://api.github.com/repos/Arachnid/bloggart/contributors",
    "created_at": "2009-10-05T14:17:53Z",
    "default_branch": "master",
    "description": "A blog application for App Engine",
    "downloads_url": "https://api.github.com/repos/Arachnid/bloggart/downloads",
    "events_url": "https://api.github.com/repos/Arachnid/bloggart/events",
    "fork": false,
    "forks": 90,
    "forks_count": 90,
    "forks_url": "https://api.github.com/repos/Arachnid/bloggart/forks",
    "full_name": "Arachnid/bloggart",
    "git_commits_url": "https://api.github.com/repos/Arachnid/bloggart/git/commits{/sha}",
    "git_refs_url": "https://api.github.com/repos/Arachnid/bloggart/git/refs{/sha}",
    "git_tags_url": "https://api.github.com/repos/Arachnid/bloggart/git/tags{/sha}",
    "git_url": "git://github.com/Arachnid/bloggart.git",
    "has_downloads": true,
    "has_issues": true,
    "has_wiki": true,
    "homepage": "http://bloggart-demo.appspot.com/",
    "hooks_url": "https://api.github.com/repos/Arachnid/bloggart/hooks",
    "html_url": "https://github.com/Arachnid/bloggart",
    "id": 327244,
    "issue_comment_url": "https://api.github.com/repos/Arachnid/bloggart/issues/comments/{number}",
    "issue_events_url": "https://api.github.com/repos/Arachnid/bloggart/issues/events{/number}",
    "issues_url": "https://api.github.com/repos/Arachnid/bloggart/issues{/number}",
    "keys_url": "https://api.github.com/repos/Arachnid/bloggart/keys{/key_id}",
    "labels_url": "https://api.github.com/repos/Arachnid/bloggart/labels{/name}",
    "language": "Python",
    "languages_url": "https://api.github.com/repos/Arachnid/bloggart/languages",
    "merges_url": "https://api.github.com/repos/Arachnid/bloggart/merges",
    "milestones_url": "https://api.github.com/repos/Arachnid/bloggart/milestones{/number}",
    "mirror_url": null,
    "name": "bloggart",
    "notifications_url": "https://api.github.com/repos/Arachnid/bloggart/notifications{?since,all,participating}",
    "open_issues": 26,
    "open_issues_count": 26,
    "owner": {
        "avatar_url": "https://avatars.githubusercontent.com/u/17865?",
        "events_url": "https://api.github.com/users/Arachnid/events{/privacy}",
        "followers_url": "https://api.github.com/users/Arachnid/followers",
        "following_url": "https://api.github.com/users/Arachnid/following{/other_user}",
        "gists_url": "https://api.github.com/users/Arachnid/gists{/gist_id}",
        "gravatar_id": "dc69af7dd7151a00843602888638fabb",
        "html_url": "https://github.com/Arachnid",
        "id": 17865,
        "login": "Arachnid",
        "organizations_url": "https://api.github.com/users/Arachnid/orgs",
        "received_events_url": "https://api.github.com/users/Arachnid/received_events",
        "repos_url": "https://api.github.com/users/Arachnid/repos",
        "site_admin": false,
        "starred_url": "https://api.github.com/users/Arachnid/starred{/owner}{/repo}",
        "subscriptions_url": "https://api.github.com/users/Arachnid/subscriptions",
        "type": "User",
        "url": "https://api.github.com/users/Arachnid"
    },
    "private": false,
    "pulls_url": "https://api.github.com/repos/Arachnid/bloggart/pulls{/number}",
    "pushed_at": "2013-08-08T09:31:20Z",
    "releases_url": "https://api.github.com/repos/Arachnid/bloggart/releases{/id}",
    "score": 1.0,
    "size": 1382,
    "ssh_url": "git@github.com:Arachnid/bloggart.git",
    "stargazers_count": 292,
    "stargazers_url": "https://api.github.com/repos/Arachnid/bloggart/stargazers",
    "statuses_url": "https://api.github.com/repos/Arachnid/bloggart/statuses/{sha}",
    "subscribers_url": "https://api.github.com/repos/Arachnid/bloggart/subscribers",
    "subscription_url": "https://api.github.com/repos/Arachnid/bloggart/subscription",
    "svn_url": "https://github.com/Arachnid/bloggart",
    "tags_url": "https://api.github.com/repos/Arachnid/bloggart/tags",
    "teams_url": "https://api.github.com/repos/Arachnid/bloggart/teams",
    "trees_url": "https://api.github.com/repos/Arachnid/bloggart/git/trees{/sha}",
    "updated_at": "2014-05-03T15:15:25Z",
    "url": "https://api.github.com/repos/Arachnid/bloggart",
    "watchers": 292,
    "watchers_count": 292
}