{
    "libs": [
        "print_function",
        "argparse",
        "functools",
        "random",
        "cStringIO",
        "simple",
        "unittest",
        "six",
        "db",
        "django",
        "sys",
        "re",
        "types",
        "io",
        "operator",
        "calendar",
        "datetime",
        "os",
        "geos",
        "math"
    ]
}