{
    "archive_url": "https://api.github.com/repos/facelessuser/HexViewer/{archive_format}{/ref}",
    "assignees_url": "https://api.github.com/repos/facelessuser/HexViewer/assignees{/user}",
    "blobs_url": "https://api.github.com/repos/facelessuser/HexViewer/git/blobs{/sha}",
    "branches_url": "https://api.github.com/repos/facelessuser/HexViewer/branches{/branch}",
    "clone_url": "https://github.com/facelessuser/HexViewer.git",
    "collaborators_url": "https://api.github.com/repos/facelessuser/HexViewer/collaborators{/collaborator}",
    "comments_url": "https://api.github.com/repos/facelessuser/HexViewer/comments{/number}",
    "commits_url": "https://api.github.com/repos/facelessuser/HexViewer/commits{/sha}",
    "compare_url": "https://api.github.com/repos/facelessuser/HexViewer/compare/{base}...{head}",
    "contents_url": "https://api.github.com/repos/facelessuser/HexViewer/contents/{+path}",
    "contributors_url": "https://api.github.com/repos/facelessuser/HexViewer/contributors",
    "created_at": "2011-10-30T15:36:01Z",
    "default_branch": "master",
    "description": "Hex viewer and editor for SublimeText2",
    "downloads_url": "https://api.github.com/repos/facelessuser/HexViewer/downloads",
    "events_url": "https://api.github.com/repos/facelessuser/HexViewer/events",
    "fork": false,
    "forks": 13,
    "forks_count": 13,
    "forks_url": "https://api.github.com/repos/facelessuser/HexViewer/forks",
    "full_name": "facelessuser/HexViewer",
    "git_commits_url": "https://api.github.com/repos/facelessuser/HexViewer/git/commits{/sha}",
    "git_refs_url": "https://api.github.com/repos/facelessuser/HexViewer/git/refs{/sha}",
    "git_tags_url": "https://api.github.com/repos/facelessuser/HexViewer/git/tags{/sha}",
    "git_url": "git://github.com/facelessuser/HexViewer.git",
    "has_downloads": true,
    "has_issues": true,
    "has_wiki": true,
    "homepage": "",
    "hooks_url": "https://api.github.com/repos/facelessuser/HexViewer/hooks",
    "html_url": "https://github.com/facelessuser/HexViewer",
    "id": 2675721,
    "issue_comment_url": "https://api.github.com/repos/facelessuser/HexViewer/issues/comments/{number}",
    "issue_events_url": "https://api.github.com/repos/facelessuser/HexViewer/issues/events{/number}",
    "issues_url": "https://api.github.com/repos/facelessuser/HexViewer/issues{/number}",
    "keys_url": "https://api.github.com/repos/facelessuser/HexViewer/keys{/key_id}",
    "labels_url": "https://api.github.com/repos/facelessuser/HexViewer/labels{/name}",
    "language": "Python",
    "languages_url": "https://api.github.com/repos/facelessuser/HexViewer/languages",
    "merges_url": "https://api.github.com/repos/facelessuser/HexViewer/merges",
    "milestones_url": "https://api.github.com/repos/facelessuser/HexViewer/milestones{/number}",
    "mirror_url": null,
    "name": "HexViewer",
    "notifications_url": "https://api.github.com/repos/facelessuser/HexViewer/notifications{?since,all,participating}",
    "open_issues": 1,
    "open_issues_count": 1,
    "owner": {
        "avatar_url": "https://avatars.githubusercontent.com/u/1055125?",
        "events_url": "https://api.github.com/users/facelessuser/events{/privacy}",
        "followers_url": "https://api.github.com/users/facelessuser/followers",
        "following_url": "https://api.github.com/users/facelessuser/following{/other_user}",
        "gists_url": "https://api.github.com/users/facelessuser/gists{/gist_id}",
        "gravatar_id": "a1bed086a467ebec0540b494a667b65a",
        "html_url": "https://github.com/facelessuser",
        "id": 1055125,
        "login": "facelessuser",
        "organizations_url": "https://api.github.com/users/facelessuser/orgs",
        "received_events_url": "https://api.github.com/users/facelessuser/received_events",
        "repos_url": "https://api.github.com/users/facelessuser/repos",
        "site_admin": false,
        "starred_url": "https://api.github.com/users/facelessuser/starred{/owner}{/repo}",
        "subscriptions_url": "https://api.github.com/users/facelessuser/subscriptions",
        "type": "User",
        "url": "https://api.github.com/users/facelessuser"
    },
    "private": false,
    "pulls_url": "https://api.github.com/repos/facelessuser/HexViewer/pulls{/number}",
    "pushed_at": "2014-04-15T03:18:28Z",
    "releases_url": "https://api.github.com/repos/facelessuser/HexViewer/releases{/id}",
    "score": 1.0,
    "size": 418,
    "ssh_url": "git@github.com:facelessuser/HexViewer.git",
    "stargazers_count": 105,
    "stargazers_url": "https://api.github.com/repos/facelessuser/HexViewer/stargazers",
    "statuses_url": "https://api.github.com/repos/facelessuser/HexViewer/statuses/{sha}",
    "subscribers_url": "https://api.github.com/repos/facelessuser/HexViewer/subscribers",
    "subscription_url": "https://api.github.com/repos/facelessuser/HexViewer/subscription",
    "svn_url": "https://github.com/facelessuser/HexViewer",
    "tags_url": "https://api.github.com/repos/facelessuser/HexViewer/tags",
    "teams_url": "https://api.github.com/repos/facelessuser/HexViewer/teams",
    "trees_url": "https://api.github.com/repos/facelessuser/HexViewer/git/trees{/sha}",
    "updated_at": "2014-05-05T02:57:42Z",
    "url": "https://api.github.com/repos/facelessuser/HexViewer",
    "watchers": 105,
    "watchers_count": 105
}