{
    "libs": [
        "cStringIO",
        "locale",
        "functools",
        "with_statement",
        "subprocess",
        "io",
        "NullHandler",
        "uuid",
        "tarfile",
        "urllib",
        "re",
        "json",
        "encode",
        "webob",
        "simple_server",
        "simplejson",
        "optparse",
        "daemon",
        "textwrap",
        "sys",
        "httplib2",
        "path",
        "pycurl",
        "httplib",
        "logging",
        "socket",
        "StringIO",
        "traceback",
        "threading",
        "itertools",
        "time",
        "os",
        "multiprocessing"
    ]
}