[
    "templatetags.sorting_tags",
    "sorting_tags",
    "django_sorting.templatetags.sorting_tags",
    "models",
    "middleware",
    "django_sorting.templatetags",
    "templatetags",
    "django_sorting",
    "django_sorting.models",
    "django_sorting.middleware"
]