{
    "archive_url": "https://api.github.com/repos/arthur-debert/google-code-issues-migrator/{archive_format}{/ref}",
    "assignees_url": "https://api.github.com/repos/arthur-debert/google-code-issues-migrator/assignees{/user}",
    "blobs_url": "https://api.github.com/repos/arthur-debert/google-code-issues-migrator/git/blobs{/sha}",
    "branches_url": "https://api.github.com/repos/arthur-debert/google-code-issues-migrator/branches{/branch}",
    "clone_url": "https://github.com/arthur-debert/google-code-issues-migrator.git",
    "collaborators_url": "https://api.github.com/repos/arthur-debert/google-code-issues-migrator/collaborators{/collaborator}",
    "comments_url": "https://api.github.com/repos/arthur-debert/google-code-issues-migrator/comments{/number}",
    "commits_url": "https://api.github.com/repos/arthur-debert/google-code-issues-migrator/commits{/sha}",
    "compare_url": "https://api.github.com/repos/arthur-debert/google-code-issues-migrator/compare/{base}...{head}",
    "contents_url": "https://api.github.com/repos/arthur-debert/google-code-issues-migrator/contents/{+path}",
    "contributors_url": "https://api.github.com/repos/arthur-debert/google-code-issues-migrator/contributors",
    "created_at": "2010-10-15T15:30:10Z",
    "default_branch": "master",
    "description": "A simple script to migrate issues from google code to github.",
    "downloads_url": "https://api.github.com/repos/arthur-debert/google-code-issues-migrator/downloads",
    "events_url": "https://api.github.com/repos/arthur-debert/google-code-issues-migrator/events",
    "fork": false,
    "forks": 35,
    "forks_count": 35,
    "forks_url": "https://api.github.com/repos/arthur-debert/google-code-issues-migrator/forks",
    "full_name": "arthur-debert/google-code-issues-migrator",
    "git_commits_url": "https://api.github.com/repos/arthur-debert/google-code-issues-migrator/git/commits{/sha}",
    "git_refs_url": "https://api.github.com/repos/arthur-debert/google-code-issues-migrator/git/refs{/sha}",
    "git_tags_url": "https://api.github.com/repos/arthur-debert/google-code-issues-migrator/git/tags{/sha}",
    "git_url": "git://github.com/arthur-debert/google-code-issues-migrator.git",
    "has_downloads": true,
    "has_issues": true,
    "has_wiki": true,
    "homepage": "",
    "hooks_url": "https://api.github.com/repos/arthur-debert/google-code-issues-migrator/hooks",
    "html_url": "https://github.com/arthur-debert/google-code-issues-migrator",
    "id": 990220,
    "issue_comment_url": "https://api.github.com/repos/arthur-debert/google-code-issues-migrator/issues/comments/{number}",
    "issue_events_url": "https://api.github.com/repos/arthur-debert/google-code-issues-migrator/issues/events{/number}",
    "issues_url": "https://api.github.com/repos/arthur-debert/google-code-issues-migrator/issues{/number}",
    "keys_url": "https://api.github.com/repos/arthur-debert/google-code-issues-migrator/keys{/key_id}",
    "labels_url": "https://api.github.com/repos/arthur-debert/google-code-issues-migrator/labels{/name}",
    "language": "Python",
    "languages_url": "https://api.github.com/repos/arthur-debert/google-code-issues-migrator/languages",
    "merges_url": "https://api.github.com/repos/arthur-debert/google-code-issues-migrator/merges",
    "milestones_url": "https://api.github.com/repos/arthur-debert/google-code-issues-migrator/milestones{/number}",
    "mirror_url": null,
    "name": "google-code-issues-migrator",
    "notifications_url": "https://api.github.com/repos/arthur-debert/google-code-issues-migrator/notifications{?since,all,participating}",
    "open_issues": 15,
    "open_issues_count": 15,
    "owner": {
        "avatar_url": "https://avatars.githubusercontent.com/u/34947?",
        "events_url": "https://api.github.com/users/arthur-debert/events{/privacy}",
        "followers_url": "https://api.github.com/users/arthur-debert/followers",
        "following_url": "https://api.github.com/users/arthur-debert/following{/other_user}",
        "gists_url": "https://api.github.com/users/arthur-debert/gists{/gist_id}",
        "gravatar_id": "9bfcdf9a72021d081a4cebf69a49ada8",
        "html_url": "https://github.com/arthur-debert",
        "id": 34947,
        "login": "arthur-debert",
        "organizations_url": "https://api.github.com/users/arthur-debert/orgs",
        "received_events_url": "https://api.github.com/users/arthur-debert/received_events",
        "repos_url": "https://api.github.com/users/arthur-debert/repos",
        "site_admin": false,
        "starred_url": "https://api.github.com/users/arthur-debert/starred{/owner}{/repo}",
        "subscriptions_url": "https://api.github.com/users/arthur-debert/subscriptions",
        "type": "User",
        "url": "https://api.github.com/users/arthur-debert"
    },
    "private": false,
    "pulls_url": "https://api.github.com/repos/arthur-debert/google-code-issues-migrator/pulls{/number}",
    "pushed_at": "2013-10-08T19:01:48Z",
    "releases_url": "https://api.github.com/repos/arthur-debert/google-code-issues-migrator/releases{/id}",
    "score": 1.0,
    "size": 243,
    "ssh_url": "git@github.com:arthur-debert/google-code-issues-migrator.git",
    "stargazers_count": 49,
    "stargazers_url": "https://api.github.com/repos/arthur-debert/google-code-issues-migrator/stargazers",
    "statuses_url": "https://api.github.com/repos/arthur-debert/google-code-issues-migrator/statuses/{sha}",
    "subscribers_url": "https://api.github.com/repos/arthur-debert/google-code-issues-migrator/subscribers",
    "subscription_url": "https://api.github.com/repos/arthur-debert/google-code-issues-migrator/subscription",
    "svn_url": "https://github.com/arthur-debert/google-code-issues-migrator",
    "tags_url": "https://api.github.com/repos/arthur-debert/google-code-issues-migrator/tags",
    "teams_url": "https://api.github.com/repos/arthur-debert/google-code-issues-migrator/teams",
    "trees_url": "https://api.github.com/repos/arthur-debert/google-code-issues-migrator/git/trees{/sha}",
    "updated_at": "2014-01-12T20:03:19Z",
    "url": "https://api.github.com/repos/arthur-debert/google-code-issues-migrator",
    "watchers": 49,
    "watchers_count": 49
}