{
    "archive_url": "https://api.github.com/repos/brandonhsiao/rgkit/{archive_format}{/ref}",
    "assignees_url": "https://api.github.com/repos/brandonhsiao/rgkit/assignees{/user}",
    "blobs_url": "https://api.github.com/repos/brandonhsiao/rgkit/git/blobs{/sha}",
    "branches_url": "https://api.github.com/repos/brandonhsiao/rgkit/branches{/branch}",
    "clone_url": "https://github.com/brandonhsiao/rgkit.git",
    "collaborators_url": "https://api.github.com/repos/brandonhsiao/rgkit/collaborators{/collaborator}",
    "comments_url": "https://api.github.com/repos/brandonhsiao/rgkit/comments{/number}",
    "commits_url": "https://api.github.com/repos/brandonhsiao/rgkit/commits{/sha}",
    "compare_url": "https://api.github.com/repos/brandonhsiao/rgkit/compare/{base}...{head}",
    "contents_url": "https://api.github.com/repos/brandonhsiao/rgkit/contents/{+path}",
    "contributors_url": "https://api.github.com/repos/brandonhsiao/rgkit/contributors",
    "created_at": "2013-11-10T18:01:18Z",
    "default_branch": "master",
    "description": "Testing kit for robot game",
    "downloads_url": "https://api.github.com/repos/brandonhsiao/rgkit/downloads",
    "events_url": "https://api.github.com/repos/brandonhsiao/rgkit/events",
    "fork": false,
    "forks": 47,
    "forks_count": 47,
    "forks_url": "https://api.github.com/repos/brandonhsiao/rgkit/forks",
    "full_name": "brandonhsiao/rgkit",
    "git_commits_url": "https://api.github.com/repos/brandonhsiao/rgkit/git/commits{/sha}",
    "git_refs_url": "https://api.github.com/repos/brandonhsiao/rgkit/git/refs{/sha}",
    "git_tags_url": "https://api.github.com/repos/brandonhsiao/rgkit/git/tags{/sha}",
    "git_url": "git://github.com/brandonhsiao/rgkit.git",
    "has_downloads": true,
    "has_issues": true,
    "has_wiki": true,
    "homepage": null,
    "hooks_url": "https://api.github.com/repos/brandonhsiao/rgkit/hooks",
    "html_url": "https://github.com/brandonhsiao/rgkit",
    "id": 14281122,
    "issue_comment_url": "https://api.github.com/repos/brandonhsiao/rgkit/issues/comments/{number}",
    "issue_events_url": "https://api.github.com/repos/brandonhsiao/rgkit/issues/events{/number}",
    "issues_url": "https://api.github.com/repos/brandonhsiao/rgkit/issues{/number}",
    "keys_url": "https://api.github.com/repos/brandonhsiao/rgkit/keys{/key_id}",
    "labels_url": "https://api.github.com/repos/brandonhsiao/rgkit/labels{/name}",
    "language": "Python",
    "languages_url": "https://api.github.com/repos/brandonhsiao/rgkit/languages",
    "merges_url": "https://api.github.com/repos/brandonhsiao/rgkit/merges",
    "milestones_url": "https://api.github.com/repos/brandonhsiao/rgkit/milestones{/number}",
    "mirror_url": null,
    "name": "rgkit",
    "notifications_url": "https://api.github.com/repos/brandonhsiao/rgkit/notifications{?since,all,participating}",
    "open_issues": 9,
    "open_issues_count": 9,
    "owner": {
        "avatar_url": "https://avatars.githubusercontent.com/u/1924187?",
        "events_url": "https://api.github.com/users/brandonhsiao/events{/privacy}",
        "followers_url": "https://api.github.com/users/brandonhsiao/followers",
        "following_url": "https://api.github.com/users/brandonhsiao/following{/other_user}",
        "gists_url": "https://api.github.com/users/brandonhsiao/gists{/gist_id}",
        "gravatar_id": "dc25300d8a8fc5092bc033191693576c",
        "html_url": "https://github.com/brandonhsiao",
        "id": 1924187,
        "login": "brandonhsiao",
        "organizations_url": "https://api.github.com/users/brandonhsiao/orgs",
        "received_events_url": "https://api.github.com/users/brandonhsiao/received_events",
        "repos_url": "https://api.github.com/users/brandonhsiao/repos",
        "site_admin": false,
        "starred_url": "https://api.github.com/users/brandonhsiao/starred{/owner}{/repo}",
        "subscriptions_url": "https://api.github.com/users/brandonhsiao/subscriptions",
        "type": "User",
        "url": "https://api.github.com/users/brandonhsiao"
    },
    "private": false,
    "pulls_url": "https://api.github.com/repos/brandonhsiao/rgkit/pulls{/number}",
    "pushed_at": "2013-12-07T22:15:39Z",
    "releases_url": "https://api.github.com/repos/brandonhsiao/rgkit/releases{/id}",
    "score": 1.0,
    "size": 1772,
    "ssh_url": "git@github.com:brandonhsiao/rgkit.git",
    "stargazers_count": 109,
    "stargazers_url": "https://api.github.com/repos/brandonhsiao/rgkit/stargazers",
    "statuses_url": "https://api.github.com/repos/brandonhsiao/rgkit/statuses/{sha}",
    "subscribers_url": "https://api.github.com/repos/brandonhsiao/rgkit/subscribers",
    "subscription_url": "https://api.github.com/repos/brandonhsiao/rgkit/subscription",
    "svn_url": "https://github.com/brandonhsiao/rgkit",
    "tags_url": "https://api.github.com/repos/brandonhsiao/rgkit/tags",
    "teams_url": "https://api.github.com/repos/brandonhsiao/rgkit/teams",
    "trees_url": "https://api.github.com/repos/brandonhsiao/rgkit/git/trees{/sha}",
    "updated_at": "2014-01-14T23:55:00Z",
    "url": "https://api.github.com/repos/brandonhsiao/rgkit",
    "watchers": 109,
    "watchers_count": 109
}