{
    "libs": [
        "wsgi",
        "encoding",
        "shortcuts",
        "regex_helper",
        "utils",
        "with_statement",
        "functional",
        "absolute_import",
        "importlib",
        "re",
        "cache",
        "imp",
        "template",
        "test",
        "db",
        "sys",
        "urlresolvers",
        "b",
        "fields",
        "django",
        "exceptions",
        "os"
    ]
}