[
    "spatialtrends.construct_wikiphrases",
    "tweet_tokenizer",
    "colorize_svg",
    "visualization",
    "state_blacklist",
    "parse_stream",
    "pig.spatialtrends",
    "location_standardization.state_blacklist",
    "pig",
    "streaming",
    "spatialtrends.tweet_tokenizer",
    "pig.spatialtrends.tweet_tokenizer",
    "location_standardization.parse_turk_responses",
    "parse_turk_responses",
    "visualization.colorize_svg",
    "parse_geonames",
    "spatialtrends",
    "streaming.parse_stream",
    "construct_wikiphrases",
    "location_standardization",
    "pig.spatialtrends.construct_wikiphrases",
    "location_standardization.parse_geonames"
]