[
    "more.debian.programming.ruby",
    "messaging.test_rabbitmq",
    "provy.more.debian.database.redis",
    "tests.unit.more.base.database.test_postgresql",
    "selinux",
    "tests.functional.fixtures",
    "package.pip",
    "tests.unit.more.debian.users",
    "base.database.postgresql",
    "fixtures",
    "vcs.test_git",
    "core.roles",
    "more.debian.users.ssh",
    "varnish",
    "unit.more.debian.users.test_passwd_utils",
    "unit.more.debian.vcs.test_git",
    "unit.more.debian.package",
    "security.apparmor",
    "package.test_pip",
    "unit.core",
    "centos.package.pip",
    "debian.programming.test_ruby",
    "tests.unit.more.debian.messaging",
    "networking.test_hosts",
    "tests.unit.more.debian.package.test_aptitude",
    "provy.more.debian.networking.hosts",
    "debian.web.test_apache",
    "tests.unit.core.test_roles",
    "unit.more.debian.security.test_ufw",
    "tests.unit.more.centos.users.test_user",
    "debian.users.test_passwd_utils",
    "debian.users.test_ssh",
    "provy.more.debian.programming.nodejs",
    "more.centos.users.test_user",
    "test_utils",
    "linux.networking",
    "end_to_end",
    "provy.more.centos.database",
    "more.debian.database.test_postgresql",
    "debian.package.pip",
    "package.test_virtualenv",
    "more.centos.networking.hosts",
    "unit.more.debian.users",
    "more.debian.package.test_npm",
    "tests.unit.more.debian.package.test_pip",
    "tests.unit.more.centos.database",
    "test_selinux",
    "end_to_end.files.website",
    "unit.core.test_roles",
    "unit.more.debian.database.test_mongodb",
    "errors",
    "provy.more.debian.users",
    "utils.hostname",
    "test_nodejs",
    "provy.more.debian.security",
    "tests.unit.more.debian.messaging.test_rabbitmq",
    "debian.package.test_aptitude",
    "unit.more.debian.web.test_apache",
    "test_hosts",
    "provy.more.debian.web.rails",
    "tests.unit.more.centos.vcs.test_git",
    "package.test_yum",
    "test_virtualenv",
    "memcached",
    "more.centos.messaging",
    "test_django",
    "test_php",
    "provy.more.debian.vcs.git",
    "tests.unit.core",
    "apache",
    "debian.vcs.git",
    "tests.unit.more.debian.cache.test_memcached",
    "provy.more.base",
    "provy.more.centos.package.pip",
    "debian.programming.ruby",
    "test_rabbitmq",
    "helpers",
    "debian.monitoring",
    "database.mysql",
    "security.selinux",
    "unit.more.debian.web",
    "provy.more.centos.database.postgresql",
    "more.debian.vcs",
    "core.errors",
    "debian.messaging",
    "aptitude",
    "centos.vcs.git",
    "unit.more.centos.utils.test_hostname",
    "unit",
    "centos.database.test_postgresql",
    "more.centos.package.test_pip",
    "users.ssh",
    "nodejs",
    "tests.unit.more",
    "debian.cache",
    "centos.database.postgresql",
    "provy.more.debian.programming.php",
    "provy",
    "provy.more.centos.messaging.rabbitmq",
    "debian.package.test_virtualenv",
    "package.test_npm",
    "networking.hosts",
    "test_ufw",
    "source.conf",
    "provy.more.centos.vcs",
    "more.debian.package.aptitude",
    "tests.functional.fixtures.provyfile",
    "more.debian.web.django",
    "tests.unit.more.debian.web.test_apache",
    "linux.networking.hosts",
    "tests.end_to_end.provyfile",
    "debian.programming.php",
    "more.debian.users",
    "security.iptables",
    "docs.source.conf",
    "unit.tools",
    "provy.more.debian.package.aptitude",
    "more.debian.security",
    "test_ruby",
    "conf",
    "centos.utils.test_hostname",
    "programming.test_php",
    "unit.core.test_utils",
    "provy.more.centos.utils",
    "more.debian.package.test_virtualenv",
    "core.utils",
    "more.debian.security.selinux",
    "tests.unit.more.linux.networking",
    "monitoring",
    "security.test_selinux",
    "more.debian.web.rails",
    "provy.more.debian.security.iptables",
    "debian.cache.test_varnish",
    "provy.more.debian.vcs",
    "more.base.database",
    "npm",
    "package.aptitude",
    "database.test_mongodb",
    "unit.more.debian.programming.test_ruby",
    "more.centos.package.yum",
    "tests.unit.more.debian.security.test_ufw",
    "more.centos.messaging.test_rabbitmq",
    "centos.messaging",
    "tests.unit.more.debian.security.test_selinux",
    "debian.database.fixtures",
    "more.debian.networking",
    "unit.more.debian.programming.test_nodejs",
    "security.ufw",
    "unit.more.base.database.test_postgresql",
    "django",
    "centos.networking",
    "more.debian",
    "unit.more.debian.database.test_redis",
    "provy.more.debian.web.nginx",
    "test_user",
    "tests.unit.more.base.database",
    "provy.more.debian.networking",
    "more.debian.programming.test_php",
    "unit.more.centos.messaging",
    "debian.networking",
    "more.debian.web.test_nginx",
    "tests.unit.more.debian.security",
    "web.tornado",
    "more.centos.messaging.rabbitmq",
    "centos.vcs.test_git",
    "debian.users.passwd_utils",
    "provy.more.debian.database.mysql",
    "centos.database.mysql",
    "more.linux",
    "tests.unit.more.debian.security.test_apparmor",
    "cache.test_varnish",
    "tests.unit.more.centos.database.fixtures",
    "cache.memcached",
    "debian.web.test_tornado",
    "provyfile",
    "unit.more.base",
    "debian.programming",
    "more.debian.package.virtualenv",
    "docs",
    "more.debian.web.tornado",
    "tests.unit.more.base",
    "provy.more.centos.package.yum",
    "tests.unit.more.debian.database.test_redis",
    "unit.more.centos.package",
    "functional.fixtures.provyfile",
    "centos.users",
    "provy.more.debian.database",
    "more.debian.package.gem",
    "programming.test_nodejs",
    "more.centos.vcs",
    "more.debian.programming.test_ruby",
    "linux.networking.test_hosts",
    "more.debian.database.postgresql",
    "unit.more.debian.messaging",
    "tests.functional",
    "more.centos.utils.hostname",
    "more.debian.cache.test_memcached",
    "rabbitmq",
    "tests.unit.more.debian.cache.test_varnish",
    "provy.more.debian.cache.varnish",
    "files.website",
    "tests.unit.more.debian.web.test_django",
    "debian.programming.test_php",
    "debian.cache.test_memcached",
    "centos.database.fixtures",
    "debian.database.test_postgresql",
    "more.centos",
    "provy.more.linux.networking.hosts",
    "tests.unit.more.centos",
    "fixtures.provyfile",
    "more.debian.vcs.git",
    "vcs",
    "unit.more.centos.database",
    "debian.messaging.test_rabbitmq",
    "functional.core",
    "debian.networking.hosts",
    "test_runner",
    "base",
    "more.base",
    "programming.php",
    "centos.networking.hosts",
    "unit.core.test_runner",
    "test_passwd_utils",
    "cache.varnish",
    "test_yum",
    "yum",
    "more.debian.security.iptables",
    "centos.vcs",
    "debian.database",
    "security.test_iptables",
    "package.yum",
    "database.test_mysql",
    "more.debian.security.test_apparmor",
    "centos.messaging.rabbitmq",
    "tests.unit.more.centos.package",
    "more.debian.networking.hosts",
    "provy.more.debian.users.ssh",
    "provy.more.debian.messaging",
    "debian.programming.test_nodejs",
    "more.debian.database",
    "more.base.database.postgresql",
    "tests.unit.more.debian.users.test_passwd_utils",
    "more.debian.package",
    "rails",
    "unit.more.debian.web.test_nginx",
    "provy.more.debian.web.tornado",
    "provy.more.debian.users.user",
    "centos.database.test_mysql",
    "unit.more.debian",
    "web.test_django",
    "unit.more.debian.users.test_ssh",
    "test_mysql",
    "more.centos.database",
    "more.debian.security.test_ufw",
    "tests.unit.more.debian.vcs",
    "tests.unit.more.debian.web.test_tornado",
    "debian.web.apache",
    "more.centos.package.pip",
    "provy.more.centos",
    "more.centos.vcs.git",
    "more.centos.package",
    "tests.unit.more.debian.web.test_nginx",
    "unit.more.centos.database.test_mysql",
    "more.debian.package.pip",
    "runner",
    "debian.security.test_apparmor",
    "end_to_end.test",
    "centos.users.user",
    "more.debian.messaging.test_rabbitmq",
    "tests.unit.more.debian.package.test_npm",
    "provy.more.debian.package.npm",
    "test_apparmor",
    "docs.source",
    "debian.monitoring.supervisor",
    "provy.more.debian.package.pip",
    "tests.unit.core.test_utils",
    "unit.more.debian.messaging.test_rabbitmq",
    "unit.more.centos.users",
    "debian.package.test_npm",
    "test_memcached",
    "provy.more.debian.web.apache",
    "tests.unit.more.debian.programming.test_ruby",
    "more.debian.web.test_tornado",
    "provy.more.centos.users.user",
    "tornado",
    "debian.security.apparmor",
    "debian.package.virtualenv",
    "users.user",
    "more.linux.networking.test_hosts",
    "provy.more",
    "core.test_roles",
    "web.nginx",
    "centos.package",
    "centos.package.yum",
    "database.fixtures",
    "security.test_ufw",
    "more.debian.messaging.rabbitmq",
    "debian.web.rails",
    "more.debian.messaging",
    "more.debian.database.test_mysql",
    "tests.unit.more.debian.users.test_ssh",
    "unit.more.centos.database.fixtures",
    "tests.unit.more.debian.users.test_user",
    "tests.unit.more.centos.utils",
    "debian.package",
    "package.gem",
    "provy.more.debian.security.apparmor",
    "unit.more.centos.vcs.test_git",
    "cache",
    "provy.more.centos.package",
    "debian.package.aptitude",
    "more.debian.cache.test_varnish",
    "centos.utils.hostname",
    "debian.users.ssh",
    "iptables",
    "unit.more.debian.cache",
    "more.debian.web.test_django",
    "package.test_aptitude",
    "test_ssh",
    "centos.utils",
    "messaging.rabbitmq",
    "provy.more.debian.programming.ruby",
    "ssh",
    "programming",
    "gem",
    "tools.helpers",
    "more.debian.monitoring.test_supervisor",
    "roles",
    "users.test_passwd_utils",
    "unit.more.debian.programming.test_php",
    "web.test_apache",
    "more.debian.web.test_rails",
    "unit.more.debian.package.test_pip",
    "core.runner",
    "base.database.test_postgresql",
    "unit.more.centos.package.test_pip",
    "provy.more.debian.package.gem",
    "debian.security.ufw",
    "unit.more.debian.monitoring",
    "more.debian.database.fixtures",
    "debian.web.django",
    "unit.more",
    "debian.messaging.rabbitmq",
    "database.test_postgresql",
    "more.centos.database.test_mysql",
    "more.centos.networking",
    "more.debian.users.test_ssh",
    "more.debian.database.mysql",
    "tests.unit.more.centos.utils.test_hostname",
    "tests.unit.more.centos.vcs",
    "provy.more.debian.users.passwd_utils",
    "test_hostname",
    "debian.vcs",
    "provy.more.debian.programming",
    "debian.database.test_redis",
    "unit.more.debian.security.test_iptables",
    "provy.more.debian.web.django",
    "debian.security.test_selinux",
    "provy.more.centos.utils.hostname",
    "test_postgresql",
    "test_varnish",
    "more.debian.users.passwd_utils",
    "more.debian.security.test_selinux",
    "unit.more.debian.security.test_apparmor",
    "tests.unit.more.debian.package.test_gem",
    "more.debian.web.nginx",
    "more.centos.package.test_yum",
    "tests.unit.more.debian.monitoring",
    "unit.more.debian.security",
    "debian.security.test_ufw",
    "more.linux.networking.hosts",
    "users.passwd_utils",
    "unit.more.linux",
    "more.debian.programming.test_nodejs",
    "linux",
    "debian.web",
    "unit.more.base.database",
    "unit.more.debian.package.test_npm",
    "test_git",
    "test_aptitude",
    "more.debian.database.redis",
    "test_redis",
    "tests.unit.more.centos.messaging.test_rabbitmq",
    "more.debian.users.test_user",
    "monitoring.supervisor",
    "provy.more.debian.monitoring",
    "unit.more.linux.networking",
    "unit.more.linux.networking.test_hosts",
    "website",
    "provy.core.runner",
    "tests.unit.more.debian.web",
    "test_tornado",
    "unit.more.centos.vcs",
    "unit.more.debian.database.fixtures",
    "web.test_tornado",
    "ruby",
    "provy.more.debian.database.postgresql",
    "tests.unit.more.debian",
    "provy.more.debian.package",
    "passwd_utils",
    "tests.unit.more.debian.database.fixtures",
    "unit.more.debian.cache.test_varnish",
    "more.debian.package.npm",
    "debian.database.mongodb",
    "more.debian.vcs.test_git",
    "provy.more.debian.database.mongodb",
    "tests.unit.more.debian.cache",
    "utils",
    "unit.more.debian.web.test_rails",
    "test_supervisor",
    "debian.security.test_iptables",
    "provy.more.debian.cache.memcached",
    "users.test_ssh",
    "debian.database.mysql",
    "debian.database.redis",
    "more.debian.programming.php",
    "tests.functional.core",
    "database.test_redis",
    "unit.more.debian.package.test_aptitude",
    "hostname",
    "provy.more.debian.web",
    "provy.more.base.database.postgresql",
    "functional.core.test_runner",
    "security.test_apparmor",
    "vcs.git",
    "tests.unit.more.linux.networking.test_hosts",
    "provy.core",
    "unit.more.centos.users.test_user",
    "tests.unit.more.centos.users",
    "monitoring.test_supervisor",
    "unit.more.debian.monitoring.test_supervisor",
    "end_to_end.files",
    "more.debian.monitoring.supervisor",
    "tests.unit",
    "user",
    "debian.monitoring.test_supervisor",
    "base.database",
    "php",
    "core.test_runner",
    "more.debian.programming",
    "database",
    "tests.unit.more.debian.database.test_postgresql",
    "package.test_gem",
    "more",
    "test_iptables",
    "more.debian.web.test_apache",
    "debian.database.test_mysql",
    "core.test_utils",
    "unit.more.centos",
    "provy.more.centos.networking.hosts",
    "more.centos.vcs.test_git",
    "provy.more.base.database",
    "tests.unit.more.centos.database.test_postgresql",
    "utils.test_hostname",
    "provy.more.centos.messaging",
    "programming.ruby",
    "tests.unit.more.centos.package.test_pip",
    "test_pip",
    "mysql",
    "more.debian.package.test_gem",
    "provy.more.centos.users",
    "provy.more.debian.monitoring.supervisor",
    "web",
    "console",
    "debian.users",
    "tests.unit.more.debian.vcs.test_git",
    "more.debian.monitoring",
    "tests.unit.more.debian.package",
    "centos.package.test_pip",
    "more.debian.database.test_redis",
    "tests.unit.more.debian.web.test_rails",
    "source",
    "more.debian.web",
    "unit.more.centos.utils",
    "apparmor",
    "tests.unit.more.debian.database.test_mongodb",
    "programming.test_ruby",
    "web.apache",
    "more.debian.package.test_aptitude",
    "tests",
    "more.centos.database.fixtures",
    "tests.unit.more.debian.package.test_virtualenv",
    "provy.more.debian.package.virtualenv",
    "centos.users.test_user",
    "nginx",
    "more.debian.web.apache",
    "unit.more.debian.database.test_postgresql",
    "debian.package.gem",
    "end_to_end.provyfile",
    "more.debian.security.apparmor",
    "debian.database.postgresql",
    "tests.unit.more.debian.database",
    "unit.more.debian.users.test_user",
    "provy.more.linux.networking",
    "hosts",
    "provy.core.utils",
    "security",
    "tests.unit.tools.helpers",
    "web.rails",
    "centos.messaging.test_rabbitmq",
    "tests.unit.more.centos.database.test_mysql",
    "centos",
    "more.centos.utils.test_hostname",
    "more.debian.users.user",
    "provy.more.debian.cache",
    "cache.test_memcached",
    "unit.more.centos.database.test_postgresql",
    "virtualenv",
    "tests.unit.more.linux",
    "provy.core.roles",
    "tools",
    "more.centos.database.mysql",
    "redis",
    "tests.end_to_end.test",
    "database.redis",
    "core",
    "tests.unit.more.debian.programming.test_php",
    "unit.more.debian.programming",
    "web.test_rails",
    "debian.package.test_pip",
    "ufw",
    "more.debian.security.ufw",
    "provy.more.linux",
    "postgresql",
    "package",
    "debian.cache.memcached",
    "tests.functional.core.test_runner",
    "debian.package.npm",
    "debian.programming.nodejs",
    "centos.database",
    "debian.web.test_nginx",
    "more.debian.database.mongodb",
    "messaging",
    "web.test_nginx",
    "debian.package.test_gem",
    "debian.web.nginx",
    "database.postgresql",
    "more.debian.users.test_passwd_utils",
    "users.test_user",
    "more.base.database.test_postgresql",
    "functional",
    "tests.unit.core.test_runner",
    "tests.unit.more.debian.programming",
    "programming.nodejs",
    "database.mongodb",
    "debian.cache.varnish",
    "more.centos.utils",
    "git",
    "networking",
    "centos.package.test_yum",
    "debian.web.tornado",
    "test_nginx",
    "test_rails",
    "more.centos.database.test_postgresql",
    "unit.more.centos.package.test_yum",
    "files",
    "unit.more.debian.security.test_selinux",
    "tests.end_to_end.files.website",
    "debian.users.user",
    "functional.fixtures",
    "provy.more.debian.security.ufw",
    "provy.core.errors",
    "more.centos.users.user",
    "tests.end_to_end",
    "tests.unit.more.centos.messaging",
    "more.debian.cache.varnish",
    "tests.end_to_end.files",
    "package.virtualenv",
    "tests.unit.more.centos.package.test_yum",
    "provy.more.centos.networking",
    "more.debian.security.test_iptables",
    "tests.unit.more.debian.monitoring.test_supervisor",
    "more.debian.cache.memcached",
    "debian.vcs.test_git",
    "supervisor",
    "unit.more.debian.package.test_gem",
    "debian.security.iptables",
    "provy.more.debian.messaging.rabbitmq",
    "unit.more.debian.database",
    "debian.web.test_django",
    "pip",
    "tests.unit.tools",
    "provy.more.centos.database.mysql",
    "provy.more.debian",
    "unit.more.debian.database.test_mysql",
    "debian.users.test_user",
    "unit.more.centos.messaging.test_rabbitmq",
    "debian.web.test_rails",
    "provy.console",
    "more.debian.package.test_pip",
    "provy.more.centos.vcs.git",
    "test",
    "tests.unit.more.debian.database.test_mysql",
    "debian.database.test_mongodb",
    "debian.security",
    "more.centos.database.postgresql",
    "users",
    "more.debian.database.test_mongodb",
    "more.centos.users",
    "mongodb",
    "web.django",
    "debian.security.selinux",
    "tests.unit.more.debian.security.test_iptables",
    "more.debian.cache",
    "test_npm",
    "test_roles",
    "unit.tools.helpers",
    "unit.more.debian.web.test_django",
    "debian",
    "tests.unit.more.debian.programming.test_nodejs",
    "test_apache",
    "test_gem",
    "unit.more.debian.vcs",
    "test_mongodb",
    "package.npm",
    "unit.more.debian.web.test_tornado",
    "more.linux.networking",
    "unit.more.debian.package.test_virtualenv",
    "provy.more.debian.security.selinux",
    "unit.more.debian.cache.test_memcached",
    "more.debian.programming.nodejs"
]