{
    "archive_url": "https://api.github.com/repos/vindimy/altcointip/{archive_format}{/ref}",
    "assignees_url": "https://api.github.com/repos/vindimy/altcointip/assignees{/user}",
    "blobs_url": "https://api.github.com/repos/vindimy/altcointip/git/blobs{/sha}",
    "branches_url": "https://api.github.com/repos/vindimy/altcointip/branches{/branch}",
    "clone_url": "https://github.com/vindimy/altcointip.git",
    "collaborators_url": "https://api.github.com/repos/vindimy/altcointip/collaborators{/collaborator}",
    "comments_url": "https://api.github.com/repos/vindimy/altcointip/comments{/number}",
    "commits_url": "https://api.github.com/repos/vindimy/altcointip/commits{/sha}",
    "compare_url": "https://api.github.com/repos/vindimy/altcointip/compare/{base}...{head}",
    "contents_url": "https://api.github.com/repos/vindimy/altcointip/contents/{+path}",
    "contributors_url": "https://api.github.com/repos/vindimy/altcointip/contributors",
    "created_at": "2013-04-19T04:14:48Z",
    "default_branch": "master",
    "description": "Reddit ALTcointip bot gives users ability to tip each other using various cryptocurrency coins, such as Bitcoins, Litecoins, Peercoins, Namecoins, and others.",
    "downloads_url": "https://api.github.com/repos/vindimy/altcointip/downloads",
    "events_url": "https://api.github.com/repos/vindimy/altcointip/events",
    "fork": false,
    "forks": 70,
    "forks_count": 70,
    "forks_url": "https://api.github.com/repos/vindimy/altcointip/forks",
    "full_name": "vindimy/altcointip",
    "git_commits_url": "https://api.github.com/repos/vindimy/altcointip/git/commits{/sha}",
    "git_refs_url": "https://api.github.com/repos/vindimy/altcointip/git/refs{/sha}",
    "git_tags_url": "https://api.github.com/repos/vindimy/altcointip/git/tags{/sha}",
    "git_url": "git://github.com/vindimy/altcointip.git",
    "has_downloads": true,
    "has_issues": true,
    "has_wiki": true,
    "homepage": "http://www.reddit.com/r/ALTcointip/wiki/index",
    "hooks_url": "https://api.github.com/repos/vindimy/altcointip/hooks",
    "html_url": "https://github.com/vindimy/altcointip",
    "id": 9537749,
    "issue_comment_url": "https://api.github.com/repos/vindimy/altcointip/issues/comments/{number}",
    "issue_events_url": "https://api.github.com/repos/vindimy/altcointip/issues/events{/number}",
    "issues_url": "https://api.github.com/repos/vindimy/altcointip/issues{/number}",
    "keys_url": "https://api.github.com/repos/vindimy/altcointip/keys{/key_id}",
    "labels_url": "https://api.github.com/repos/vindimy/altcointip/labels{/name}",
    "language": "Python",
    "languages_url": "https://api.github.com/repos/vindimy/altcointip/languages",
    "merges_url": "https://api.github.com/repos/vindimy/altcointip/merges",
    "milestones_url": "https://api.github.com/repos/vindimy/altcointip/milestones{/number}",
    "mirror_url": null,
    "name": "altcointip",
    "notifications_url": "https://api.github.com/repos/vindimy/altcointip/notifications{?since,all,participating}",
    "open_issues": 14,
    "open_issues_count": 14,
    "owner": {
        "avatar_url": "https://avatars.githubusercontent.com/u/54359?",
        "events_url": "https://api.github.com/users/vindimy/events{/privacy}",
        "followers_url": "https://api.github.com/users/vindimy/followers",
        "following_url": "https://api.github.com/users/vindimy/following{/other_user}",
        "gists_url": "https://api.github.com/users/vindimy/gists{/gist_id}",
        "gravatar_id": "c672f6fff34e806ac55703d1d2470df1",
        "html_url": "https://github.com/vindimy",
        "id": 54359,
        "login": "vindimy",
        "organizations_url": "https://api.github.com/users/vindimy/orgs",
        "received_events_url": "https://api.github.com/users/vindimy/received_events",
        "repos_url": "https://api.github.com/users/vindimy/repos",
        "site_admin": false,
        "starred_url": "https://api.github.com/users/vindimy/starred{/owner}{/repo}",
        "subscriptions_url": "https://api.github.com/users/vindimy/subscriptions",
        "type": "User",
        "url": "https://api.github.com/users/vindimy"
    },
    "private": false,
    "pulls_url": "https://api.github.com/repos/vindimy/altcointip/pulls{/number}",
    "pushed_at": "2014-04-28T22:48:54Z",
    "releases_url": "https://api.github.com/repos/vindimy/altcointip/releases{/id}",
    "score": 1.0,
    "size": 1857,
    "ssh_url": "git@github.com:vindimy/altcointip.git",
    "stargazers_count": 61,
    "stargazers_url": "https://api.github.com/repos/vindimy/altcointip/stargazers",
    "statuses_url": "https://api.github.com/repos/vindimy/altcointip/statuses/{sha}",
    "subscribers_url": "https://api.github.com/repos/vindimy/altcointip/subscribers",
    "subscription_url": "https://api.github.com/repos/vindimy/altcointip/subscription",
    "svn_url": "https://github.com/vindimy/altcointip",
    "tags_url": "https://api.github.com/repos/vindimy/altcointip/tags",
    "teams_url": "https://api.github.com/repos/vindimy/altcointip/teams",
    "trees_url": "https://api.github.com/repos/vindimy/altcointip/git/trees{/sha}",
    "updated_at": "2014-04-30T15:00:48Z",
    "url": "https://api.github.com/repos/vindimy/altcointip",
    "watchers": 61,
    "watchers_count": 61
}