[
    "templates",
    "tests",
    "conf",
    "docs._themes.flask_theme_support",
    "docs",
    "app",
    "tests.test_migrate_custom_directory",
    "templates.flask.env",
    "flask_migrate.templates",
    "flask_theme_support",
    "docs._themes",
    "flask_migrate.templates.flask.env",
    "test_migrate_custom_directory",
    "flask_migrate",
    "docs.conf",
    "flask_migrate.templates.flask",
    "flask.env",
    "flask",
    "templates.flask",
    "app2",
    "_themes.flask_theme_support",
    "tests.app2",
    "tests.test_migrate",
    "_themes",
    "env",
    "tests.app",
    "test_migrate"
]