{
    "archive_url": "https://api.github.com/repos/jamesturk/django-markupfield/{archive_format}{/ref}",
    "assignees_url": "https://api.github.com/repos/jamesturk/django-markupfield/assignees{/user}",
    "blobs_url": "https://api.github.com/repos/jamesturk/django-markupfield/git/blobs{/sha}",
    "branches_url": "https://api.github.com/repos/jamesturk/django-markupfield/branches{/branch}",
    "clone_url": "https://github.com/jamesturk/django-markupfield.git",
    "collaborators_url": "https://api.github.com/repos/jamesturk/django-markupfield/collaborators{/collaborator}",
    "comments_url": "https://api.github.com/repos/jamesturk/django-markupfield/comments{/number}",
    "commits_url": "https://api.github.com/repos/jamesturk/django-markupfield/commits{/sha}",
    "compare_url": "https://api.github.com/repos/jamesturk/django-markupfield/compare/{base}...{head}",
    "contents_url": "https://api.github.com/repos/jamesturk/django-markupfield/contents/{+path}",
    "contributors_url": "https://api.github.com/repos/jamesturk/django-markupfield/contributors",
    "created_at": "2009-05-19T21:08:41Z",
    "default_branch": "master",
    "description": "a MarkupField for Django",
    "downloads_url": "https://api.github.com/repos/jamesturk/django-markupfield/downloads",
    "events_url": "https://api.github.com/repos/jamesturk/django-markupfield/events",
    "fork": false,
    "forks": 24,
    "forks_count": 24,
    "forks_url": "https://api.github.com/repos/jamesturk/django-markupfield/forks",
    "full_name": "jamesturk/django-markupfield",
    "git_commits_url": "https://api.github.com/repos/jamesturk/django-markupfield/git/commits{/sha}",
    "git_refs_url": "https://api.github.com/repos/jamesturk/django-markupfield/git/refs{/sha}",
    "git_tags_url": "https://api.github.com/repos/jamesturk/django-markupfield/git/tags{/sha}",
    "git_url": "git://github.com/jamesturk/django-markupfield.git",
    "has_downloads": true,
    "has_issues": true,
    "has_wiki": true,
    "homepage": "http://pypi.python.org/pypi/django-markupfield",
    "hooks_url": "https://api.github.com/repos/jamesturk/django-markupfield/hooks",
    "html_url": "https://github.com/jamesturk/django-markupfield",
    "id": 205216,
    "issue_comment_url": "https://api.github.com/repos/jamesturk/django-markupfield/issues/comments/{number}",
    "issue_events_url": "https://api.github.com/repos/jamesturk/django-markupfield/issues/events{/number}",
    "issues_url": "https://api.github.com/repos/jamesturk/django-markupfield/issues{/number}",
    "keys_url": "https://api.github.com/repos/jamesturk/django-markupfield/keys{/key_id}",
    "labels_url": "https://api.github.com/repos/jamesturk/django-markupfield/labels{/name}",
    "language": "Python",
    "languages_url": "https://api.github.com/repos/jamesturk/django-markupfield/languages",
    "merges_url": "https://api.github.com/repos/jamesturk/django-markupfield/merges",
    "milestones_url": "https://api.github.com/repos/jamesturk/django-markupfield/milestones{/number}",
    "mirror_url": null,
    "name": "django-markupfield",
    "notifications_url": "https://api.github.com/repos/jamesturk/django-markupfield/notifications{?since,all,participating}",
    "open_issues": 5,
    "open_issues_count": 5,
    "owner": {
        "avatar_url": "https://avatars.githubusercontent.com/u/8034?",
        "events_url": "https://api.github.com/users/jamesturk/events{/privacy}",
        "followers_url": "https://api.github.com/users/jamesturk/followers",
        "following_url": "https://api.github.com/users/jamesturk/following{/other_user}",
        "gists_url": "https://api.github.com/users/jamesturk/gists{/gist_id}",
        "gravatar_id": "25c99741df8165ee24e9bd9f79b18842",
        "html_url": "https://github.com/jamesturk",
        "id": 8034,
        "login": "jamesturk",
        "organizations_url": "https://api.github.com/users/jamesturk/orgs",
        "received_events_url": "https://api.github.com/users/jamesturk/received_events",
        "repos_url": "https://api.github.com/users/jamesturk/repos",
        "site_admin": false,
        "starred_url": "https://api.github.com/users/jamesturk/starred{/owner}{/repo}",
        "subscriptions_url": "https://api.github.com/users/jamesturk/subscriptions",
        "type": "User",
        "url": "https://api.github.com/users/jamesturk"
    },
    "private": false,
    "pulls_url": "https://api.github.com/repos/jamesturk/django-markupfield/pulls{/number}",
    "pushed_at": "2014-05-01T04:34:41Z",
    "releases_url": "https://api.github.com/repos/jamesturk/django-markupfield/releases{/id}",
    "score": 1.0,
    "size": 424,
    "ssh_url": "git@github.com:jamesturk/django-markupfield.git",
    "stargazers_count": 89,
    "stargazers_url": "https://api.github.com/repos/jamesturk/django-markupfield/stargazers",
    "statuses_url": "https://api.github.com/repos/jamesturk/django-markupfield/statuses/{sha}",
    "subscribers_url": "https://api.github.com/repos/jamesturk/django-markupfield/subscribers",
    "subscription_url": "https://api.github.com/repos/jamesturk/django-markupfield/subscription",
    "svn_url": "https://github.com/jamesturk/django-markupfield",
    "tags_url": "https://api.github.com/repos/jamesturk/django-markupfield/tags",
    "teams_url": "https://api.github.com/repos/jamesturk/django-markupfield/teams",
    "trees_url": "https://api.github.com/repos/jamesturk/django-markupfield/git/trees{/sha}",
    "updated_at": "2014-05-03T15:48:46Z",
    "url": "https://api.github.com/repos/jamesturk/django-markupfield",
    "watchers": 89,
    "watchers_count": 89
}