[
    "core",
    "newsletter.admin",
    "example.manage",
    "urls",
    "views",
    "models",
    "manage",
    "newsletter.urls",
    "tests",
    "example.views",
    "newsletter",
    "newsletter.forms",
    "newsletter.tests",
    "csv",
    "core.csv",
    "admin",
    "newsletter.core",
    "forms",
    "newsletter.core.csv",
    "newsletter.views",
    "newsletter.models",
    "settings",
    "example",
    "example.urls",
    "example.settings"
]