{
    "archive_url": "https://api.github.com/repos/kopf/facebewk/{archive_format}{/ref}",
    "assignees_url": "https://api.github.com/repos/kopf/facebewk/assignees{/user}",
    "blobs_url": "https://api.github.com/repos/kopf/facebewk/git/blobs{/sha}",
    "branches_url": "https://api.github.com/repos/kopf/facebewk/branches{/branch}",
    "clone_url": "https://github.com/kopf/facebewk.git",
    "collaborators_url": "https://api.github.com/repos/kopf/facebewk/collaborators{/collaborator}",
    "comments_url": "https://api.github.com/repos/kopf/facebewk/comments{/number}",
    "commits_url": "https://api.github.com/repos/kopf/facebewk/commits{/sha}",
    "compare_url": "https://api.github.com/repos/kopf/facebewk/compare/{base}...{head}",
    "contents_url": "https://api.github.com/repos/kopf/facebewk/contents/{+path}",
    "contributors_url": "https://api.github.com/repos/kopf/facebewk/contributors",
    "created_at": "2012-09-30T16:14:01Z",
    "default_branch": "master",
    "description": "A clever little Python wrapper for the facebook Graph API",
    "downloads_url": "https://api.github.com/repos/kopf/facebewk/downloads",
    "events_url": "https://api.github.com/repos/kopf/facebewk/events",
    "fork": false,
    "forks": 0,
    "forks_count": 0,
    "forks_url": "https://api.github.com/repos/kopf/facebewk/forks",
    "full_name": "kopf/facebewk",
    "git_commits_url": "https://api.github.com/repos/kopf/facebewk/git/commits{/sha}",
    "git_refs_url": "https://api.github.com/repos/kopf/facebewk/git/refs{/sha}",
    "git_tags_url": "https://api.github.com/repos/kopf/facebewk/git/tags{/sha}",
    "git_url": "git://github.com/kopf/facebewk.git",
    "has_downloads": true,
    "has_issues": true,
    "has_wiki": true,
    "homepage": null,
    "hooks_url": "https://api.github.com/repos/kopf/facebewk/hooks",
    "html_url": "https://github.com/kopf/facebewk",
    "id": 6019903,
    "issue_comment_url": "https://api.github.com/repos/kopf/facebewk/issues/comments/{number}",
    "issue_events_url": "https://api.github.com/repos/kopf/facebewk/issues/events{/number}",
    "issues_url": "https://api.github.com/repos/kopf/facebewk/issues{/number}",
    "keys_url": "https://api.github.com/repos/kopf/facebewk/keys{/key_id}",
    "labels_url": "https://api.github.com/repos/kopf/facebewk/labels{/name}",
    "language": "Python",
    "languages_url": "https://api.github.com/repos/kopf/facebewk/languages",
    "merges_url": "https://api.github.com/repos/kopf/facebewk/merges",
    "milestones_url": "https://api.github.com/repos/kopf/facebewk/milestones{/number}",
    "mirror_url": null,
    "name": "facebewk",
    "notifications_url": "https://api.github.com/repos/kopf/facebewk/notifications{?since,all,participating}",
    "open_issues": 0,
    "open_issues_count": 0,
    "owner": {
        "avatar_url": "https://avatars.githubusercontent.com/u/1115852?",
        "events_url": "https://api.github.com/users/kopf/events{/privacy}",
        "followers_url": "https://api.github.com/users/kopf/followers",
        "following_url": "https://api.github.com/users/kopf/following{/other_user}",
        "gists_url": "https://api.github.com/users/kopf/gists{/gist_id}",
        "gravatar_id": "134335004b9301326fdd8e1775c35851",
        "html_url": "https://github.com/kopf",
        "id": 1115852,
        "login": "kopf",
        "organizations_url": "https://api.github.com/users/kopf/orgs",
        "received_events_url": "https://api.github.com/users/kopf/received_events",
        "repos_url": "https://api.github.com/users/kopf/repos",
        "site_admin": false,
        "starred_url": "https://api.github.com/users/kopf/starred{/owner}{/repo}",
        "subscriptions_url": "https://api.github.com/users/kopf/subscriptions",
        "type": "User",
        "url": "https://api.github.com/users/kopf"
    },
    "private": false,
    "pulls_url": "https://api.github.com/repos/kopf/facebewk/pulls{/number}",
    "pushed_at": "2013-02-01T21:46:58Z",
    "releases_url": "https://api.github.com/repos/kopf/facebewk/releases{/id}",
    "score": 1.0,
    "size": 128,
    "ssh_url": "git@github.com:kopf/facebewk.git",
    "stargazers_count": 41,
    "stargazers_url": "https://api.github.com/repos/kopf/facebewk/stargazers",
    "statuses_url": "https://api.github.com/repos/kopf/facebewk/statuses/{sha}",
    "subscribers_url": "https://api.github.com/repos/kopf/facebewk/subscribers",
    "subscription_url": "https://api.github.com/repos/kopf/facebewk/subscription",
    "svn_url": "https://github.com/kopf/facebewk",
    "tags_url": "https://api.github.com/repos/kopf/facebewk/tags",
    "teams_url": "https://api.github.com/repos/kopf/facebewk/teams",
    "trees_url": "https://api.github.com/repos/kopf/facebewk/git/trees{/sha}",
    "updated_at": "2013-10-19T01:42:14Z",
    "url": "https://api.github.com/repos/kopf/facebewk",
    "watchers": 41,
    "watchers_count": 41
}