[
    "github.hclient",
    "github",
    "ghsearch",
    "hclient",
    "github.ghsearch",
    "github.githubsync",
    "githubsync",
    "githubtest",
    "github.collabmap",
    "github.github",
    "collabmap",
    "github.githubtest"
]