[
    "operations",
    "docs.sources",
    "test_query_parser",
    "splicer",
    "tests.test_ops",
    "splicer.query_builder",
    "dataset",
    "sources",
    "compilers.join",
    "test_field",
    "relation",
    "splicer.ast",
    "query",
    "fixtures",
    "tests.fixtures",
    "tests.test_schema_interpreter",
    "fixtures.mock_adapter",
    "tests.test_path",
    "splicer.codecs",
    "adapters.dict_adapter",
    "splicer.functions.relational",
    "codecs.csv",
    "splicer.relation",
    "splicer.functions.aggregates",
    "splicer.compilers.local",
    "local",
    "immutable",
    "schema",
    "tests",
    "string",
    "splicer.field",
    "docs",
    "sources.conf",
    "splicer.adapters",
    "test_filesystem",
    "test_dataset",
    "tests.test_field",
    "splicer.query_parser",
    "relational",
    "join",
    "tests.test_filesystem",
    "splicer.schema",
    "splicer.operations",
    "functions.relational",
    "splicer.compilers.join",
    "tests.test_dataset",
    "tests.test_dict_adapter",
    "splicer.table",
    "functions.aggregates",
    "tests.test_codec",
    "functions.filesystem",
    "adapters.dir_adapter",
    "test_dir_adapter",
    "tests.test_join",
    "splicer.compilers",
    "adapters",
    "query_builder",
    "test_dict_adapter",
    "splicer.adapters.dir_adapter",
    "splicer.aggregate",
    "docs.sources.conf",
    "test_path",
    "test_query_builder",
    "functions.string",
    "splicer.functions",
    "dir_adapter",
    "conf",
    "table",
    "tests.test_compiler",
    "functions",
    "tests.fixtures.employee_adapter",
    "tests.fixtures.mock_adapter",
    "tests.test_dir_adapter",
    "splicer.dataset",
    "field",
    "mock_adapter",
    "query_parser",
    "splicer.query",
    "splicer.path",
    "csv",
    "math",
    "compilers",
    "splicer.functions.string",
    "functions.math",
    "fixtures.employee_adapter",
    "ast",
    "splicer.schema_interpreter",
    "aggregates",
    "test_join",
    "splicer.codecs.csv",
    "splicer.functions.math",
    "test_ops",
    "test_schema_interpreter",
    "codecs",
    "aggregate",
    "path",
    "test_compiler",
    "tests.test_operations",
    "test_codec",
    "splicer.functions.filesystem",
    "tests.test_query_parser",
    "employee_adapter",
    "splicer.adapters.dict_adapter",
    "schema_interpreter",
    "test_operations",
    "splicer.immutable",
    "tests.test_query_builder",
    "filesystem",
    "dict_adapter",
    "compilers.local"
]