{
    "libs": [
        "string",
        "tempfile",
        "errno",
        "subprocess",
        "sys",
        "re",
        "version",
        "os",
        "filters",
        "ConfigParser",
        "pygments",
        "formatters",
        "pickle",
        "multiprocessing",
        "lexers"
    ]
}