{
    "archive_url": "https://api.github.com/repos/exogen/nose-achievements/{archive_format}{/ref}",
    "assignees_url": "https://api.github.com/repos/exogen/nose-achievements/assignees{/user}",
    "blobs_url": "https://api.github.com/repos/exogen/nose-achievements/git/blobs{/sha}",
    "branches_url": "https://api.github.com/repos/exogen/nose-achievements/branches{/branch}",
    "clone_url": "https://github.com/exogen/nose-achievements.git",
    "collaborators_url": "https://api.github.com/repos/exogen/nose-achievements/collaborators{/collaborator}",
    "comments_url": "https://api.github.com/repos/exogen/nose-achievements/comments{/number}",
    "commits_url": "https://api.github.com/repos/exogen/nose-achievements/commits{/sha}",
    "compare_url": "https://api.github.com/repos/exogen/nose-achievements/compare/{base}...{head}",
    "contents_url": "https://api.github.com/repos/exogen/nose-achievements/contents/{+path}",
    "contributors_url": "https://api.github.com/repos/exogen/nose-achievements/contributors",
    "created_at": "2010-01-26T14:36:48Z",
    "default_branch": "master",
    "description": "Unlock achievements when running tests with nose, unittest, or Django!",
    "downloads_url": "https://api.github.com/repos/exogen/nose-achievements/downloads",
    "events_url": "https://api.github.com/repos/exogen/nose-achievements/events",
    "fork": false,
    "forks": 2,
    "forks_count": 2,
    "forks_url": "https://api.github.com/repos/exogen/nose-achievements/forks",
    "full_name": "exogen/nose-achievements",
    "git_commits_url": "https://api.github.com/repos/exogen/nose-achievements/git/commits{/sha}",
    "git_refs_url": "https://api.github.com/repos/exogen/nose-achievements/git/refs{/sha}",
    "git_tags_url": "https://api.github.com/repos/exogen/nose-achievements/git/tags{/sha}",
    "git_url": "git://github.com/exogen/nose-achievements.git",
    "has_downloads": true,
    "has_issues": true,
    "has_wiki": true,
    "homepage": "http://exogen.github.com/nose-achievements/",
    "hooks_url": "https://api.github.com/repos/exogen/nose-achievements/hooks",
    "html_url": "https://github.com/exogen/nose-achievements",
    "id": 489307,
    "issue_comment_url": "https://api.github.com/repos/exogen/nose-achievements/issues/comments/{number}",
    "issue_events_url": "https://api.github.com/repos/exogen/nose-achievements/issues/events{/number}",
    "issues_url": "https://api.github.com/repos/exogen/nose-achievements/issues{/number}",
    "keys_url": "https://api.github.com/repos/exogen/nose-achievements/keys{/key_id}",
    "labels_url": "https://api.github.com/repos/exogen/nose-achievements/labels{/name}",
    "language": "Python",
    "languages_url": "https://api.github.com/repos/exogen/nose-achievements/languages",
    "merges_url": "https://api.github.com/repos/exogen/nose-achievements/merges",
    "milestones_url": "https://api.github.com/repos/exogen/nose-achievements/milestones{/number}",
    "mirror_url": null,
    "name": "nose-achievements",
    "notifications_url": "https://api.github.com/repos/exogen/nose-achievements/notifications{?since,all,participating}",
    "open_issues": 3,
    "open_issues_count": 3,
    "owner": {
        "avatar_url": "https://avatars.githubusercontent.com/u/53522?",
        "events_url": "https://api.github.com/users/exogen/events{/privacy}",
        "followers_url": "https://api.github.com/users/exogen/followers",
        "following_url": "https://api.github.com/users/exogen/following{/other_user}",
        "gists_url": "https://api.github.com/users/exogen/gists{/gist_id}",
        "gravatar_id": "f57796ce1acdb0dc8931fd70b9b50ea7",
        "html_url": "https://github.com/exogen",
        "id": 53522,
        "login": "exogen",
        "organizations_url": "https://api.github.com/users/exogen/orgs",
        "received_events_url": "https://api.github.com/users/exogen/received_events",
        "repos_url": "https://api.github.com/users/exogen/repos",
        "site_admin": false,
        "starred_url": "https://api.github.com/users/exogen/starred{/owner}{/repo}",
        "subscriptions_url": "https://api.github.com/users/exogen/subscriptions",
        "type": "User",
        "url": "https://api.github.com/users/exogen"
    },
    "private": false,
    "pulls_url": "https://api.github.com/repos/exogen/nose-achievements/pulls{/number}",
    "pushed_at": "2012-02-21T19:33:14Z",
    "releases_url": "https://api.github.com/repos/exogen/nose-achievements/releases{/id}",
    "score": 1.0,
    "size": 439,
    "ssh_url": "git@github.com:exogen/nose-achievements.git",
    "stargazers_count": 120,
    "stargazers_url": "https://api.github.com/repos/exogen/nose-achievements/stargazers",
    "statuses_url": "https://api.github.com/repos/exogen/nose-achievements/statuses/{sha}",
    "subscribers_url": "https://api.github.com/repos/exogen/nose-achievements/subscribers",
    "subscription_url": "https://api.github.com/repos/exogen/nose-achievements/subscription",
    "svn_url": "https://github.com/exogen/nose-achievements",
    "tags_url": "https://api.github.com/repos/exogen/nose-achievements/tags",
    "teams_url": "https://api.github.com/repos/exogen/nose-achievements/teams",
    "trees_url": "https://api.github.com/repos/exogen/nose-achievements/git/trees{/sha}",
    "updated_at": "2014-01-13T13:26:31Z",
    "url": "https://api.github.com/repos/exogen/nose-achievements",
    "watchers": 120,
    "watchers_count": 120
}