{
    "archive_url": "https://api.github.com/repos/kennethreitz/tablib/{archive_format}{/ref}",
    "assignees_url": "https://api.github.com/repos/kennethreitz/tablib/assignees{/user}",
    "blobs_url": "https://api.github.com/repos/kennethreitz/tablib/git/blobs{/sha}",
    "branches_url": "https://api.github.com/repos/kennethreitz/tablib/branches{/branch}",
    "clone_url": "https://github.com/kennethreitz/tablib.git",
    "collaborators_url": "https://api.github.com/repos/kennethreitz/tablib/collaborators{/collaborator}",
    "comments_url": "https://api.github.com/repos/kennethreitz/tablib/comments{/number}",
    "commits_url": "https://api.github.com/repos/kennethreitz/tablib/commits{/sha}",
    "compare_url": "https://api.github.com/repos/kennethreitz/tablib/compare/{base}...{head}",
    "contents_url": "https://api.github.com/repos/kennethreitz/tablib/contents/{+path}",
    "contributors_url": "https://api.github.com/repos/kennethreitz/tablib/contributors",
    "created_at": "2011-03-28T02:36:50Z",
    "default_branch": "develop",
    "description": "Python Module for Tabular Datasets in XLS, CSV, JSON, YAML, &c.",
    "downloads_url": "https://api.github.com/repos/kennethreitz/tablib/downloads",
    "events_url": "https://api.github.com/repos/kennethreitz/tablib/events",
    "fork": false,
    "forks": 141,
    "forks_count": 141,
    "forks_url": "https://api.github.com/repos/kennethreitz/tablib/forks",
    "full_name": "kennethreitz/tablib",
    "git_commits_url": "https://api.github.com/repos/kennethreitz/tablib/git/commits{/sha}",
    "git_refs_url": "https://api.github.com/repos/kennethreitz/tablib/git/refs{/sha}",
    "git_tags_url": "https://api.github.com/repos/kennethreitz/tablib/git/tags{/sha}",
    "git_url": "git://github.com/kennethreitz/tablib.git",
    "has_downloads": true,
    "has_issues": true,
    "has_wiki": true,
    "homepage": "python-tablib.org",
    "hooks_url": "https://api.github.com/repos/kennethreitz/tablib/hooks",
    "html_url": "https://github.com/kennethreitz/tablib",
    "id": 1535009,
    "issue_comment_url": "https://api.github.com/repos/kennethreitz/tablib/issues/comments/{number}",
    "issue_events_url": "https://api.github.com/repos/kennethreitz/tablib/issues/events{/number}",
    "issues_url": "https://api.github.com/repos/kennethreitz/tablib/issues{/number}",
    "keys_url": "https://api.github.com/repos/kennethreitz/tablib/keys{/key_id}",
    "labels_url": "https://api.github.com/repos/kennethreitz/tablib/labels{/name}",
    "language": "Python",
    "languages_url": "https://api.github.com/repos/kennethreitz/tablib/languages",
    "merges_url": "https://api.github.com/repos/kennethreitz/tablib/merges",
    "milestones_url": "https://api.github.com/repos/kennethreitz/tablib/milestones{/number}",
    "mirror_url": null,
    "name": "tablib",
    "notifications_url": "https://api.github.com/repos/kennethreitz/tablib/notifications{?since,all,participating}",
    "open_issues": 15,
    "open_issues_count": 15,
    "owner": {
        "avatar_url": "https://avatars.githubusercontent.com/u/119893?",
        "events_url": "https://api.github.com/users/kennethreitz/events{/privacy}",
        "followers_url": "https://api.github.com/users/kennethreitz/followers",
        "following_url": "https://api.github.com/users/kennethreitz/following{/other_user}",
        "gists_url": "https://api.github.com/users/kennethreitz/gists{/gist_id}",
        "gravatar_id": "b02b2f020dcab92cbc5c79613071119f",
        "html_url": "https://github.com/kennethreitz",
        "id": 119893,
        "login": "kennethreitz",
        "organizations_url": "https://api.github.com/users/kennethreitz/orgs",
        "received_events_url": "https://api.github.com/users/kennethreitz/received_events",
        "repos_url": "https://api.github.com/users/kennethreitz/repos",
        "site_admin": false,
        "starred_url": "https://api.github.com/users/kennethreitz/starred{/owner}{/repo}",
        "subscriptions_url": "https://api.github.com/users/kennethreitz/subscriptions",
        "type": "User",
        "url": "https://api.github.com/users/kennethreitz"
    },
    "private": false,
    "pulls_url": "https://api.github.com/repos/kennethreitz/tablib/pulls{/number}",
    "pushed_at": "2014-05-02T14:25:31Z",
    "releases_url": "https://api.github.com/repos/kennethreitz/tablib/releases{/id}",
    "score": 1.0,
    "size": 2776,
    "ssh_url": "git@github.com:kennethreitz/tablib.git",
    "stargazers_count": 1052,
    "stargazers_url": "https://api.github.com/repos/kennethreitz/tablib/stargazers",
    "statuses_url": "https://api.github.com/repos/kennethreitz/tablib/statuses/{sha}",
    "subscribers_url": "https://api.github.com/repos/kennethreitz/tablib/subscribers",
    "subscription_url": "https://api.github.com/repos/kennethreitz/tablib/subscription",
    "svn_url": "https://github.com/kennethreitz/tablib",
    "tags_url": "https://api.github.com/repos/kennethreitz/tablib/tags",
    "teams_url": "https://api.github.com/repos/kennethreitz/tablib/teams",
    "trees_url": "https://api.github.com/repos/kennethreitz/tablib/git/trees{/sha}",
    "updated_at": "2014-05-07T05:27:28Z",
    "url": "https://api.github.com/repos/kennethreitz/tablib",
    "watchers": 1052,
    "watchers_count": 1052
}