[
    "osrc.timezone",
    "frontend",
    "osrc.frontend",
    "default_settings",
    "osrc.stats",
    "timezone",
    "run",
    "osrc.database",
    "index",
    "stats",
    "database",
    "osrc.index",
    "osrc.config",
    "set_expire",
    "osrc.default_settings",
    "config",
    "osrc"
]