{
    "libs": [
        "ee",
        "unittest",
        "io",
        "operator",
        "array",
        "struct",
        "tempfile",
        "connection",
        "imp",
        "generators",
        "math",
        "core",
        "warnings",
        "sys",
        "ctypes",
        "path",
        "ctest",
        "StringIO",
        "zlib",
        "itertools",
        "time",
        "os",
        "_mandel"
    ]
}