{
    "libs": [
        "locale",
        "absolute_import",
        "subprocess",
        "globals",
        "service",
        "pynotify",
        "gtk",
        "gettext",
        "re",
        "tokenize",
        "glib",
        "warnings",
        "inspect",
        "pygtk",
        "sys",
        "gconf",
        "dbus",
        "glade",
        "weakref",
        "time",
        "gobject",
        "os"
    ]
}