{
    "libs": [
        "simple_server",
        "six",
        "http",
        "csrf",
        "simplejson",
        "config",
        "unittest",
        "traceback",
        "redis",
        "response",
        "datetime",
        "sys",
        "re",
        "json",
        "itty",
        "time",
        "db",
        "os",
        "decimal"
    ]
}