[
    "pdfutils.models",
    "pdfutils",
    "pdfutils.reports",
    "pdfutils.urls",
    "pdfutils.tests",
    "views",
    "models",
    "pdfutils.sites",
    "utils",
    "tests",
    "reports",
    "sites",
    "pdfutils.utils",
    "urls",
    "pdfutils.views"
]