{
    "libs": [
        "mimetools",
        "cStringIO",
        "heapq",
        "serving",
        "websocket",
        "random",
        "datetime",
        "gevent",
        "array",
        "tools",
        "event",
        "urlparse",
        "uuid",
        "ujson",
        "threadedclient",
        "re",
        "json",
        "Cookie",
        "unittest2",
        "simplejson",
        "warnings",
        "pywsgi",
        "urllib2",
        "sys",
        "ssl",
        "decoder",
        "monkey",
        "Queue",
        "logging",
        "socket",
        "StringIO",
        "h",
        "traceback",
        "queue",
        "nose",
        "time",
        "os"
    ]
}