{
    "archive_url": "https://api.github.com/repos/jordn/heroku-django-s3/{archive_format}{/ref}",
    "assignees_url": "https://api.github.com/repos/jordn/heroku-django-s3/assignees{/user}",
    "blobs_url": "https://api.github.com/repos/jordn/heroku-django-s3/git/blobs{/sha}",
    "branches_url": "https://api.github.com/repos/jordn/heroku-django-s3/branches{/branch}",
    "clone_url": "https://github.com/jordn/heroku-django-s3.git",
    "collaborators_url": "https://api.github.com/repos/jordn/heroku-django-s3/collaborators{/collaborator}",
    "comments_url": "https://api.github.com/repos/jordn/heroku-django-s3/comments{/number}",
    "commits_url": "https://api.github.com/repos/jordn/heroku-django-s3/commits{/sha}",
    "compare_url": "https://api.github.com/repos/jordn/heroku-django-s3/compare/{base}...{head}",
    "contents_url": "https://api.github.com/repos/jordn/heroku-django-s3/contents/{+path}",
    "contributors_url": "https://api.github.com/repos/jordn/heroku-django-s3/contributors",
    "created_at": "2013-04-30T16:41:08Z",
    "default_branch": "master",
    "description": "A clean Django project running on Heroku with static files served from Amazon S3.",
    "downloads_url": "https://api.github.com/repos/jordn/heroku-django-s3/downloads",
    "events_url": "https://api.github.com/repos/jordn/heroku-django-s3/events",
    "fork": false,
    "forks": 11,
    "forks_count": 11,
    "forks_url": "https://api.github.com/repos/jordn/heroku-django-s3/forks",
    "full_name": "jordn/heroku-django-s3",
    "git_commits_url": "https://api.github.com/repos/jordn/heroku-django-s3/git/commits{/sha}",
    "git_refs_url": "https://api.github.com/repos/jordn/heroku-django-s3/git/refs{/sha}",
    "git_tags_url": "https://api.github.com/repos/jordn/heroku-django-s3/git/tags{/sha}",
    "git_url": "git://github.com/jordn/heroku-django-s3.git",
    "has_downloads": true,
    "has_issues": true,
    "has_wiki": true,
    "homepage": "",
    "hooks_url": "https://api.github.com/repos/jordn/heroku-django-s3/hooks",
    "html_url": "https://github.com/jordn/heroku-django-s3",
    "id": 9775281,
    "issue_comment_url": "https://api.github.com/repos/jordn/heroku-django-s3/issues/comments/{number}",
    "issue_events_url": "https://api.github.com/repos/jordn/heroku-django-s3/issues/events{/number}",
    "issues_url": "https://api.github.com/repos/jordn/heroku-django-s3/issues{/number}",
    "keys_url": "https://api.github.com/repos/jordn/heroku-django-s3/keys{/key_id}",
    "labels_url": "https://api.github.com/repos/jordn/heroku-django-s3/labels{/name}",
    "language": "Python",
    "languages_url": "https://api.github.com/repos/jordn/heroku-django-s3/languages",
    "merges_url": "https://api.github.com/repos/jordn/heroku-django-s3/merges",
    "milestones_url": "https://api.github.com/repos/jordn/heroku-django-s3/milestones{/number}",
    "mirror_url": null,
    "name": "heroku-django-s3",
    "notifications_url": "https://api.github.com/repos/jordn/heroku-django-s3/notifications{?since,all,participating}",
    "open_issues": 0,
    "open_issues_count": 0,
    "owner": {
        "avatar_url": "https://avatars.githubusercontent.com/u/1463197?",
        "events_url": "https://api.github.com/users/jordn/events{/privacy}",
        "followers_url": "https://api.github.com/users/jordn/followers",
        "following_url": "https://api.github.com/users/jordn/following{/other_user}",
        "gists_url": "https://api.github.com/users/jordn/gists{/gist_id}",
        "gravatar_id": "4fac736fbfe3ca6d9b0a53470ce348c2",
        "html_url": "https://github.com/jordn",
        "id": 1463197,
        "login": "jordn",
        "organizations_url": "https://api.github.com/users/jordn/orgs",
        "received_events_url": "https://api.github.com/users/jordn/received_events",
        "repos_url": "https://api.github.com/users/jordn/repos",
        "site_admin": false,
        "starred_url": "https://api.github.com/users/jordn/starred{/owner}{/repo}",
        "subscriptions_url": "https://api.github.com/users/jordn/subscriptions",
        "type": "User",
        "url": "https://api.github.com/users/jordn"
    },
    "private": false,
    "pulls_url": "https://api.github.com/repos/jordn/heroku-django-s3/pulls{/number}",
    "pushed_at": "2013-05-16T16:28:12Z",
    "releases_url": "https://api.github.com/repos/jordn/heroku-django-s3/releases{/id}",
    "score": 1.0,
    "size": 278,
    "ssh_url": "git@github.com:jordn/heroku-django-s3.git",
    "stargazers_count": 68,
    "stargazers_url": "https://api.github.com/repos/jordn/heroku-django-s3/stargazers",
    "statuses_url": "https://api.github.com/repos/jordn/heroku-django-s3/statuses/{sha}",
    "subscribers_url": "https://api.github.com/repos/jordn/heroku-django-s3/subscribers",
    "subscription_url": "https://api.github.com/repos/jordn/heroku-django-s3/subscription",
    "svn_url": "https://github.com/jordn/heroku-django-s3",
    "tags_url": "https://api.github.com/repos/jordn/heroku-django-s3/tags",
    "teams_url": "https://api.github.com/repos/jordn/heroku-django-s3/teams",
    "trees_url": "https://api.github.com/repos/jordn/heroku-django-s3/git/trees{/sha}",
    "updated_at": "2014-04-19T02:11:29Z",
    "url": "https://api.github.com/repos/jordn/heroku-django-s3",
    "watchers": 68,
    "watchers_count": 68
}