{
    "archive_url": "https://api.github.com/repos/mknx/smarthome/{archive_format}{/ref}",
    "assignees_url": "https://api.github.com/repos/mknx/smarthome/assignees{/user}",
    "blobs_url": "https://api.github.com/repos/mknx/smarthome/git/blobs{/sha}",
    "branches_url": "https://api.github.com/repos/mknx/smarthome/branches{/branch}",
    "clone_url": "https://github.com/mknx/smarthome.git",
    "collaborators_url": "https://api.github.com/repos/mknx/smarthome/collaborators{/collaborator}",
    "comments_url": "https://api.github.com/repos/mknx/smarthome/comments{/number}",
    "commits_url": "https://api.github.com/repos/mknx/smarthome/commits{/sha}",
    "compare_url": "https://api.github.com/repos/mknx/smarthome/compare/{base}...{head}",
    "contents_url": "https://api.github.com/repos/mknx/smarthome/contents/{+path}",
    "contributors_url": "https://api.github.com/repos/mknx/smarthome/contributors",
    "created_at": "2012-09-12T21:13:00Z",
    "default_branch": "master",
    "description": "",
    "downloads_url": "https://api.github.com/repos/mknx/smarthome/downloads",
    "events_url": "https://api.github.com/repos/mknx/smarthome/events",
    "fork": false,
    "forks": 33,
    "forks_count": 33,
    "forks_url": "https://api.github.com/repos/mknx/smarthome/forks",
    "full_name": "mknx/smarthome",
    "git_commits_url": "https://api.github.com/repos/mknx/smarthome/git/commits{/sha}",
    "git_refs_url": "https://api.github.com/repos/mknx/smarthome/git/refs{/sha}",
    "git_tags_url": "https://api.github.com/repos/mknx/smarthome/git/tags{/sha}",
    "git_url": "git://github.com/mknx/smarthome.git",
    "has_downloads": true,
    "has_issues": true,
    "has_wiki": true,
    "homepage": "http://mknx.github.io/smarthome/",
    "hooks_url": "https://api.github.com/repos/mknx/smarthome/hooks",
    "html_url": "https://github.com/mknx/smarthome",
    "id": 5786013,
    "issue_comment_url": "https://api.github.com/repos/mknx/smarthome/issues/comments/{number}",
    "issue_events_url": "https://api.github.com/repos/mknx/smarthome/issues/events{/number}",
    "issues_url": "https://api.github.com/repos/mknx/smarthome/issues{/number}",
    "keys_url": "https://api.github.com/repos/mknx/smarthome/keys{/key_id}",
    "labels_url": "https://api.github.com/repos/mknx/smarthome/labels{/name}",
    "language": "Python",
    "languages_url": "https://api.github.com/repos/mknx/smarthome/languages",
    "merges_url": "https://api.github.com/repos/mknx/smarthome/merges",
    "milestones_url": "https://api.github.com/repos/mknx/smarthome/milestones{/number}",
    "mirror_url": null,
    "name": "smarthome",
    "notifications_url": "https://api.github.com/repos/mknx/smarthome/notifications{?since,all,participating}",
    "open_issues": 24,
    "open_issues_count": 24,
    "owner": {
        "avatar_url": "https://avatars.githubusercontent.com/u/2308424?",
        "events_url": "https://api.github.com/users/mknx/events{/privacy}",
        "followers_url": "https://api.github.com/users/mknx/followers",
        "following_url": "https://api.github.com/users/mknx/following{/other_user}",
        "gists_url": "https://api.github.com/users/mknx/gists{/gist_id}",
        "gravatar_id": "7d7c0d187740e656ade30c6b9f5dc5bf",
        "html_url": "https://github.com/mknx",
        "id": 2308424,
        "login": "mknx",
        "organizations_url": "https://api.github.com/users/mknx/orgs",
        "received_events_url": "https://api.github.com/users/mknx/received_events",
        "repos_url": "https://api.github.com/users/mknx/repos",
        "site_admin": false,
        "starred_url": "https://api.github.com/users/mknx/starred{/owner}{/repo}",
        "subscriptions_url": "https://api.github.com/users/mknx/subscriptions",
        "type": "User",
        "url": "https://api.github.com/users/mknx"
    },
    "private": false,
    "pulls_url": "https://api.github.com/repos/mknx/smarthome/pulls{/number}",
    "pushed_at": "2014-05-04T18:28:44Z",
    "releases_url": "https://api.github.com/repos/mknx/smarthome/releases{/id}",
    "score": 1.0,
    "size": 13394,
    "ssh_url": "git@github.com:mknx/smarthome.git",
    "stargazers_count": 45,
    "stargazers_url": "https://api.github.com/repos/mknx/smarthome/stargazers",
    "statuses_url": "https://api.github.com/repos/mknx/smarthome/statuses/{sha}",
    "subscribers_url": "https://api.github.com/repos/mknx/smarthome/subscribers",
    "subscription_url": "https://api.github.com/repos/mknx/smarthome/subscription",
    "svn_url": "https://github.com/mknx/smarthome",
    "tags_url": "https://api.github.com/repos/mknx/smarthome/tags",
    "teams_url": "https://api.github.com/repos/mknx/smarthome/teams",
    "trees_url": "https://api.github.com/repos/mknx/smarthome/git/trees{/sha}",
    "updated_at": "2014-05-05T19:25:39Z",
    "url": "https://api.github.com/repos/mknx/smarthome",
    "watchers": 45,
    "watchers_count": 45
}