{
    "libs": [
        "urlparse",
        "ElementTree",
        "logging",
        "cElementTree",
        "optparse",
        "htmlentitydefs",
        "sys",
        "re",
        "doctest",
        "copy"
    ]
}