{
    "archive_url": "https://api.github.com/repos/iSECPartners/LibTech-Auditing-Cheatsheet/{archive_format}{/ref}",
    "assignees_url": "https://api.github.com/repos/iSECPartners/LibTech-Auditing-Cheatsheet/assignees{/user}",
    "blobs_url": "https://api.github.com/repos/iSECPartners/LibTech-Auditing-Cheatsheet/git/blobs{/sha}",
    "branches_url": "https://api.github.com/repos/iSECPartners/LibTech-Auditing-Cheatsheet/branches{/branch}",
    "clone_url": "https://github.com/iSECPartners/LibTech-Auditing-Cheatsheet.git",
    "collaborators_url": "https://api.github.com/repos/iSECPartners/LibTech-Auditing-Cheatsheet/collaborators{/collaborator}",
    "comments_url": "https://api.github.com/repos/iSECPartners/LibTech-Auditing-Cheatsheet/comments{/number}",
    "commits_url": "https://api.github.com/repos/iSECPartners/LibTech-Auditing-Cheatsheet/commits{/sha}",
    "compare_url": "https://api.github.com/repos/iSECPartners/LibTech-Auditing-Cheatsheet/compare/{base}...{head}",
    "contents_url": "https://api.github.com/repos/iSECPartners/LibTech-Auditing-Cheatsheet/contents/{+path}",
    "contributors_url": "https://api.github.com/repos/iSECPartners/LibTech-Auditing-Cheatsheet/contributors",
    "created_at": "2013-01-04T17:55:11Z",
    "default_branch": "master",
    "description": "",
    "downloads_url": "https://api.github.com/repos/iSECPartners/LibTech-Auditing-Cheatsheet/downloads",
    "events_url": "https://api.github.com/repos/iSECPartners/LibTech-Auditing-Cheatsheet/events",
    "fork": false,
    "forks": 9,
    "forks_count": 9,
    "forks_url": "https://api.github.com/repos/iSECPartners/LibTech-Auditing-Cheatsheet/forks",
    "full_name": "iSECPartners/LibTech-Auditing-Cheatsheet",
    "git_commits_url": "https://api.github.com/repos/iSECPartners/LibTech-Auditing-Cheatsheet/git/commits{/sha}",
    "git_refs_url": "https://api.github.com/repos/iSECPartners/LibTech-Auditing-Cheatsheet/git/refs{/sha}",
    "git_tags_url": "https://api.github.com/repos/iSECPartners/LibTech-Auditing-Cheatsheet/git/tags{/sha}",
    "git_url": "git://github.com/iSECPartners/LibTech-Auditing-Cheatsheet.git",
    "has_downloads": true,
    "has_issues": true,
    "has_wiki": true,
    "homepage": null,
    "hooks_url": "https://api.github.com/repos/iSECPartners/LibTech-Auditing-Cheatsheet/hooks",
    "html_url": "https://github.com/iSECPartners/LibTech-Auditing-Cheatsheet",
    "id": 7444649,
    "issue_comment_url": "https://api.github.com/repos/iSECPartners/LibTech-Auditing-Cheatsheet/issues/comments/{number}",
    "issue_events_url": "https://api.github.com/repos/iSECPartners/LibTech-Auditing-Cheatsheet/issues/events{/number}",
    "issues_url": "https://api.github.com/repos/iSECPartners/LibTech-Auditing-Cheatsheet/issues{/number}",
    "keys_url": "https://api.github.com/repos/iSECPartners/LibTech-Auditing-Cheatsheet/keys{/key_id}",
    "labels_url": "https://api.github.com/repos/iSECPartners/LibTech-Auditing-Cheatsheet/labels{/name}",
    "language": "Python",
    "languages_url": "https://api.github.com/repos/iSECPartners/LibTech-Auditing-Cheatsheet/languages",
    "merges_url": "https://api.github.com/repos/iSECPartners/LibTech-Auditing-Cheatsheet/merges",
    "milestones_url": "https://api.github.com/repos/iSECPartners/LibTech-Auditing-Cheatsheet/milestones{/number}",
    "mirror_url": null,
    "name": "LibTech-Auditing-Cheatsheet",
    "notifications_url": "https://api.github.com/repos/iSECPartners/LibTech-Auditing-Cheatsheet/notifications{?since,all,participating}",
    "open_issues": 3,
    "open_issues_count": 3,
    "owner": {
        "avatar_url": "https://avatars.githubusercontent.com/u/1958962?",
        "events_url": "https://api.github.com/users/iSECPartners/events{/privacy}",
        "followers_url": "https://api.github.com/users/iSECPartners/followers",
        "following_url": "https://api.github.com/users/iSECPartners/following{/other_user}",
        "gists_url": "https://api.github.com/users/iSECPartners/gists{/gist_id}",
        "gravatar_id": "eae862dd4b6d14a88ad4674109e0a8d2",
        "html_url": "https://github.com/iSECPartners",
        "id": 1958962,
        "login": "iSECPartners",
        "organizations_url": "https://api.github.com/users/iSECPartners/orgs",
        "received_events_url": "https://api.github.com/users/iSECPartners/received_events",
        "repos_url": "https://api.github.com/users/iSECPartners/repos",
        "site_admin": false,
        "starred_url": "https://api.github.com/users/iSECPartners/starred{/owner}{/repo}",
        "subscriptions_url": "https://api.github.com/users/iSECPartners/subscriptions",
        "type": "Organization",
        "url": "https://api.github.com/users/iSECPartners"
    },
    "private": false,
    "pulls_url": "https://api.github.com/repos/iSECPartners/LibTech-Auditing-Cheatsheet/pulls{/number}",
    "pushed_at": "2013-03-26T17:39:25Z",
    "releases_url": "https://api.github.com/repos/iSECPartners/LibTech-Auditing-Cheatsheet/releases{/id}",
    "score": 1.0,
    "size": 273,
    "ssh_url": "git@github.com:iSECPartners/LibTech-Auditing-Cheatsheet.git",
    "stargazers_count": 128,
    "stargazers_url": "https://api.github.com/repos/iSECPartners/LibTech-Auditing-Cheatsheet/stargazers",
    "statuses_url": "https://api.github.com/repos/iSECPartners/LibTech-Auditing-Cheatsheet/statuses/{sha}",
    "subscribers_url": "https://api.github.com/repos/iSECPartners/LibTech-Auditing-Cheatsheet/subscribers",
    "subscription_url": "https://api.github.com/repos/iSECPartners/LibTech-Auditing-Cheatsheet/subscription",
    "svn_url": "https://github.com/iSECPartners/LibTech-Auditing-Cheatsheet",
    "tags_url": "https://api.github.com/repos/iSECPartners/LibTech-Auditing-Cheatsheet/tags",
    "teams_url": "https://api.github.com/repos/iSECPartners/LibTech-Auditing-Cheatsheet/teams",
    "trees_url": "https://api.github.com/repos/iSECPartners/LibTech-Auditing-Cheatsheet/git/trees{/sha}",
    "updated_at": "2014-05-02T09:03:58Z",
    "url": "https://api.github.com/repos/iSECPartners/LibTech-Auditing-Cheatsheet",
    "watchers": 128,
    "watchers_count": 128
}