{
    "libs": [
        "core",
        "unicode_literals",
        "urls",
        "shortcuts",
        "test",
        "utils",
        "sys",
        "re",
        "client",
        "template",
        "exceptions",
        "os"
    ]
}