{
    "archive_url": "https://api.github.com/repos/huhamhire/huhamhire-hosts/{archive_format}{/ref}",
    "assignees_url": "https://api.github.com/repos/huhamhire/huhamhire-hosts/assignees{/user}",
    "blobs_url": "https://api.github.com/repos/huhamhire/huhamhire-hosts/git/blobs{/sha}",
    "branches_url": "https://api.github.com/repos/huhamhire/huhamhire-hosts/branches{/branch}",
    "clone_url": "https://github.com/huhamhire/huhamhire-hosts.git",
    "collaborators_url": "https://api.github.com/repos/huhamhire/huhamhire-hosts/collaborators{/collaborator}",
    "comments_url": "https://api.github.com/repos/huhamhire/huhamhire-hosts/comments{/number}",
    "commits_url": "https://api.github.com/repos/huhamhire/huhamhire-hosts/commits{/sha}",
    "compare_url": "https://api.github.com/repos/huhamhire/huhamhire-hosts/compare/{base}...{head}",
    "contents_url": "https://api.github.com/repos/huhamhire/huhamhire-hosts/contents/{+path}",
    "contributors_url": "https://api.github.com/repos/huhamhire/huhamhire-hosts/contributors",
    "created_at": "2012-05-09T13:01:20Z",
    "default_branch": "master",
    "description": "hosts for Internet Freedom",
    "downloads_url": "https://api.github.com/repos/huhamhire/huhamhire-hosts/downloads",
    "events_url": "https://api.github.com/repos/huhamhire/huhamhire-hosts/events",
    "fork": false,
    "forks": 45,
    "forks_count": 45,
    "forks_url": "https://api.github.com/repos/huhamhire/huhamhire-hosts/forks",
    "full_name": "huhamhire/huhamhire-hosts",
    "git_commits_url": "https://api.github.com/repos/huhamhire/huhamhire-hosts/git/commits{/sha}",
    "git_refs_url": "https://api.github.com/repos/huhamhire/huhamhire-hosts/git/refs{/sha}",
    "git_tags_url": "https://api.github.com/repos/huhamhire/huhamhire-hosts/git/tags{/sha}",
    "git_url": "git://github.com/huhamhire/huhamhire-hosts.git",
    "has_downloads": true,
    "has_issues": true,
    "has_wiki": false,
    "homepage": "https://hosts.huhamhire.com",
    "hooks_url": "https://api.github.com/repos/huhamhire/huhamhire-hosts/hooks",
    "html_url": "https://github.com/huhamhire/huhamhire-hosts",
    "id": 4271712,
    "issue_comment_url": "https://api.github.com/repos/huhamhire/huhamhire-hosts/issues/comments/{number}",
    "issue_events_url": "https://api.github.com/repos/huhamhire/huhamhire-hosts/issues/events{/number}",
    "issues_url": "https://api.github.com/repos/huhamhire/huhamhire-hosts/issues{/number}",
    "keys_url": "https://api.github.com/repos/huhamhire/huhamhire-hosts/keys{/key_id}",
    "labels_url": "https://api.github.com/repos/huhamhire/huhamhire-hosts/labels{/name}",
    "language": "Python",
    "languages_url": "https://api.github.com/repos/huhamhire/huhamhire-hosts/languages",
    "merges_url": "https://api.github.com/repos/huhamhire/huhamhire-hosts/merges",
    "milestones_url": "https://api.github.com/repos/huhamhire/huhamhire-hosts/milestones{/number}",
    "mirror_url": null,
    "name": "huhamhire-hosts",
    "notifications_url": "https://api.github.com/repos/huhamhire/huhamhire-hosts/notifications{?since,all,participating}",
    "open_issues": 4,
    "open_issues_count": 4,
    "owner": {
        "avatar_url": "https://avatars.githubusercontent.com/u/1697264?",
        "events_url": "https://api.github.com/users/huhamhire/events{/privacy}",
        "followers_url": "https://api.github.com/users/huhamhire/followers",
        "following_url": "https://api.github.com/users/huhamhire/following{/other_user}",
        "gists_url": "https://api.github.com/users/huhamhire/gists{/gist_id}",
        "gravatar_id": "8271e0218704be483afa37152b7fa7ed",
        "html_url": "https://github.com/huhamhire",
        "id": 1697264,
        "login": "huhamhire",
        "organizations_url": "https://api.github.com/users/huhamhire/orgs",
        "received_events_url": "https://api.github.com/users/huhamhire/received_events",
        "repos_url": "https://api.github.com/users/huhamhire/repos",
        "site_admin": false,
        "starred_url": "https://api.github.com/users/huhamhire/starred{/owner}{/repo}",
        "subscriptions_url": "https://api.github.com/users/huhamhire/subscriptions",
        "type": "User",
        "url": "https://api.github.com/users/huhamhire"
    },
    "private": false,
    "pulls_url": "https://api.github.com/repos/huhamhire/huhamhire-hosts/pulls{/number}",
    "pushed_at": "2014-05-05T06:10:55Z",
    "releases_url": "https://api.github.com/repos/huhamhire/huhamhire-hosts/releases{/id}",
    "score": 1.0,
    "size": 188518,
    "ssh_url": "git@github.com:huhamhire/huhamhire-hosts.git",
    "stargazers_count": 303,
    "stargazers_url": "https://api.github.com/repos/huhamhire/huhamhire-hosts/stargazers",
    "statuses_url": "https://api.github.com/repos/huhamhire/huhamhire-hosts/statuses/{sha}",
    "subscribers_url": "https://api.github.com/repos/huhamhire/huhamhire-hosts/subscribers",
    "subscription_url": "https://api.github.com/repos/huhamhire/huhamhire-hosts/subscription",
    "svn_url": "https://github.com/huhamhire/huhamhire-hosts",
    "tags_url": "https://api.github.com/repos/huhamhire/huhamhire-hosts/tags",
    "teams_url": "https://api.github.com/repos/huhamhire/huhamhire-hosts/teams",
    "trees_url": "https://api.github.com/repos/huhamhire/huhamhire-hosts/git/trees{/sha}",
    "updated_at": "2014-05-05T13:06:18Z",
    "url": "https://api.github.com/repos/huhamhire/huhamhire-hosts",
    "watchers": 303,
    "watchers_count": 303
}