[
    "gui.hostsutil",
    "pyqt._pyuic4",
    "gui._make",
    "_make",
    "_checkconn",
    "style_rc",
    "qdialog_slots",
    "_update",
    "hostsutil",
    "conf",
    "gui.pyqt",
    "gui.pyqt._pylupdate4",
    "__list_trans",
    "gui._update",
    "gui.qdialog_slots",
    "_pylupdate4",
    "gui.qdialog_d",
    "gui.language",
    "retrievedata",
    "doc.dev.conf",
    "gui._checkconn",
    "pyqt",
    "pyqt._pylupdate4",
    "tui.hostsutil",
    "gui.util_rc",
    "gui._checkupdate",
    "gui.__list_trans",
    "util_rc",
    "tui._update",
    "curses_d",
    "__version__",
    "__doc__",
    "makehosts",
    "tui.curses_ui",
    "gui.__doc__",
    "util.retrievedata",
    "hoststool",
    "language",
    "gui.qdialog_ui",
    "util",
    "tui",
    "curses_ui",
    "tui.__doc__",
    "util_ui",
    "util.makehosts",
    "_build",
    "gui.style_rc",
    "_checkupdate",
    "util.common",
    "doc",
    "gui",
    "qdialog_d",
    "dev",
    "util.__doc__",
    "common",
    "gui.util_ui",
    "gui.pyqt._pyuic4",
    "tui.curses_d",
    "doc.dev",
    "qdialog_ui",
    "_pyuic4",
    "dev.conf"
]