{
    "libs": [
        "encoding",
        "utils",
        "dispatch",
        "conf",
        "query",
        "management",
        "log",
        "imp",
        "json",
        "html",
        "collections",
        "test",
        "functools",
        "core",
        "http",
        "db",
        "sys",
        "translation",
        "decorator",
        "fields",
        "traceback",
        "defaults"
    ]
}