{
    "archive_url": "https://api.github.com/repos/tobami/codespeed/{archive_format}{/ref}",
    "assignees_url": "https://api.github.com/repos/tobami/codespeed/assignees{/user}",
    "blobs_url": "https://api.github.com/repos/tobami/codespeed/git/blobs{/sha}",
    "branches_url": "https://api.github.com/repos/tobami/codespeed/branches{/branch}",
    "clone_url": "https://github.com/tobami/codespeed.git",
    "collaborators_url": "https://api.github.com/repos/tobami/codespeed/collaborators{/collaborator}",
    "comments_url": "https://api.github.com/repos/tobami/codespeed/comments{/number}",
    "commits_url": "https://api.github.com/repos/tobami/codespeed/commits{/sha}",
    "compare_url": "https://api.github.com/repos/tobami/codespeed/compare/{base}...{head}",
    "contents_url": "https://api.github.com/repos/tobami/codespeed/contents/{+path}",
    "contributors_url": "https://api.github.com/repos/tobami/codespeed/contributors",
    "created_at": "2010-03-05T10:41:56Z",
    "default_branch": "master",
    "description": "A web application to monitor and analyze the performance of your code",
    "downloads_url": "https://api.github.com/repos/tobami/codespeed/downloads",
    "events_url": "https://api.github.com/repos/tobami/codespeed/events",
    "fork": false,
    "forks": 39,
    "forks_count": 39,
    "forks_url": "https://api.github.com/repos/tobami/codespeed/forks",
    "full_name": "tobami/codespeed",
    "git_commits_url": "https://api.github.com/repos/tobami/codespeed/git/commits{/sha}",
    "git_refs_url": "https://api.github.com/repos/tobami/codespeed/git/refs{/sha}",
    "git_tags_url": "https://api.github.com/repos/tobami/codespeed/git/tags{/sha}",
    "git_url": "git://github.com/tobami/codespeed.git",
    "has_downloads": true,
    "has_issues": true,
    "has_wiki": true,
    "homepage": "",
    "hooks_url": "https://api.github.com/repos/tobami/codespeed/hooks",
    "html_url": "https://github.com/tobami/codespeed",
    "id": 548251,
    "issue_comment_url": "https://api.github.com/repos/tobami/codespeed/issues/comments/{number}",
    "issue_events_url": "https://api.github.com/repos/tobami/codespeed/issues/events{/number}",
    "issues_url": "https://api.github.com/repos/tobami/codespeed/issues{/number}",
    "keys_url": "https://api.github.com/repos/tobami/codespeed/keys{/key_id}",
    "labels_url": "https://api.github.com/repos/tobami/codespeed/labels{/name}",
    "language": "Python",
    "languages_url": "https://api.github.com/repos/tobami/codespeed/languages",
    "merges_url": "https://api.github.com/repos/tobami/codespeed/merges",
    "milestones_url": "https://api.github.com/repos/tobami/codespeed/milestones{/number}",
    "mirror_url": null,
    "name": "codespeed",
    "notifications_url": "https://api.github.com/repos/tobami/codespeed/notifications{?since,all,participating}",
    "open_issues": 46,
    "open_issues_count": 46,
    "owner": {
        "avatar_url": "https://avatars.githubusercontent.com/u/216485?",
        "events_url": "https://api.github.com/users/tobami/events{/privacy}",
        "followers_url": "https://api.github.com/users/tobami/followers",
        "following_url": "https://api.github.com/users/tobami/following{/other_user}",
        "gists_url": "https://api.github.com/users/tobami/gists{/gist_id}",
        "gravatar_id": "ccdf2cd2659ddde24a89f08ce048694f",
        "html_url": "https://github.com/tobami",
        "id": 216485,
        "login": "tobami",
        "organizations_url": "https://api.github.com/users/tobami/orgs",
        "received_events_url": "https://api.github.com/users/tobami/received_events",
        "repos_url": "https://api.github.com/users/tobami/repos",
        "site_admin": false,
        "starred_url": "https://api.github.com/users/tobami/starred{/owner}{/repo}",
        "subscriptions_url": "https://api.github.com/users/tobami/subscriptions",
        "type": "User",
        "url": "https://api.github.com/users/tobami"
    },
    "private": false,
    "pulls_url": "https://api.github.com/repos/tobami/codespeed/pulls{/number}",
    "pushed_at": "2014-01-05T10:00:52Z",
    "releases_url": "https://api.github.com/repos/tobami/codespeed/releases{/id}",
    "score": 1.0,
    "size": 4507,
    "ssh_url": "git@github.com:tobami/codespeed.git",
    "stargazers_count": 263,
    "stargazers_url": "https://api.github.com/repos/tobami/codespeed/stargazers",
    "statuses_url": "https://api.github.com/repos/tobami/codespeed/statuses/{sha}",
    "subscribers_url": "https://api.github.com/repos/tobami/codespeed/subscribers",
    "subscription_url": "https://api.github.com/repos/tobami/codespeed/subscription",
    "svn_url": "https://github.com/tobami/codespeed",
    "tags_url": "https://api.github.com/repos/tobami/codespeed/tags",
    "teams_url": "https://api.github.com/repos/tobami/codespeed/teams",
    "trees_url": "https://api.github.com/repos/tobami/codespeed/git/trees{/sha}",
    "updated_at": "2014-05-06T06:23:18Z",
    "url": "https://api.github.com/repos/tobami/codespeed",
    "watchers": 263,
    "watchers_count": 263
}