[
    "adapters.source",
    "tests.test_auth",
    "tests.test_multipart_encoder",
    "requests_toolbelt.adapters",
    "requests_toolbelt",
    "test_multipart_monitor",
    "examples",
    "conf",
    "test_ssladapter",
    "multipart.encoder",
    "examples.monitor.progress_bar",
    "monitor",
    "test_multipart_decoder",
    "monitor.progress_bar",
    "examples.monitor",
    "tests.test_ssladapter",
    "source",
    "docs",
    "requests_toolbelt.adapters.ssl",
    "test_multipart_encoder",
    "test_auth",
    "tests",
    "requests_toolbelt.multipart",
    "requests_toolbelt.multipart.decoder",
    "auth",
    "encoder",
    "ssl",
    "requests_toolbelt.multipart.encoder",
    "decoder",
    "tests.conftest",
    "docs.conf",
    "multipart.decoder",
    "requests_toolbelt.adapters.source",
    "tests.test_user_agent",
    "tests.test_multipart_decoder",
    "requests_toolbelt.user_agent",
    "test_user_agent",
    "conftest",
    "adapters.ssl",
    "user_agent",
    "progress_bar",
    "adapters",
    "tests.test_multipart_monitor",
    "requests_toolbelt.auth",
    "multipart"
]