{
    "archive_url": "https://api.github.com/repos/kernel1983/tornado_apns/{archive_format}{/ref}",
    "assignees_url": "https://api.github.com/repos/kernel1983/tornado_apns/assignees{/user}",
    "blobs_url": "https://api.github.com/repos/kernel1983/tornado_apns/git/blobs{/sha}",
    "branches_url": "https://api.github.com/repos/kernel1983/tornado_apns/branches{/branch}",
    "clone_url": "https://github.com/kernel1983/tornado_apns.git",
    "collaborators_url": "https://api.github.com/repos/kernel1983/tornado_apns/collaborators{/collaborator}",
    "comments_url": "https://api.github.com/repos/kernel1983/tornado_apns/comments{/number}",
    "commits_url": "https://api.github.com/repos/kernel1983/tornado_apns/commits{/sha}",
    "compare_url": "https://api.github.com/repos/kernel1983/tornado_apns/compare/{base}...{head}",
    "contents_url": "https://api.github.com/repos/kernel1983/tornado_apns/contents/{+path}",
    "contributors_url": "https://api.github.com/repos/kernel1983/tornado_apns/contributors",
    "created_at": "2013-03-07T16:35:56Z",
    "default_branch": "master",
    "description": "The async APNS for tornado based on PyAPNS",
    "downloads_url": "https://api.github.com/repos/kernel1983/tornado_apns/downloads",
    "events_url": "https://api.github.com/repos/kernel1983/tornado_apns/events",
    "fork": false,
    "forks": 9,
    "forks_count": 9,
    "forks_url": "https://api.github.com/repos/kernel1983/tornado_apns/forks",
    "full_name": "kernel1983/tornado_apns",
    "git_commits_url": "https://api.github.com/repos/kernel1983/tornado_apns/git/commits{/sha}",
    "git_refs_url": "https://api.github.com/repos/kernel1983/tornado_apns/git/refs{/sha}",
    "git_tags_url": "https://api.github.com/repos/kernel1983/tornado_apns/git/tags{/sha}",
    "git_url": "git://github.com/kernel1983/tornado_apns.git",
    "has_downloads": true,
    "has_issues": true,
    "has_wiki": true,
    "homepage": null,
    "hooks_url": "https://api.github.com/repos/kernel1983/tornado_apns/hooks",
    "html_url": "https://github.com/kernel1983/tornado_apns",
    "id": 8631709,
    "issue_comment_url": "https://api.github.com/repos/kernel1983/tornado_apns/issues/comments/{number}",
    "issue_events_url": "https://api.github.com/repos/kernel1983/tornado_apns/issues/events{/number}",
    "issues_url": "https://api.github.com/repos/kernel1983/tornado_apns/issues{/number}",
    "keys_url": "https://api.github.com/repos/kernel1983/tornado_apns/keys{/key_id}",
    "labels_url": "https://api.github.com/repos/kernel1983/tornado_apns/labels{/name}",
    "language": "Python",
    "languages_url": "https://api.github.com/repos/kernel1983/tornado_apns/languages",
    "merges_url": "https://api.github.com/repos/kernel1983/tornado_apns/merges",
    "milestones_url": "https://api.github.com/repos/kernel1983/tornado_apns/milestones{/number}",
    "mirror_url": null,
    "name": "tornado_apns",
    "notifications_url": "https://api.github.com/repos/kernel1983/tornado_apns/notifications{?since,all,participating}",
    "open_issues": 4,
    "open_issues_count": 4,
    "owner": {
        "avatar_url": "https://avatars.githubusercontent.com/u/64492?",
        "events_url": "https://api.github.com/users/kernel1983/events{/privacy}",
        "followers_url": "https://api.github.com/users/kernel1983/followers",
        "following_url": "https://api.github.com/users/kernel1983/following{/other_user}",
        "gists_url": "https://api.github.com/users/kernel1983/gists{/gist_id}",
        "gravatar_id": "32f268d33b51d1875fd8e86b78342043",
        "html_url": "https://github.com/kernel1983",
        "id": 64492,
        "login": "kernel1983",
        "organizations_url": "https://api.github.com/users/kernel1983/orgs",
        "received_events_url": "https://api.github.com/users/kernel1983/received_events",
        "repos_url": "https://api.github.com/users/kernel1983/repos",
        "site_admin": false,
        "starred_url": "https://api.github.com/users/kernel1983/starred{/owner}{/repo}",
        "subscriptions_url": "https://api.github.com/users/kernel1983/subscriptions",
        "type": "User",
        "url": "https://api.github.com/users/kernel1983"
    },
    "private": false,
    "pulls_url": "https://api.github.com/repos/kernel1983/tornado_apns/pulls{/number}",
    "pushed_at": "2013-12-02T07:01:32Z",
    "releases_url": "https://api.github.com/repos/kernel1983/tornado_apns/releases{/id}",
    "score": 1.0,
    "size": 139,
    "ssh_url": "git@github.com:kernel1983/tornado_apns.git",
    "stargazers_count": 66,
    "stargazers_url": "https://api.github.com/repos/kernel1983/tornado_apns/stargazers",
    "statuses_url": "https://api.github.com/repos/kernel1983/tornado_apns/statuses/{sha}",
    "subscribers_url": "https://api.github.com/repos/kernel1983/tornado_apns/subscribers",
    "subscription_url": "https://api.github.com/repos/kernel1983/tornado_apns/subscription",
    "svn_url": "https://github.com/kernel1983/tornado_apns",
    "tags_url": "https://api.github.com/repos/kernel1983/tornado_apns/tags",
    "teams_url": "https://api.github.com/repos/kernel1983/tornado_apns/teams",
    "trees_url": "https://api.github.com/repos/kernel1983/tornado_apns/git/trees{/sha}",
    "updated_at": "2013-12-02T07:01:32Z",
    "url": "https://api.github.com/repos/kernel1983/tornado_apns",
    "watchers": 66,
    "watchers_count": 66
}