{
    "libs": [
        "glib",
        "broadc",
        "PyObjCTools",
        "websocket",
        "Foundation",
        "tempfile",
        "dbus",
        "gtk",
        "protocol",
        "objc",
        "b",
        "internet",
        "exceptions",
        "AppKit"
    ]
}