[
    "antlr3.compat",
    "pbxproj.isa",
    "pbxproj.writer",
    "src.plist.antlr.runtime",
    "src.plist.antlr.runtime.antlr3.constants",
    "antlr3.main",
    "test.test_orderedset",
    "plist.antlr.runtime.antlr3.streams",
    "tools.reloader",
    "plist.antlr.runtime.antlr3.constants",
    "src.pbxproj.isa",
    "src.pbxproj.merge.coremerge",
    "xml",
    "plist.antlr.runtime.antlr3",
    "pbxobjects",
    "profile_parsing",
    "writer",
    "runtime.antlr3.main",
    "test.test_pbxparsing",
    "antlr",
    "plist.antlr.runtime.antlr3.debug",
    "src.plist.antlr",
    "antlr.runtime.antlr3.main",
    "src.plist.antlr.runtime.antlr3.dfa",
    "main",
    "plist.xml",
    "src.plist.antlr.runtime.antlr3.streams",
    "src.plist.antlr.runtime.antlr3.main",
    "src.plist.antlr.runtime.antlr3.compat",
    "antlr3.treewizard",
    "runtime.antlr3.treewizard",
    "antlr3.tokens",
    "PlistParser",
    "antlr3.extras",
    "testhelpers",
    "test.test_dictionaryboundobject",
    "plist.nextstep",
    "plist.antlr.runtime.antlr3.exceptions",
    "plist.antlr.runtime",
    "coremerge",
    "merge",
    "merge.pbxmerge",
    "plist.antlr.runtime.antlr3.compat",
    "debug",
    "antlr3.streams",
    "src.mergepbx",
    "plist.antlr",
    "plist.antlr.runtime.antlr3.extras",
    "escape",
    "src.plist.antlr.runtime.antlr3.dottreegen",
    "antlr3.dfa",
    "PlistLexer",
    "compat",
    "antlr.runtime.antlr3.tokens",
    "tools.benchmark",
    "src.plist.antlr.runtime.antlr3.tree",
    "runtime.antlr3.dfa",
    "antlr.runtime.antlr3.recognizers",
    "runtime.antlr3",
    "reader",
    "pbxproj.merge.coremerge",
    "plist.antlr.runtime.antlr3.dfa",
    "core",
    "src.pbxproj.writer",
    "runtime.antlr3.constants",
    "src.plist.core",
    "orderedset.orderedset",
    "pbxproj",
    "src.pbxproj.reader",
    "src.pbxproj.merge.pbxmerge",
    "src.plist.antlr.runtime.antlr3.exceptions",
    "src.plist.antlr.PlistParser",
    "plist.escape",
    "antlr3.exceptions",
    "pbxproj.core",
    "tools.scan_isa",
    "plist.antlr.PlistParser",
    "streams",
    "test_pbxparsing",
    "isa",
    "runtime",
    "antlr3.dottreegen",
    "scan_isa",
    "get_fixtures",
    "antlr.runtime.antlr3.streams",
    "pbxproj.pbxobjects",
    "antlr.runtime.antlr3.tree",
    "antlr3.debug",
    "nsplist",
    "antlr3.recognizers",
    "src.plist.antlr.runtime.antlr3.debug",
    "src.orderedset.orderedset",
    "antlr.runtime.antlr3.exceptions",
    "test_pbxmerge",
    "src.plist.antlr.runtime.antlr3.tokens",
    "tools",
    "antlr3.constants",
    "pbxproj.merge.pbxmerge",
    "antlr.runtime",
    "antlr.runtime.antlr3.treewizard",
    "test.test_plist_nextstep",
    "recognizers",
    "merge_pbxproj_fixtures",
    "test_coremerge",
    "orderedset",
    "dfa",
    "antlr.runtime.antlr3.dottreegen",
    "mergepbx",
    "test_plist_nextstep",
    "src",
    "src.pbxproj",
    "src.plist.antlr.runtime.antlr3.treewizard",
    "benchmark",
    "plist.antlr.runtime.antlr3.dottreegen",
    "tools.nsplist",
    "tools.get_fixtures",
    "antlr3",
    "antlr.PlistParser",
    "src.plist.antlr.runtime.antlr3.extras",
    "antlr.runtime.antlr3.debug",
    "src.plist.__main__",
    "plist.antlr.runtime.antlr3.tokens",
    "test_dictionaryboundobject",
    "plist.antlr.runtime.antlr3.tree",
    "src.orderedset",
    "pbxproj.reader",
    "tools.helpers",
    "tools.profile_parsing",
    "src.pbxproj.core",
    "runtime.antlr3.exceptions",
    "tree",
    "src.plist.escape",
    "plist.antlr.runtime.antlr3.recognizers",
    "nextstep",
    "tools.test",
    "src.plist.binary",
    "exceptions",
    "src.plist.antlr.runtime.antlr3",
    "profile_merging",
    "tools.profile_merging",
    "pbxmerge",
    "src.plist.nextstep",
    "antlr.runtime.antlr3.compat",
    "__main__",
    "antlr.runtime.antlr3.extras",
    "src.pbxproj.merge",
    "plist",
    "binary",
    "antlr.PlistLexer",
    "test.test_coremerge",
    "test_orderedset",
    "dottreegen",
    "plist.__main__",
    "antlr.runtime.antlr3.constants",
    "runtime.antlr3.compat",
    "build",
    "test",
    "helpers",
    "reloader",
    "merge.coremerge",
    "plist.antlr.runtime.antlr3.treewizard",
    "antlr.runtime.antlr3.dfa",
    "runtime.antlr3.recognizers",
    "src.plist.xml",
    "plist.antlr.runtime.antlr3.main",
    "runtime.antlr3.tokens",
    "src.plist.antlr.runtime.antlr3.recognizers",
    "src.pbxproj.pbxobjects",
    "antlr.runtime.antlr3",
    "test.testhelpers",
    "runtime.antlr3.dottreegen",
    "test.test_pbxmerge",
    "src.plist",
    "plist.core",
    "constants",
    "treewizard",
    "runtime.antlr3.extras",
    "tokens",
    "tools.merge_pbxproj_fixtures",
    "runtime.antlr3.streams",
    "pbxproj.merge",
    "runtime.antlr3.debug",
    "plist.antlr.PlistLexer",
    "extras",
    "antlr3.tree",
    "runtime.antlr3.tree",
    "plist.binary",
    "src.plist.antlr.PlistLexer"
]