{
    "libs": [
        "cStringIO",
        "robot_detection",
        "shortcuts",
        "functools",
        "parser",
        "with_statement",
        "absolute_import",
        "datetime",
        "kittystore",
        "rest_framework",
        "contrib",
        "timezone",
        "shutil",
        "tz",
        "re",
        "tempfile",
        "urllib",
        "unicode_literals",
        "json",
        "backends",
        "collections",
        "template",
        "test",
        "mail",
        "decorators",
        "mock",
        "core",
        "http",
        "gzip",
        "dateformat",
        "mailmanclient",
        "db",
        "urllib2",
        "auth",
        "mailbox",
        "sys",
        "urlresolvers",
        "v2",
        "pytz",
        "interface",
        "translation",
        "response",
        "dat",
        "b",
        "logging",
        "config",
        "safestring",
        "traceback",
        "html",
        "django",
        "urlparse",
        "threading",
        "store",
        "fields",
        "exceptions",
        "os"
    ]
}