[
    "lib.linuxmint.mintUpdate.mintUpdate",
    "linuxmint.mintUpdate",
    "usr.lib.linuxmint",
    "mintUpdate.checkKernels",
    "usr.lib.linuxmint.mintUpdate.checkWarnings",
    "linuxmint.mintUpdate.checkAPT",
    "lib.linuxmint",
    "usr.lib.linuxmint.mintUpdate.mintUpdate",
    "lib.linuxmint.mintUpdate.checkAPT",
    "checkWarnings",
    "lib.linuxmint.mintUpdate.checkKernels",
    "usr.lib.linuxmint.mintUpdate",
    "mintUpdate.mintUpdate",
    "lib.linuxmint.mintUpdate",
    "lib",
    "mintUpdate.checkAPT",
    "linuxmint.mintUpdate.checkKernels",
    "mintUpdate",
    "usr.lib.linuxmint.mintUpdate.checkKernels",
    "linuxmint.mintUpdate.mintUpdate",
    "linuxmint",
    "lib.linuxmint.mintUpdate.checkWarnings",
    "checkKernels",
    "usr.lib.linuxmint.mintUpdate.checkAPT",
    "usr",
    "usr.lib",
    "linuxmint.mintUpdate.checkWarnings",
    "mintUpdate.checkWarnings",
    "checkAPT"
]