[
    "cyclocity_navigator",
    "extractors.domoblue",
    "pybikes.base",
    "pybikes.bcycle",
    "pybikes.hacks",
    "utils",
    "hacks",
    "tests.unittest_pybikes",
    "bicipalma",
    "pybikes.bicipalma",
    "gewista_citybike",
    "extractors.filler",
    "extractors.cyclocity_navigator",
    "pybikes.domoblue",
    "extractors.cyclocity",
    "pybikes.utils",
    "pybikes.emovity",
    "extractors.bcycle",
    "bcycle",
    "pybikes.bicincitta",
    "domoblue",
    "cyclocity",
    "smartbike",
    "unittest_pybikes",
    "decobike",
    "tests",
    "extractors",
    "pybikes.smartbike",
    "bixi",
    "base",
    "pybikes.bicicard",
    "bicicard",
    "pybikes.keolis",
    "emovity",
    "keolis",
    "bicincitta",
    "pybikes.bixi",
    "filler",
    "pybikes.gewista_citybike",
    "pybikes.decobike",
    "pybikes",
    "pybikes.cyclocity",
    "keys.example"
]