{
    "libs": [
        "zlib",
        "logging",
        "warnings",
        "unittest",
        "cache",
        "db",
        "datetime",
        "sys",
        "threading",
        "b",
        "conf",
        "time",
        "test",
        "pylibmc",
        "os"
    ]
}