{
    "archive_url": "https://api.github.com/repos/al3x/downforeveryoneorjustme/{archive_format}{/ref}",
    "assignees_url": "https://api.github.com/repos/al3x/downforeveryoneorjustme/assignees{/user}",
    "blobs_url": "https://api.github.com/repos/al3x/downforeveryoneorjustme/git/blobs{/sha}",
    "branches_url": "https://api.github.com/repos/al3x/downforeveryoneorjustme/branches{/branch}",
    "clone_url": "https://github.com/al3x/downforeveryoneorjustme.git",
    "collaborators_url": "https://api.github.com/repos/al3x/downforeveryoneorjustme/collaborators{/collaborator}",
    "comments_url": "https://api.github.com/repos/al3x/downforeveryoneorjustme/comments{/number}",
    "commits_url": "https://api.github.com/repos/al3x/downforeveryoneorjustme/commits{/sha}",
    "compare_url": "https://api.github.com/repos/al3x/downforeveryoneorjustme/compare/{base}...{head}",
    "contents_url": "https://api.github.com/repos/al3x/downforeveryoneorjustme/contents/{+path}",
    "contributors_url": "https://api.github.com/repos/al3x/downforeveryoneorjustme/contributors",
    "created_at": "2008-03-13T17:53:29Z",
    "default_branch": "master",
    "description": "Is it down for everyone, or just me?",
    "downloads_url": "https://api.github.com/repos/al3x/downforeveryoneorjustme/downloads",
    "events_url": "https://api.github.com/repos/al3x/downforeveryoneorjustme/events",
    "fork": false,
    "forks": 8,
    "forks_count": 8,
    "forks_url": "https://api.github.com/repos/al3x/downforeveryoneorjustme/forks",
    "full_name": "al3x/downforeveryoneorjustme",
    "git_commits_url": "https://api.github.com/repos/al3x/downforeveryoneorjustme/git/commits{/sha}",
    "git_refs_url": "https://api.github.com/repos/al3x/downforeveryoneorjustme/git/refs{/sha}",
    "git_tags_url": "https://api.github.com/repos/al3x/downforeveryoneorjustme/git/tags{/sha}",
    "git_url": "git://github.com/al3x/downforeveryoneorjustme.git",
    "has_downloads": true,
    "has_issues": true,
    "has_wiki": true,
    "homepage": "http://downforeveryoneorjustme.com",
    "hooks_url": "https://api.github.com/repos/al3x/downforeveryoneorjustme/hooks",
    "html_url": "https://github.com/al3x/downforeveryoneorjustme",
    "id": 3781,
    "issue_comment_url": "https://api.github.com/repos/al3x/downforeveryoneorjustme/issues/comments/{number}",
    "issue_events_url": "https://api.github.com/repos/al3x/downforeveryoneorjustme/issues/events{/number}",
    "issues_url": "https://api.github.com/repos/al3x/downforeveryoneorjustme/issues{/number}",
    "keys_url": "https://api.github.com/repos/al3x/downforeveryoneorjustme/keys{/key_id}",
    "labels_url": "https://api.github.com/repos/al3x/downforeveryoneorjustme/labels{/name}",
    "language": "Python",
    "languages_url": "https://api.github.com/repos/al3x/downforeveryoneorjustme/languages",
    "merges_url": "https://api.github.com/repos/al3x/downforeveryoneorjustme/merges",
    "milestones_url": "https://api.github.com/repos/al3x/downforeveryoneorjustme/milestones{/number}",
    "mirror_url": null,
    "name": "downforeveryoneorjustme",
    "notifications_url": "https://api.github.com/repos/al3x/downforeveryoneorjustme/notifications{?since,all,participating}",
    "open_issues": 1,
    "open_issues_count": 1,
    "owner": {
        "avatar_url": "https://avatars.githubusercontent.com/u/152?",
        "events_url": "https://api.github.com/users/al3x/events{/privacy}",
        "followers_url": "https://api.github.com/users/al3x/followers",
        "following_url": "https://api.github.com/users/al3x/following{/other_user}",
        "gists_url": "https://api.github.com/users/al3x/gists{/gist_id}",
        "gravatar_id": "3fcb27e39d2ff47357a803e91347fee4",
        "html_url": "https://github.com/al3x",
        "id": 152,
        "login": "al3x",
        "organizations_url": "https://api.github.com/users/al3x/orgs",
        "received_events_url": "https://api.github.com/users/al3x/received_events",
        "repos_url": "https://api.github.com/users/al3x/repos",
        "site_admin": false,
        "starred_url": "https://api.github.com/users/al3x/starred{/owner}{/repo}",
        "subscriptions_url": "https://api.github.com/users/al3x/subscriptions",
        "type": "User",
        "url": "https://api.github.com/users/al3x"
    },
    "private": false,
    "pulls_url": "https://api.github.com/repos/al3x/downforeveryoneorjustme/pulls{/number}",
    "pushed_at": "2010-01-11T23:09:40Z",
    "releases_url": "https://api.github.com/repos/al3x/downforeveryoneorjustme/releases{/id}",
    "score": 1.0,
    "size": 283,
    "ssh_url": "git@github.com:al3x/downforeveryoneorjustme.git",
    "stargazers_count": 67,
    "stargazers_url": "https://api.github.com/repos/al3x/downforeveryoneorjustme/stargazers",
    "statuses_url": "https://api.github.com/repos/al3x/downforeveryoneorjustme/statuses/{sha}",
    "subscribers_url": "https://api.github.com/repos/al3x/downforeveryoneorjustme/subscribers",
    "subscription_url": "https://api.github.com/repos/al3x/downforeveryoneorjustme/subscription",
    "svn_url": "https://github.com/al3x/downforeveryoneorjustme",
    "tags_url": "https://api.github.com/repos/al3x/downforeveryoneorjustme/tags",
    "teams_url": "https://api.github.com/repos/al3x/downforeveryoneorjustme/teams",
    "trees_url": "https://api.github.com/repos/al3x/downforeveryoneorjustme/git/trees{/sha}",
    "updated_at": "2014-01-07T21:31:08Z",
    "url": "https://api.github.com/repos/al3x/downforeveryoneorjustme",
    "watchers": 67,
    "watchers_count": 67
}