[
    "xbmc-mocks.xbmcplugin",
    "YouTubeUtils",
    "Testxbmcvfsdummy",
    "unittests.MockYouTubeDepends",
    "xbmcplugin",
    "plugin.YouTubeNavigation",
    "TestYouTubePlaylists",
    "CommonFunctions",
    "YouTubePluginSettings",
    "TestYouTubeFeeds",
    "integrationtests.pyotp.hotp",
    "integrationtests.TestYouTubeLogin",
    "integrationtests.pyotp.totp",
    "pyotp.otp",
    "TestYouTubePlayer",
    "MockYouTubeDepends",
    "TestYouTubeScraper",
    "YouTubePlaylistControl",
    "hotp",
    "TestYouTubePublicFeeds",
    "unittests.Testxbmcvfsdummy",
    "plugin.YouTubePluginSettings",
    "unittests.TestYouTubeStorage",
    "integrationtests.TestYouTubePublicFeeds",
    "integrationtests.pyotp.otp",
    "xbmcgui",
    "integrationtests.TestYouTubeUserScraper",
    "SimpleDownloader",
    "integrationtests.mock",
    "integrationtests.xbmcSettings",
    "pyotp.totp",
    "TestYouTubeCore",
    "plugin.storageserverdummy",
    "TestYouTubePlaylistControl",
    "plugin.YouTubeLogin",
    "xbmcaddon",
    "TestYouTubeDiscoScraper",
    "integrationtests.TestYouTubeUserActions",
    "TestYouTubeLogin",
    "otp",
    "unittests.TestYouTubeFeeds",
    "plugin.default",
    "YouTubeSubtitleControl",
    "xbmcSettings",
    "integrationtests.TestYouTubeDiscoScraper",
    "plugin",
    "pyotp",
    "integrationtests.BaseTestCase",
    "default",
    "TestYouTubeDownloader",
    "TestYouTubeUserActions",
    "TestYouTubeUtils",
    "xbmc-mocks.xbmcvfs",
    "integrationtests.TestYouTubeFolderStructure",
    "integrationtests.xbmcLanguage",
    "unittests.CommonFunctions",
    "xbmcvfs",
    "integrationtests",
    "integrationtests.IntegrationTestSuite",
    "plugin.YouTubeCore",
    "plugin.YouTubeUtils",
    "unittests.TestYouTubeLogin",
    "unittests.TestYouTubeScraper",
    "plugin.YouTubeStorage",
    "plugin.YouTubeScraper",
    "integrationtests.pyotp",
    "plugin.YouTubePlaylistControl",
    "integrationtests.TestYouTubeUserFeeds",
    "UnitTestSuite",
    "TestYouTubeSubtitleControl",
    "unittests.TestYouTubeNavigation",
    "YouTubeLogin",
    "TestYouTubeFolderStructure",
    "integrationtests.CommonFunctions",
    "YouTubeCore",
    "BaseTestCase",
    "unittests.BaseTestCase",
    "TestYouTubeTrailersScraper",
    "plugin.YouTubeSubtitleControl",
    "pyotp.hotp",
    "YouTubeStorage",
    "unittests.TestYouTubePlaylistControl",
    "totp",
    "TestYouTubeNavigation",
    "YouTubeScraper",
    "xbmc-mocks.xbmcgui",
    "unittests.TestYouTubeCore",
    "integrationtests.TestYouTubeTrailersScraper",
    "xbmc-mocks.xbmc",
    "unittests.TestYouTubePluginSettings",
    "mock",
    "plugin.YouTubeFeeds",
    "TestYouTubeStorage",
    "unittests.TestYouTubePlayer",
    "xbmc-mocks",
    "storageserverdummy",
    "YouTubeFeeds",
    "unittests.TestYouTubeUtils",
    "xbmc-mocks.xbmcaddon",
    "integrationtests.TestYouTubeStorageFolders",
    "YouTubePlayer",
    "TestYouTubeUserScraper",
    "integrationtests.TestYouTubePlaylists",
    "TestYouTubePluginSettings",
    "TestYouTubeUserFeeds",
    "IntegrationTestSuite",
    "integrationtests.storageserverdummy",
    "integrationtests.TestYouTubePlayer",
    "integrationtests.SimpleDownloader",
    "unittests.TestYouTubeSubtitleControl",
    "YouTubeNavigation",
    "DialogDownloadProgress",
    "xbmcLanguage",
    "plugin.xbmcvfsdummy",
    "integrationtests.TestYouTubeDownloader",
    "unittests.mock",
    "xbmcvfsdummy",
    "xbmc",
    "plugin.YouTubePlayer",
    "integrationtests.MockYouTubeDepends",
    "unittests",
    "TestYouTubeStorageFolders",
    "unittests.UnitTestSuite",
    "integrationtests.DialogDownloadProgress"
]