{
    "archive_url": "https://api.github.com/repos/proffalken/edison/{archive_format}{/ref}",
    "assignees_url": "https://api.github.com/repos/proffalken/edison/assignees{/user}",
    "blobs_url": "https://api.github.com/repos/proffalken/edison/git/blobs{/sha}",
    "branches_url": "https://api.github.com/repos/proffalken/edison/branches{/branch}",
    "clone_url": "https://github.com/proffalken/edison.git",
    "collaborators_url": "https://api.github.com/repos/proffalken/edison/collaborators{/collaborator}",
    "comments_url": "https://api.github.com/repos/proffalken/edison/comments{/number}",
    "commits_url": "https://api.github.com/repos/proffalken/edison/commits{/sha}",
    "compare_url": "https://api.github.com/repos/proffalken/edison/compare/{base}...{head}",
    "contents_url": "https://api.github.com/repos/proffalken/edison/contents/{+path}",
    "contributors_url": "https://api.github.com/repos/proffalken/edison/contributors",
    "created_at": "2010-09-27T15:20:13Z",
    "default_branch": "master",
    "description": "A new build system with integrated change managment",
    "downloads_url": "https://api.github.com/repos/proffalken/edison/downloads",
    "events_url": "https://api.github.com/repos/proffalken/edison/events",
    "fork": false,
    "forks": 1,
    "forks_count": 1,
    "forks_url": "https://api.github.com/repos/proffalken/edison/forks",
    "full_name": "proffalken/edison",
    "git_commits_url": "https://api.github.com/repos/proffalken/edison/git/commits{/sha}",
    "git_refs_url": "https://api.github.com/repos/proffalken/edison/git/refs{/sha}",
    "git_tags_url": "https://api.github.com/repos/proffalken/edison/git/tags{/sha}",
    "git_url": "git://github.com/proffalken/edison.git",
    "has_downloads": true,
    "has_issues": true,
    "has_wiki": true,
    "homepage": "",
    "hooks_url": "https://api.github.com/repos/proffalken/edison/hooks",
    "html_url": "https://github.com/proffalken/edison",
    "id": 942822,
    "issue_comment_url": "https://api.github.com/repos/proffalken/edison/issues/comments/{number}",
    "issue_events_url": "https://api.github.com/repos/proffalken/edison/issues/events{/number}",
    "issues_url": "https://api.github.com/repos/proffalken/edison/issues{/number}",
    "keys_url": "https://api.github.com/repos/proffalken/edison/keys{/key_id}",
    "labels_url": "https://api.github.com/repos/proffalken/edison/labels{/name}",
    "language": "Python",
    "languages_url": "https://api.github.com/repos/proffalken/edison/languages",
    "merges_url": "https://api.github.com/repos/proffalken/edison/merges",
    "milestones_url": "https://api.github.com/repos/proffalken/edison/milestones{/number}",
    "mirror_url": null,
    "name": "edison",
    "notifications_url": "https://api.github.com/repos/proffalken/edison/notifications{?since,all,participating}",
    "open_issues": 1,
    "open_issues_count": 1,
    "owner": {
        "avatar_url": "https://avatars.githubusercontent.com/u/262545?",
        "events_url": "https://api.github.com/users/proffalken/events{/privacy}",
        "followers_url": "https://api.github.com/users/proffalken/followers",
        "following_url": "https://api.github.com/users/proffalken/following{/other_user}",
        "gists_url": "https://api.github.com/users/proffalken/gists{/gist_id}",
        "gravatar_id": "83b8a6f5478029545ba4c9cb35fcfb57",
        "html_url": "https://github.com/proffalken",
        "id": 262545,
        "login": "proffalken",
        "organizations_url": "https://api.github.com/users/proffalken/orgs",
        "received_events_url": "https://api.github.com/users/proffalken/received_events",
        "repos_url": "https://api.github.com/users/proffalken/repos",
        "site_admin": false,
        "starred_url": "https://api.github.com/users/proffalken/starred{/owner}{/repo}",
        "subscriptions_url": "https://api.github.com/users/proffalken/subscriptions",
        "type": "User",
        "url": "https://api.github.com/users/proffalken"
    },
    "private": false,
    "pulls_url": "https://api.github.com/repos/proffalken/edison/pulls{/number}",
    "pushed_at": "2011-11-14T10:23:16Z",
    "releases_url": "https://api.github.com/repos/proffalken/edison/releases{/id}",
    "score": 1.0,
    "size": 1021,
    "ssh_url": "git@github.com:proffalken/edison.git",
    "stargazers_count": 42,
    "stargazers_url": "https://api.github.com/repos/proffalken/edison/stargazers",
    "statuses_url": "https://api.github.com/repos/proffalken/edison/statuses/{sha}",
    "subscribers_url": "https://api.github.com/repos/proffalken/edison/subscribers",
    "subscription_url": "https://api.github.com/repos/proffalken/edison/subscription",
    "svn_url": "https://github.com/proffalken/edison",
    "tags_url": "https://api.github.com/repos/proffalken/edison/tags",
    "teams_url": "https://api.github.com/repos/proffalken/edison/teams",
    "trees_url": "https://api.github.com/repos/proffalken/edison/git/trees{/sha}",
    "updated_at": "2014-03-13T01:20:27Z",
    "url": "https://api.github.com/repos/proffalken/edison",
    "watchers": 42,
    "watchers_count": 42
}