{
    "archive_url": "https://api.github.com/repos/nicolargo/glances/{archive_format}{/ref}",
    "assignees_url": "https://api.github.com/repos/nicolargo/glances/assignees{/user}",
    "blobs_url": "https://api.github.com/repos/nicolargo/glances/git/blobs{/sha}",
    "branches_url": "https://api.github.com/repos/nicolargo/glances/branches{/branch}",
    "clone_url": "https://github.com/nicolargo/glances.git",
    "collaborators_url": "https://api.github.com/repos/nicolargo/glances/collaborators{/collaborator}",
    "comments_url": "https://api.github.com/repos/nicolargo/glances/comments{/number}",
    "commits_url": "https://api.github.com/repos/nicolargo/glances/commits{/sha}",
    "compare_url": "https://api.github.com/repos/nicolargo/glances/compare/{base}...{head}",
    "contents_url": "https://api.github.com/repos/nicolargo/glances/contents/{+path}",
    "contributors_url": "https://api.github.com/repos/nicolargo/glances/contributors",
    "created_at": "2011-12-04T08:49:15Z",
    "default_branch": "master",
    "description": "Glances an Eye on your system",
    "downloads_url": "https://api.github.com/repos/nicolargo/glances/downloads",
    "events_url": "https://api.github.com/repos/nicolargo/glances/events",
    "fork": false,
    "forks": 182,
    "forks_count": 182,
    "forks_url": "https://api.github.com/repos/nicolargo/glances/forks",
    "full_name": "nicolargo/glances",
    "git_commits_url": "https://api.github.com/repos/nicolargo/glances/git/commits{/sha}",
    "git_refs_url": "https://api.github.com/repos/nicolargo/glances/git/refs{/sha}",
    "git_tags_url": "https://api.github.com/repos/nicolargo/glances/git/tags{/sha}",
    "git_url": "git://github.com/nicolargo/glances.git",
    "has_downloads": true,
    "has_issues": true,
    "has_wiki": true,
    "homepage": "http://nicolargo.github.com/glances",
    "hooks_url": "https://api.github.com/repos/nicolargo/glances/hooks",
    "html_url": "https://github.com/nicolargo/glances",
    "id": 2909429,
    "issue_comment_url": "https://api.github.com/repos/nicolargo/glances/issues/comments/{number}",
    "issue_events_url": "https://api.github.com/repos/nicolargo/glances/issues/events{/number}",
    "issues_url": "https://api.github.com/repos/nicolargo/glances/issues{/number}",
    "keys_url": "https://api.github.com/repos/nicolargo/glances/keys{/key_id}",
    "labels_url": "https://api.github.com/repos/nicolargo/glances/labels{/name}",
    "language": "Python",
    "languages_url": "https://api.github.com/repos/nicolargo/glances/languages",
    "merges_url": "https://api.github.com/repos/nicolargo/glances/merges",
    "milestones_url": "https://api.github.com/repos/nicolargo/glances/milestones{/number}",
    "mirror_url": null,
    "name": "glances",
    "notifications_url": "https://api.github.com/repos/nicolargo/glances/notifications{?since,all,participating}",
    "open_issues": 21,
    "open_issues_count": 21,
    "owner": {
        "avatar_url": "https://avatars.githubusercontent.com/u/776747?",
        "events_url": "https://api.github.com/users/nicolargo/events{/privacy}",
        "followers_url": "https://api.github.com/users/nicolargo/followers",
        "following_url": "https://api.github.com/users/nicolargo/following{/other_user}",
        "gists_url": "https://api.github.com/users/nicolargo/gists{/gist_id}",
        "gravatar_id": "2d1a3cc083cf4c2aea1397c2ff0d67e4",
        "html_url": "https://github.com/nicolargo",
        "id": 776747,
        "login": "nicolargo",
        "organizations_url": "https://api.github.com/users/nicolargo/orgs",
        "received_events_url": "https://api.github.com/users/nicolargo/received_events",
        "repos_url": "https://api.github.com/users/nicolargo/repos",
        "site_admin": false,
        "starred_url": "https://api.github.com/users/nicolargo/starred{/owner}{/repo}",
        "subscriptions_url": "https://api.github.com/users/nicolargo/subscriptions",
        "type": "User",
        "url": "https://api.github.com/users/nicolargo"
    },
    "private": false,
    "pulls_url": "https://api.github.com/repos/nicolargo/glances/pulls{/number}",
    "pushed_at": "2014-05-06T21:20:30Z",
    "releases_url": "https://api.github.com/repos/nicolargo/glances/releases{/id}",
    "score": 1.0,
    "size": 10647,
    "ssh_url": "git@github.com:nicolargo/glances.git",
    "stargazers_count": 2168,
    "stargazers_url": "https://api.github.com/repos/nicolargo/glances/stargazers",
    "statuses_url": "https://api.github.com/repos/nicolargo/glances/statuses/{sha}",
    "subscribers_url": "https://api.github.com/repos/nicolargo/glances/subscribers",
    "subscription_url": "https://api.github.com/repos/nicolargo/glances/subscription",
    "svn_url": "https://github.com/nicolargo/glances",
    "tags_url": "https://api.github.com/repos/nicolargo/glances/tags",
    "teams_url": "https://api.github.com/repos/nicolargo/glances/teams",
    "trees_url": "https://api.github.com/repos/nicolargo/glances/git/trees{/sha}",
    "updated_at": "2014-05-06T21:20:32Z",
    "url": "https://api.github.com/repos/nicolargo/glances",
    "watchers": 2168,
    "watchers_count": 2168
}