{
    "libs": [
        "dutest",
        "functools",
        "random",
        "datetime",
        "fcgi",
        "transforms",
        "filters",
        "ElementTree",
        "sqlparse",
        "uuid",
        "docutils",
        "tempfile",
        "psycopg2",
        "restructuredtext",
        "writing",
        "imp",
        "input",
        "nodes",
        "string",
        "SocketServer",
        "crypt",
        "zipfile",
        "textwrap",
        "sqlite3",
        "testc",
        "twill",
        "subprocess",
        "ConfigParser",
        "httplib",
        "bisect",
        "h",
        "signal",
        "threading",
        "fields",
        "output",
        "quopri",
        "dummy_threading",
        "cStringIO",
        "genshi",
        "collectors",
        "locale",
        "with_statement",
        "bloodhound_setup",
        "atexit",
        "MySQLdb",
        "errors",
        "whoosh",
        "struct",
        "urllib",
        "re",
        "version",
        "template",
        "new",
        "email",
        "cgi",
        "optparse",
        "inspect",
        "ctypes",
        "path",
        "cli",
        "cgitb",
        "socket",
        "thread",
        "StringIO",
        "traceback",
        "pkg_resources",
        "weakref",
        "itertools",
        "extensions",
        "doctest",
        "os",
        "pprint",
        "unittest",
        "__builtin__",
        "dummy_thread",
        "fileinput",
        "select",
        "mod_python",
        "posixpath",
        "errno",
        "support",
        "transform",
        "json",
        "Cookie",
        "B",
        "simplejson",
        "tokens",
        "pwd",
        "pytz",
        "unicodedata",
        "b",
        "fnmatch",
        "dbapi2",
        "configobj",
        "bhd",
        "parsers",
        "contextlib",
        "cursors",
        "shutil",
        "lxml",
        "grp",
        "fcrypt",
        "babel",
        "gettext",
        "textile",
        "writers",
        "getp",
        "getopt",
        "stat",
        "glob",
        "urllib2",
        "sys",
        "sql",
        "types",
        "SilverCity",
        "builder",
        "rst2pdf",
        "difflib",
        "urlparse",
        "time"
    ]
}