{
    "libs": [
        "shortcuts",
        "functools",
        "functional",
        "datetime",
        "conf",
        "validators",
        "contrib",
        "paginator",
        "management",
        "redis",
        "re",
        "http",
        "defaults",
        "db",
        "dat",
        "urlresolvers",
        "v2",
        "translation",
        "sys",
        "logging",
        "urls",
        "exceptions",
        "os"
    ]
}