{
    "libs": [
        "package_index",
        "subprocess",
        "shutil",
        "buildout",
        "tempfile",
        "gtk",
        "urllib",
        "re",
        "json",
        "unittest2",
        "win32clipboard",
        "optparse",
        "glob",
        "urllib2",
        "pygtk",
        "sys",
        "webbrowser",
        "path",
        "argparse",
        "httplib",
        "socket",
        "pkg_resources",
        "ConfigObject",
        "win32con",
        "gobject",
        "os"
    ]
}