[
    "sphinx.SphinxMethods",
    "arelle.ViewWinRelationshipSet",
    "xlwt.Column",
    "arelle.ViewWinDiffs",
    "xlwt.Cell",
    "arelle.ModelVersObject",
    "CntlrWinMain",
    "XbrlUtil",
    "ViewFile",
    "plugin.bigInstance",
    "ViewWinDTS",
    "arelle.ViewFileDTS",
    "arelle.ValidateHmrc",
    "arelle.ModelInstanceObject",
    "plugin.validateTableInfoset",
    "generateMessagesCatalog",
    "arelle.ViewWinTupleGrid",
    "plugin.validateUSBestPractices",
    "ExcelFormulaParser",
    "ViewWinFactTable",
    "arelle.ValidateFilingDimensions",
    "arelle.PrototypeInstanceObject",
    "arelle.examples.LoadEFMvalidate",
    "UKCompaniesHouseLoader",
    "plugin.sphinx.SphinxEvaluator",
    "arelle.ViewFileTests",
    "testParser",
    "plugin.xbrlDB.DialogRssWatchExtender",
    "ViewWinFactList",
    "xbrlDB.primaryDocumentFacts",
    "ExcelFormula",
    "arelle.PrototypeDtsObject",
    "hello_dolly",
    "LoadEFMvalidate",
    "plugin.sphinx.SphinxParser",
    "Version",
    "plugins",
    "CustomLogger",
    "ViewFileFormulae",
    "CntlrWinTooltip",
    "arelle.XbrlUtil",
    "apidocs",
    "plugin.profileCmdLine",
    "plugin.xbrlDB.XbrlSemanticSqlDB",
    "arelle.UiUtil",
    "licences",
    "xbrlDB.DialogRssWatchExtender",
    "plugin.xbrlDB.tableFacts",
    "examples.LoadSavePreLbCsv",
    "arelle.examples.plugin.bigInstance",
    "arelle.XPathContext",
    "validateSecTagging",
    "ViewWinRelationshipSet",
    "arelle.FunctionXs",
    "arelle.ViewWinRssFeed",
    "conftest",
    "arelle.plugin.profileCmdLine",
    "plugin.xbrlDB.SqlDb",
    "arelle.ViewWinVersReport",
    "arelle.xlwt.BIFFRecords",
    "Style",
    "BIFFRecords",
    "arelle_test",
    "arelle.DisclosureSystem",
    "saveCHComponentFile",
    "arelle.xlwt.Bitmap",
    "arelle.CntlrProfiler",
    "FormulaGenerator",
    "plugin.saveSKOS",
    "arelle.plugin.sphinx.SphinxContext",
    "arelle.ModelValue",
    "XbrlSemanticJsonDB",
    "plugin.saveLoadableExcel",
    "examples.LoadValidate",
    "XPathContext",
    "sphinx.SphinxParser",
    "arelle.ViewFileFormulae",
    "plugin.xbrlDB.XbrlDpmSqlDB",
    "FunctionIxt",
    "arelle.FunctionCustom",
    "arelle.FunctionIxt",
    "UiUtil",
    "arelle.plugin.loadFromExcel",
    "updateTableLB",
    "arelle.ViewWinDTS",
    "validateTableInfoset",
    "XbrlSemanticRdfDB",
    "arelle.ModelVersReport",
    "ModelXbrl",
    "ModelObjectFactory",
    "SaveTableToExelle",
    "SqlDb",
    "plugin.xbrlDB.XbrlSemanticJsonDB",
    "plugin.xbrlDB.entityInformation",
    "arelle.ValidateFilingDTS",
    "SphinxEvaluator",
    "xlrd.compdoc",
    "arelle.ValidateVersReport",
    "arelle.plugin.xbrlDB.tableFacts",
    "arelle.ValidateXbrlDimensions",
    "plugins.xbrl-us",
    "XbrlDpmSqlDB",
    "arelle.examples.plugin.hello_i18n",
    "arelle.xlrd.xlsx",
    "FunctionXs",
    "SphinxValidator",
    "arelle.RenderingEvaluator",
    "arelle.ViewWinTree",
    "arelle.XbrlConst",
    "PrototypeInstanceObject",
    "examples.LoadEFMvalidate",
    "ExcelMagic",
    "plugin.sphinx.SphinxValidator",
    "arelle.ViewWinFactList",
    "arelle.DialogURL",
    "webserver.bottle",
    "arelle.xlwt.Style",
    "ModelManager",
    "arelle.ViewFileRoleTypes",
    "examples.plugin.bigInstance",
    "Worksheet",
    "plugin.validateSecTagging",
    "validateSBRnl",
    "arelle.ModelManager",
    "arelle.plugin.xbrlDB",
    "arelle.examples.plugin.saveInstanceInfoset",
    "WatchRss",
    "Locale",
    "arelle.plugin.sphinx",
    "arelle.CntlrQuickBooks",
    "arelle.xlrd.licences",
    "arelle.ModelFormulaObject",
    "arelle.plugin.saveLoadableExcel",
    "arelle.xlwt.antlr",
    "arelle.xlrd.biffh",
    "ViewFileTests",
    "Workbook",
    "ValidateXbrlDimensions",
    "arelle.CntlrWinMain",
    "xlwt.Style",
    "xbrl-us.us-gaap-consistency",
    "plugin.xbrlDB",
    "arelle.ViewWinProperties",
    "xldate",
    "examples.plugin.validateTableInfoset",
    "arelle.plugin.functionsXmlCreation",
    "arelle.plugin.saveHtmlEBAtables",
    "XhtmlValidate",
    "validateSchemaLxml",
    "validateUSBestPractices",
    "arelle.plugin.validateUSCorpAction",
    "arelle.PluginManager",
    "SphinxParser",
    "plugin.saveCHComponentFile",
    "examples.plugin.validateSchemaLxml",
    "UnicodeUtils",
    "arelle.xlwt.ExcelFormulaParser",
    "ViewFileFactList",
    "arelle.examples.plugin.updateTableLB",
    "WebCache",
    "arelle.xlrd.compdoc",
    "plugin.saveDTS",
    "arelle.ModelXbrl",
    "PluginManager",
    "ModelRenderingObject",
    "xlrd.xlsx",
    "DialogOpenTaxonomyPackage",
    "tableFacts",
    "FunctionXfi",
    "hello_i18n",
    "ViewWinTests",
    "arelle.ValidateFormula",
    "arelle.FunctionUtil",
    "ValidateFilingText",
    "bottle-no2to3",
    "arelle.examples.plugin.functionsCustom",
    "streamingExtensions",
    "ViewFileRoleTypes",
    "xlwt.ExcelFormulaLexer",
    "ValidateXbrlDTS",
    "xbrlDB",
    "arelle.plugin.xbrlDB.XbrlSemanticJsonDB",
    "arelle.DialogAbout",
    "arelle.xlwt.ExcelFormula",
    "arelle.plugin.streamingExtensions",
    "arelle.xlrd.info",
    "profileCmdLine",
    "sphinx.SphinxContext",
    "formula",
    "arelle.examples.plugin",
    "examples.plugin",
    "plugin.SECCorrespondenceLoader",
    "arelle.plugin.xbrlDB.SqlDb",
    "ModelVersObject",
    "ViewFileRenderedGrid",
    "DialogArcroleGroup",
    "ViewFileFactTable",
    "xbrlDB.XbrlDpmSqlDB",
    "arelle.ViewWinFactTable",
    "generateTestcase",
    "arelle.ViewUtil",
    "plugin.sphinx.FormulaGenerator",
    "plugin.sphinx.SphinxMethods",
    "arelle.ModelTestcaseObject",
    "xlrd.formatting",
    "examples.plugin.hello_i18n",
    "DialogRssWatch",
    "Cell",
    "arelle.ModelDtsObject",
    "arelle.plugin.UKCompaniesHouseLoader",
    "xlrd.biffh",
    "plugin.functionsCustom",
    "sheet",
    "ValidateHmrc",
    "arelle.ViewWinFactGrid",
    "arelle.xlwt.Column",
    "arelle.DialogPackageManager",
    "arelle.ViewWinRoleTypes",
    "arelle.WebCache",
    "ModelValue",
    "sphinx.FormulaGenerator",
    "arelle.TableStructure",
    "arelle.ViewWinList",
    "arelle.xlwt.ExcelFormulaLexer",
    "bigInstance",
    "arelle.plugin.xbrlDB.primaryDocumentFacts",
    "XbrlSemanticGraphDB",
    "xbrlDB.XbrlSemanticRdfDB",
    "DisclosureSystem",
    "plugin.xbrlDB.XbrlSemanticRdfDB",
    "xbrlDB.SqlDb",
    "arelle.HtmlUtil",
    "biffh",
    "arelle.ModelRssItem",
    "XbrlConst",
    "ModelDocument",
    "arelle.ViewWinXml",
    "CntlrGenVersReports",
    "PrototypeDtsObject",
    "CntlrWebMain",
    "arelle.ModelDocument",
    "arelle.ViewFileRelationshipSet",
    "arelle.examples.plugin.streamingExtensions",
    "arelle.examples.SaveTableToExelle",
    "RenderingEvaluator",
    "arelle.xlwt.UnicodeUtils",
    "xlrd.info",
    "plugin.saveHtmlEBAtables",
    "arelle.xlrd.formatting",
    "arelle.DialogOpenArchive",
    "arelle.webserver",
    "validateUSCorpAction",
    "arelle.xlwt.Worksheet",
    "examples.CustomLogger",
    "xbrlDB.tableFacts",
    "plugin.inlineXbrlDocumentSet",
    "arelle.plugin.xbrlDB.XbrlSemanticSqlDB",
    "ModelRelationshipSet",
    "ModelTestcaseObject",
    "scripts.generateTestcase",
    "ValidateFilingDimensions",
    "XbrlSemanticSqlDB",
    "arelle.examples",
    "arelle.Validate",
    "XPathParser",
    "arelle.webserver.bottle-no2to3",
    "FormulaConsisAsser",
    "plugin.updateTableLB",
    "xlrd.licences",
    "arelle.plugin.xbrlDB.DialogRssWatchExtender",
    "plugin.xbrlDB.primaryDocumentFacts",
    "UrlUtil",
    "pyparsing",
    "inlineXbrlDocumentSet",
    "arelle.plugin.saveDTS",
    "XmlValidateSchema",
    "arelle.examples.plugin.hello_dolly",
    "arelle.ValidateXbrlDTS",
    "arelle.CntlrWebMain",
    "Validate",
    "arelle.XhtmlValidate",
    "xlwt.Utils",
    "xlwt",
    "ModelInstanceObject",
    "scripts",
    "arelle.FileSource",
    "FileSource",
    "plugin.UKCompaniesHouseLoader",
    "DialogPackageManager",
    "arelle.plugin.sphinx.SphinxMethods",
    "RenderingResolver",
    "xlwt.ExcelMagic",
    "arelle.ViewWinRenderedGrid",
    "plugin.xbrlDB.XbrlSemanticGraphDB",
    "InstanceAspectsEvaluator",
    "arelle.DialogArcroleGroup",
    "ModelFormulaObject",
    "DialogUserPassword",
    "ViewWinRenderedGrid",
    "plugins.xbrl-us.us-gaap-consistency",
    "saveInstanceInfoset",
    "arelle.ViewFileFactTable",
    "plugin.TDnetLoader",
    "XmlValidate",
    "xbrlDB.XbrlPublicPostgresDB",
    "arelle.FunctionXfi",
    "xlrd.timemachine",
    "xbrlDB.entityInformation",
    "xbrl-us",
    "xlrd.formula",
    "xlwt.UnicodeUtils",
    "buildVersion",
    "us-gaap-consistency",
    "examples.plugin.updateTableLB",
    "ViewWinTupleGrid",
    "arelle.plugin.sphinx.FormulaGenerator",
    "xlwt.Workbook",
    "saveSKOS",
    "arelle.XmlUtil",
    "arelle.ViewWinTests",
    "compdoc",
    "arelle.plugin.sphinx.SphinxParser",
    "saveHtmlEBAtables",
    "webserver.bottle-no2to3",
    "ValidateXbrl",
    "profileFormula",
    "plugin",
    "arelle.examples.plugin.validateSchemaLxml",
    "arelle.ViewWinGrid",
    "ViewWinFormulae",
    "FunctionUtil",
    "xbrlDB.XbrlSemanticJsonDB",
    "DialogURL",
    "ValidateVersReport",
    "arelle.xlwt.Workbook",
    "arelle.FormulaConsisAsser",
    "SECCorrespondenceLoader",
    "plugin.hello_dolly",
    "arelle.plugin.sphinx.SphinxEvaluator",
    "arelle.examples.LoadSavePreLbCsv",
    "xlwt.BIFFRecords",
    "ViewFileRelationshipSet",
    "arelle.DialogFind",
    "ViewFileConcepts",
    "arelle.plugin.xbrlDB.XbrlDpmSqlDB",
    "sphinx.SphinxValidator",
    "XmlValidateParticles",
    "Updater",
    "arelle.UrlUtil",
    "xlsx",
    "plugin.validateUSCorpAction",
    "arelle.DialogUserPassword",
    "ViewWinProperties",
    "ViewWinConcepts",
    "arelle.plugin",
    "arelle.DialogPluginManager",
    "DialogRssWatchExtender",
    "arelleCmdLine",
    "Bitmap",
    "formatting",
    "pyparsing.pyparsing_py3",
    "arelle.plugin.xbrlDB.XbrlSemanticGraphDB",
    "plugin.validateSBRnl",
    "plugin.functionsXmlCreation",
    "ViewWinXml",
    "pyparsing_py3",
    "examples.SaveTableToExelle",
    "HtmlUtil",
    "unpackSecEisFile",
    "arelle.ViewFileConcepts",
    "arelle.xlrd.xldate",
    "xlrd.book",
    "ViewWinRssFeed",
    "conf",
    "LoadSavePreLbCsv",
    "ViewWinRoleTypes",
    "timemachine",
    "encodeUtf8PySource",
    "ViewUtilFormulae",
    "arelle.Cntlr",
    "debugCmdLineEntry",
    "arelle.xlrd.formula",
    "arelle.pyparsing.pyparsing_py3",
    "arelle.Version",
    "arelle.ValidateXbrl",
    "FunctionCustom",
    "ValidateInfoset",
    "ValidateFiling",
    "arelle.plugin.xbrlDB.XbrlSemanticRdfDB",
    "arelle.CntlrComServer",
    "examples.plugin.saveInstanceInfoset",
    "arelle.ViewFileFactList",
    "arelle",
    "ModelDtsObject",
    "arelle.ModelObjectFactory",
    "xlrd.xldate",
    "FormulaEvaluator",
    "arelle.plugin.inlineXbrlDocumentSet",
    "FunctionFn",
    "pygettext",
    "DialogFormulaParameters",
    "CntlrQuickBooks",
    "bottle",
    "arelle.WatchRss",
    "CntlrProfiler",
    "plugin.hello_i18n",
    "arelle.plugin.validateSBRnl",
    "functionsXmlCreation",
    "arelle.webserver.bottle",
    "crashTest",
    "arelle.plugin.validateUSBestPractices",
    "antlr",
    "arelle.DialogNewFactItem",
    "ViewWinDiffs",
    "ModelVersReport",
    "ViewWinFactGrid",
    "arelle.Updater",
    "TableStructure",
    "XmlUtil",
    "ViewUtil",
    "ModelRssItem",
    "arelle.plugin.xbrlDB.XbrlPublicPostgresDB",
    "examples.plugin.hello_dolly",
    "functionsCustom",
    "plugin.profileFormula",
    "ViewFileRssFeed",
    "PackageManager",
    "arelle.DialogOpenTaxonomyPackage",
    "arelle.plugin.TDnetLoader",
    "arelle.InstanceAspectsEvaluator",
    "arelle.ViewUtilFormulae",
    "arelle.Locale",
    "arelle.RenderingResolver",
    "arelle.ViewFileRssFeed",
    "xlwt.Worksheet",
    "arelle.XmlValidate",
    "plugin.saveInstanceInfoset",
    "arelle.FormulaEvaluator",
    "arelle.pyparsing",
    "ValidateFormula",
    "DialogNewFactItem",
    "CompoundDoc",
    "Cntlr",
    "plugin.loadFromExcel",
    "ExcelFormulaLexer",
    "arelle.ValidateInfoset",
    "arelle.FunctionFn",
    "testParser2",
    "apidocs.conf",
    "arelle.ModelRssObject",
    "arelle.plugin.xbrlDB.entityInformation",
    "arelle.plugin.sphinx.SphinxValidator",
    "arelle.DialogRssWatch",
    "ViewWinTree",
    "arelle.ViewWinConcepts",
    "Utils",
    "arelle.ViewFile",
    "arelle.plugin.saveCHComponentFile",
    "arelle.ValidateXbrlCalcs",
    "arelle.XPathParser",
    "xlrd.sheet",
    "PythonUtil",
    "examples.plugin.functionsCustom",
    "examples",
    "ValidateFilingDTS",
    "primaryDocumentFacts",
    "arelle.xlwt.Cell",
    "arelle.CntlrGenVersReports",
    "entityInformation",
    "arelle.xlrd.book",
    "arelle.xlrd",
    "TDnetLoader",
    "plugin.crashTest",
    "CntlrCmdLine",
    "arelle.examples.LoadValidate",
    "arelle.xlrd.timemachine",
    "loadFromExcel",
    "XbrlPublicPostgresDB",
    "ViewFileDTS",
    "plugin.unpackSecEisFile",
    "arelle.CntlrWinTooltip",
    "arelle.plugin.profileFormula",
    "arelle.XmlValidateSchema",
    "ModelObject",
    "plugin.sphinx.SphinxContext",
    "Row",
    "DialogOpenArchive",
    "ViewWinList",
    "examples.plugin.streamingExtensions",
    "arelle.plugin.saveSKOS",
    "arelle.examples.plugin.crashTest",
    "arelle.xlwt.Row",
    "ValidateUtr",
    "arelle.XmlValidateParticles",
    "xlwt.antlr",
    "arelle.ValidateFiling",
    "CntlrComServer",
    "plugin.validateSchemaLxml",
    "ModelRssObject",
    "arelle.ViewWinFormulae",
    "ViewWinGrid",
    "arelle.xlwt.ExcelMagic",
    "sphinx.SphinxEvaluator",
    "xlwt.Formatting",
    "examples.plugin.crashTest",
    "Column",
    "msgfmt",
    "arelle.plugin.validateSecTagging",
    "arelle.CntlrCmdLine",
    "DialogPluginManager",
    "info",
    "arelle.xlwt.Formatting",
    "arelle.examples.CustomLogger",
    "arelle.ValidateUtr",
    "xlwt.Bitmap",
    "SphinxContext",
    "arelle.plugin.unpackSecEisFile",
    "arelle.xlrd.sheet",
    "DialogAbout",
    "saveLoadableExcel",
    "ValidateXbrlCalcs",
    "LoadValidate",
    "arelle.DialogLanguage",
    "SphinxMethods",
    "plugin.xbrlDB.XbrlPublicPostgresDB",
    "arelle.xlwt.CompoundDoc",
    "arelle.DialogFormulaParameters",
    "arelle.examples.plugin.validateTableInfoset",
    "arelle.PythonUtil",
    "xlrd",
    "arelle.ModelRelationshipSet",
    "ViewWinVersReport",
    "plugin.streamingExtensions",
    "saveDTS",
    "arelle.ValidateFilingText",
    "arelle.ModelRenderingObject",
    "plugin.sphinx",
    "xbrlDB.XbrlSemanticGraphDB",
    "book",
    "xlwt.CompoundDoc",
    "arelle.PackageManager",
    "xlwt.ExcelFormulaParser",
    "DialogFind",
    "arelle.plugin.SECCorrespondenceLoader",
    "xbrlDB.XbrlSemanticSqlDB",
    "xlwt.ExcelFormula",
    "webserver",
    "Formatting",
    "xlwt.Row",
    "arelle.xlwt",
    "arelle.ModelObject",
    "sphinx",
    "arelle.xlwt.Utils",
    "DialogLanguage",
    "arelle.ViewFileRenderedGrid"
]