{
    "archive_url": "https://api.github.com/repos/jongman/algospot/{archive_format}{/ref}",
    "assignees_url": "https://api.github.com/repos/jongman/algospot/assignees{/user}",
    "blobs_url": "https://api.github.com/repos/jongman/algospot/git/blobs{/sha}",
    "branches_url": "https://api.github.com/repos/jongman/algospot/branches{/branch}",
    "clone_url": "https://github.com/jongman/algospot.git",
    "collaborators_url": "https://api.github.com/repos/jongman/algospot/collaborators{/collaborator}",
    "comments_url": "https://api.github.com/repos/jongman/algospot/comments{/number}",
    "commits_url": "https://api.github.com/repos/jongman/algospot/commits{/sha}",
    "compare_url": "https://api.github.com/repos/jongman/algospot/compare/{base}...{head}",
    "contents_url": "https://api.github.com/repos/jongman/algospot/contents/{+path}",
    "contributors_url": "https://api.github.com/repos/jongman/algospot/contributors",
    "created_at": "2011-07-02T08:13:53Z",
    "default_branch": "master",
    "description": "writing new algospot from scratch?!",
    "downloads_url": "https://api.github.com/repos/jongman/algospot/downloads",
    "events_url": "https://api.github.com/repos/jongman/algospot/events",
    "fork": false,
    "forks": 28,
    "forks_count": 28,
    "forks_url": "https://api.github.com/repos/jongman/algospot/forks",
    "full_name": "jongman/algospot",
    "git_commits_url": "https://api.github.com/repos/jongman/algospot/git/commits{/sha}",
    "git_refs_url": "https://api.github.com/repos/jongman/algospot/git/refs{/sha}",
    "git_tags_url": "https://api.github.com/repos/jongman/algospot/git/tags{/sha}",
    "git_url": "git://github.com/jongman/algospot.git",
    "has_downloads": true,
    "has_issues": true,
    "has_wiki": true,
    "homepage": "http://algospot.com",
    "hooks_url": "https://api.github.com/repos/jongman/algospot/hooks",
    "html_url": "https://github.com/jongman/algospot",
    "id": 1986990,
    "issue_comment_url": "https://api.github.com/repos/jongman/algospot/issues/comments/{number}",
    "issue_events_url": "https://api.github.com/repos/jongman/algospot/issues/events{/number}",
    "issues_url": "https://api.github.com/repos/jongman/algospot/issues{/number}",
    "keys_url": "https://api.github.com/repos/jongman/algospot/keys{/key_id}",
    "labels_url": "https://api.github.com/repos/jongman/algospot/labels{/name}",
    "language": "Python",
    "languages_url": "https://api.github.com/repos/jongman/algospot/languages",
    "merges_url": "https://api.github.com/repos/jongman/algospot/merges",
    "milestones_url": "https://api.github.com/repos/jongman/algospot/milestones{/number}",
    "mirror_url": null,
    "name": "algospot",
    "notifications_url": "https://api.github.com/repos/jongman/algospot/notifications{?since,all,participating}",
    "open_issues": 9,
    "open_issues_count": 9,
    "owner": {
        "avatar_url": "https://avatars.githubusercontent.com/u/227680?",
        "events_url": "https://api.github.com/users/jongman/events{/privacy}",
        "followers_url": "https://api.github.com/users/jongman/followers",
        "following_url": "https://api.github.com/users/jongman/following{/other_user}",
        "gists_url": "https://api.github.com/users/jongman/gists{/gist_id}",
        "gravatar_id": "aa077de7164201e19f9ebc15713797b8",
        "html_url": "https://github.com/jongman",
        "id": 227680,
        "login": "jongman",
        "organizations_url": "https://api.github.com/users/jongman/orgs",
        "received_events_url": "https://api.github.com/users/jongman/received_events",
        "repos_url": "https://api.github.com/users/jongman/repos",
        "site_admin": false,
        "starred_url": "https://api.github.com/users/jongman/starred{/owner}{/repo}",
        "subscriptions_url": "https://api.github.com/users/jongman/subscriptions",
        "type": "User",
        "url": "https://api.github.com/users/jongman"
    },
    "private": false,
    "pulls_url": "https://api.github.com/repos/jongman/algospot/pulls{/number}",
    "pushed_at": "2014-03-02T10:17:34Z",
    "releases_url": "https://api.github.com/repos/jongman/algospot/releases{/id}",
    "score": 1.0,
    "size": 3620,
    "ssh_url": "git@github.com:jongman/algospot.git",
    "stargazers_count": 44,
    "stargazers_url": "https://api.github.com/repos/jongman/algospot/stargazers",
    "statuses_url": "https://api.github.com/repos/jongman/algospot/statuses/{sha}",
    "subscribers_url": "https://api.github.com/repos/jongman/algospot/subscribers",
    "subscription_url": "https://api.github.com/repos/jongman/algospot/subscription",
    "svn_url": "https://github.com/jongman/algospot",
    "tags_url": "https://api.github.com/repos/jongman/algospot/tags",
    "teams_url": "https://api.github.com/repos/jongman/algospot/teams",
    "trees_url": "https://api.github.com/repos/jongman/algospot/git/trees{/sha}",
    "updated_at": "2014-03-24T18:53:14Z",
    "url": "https://api.github.com/repos/jongman/algospot",
    "watchers": 44,
    "watchers_count": 44
}