[
    "mdbv0.2",
    "muchmuchstrings",
    "maldb_0.2",
    "manysearches",
    "imports.eula_handler",
    "imports.updatehandler",
    "imports.manysearches",
    "malware-db",
    "mdbv0.2.maldb_0.2",
    "updatehandler",
    "terminal_handler",
    "globals",
    "imports.muchmuchstrings",
    "eula_handler",
    "imports",
    "imports.terminal_handler",
    "imports.globals"
]