{
    "archive_url": "https://api.github.com/repos/shaunduncan/smokesignal/{archive_format}{/ref}",
    "assignees_url": "https://api.github.com/repos/shaunduncan/smokesignal/assignees{/user}",
    "blobs_url": "https://api.github.com/repos/shaunduncan/smokesignal/git/blobs{/sha}",
    "branches_url": "https://api.github.com/repos/shaunduncan/smokesignal/branches{/branch}",
    "clone_url": "https://github.com/shaunduncan/smokesignal.git",
    "collaborators_url": "https://api.github.com/repos/shaunduncan/smokesignal/collaborators{/collaborator}",
    "comments_url": "https://api.github.com/repos/shaunduncan/smokesignal/comments{/number}",
    "commits_url": "https://api.github.com/repos/shaunduncan/smokesignal/commits{/sha}",
    "compare_url": "https://api.github.com/repos/shaunduncan/smokesignal/compare/{base}...{head}",
    "contents_url": "https://api.github.com/repos/shaunduncan/smokesignal/contents/{+path}",
    "contributors_url": "https://api.github.com/repos/shaunduncan/smokesignal/contributors",
    "created_at": "2013-04-28T18:42:15Z",
    "default_branch": "master",
    "description": "Simple python signaling",
    "downloads_url": "https://api.github.com/repos/shaunduncan/smokesignal/downloads",
    "events_url": "https://api.github.com/repos/shaunduncan/smokesignal/events",
    "fork": false,
    "forks": 5,
    "forks_count": 5,
    "forks_url": "https://api.github.com/repos/shaunduncan/smokesignal/forks",
    "full_name": "shaunduncan/smokesignal",
    "git_commits_url": "https://api.github.com/repos/shaunduncan/smokesignal/git/commits{/sha}",
    "git_refs_url": "https://api.github.com/repos/shaunduncan/smokesignal/git/refs{/sha}",
    "git_tags_url": "https://api.github.com/repos/shaunduncan/smokesignal/git/tags{/sha}",
    "git_url": "git://github.com/shaunduncan/smokesignal.git",
    "has_downloads": true,
    "has_issues": true,
    "has_wiki": false,
    "homepage": null,
    "hooks_url": "https://api.github.com/repos/shaunduncan/smokesignal/hooks",
    "html_url": "https://github.com/shaunduncan/smokesignal",
    "id": 9734383,
    "issue_comment_url": "https://api.github.com/repos/shaunduncan/smokesignal/issues/comments/{number}",
    "issue_events_url": "https://api.github.com/repos/shaunduncan/smokesignal/issues/events{/number}",
    "issues_url": "https://api.github.com/repos/shaunduncan/smokesignal/issues{/number}",
    "keys_url": "https://api.github.com/repos/shaunduncan/smokesignal/keys{/key_id}",
    "labels_url": "https://api.github.com/repos/shaunduncan/smokesignal/labels{/name}",
    "language": "Python",
    "languages_url": "https://api.github.com/repos/shaunduncan/smokesignal/languages",
    "merges_url": "https://api.github.com/repos/shaunduncan/smokesignal/merges",
    "milestones_url": "https://api.github.com/repos/shaunduncan/smokesignal/milestones{/number}",
    "mirror_url": null,
    "name": "smokesignal",
    "notifications_url": "https://api.github.com/repos/shaunduncan/smokesignal/notifications{?since,all,participating}",
    "open_issues": 4,
    "open_issues_count": 4,
    "owner": {
        "avatar_url": "https://avatars.githubusercontent.com/u/742067?",
        "events_url": "https://api.github.com/users/shaunduncan/events{/privacy}",
        "followers_url": "https://api.github.com/users/shaunduncan/followers",
        "following_url": "https://api.github.com/users/shaunduncan/following{/other_user}",
        "gists_url": "https://api.github.com/users/shaunduncan/gists{/gist_id}",
        "gravatar_id": "b9b017bdf9d124693f9cf9e8ed81bb8b",
        "html_url": "https://github.com/shaunduncan",
        "id": 742067,
        "login": "shaunduncan",
        "organizations_url": "https://api.github.com/users/shaunduncan/orgs",
        "received_events_url": "https://api.github.com/users/shaunduncan/received_events",
        "repos_url": "https://api.github.com/users/shaunduncan/repos",
        "site_admin": false,
        "starred_url": "https://api.github.com/users/shaunduncan/starred{/owner}{/repo}",
        "subscriptions_url": "https://api.github.com/users/shaunduncan/subscriptions",
        "type": "User",
        "url": "https://api.github.com/users/shaunduncan"
    },
    "private": false,
    "pulls_url": "https://api.github.com/repos/shaunduncan/smokesignal/pulls{/number}",
    "pushed_at": "2014-03-25T11:27:50Z",
    "releases_url": "https://api.github.com/repos/shaunduncan/smokesignal/releases{/id}",
    "score": 1.0,
    "size": 188,
    "ssh_url": "git@github.com:shaunduncan/smokesignal.git",
    "stargazers_count": 85,
    "stargazers_url": "https://api.github.com/repos/shaunduncan/smokesignal/stargazers",
    "statuses_url": "https://api.github.com/repos/shaunduncan/smokesignal/statuses/{sha}",
    "subscribers_url": "https://api.github.com/repos/shaunduncan/smokesignal/subscribers",
    "subscription_url": "https://api.github.com/repos/shaunduncan/smokesignal/subscription",
    "svn_url": "https://github.com/shaunduncan/smokesignal",
    "tags_url": "https://api.github.com/repos/shaunduncan/smokesignal/tags",
    "teams_url": "https://api.github.com/repos/shaunduncan/smokesignal/teams",
    "trees_url": "https://api.github.com/repos/shaunduncan/smokesignal/git/trees{/sha}",
    "updated_at": "2014-03-25T11:27:50Z",
    "url": "https://api.github.com/repos/shaunduncan/smokesignal",
    "watchers": 85,
    "watchers_count": 85
}