{
    "archive_url": "https://api.github.com/repos/RedTuna/mysolr/{archive_format}{/ref}",
    "assignees_url": "https://api.github.com/repos/RedTuna/mysolr/assignees{/user}",
    "blobs_url": "https://api.github.com/repos/RedTuna/mysolr/git/blobs{/sha}",
    "branches_url": "https://api.github.com/repos/RedTuna/mysolr/branches{/branch}",
    "clone_url": "https://github.com/RedTuna/mysolr.git",
    "collaborators_url": "https://api.github.com/repos/RedTuna/mysolr/collaborators{/collaborator}",
    "comments_url": "https://api.github.com/repos/RedTuna/mysolr/comments{/number}",
    "commits_url": "https://api.github.com/repos/RedTuna/mysolr/commits{/sha}",
    "compare_url": "https://api.github.com/repos/RedTuna/mysolr/compare/{base}...{head}",
    "contents_url": "https://api.github.com/repos/RedTuna/mysolr/contents/{+path}",
    "contributors_url": "https://api.github.com/repos/RedTuna/mysolr/contributors",
    "created_at": "2011-07-05T09:52:20Z",
    "default_branch": "dev",
    "description": "Python Solr binding",
    "downloads_url": "https://api.github.com/repos/RedTuna/mysolr/downloads",
    "events_url": "https://api.github.com/repos/RedTuna/mysolr/events",
    "fork": false,
    "forks": 16,
    "forks_count": 16,
    "forks_url": "https://api.github.com/repos/RedTuna/mysolr/forks",
    "full_name": "RedTuna/mysolr",
    "git_commits_url": "https://api.github.com/repos/RedTuna/mysolr/git/commits{/sha}",
    "git_refs_url": "https://api.github.com/repos/RedTuna/mysolr/git/refs{/sha}",
    "git_tags_url": "https://api.github.com/repos/RedTuna/mysolr/git/tags{/sha}",
    "git_url": "git://github.com/RedTuna/mysolr.git",
    "has_downloads": true,
    "has_issues": true,
    "has_wiki": true,
    "homepage": "http://mysolr.redtuna.org",
    "hooks_url": "https://api.github.com/repos/RedTuna/mysolr/hooks",
    "html_url": "https://github.com/RedTuna/mysolr",
    "id": 1999719,
    "issue_comment_url": "https://api.github.com/repos/RedTuna/mysolr/issues/comments/{number}",
    "issue_events_url": "https://api.github.com/repos/RedTuna/mysolr/issues/events{/number}",
    "issues_url": "https://api.github.com/repos/RedTuna/mysolr/issues{/number}",
    "keys_url": "https://api.github.com/repos/RedTuna/mysolr/keys{/key_id}",
    "labels_url": "https://api.github.com/repos/RedTuna/mysolr/labels{/name}",
    "language": "Python",
    "languages_url": "https://api.github.com/repos/RedTuna/mysolr/languages",
    "merges_url": "https://api.github.com/repos/RedTuna/mysolr/merges",
    "milestones_url": "https://api.github.com/repos/RedTuna/mysolr/milestones{/number}",
    "mirror_url": null,
    "name": "mysolr",
    "notifications_url": "https://api.github.com/repos/RedTuna/mysolr/notifications{?since,all,participating}",
    "open_issues": 3,
    "open_issues_count": 3,
    "owner": {
        "avatar_url": "https://avatars.githubusercontent.com/u/1151408?",
        "events_url": "https://api.github.com/users/RedTuna/events{/privacy}",
        "followers_url": "https://api.github.com/users/RedTuna/followers",
        "following_url": "https://api.github.com/users/RedTuna/following{/other_user}",
        "gists_url": "https://api.github.com/users/RedTuna/gists{/gist_id}",
        "gravatar_id": "38953ceb80be56156854763d8fde5137",
        "html_url": "https://github.com/RedTuna",
        "id": 1151408,
        "login": "RedTuna",
        "organizations_url": "https://api.github.com/users/RedTuna/orgs",
        "received_events_url": "https://api.github.com/users/RedTuna/received_events",
        "repos_url": "https://api.github.com/users/RedTuna/repos",
        "site_admin": false,
        "starred_url": "https://api.github.com/users/RedTuna/starred{/owner}{/repo}",
        "subscriptions_url": "https://api.github.com/users/RedTuna/subscriptions",
        "type": "Organization",
        "url": "https://api.github.com/users/RedTuna"
    },
    "private": false,
    "pulls_url": "https://api.github.com/repos/RedTuna/mysolr/pulls{/number}",
    "pushed_at": "2014-04-12T14:59:54Z",
    "releases_url": "https://api.github.com/repos/RedTuna/mysolr/releases{/id}",
    "score": 1.0,
    "size": 625,
    "ssh_url": "git@github.com:RedTuna/mysolr.git",
    "stargazers_count": 63,
    "stargazers_url": "https://api.github.com/repos/RedTuna/mysolr/stargazers",
    "statuses_url": "https://api.github.com/repos/RedTuna/mysolr/statuses/{sha}",
    "subscribers_url": "https://api.github.com/repos/RedTuna/mysolr/subscribers",
    "subscription_url": "https://api.github.com/repos/RedTuna/mysolr/subscription",
    "svn_url": "https://github.com/RedTuna/mysolr",
    "tags_url": "https://api.github.com/repos/RedTuna/mysolr/tags",
    "teams_url": "https://api.github.com/repos/RedTuna/mysolr/teams",
    "trees_url": "https://api.github.com/repos/RedTuna/mysolr/git/trees{/sha}",
    "updated_at": "2014-04-25T13:44:00Z",
    "url": "https://api.github.com/repos/RedTuna/mysolr",
    "watchers": 63,
    "watchers_count": 63
}