{
    "libs": [
        "management",
        "console",
        "S3",
        "djcelery",
        "datetime",
        "sys",
        "memcacheify",
        "api",
        "postgresify",
        "contrib",
        "path",
        "os"
    ]
}