{
    "libs": [
        "parse",
        "logging",
        "importlib",
        "py2neo",
        "models",
        "skip",
        "functools",
        "datetime",
        "sys",
        "re",
        "json",
        "pytz",
        "urlparse",
        "conf",
        "time",
        "exceptions",
        "lucenequerybuilder",
        "copy",
        "os",
        "httpstream",
        "types"
    ]
}