[
    "test.test_batch",
    "test.test_hierarchical",
    "test_batch",
    "neomodel.exception",
    "test_multi_class_relation",
    "test.test_indexing",
    "contrib",
    "test_cardinality",
    "neomodel.contrib.localisation",
    "test.test_hooks",
    "test.test_signals",
    "signals",
    "test_signals",
    "test_relative_relationships",
    "test.test_cardinality",
    "test.test_cypher",
    "test_issue_87",
    "test.test_properties",
    "neomodel.contrib.hierarchical",
    "relationship",
    "neomodel.relationship",
    "exception",
    "test.test_multi_class_relation",
    "traversal",
    "util",
    "test.test_relationship_models",
    "hierarchical",
    "cardinality",
    "test.test_traversal",
    "test_hierarchical",
    "test_localisation",
    "neomodel.signals",
    "semi_structured",
    "neomodel.cardinality",
    "test_semi_structured",
    "test_indexing",
    "contrib.semi_structured",
    "test_cypher",
    "relationship_manager",
    "test_alias",
    "test_issue_79",
    "neomodel.traversal",
    "neomodel",
    "test.test_issue_79",
    "neomodel.util",
    "neomodel.contrib.semi_structured",
    "test_hooks",
    "test_category",
    "neomodel.properties",
    "test.test_relative_relationships",
    "index",
    "test_relationship_models",
    "test.test_issue_87",
    "test_traversal",
    "test.test_models",
    "test_relationships",
    "neomodel.index",
    "test",
    "contrib.hierarchical",
    "neomodel.relationship_manager",
    "test.test_relationships",
    "test.test_alias",
    "test.test_semi_structured",
    "localisation",
    "test_properties",
    "neomodel.core",
    "core",
    "neomodel.contrib",
    "properties",
    "test.test_category",
    "test_models",
    "test.test_localisation",
    "contrib.localisation"
]