{
    "archive_url": "https://api.github.com/repos/Arachnid/aeoid/{archive_format}{/ref}",
    "assignees_url": "https://api.github.com/repos/Arachnid/aeoid/assignees{/user}",
    "blobs_url": "https://api.github.com/repos/Arachnid/aeoid/git/blobs{/sha}",
    "branches_url": "https://api.github.com/repos/Arachnid/aeoid/branches{/branch}",
    "clone_url": "https://github.com/Arachnid/aeoid.git",
    "collaborators_url": "https://api.github.com/repos/Arachnid/aeoid/collaborators{/collaborator}",
    "comments_url": "https://api.github.com/repos/Arachnid/aeoid/comments{/number}",
    "commits_url": "https://api.github.com/repos/Arachnid/aeoid/commits{/sha}",
    "compare_url": "https://api.github.com/repos/Arachnid/aeoid/compare/{base}...{head}",
    "contents_url": "https://api.github.com/repos/Arachnid/aeoid/contents/{+path}",
    "contributors_url": "https://api.github.com/repos/Arachnid/aeoid/contributors",
    "created_at": "2009-12-18T16:04:09Z",
    "default_branch": "master",
    "description": "Easy OpenID support for App Engine",
    "downloads_url": "https://api.github.com/repos/Arachnid/aeoid/downloads",
    "events_url": "https://api.github.com/repos/Arachnid/aeoid/events",
    "fork": false,
    "forks": 2,
    "forks_count": 2,
    "forks_url": "https://api.github.com/repos/Arachnid/aeoid/forks",
    "full_name": "Arachnid/aeoid",
    "git_commits_url": "https://api.github.com/repos/Arachnid/aeoid/git/commits{/sha}",
    "git_refs_url": "https://api.github.com/repos/Arachnid/aeoid/git/refs{/sha}",
    "git_tags_url": "https://api.github.com/repos/Arachnid/aeoid/git/tags{/sha}",
    "git_url": "git://github.com/Arachnid/aeoid.git",
    "has_downloads": true,
    "has_issues": true,
    "has_wiki": true,
    "homepage": "",
    "hooks_url": "https://api.github.com/repos/Arachnid/aeoid/hooks",
    "html_url": "https://github.com/Arachnid/aeoid",
    "id": 441882,
    "issue_comment_url": "https://api.github.com/repos/Arachnid/aeoid/issues/comments/{number}",
    "issue_events_url": "https://api.github.com/repos/Arachnid/aeoid/issues/events{/number}",
    "issues_url": "https://api.github.com/repos/Arachnid/aeoid/issues{/number}",
    "keys_url": "https://api.github.com/repos/Arachnid/aeoid/keys{/key_id}",
    "labels_url": "https://api.github.com/repos/Arachnid/aeoid/labels{/name}",
    "language": "Python",
    "languages_url": "https://api.github.com/repos/Arachnid/aeoid/languages",
    "merges_url": "https://api.github.com/repos/Arachnid/aeoid/merges",
    "milestones_url": "https://api.github.com/repos/Arachnid/aeoid/milestones{/number}",
    "mirror_url": null,
    "name": "aeoid",
    "notifications_url": "https://api.github.com/repos/Arachnid/aeoid/notifications{?since,all,participating}",
    "open_issues": 13,
    "open_issues_count": 13,
    "owner": {
        "avatar_url": "https://avatars.githubusercontent.com/u/17865?",
        "events_url": "https://api.github.com/users/Arachnid/events{/privacy}",
        "followers_url": "https://api.github.com/users/Arachnid/followers",
        "following_url": "https://api.github.com/users/Arachnid/following{/other_user}",
        "gists_url": "https://api.github.com/users/Arachnid/gists{/gist_id}",
        "gravatar_id": "dc69af7dd7151a00843602888638fabb",
        "html_url": "https://github.com/Arachnid",
        "id": 17865,
        "login": "Arachnid",
        "organizations_url": "https://api.github.com/users/Arachnid/orgs",
        "received_events_url": "https://api.github.com/users/Arachnid/received_events",
        "repos_url": "https://api.github.com/users/Arachnid/repos",
        "site_admin": false,
        "starred_url": "https://api.github.com/users/Arachnid/starred{/owner}{/repo}",
        "subscriptions_url": "https://api.github.com/users/Arachnid/subscriptions",
        "type": "User",
        "url": "https://api.github.com/users/Arachnid"
    },
    "private": false,
    "pulls_url": "https://api.github.com/repos/Arachnid/aeoid/pulls{/number}",
    "pushed_at": "2010-03-12T16:44:55Z",
    "releases_url": "https://api.github.com/repos/Arachnid/aeoid/releases{/id}",
    "score": 1.0,
    "size": 282,
    "ssh_url": "git@github.com:Arachnid/aeoid.git",
    "stargazers_count": 53,
    "stargazers_url": "https://api.github.com/repos/Arachnid/aeoid/stargazers",
    "statuses_url": "https://api.github.com/repos/Arachnid/aeoid/statuses/{sha}",
    "subscribers_url": "https://api.github.com/repos/Arachnid/aeoid/subscribers",
    "subscription_url": "https://api.github.com/repos/Arachnid/aeoid/subscription",
    "svn_url": "https://github.com/Arachnid/aeoid",
    "tags_url": "https://api.github.com/repos/Arachnid/aeoid/tags",
    "teams_url": "https://api.github.com/repos/Arachnid/aeoid/teams",
    "trees_url": "https://api.github.com/repos/Arachnid/aeoid/git/trees{/sha}",
    "updated_at": "2013-10-22T13:26:19Z",
    "url": "https://api.github.com/repos/Arachnid/aeoid",
    "watchers": 53,
    "watchers_count": 53
}