{
    "archive_url": "https://api.github.com/repos/graphite-project/ceres/{archive_format}{/ref}",
    "assignees_url": "https://api.github.com/repos/graphite-project/ceres/assignees{/user}",
    "blobs_url": "https://api.github.com/repos/graphite-project/ceres/git/blobs{/sha}",
    "branches_url": "https://api.github.com/repos/graphite-project/ceres/branches{/branch}",
    "clone_url": "https://github.com/graphite-project/ceres.git",
    "collaborators_url": "https://api.github.com/repos/graphite-project/ceres/collaborators{/collaborator}",
    "comments_url": "https://api.github.com/repos/graphite-project/ceres/comments{/number}",
    "commits_url": "https://api.github.com/repos/graphite-project/ceres/commits{/sha}",
    "compare_url": "https://api.github.com/repos/graphite-project/ceres/compare/{base}...{head}",
    "contents_url": "https://api.github.com/repos/graphite-project/ceres/contents/{+path}",
    "contributors_url": "https://api.github.com/repos/graphite-project/ceres/contributors",
    "created_at": "2012-05-08T04:46:23Z",
    "default_branch": "master",
    "description": "Distributable time-series database",
    "downloads_url": "https://api.github.com/repos/graphite-project/ceres/downloads",
    "events_url": "https://api.github.com/repos/graphite-project/ceres/events",
    "fork": false,
    "forks": 48,
    "forks_count": 48,
    "forks_url": "https://api.github.com/repos/graphite-project/ceres/forks",
    "full_name": "graphite-project/ceres",
    "git_commits_url": "https://api.github.com/repos/graphite-project/ceres/git/commits{/sha}",
    "git_refs_url": "https://api.github.com/repos/graphite-project/ceres/git/refs{/sha}",
    "git_tags_url": "https://api.github.com/repos/graphite-project/ceres/git/tags{/sha}",
    "git_url": "git://github.com/graphite-project/ceres.git",
    "has_downloads": true,
    "has_issues": true,
    "has_wiki": false,
    "homepage": null,
    "hooks_url": "https://api.github.com/repos/graphite-project/ceres/hooks",
    "html_url": "https://github.com/graphite-project/ceres",
    "id": 4257297,
    "issue_comment_url": "https://api.github.com/repos/graphite-project/ceres/issues/comments/{number}",
    "issue_events_url": "https://api.github.com/repos/graphite-project/ceres/issues/events{/number}",
    "issues_url": "https://api.github.com/repos/graphite-project/ceres/issues{/number}",
    "keys_url": "https://api.github.com/repos/graphite-project/ceres/keys{/key_id}",
    "labels_url": "https://api.github.com/repos/graphite-project/ceres/labels{/name}",
    "language": "Python",
    "languages_url": "https://api.github.com/repos/graphite-project/ceres/languages",
    "merges_url": "https://api.github.com/repos/graphite-project/ceres/merges",
    "milestones_url": "https://api.github.com/repos/graphite-project/ceres/milestones{/number}",
    "mirror_url": null,
    "name": "ceres",
    "notifications_url": "https://api.github.com/repos/graphite-project/ceres/notifications{?since,all,participating}",
    "open_issues": 9,
    "open_issues_count": 9,
    "owner": {
        "avatar_url": "https://avatars.githubusercontent.com/u/1714806?",
        "events_url": "https://api.github.com/users/graphite-project/events{/privacy}",
        "followers_url": "https://api.github.com/users/graphite-project/followers",
        "following_url": "https://api.github.com/users/graphite-project/following{/other_user}",
        "gists_url": "https://api.github.com/users/graphite-project/gists{/gist_id}",
        "gravatar_id": "6cb9d54d641c957e9bd20b66b366730a",
        "html_url": "https://github.com/graphite-project",
        "id": 1714806,
        "login": "graphite-project",
        "organizations_url": "https://api.github.com/users/graphite-project/orgs",
        "received_events_url": "https://api.github.com/users/graphite-project/received_events",
        "repos_url": "https://api.github.com/users/graphite-project/repos",
        "site_admin": false,
        "starred_url": "https://api.github.com/users/graphite-project/starred{/owner}{/repo}",
        "subscriptions_url": "https://api.github.com/users/graphite-project/subscriptions",
        "type": "Organization",
        "url": "https://api.github.com/users/graphite-project"
    },
    "private": false,
    "pulls_url": "https://api.github.com/repos/graphite-project/ceres/pulls{/number}",
    "pushed_at": "2013-12-21T22:17:42Z",
    "releases_url": "https://api.github.com/repos/graphite-project/ceres/releases{/id}",
    "score": 1.0,
    "size": 292,
    "ssh_url": "git@github.com:graphite-project/ceres.git",
    "stargazers_count": 179,
    "stargazers_url": "https://api.github.com/repos/graphite-project/ceres/stargazers",
    "statuses_url": "https://api.github.com/repos/graphite-project/ceres/statuses/{sha}",
    "subscribers_url": "https://api.github.com/repos/graphite-project/ceres/subscribers",
    "subscription_url": "https://api.github.com/repos/graphite-project/ceres/subscription",
    "svn_url": "https://github.com/graphite-project/ceres",
    "tags_url": "https://api.github.com/repos/graphite-project/ceres/tags",
    "teams_url": "https://api.github.com/repos/graphite-project/ceres/teams",
    "trees_url": "https://api.github.com/repos/graphite-project/ceres/git/trees{/sha}",
    "updated_at": "2014-05-04T08:35:45Z",
    "url": "https://api.github.com/repos/graphite-project/ceres",
    "watchers": 179,
    "watchers_count": 179
}