{
    "libs": [
        "shortcuts",
        "random",
        "datetime",
        "query",
        "timezone",
        "django",
        "tools",
        "paginator",
        "style",
        "importlib",
        "re",
        "json",
        "collections",
        "template",
        "decorators",
        "compat",
        "string",
        "simplejson",
        "warnings",
        "optparse",
        "djappsettings",
        "inspect",
        "sys",
        "v2",
        "pytz",
        "registry",
        "logging",
        "b",
        "sphinx",
        "djcelery",
        "datab",
        "token",
        "client",
        "django_tables2",
        "urlresolvers",
        "os"
    ]
}