{
    "libs": [
        "audiodevicesb",
        "OpenGL",
        "SystemInfo",
        "random",
        "PublishSubscribe",
        "Location",
        "path",
        "cpickle",
        "QtMaemo5",
        "QtGui",
        "QtMobility",
        "ServiceFramework",
        "Contacts",
        "re",
        "collections",
        "QtWebKit",
        "Sensors",
        "Gallery",
        "math",
        "cl",
        "PySide",
        "QtDeclarative",
        "wave",
        "sys",
        "Messaging",
        "b",
        "pickle",
        "GL",
        "QtOpenGL",
        "struct",
        "Versit",
        "e",
        "Feedback",
        "QtCore",
        "MultimediaKit",
        "weakref",
        "Organizer",
        "os",
        "QtNetwork"
    ]
}