{
    "libs": [
        "unicode_literals",
        "locale",
        "shutil",
        "posixpath",
        "pprint",
        "urllib",
        "re",
        "json",
        "cProfile",
        "time",
        "bin",
        "cPickle",
        "inspect",
        "sys",
        "codecs",
        "path",
        "argparse",
        "httplib",
        "logging",
        "socket",
        "h",
        "signal",
        "traceback",
        "doctest",
        "pstats",
        "requests",
        "os"
    ]
}