{
    "archive_url": "https://api.github.com/repos/andrewschaaf/pyxc-pj/{archive_format}{/ref}",
    "assignees_url": "https://api.github.com/repos/andrewschaaf/pyxc-pj/assignees{/user}",
    "blobs_url": "https://api.github.com/repos/andrewschaaf/pyxc-pj/git/blobs{/sha}",
    "branches_url": "https://api.github.com/repos/andrewschaaf/pyxc-pj/branches{/branch}",
    "clone_url": "https://github.com/andrewschaaf/pyxc-pj.git",
    "collaborators_url": "https://api.github.com/repos/andrewschaaf/pyxc-pj/collaborators{/collaborator}",
    "comments_url": "https://api.github.com/repos/andrewschaaf/pyxc-pj/comments{/number}",
    "commits_url": "https://api.github.com/repos/andrewschaaf/pyxc-pj/commits{/sha}",
    "compare_url": "https://api.github.com/repos/andrewschaaf/pyxc-pj/compare/{base}...{head}",
    "contents_url": "https://api.github.com/repos/andrewschaaf/pyxc-pj/contents/{+path}",
    "contributors_url": "https://api.github.com/repos/andrewschaaf/pyxc-pj/contributors",
    "created_at": "2010-10-28T21:08:19Z",
    "default_branch": "master",
    "description": "A Python to JavaScript compiler, similar in spirit to CoffeeScript",
    "downloads_url": "https://api.github.com/repos/andrewschaaf/pyxc-pj/downloads",
    "events_url": "https://api.github.com/repos/andrewschaaf/pyxc-pj/events",
    "fork": false,
    "forks": 4,
    "forks_count": 4,
    "forks_url": "https://api.github.com/repos/andrewschaaf/pyxc-pj/forks",
    "full_name": "andrewschaaf/pyxc-pj",
    "git_commits_url": "https://api.github.com/repos/andrewschaaf/pyxc-pj/git/commits{/sha}",
    "git_refs_url": "https://api.github.com/repos/andrewschaaf/pyxc-pj/git/refs{/sha}",
    "git_tags_url": "https://api.github.com/repos/andrewschaaf/pyxc-pj/git/tags{/sha}",
    "git_url": "git://github.com/andrewschaaf/pyxc-pj.git",
    "has_downloads": true,
    "has_issues": true,
    "has_wiki": true,
    "homepage": "",
    "hooks_url": "https://api.github.com/repos/andrewschaaf/pyxc-pj/hooks",
    "html_url": "https://github.com/andrewschaaf/pyxc-pj",
    "id": 1033194,
    "issue_comment_url": "https://api.github.com/repos/andrewschaaf/pyxc-pj/issues/comments/{number}",
    "issue_events_url": "https://api.github.com/repos/andrewschaaf/pyxc-pj/issues/events{/number}",
    "issues_url": "https://api.github.com/repos/andrewschaaf/pyxc-pj/issues{/number}",
    "keys_url": "https://api.github.com/repos/andrewschaaf/pyxc-pj/keys{/key_id}",
    "labels_url": "https://api.github.com/repos/andrewschaaf/pyxc-pj/labels{/name}",
    "language": "Python",
    "languages_url": "https://api.github.com/repos/andrewschaaf/pyxc-pj/languages",
    "merges_url": "https://api.github.com/repos/andrewschaaf/pyxc-pj/merges",
    "milestones_url": "https://api.github.com/repos/andrewschaaf/pyxc-pj/milestones{/number}",
    "mirror_url": null,
    "name": "pyxc-pj",
    "notifications_url": "https://api.github.com/repos/andrewschaaf/pyxc-pj/notifications{?since,all,participating}",
    "open_issues": 9,
    "open_issues_count": 9,
    "owner": {
        "avatar_url": "https://avatars.githubusercontent.com/u/41079?",
        "events_url": "https://api.github.com/users/andrewschaaf/events{/privacy}",
        "followers_url": "https://api.github.com/users/andrewschaaf/followers",
        "following_url": "https://api.github.com/users/andrewschaaf/following{/other_user}",
        "gists_url": "https://api.github.com/users/andrewschaaf/gists{/gist_id}",
        "gravatar_id": "44d893fd199a738af87be86b792ac794",
        "html_url": "https://github.com/andrewschaaf",
        "id": 41079,
        "login": "andrewschaaf",
        "organizations_url": "https://api.github.com/users/andrewschaaf/orgs",
        "received_events_url": "https://api.github.com/users/andrewschaaf/received_events",
        "repos_url": "https://api.github.com/users/andrewschaaf/repos",
        "site_admin": false,
        "starred_url": "https://api.github.com/users/andrewschaaf/starred{/owner}{/repo}",
        "subscriptions_url": "https://api.github.com/users/andrewschaaf/subscriptions",
        "type": "User",
        "url": "https://api.github.com/users/andrewschaaf"
    },
    "private": false,
    "pulls_url": "https://api.github.com/repos/andrewschaaf/pyxc-pj/pulls{/number}",
    "pushed_at": "2010-12-22T15:49:44Z",
    "releases_url": "https://api.github.com/repos/andrewschaaf/pyxc-pj/releases{/id}",
    "score": 1.0,
    "size": 124,
    "ssh_url": "git@github.com:andrewschaaf/pyxc-pj.git",
    "stargazers_count": 48,
    "stargazers_url": "https://api.github.com/repos/andrewschaaf/pyxc-pj/stargazers",
    "statuses_url": "https://api.github.com/repos/andrewschaaf/pyxc-pj/statuses/{sha}",
    "subscribers_url": "https://api.github.com/repos/andrewschaaf/pyxc-pj/subscribers",
    "subscription_url": "https://api.github.com/repos/andrewschaaf/pyxc-pj/subscription",
    "svn_url": "https://github.com/andrewschaaf/pyxc-pj",
    "tags_url": "https://api.github.com/repos/andrewschaaf/pyxc-pj/tags",
    "teams_url": "https://api.github.com/repos/andrewschaaf/pyxc-pj/teams",
    "trees_url": "https://api.github.com/repos/andrewschaaf/pyxc-pj/git/trees{/sha}",
    "updated_at": "2013-11-11T04:25:23Z",
    "url": "https://api.github.com/repos/andrewschaaf/pyxc-pj",
    "watchers": 48,
    "watchers_count": 48
}