{
    "libs": [
        "pylab",
        "random",
        "subprocess",
        "io",
        "fileinput",
        "inf",
        "size",
        "stats",
        "importlib",
        "imp",
        "tempfile",
        "pyplot",
        "pprint",
        "datetime",
        "re",
        "json",
        "internal",
        "collections",
        "forest",
        "zeros",
        "numpy",
        "ensemble",
        "math",
        "sort",
        "core",
        "cPickle",
        "protobuf",
        "linalg",
        "optparse",
        "sys",
        "ones",
        "floor",
        "eye",
        "copy",
        "fl",
        "optimize",
        "weave",
        "cos",
        "socket",
        "pickle",
        "signal",
        "traceback",
        "argsort",
        "drmaa",
        "eigh",
        "doctest",
        "time",
        "joblib",
        "outer",
        "os",
        "multiprocessing",
        "dot"
    ]
}