[
    "wsgi",
    "swingtime.models",
    "demo",
    "utils",
    "manage",
    "swingtime_settings",
    "demo.demo_site.settings",
    "conf",
    "swingtime.admin",
    "swingtime.views",
    "demo_site.settings",
    "demo_site.wsgi",
    "karate.models",
    "context_processors",
    "karate.views",
    "management",
    "karate.management.commands.loaddemo",
    "demo.demo_site.urls",
    "demo.karate.urls",
    "conf.swingtime_settings",
    "karate.urls",
    "loaddemo",
    "demo.karate.views",
    "swingtime.tests",
    "swingtime.conf.swingtime_settings",
    "demo.demo_site.wsgi",
    "management.commands.loaddemo",
    "commands.loaddemo",
    "demo.karate.management.commands.loaddemo",
    "tests",
    "demo.karate.management",
    "demo_site.swingtime_settings",
    "views",
    "models",
    "docs",
    "swingtime.forms",
    "demo.karate",
    "docs.conf",
    "swingtime.conf",
    "commands",
    "swingtime.utils",
    "demo.demo_site.swingtime_settings",
    "settings",
    "admin",
    "swingtime.urls",
    "swingtime",
    "demo_site.urls",
    "swingtime.context_processors",
    "karate",
    "management.commands",
    "karate.management",
    "urls",
    "forms",
    "demo_site",
    "karate.management.commands",
    "demo.karate.models",
    "demo.demo_site",
    "demo.karate.management.commands",
    "demo.manage"
]