[
    "django_quicky.namegen",
    "utils",
    "management.commands.clear_sessions",
    "namegen",
    "django_quicky.context_processors",
    "names",
    "django_quicky.utils",
    "django_quicky.management.commands.clear_sessions",
    "context_processors",
    "management",
    "namegen.names",
    "clear_sessions",
    "namegen.namegen",
    "django_quicky.decorators",
    "django_quicky.namegen.names",
    "django_quicky.management",
    "introspection",
    "django_quicky",
    "django_quicky.namegen.namegen",
    "decorators",
    "models",
    "django_quicky.management.commands",
    "templatetags.introspection",
    "django_quicky.models",
    "commands",
    "django_quicky.fields",
    "fields",
    "middleware",
    "templatetags",
    "commands.clear_sessions",
    "django_quicky.middleware",
    "django_quicky.templatetags",
    "management.commands",
    "django_quicky.templatetags.introspection"
]