{
    "archive_url": "https://api.github.com/repos/satanas/Turpial/{archive_format}{/ref}",
    "assignees_url": "https://api.github.com/repos/satanas/Turpial/assignees{/user}",
    "blobs_url": "https://api.github.com/repos/satanas/Turpial/git/blobs{/sha}",
    "branches_url": "https://api.github.com/repos/satanas/Turpial/branches{/branch}",
    "clone_url": "https://github.com/satanas/Turpial.git",
    "collaborators_url": "https://api.github.com/repos/satanas/Turpial/collaborators{/collaborator}",
    "comments_url": "https://api.github.com/repos/satanas/Turpial/comments{/number}",
    "commits_url": "https://api.github.com/repos/satanas/Turpial/commits{/sha}",
    "compare_url": "https://api.github.com/repos/satanas/Turpial/compare/{base}...{head}",
    "contents_url": "https://api.github.com/repos/satanas/Turpial/contents/{+path}",
    "contributors_url": "https://api.github.com/repos/satanas/Turpial/contributors",
    "created_at": "2010-03-14T14:22:52Z",
    "default_branch": "development",
    "description": "Twitter client written in Python. Light, fast, fully functional and integrated to the user desktop",
    "downloads_url": "https://api.github.com/repos/satanas/Turpial/downloads",
    "events_url": "https://api.github.com/repos/satanas/Turpial/events",
    "fork": false,
    "forks": 55,
    "forks_count": 55,
    "forks_url": "https://api.github.com/repos/satanas/Turpial/forks",
    "full_name": "satanas/Turpial",
    "git_commits_url": "https://api.github.com/repos/satanas/Turpial/git/commits{/sha}",
    "git_refs_url": "https://api.github.com/repos/satanas/Turpial/git/refs{/sha}",
    "git_tags_url": "https://api.github.com/repos/satanas/Turpial/git/tags{/sha}",
    "git_url": "git://github.com/satanas/Turpial.git",
    "has_downloads": true,
    "has_issues": true,
    "has_wiki": false,
    "homepage": "http://turpial.org.ve",
    "hooks_url": "https://api.github.com/repos/satanas/Turpial/hooks",
    "html_url": "https://github.com/satanas/Turpial",
    "id": 561930,
    "issue_comment_url": "https://api.github.com/repos/satanas/Turpial/issues/comments/{number}",
    "issue_events_url": "https://api.github.com/repos/satanas/Turpial/issues/events{/number}",
    "issues_url": "https://api.github.com/repos/satanas/Turpial/issues{/number}",
    "keys_url": "https://api.github.com/repos/satanas/Turpial/keys{/key_id}",
    "labels_url": "https://api.github.com/repos/satanas/Turpial/labels{/name}",
    "language": "Python",
    "languages_url": "https://api.github.com/repos/satanas/Turpial/languages",
    "merges_url": "https://api.github.com/repos/satanas/Turpial/merges",
    "milestones_url": "https://api.github.com/repos/satanas/Turpial/milestones{/number}",
    "mirror_url": null,
    "name": "Turpial",
    "notifications_url": "https://api.github.com/repos/satanas/Turpial/notifications{?since,all,participating}",
    "open_issues": 50,
    "open_issues_count": 50,
    "owner": {
        "avatar_url": "https://avatars.githubusercontent.com/u/29679?",
        "events_url": "https://api.github.com/users/satanas/events{/privacy}",
        "followers_url": "https://api.github.com/users/satanas/followers",
        "following_url": "https://api.github.com/users/satanas/following{/other_user}",
        "gists_url": "https://api.github.com/users/satanas/gists{/gist_id}",
        "gravatar_id": "3b311b01a3eab79a08ad035fc457012a",
        "html_url": "https://github.com/satanas",
        "id": 29679,
        "login": "satanas",
        "organizations_url": "https://api.github.com/users/satanas/orgs",
        "received_events_url": "https://api.github.com/users/satanas/received_events",
        "repos_url": "https://api.github.com/users/satanas/repos",
        "site_admin": false,
        "starred_url": "https://api.github.com/users/satanas/starred{/owner}{/repo}",
        "subscriptions_url": "https://api.github.com/users/satanas/subscriptions",
        "type": "User",
        "url": "https://api.github.com/users/satanas"
    },
    "private": false,
    "pulls_url": "https://api.github.com/repos/satanas/Turpial/pulls{/number}",
    "pushed_at": "2014-05-06T01:20:07Z",
    "releases_url": "https://api.github.com/repos/satanas/Turpial/releases{/id}",
    "score": 1.0,
    "size": 10804,
    "ssh_url": "git@github.com:satanas/Turpial.git",
    "stargazers_count": 155,
    "stargazers_url": "https://api.github.com/repos/satanas/Turpial/stargazers",
    "statuses_url": "https://api.github.com/repos/satanas/Turpial/statuses/{sha}",
    "subscribers_url": "https://api.github.com/repos/satanas/Turpial/subscribers",
    "subscription_url": "https://api.github.com/repos/satanas/Turpial/subscription",
    "svn_url": "https://github.com/satanas/Turpial",
    "tags_url": "https://api.github.com/repos/satanas/Turpial/tags",
    "teams_url": "https://api.github.com/repos/satanas/Turpial/teams",
    "trees_url": "https://api.github.com/repos/satanas/Turpial/git/trees{/sha}",
    "updated_at": "2014-05-06T01:20:07Z",
    "url": "https://api.github.com/repos/satanas/Turpial",
    "watchers": 155,
    "watchers_count": 155
}