[
    "tests.basic_tests.app2.models",
    "app2.models",
    "app",
    "tests.model_tests",
    "tests.basic_tests.app.signals",
    "basic_tests.app",
    "examples.hello",
    "model_tests.app.signals",
    "app.models",
    "basic_tests.app2",
    "tests.model_tests.app.models",
    "signals",
    "source",
    "fabfile",
    "main",
    "model_tests.test_app",
    "app.forms",
    "tests.basic_tests.app.tests",
    "tests",
    "tests.basic_tests.app2.views",
    "importd.urlconf",
    "views",
    "docs",
    "source.conf",
    "basic_tests.app.views",
    "tests.basic_tests.app2",
    "app.signals",
    "tests.model_tests.test_app",
    "model_tests.app",
    "app2",
    "tests.basic_tests.app.forms",
    "test_app",
    "tests.basic_tests.app.views",
    "basic_tests.app.forms",
    "app.views",
    "tests.model_tests.app.signals",
    "examples",
    "conf",
    "tests.model_tests.app.views",
    "importd",
    "docs.source",
    "model_tests.app.models",
    "model_tests.app.views",
    "tests.basic_tests.main",
    "docs.source.conf",
    "model_tests.app.forms",
    "tests.model_tests.app.tests",
    "basic_tests.app.models",
    "foo",
    "app.tests",
    "model_tests",
    "basic_tests",
    "models",
    "basic_tests.app.tests",
    "basic_tests.app2.models",
    "tests.model_tests.app.forms",
    "basic_tests.app2.views",
    "tests.basic_tests",
    "model_tests.app.tests",
    "basic_tests.app.signals",
    "tests.basic_tests.app",
    "basic_tests.main",
    "tests.model_tests.app",
    "app2.views",
    "tests.basic_tests.app.models",
    "forms",
    "examples.foo",
    "hello",
    "urlconf"
]