{
    "libs": [
        "code",
        "functools",
        "random",
        "absolute_import",
        "datetime",
        "gc",
        "style",
        "Shell",
        "builtins",
        "uuid",
        "blueprintapp",
        "tempfile",
        "imp",
        "collections",
        "cProfile",
        "string",
        "textwrap",
        "dat",
        "config_package_app",
        "jinja2",
        "minitwit_tests",
        "httplib",
        "h",
        "pydoc",
        "threading",
        "token",
        "greenlet",
        "cStringIO",
        "with_statement",
        "redis",
        "site_package",
        "re",
        "ntpath",
        "pylibmc",
        "inspect",
        "subdomaintestmodule",
        "ctypes",
        "codecs",
        "path",
        "print_function",
        "pkgutil",
        "StringIO",
        "traceback",
        "pkg_resources",
        "weakref",
        "itertools",
        "pstats",
        "os",
        "unittest",
        "__builtin__",
        "api",
        "operator",
        "posixpath",
        "entities",
        "errno",
        "tokenize",
        "simplejson",
        "memcache",
        "copy",
        "unicodedata",
        "zlib",
        "error",
        "fnmatch",
        "embed",
        "pickle",
        "installed_package",
        "contextlib",
        "io",
        "shutil",
        "lxml",
        "moduleapp",
        "html",
        "getopt",
        "profile",
        "mimetypes",
        "warnings",
        "htmlentitydefs",
        "urllib2",
        "sys",
        "fl",
        "types",
        "request",
        "urlparse",
        "time",
        "egg",
        "hmac"
    ]
}