{
    "libs": [
        "test_capability_capnp",
        "subprocess",
        "gc",
        "eval_capnp",
        "internal",
        "protobuf",
        "timeit",
        "importlib",
        "tempfile",
        "platform",
        "json",
        "pytest",
        "test_capnp",
        "common_f",
        "math",
        "random",
        "string",
        "calculator_capnp",
        "carsales_capnp",
        "addressbook_capnp",
        "sys",
        "pyximport",
        "print_function",
        "argparse",
        "catrank_capnp",
        "socket",
        "itertools",
        "capnp",
        "path",
        "os"
    ]
}