[
    "flaskcamel.config",
    "decorators",
    "views",
    "models",
    "hooks",
    "flaskcamel.decorators",
    "flaskcamel.hooks",
    "forms",
    "flaskcamel.models",
    "flaskcamel",
    "manage",
    "flaskcamel.forms",
    "config",
    "flaskcamel.views"
]