{
    "archive_url": "https://api.github.com/repos/major/supernova/{archive_format}{/ref}",
    "assignees_url": "https://api.github.com/repos/major/supernova/assignees{/user}",
    "blobs_url": "https://api.github.com/repos/major/supernova/git/blobs{/sha}",
    "branches_url": "https://api.github.com/repos/major/supernova/branches{/branch}",
    "clone_url": "https://github.com/major/supernova.git",
    "collaborators_url": "https://api.github.com/repos/major/supernova/collaborators{/collaborator}",
    "comments_url": "https://api.github.com/repos/major/supernova/comments{/number}",
    "commits_url": "https://api.github.com/repos/major/supernova/commits{/sha}",
    "compare_url": "https://api.github.com/repos/major/supernova/compare/{base}...{head}",
    "contents_url": "https://api.github.com/repos/major/supernova/contents/{+path}",
    "contributors_url": "https://api.github.com/repos/major/supernova/contributors",
    "created_at": "2012-04-14T21:56:08Z",
    "default_branch": "master",
    "description": "Use novaclient with multiple OpenStack nova environments the easy way",
    "downloads_url": "https://api.github.com/repos/major/supernova/downloads",
    "events_url": "https://api.github.com/repos/major/supernova/events",
    "fork": false,
    "forks": 36,
    "forks_count": 36,
    "forks_url": "https://api.github.com/repos/major/supernova/forks",
    "full_name": "major/supernova",
    "git_commits_url": "https://api.github.com/repos/major/supernova/git/commits{/sha}",
    "git_refs_url": "https://api.github.com/repos/major/supernova/git/refs{/sha}",
    "git_tags_url": "https://api.github.com/repos/major/supernova/git/tags{/sha}",
    "git_url": "git://github.com/major/supernova.git",
    "has_downloads": true,
    "has_issues": true,
    "has_wiki": false,
    "homepage": "http://supernova.readthedocs.org/",
    "hooks_url": "https://api.github.com/repos/major/supernova/hooks",
    "html_url": "https://github.com/major/supernova",
    "id": 4028083,
    "issue_comment_url": "https://api.github.com/repos/major/supernova/issues/comments/{number}",
    "issue_events_url": "https://api.github.com/repos/major/supernova/issues/events{/number}",
    "issues_url": "https://api.github.com/repos/major/supernova/issues{/number}",
    "keys_url": "https://api.github.com/repos/major/supernova/keys{/key_id}",
    "labels_url": "https://api.github.com/repos/major/supernova/labels{/name}",
    "language": "Python",
    "languages_url": "https://api.github.com/repos/major/supernova/languages",
    "merges_url": "https://api.github.com/repos/major/supernova/merges",
    "milestones_url": "https://api.github.com/repos/major/supernova/milestones{/number}",
    "mirror_url": null,
    "name": "supernova",
    "notifications_url": "https://api.github.com/repos/major/supernova/notifications{?since,all,participating}",
    "open_issues": 3,
    "open_issues_count": 3,
    "owner": {
        "avatar_url": "https://avatars.githubusercontent.com/u/89910?",
        "events_url": "https://api.github.com/users/major/events{/privacy}",
        "followers_url": "https://api.github.com/users/major/followers",
        "following_url": "https://api.github.com/users/major/following{/other_user}",
        "gists_url": "https://api.github.com/users/major/gists{/gist_id}",
        "gravatar_id": "b6a6a6a079bb6bfd8474eee37d7b5b86",
        "html_url": "https://github.com/major",
        "id": 89910,
        "login": "major",
        "organizations_url": "https://api.github.com/users/major/orgs",
        "received_events_url": "https://api.github.com/users/major/received_events",
        "repos_url": "https://api.github.com/users/major/repos",
        "site_admin": false,
        "starred_url": "https://api.github.com/users/major/starred{/owner}{/repo}",
        "subscriptions_url": "https://api.github.com/users/major/subscriptions",
        "type": "User",
        "url": "https://api.github.com/users/major"
    },
    "private": false,
    "pulls_url": "https://api.github.com/repos/major/supernova/pulls{/number}",
    "pushed_at": "2014-05-06T07:09:59Z",
    "releases_url": "https://api.github.com/repos/major/supernova/releases{/id}",
    "score": 1.0,
    "size": 582,
    "ssh_url": "git@github.com:major/supernova.git",
    "stargazers_count": 60,
    "stargazers_url": "https://api.github.com/repos/major/supernova/stargazers",
    "statuses_url": "https://api.github.com/repos/major/supernova/statuses/{sha}",
    "subscribers_url": "https://api.github.com/repos/major/supernova/subscribers",
    "subscription_url": "https://api.github.com/repos/major/supernova/subscription",
    "svn_url": "https://github.com/major/supernova",
    "tags_url": "https://api.github.com/repos/major/supernova/tags",
    "teams_url": "https://api.github.com/repos/major/supernova/teams",
    "trees_url": "https://api.github.com/repos/major/supernova/git/trees{/sha}",
    "updated_at": "2014-05-06T07:09:59Z",
    "url": "https://api.github.com/repos/major/supernova",
    "watchers": 60,
    "watchers_count": 60
}