{
    "archive_url": "https://api.github.com/repos/Rotten194/flickr-fuse/{archive_format}{/ref}",
    "assignees_url": "https://api.github.com/repos/Rotten194/flickr-fuse/assignees{/user}",
    "blobs_url": "https://api.github.com/repos/Rotten194/flickr-fuse/git/blobs{/sha}",
    "branches_url": "https://api.github.com/repos/Rotten194/flickr-fuse/branches{/branch}",
    "clone_url": "https://github.com/Rotten194/flickr-fuse.git",
    "collaborators_url": "https://api.github.com/repos/Rotten194/flickr-fuse/collaborators{/collaborator}",
    "comments_url": "https://api.github.com/repos/Rotten194/flickr-fuse/comments{/number}",
    "commits_url": "https://api.github.com/repos/Rotten194/flickr-fuse/commits{/sha}",
    "compare_url": "https://api.github.com/repos/Rotten194/flickr-fuse/compare/{base}...{head}",
    "contents_url": "https://api.github.com/repos/Rotten194/flickr-fuse/contents/{+path}",
    "contributors_url": "https://api.github.com/repos/Rotten194/flickr-fuse/contributors",
    "created_at": "2013-05-23T13:09:08Z",
    "default_branch": "master",
    "description": "Take advantage of Flickr's new terabyte storage limit by turning it into a bad network filesystem with FUSE",
    "downloads_url": "https://api.github.com/repos/Rotten194/flickr-fuse/downloads",
    "events_url": "https://api.github.com/repos/Rotten194/flickr-fuse/events",
    "fork": false,
    "forks": 4,
    "forks_count": 4,
    "forks_url": "https://api.github.com/repos/Rotten194/flickr-fuse/forks",
    "full_name": "Rotten194/flickr-fuse",
    "git_commits_url": "https://api.github.com/repos/Rotten194/flickr-fuse/git/commits{/sha}",
    "git_refs_url": "https://api.github.com/repos/Rotten194/flickr-fuse/git/refs{/sha}",
    "git_tags_url": "https://api.github.com/repos/Rotten194/flickr-fuse/git/tags{/sha}",
    "git_url": "git://github.com/Rotten194/flickr-fuse.git",
    "has_downloads": true,
    "has_issues": true,
    "has_wiki": true,
    "homepage": null,
    "hooks_url": "https://api.github.com/repos/Rotten194/flickr-fuse/hooks",
    "html_url": "https://github.com/Rotten194/flickr-fuse",
    "id": 10243973,
    "issue_comment_url": "https://api.github.com/repos/Rotten194/flickr-fuse/issues/comments/{number}",
    "issue_events_url": "https://api.github.com/repos/Rotten194/flickr-fuse/issues/events{/number}",
    "issues_url": "https://api.github.com/repos/Rotten194/flickr-fuse/issues{/number}",
    "keys_url": "https://api.github.com/repos/Rotten194/flickr-fuse/keys{/key_id}",
    "labels_url": "https://api.github.com/repos/Rotten194/flickr-fuse/labels{/name}",
    "language": "Python",
    "languages_url": "https://api.github.com/repos/Rotten194/flickr-fuse/languages",
    "merges_url": "https://api.github.com/repos/Rotten194/flickr-fuse/merges",
    "milestones_url": "https://api.github.com/repos/Rotten194/flickr-fuse/milestones{/number}",
    "mirror_url": null,
    "name": "flickr-fuse",
    "notifications_url": "https://api.github.com/repos/Rotten194/flickr-fuse/notifications{?since,all,participating}",
    "open_issues": 0,
    "open_issues_count": 0,
    "owner": {
        "avatar_url": "https://avatars.githubusercontent.com/u/980096?",
        "events_url": "https://api.github.com/users/Rotten194/events{/privacy}",
        "followers_url": "https://api.github.com/users/Rotten194/followers",
        "following_url": "https://api.github.com/users/Rotten194/following{/other_user}",
        "gists_url": "https://api.github.com/users/Rotten194/gists{/gist_id}",
        "gravatar_id": "46270a02b45a8009e9502204bec3bfac",
        "html_url": "https://github.com/Rotten194",
        "id": 980096,
        "login": "Rotten194",
        "organizations_url": "https://api.github.com/users/Rotten194/orgs",
        "received_events_url": "https://api.github.com/users/Rotten194/received_events",
        "repos_url": "https://api.github.com/users/Rotten194/repos",
        "site_admin": false,
        "starred_url": "https://api.github.com/users/Rotten194/starred{/owner}{/repo}",
        "subscriptions_url": "https://api.github.com/users/Rotten194/subscriptions",
        "type": "User",
        "url": "https://api.github.com/users/Rotten194"
    },
    "private": false,
    "pulls_url": "https://api.github.com/repos/Rotten194/flickr-fuse/pulls{/number}",
    "pushed_at": "2013-05-23T14:25:15Z",
    "releases_url": "https://api.github.com/repos/Rotten194/flickr-fuse/releases{/id}",
    "score": 1.0,
    "size": 101,
    "ssh_url": "git@github.com:Rotten194/flickr-fuse.git",
    "stargazers_count": 52,
    "stargazers_url": "https://api.github.com/repos/Rotten194/flickr-fuse/stargazers",
    "statuses_url": "https://api.github.com/repos/Rotten194/flickr-fuse/statuses/{sha}",
    "subscribers_url": "https://api.github.com/repos/Rotten194/flickr-fuse/subscribers",
    "subscription_url": "https://api.github.com/repos/Rotten194/flickr-fuse/subscription",
    "svn_url": "https://github.com/Rotten194/flickr-fuse",
    "tags_url": "https://api.github.com/repos/Rotten194/flickr-fuse/tags",
    "teams_url": "https://api.github.com/repos/Rotten194/flickr-fuse/teams",
    "trees_url": "https://api.github.com/repos/Rotten194/flickr-fuse/git/trees{/sha}",
    "updated_at": "2013-12-10T22:07:33Z",
    "url": "https://api.github.com/repos/Rotten194/flickr-fuse",
    "watchers": 52,
    "watchers_count": 52
}