[
    "rstblog.modules.blog",
    "bootstrap",
    "tags",
    "modules.latex",
    "utils",
    "rstblog.config",
    "modules.disqus",
    "rstblog.signals",
    "pygments",
    "modules.tags",
    "rstblog.modules",
    "blog",
    "modules.pygments",
    "disqus",
    "rstblog.cli",
    "rstblog.utils",
    "latex",
    "rstblog.modules.pygments",
    "modules.blog",
    "cli",
    "rstblog.modules.latex",
    "rstblog.server",
    "builder",
    "rstblog.modules.disqus",
    "modules",
    "server",
    "signals",
    "rstblog.builder",
    "programs",
    "rstblog",
    "rstblog.modules.tags",
    "rstblog.programs",
    "config"
]