{
    "libs": [
        "locale",
        "tarfile",
        "unittest",
        "rpdb2",
        "subprocess",
        "datetime",
        "parse",
        "platform",
        "io",
        "fileinput",
        "operator",
        "shutil",
        "mako",
        "Shell",
        "uuid",
        "re",
        "tempfile",
        "six",
        "blogofile_bf",
        "yaml",
        "feedparser",
        "lookup",
        "print_function",
        "moves",
        "unittest2",
        "mock",
        "NOQA",
        "sqlalchemy",
        "unidecode",
        "sys",
        "markupsafe",
        "declarative",
        "jinja2",
        "imp",
        "codecs",
        "path",
        "copy",
        "types",
        "argparse",
        "b",
        "logging",
        "pickle",
        "pkg_resources",
        "urlparse",
        "threading",
        "orm",
        "selenium",
        "shlex",
        "time",
        "exceptions",
        "os"
    ]
}