[
    "opps.containers.migrations.0014_add_unique_together",
    "api.migrations.0001_initial",
    "_site.runner",
    "json_views",
    "db.backends.postgresql_psycopg2.base",
    "flatpages",
    "opps.articles.models",
    "containers.test_models",
    "contrib.logging.urls_api",
    "opps.articles.admin",
    "opps.contrib.mobile.middleware",
    "opps.fields.models",
    "fileupload.templatetags.upload_tags",
    "contrib.logging.models",
    "migrations.0003_auto__add_field_channel_hat",
    "opps.containers.migrations.0002_auto__add_field_containerboxcontainers_hat",
    "opps.sitemaps.migrations.0001_initial",
    "migrations.0003_auto",
    "api.migrations",
    "opps.articles.migrations.0001_initial",
    "opps.contrib.fileupload",
    "opps.core.managers",
    "contrib.logging",
    "0016_auto__add_mirror__add_field_containerbox_main_image__add_field_contain",
    "opps.db.models.fields.jsonf",
    "example.wsgi",
    "boxes.migrations.0005_auto__add_field_queryset_recursive",
    "channels.migrations.0001_initial",
    "opps.contrib.admin.models",
    "opps.db.models.fields.subclassing",
    "contrib.notifications.tests",
    "opps.sitemaps.sitemaps",
    "opps.flatpages",
    "opps.articles.views",
    "contrib.middleware",
    "containers.forms",
    "channels.migrations.0003_auto__add_field_channel_hat",
    "opps.core.models",
    "tests.views.test_generic_detail",
    "list",
    "opps.channels.migrations.0002_auto",
    "tags.models",
    "contrib.admin",
    "core.models",
    "contrib.notifications.urls",
    "migrations.0004_auto__add_field_queryset_excludes",
    "db.models.fields",
    "contrib.notifications.migrations.0002_auto__add_field_notification_channel_long_slug__add_field_notification",
    "_redis",
    "opps.containers.templatetags",
    "contrib.admin.templatetags.admin_shortcuts_tags",
    "upload_tags",
    "notifications.tests",
    "core.cache",
    "migrations.0002_auto__add_index_logging_text__chg_field_logging_user",
    "opps.fields",
    "context_processors",
    "opps.core.templatetags.rss_tags",
    "tests.contrib",
    "_site.urls",
    "contrib.fileupload.templatetags",
    "opps.core.filters",
    "example.example",
    "template",
    "0014_add_unique_together",
    "opps.images.models",
    "core.tags.migrations",
    "opps.contrib.notifications.views",
    "opps.contrib.fileupload.templatetags",
    "core.tags.migrations.0001_initial",
    "tags",
    "opps.views.generic.xml_views",
    "0012_auto__add_field_containerbox_main_image__add_field_containerbox_main_i",
    "opps.articles.forms",
    "opps.boxes.migrations.0003_auto__add_field_queryset_order_field",
    "core.managers",
    "example.example.local_settings.sample",
    "channels.migrations.0004_auto__add_field_channel_paginate_by",
    "channels.search_indexes",
    "core.test_cache",
    "migrations.0002_auto__add_field_queryset_offset",
    "notifications.urls",
    "sitemaps.sitemaps",
    "articles.migrations.0001_initial",
    "admin.dashboard",
    "opps.channels.admin",
    "opps.contrib.notifications.models",
    "opps.flatpages.urls",
    "opps.core.actions",
    "channels.migrations",
    "tasks",
    "containers.views",
    "fields.subclassing",
    "opps.sitemaps.models",
    "manage",
    "example.views",
    "api",
    "tests.core",
    "opps.views.generic.detail",
    "opps.containers.migrations.0015_add_content_group",
    "sitemaps.views",
    "core.test_models",
    "0007_auto__add_field_container_json",
    "opps.sitemaps.urls",
    "tests.contrib.test_mobile",
    "boxes.forms",
    "opps.archives",
    "archives",
    "opps.contrib",
    "tests.config",
    "example.urls",
    "jsonf",
    "sitemaps.migrations",
    "tests.containers.test_container_tags",
    "opps.views.generic",
    "opps.contrib.logging.migrations.0002_auto__add_index_logging_text__chg_field_logging_user",
    "source.conf",
    "containers.admin",
    "opps.boxes",
    "contrib.notifications.views",
    "images.admin",
    "opps.core.tags.admin",
    "boxes.migrations",
    "views.generic.base",
    "bin.opps-admin",
    "containers.migrations.0005_auto__del_unique_container_site_child_class_channel_long_slug_slug__ad",
    "opps.contrib.mobile.template",
    "opps.contrib.notifications.tests",
    "docs.source.conf",
    "admin_shortcuts_tags",
    "opps.views",
    "opps.containers.migrations.0006_new_urls",
    "example",
    "opps.contrib.multisite.models",
    "articles.utils",
    "migrations.0003_auto__del_field_containerboxcontainers_short_title",
    "0002_auto__add_field_file_archive_link__chg_field_file_archive",
    "contrib.logging.migrations.0002_auto__add_index_logging_text__chg_field_logging_user",
    "tags.views",
    "0009_auto__add_field_containerbox_title_url",
    "core.tags.views",
    "test_container_tags",
    "example.local_settings.sample",
    "opps.contrib.notifications.migrations.0001_initial",
    "0010_auto__add_mirror",
    "opps.db.conf",
    "opps.api",
    "channels_tags",
    "core.utils",
    "0005_auto__add_field_queryset_recursive",
    "config",
    "channels.test_forms",
    "opps.contrib.multisite.admin",
    "tests._site.wsgi",
    "search_indexes",
    "db._redis",
    "core.tags.admin",
    "migrations.0004_auto__add_field_channel_paginate_by",
    "boxes.test_models",
    "tests.core.test_models",
    "opps.views.generic.list",
    "containers.api",
    "contrib.fileupload.urls",
    "channels.templatetags",
    "admin.templatetags",
    "opps.channels.forms",
    "opps.contrib.multisite.templatetags",
    "migrations.0007_auto__add_field_container_json",
    "containers.migrations",
    "opps.channels.models",
    "container_tags",
    "containers.test_container_tags",
    "images.forms",
    "images.models",
    "fields.jsonf",
    "contrib.notifications.migrations.0003_auto",
    "filters",
    "tests.boxes",
    "contrib.fileupload.templatetags.upload_tags",
    "contrib.logging.api",
    "archives.admin",
    "channels.models",
    "opps.sitemaps.migrations",
    "models.fields.jsonf",
    "encoding_tags",
    "flatpages.migrations.0001_initial",
    "forms",
    "opps.images.templatetags",
    "tests.channels.test_models",
    "example.manage",
    "multisite.middleware",
    "views",
    "docs",
    "db.models.fields.jsonf",
    "core.actions",
    "opps.contrib.fileupload.templatetags.upload_tags",
    "contrib.notifications.models",
    "multisite_tags",
    "contrib.middleware.global_request",
    "contrib.multisite",
    "opps.core.utils",
    "articles",
    "boxes.migrations.0003_auto__add_field_queryset_order_field",
    "multisite",
    "fileupload.urls",
    "opps_admin_tags",
    "opps.contrib.admin.dashboard",
    "opps.containers.migrations.0009_auto__add_field_containerbox_title_url",
    "migrations.0016_auto__add_mirror__add_field_containerbox_main_image__add_field_contain",
    "fields",
    "tests._site",
    "templatetags.obj_tags",
    "feeds",
    "migrations.0002_auto__add_field_containerboxcontainers_hat",
    "tests.images.generate",
    "fields.admin",
    "admin.shortcuts",
    "0003_auto",
    "opps.api.migrations.0001_initial",
    "opps.contrib.multisite.migrations.0002_auto",
    "channels.context_processors",
    "test_context_processors",
    "logging.models",
    "opps.images.views",
    "notifications.admin",
    "images.test_models",
    "opps.archives.migrations.0001_initial",
    "admin.models",
    "_site.wsgi",
    "containers.migrations.0010_auto__add_mirror",
    "opps.contrib.multisite.migrations.0001_initial",
    "opps.containers.api",
    "containers.migrations.0009_auto__add_field_containerbox_title_url",
    "sitemaps.urls",
    "tags.migrations",
    "opps.channels",
    "views.generic.json_views",
    "generic.list",
    "postgresql_psycopg2.base",
    "fileupload.models",
    "templatetags.box_tags",
    "contrib.logging.migrations.0001_initial",
    "opps.utils",
    "opps.core.tags.views",
    "contrib.mobile",
    "api.conf",
    "rss_tags",
    "containers.migrations.0014_add_unique_together",
    "opps.contrib.feeds.views",
    "base",
    "opps.containers.migrations.0012_auto__add_field_containerbox_main_image__add_field_containerbox_main_i",
    "channels.templatetags.channels_tags",
    "generate",
    "opps",
    "logging",
    "boxes.migrations.0002_auto__add_field_queryset_offset",
    "opps.images",
    "articles.test_models",
    "articles.models",
    "multisite.migrations",
    "opps.containers.migrations.0013_auto__del_unique_containerbox_slug",
    "channels",
    "opps.core.tags.migrations.0001_initial",
    "contrib.fileupload",
    "boxes.migrations.0004_auto__add_field_queryset_excludes",
    "0002_auto",
    "contrib.multisite.templatetags.multisite_tags",
    "opps.containers.migrations.0004_auto__add_field_containerboxcontainers_url",
    "api.models",
    "articles.admin",
    "opps.containers.migrations.0003_auto__del_field_containerboxcontainers_short_title",
    "articles.test_forms",
    "containers.migrations.0006_new_urls",
    "migrations.0011_auto__add_field_containerbox_title_url",
    "widgets",
    "contrib.logging.migrations",
    "opps.core.tags.models",
    "opps.core.templatetags.encoding_tags",
    "opps.core.templatetags",
    "containers.migrations.0015_add_content_group",
    "opps.contrib.admin.shortcuts",
    "flatpages.views",
    "channels.forms",
    "opps.contrib.multisite.templatetags.multisite_tags",
    "contrib.notifications",
    "contrib.test_mobile",
    "views.generic.xml_views",
    "fileupload.templatetags",
    "opps.images.migrations.0002_auto",
    "0002_auto__add_field_containerboxcontainers_hat",
    "contrib.multisite.middleware",
    "opps.images.urls",
    "tests.core.test_obj_tags",
    "contrib.multisite.admin",
    "contrib.fileupload.views",
    "runner",
    "opps.archives.migrations.0002_auto__add_field_file_archive_link__chg_field_file_archive",
    "views.test_generic_detail",
    "opps.contrib.fileupload.views",
    "generic.xml_views",
    "opps.contrib.admin.templatetags.opps_admin_tags",
    "articles.forms",
    "opps.archives.migrations",
    "tests.images.test_models",
    "docs.source",
    "opps.db.backends",
    "opps.boxes.admin",
    "contrib.notifications.migrations",
    "core.templatetags.rss_tags",
    "archives.models",
    "0003_auto__del_field_containerboxcontainers_short_title",
    "example.settings",
    "migrations.0002_auto__add_field_file_archive_link__chg_field_file_archive",
    "opps.boxes.migrations.0001_initial",
    "0003_auto__add_field_channel_hat",
    "0008_auto__add_field_containerboxcontainers_highlight",
    "sitemaps",
    "box_tags",
    "contrib.feeds",
    "opps.flatpages.admin",
    "opps.channels.migrations.0003_auto__add_field_channel_hat",
    "opps.core.middleware",
    "notifications.migrations",
    "subclassing",
    "mobile",
    "opps.containers.migrations.0008_auto__add_field_containerboxcontainers_highlight",
    "flatpages.admin",
    "flatpages.migrations",
    "contrib.feeds.views",
    "tests.core.test_cache",
    "opps.api.urls",
    "runtests",
    "contrib.admin.dashboard",
    "wsgi",
    "tests.containers",
    "opps.contrib.middleware",
    "fileupload.views",
    "opps.flatpages.views",
    "opps.flatpages.migrations",
    "contrib.admin.models",
    "core.templatetags.encoding_tags",
    "views.generic.list",
    "opps.contrib.middleware.global_request",
    "migrations.0014_add_unique_together",
    "opps.containers.migrations.0010_auto__add_mirror",
    "opps.core.cache",
    "containers.tasks",
    "views.generic",
    "cache",
    "db.backends",
    "opps.db.models.fields",
    "opps.containers.forms",
    "db.models",
    "opps.core.templatetags.obj_tags",
    "images.generate",
    "articles.urls",
    "opps.contrib.notifications.tasks",
    "contrib.fileupload.models",
    "core.templatetags.obj_tags",
    "db",
    "contrib.admin.templatetags.opps_admin_tags",
    "test_mobile",
    "templatetags.upload_tags",
    "flatpages.test_models",
    "contrib.multisite.templatetags",
    "opps.contrib.logging.models",
    "migrations.0003_auto__add_field_queryset_order_field",
    "settings",
    "backends.postgresql_psycopg2",
    "migrations.0006_new_urls",
    "notifications.migrations.0001_initial",
    "opps.fields.migrations.0001_initial",
    "fields.test_models",
    "test_obj_tags",
    "opps.db.models",
    "containers.migrations.0002_auto__add_field_containerboxcontainers_hat",
    "tests.flatpages.test_models",
    "core.admin",
    "migrations.0009_auto__add_field_containerbox_title_url",
    "opps.boxes.migrations.0002_auto__add_field_queryset_offset",
    "templatetags.admin_shortcuts_tags",
    "opps.contrib.notifications.migrations.0002_auto__add_field_notification_channel_long_slug__add_field_notification",
    "opps.articles",
    "opps.containers.admin",
    "test_cache",
    "opps.archives.admin",
    "opps.db.backends.postgresql_psycopg2.base",
    "migrations",
    "opps.contrib.logging.admin",
    "contrib.admin.shortcuts",
    "opps.articles.migrations",
    "tests.views.test_generic_list",
    "boxes.admin",
    "opps.fields.widgets",
    "opps.core.tags.migrations",
    "opps.contrib.logging.migrations",
    "containers.urls",
    "views.test_generic_list",
    "opps.flatpages.migrations.0001_initial",
    "images.migrations.0001_initial",
    "postgresql_psycopg2",
    "mobile.middleware",
    "containers.signals",
    "logging.admin",
    "containers.migrations.0008_auto__add_field_containerboxcontainers_highlight",
    "core.templatetags",
    "0002_auto__add_field_notification_channel_long_slug__add_field_notification",
    "opps.flatpages.models",
    "containers.migrations.0007_auto__add_field_container_json",
    "opps.channels.search_indexes",
    "global_request",
    "opps.boxes.migrations.0005_auto__add_field_queryset_recursive",
    "admin",
    "opps.images.migrations",
    "fields.forms",
    "opps.containers.views",
    "tests.articles",
    "urls",
    "opps.contrib.fileupload.urls",
    "opps.containers.migrations.0016_auto__add_mirror__add_field_containerbox_main_image__add_field_contain",
    "multisite.templatetags",
    "contrib.multisite.migrations.0001_initial",
    "example.example.wsgi",
    "channels.test_models",
    "logging.migrations.0002_auto__add_index_logging_text__chg_field_logging_user",
    "opps.bin",
    "templatetags.encoding_tags",
    "contrib.notifications.migrations.0001_initial",
    "opps.contrib.mobile",
    "opps.urls",
    "migrations.0010_auto__add_mirror",
    "api.urls",
    "backends",
    "opps.contrib.notifications.migrations.0003_auto",
    "templatetags.opps_admin_tags",
    "migrations.0008_auto__add_field_containerboxcontainers_highlight",
    "opps.channels.migrations.0001_initial",
    "containers",
    "opps.images.migrations.0003_auto__add_field_image_archive_link__chg_field_image_archive",
    "opps.contrib.notifications.urls",
    "opps.contrib.logging.urls_api",
    "notifications.migrations.0002_auto__add_field_notification_channel_long_slug__add_field_notification",
    "logging.urls_api",
    "migrations.0001_initial",
    "local_settings.sample",
    "contrib.logging.admin",
    "opps.fields.admin",
    "tests.fields",
    "opps.core.tags.tests",
    "feeds.views",
    "archives.migrations",
    "opps.contrib.notifications.admin",
    "articles.migrations",
    "migrations.0015_add_content_group",
    "boxes.models",
    "opps.containers.conf",
    "opps.core.migrations",
    "tests.fields.test_models",
    "opps.boxes.models",
    "containers.models",
    "dashboard",
    "core.test_obj_tags",
    "opps.channels.migrations.0004_auto__add_field_channel_paginate_by",
    "opps.boxes.migrations.0004_auto__add_field_queryset_excludes",
    "opps.views.models",
    "images.migrations",
    "models.fields",
    "logging.migrations.0001_initial",
    "core.filters",
    "fileupload",
    "core.tags.models",
    "middleware.global_request",
    "opps.images.templatetags.images_tags",
    "utils",
    "opps.fields.forms",
    "opps.core.forms",
    "contrib.multisite.migrations.0002_auto",
    "test_models",
    "conf",
    "contrib.mobile.template",
    "opps.channels.context_processors",
    "example.example.views",
    "articles.signals",
    "opps.containers.signals",
    "generic",
    "opps.containers.migrations.0005_auto__del_unique_container_site_child_class_channel_long_slug_slug__ad",
    "backends.postgresql_psycopg2.base",
    "opps.articles.utils",
    "contrib.notifications.admin",
    "0005_auto__del_unique_container_site_child_class_channel_long_slug_slug__ad",
    "opps.containers.migrations.0011_auto__add_field_containerbox_title_url",
    "admin.templatetags.opps_admin_tags",
    "migrations.0005_auto__del_unique_container_site_child_class_channel_long_slug_slug__ad",
    "opps.core.migrations.0001_initial",
    "migrations.0013_auto__del_unique_containerbox_slug",
    "images_tags",
    "opps.containers.migrations.0001_initial",
    "contrib.notifications.tasks",
    "views.models",
    "opps.sitemaps.views",
    "utils.text",
    "containers.migrations.0013_auto__del_unique_containerbox_slug",
    "opps.contrib.logging",
    "opps.contrib.notifications",
    "core.templatetags.config",
    "templatetags.channels_tags",
    "images.urls",
    "opps.contrib.fileupload.models",
    "opps.api.conf",
    "opps.fields.migrations",
    "notifications.models",
    "opps.db._redis",
    "containers.migrations.0011_auto__add_field_containerbox_title_url",
    "generic.base",
    "tags.tests",
    "channels.admin",
    "tests.images",
    "flatpages.urls",
    "tests.containers.test_models",
    "images.templatetags",
    "core.migrations.0001_initial",
    "opps.articles.signals",
    "actions",
    "multisite.admin",
    "sitemaps.migrations.0001_initial",
    "tests.articles.test_models",
    "archives.migrations.0001_initial",
    "tests.channels.test_forms",
    "signals",
    "source",
    "contrib.mobile.middleware",
    "core.templatetags.box_tags",
    "tags.admin",
    "opps.containers.migrations.0007_auto__add_field_container_json",
    "images.views",
    "opps.boxes.forms",
    "templatetags.images_tags",
    "core.middleware",
    "0013_auto__del_unique_containerbox_slug",
    "bin",
    "tests",
    "db.models.fields.subclassing",
    "opps.images.admin",
    "generic.json_views",
    "core.migrations",
    "notifications.migrations.0003_auto",
    "opps.archives.models",
    "multisite.migrations.0001_initial",
    "fields.migrations",
    "boxes",
    "sitemaps.models",
    "images.migrations.0003_auto__add_field_image_archive_link__chg_field_image_archive",
    "images.templatetags.images_tags",
    "0002_auto__add_field_queryset_offset",
    "test_generic_detail",
    "opps.containers",
    "containers.migrations.0016_auto__add_mirror__add_field_containerbox_main_image__add_field_contain",
    "containers.migrations.0003_auto__del_field_containerboxcontainers_short_title",
    "tests._site.runner",
    "core.forms",
    "contrib.multisite.models",
    "_site",
    "opps.api.admin",
    "generic.detail",
    "fields.models",
    "opps.core.templatetags.config",
    "opps.core.migrations.0002_auto",
    "notifications.views",
    "0004_auto__add_field_channel_paginate_by",
    "templatetags.container_tags",
    "opps.contrib.multisite.middleware",
    "opps.images.generate",
    "images",
    "fields.migrations.0001_initial",
    "opps.contrib.logging.migrations.0001_initial",
    "tags.migrations.0001_initial",
    "opps.contrib.admin",
    "opps.core",
    "opps-admin",
    "multisite.models",
    "opps.images.migrations.0001_initial",
    "opps.contrib.admin.templatetags",
    "contrib.admin.templatetags",
    "api.admin",
    "opps.containers.migrations",
    "core",
    "logging.migrations",
    "xml_views",
    "db.conf",
    "0004_auto__add_field_queryset_excludes",
    "containers.templatetags",
    "opps.api.models",
    "opps.bin.opps-admin",
    "db.backends.postgresql_psycopg2",
    "opps.core.templatetags.box_tags",
    "images.migrations.0002_auto",
    "example.example.urls",
    "multisite.migrations.0002_auto",
    "opps.contrib.admin.templatetags.admin_shortcuts_tags",
    "boxes.migrations.0001_initial",
    "0015_add_content_group",
    "opps.channels.migrations",
    "obj_tags",
    "articles.views",
    "urls_api",
    "migrations.0002_auto",
    "0002_auto__add_index_logging_text__chg_field_logging_user",
    "multisite.templatetags.multisite_tags",
    "0003_auto__add_field_queryset_order_field",
    "managers",
    "test_generic_list",
    "migrations.0012_auto__add_field_containerbox_main_image__add_field_containerbox_main_i",
    "core.migrations.0002_auto",
    "containers.templatetags.container_tags",
    "opps.sitemaps",
    "notifications.tasks",
    "contrib",
    "0003_auto__add_field_image_archive_link__chg_field_image_archive",
    "core.tags",
    "fields.widgets",
    "opps.channels.templatetags.channels_tags",
    "opps.containers.urls",
    "opps.api.migrations",
    "opps.containers.models",
    "0006_new_urls",
    "tests.views",
    "images.widgets",
    "articles.search_indexes",
    "opps.articles.search_indexes",
    "opps.channels.templatetags",
    "containers.conf",
    "opps.images.widgets",
    "0011_auto__add_field_containerbox_title_url",
    "opps.views.generic.json_views",
    "core.widgets",
    "opps.articles.urls",
    "admin.templatetags.admin_shortcuts_tags",
    "core.tags.tests",
    "tests.channels",
    "opps.contrib.multisite.migrations",
    "logging.api",
    "opps.views.generic.base",
    "middleware",
    "mobile.template",
    "containers.migrations.0004_auto__add_field_containerboxcontainers_url",
    "channels.migrations.0002_auto",
    "example.example.settings",
    "templatetags.rss_tags",
    "opps.contrib.notifications.migrations",
    "opps.images.forms",
    "tests.articles.test_forms",
    "opps.contrib.logging.api",
    "0004_auto__add_field_containerboxcontainers_url",
    "shortcuts",
    "tests.flatpages",
    "archives.migrations.0002_auto__add_field_file_archive_link__chg_field_file_archive",
    "opps.containers.templatetags.container_tags",
    "opps.core.widgets",
    "templatetags",
    "views.generic.detail",
    "containers.migrations.0012_auto__add_field_containerbox_main_image__add_field_containerbox_main_i",
    "tests._site.urls",
    "contrib.multisite.migrations",
    "migrations.0003_auto__add_field_image_archive_link__chg_field_image_archive",
    "templatetags.config",
    "opps.containers.tasks",
    "opps.contrib.feeds",
    "detail",
    "opps.core.tags",
    "test_forms",
    "opps.db.backends.postgresql_psycopg2",
    "containers.migrations.0001_initial",
    "migrations.0004_auto__add_field_containerboxcontainers_url",
    "notifications",
    "opps.contrib.multisite",
    "flatpages.models",
    "channels.test_context_processors",
    "tests.manage",
    "models",
    "migrations.0005_auto__add_field_queryset_recursive",
    "opps.utils.text",
    "0001_initial",
    "migrations.0002_auto__add_field_notification_channel_long_slug__add_field_notification",
    "tests.channels.test_context_processors",
    "opps.boxes.migrations",
    "models.fields.subclassing",
    "templatetags.multisite_tags",
    "opps.core.admin",
    "text",
    "opps.db",
    "tests.boxes.test_models"
]