{
    "libs": [
        "hgext",
        "ordereddict",
        "distutils",
        "unittest",
        "random",
        "Queue",
        "watcher",
        "peer",
        "pygments",
        "shutil",
        "errors",
        "posixpath",
        "tempfile",
        "errno",
        "OpenSSL",
        "urllib",
        "re",
        "collections",
        "math",
        "node",
        "core",
        "stat",
        "optparse",
        "time",
        "urllib2",
        "repo",
        "ssl",
        "objects",
        "ctypes",
        "coverage",
        "i18n",
        "_lsprof",
        "subprocess",
        "dulwich",
        "sys",
        "socket",
        "StringIO",
        "mercurial",
        "signal",
        "difflib",
        "threading",
        "client",
        "error",
        "os",
        "bzrlib",
        "pack"
    ]
}