{
    "archive_url": "https://api.github.com/repos/infogami/infogami/{archive_format}{/ref}",
    "assignees_url": "https://api.github.com/repos/infogami/infogami/assignees{/user}",
    "blobs_url": "https://api.github.com/repos/infogami/infogami/git/blobs{/sha}",
    "branches_url": "https://api.github.com/repos/infogami/infogami/branches{/branch}",
    "clone_url": "https://github.com/infogami/infogami.git",
    "collaborators_url": "https://api.github.com/repos/infogami/infogami/collaborators{/collaborator}",
    "comments_url": "https://api.github.com/repos/infogami/infogami/comments{/number}",
    "commits_url": "https://api.github.com/repos/infogami/infogami/commits{/sha}",
    "compare_url": "https://api.github.com/repos/infogami/infogami/compare/{base}...{head}",
    "contents_url": "https://api.github.com/repos/infogami/infogami/contents/{+path}",
    "contributors_url": "https://api.github.com/repos/infogami/infogami/contributors",
    "created_at": "2008-10-31T22:50:52Z",
    "default_branch": "master",
    "description": "",
    "downloads_url": "https://api.github.com/repos/infogami/infogami/downloads",
    "events_url": "https://api.github.com/repos/infogami/infogami/events",
    "fork": false,
    "forks": 15,
    "forks_count": 15,
    "forks_url": "https://api.github.com/repos/infogami/infogami/forks",
    "full_name": "infogami/infogami",
    "git_commits_url": "https://api.github.com/repos/infogami/infogami/git/commits{/sha}",
    "git_refs_url": "https://api.github.com/repos/infogami/infogami/git/refs{/sha}",
    "git_tags_url": "https://api.github.com/repos/infogami/infogami/git/tags{/sha}",
    "git_url": "git://github.com/infogami/infogami.git",
    "has_downloads": true,
    "has_issues": true,
    "has_wiki": true,
    "homepage": "http://infogami.org",
    "hooks_url": "https://api.github.com/repos/infogami/infogami/hooks",
    "html_url": "https://github.com/infogami/infogami",
    "id": 70271,
    "issue_comment_url": "https://api.github.com/repos/infogami/infogami/issues/comments/{number}",
    "issue_events_url": "https://api.github.com/repos/infogami/infogami/issues/events{/number}",
    "issues_url": "https://api.github.com/repos/infogami/infogami/issues{/number}",
    "keys_url": "https://api.github.com/repos/infogami/infogami/keys{/key_id}",
    "labels_url": "https://api.github.com/repos/infogami/infogami/labels{/name}",
    "language": "Python",
    "languages_url": "https://api.github.com/repos/infogami/infogami/languages",
    "merges_url": "https://api.github.com/repos/infogami/infogami/merges",
    "milestones_url": "https://api.github.com/repos/infogami/infogami/milestones{/number}",
    "mirror_url": null,
    "name": "infogami",
    "notifications_url": "https://api.github.com/repos/infogami/infogami/notifications{?since,all,participating}",
    "open_issues": 0,
    "open_issues_count": 0,
    "owner": {
        "avatar_url": "https://avatars.githubusercontent.com/u/32074?",
        "events_url": "https://api.github.com/users/infogami/events{/privacy}",
        "followers_url": "https://api.github.com/users/infogami/followers",
        "following_url": "https://api.github.com/users/infogami/following{/other_user}",
        "gists_url": "https://api.github.com/users/infogami/gists{/gist_id}",
        "gravatar_id": "707e099b5fe604a6ab31b09b5a4fb28a",
        "html_url": "https://github.com/infogami",
        "id": 32074,
        "login": "infogami",
        "organizations_url": "https://api.github.com/users/infogami/orgs",
        "received_events_url": "https://api.github.com/users/infogami/received_events",
        "repos_url": "https://api.github.com/users/infogami/repos",
        "site_admin": false,
        "starred_url": "https://api.github.com/users/infogami/starred{/owner}{/repo}",
        "subscriptions_url": "https://api.github.com/users/infogami/subscriptions",
        "type": "User",
        "url": "https://api.github.com/users/infogami"
    },
    "private": false,
    "pulls_url": "https://api.github.com/repos/infogami/infogami/pulls{/number}",
    "pushed_at": "2012-02-28T13:58:52Z",
    "releases_url": "https://api.github.com/repos/infogami/infogami/releases{/id}",
    "score": 1.0,
    "size": 2778,
    "ssh_url": "git@github.com:infogami/infogami.git",
    "stargazers_count": 53,
    "stargazers_url": "https://api.github.com/repos/infogami/infogami/stargazers",
    "statuses_url": "https://api.github.com/repos/infogami/infogami/statuses/{sha}",
    "subscribers_url": "https://api.github.com/repos/infogami/infogami/subscribers",
    "subscription_url": "https://api.github.com/repos/infogami/infogami/subscription",
    "svn_url": "https://github.com/infogami/infogami",
    "tags_url": "https://api.github.com/repos/infogami/infogami/tags",
    "teams_url": "https://api.github.com/repos/infogami/infogami/teams",
    "trees_url": "https://api.github.com/repos/infogami/infogami/git/trees{/sha}",
    "updated_at": "2013-10-13T16:34:32Z",
    "url": "https://api.github.com/repos/infogami/infogami",
    "watchers": 53,
    "watchers_count": 53
}