[
    "management.commands.loadshapefiles",
    "boundaryservice.management.commands.loadshapefiles",
    "boundaryservice.models",
    "loadshapefiles",
    "boundaryservice.utils",
    "boundaryservice.management",
    "boundaryservice.authentication",
    "management",
    "boundaryservice.resources",
    "boundaryservice.urls",
    "startshapedefinitions",
    "boundaryservice.management.commands.startshapedefinitions",
    "boundaryservice.tastyhacks",
    "boundaryservice.fields",
    "commands.startshapedefinitions",
    "utils",
    "resources",
    "boundaryservice.views",
    "boundaryservice.management.commands",
    "views",
    "models",
    "boundaryservice.admin",
    "authentication",
    "commands.loadshapefiles",
    "commands",
    "throttle",
    "admin",
    "fields",
    "tastyhacks",
    "boundaryservice",
    "boundaryservice.throttle",
    "urls",
    "management.commands.startshapedefinitions",
    "management.commands"
]