[
    "attribution",
    "QuoteFix",
    "quotefix.preview",
    "app",
    "quotefix.app",
    "messagetypes",
    "updater",
    "quotefix.menu",
    "quotefix.attribution",
    "quotefix.preferences",
    "pyratemp",
    "quotefix",
    "preferences",
    "attributionclasses",
    "menu",
    "quotefix.utils",
    "quotefix.attributionclasses",
    "quotefix.messagetypes",
    "fixer",
    "quotefix.fixer",
    "quotefix.updater",
    "quotefix.logger",
    "logger",
    "preview",
    "quotefix.pyratemp",
    "utils"
]