{
    "archive_url": "https://api.github.com/repos/marianoguerra/rst2html5/{archive_format}{/ref}",
    "assignees_url": "https://api.github.com/repos/marianoguerra/rst2html5/assignees{/user}",
    "blobs_url": "https://api.github.com/repos/marianoguerra/rst2html5/git/blobs{/sha}",
    "branches_url": "https://api.github.com/repos/marianoguerra/rst2html5/branches{/branch}",
    "clone_url": "https://github.com/marianoguerra/rst2html5.git",
    "collaborators_url": "https://api.github.com/repos/marianoguerra/rst2html5/collaborators{/collaborator}",
    "comments_url": "https://api.github.com/repos/marianoguerra/rst2html5/comments{/number}",
    "commits_url": "https://api.github.com/repos/marianoguerra/rst2html5/commits{/sha}",
    "compare_url": "https://api.github.com/repos/marianoguerra/rst2html5/compare/{base}...{head}",
    "contents_url": "https://api.github.com/repos/marianoguerra/rst2html5/contents/{+path}",
    "contributors_url": "https://api.github.com/repos/marianoguerra/rst2html5/contributors",
    "created_at": "2011-10-20T14:22:19Z",
    "default_branch": "master",
    "description": "transform restructuredtext documents to html5 + twitter's bootstrap css, deck.js or reveal.js",
    "downloads_url": "https://api.github.com/repos/marianoguerra/rst2html5/downloads",
    "events_url": "https://api.github.com/repos/marianoguerra/rst2html5/events",
    "fork": false,
    "forks": 21,
    "forks_count": 21,
    "forks_url": "https://api.github.com/repos/marianoguerra/rst2html5/forks",
    "full_name": "marianoguerra/rst2html5",
    "git_commits_url": "https://api.github.com/repos/marianoguerra/rst2html5/git/commits{/sha}",
    "git_refs_url": "https://api.github.com/repos/marianoguerra/rst2html5/git/refs{/sha}",
    "git_tags_url": "https://api.github.com/repos/marianoguerra/rst2html5/git/tags{/sha}",
    "git_url": "git://github.com/marianoguerra/rst2html5.git",
    "has_downloads": true,
    "has_issues": true,
    "has_wiki": true,
    "homepage": "http://marianoguerra.github.com/rst2html5",
    "hooks_url": "https://api.github.com/repos/marianoguerra/rst2html5/hooks",
    "html_url": "https://github.com/marianoguerra/rst2html5",
    "id": 2613617,
    "issue_comment_url": "https://api.github.com/repos/marianoguerra/rst2html5/issues/comments/{number}",
    "issue_events_url": "https://api.github.com/repos/marianoguerra/rst2html5/issues/events{/number}",
    "issues_url": "https://api.github.com/repos/marianoguerra/rst2html5/issues{/number}",
    "keys_url": "https://api.github.com/repos/marianoguerra/rst2html5/keys{/key_id}",
    "labels_url": "https://api.github.com/repos/marianoguerra/rst2html5/labels{/name}",
    "language": "Python",
    "languages_url": "https://api.github.com/repos/marianoguerra/rst2html5/languages",
    "merges_url": "https://api.github.com/repos/marianoguerra/rst2html5/merges",
    "milestones_url": "https://api.github.com/repos/marianoguerra/rst2html5/milestones{/number}",
    "mirror_url": null,
    "name": "rst2html5",
    "notifications_url": "https://api.github.com/repos/marianoguerra/rst2html5/notifications{?since,all,participating}",
    "open_issues": 15,
    "open_issues_count": 15,
    "owner": {
        "avatar_url": "https://avatars.githubusercontent.com/u/68463?",
        "events_url": "https://api.github.com/users/marianoguerra/events{/privacy}",
        "followers_url": "https://api.github.com/users/marianoguerra/followers",
        "following_url": "https://api.github.com/users/marianoguerra/following{/other_user}",
        "gists_url": "https://api.github.com/users/marianoguerra/gists{/gist_id}",
        "gravatar_id": "81aac62d08b6df40da14b61c7c818d47",
        "html_url": "https://github.com/marianoguerra",
        "id": 68463,
        "login": "marianoguerra",
        "organizations_url": "https://api.github.com/users/marianoguerra/orgs",
        "received_events_url": "https://api.github.com/users/marianoguerra/received_events",
        "repos_url": "https://api.github.com/users/marianoguerra/repos",
        "site_admin": false,
        "starred_url": "https://api.github.com/users/marianoguerra/starred{/owner}{/repo}",
        "subscriptions_url": "https://api.github.com/users/marianoguerra/subscriptions",
        "type": "User",
        "url": "https://api.github.com/users/marianoguerra"
    },
    "private": false,
    "pulls_url": "https://api.github.com/repos/marianoguerra/rst2html5/pulls{/number}",
    "pushed_at": "2014-04-07T09:41:49Z",
    "releases_url": "https://api.github.com/repos/marianoguerra/rst2html5/releases{/id}",
    "score": 1.0,
    "size": 1623,
    "ssh_url": "git@github.com:marianoguerra/rst2html5.git",
    "stargazers_count": 76,
    "stargazers_url": "https://api.github.com/repos/marianoguerra/rst2html5/stargazers",
    "statuses_url": "https://api.github.com/repos/marianoguerra/rst2html5/statuses/{sha}",
    "subscribers_url": "https://api.github.com/repos/marianoguerra/rst2html5/subscribers",
    "subscription_url": "https://api.github.com/repos/marianoguerra/rst2html5/subscription",
    "svn_url": "https://github.com/marianoguerra/rst2html5",
    "tags_url": "https://api.github.com/repos/marianoguerra/rst2html5/tags",
    "teams_url": "https://api.github.com/repos/marianoguerra/rst2html5/teams",
    "trees_url": "https://api.github.com/repos/marianoguerra/rst2html5/git/trees{/sha}",
    "updated_at": "2014-04-07T09:41:50Z",
    "url": "https://api.github.com/repos/marianoguerra/rst2html5",
    "watchers": 76,
    "watchers_count": 76
}