{
    "libs": [
        "b",
        "defaults",
        "db",
        "related",
        "sys",
        "imp",
        "sqlalchemy",
        "loading",
        "conf",
        "management",
        "pool"
    ]
}