{
    "archive_url": "https://api.github.com/repos/BigBrotherBot/big-brother-bot/{archive_format}{/ref}",
    "assignees_url": "https://api.github.com/repos/BigBrotherBot/big-brother-bot/assignees{/user}",
    "blobs_url": "https://api.github.com/repos/BigBrotherBot/big-brother-bot/git/blobs{/sha}",
    "branches_url": "https://api.github.com/repos/BigBrotherBot/big-brother-bot/branches{/branch}",
    "clone_url": "https://github.com/BigBrotherBot/big-brother-bot.git",
    "collaborators_url": "https://api.github.com/repos/BigBrotherBot/big-brother-bot/collaborators{/collaborator}",
    "comments_url": "https://api.github.com/repos/BigBrotherBot/big-brother-bot/comments{/number}",
    "commits_url": "https://api.github.com/repos/BigBrotherBot/big-brother-bot/commits{/sha}",
    "compare_url": "https://api.github.com/repos/BigBrotherBot/big-brother-bot/compare/{base}...{head}",
    "contents_url": "https://api.github.com/repos/BigBrotherBot/big-brother-bot/contents/{+path}",
    "contributors_url": "https://api.github.com/repos/BigBrotherBot/big-brother-bot/contributors",
    "created_at": "2008-12-23T06:51:28Z",
    "default_branch": "master",
    "description": "Big Brother Bot B3 is a complete and total server administration package for online games. B3 is designed primarily to keep your server free from the derelicts of online gaming, but offers more, much more.",
    "downloads_url": "https://api.github.com/repos/BigBrotherBot/big-brother-bot/downloads",
    "events_url": "https://api.github.com/repos/BigBrotherBot/big-brother-bot/events",
    "fork": false,
    "forks": 73,
    "forks_count": 73,
    "forks_url": "https://api.github.com/repos/BigBrotherBot/big-brother-bot/forks",
    "full_name": "BigBrotherBot/big-brother-bot",
    "git_commits_url": "https://api.github.com/repos/BigBrotherBot/big-brother-bot/git/commits{/sha}",
    "git_refs_url": "https://api.github.com/repos/BigBrotherBot/big-brother-bot/git/refs{/sha}",
    "git_tags_url": "https://api.github.com/repos/BigBrotherBot/big-brother-bot/git/tags{/sha}",
    "git_url": "git://github.com/BigBrotherBot/big-brother-bot.git",
    "has_downloads": true,
    "has_issues": true,
    "has_wiki": false,
    "homepage": "http://www.bigbrotherbot.net",
    "hooks_url": "https://api.github.com/repos/BigBrotherBot/big-brother-bot/hooks",
    "html_url": "https://github.com/BigBrotherBot/big-brother-bot",
    "id": 95712,
    "issue_comment_url": "https://api.github.com/repos/BigBrotherBot/big-brother-bot/issues/comments/{number}",
    "issue_events_url": "https://api.github.com/repos/BigBrotherBot/big-brother-bot/issues/events{/number}",
    "issues_url": "https://api.github.com/repos/BigBrotherBot/big-brother-bot/issues{/number}",
    "keys_url": "https://api.github.com/repos/BigBrotherBot/big-brother-bot/keys{/key_id}",
    "labels_url": "https://api.github.com/repos/BigBrotherBot/big-brother-bot/labels{/name}",
    "language": "Python",
    "languages_url": "https://api.github.com/repos/BigBrotherBot/big-brother-bot/languages",
    "merges_url": "https://api.github.com/repos/BigBrotherBot/big-brother-bot/merges",
    "milestones_url": "https://api.github.com/repos/BigBrotherBot/big-brother-bot/milestones{/number}",
    "mirror_url": null,
    "name": "big-brother-bot",
    "notifications_url": "https://api.github.com/repos/BigBrotherBot/big-brother-bot/notifications{?since,all,participating}",
    "open_issues": 16,
    "open_issues_count": 16,
    "owner": {
        "avatar_url": "https://avatars.githubusercontent.com/u/42244?",
        "events_url": "https://api.github.com/users/BigBrotherBot/events{/privacy}",
        "followers_url": "https://api.github.com/users/BigBrotherBot/followers",
        "following_url": "https://api.github.com/users/BigBrotherBot/following{/other_user}",
        "gists_url": "https://api.github.com/users/BigBrotherBot/gists{/gist_id}",
        "gravatar_id": "59d7110f388094d7850b21dd2ed6c3ce",
        "html_url": "https://github.com/BigBrotherBot",
        "id": 42244,
        "login": "BigBrotherBot",
        "organizations_url": "https://api.github.com/users/BigBrotherBot/orgs",
        "received_events_url": "https://api.github.com/users/BigBrotherBot/received_events",
        "repos_url": "https://api.github.com/users/BigBrotherBot/repos",
        "site_admin": false,
        "starred_url": "https://api.github.com/users/BigBrotherBot/starred{/owner}{/repo}",
        "subscriptions_url": "https://api.github.com/users/BigBrotherBot/subscriptions",
        "type": "Organization",
        "url": "https://api.github.com/users/BigBrotherBot"
    },
    "private": false,
    "pulls_url": "https://api.github.com/repos/BigBrotherBot/big-brother-bot/pulls{/number}",
    "pushed_at": "2014-05-05T19:44:57Z",
    "releases_url": "https://api.github.com/repos/BigBrotherBot/big-brother-bot/releases{/id}",
    "score": 1.0,
    "size": 19862,
    "ssh_url": "git@github.com:BigBrotherBot/big-brother-bot.git",
    "stargazers_count": 69,
    "stargazers_url": "https://api.github.com/repos/BigBrotherBot/big-brother-bot/stargazers",
    "statuses_url": "https://api.github.com/repos/BigBrotherBot/big-brother-bot/statuses/{sha}",
    "subscribers_url": "https://api.github.com/repos/BigBrotherBot/big-brother-bot/subscribers",
    "subscription_url": "https://api.github.com/repos/BigBrotherBot/big-brother-bot/subscription",
    "svn_url": "https://github.com/BigBrotherBot/big-brother-bot",
    "tags_url": "https://api.github.com/repos/BigBrotherBot/big-brother-bot/tags",
    "teams_url": "https://api.github.com/repos/BigBrotherBot/big-brother-bot/teams",
    "trees_url": "https://api.github.com/repos/BigBrotherBot/big-brother-bot/git/trees{/sha}",
    "updated_at": "2014-05-05T19:44:57Z",
    "url": "https://api.github.com/repos/BigBrotherBot/big-brother-bot",
    "watchers": 69,
    "watchers_count": 69
}