[
    "plugins.welcome",
    "storage.test_postgresql",
    "lib.statlib.stats",
    "b3.lib.beaker.crypto.jcecrypto",
    "py2exe_builder",
    "frostbite",
    "yaml.representer",
    "b3.parser",
    "b3.lib.yaml.tokens",
    "b3.parsers.source.rcon",
    "plugins.test_spamcontrol",
    "xlrstats",
    "b3.plugins.cod7http",
    "runsnakerun.memdumploader",
    "frostbite2",
    "feedparser",
    "tk",
    "parsers.frostbite2.util",
    "nodes",
    "tests.storage.common",
    "ElementPath",
    "yaml.parser",
    "tests.plugins.test_admin_functional",
    "arma2",
    "punkbuster",
    "parsers.test_cod",
    "tests.parsers.frostbite2",
    "util",
    "cod7",
    "cod4",
    "cod5",
    "cod2",
    "lib.profilebrowser",
    "lib.statlib.matfunc",
    "ro2",
    "documentationBuilder",
    "statlib",
    "lib.elementtree.HTMLTreeBuilder",
    "plugins.test_status",
    "tests.test_parser",
    "tests.parsers.frostbite.test_abstractParser",
    "parsers.arma2",
    "parsers.homefront.test_HomefrontParser",
    "b3.lib.yaml.resolver",
    "plugins.test_tk_functional",
    "b3.lib.beaker.session",
    "clients",
    "SgmlopXMLTreeBuilder",
    "lib.elementtree.ElementInclude",
    "b3.parsers.frostbite2.protocol",
    "cron",
    "b3.plugins.spamcontrol",
    "b3.config",
    "b3.lib.elementtree.ElementInclude",
    "plugins",
    "lib.beaker.ext.google",
    "lib.yaml.resolver",
    "lib.feedparser",
    "b3.lib.argparse",
    "plugins.test_admin_functional",
    "SourceQuery",
    "battleye.rcon",
    "b3.lib.statlib.io",
    "b3.lib.yaml.parser",
    "test_punkbuster",
    "ext.sqla",
    "memcached",
    "b3.lib.PurePythonGeoIP",
    "b3.parsers.frontline.rcon",
    "b3.lib.beaker.synchronization",
    "runsnakerun.runsnake",
    "parsers.et",
    "parsers.smg",
    "b3.parsers.battleye.protocol",
    "representer",
    "ext.google",
    "parsers.battleye.abstractParser",
    "parsers.test_iourt42",
    "yaml.scanner",
    "lib.statlib.anova",
    "parsers.frontline.protocol",
    "lib.corestats",
    "b3.parsers.frostbite.punkbuster",
    "ftpytail",
    "tests.test_update",
    "elementtree.ElementPath",
    "b3.plugins.codam",
    "plugins.punkbuster",
    "storage.database",
    "extplugins.xlrstats",
    "adv",
    "lib.beaker.ext",
    "b3.functions",
    "beaker.crypto.util",
    "tests.parsers.test_punkbuster",
    "beaker.crypto",
    "b3.game",
    "b3.clients",
    "beaker.session",
    "b3.lib.yaml.cyaml",
    "sourcelib.SourceQuery",
    "fake",
    "tools",
    "lib.beaker.cache",
    "tests.storage",
    "b3.parsers.homefront.protocol",
    "b3.lib.statlib.matfunc",
    "lib.elementtree",
    "b3.parsers.frontline.protocol",
    "SimpleXMLTreeBuilder",
    "elementtree.ElementTree",
    "statlib.stats",
    "lib.beaker.crypto.pycrypto",
    "lib.yaml.emitter",
    "sof2pm",
    "frostbite.protocol",
    "converters",
    "b3.lib.beaker.ext.google",
    "beaker",
    "tests.parsers.frostbite.test_util",
    "storage.test_DatabaseStorage",
    "lib.beaker",
    "tests.plugins.test_status",
    "b3.parsers.bfbc2",
    "b3.parsers.sof2",
    "parsers.test_csgo",
    "clients.test_Client",
    "yaml.nodes",
    "plugins.ftpytail",
    "elementtree.SimpleXMLWriter",
    "test_adv",
    "b3.timezones",
    "parsers.test_cod6",
    "parsers.test_cod7",
    "parsers.test_cod4",
    "parsers.test_cod5",
    "b3.parsers.frostbite.util",
    "yaml.resolver",
    "exceptions",
    "b3.parsers.battleye",
    "parsers.frostbite.connection",
    "lib.yaml.parser",
    "b3.plugins.login",
    "b3.plugins.sftpytail",
    "elementtree.TidyHTMLTreeBuilder",
    "parsers.frostbite.util",
    "parsers.sof2pm",
    "lib.elementtree.ElementPath",
    "parsers.cod5",
    "b3.parsers.frostbite2.abstractParser",
    "frostbite.test_util",
    "runsnakerun.pstatsloader",
    "parsers.altitude",
    "b3.parsers.cod8",
    "parsers.homefront.rcon",
    "b3.parsers.cod2",
    "b3.parsers.cod6",
    "b3.parsers.cod7",
    "b3.parsers.cod4",
    "beaker.ext",
    "plugins.stats",
    "b3.output",
    "battleye",
    "b3.lib.runsnakerun.pstatsloader",
    "b3.lib.runsnakerun.dumbprofile",
    "tests.plugins.test_login",
    "ext.database",
    "runsnakerun.squaremap",
    "argparse",
    "frostbite.test_abstractParser",
    "b3.parsers.q3a.rcon",
    "lib.statlib.io",
    "b3.lib.beaker.exceptions",
    "parsers.test_punkbuster",
    "b3.lib.yaml.loader",
    "test_cod",
    "rcon",
    "plugins.adv",
    "memdumploader",
    "beaker.exceptions",
    "lib.elementtree.TidyTools",
    "tests.test_b3",
    "pingwatch",
    "b3.decorators",
    "yaml.dumper",
    "test_Clients",
    "plugins.pingwatch",
    "b3.plugins",
    "cod8",
    "b3.parsers.frostbite2.rcon",
    "plugins.admin",
    "homefront.test_HomefrontParser",
    "ext.memcached",
    "tests.plugins.test_admin",
    "parsers.frontline",
    "b3.parsers.frostbite2.util",
    "jcecrypto",
    "beaker.crypto.pbkdf2",
    "config",
    "runsnakerun.dumbprofile",
    "parsers.sof2",
    "crypto",
    "b3.lib.elementtree.TidyHTMLTreeBuilder",
    "parsers.bf3",
    "b3.lib.runsnakerun.runsnake",
    "lib.sourcelib",
    "parsers.battleye.rcon",
    "parsers.wop15",
    "crypto.jcecrypto",
    "plugins.tk",
    "parsers.ravaged",
    "b3.events",
    "sourcelib.SourceRcon",
    "parsers.ro2",
    "b3.cron",
    "et",
    "parsers.frostbite",
    "b3.plugins.httpytail",
    "tools.logdiagnostic",
    "parsers.frostbite2.abstractParser",
    "b3.parsers.punkbuster",
    "homefront",
    "container",
    "yaml.events",
    "b3.lib.beaker.converters",
    "publist",
    "reader",
    "smg",
    "decorators",
    "b3.lib.runsnakerun",
    "b3.lib.sourcelib.SourceRcon",
    "b3.lib.sourcelib.SourceQuery",
    "b3",
    "parsers.test_iourt41",
    "b3.lib.elementtree",
    "lib.beaker.converters",
    "statlib.pstat",
    "b3.lib.yaml.scanner",
    "b3.extplugins",
    "b3.parsers.frostbite2",
    "b3.parsers.csgo",
    "ElementIron",
    "frostbite.util",
    "b3.lib.elementtree.ElementPath",
    "plugins.test_censor",
    "querybuilder",
    "plugins.status",
    "parsers.test_arma2",
    "beaker.crypto.jcecrypto",
    "b3.plugins.stats",
    "b3.lib.yaml.serializer",
    "matfunc",
    "lib.yaml.tokens",
    "SourceLog",
    "runsnake",
    "beaker.ext.sqla",
    "tests.plugins.test_tk",
    "b3.parsers.ravaged.ravaged_rcon",
    "tests.parsers.test_cod",
    "yaml.error",
    "parsers.frostbite.protocol",
    "tests.plugins.test_censor",
    "b3.parsers.source",
    "crypto.util",
    "test_mysql",
    "b3.parsers.frontline",
    "b3.lib.yaml.events",
    "test_admin",
    "b3.lib.sourcelib",
    "test_abstractParser",
    "frostbite2.test_abstractParser",
    "b3.lib.yaml.emitter",
    "frostbite.punkbuster",
    "lib.sourcelib.SourceRcon",
    "b3.plugins.publist",
    "SourceRcon",
    "abstractParser",
    "b3.storage",
    "sourcelib",
    "test_cod4",
    "test_cod5",
    "test_cod6",
    "test_cod7",
    "plugins.httpytail",
    "b3.lib.elementtree.SgmlopXMLTreeBuilder",
    "source.rcon",
    "lib.PurePythonGeoIP",
    "lib.beaker.crypto",
    "ElementInclude",
    "parsers",
    "tests.storage.test_postgresql",
    "tests.plugins.test_tk_functional",
    "parsers.cod",
    "tests.parsers.test_cod5",
    "tests.parsers.test_cod4",
    "tests.parsers.test_cod7",
    "tests.parsers.test_cod6",
    "b3.parsers.frostbite.protocol",
    "parsers.frostbite.test_abstractParser",
    "lib",
    "lib.beaker.exceptions",
    "tools.memoryprofiler",
    "squaremap",
    "test_cron",
    "b3.tools",
    "b3.parsers.etpro",
    "lib.elementtree.SimpleXMLWriter",
    "b3.lib.runsnakerun.squaremap",
    "test_tk_functional",
    "tests.parsers.homefront",
    "plugins.login",
    "lib.elementtree.ElementTree",
    "b3.parsers.cod7_rcon",
    "b3.querybuilder",
    "lib.yaml.reader",
    "plugins.publist",
    "parsers.moh",
    "test_spamcontrol",
    "test_b3",
    "b3.parsers.smg",
    "tokens",
    "frontline.rcon",
    "lib.yaml.cyaml",
    "tests.parsers.q3a.test_abstractParser",
    "storage.common",
    "profilebrowser",
    "pstatsloader",
    "tests.storage.test_sqlite",
    "b3.parsers.frostbite.connection",
    "b3.lib",
    "b3.parsers.frostbite2.punkbuster",
    "b3.parsers.q3a",
    "b3.lib.beaker.crypto",
    "q3a",
    "plugins.codam",
    "b3.parsers.oa081",
    "lib.runsnakerun.dumbprofile",
    "parsers.frostbite2.test_abstractParser",
    "yaml.reader",
    "b3.plugin",
    "session",
    "tools.functionprofiler",
    "q3a.test_abstractParser",
    "sqla",
    "lib.yaml.serializer",
    "tests.parsers.frostbite",
    "tests.parsers.test_csgo",
    "parsers.cod7_rcon",
    "cache",
    "lib.yaml.scanner",
    "b3.lib.yaml.nodes",
    "plugins.cod7http",
    "b3.lib.beaker.crypto.pycrypto",
    "b3.lib.beaker",
    "tests.storage.test_Storage",
    "parsers.wop",
    "ravaged_rcon",
    "elementtree.SimpleXMLTreeBuilder",
    "cod7http",
    "b3.lib.corestats",
    "synchronization",
    "test_bf3",
    "parsers.battleye",
    "b3.parsers.frostbite.rcon",
    "homefront.rcon",
    "lib.beaker.crypto.util",
    "frostbite2.protocol",
    "test_arma2",
    "sourcelib.SourceLog",
    "lib.beaker.synchronization",
    "lib.sourcelib.SourceLog",
    "bf3",
    "b3.lib.beaker.container",
    "common",
    "dumbprofile",
    "timezones",
    "b3.lib.sourcelib.SourceLog",
    "tests.test_functions",
    "runsnakerun.hotshotreader",
    "b3.parsers.cod",
    "frontline",
    "kthread",
    "stats",
    "b3.tools.memoryprofiler",
    "clients.test_Clients",
    "wop",
    "tests.plugins.test_adv",
    "b3.parsers.moh",
    "statlib.anova",
    "b3.game_event_router",
    "lib.yaml.events",
    "b3.tools.functionprofiler",
    "elementtree.ElementInclude",
    "b3.lib.beaker.cache",
    "frontline.protocol",
    "b3.lib.beaker.util",
    "functionprofiler",
    "extplugins",
    "test_postgresql",
    "lib.beaker.util",
    "parsers.ravaged.rcon",
    "b3.lib.yaml.composer",
    "plugins.test_admin",
    "TidyHTMLTreeBuilder",
    "lib.statlib.pstat",
    "tests.test_config",
    "b3_run",
    "plugin",
    "admin",
    "yaml.loader",
    "parsers.iourt42",
    "test_csgo",
    "parsers.iourt41",
    "b3.fake",
    "connection",
    "cyaml",
    "cod",
    "test_iourt42",
    "login",
    "test_iourt41",
    "b3.parsers.et",
    "corestats",
    "lib.elementtree.SgmlopXMLTreeBuilder",
    "b3.lib.yaml.error",
    "parsers.etpro",
    "lib.runsnakerun.hotshotreader",
    "plugins.spamcontrol",
    "test_download",
    "loader",
    "lib.runsnakerun.memdumploader",
    "test_sqlite",
    "frostbite.rcon",
    "frostbite2.rcon",
    "lib.beaker.crypto.jcecrypto",
    "parsers.frostbite2.rcon",
    "b3.plugins.admin",
    "ravaged",
    "scanner",
    "b3.plugins.pingwatch",
    "b3.lib.yaml.representer",
    "yaml.composer",
    "b3.lib.beaker.ext.sqla",
    "yaml",
    "emitter",
    "tests.clients",
    "plugins.sftpytail",
    "tests.parsers.test_arma2",
    "spamcontrol",
    "memoryprofiler",
    "b3.parsers",
    "sftpytail",
    "parsers.q3a.rcon",
    "parsers.bfbc2",
    "elementtree.SgmlopXMLTreeBuilder",
    "tests.setup_",
    "lib.yaml.representer",
    "yaml.cyaml",
    "cod7_rcon",
    "b3.lib.beaker.ext",
    "lib.argparse",
    "parsers.battleye.protocol",
    "frostbite2.punkbuster",
    "yaml.tokens",
    "b3.parsers.frostbite.abstractParser",
    "b3.lib.elementtree.ElementTree",
    "error",
    "tests.parsers.test_iourt42",
    "lib.yaml.constructor",
    "b3.lib.elementtree.HTMLTreeBuilder",
    "tests.clients.test_Clients",
    "b3.lib.elementtree.SimpleXMLWriter",
    "beaker.ext.memcached",
    "parsers.punkbuster",
    "parsers.frostbite2.punkbuster",
    "plugins.test_login",
    "parsers.frontline.rcon",
    "statlib.io",
    "b3_debug",
    "io",
    "dumper",
    "tests.plugins.test_spamcontrol",
    "b3.parsers.battleye.abstractParser",
    "b3.parsers.ravaged",
    "test_Storage",
    "HTMLTreeBuilder",
    "beaker.ext.database",
    "test_tk",
    "runsnakerun",
    "events",
    "status",
    "wop15",
    "parsers.oa081",
    "b3.plugins.welcome",
    "functions",
    "lib.runsnakerun.runsnake",
    "bfbc2",
    "b3.lib.yaml.reader",
    "beaker.middleware",
    "test_status",
    "b3.storage.database",
    "tests.parsers.frostbite2.test_util",
    "elementtree.TidyTools",
    "tests.test_cron",
    "b3.parsers.ro2",
    "database",
    "b3.plugins.ftpytail",
    "yaml.serializer",
    "b3.parsers.frostbite",
    "b3.parsers.wop15",
    "moh",
    "battleye.abstractParser",
    "setup_",
    "test_HomefrontParser",
    "protocol",
    "frostbite.abstractParser",
    "lib.yaml.error",
    "tests.storage.test_mysql",
    "b3.parsers.bf3",
    "b3.plugins.status",
    "b3.run",
    "plugins.test_adv",
    "test_parser",
    "tests.plugins",
    "b3.cvar",
    "test_util",
    "tests.parsers.q3a",
    "parsers.q3a",
    "lib.runsnakerun.squaremap",
    "ElementTree",
    "lib.beaker.ext.database",
    "b3.parsers.q3a.abstractParser",
    "b3.lib.feedparser",
    "SimpleXMLWriter",
    "cod6",
    "parsers.csgo",
    "tests.parsers.homefront.test_HomefrontParser",
    "anova",
    "source",
    "b3.lib.elementtree.ElementIron",
    "sof2",
    "b3.lib.statlib.stats",
    "parsers.frostbite2",
    "build",
    "tests",
    "lib.beaker.session",
    "parsers.frostbite.abstractParser",
    "b3.lib.beaker.ext.database",
    "game",
    "pstat",
    "b3.lib.profilebrowser",
    "b3.extplugins.xlrstats",
    "resolver",
    "parsers.frostbite2.protocol",
    "parsers.frostbite.rcon",
    "parsers.ravaged.ravaged_rcon",
    "lib.elementtree.ElementIron",
    "test_functions",
    "httpytail",
    "smg11",
    "hotshotreader",
    "test_admin_functional",
    "b3.lib.runsnakerun.hotshotreader",
    "ravaged.rcon",
    "b3.parsers.ravaged.rcon",
    "lib.elementtree.TidyHTMLTreeBuilder",
    "google",
    "composer",
    "parsers.frostbite.punkbuster",
    "b3.plugins.adv",
    "b3.plugins.punkbuster",
    "b3.plugins.censor",
    "parsers.homefront",
    "lib.kthread",
    "beaker.synchronization",
    "lib.elementtree.SimpleXMLTreeBuilder",
    "b3.parsers.altitude",
    "b3.tools.documentationBuilder",
    "codam",
    "parsers.smg11",
    "b3.parsers.homefront.rcon",
    "yaml.emitter",
    "beaker.converters",
    "elementtree.HTMLTreeBuilder",
    "tools.documentationBuilder",
    "lib.yaml.loader",
    "tests.storage.test_DatabaseStorage",
    "test_update",
    "run",
    "b3.plugins.tk",
    "b3.lib.elementtree.TidyTools",
    "b3.parsers.arma2",
    "yaml.constructor",
    "statlib.matfunc",
    "test_censor",
    "output",
    "elementtree",
    "lib.beaker.middleware",
    "b3.lib.yaml.constructor",
    "XMLTreeBuilder",
    "beaker.util",
    "game_event_router",
    "tests.parsers.test_ravaged",
    "b3.lib.beaker.ext.memcached",
    "b3.tools.logdiagnostic",
    "tests.run",
    "lib.beaker.crypto.pbkdf2",
    "constructor",
    "storage.test_sqlite",
    "elementtree.ElementIron",
    "parsers.test_bf3",
    "lib.elementtree.XMLTreeBuilder",
    "parsers.q3a.test_abstractParser",
    "tests.parsers",
    "cvar",
    "beaker.cache",
    "b3.parsers.homefront",
    "b3.parsers.iourt41",
    "b3.parsers.iourt42",
    "beaker.crypto.pycrypto",
    "b3.parsers.smg11",
    "b3.lib.yaml",
    "lib.runsnakerun.pstatsloader",
    "lib.beaker.container",
    "beaker.ext.google",
    "parsers.q3a.abstractParser",
    "tests.clients.test_Client",
    "ravaged.ravaged_rcon",
    "lib.yaml",
    "b3.pkg_handler",
    "altitude",
    "b3.parsers.cod5",
    "b3.update",
    "test_DatabaseStorage",
    "parsers.frostbite.test_util",
    "tests.parsers.test_iourt41",
    "storage.test_mysql",
    "logdiagnostic",
    "b3.parsers.wop",
    "b3.lib.kthread",
    "TidyTools",
    "b3.parsers.sof2pm",
    "plugins.censor",
    "b3.lib.statlib.pstat",
    "b3.lib.statlib",
    "frostbite2.util",
    "elementtree.XMLTreeBuilder",
    "parsers.homefront.protocol",
    "beaker.container",
    "test_ravaged",
    "b3.lib.yaml.dumper",
    "middleware",
    "homefront.protocol",
    "b3.lib.elementtree.XMLTreeBuilder",
    "crypto.pbkdf2",
    "q3a.rcon",
    "lib.beaker.ext.memcached",
    "iourt41",
    "iourt42",
    "lib.sourcelib.SourceQuery",
    "parsers.cod2",
    "parsers.cod4",
    "storage.test_Storage",
    "parsers.cod6",
    "parsers.cod7",
    "parsers.cod8",
    "parser",
    "censor",
    "lib.beaker.ext.sqla",
    "frostbite2.test_util",
    "parsers.source.rcon",
    "test_Client",
    "tests.parsers.frostbite2.test_abstractParser",
    "oa081",
    "etpro",
    "parsers.test_ravaged",
    "frostbite2.abstractParser",
    "tests.parsers.test_bf3",
    "pkg_handler",
    "crypto.pycrypto",
    "lib.yaml.dumper",
    "parsers.source",
    "b3.lib.elementtree.SimpleXMLTreeBuilder",
    "storage",
    "ext",
    "battleye.protocol",
    "py2exe_builder.build",
    "tests.setup_.test_download",
    "lib.runsnakerun",
    "b3.parsers.battleye.rcon",
    "b3.lib.beaker.crypto.util",
    "q3a.abstractParser",
    "parsers.frostbite2.test_util",
    "welcome",
    "update",
    "b3.lib.beaker.middleware",
    "setup_.test_download",
    "frostbite.connection",
    "lib.yaml.nodes",
    "lib.yaml.composer",
    "csgo",
    "b3.lib.beaker.crypto.pbkdf2",
    "plugins.test_tk",
    "pycrypto",
    "pbkdf2",
    "lib.statlib",
    "PurePythonGeoIP",
    "b3.lib.statlib.anova",
    "test_login",
    "b3.lib.runsnakerun.memdumploader",
    "test_config",
    "serializer"
]