[
    "tasks",
    "frontend",
    "aurora_app.stages",
    "app",
    "aurora_app.runner",
    "versions.370b494d9871_",
    "runner",
    "users.views",
    "versions.141ceff13f17_change_commit_size",
    "stages.views",
    "users.forms",
    "aurora_app.projects",
    "aurora_app.migrations.alembic.versions.141ceff13f17_change_commit_size",
    "tasks.forms",
    "aurora_app.migrations.alembic",
    "migrations.alembic",
    "tasks.models",
    "deployments",
    "forms",
    "users.models",
    "aurora_app.deployments",
    "aurora_app.projects.tasks",
    "aurora_app.frontend.views",
    "aurora_app.stages.views",
    "aurora_app",
    "aurora_app.deployments.models",
    "aurora_app.migrations.alembic.versions",
    "projects.forms",
    "aurora_app.notifications.models",
    "deployments.models",
    "alembic.versions.47195a8a23f3_",
    "docs",
    "aurora_app.projects.constants",
    "aurora_app.tasks.forms",
    "aurora_app.users",
    "aurora_app.migrations.alembic.versions.370b494d9871_",
    "aurora_app.deployments.views",
    "migrations.alembic.versions.47195a8a23f3_",
    "aurora_app.users.models",
    "projects",
    "aurora_app.users.forms",
    "aurora_app.users.views",
    "projects.constants",
    "deployments.views",
    "aurora_app.frontend",
    "versions",
    "decorators",
    "aurora_app.notifications.views",
    "aurora_app.config",
    "aurora_app.projects.forms",
    "aurora_app.stages.forms",
    "aurora_app.projects.views",
    "aurora_app.tasks.views",
    "aurora_app.migrations.alembic.versions.47195a8a23f3_",
    "frontend.forms",
    "stages.models",
    "exceptions",
    "stages",
    "aurora_app.utils",
    "aurora_app.deployments.constants",
    "projects.views",
    "deployments.constants",
    "utils",
    "notifications.views",
    "370b494d9871_",
    "aurora_app.deployments.tasks",
    "tasks.views",
    "conf",
    "deployments.tasks",
    "migrations.alembic.versions.141ceff13f17_change_commit_size",
    "aurora_app.users.constants",
    "users",
    "alembic.versions.141ceff13f17_change_commit_size",
    "stages.forms",
    "projects.tasks",
    "views",
    "alembic.versions.370b494d9871_",
    "migrations",
    "migrations.alembic.versions",
    "models",
    "versions.47195a8a23f3_",
    "aurora_app.tasks",
    "env",
    "config",
    "aurora_app.stages.models",
    "migrations.alembic.versions.370b494d9871_",
    "141ceff13f17_change_commit_size",
    "users.constants",
    "aurora_app.tasks.models",
    "aurora_app.frontend.forms",
    "aurora_app.migrations",
    "alembic.env",
    "aurora_app.migrations.alembic.env",
    "aurora_app.projects.models",
    "aurora_app.app",
    "constants",
    "frontend.views",
    "aurora_app.projects.exceptions",
    "notifications",
    "aurora_app.decorators",
    "notifications.models",
    "aurora_app.extensions",
    "aurora_app.notifications",
    "docs.conf",
    "alembic.versions",
    "extensions",
    "projects.exceptions",
    "47195a8a23f3_",
    "migrations.alembic.env",
    "projects.models",
    "alembic"
]