{
    "libs": [
        "argparse",
        "re",
        "unittest",
        "redis",
        "sys",
        "yaml",
        "json",
        "collections",
        "time",
        "fl",
        "mock"
    ]
}