{
    "libs": [
        "ali",
        "unittest",
        "datetime",
        "posixpath",
        "diamondb",
        "tempfile",
        "re",
        "unittest2",
        "division",
        "optparse",
        "glob",
        "inspect",
        "sys",
        "colorama",
        "path",
        "subprocess",
        "mtrandom",
        "traceback",
        "pkg_resources",
        "kl",
        "jav",
        "itertools",
        "time",
        "os"
    ]
}