{
    "archive_url": "https://api.github.com/repos/callowayproject/django-objectpermissions/{archive_format}{/ref}",
    "assignees_url": "https://api.github.com/repos/callowayproject/django-objectpermissions/assignees{/user}",
    "blobs_url": "https://api.github.com/repos/callowayproject/django-objectpermissions/git/blobs{/sha}",
    "branches_url": "https://api.github.com/repos/callowayproject/django-objectpermissions/branches{/branch}",
    "clone_url": "https://github.com/callowayproject/django-objectpermissions.git",
    "collaborators_url": "https://api.github.com/repos/callowayproject/django-objectpermissions/collaborators{/collaborator}",
    "comments_url": "https://api.github.com/repos/callowayproject/django-objectpermissions/comments{/number}",
    "commits_url": "https://api.github.com/repos/callowayproject/django-objectpermissions/commits{/sha}",
    "compare_url": "https://api.github.com/repos/callowayproject/django-objectpermissions/compare/{base}...{head}",
    "contents_url": "https://api.github.com/repos/callowayproject/django-objectpermissions/contents/{+path}",
    "contributors_url": "https://api.github.com/repos/callowayproject/django-objectpermissions/contributors",
    "created_at": "2009-12-10T02:10:30Z",
    "default_branch": "master",
    "description": "An app to add object-level/row-level permissions to users and groups. Each model can have different permissions.",
    "downloads_url": "https://api.github.com/repos/callowayproject/django-objectpermissions/downloads",
    "events_url": "https://api.github.com/repos/callowayproject/django-objectpermissions/events",
    "fork": false,
    "forks": 7,
    "forks_count": 7,
    "forks_url": "https://api.github.com/repos/callowayproject/django-objectpermissions/forks",
    "full_name": "callowayproject/django-objectpermissions",
    "git_commits_url": "https://api.github.com/repos/callowayproject/django-objectpermissions/git/commits{/sha}",
    "git_refs_url": "https://api.github.com/repos/callowayproject/django-objectpermissions/git/refs{/sha}",
    "git_tags_url": "https://api.github.com/repos/callowayproject/django-objectpermissions/git/tags{/sha}",
    "git_url": "git://github.com/callowayproject/django-objectpermissions.git",
    "has_downloads": true,
    "has_issues": true,
    "has_wiki": true,
    "homepage": "",
    "hooks_url": "https://api.github.com/repos/callowayproject/django-objectpermissions/hooks",
    "html_url": "https://github.com/callowayproject/django-objectpermissions",
    "id": 412309,
    "issue_comment_url": "https://api.github.com/repos/callowayproject/django-objectpermissions/issues/comments/{number}",
    "issue_events_url": "https://api.github.com/repos/callowayproject/django-objectpermissions/issues/events{/number}",
    "issues_url": "https://api.github.com/repos/callowayproject/django-objectpermissions/issues{/number}",
    "keys_url": "https://api.github.com/repos/callowayproject/django-objectpermissions/keys{/key_id}",
    "labels_url": "https://api.github.com/repos/callowayproject/django-objectpermissions/labels{/name}",
    "language": "Python",
    "languages_url": "https://api.github.com/repos/callowayproject/django-objectpermissions/languages",
    "merges_url": "https://api.github.com/repos/callowayproject/django-objectpermissions/merges",
    "milestones_url": "https://api.github.com/repos/callowayproject/django-objectpermissions/milestones{/number}",
    "mirror_url": null,
    "name": "django-objectpermissions",
    "notifications_url": "https://api.github.com/repos/callowayproject/django-objectpermissions/notifications{?since,all,participating}",
    "open_issues": 0,
    "open_issues_count": 0,
    "owner": {
        "avatar_url": "https://avatars.githubusercontent.com/u/305772?",
        "events_url": "https://api.github.com/users/callowayproject/events{/privacy}",
        "followers_url": "https://api.github.com/users/callowayproject/followers",
        "following_url": "https://api.github.com/users/callowayproject/following{/other_user}",
        "gists_url": "https://api.github.com/users/callowayproject/gists{/gist_id}",
        "gravatar_id": "b18128524964a816870d10c9495ddf18",
        "html_url": "https://github.com/callowayproject",
        "id": 305772,
        "login": "callowayproject",
        "organizations_url": "https://api.github.com/users/callowayproject/orgs",
        "received_events_url": "https://api.github.com/users/callowayproject/received_events",
        "repos_url": "https://api.github.com/users/callowayproject/repos",
        "site_admin": false,
        "starred_url": "https://api.github.com/users/callowayproject/starred{/owner}{/repo}",
        "subscriptions_url": "https://api.github.com/users/callowayproject/subscriptions",
        "type": "Organization",
        "url": "https://api.github.com/users/callowayproject"
    },
    "private": false,
    "pulls_url": "https://api.github.com/repos/callowayproject/django-objectpermissions/pulls{/number}",
    "pushed_at": "2010-10-08T11:23:05Z",
    "releases_url": "https://api.github.com/repos/callowayproject/django-objectpermissions/releases{/id}",
    "score": 1.0,
    "size": 356,
    "ssh_url": "git@github.com:callowayproject/django-objectpermissions.git",
    "stargazers_count": 76,
    "stargazers_url": "https://api.github.com/repos/callowayproject/django-objectpermissions/stargazers",
    "statuses_url": "https://api.github.com/repos/callowayproject/django-objectpermissions/statuses/{sha}",
    "subscribers_url": "https://api.github.com/repos/callowayproject/django-objectpermissions/subscribers",
    "subscription_url": "https://api.github.com/repos/callowayproject/django-objectpermissions/subscription",
    "svn_url": "https://github.com/callowayproject/django-objectpermissions",
    "tags_url": "https://api.github.com/repos/callowayproject/django-objectpermissions/tags",
    "teams_url": "https://api.github.com/repos/callowayproject/django-objectpermissions/teams",
    "trees_url": "https://api.github.com/repos/callowayproject/django-objectpermissions/git/trees{/sha}",
    "updated_at": "2013-11-28T07:15:38Z",
    "url": "https://api.github.com/repos/callowayproject/django-objectpermissions",
    "watchers": 76,
    "watchers_count": 76
}