{
    "archive_url": "https://api.github.com/repos/evanw/socket.io-python/{archive_format}{/ref}",
    "assignees_url": "https://api.github.com/repos/evanw/socket.io-python/assignees{/user}",
    "blobs_url": "https://api.github.com/repos/evanw/socket.io-python/git/blobs{/sha}",
    "branches_url": "https://api.github.com/repos/evanw/socket.io-python/branches{/branch}",
    "clone_url": "https://github.com/evanw/socket.io-python.git",
    "collaborators_url": "https://api.github.com/repos/evanw/socket.io-python/collaborators{/collaborator}",
    "comments_url": "https://api.github.com/repos/evanw/socket.io-python/comments{/number}",
    "commits_url": "https://api.github.com/repos/evanw/socket.io-python/commits{/sha}",
    "compare_url": "https://api.github.com/repos/evanw/socket.io-python/compare/{base}...{head}",
    "contents_url": "https://api.github.com/repos/evanw/socket.io-python/contents/{+path}",
    "contributors_url": "https://api.github.com/repos/evanw/socket.io-python/contributors",
    "created_at": "2011-03-03T05:26:50Z",
    "default_branch": "master",
    "description": "A socket.io bridge for Python",
    "downloads_url": "https://api.github.com/repos/evanw/socket.io-python/downloads",
    "events_url": "https://api.github.com/repos/evanw/socket.io-python/events",
    "fork": false,
    "forks": 9,
    "forks_count": 9,
    "forks_url": "https://api.github.com/repos/evanw/socket.io-python/forks",
    "full_name": "evanw/socket.io-python",
    "git_commits_url": "https://api.github.com/repos/evanw/socket.io-python/git/commits{/sha}",
    "git_refs_url": "https://api.github.com/repos/evanw/socket.io-python/git/refs{/sha}",
    "git_tags_url": "https://api.github.com/repos/evanw/socket.io-python/git/tags{/sha}",
    "git_url": "git://github.com/evanw/socket.io-python.git",
    "has_downloads": true,
    "has_issues": true,
    "has_wiki": true,
    "homepage": "",
    "hooks_url": "https://api.github.com/repos/evanw/socket.io-python/hooks",
    "html_url": "https://github.com/evanw/socket.io-python",
    "id": 1433891,
    "issue_comment_url": "https://api.github.com/repos/evanw/socket.io-python/issues/comments/{number}",
    "issue_events_url": "https://api.github.com/repos/evanw/socket.io-python/issues/events{/number}",
    "issues_url": "https://api.github.com/repos/evanw/socket.io-python/issues{/number}",
    "keys_url": "https://api.github.com/repos/evanw/socket.io-python/keys{/key_id}",
    "labels_url": "https://api.github.com/repos/evanw/socket.io-python/labels{/name}",
    "language": "Python",
    "languages_url": "https://api.github.com/repos/evanw/socket.io-python/languages",
    "merges_url": "https://api.github.com/repos/evanw/socket.io-python/merges",
    "milestones_url": "https://api.github.com/repos/evanw/socket.io-python/milestones{/number}",
    "mirror_url": null,
    "name": "socket.io-python",
    "notifications_url": "https://api.github.com/repos/evanw/socket.io-python/notifications{?since,all,participating}",
    "open_issues": 1,
    "open_issues_count": 1,
    "owner": {
        "avatar_url": "https://avatars.githubusercontent.com/u/406394?",
        "events_url": "https://api.github.com/users/evanw/events{/privacy}",
        "followers_url": "https://api.github.com/users/evanw/followers",
        "following_url": "https://api.github.com/users/evanw/following{/other_user}",
        "gists_url": "https://api.github.com/users/evanw/gists{/gist_id}",
        "gravatar_id": "db7cdc9833cff457df70310949f9b610",
        "html_url": "https://github.com/evanw",
        "id": 406394,
        "login": "evanw",
        "organizations_url": "https://api.github.com/users/evanw/orgs",
        "received_events_url": "https://api.github.com/users/evanw/received_events",
        "repos_url": "https://api.github.com/users/evanw/repos",
        "site_admin": false,
        "starred_url": "https://api.github.com/users/evanw/starred{/owner}{/repo}",
        "subscriptions_url": "https://api.github.com/users/evanw/subscriptions",
        "type": "User",
        "url": "https://api.github.com/users/evanw"
    },
    "private": false,
    "pulls_url": "https://api.github.com/repos/evanw/socket.io-python/pulls{/number}",
    "pushed_at": "2011-08-10T07:47:00Z",
    "releases_url": "https://api.github.com/repos/evanw/socket.io-python/releases{/id}",
    "score": 1.0,
    "size": 119,
    "ssh_url": "git@github.com:evanw/socket.io-python.git",
    "stargazers_count": 44,
    "stargazers_url": "https://api.github.com/repos/evanw/socket.io-python/stargazers",
    "statuses_url": "https://api.github.com/repos/evanw/socket.io-python/statuses/{sha}",
    "subscribers_url": "https://api.github.com/repos/evanw/socket.io-python/subscribers",
    "subscription_url": "https://api.github.com/repos/evanw/socket.io-python/subscription",
    "svn_url": "https://github.com/evanw/socket.io-python",
    "tags_url": "https://api.github.com/repos/evanw/socket.io-python/tags",
    "teams_url": "https://api.github.com/repos/evanw/socket.io-python/teams",
    "trees_url": "https://api.github.com/repos/evanw/socket.io-python/git/trees{/sha}",
    "updated_at": "2014-01-17T09:20:29Z",
    "url": "https://api.github.com/repos/evanw/socket.io-python",
    "watchers": 44,
    "watchers_count": 44
}