{
    "archive_url": "https://api.github.com/repos/darrellsilver/norc/{archive_format}{/ref}",
    "assignees_url": "https://api.github.com/repos/darrellsilver/norc/assignees{/user}",
    "blobs_url": "https://api.github.com/repos/darrellsilver/norc/git/blobs{/sha}",
    "branches_url": "https://api.github.com/repos/darrellsilver/norc/branches{/branch}",
    "clone_url": "https://github.com/darrellsilver/norc.git",
    "collaborators_url": "https://api.github.com/repos/darrellsilver/norc/collaborators{/collaborator}",
    "comments_url": "https://api.github.com/repos/darrellsilver/norc/comments{/number}",
    "commits_url": "https://api.github.com/repos/darrellsilver/norc/commits{/sha}",
    "compare_url": "https://api.github.com/repos/darrellsilver/norc/compare/{base}...{head}",
    "contents_url": "https://api.github.com/repos/darrellsilver/norc/contents/{+path}",
    "contributors_url": "https://api.github.com/repos/darrellsilver/norc/contributors",
    "created_at": "2009-10-26T20:47:34Z",
    "default_branch": "master",
    "description": "A replacement for Cron to manage logging, error reporting, dependencies, resource management and historical run times.  Tasks are not host specific and can be remotely administered.",
    "downloads_url": "https://api.github.com/repos/darrellsilver/norc/downloads",
    "events_url": "https://api.github.com/repos/darrellsilver/norc/events",
    "fork": false,
    "forks": 10,
    "forks_count": 10,
    "forks_url": "https://api.github.com/repos/darrellsilver/norc/forks",
    "full_name": "darrellsilver/norc",
    "git_commits_url": "https://api.github.com/repos/darrellsilver/norc/git/commits{/sha}",
    "git_refs_url": "https://api.github.com/repos/darrellsilver/norc/git/refs{/sha}",
    "git_tags_url": "https://api.github.com/repos/darrellsilver/norc/git/tags{/sha}",
    "git_url": "git://github.com/darrellsilver/norc.git",
    "has_downloads": true,
    "has_issues": true,
    "has_wiki": false,
    "homepage": "http://www.perpetually.com",
    "hooks_url": "https://api.github.com/repos/darrellsilver/norc/hooks",
    "html_url": "https://github.com/darrellsilver/norc",
    "id": 350498,
    "issue_comment_url": "https://api.github.com/repos/darrellsilver/norc/issues/comments/{number}",
    "issue_events_url": "https://api.github.com/repos/darrellsilver/norc/issues/events{/number}",
    "issues_url": "https://api.github.com/repos/darrellsilver/norc/issues{/number}",
    "keys_url": "https://api.github.com/repos/darrellsilver/norc/keys{/key_id}",
    "labels_url": "https://api.github.com/repos/darrellsilver/norc/labels{/name}",
    "language": "Python",
    "languages_url": "https://api.github.com/repos/darrellsilver/norc/languages",
    "merges_url": "https://api.github.com/repos/darrellsilver/norc/merges",
    "milestones_url": "https://api.github.com/repos/darrellsilver/norc/milestones{/number}",
    "mirror_url": null,
    "name": "norc",
    "notifications_url": "https://api.github.com/repos/darrellsilver/norc/notifications{?since,all,participating}",
    "open_issues": 15,
    "open_issues_count": 15,
    "owner": {
        "avatar_url": "https://avatars.githubusercontent.com/u/24387?",
        "events_url": "https://api.github.com/users/darrellsilver/events{/privacy}",
        "followers_url": "https://api.github.com/users/darrellsilver/followers",
        "following_url": "https://api.github.com/users/darrellsilver/following{/other_user}",
        "gists_url": "https://api.github.com/users/darrellsilver/gists{/gist_id}",
        "gravatar_id": "daa61586a04c9237cb553df086c31926",
        "html_url": "https://github.com/darrellsilver",
        "id": 24387,
        "login": "darrellsilver",
        "organizations_url": "https://api.github.com/users/darrellsilver/orgs",
        "received_events_url": "https://api.github.com/users/darrellsilver/received_events",
        "repos_url": "https://api.github.com/users/darrellsilver/repos",
        "site_admin": false,
        "starred_url": "https://api.github.com/users/darrellsilver/starred{/owner}{/repo}",
        "subscriptions_url": "https://api.github.com/users/darrellsilver/subscriptions",
        "type": "User",
        "url": "https://api.github.com/users/darrellsilver"
    },
    "private": false,
    "pulls_url": "https://api.github.com/repos/darrellsilver/norc/pulls{/number}",
    "pushed_at": "2012-02-13T22:05:24Z",
    "releases_url": "https://api.github.com/repos/darrellsilver/norc/releases{/id}",
    "score": 1.0,
    "size": 1249,
    "ssh_url": "git@github.com:darrellsilver/norc.git",
    "stargazers_count": 124,
    "stargazers_url": "https://api.github.com/repos/darrellsilver/norc/stargazers",
    "statuses_url": "https://api.github.com/repos/darrellsilver/norc/statuses/{sha}",
    "subscribers_url": "https://api.github.com/repos/darrellsilver/norc/subscribers",
    "subscription_url": "https://api.github.com/repos/darrellsilver/norc/subscription",
    "svn_url": "https://github.com/darrellsilver/norc",
    "tags_url": "https://api.github.com/repos/darrellsilver/norc/tags",
    "teams_url": "https://api.github.com/repos/darrellsilver/norc/teams",
    "trees_url": "https://api.github.com/repos/darrellsilver/norc/git/trees{/sha}",
    "updated_at": "2014-05-01T20:06:35Z",
    "url": "https://api.github.com/repos/darrellsilver/norc",
    "watchers": 124,
    "watchers_count": 124
}