{
    "archive_url": "https://api.github.com/repos/mattwilliamson/arduino-sms-alarm/{archive_format}{/ref}",
    "assignees_url": "https://api.github.com/repos/mattwilliamson/arduino-sms-alarm/assignees{/user}",
    "blobs_url": "https://api.github.com/repos/mattwilliamson/arduino-sms-alarm/git/blobs{/sha}",
    "branches_url": "https://api.github.com/repos/mattwilliamson/arduino-sms-alarm/branches{/branch}",
    "clone_url": "https://github.com/mattwilliamson/arduino-sms-alarm.git",
    "collaborators_url": "https://api.github.com/repos/mattwilliamson/arduino-sms-alarm/collaborators{/collaborator}",
    "comments_url": "https://api.github.com/repos/mattwilliamson/arduino-sms-alarm/comments{/number}",
    "commits_url": "https://api.github.com/repos/mattwilliamson/arduino-sms-alarm/commits{/sha}",
    "compare_url": "https://api.github.com/repos/mattwilliamson/arduino-sms-alarm/compare/{base}...{head}",
    "contents_url": "https://api.github.com/repos/mattwilliamson/arduino-sms-alarm/contents/{+path}",
    "contributors_url": "https://api.github.com/repos/mattwilliamson/arduino-sms-alarm/contributors",
    "created_at": "2012-05-01T17:10:36Z",
    "default_branch": "master",
    "description": "An Arduino based burglar alarm that sends an SMS when motion is detected",
    "downloads_url": "https://api.github.com/repos/mattwilliamson/arduino-sms-alarm/downloads",
    "events_url": "https://api.github.com/repos/mattwilliamson/arduino-sms-alarm/events",
    "fork": false,
    "forks": 33,
    "forks_count": 33,
    "forks_url": "https://api.github.com/repos/mattwilliamson/arduino-sms-alarm/forks",
    "full_name": "mattwilliamson/arduino-sms-alarm",
    "git_commits_url": "https://api.github.com/repos/mattwilliamson/arduino-sms-alarm/git/commits{/sha}",
    "git_refs_url": "https://api.github.com/repos/mattwilliamson/arduino-sms-alarm/git/refs{/sha}",
    "git_tags_url": "https://api.github.com/repos/mattwilliamson/arduino-sms-alarm/git/tags{/sha}",
    "git_url": "git://github.com/mattwilliamson/arduino-sms-alarm.git",
    "has_downloads": true,
    "has_issues": true,
    "has_wiki": true,
    "homepage": null,
    "hooks_url": "https://api.github.com/repos/mattwilliamson/arduino-sms-alarm/hooks",
    "html_url": "https://github.com/mattwilliamson/arduino-sms-alarm",
    "id": 4194373,
    "issue_comment_url": "https://api.github.com/repos/mattwilliamson/arduino-sms-alarm/issues/comments/{number}",
    "issue_events_url": "https://api.github.com/repos/mattwilliamson/arduino-sms-alarm/issues/events{/number}",
    "issues_url": "https://api.github.com/repos/mattwilliamson/arduino-sms-alarm/issues{/number}",
    "keys_url": "https://api.github.com/repos/mattwilliamson/arduino-sms-alarm/keys{/key_id}",
    "labels_url": "https://api.github.com/repos/mattwilliamson/arduino-sms-alarm/labels{/name}",
    "language": "Python",
    "languages_url": "https://api.github.com/repos/mattwilliamson/arduino-sms-alarm/languages",
    "merges_url": "https://api.github.com/repos/mattwilliamson/arduino-sms-alarm/merges",
    "milestones_url": "https://api.github.com/repos/mattwilliamson/arduino-sms-alarm/milestones{/number}",
    "mirror_url": null,
    "name": "arduino-sms-alarm",
    "notifications_url": "https://api.github.com/repos/mattwilliamson/arduino-sms-alarm/notifications{?since,all,participating}",
    "open_issues": 0,
    "open_issues_count": 0,
    "owner": {
        "avatar_url": "https://avatars.githubusercontent.com/u/47987?",
        "events_url": "https://api.github.com/users/mattwilliamson/events{/privacy}",
        "followers_url": "https://api.github.com/users/mattwilliamson/followers",
        "following_url": "https://api.github.com/users/mattwilliamson/following{/other_user}",
        "gists_url": "https://api.github.com/users/mattwilliamson/gists{/gist_id}",
        "gravatar_id": "f29efc3543a4e39250690e09e6021a5a",
        "html_url": "https://github.com/mattwilliamson",
        "id": 47987,
        "login": "mattwilliamson",
        "organizations_url": "https://api.github.com/users/mattwilliamson/orgs",
        "received_events_url": "https://api.github.com/users/mattwilliamson/received_events",
        "repos_url": "https://api.github.com/users/mattwilliamson/repos",
        "site_admin": false,
        "starred_url": "https://api.github.com/users/mattwilliamson/starred{/owner}{/repo}",
        "subscriptions_url": "https://api.github.com/users/mattwilliamson/subscriptions",
        "type": "User",
        "url": "https://api.github.com/users/mattwilliamson"
    },
    "private": false,
    "pulls_url": "https://api.github.com/repos/mattwilliamson/arduino-sms-alarm/pulls{/number}",
    "pushed_at": "2012-05-02T17:08:42Z",
    "releases_url": "https://api.github.com/repos/mattwilliamson/arduino-sms-alarm/releases{/id}",
    "score": 1.0,
    "size": 3428,
    "ssh_url": "git@github.com:mattwilliamson/arduino-sms-alarm.git",
    "stargazers_count": 188,
    "stargazers_url": "https://api.github.com/repos/mattwilliamson/arduino-sms-alarm/stargazers",
    "statuses_url": "https://api.github.com/repos/mattwilliamson/arduino-sms-alarm/statuses/{sha}",
    "subscribers_url": "https://api.github.com/repos/mattwilliamson/arduino-sms-alarm/subscribers",
    "subscription_url": "https://api.github.com/repos/mattwilliamson/arduino-sms-alarm/subscription",
    "svn_url": "https://github.com/mattwilliamson/arduino-sms-alarm",
    "tags_url": "https://api.github.com/repos/mattwilliamson/arduino-sms-alarm/tags",
    "teams_url": "https://api.github.com/repos/mattwilliamson/arduino-sms-alarm/teams",
    "trees_url": "https://api.github.com/repos/mattwilliamson/arduino-sms-alarm/git/trees{/sha}",
    "updated_at": "2014-01-07T17:00:00Z",
    "url": "https://api.github.com/repos/mattwilliamson/arduino-sms-alarm",
    "watchers": 188,
    "watchers_count": 188
}