[
    "frontend",
    "views.auth",
    "manage",
    "sina.parsers",
    "sina.oauth",
    "forms.tweets",
    "fcgi",
    "api",
    "forms.taoke",
    "weibo.qq.oauth",
    "webapp.forms",
    "scripts.models",
    "weibo.qq.utils",
    "webapp.views.frontend",
    "signals",
    "utils.imageProcess",
    "qq.auth",
    "qq.parsers",
    "views.frontend",
    "cache",
    "forms",
    "webapp.scripts.mytimer",
    "qq.binder",
    "tweets",
    "weibo.qq.api",
    "models.types",
    "mydb",
    "views.admin",
    "sina.cache",
    "qq",
    "sina.cursor",
    "views",
    "weibo.qq.auth",
    "webapp.scripts",
    "weibo.sina.parsers",
    "auth",
    "weibo.qq.models",
    "webapp.models.users",
    "oauth",
    "webapp.helpers",
    "imageProcess",
    "views.taoke",
    "permissions",
    "webapp.scripts.gzipSupport",
    "weibo.qq.parsers",
    "webapp.views",
    "sina.auth",
    "webapp.scripts.mydb",
    "weibo.sina.binder",
    "cursor",
    "webapp.signals",
    "qq.api",
    "error",
    "webapp.models.taoke",
    "scripts.taobaoapi",
    "weibo.qq.error",
    "webapp.views.admin",
    "weibo.sina.api",
    "webapp.forms.tweets",
    "sina.error",
    "utils",
    "models.taoke",
    "webapp.scripts.taobaoapi",
    "weibo.sina",
    "streaming",
    "scripts.taobao_func",
    "parsers",
    "webapp.extensions",
    "weibo.qq",
    "sina.models",
    "qq.cache",
    "taobaoapi",
    "models.users",
    "weibo",
    "gzipSupport",
    "scripts.mytimer",
    "webapp.views.taoke",
    "weibo.sina.oauth",
    "webapp.permissions",
    "webapp.views.auth",
    "helpers",
    "weibo.sina.cursor",
    "scripts.mydb",
    "compat",
    "weibo.sina.utils",
    "users",
    "weibo.qq.compat",
    "models",
    "taoke",
    "weibo.sina.cache",
    "sina.streaming",
    "taobao_func",
    "binder",
    "webapp.models.types",
    "webapp.forms.taoke",
    "scripts",
    "webapp",
    "weibo.sina.models",
    "qq.utils",
    "weibo.qq.binder",
    "types",
    "sina",
    "weibo.sina.auth",
    "weibo.qq.cache",
    "sina.api",
    "sina.binder",
    "webapp.scripts.models",
    "qq.compat",
    "admin",
    "weibo.sina.error",
    "webapp.utils",
    "weibo.sina.streaming",
    "scripts.gzipSupport",
    "mytimer",
    "qq.models",
    "webapp.models",
    "qq.error",
    "webapp.utils.imageProcess",
    "extensions",
    "sina.utils",
    "webapp.scripts.taobao_func",
    "qq.oauth"
]