[
    "playlists",
    "parser",
    "dropbox.oauth",
    "rest",
    "soundcloud_id_to_permalink",
    "session",
    "dateutil.rrule",
    "rrule",
    "appengine_config",
    "tzwin",
    "dateutil.tz",
    "users",
    "dateutil",
    "tz",
    "make.build_chrome_webapp",
    "dateutil.parser",
    "make",
    "ping",
    "migrations",
    "dropbox.session",
    "playlists_toplist",
    "lastfm",
    "happytranslate",
    "main",
    "easter",
    "activities",
    "dropbox.rest",
    "flattr",
    "alternatives",
    "dateutil.relativedelta",
    "dateutil.easter",
    "build_chrome_webapp",
    "favorites",
    "mail",
    "oauth",
    "dropbox",
    "dateutil.tzwin",
    "me",
    "relativedelta",
    "sucks",
    "dropbox-handler",
    "client",
    "config_template",
    "external_users",
    "dropbox.client",
    "model"
]