{
    "archive_url": "https://api.github.com/repos/apendleton/djmicro/{archive_format}{/ref}",
    "assignees_url": "https://api.github.com/repos/apendleton/djmicro/assignees{/user}",
    "blobs_url": "https://api.github.com/repos/apendleton/djmicro/git/blobs{/sha}",
    "branches_url": "https://api.github.com/repos/apendleton/djmicro/branches{/branch}",
    "clone_url": "https://github.com/apendleton/djmicro.git",
    "collaborators_url": "https://api.github.com/repos/apendleton/djmicro/collaborators{/collaborator}",
    "comments_url": "https://api.github.com/repos/apendleton/djmicro/comments{/number}",
    "commits_url": "https://api.github.com/repos/apendleton/djmicro/commits{/sha}",
    "compare_url": "https://api.github.com/repos/apendleton/djmicro/compare/{base}...{head}",
    "contents_url": "https://api.github.com/repos/apendleton/djmicro/contents/{+path}",
    "contributors_url": "https://api.github.com/repos/apendleton/djmicro/contributors",
    "created_at": "2012-03-03T03:44:08Z",
    "default_branch": "master",
    "description": "Experiment in turning django into a microframework",
    "downloads_url": "https://api.github.com/repos/apendleton/djmicro/downloads",
    "events_url": "https://api.github.com/repos/apendleton/djmicro/events",
    "fork": false,
    "forks": 9,
    "forks_count": 9,
    "forks_url": "https://api.github.com/repos/apendleton/djmicro/forks",
    "full_name": "apendleton/djmicro",
    "git_commits_url": "https://api.github.com/repos/apendleton/djmicro/git/commits{/sha}",
    "git_refs_url": "https://api.github.com/repos/apendleton/djmicro/git/refs{/sha}",
    "git_tags_url": "https://api.github.com/repos/apendleton/djmicro/git/tags{/sha}",
    "git_url": "git://github.com/apendleton/djmicro.git",
    "has_downloads": true,
    "has_issues": true,
    "has_wiki": true,
    "homepage": "",
    "hooks_url": "https://api.github.com/repos/apendleton/djmicro/hooks",
    "html_url": "https://github.com/apendleton/djmicro",
    "id": 3608408,
    "issue_comment_url": "https://api.github.com/repos/apendleton/djmicro/issues/comments/{number}",
    "issue_events_url": "https://api.github.com/repos/apendleton/djmicro/issues/events{/number}",
    "issues_url": "https://api.github.com/repos/apendleton/djmicro/issues{/number}",
    "keys_url": "https://api.github.com/repos/apendleton/djmicro/keys{/key_id}",
    "labels_url": "https://api.github.com/repos/apendleton/djmicro/labels{/name}",
    "language": "Python",
    "languages_url": "https://api.github.com/repos/apendleton/djmicro/languages",
    "merges_url": "https://api.github.com/repos/apendleton/djmicro/merges",
    "milestones_url": "https://api.github.com/repos/apendleton/djmicro/milestones{/number}",
    "mirror_url": null,
    "name": "djmicro",
    "notifications_url": "https://api.github.com/repos/apendleton/djmicro/notifications{?since,all,participating}",
    "open_issues": 1,
    "open_issues_count": 1,
    "owner": {
        "avatar_url": "https://avatars.githubusercontent.com/u/78930?",
        "events_url": "https://api.github.com/users/apendleton/events{/privacy}",
        "followers_url": "https://api.github.com/users/apendleton/followers",
        "following_url": "https://api.github.com/users/apendleton/following{/other_user}",
        "gists_url": "https://api.github.com/users/apendleton/gists{/gist_id}",
        "gravatar_id": "fda668757e02d6ca05784a2ff91776eb",
        "html_url": "https://github.com/apendleton",
        "id": 78930,
        "login": "apendleton",
        "organizations_url": "https://api.github.com/users/apendleton/orgs",
        "received_events_url": "https://api.github.com/users/apendleton/received_events",
        "repos_url": "https://api.github.com/users/apendleton/repos",
        "site_admin": false,
        "starred_url": "https://api.github.com/users/apendleton/starred{/owner}{/repo}",
        "subscriptions_url": "https://api.github.com/users/apendleton/subscriptions",
        "type": "User",
        "url": "https://api.github.com/users/apendleton"
    },
    "private": false,
    "pulls_url": "https://api.github.com/repos/apendleton/djmicro/pulls{/number}",
    "pushed_at": "2012-03-03T04:01:03Z",
    "releases_url": "https://api.github.com/repos/apendleton/djmicro/releases{/id}",
    "score": 1.0,
    "size": 101,
    "ssh_url": "git@github.com:apendleton/djmicro.git",
    "stargazers_count": 81,
    "stargazers_url": "https://api.github.com/repos/apendleton/djmicro/stargazers",
    "statuses_url": "https://api.github.com/repos/apendleton/djmicro/statuses/{sha}",
    "subscribers_url": "https://api.github.com/repos/apendleton/djmicro/subscribers",
    "subscription_url": "https://api.github.com/repos/apendleton/djmicro/subscription",
    "svn_url": "https://github.com/apendleton/djmicro",
    "tags_url": "https://api.github.com/repos/apendleton/djmicro/tags",
    "teams_url": "https://api.github.com/repos/apendleton/djmicro/teams",
    "trees_url": "https://api.github.com/repos/apendleton/djmicro/git/trees{/sha}",
    "updated_at": "2014-01-13T15:04:09Z",
    "url": "https://api.github.com/repos/apendleton/djmicro",
    "watchers": 81,
    "watchers_count": 81
}