{
    "archive_url": "https://api.github.com/repos/Ttl/evolutionary-circuits/{archive_format}{/ref}",
    "assignees_url": "https://api.github.com/repos/Ttl/evolutionary-circuits/assignees{/user}",
    "blobs_url": "https://api.github.com/repos/Ttl/evolutionary-circuits/git/blobs{/sha}",
    "branches_url": "https://api.github.com/repos/Ttl/evolutionary-circuits/branches{/branch}",
    "clone_url": "https://github.com/Ttl/evolutionary-circuits.git",
    "collaborators_url": "https://api.github.com/repos/Ttl/evolutionary-circuits/collaborators{/collaborator}",
    "comments_url": "https://api.github.com/repos/Ttl/evolutionary-circuits/comments{/number}",
    "commits_url": "https://api.github.com/repos/Ttl/evolutionary-circuits/commits{/sha}",
    "compare_url": "https://api.github.com/repos/Ttl/evolutionary-circuits/compare/{base}...{head}",
    "contents_url": "https://api.github.com/repos/Ttl/evolutionary-circuits/contents/{+path}",
    "contributors_url": "https://api.github.com/repos/Ttl/evolutionary-circuits/contributors",
    "created_at": "2012-07-07T11:03:55Z",
    "default_branch": "master",
    "description": "Automatically generates analog circuits using evolutionary algorithms",
    "downloads_url": "https://api.github.com/repos/Ttl/evolutionary-circuits/downloads",
    "events_url": "https://api.github.com/repos/Ttl/evolutionary-circuits/events",
    "fork": false,
    "forks": 7,
    "forks_count": 7,
    "forks_url": "https://api.github.com/repos/Ttl/evolutionary-circuits/forks",
    "full_name": "Ttl/evolutionary-circuits",
    "git_commits_url": "https://api.github.com/repos/Ttl/evolutionary-circuits/git/commits{/sha}",
    "git_refs_url": "https://api.github.com/repos/Ttl/evolutionary-circuits/git/refs{/sha}",
    "git_tags_url": "https://api.github.com/repos/Ttl/evolutionary-circuits/git/tags{/sha}",
    "git_url": "git://github.com/Ttl/evolutionary-circuits.git",
    "has_downloads": true,
    "has_issues": true,
    "has_wiki": true,
    "homepage": null,
    "hooks_url": "https://api.github.com/repos/Ttl/evolutionary-circuits/hooks",
    "html_url": "https://github.com/Ttl/evolutionary-circuits",
    "id": 4936825,
    "issue_comment_url": "https://api.github.com/repos/Ttl/evolutionary-circuits/issues/comments/{number}",
    "issue_events_url": "https://api.github.com/repos/Ttl/evolutionary-circuits/issues/events{/number}",
    "issues_url": "https://api.github.com/repos/Ttl/evolutionary-circuits/issues{/number}",
    "keys_url": "https://api.github.com/repos/Ttl/evolutionary-circuits/keys{/key_id}",
    "labels_url": "https://api.github.com/repos/Ttl/evolutionary-circuits/labels{/name}",
    "language": "Python",
    "languages_url": "https://api.github.com/repos/Ttl/evolutionary-circuits/languages",
    "merges_url": "https://api.github.com/repos/Ttl/evolutionary-circuits/merges",
    "milestones_url": "https://api.github.com/repos/Ttl/evolutionary-circuits/milestones{/number}",
    "mirror_url": null,
    "name": "evolutionary-circuits",
    "notifications_url": "https://api.github.com/repos/Ttl/evolutionary-circuits/notifications{?since,all,participating}",
    "open_issues": 2,
    "open_issues_count": 2,
    "owner": {
        "avatar_url": "https://avatars.githubusercontent.com/u/544240?",
        "events_url": "https://api.github.com/users/Ttl/events{/privacy}",
        "followers_url": "https://api.github.com/users/Ttl/followers",
        "following_url": "https://api.github.com/users/Ttl/following{/other_user}",
        "gists_url": "https://api.github.com/users/Ttl/gists{/gist_id}",
        "gravatar_id": "346f31cbd2c2d0335d3265d86044cfe2",
        "html_url": "https://github.com/Ttl",
        "id": 544240,
        "login": "Ttl",
        "organizations_url": "https://api.github.com/users/Ttl/orgs",
        "received_events_url": "https://api.github.com/users/Ttl/received_events",
        "repos_url": "https://api.github.com/users/Ttl/repos",
        "site_admin": false,
        "starred_url": "https://api.github.com/users/Ttl/starred{/owner}{/repo}",
        "subscriptions_url": "https://api.github.com/users/Ttl/subscriptions",
        "type": "User",
        "url": "https://api.github.com/users/Ttl"
    },
    "private": false,
    "pulls_url": "https://api.github.com/repos/Ttl/evolutionary-circuits/pulls{/number}",
    "pushed_at": "2013-01-07T14:37:27Z",
    "releases_url": "https://api.github.com/repos/Ttl/evolutionary-circuits/releases{/id}",
    "score": 1.0,
    "size": 281,
    "ssh_url": "git@github.com:Ttl/evolutionary-circuits.git",
    "stargazers_count": 65,
    "stargazers_url": "https://api.github.com/repos/Ttl/evolutionary-circuits/stargazers",
    "statuses_url": "https://api.github.com/repos/Ttl/evolutionary-circuits/statuses/{sha}",
    "subscribers_url": "https://api.github.com/repos/Ttl/evolutionary-circuits/subscribers",
    "subscription_url": "https://api.github.com/repos/Ttl/evolutionary-circuits/subscription",
    "svn_url": "https://github.com/Ttl/evolutionary-circuits",
    "tags_url": "https://api.github.com/repos/Ttl/evolutionary-circuits/tags",
    "teams_url": "https://api.github.com/repos/Ttl/evolutionary-circuits/teams",
    "trees_url": "https://api.github.com/repos/Ttl/evolutionary-circuits/git/trees{/sha}",
    "updated_at": "2013-12-24T04:29:49Z",
    "url": "https://api.github.com/repos/Ttl/evolutionary-circuits",
    "watchers": 65,
    "watchers_count": 65
}