{
    "libs": [
        "rpyc",
        "mock",
        "unittest",
        "Queue",
        "absolute_import",
        "subprocess",
        "manager",
        "contextlib",
        "what",
        "importlib",
        "errno",
        "redis",
        "itertools",
        "json",
        "collections",
        "functools",
        "setproctitle",
        "raven",
        "blinker",
        "string",
        "invoke",
        "blocking_connection",
        "style",
        "sys",
        "pika",
        "coverage",
        "resource",
        "datetime",
        "uuid",
        "argparse",
        "logging",
        "socket",
        "os",
        "signal",
        "traceback",
        "m",
        "threading",
        "token",
        "t",
        "time",
        "pickle",
        "multiprocessing"
    ]
}