{
    "libs": [
        "traceback",
        "unittest",
        "random",
        "rest",
        "datetime",
        "atexit",
        "validators",
        "pip",
        "calendar",
        "tools",
        "bson",
        "ioloop",
        "uuid",
        "formencode",
        "subprocess",
        "re",
        "json",
        "collections",
        "pymongo",
        "division",
        "cPickle",
        "string",
        "simplejson",
        "tornado",
        "glob",
        "collection",
        "sys",
        "pytz",
        "jinja2",
        "path",
        "copy",
        "types",
        "b",
        "logging",
        "d",
        "h",
        "signal",
        "lexer",
        "datab",
        "threading",
        "ext",
        "nose",
        "time",
        "requests",
        "os"
    ]
}