{
    "libs": [
        "ordereddict",
        "functools",
        "chai",
        "datetime",
        "monthdelta",
        "operator",
        "cql",
        "redis",
        "re",
        "collections",
        "pymongo",
        "unittest",
        "sqlalchemy",
        "warnings",
        "sys",
        "sql",
        "types",
        "Queue",
        "c",
        "decimal",
        "urlparse",
        "time",
        "os"
    ]
}