{
    "libs": [
        "heapq",
        "ali",
        "random",
        "subprocess",
        "fcgi",
        "gc",
        "msvcrt",
        "sgmllib",
        "PIL",
        "struct",
        "generator",
        "tempfile",
        "generators",
        "scgi",
        "ConfigParser",
        "cgi",
        "bin",
        "etree",
        "win32event",
        "zipfile",
        "util",
        "ssl",
        "datetime",
        "compiler",
        "httplib",
        "bisect",
        "h",
        "signal",
        "threading",
        "decimal",
        "cStringIO",
        "cookies",
        "stat",
        "atexit",
        "markupb",
        "_thread",
        "sha",
        "iconv_codec",
        "_subprocess",
        "urllib",
        "re",
        "email",
        "math",
        "fcntl",
        "UserDict",
        "memcache",
        "inspect",
        "Queue",
        "mod_python",
        "ctypes",
        "codecs",
        "path",
        "win32service",
        "md5",
        "logging",
        "socket",
        "thread",
        "StringIO",
        "Image",
        "traceback",
        "queue",
        "itertools",
        "cmap",
        "doctest",
        "warnings",
        "pstats",
        "routes",
        "os",
        "win32api",
        "unittest",
        "__builtin__",
        "header",
        "operator",
        "select",
        "errno",
        "Cookie",
        "collections",
        "numpy",
        "cPickle",
        "B",
        "cProfile",
        "simplejson",
        "pwd",
        "_pyio",
        "copy",
        "b",
        "zlib",
        "Header",
        "chardet",
        "shelve",
        "pickle",
        "mimetools",
        "objgraph",
        "xmlrpclib",
        "tidy",
        "builtins",
        "parse",
        "sax",
        "io",
        "request",
        "shutil",
        "__init__",
        "string",
        "grp",
        "_systemrestart",
        "OpenSSL",
        "configparser",
        "config",
        "_speedups",
        "profile",
        "mimetypes",
        "rfc822",
        "glob",
        "time",
        "htmlentitydefs",
        "urllib2",
        "sys",
        "coverage",
        "saxutils",
        "types",
        "sets",
        "Tidy",
        "urlparse",
        "win32serviceutil",
        "client",
        "win32con",
        "gzip",
        "nltk"
    ]
}