{
    "libs": [
        "mimetypes",
        "datafile",
        "B",
        "logging",
        "struct",
        "StringIO",
        "h",
        "pipes",
        "zlib",
        "avro",
        "commands",
        "sys",
        "time",
        "gzip",
        "uuid",
        "schema",
        "os",
        "bz2"
    ]
}