{
    "archive_url": "https://api.github.com/repos/InviteBox/django-live-profiler/{archive_format}{/ref}",
    "assignees_url": "https://api.github.com/repos/InviteBox/django-live-profiler/assignees{/user}",
    "blobs_url": "https://api.github.com/repos/InviteBox/django-live-profiler/git/blobs{/sha}",
    "branches_url": "https://api.github.com/repos/InviteBox/django-live-profiler/branches{/branch}",
    "clone_url": "https://github.com/InviteBox/django-live-profiler.git",
    "collaborators_url": "https://api.github.com/repos/InviteBox/django-live-profiler/collaborators{/collaborator}",
    "comments_url": "https://api.github.com/repos/InviteBox/django-live-profiler/comments{/number}",
    "commits_url": "https://api.github.com/repos/InviteBox/django-live-profiler/commits{/sha}",
    "compare_url": "https://api.github.com/repos/InviteBox/django-live-profiler/compare/{base}...{head}",
    "contents_url": "https://api.github.com/repos/InviteBox/django-live-profiler/contents/{+path}",
    "contributors_url": "https://api.github.com/repos/InviteBox/django-live-profiler/contributors",
    "created_at": "2012-12-14T16:47:51Z",
    "default_branch": "master",
    "description": "A database access profiler for Django-based applications that can be ran in production",
    "downloads_url": "https://api.github.com/repos/InviteBox/django-live-profiler/downloads",
    "events_url": "https://api.github.com/repos/InviteBox/django-live-profiler/events",
    "fork": false,
    "forks": 29,
    "forks_count": 29,
    "forks_url": "https://api.github.com/repos/InviteBox/django-live-profiler/forks",
    "full_name": "InviteBox/django-live-profiler",
    "git_commits_url": "https://api.github.com/repos/InviteBox/django-live-profiler/git/commits{/sha}",
    "git_refs_url": "https://api.github.com/repos/InviteBox/django-live-profiler/git/refs{/sha}",
    "git_tags_url": "https://api.github.com/repos/InviteBox/django-live-profiler/git/tags{/sha}",
    "git_url": "git://github.com/InviteBox/django-live-profiler.git",
    "has_downloads": true,
    "has_issues": true,
    "has_wiki": true,
    "homepage": null,
    "hooks_url": "https://api.github.com/repos/InviteBox/django-live-profiler/hooks",
    "html_url": "https://github.com/InviteBox/django-live-profiler",
    "id": 7168607,
    "issue_comment_url": "https://api.github.com/repos/InviteBox/django-live-profiler/issues/comments/{number}",
    "issue_events_url": "https://api.github.com/repos/InviteBox/django-live-profiler/issues/events{/number}",
    "issues_url": "https://api.github.com/repos/InviteBox/django-live-profiler/issues{/number}",
    "keys_url": "https://api.github.com/repos/InviteBox/django-live-profiler/keys{/key_id}",
    "labels_url": "https://api.github.com/repos/InviteBox/django-live-profiler/labels{/name}",
    "language": "Python",
    "languages_url": "https://api.github.com/repos/InviteBox/django-live-profiler/languages",
    "merges_url": "https://api.github.com/repos/InviteBox/django-live-profiler/merges",
    "milestones_url": "https://api.github.com/repos/InviteBox/django-live-profiler/milestones{/number}",
    "mirror_url": null,
    "name": "django-live-profiler",
    "notifications_url": "https://api.github.com/repos/InviteBox/django-live-profiler/notifications{?since,all,participating}",
    "open_issues": 13,
    "open_issues_count": 13,
    "owner": {
        "avatar_url": "https://avatars.githubusercontent.com/u/3050204?",
        "events_url": "https://api.github.com/users/InviteBox/events{/privacy}",
        "followers_url": "https://api.github.com/users/InviteBox/followers",
        "following_url": "https://api.github.com/users/InviteBox/following{/other_user}",
        "gists_url": "https://api.github.com/users/InviteBox/gists{/gist_id}",
        "gravatar_id": "c12b95b25dcc3866016a3c07e96fa7dc",
        "html_url": "https://github.com/InviteBox",
        "id": 3050204,
        "login": "InviteBox",
        "organizations_url": "https://api.github.com/users/InviteBox/orgs",
        "received_events_url": "https://api.github.com/users/InviteBox/received_events",
        "repos_url": "https://api.github.com/users/InviteBox/repos",
        "site_admin": false,
        "starred_url": "https://api.github.com/users/InviteBox/starred{/owner}{/repo}",
        "subscriptions_url": "https://api.github.com/users/InviteBox/subscriptions",
        "type": "Organization",
        "url": "https://api.github.com/users/InviteBox"
    },
    "private": false,
    "pulls_url": "https://api.github.com/repos/InviteBox/django-live-profiler/pulls{/number}",
    "pushed_at": "2013-06-12T08:53:38Z",
    "releases_url": "https://api.github.com/repos/InviteBox/django-live-profiler/releases{/id}",
    "score": 1.0,
    "size": 724,
    "ssh_url": "git@github.com:InviteBox/django-live-profiler.git",
    "stargazers_count": 129,
    "stargazers_url": "https://api.github.com/repos/InviteBox/django-live-profiler/stargazers",
    "statuses_url": "https://api.github.com/repos/InviteBox/django-live-profiler/statuses/{sha}",
    "subscribers_url": "https://api.github.com/repos/InviteBox/django-live-profiler/subscribers",
    "subscription_url": "https://api.github.com/repos/InviteBox/django-live-profiler/subscription",
    "svn_url": "https://github.com/InviteBox/django-live-profiler",
    "tags_url": "https://api.github.com/repos/InviteBox/django-live-profiler/tags",
    "teams_url": "https://api.github.com/repos/InviteBox/django-live-profiler/teams",
    "trees_url": "https://api.github.com/repos/InviteBox/django-live-profiler/git/trees{/sha}",
    "updated_at": "2014-04-26T06:55:39Z",
    "url": "https://api.github.com/repos/InviteBox/django-live-profiler",
    "watchers": 129,
    "watchers_count": 129
}