{
    "archive_url": "https://api.github.com/repos/pandemicsyn/asana/{archive_format}{/ref}",
    "assignees_url": "https://api.github.com/repos/pandemicsyn/asana/assignees{/user}",
    "blobs_url": "https://api.github.com/repos/pandemicsyn/asana/git/blobs{/sha}",
    "branches_url": "https://api.github.com/repos/pandemicsyn/asana/branches{/branch}",
    "clone_url": "https://github.com/pandemicsyn/asana.git",
    "collaborators_url": "https://api.github.com/repos/pandemicsyn/asana/collaborators{/collaborator}",
    "comments_url": "https://api.github.com/repos/pandemicsyn/asana/comments{/number}",
    "commits_url": "https://api.github.com/repos/pandemicsyn/asana/commits{/sha}",
    "compare_url": "https://api.github.com/repos/pandemicsyn/asana/compare/{base}...{head}",
    "contents_url": "https://api.github.com/repos/pandemicsyn/asana/contents/{+path}",
    "contributors_url": "https://api.github.com/repos/pandemicsyn/asana/contributors",
    "created_at": "2012-05-04T06:13:56Z",
    "default_branch": "master",
    "description": "Python Asana API binding",
    "downloads_url": "https://api.github.com/repos/pandemicsyn/asana/downloads",
    "events_url": "https://api.github.com/repos/pandemicsyn/asana/events",
    "fork": false,
    "forks": 54,
    "forks_count": 54,
    "forks_url": "https://api.github.com/repos/pandemicsyn/asana/forks",
    "full_name": "pandemicsyn/asana",
    "git_commits_url": "https://api.github.com/repos/pandemicsyn/asana/git/commits{/sha}",
    "git_refs_url": "https://api.github.com/repos/pandemicsyn/asana/git/refs{/sha}",
    "git_tags_url": "https://api.github.com/repos/pandemicsyn/asana/git/tags{/sha}",
    "git_url": "git://github.com/pandemicsyn/asana.git",
    "has_downloads": true,
    "has_issues": true,
    "has_wiki": true,
    "homepage": "",
    "hooks_url": "https://api.github.com/repos/pandemicsyn/asana/hooks",
    "html_url": "https://github.com/pandemicsyn/asana",
    "id": 4222128,
    "issue_comment_url": "https://api.github.com/repos/pandemicsyn/asana/issues/comments/{number}",
    "issue_events_url": "https://api.github.com/repos/pandemicsyn/asana/issues/events{/number}",
    "issues_url": "https://api.github.com/repos/pandemicsyn/asana/issues{/number}",
    "keys_url": "https://api.github.com/repos/pandemicsyn/asana/keys{/key_id}",
    "labels_url": "https://api.github.com/repos/pandemicsyn/asana/labels{/name}",
    "language": "Python",
    "languages_url": "https://api.github.com/repos/pandemicsyn/asana/languages",
    "merges_url": "https://api.github.com/repos/pandemicsyn/asana/merges",
    "milestones_url": "https://api.github.com/repos/pandemicsyn/asana/milestones{/number}",
    "mirror_url": null,
    "name": "asana",
    "notifications_url": "https://api.github.com/repos/pandemicsyn/asana/notifications{?since,all,participating}",
    "open_issues": 8,
    "open_issues_count": 8,
    "owner": {
        "avatar_url": "https://avatars.githubusercontent.com/u/333354?",
        "events_url": "https://api.github.com/users/pandemicsyn/events{/privacy}",
        "followers_url": "https://api.github.com/users/pandemicsyn/followers",
        "following_url": "https://api.github.com/users/pandemicsyn/following{/other_user}",
        "gists_url": "https://api.github.com/users/pandemicsyn/gists{/gist_id}",
        "gravatar_id": "8b9295354ad7115a4e89f2b9d9db15b2",
        "html_url": "https://github.com/pandemicsyn",
        "id": 333354,
        "login": "pandemicsyn",
        "organizations_url": "https://api.github.com/users/pandemicsyn/orgs",
        "received_events_url": "https://api.github.com/users/pandemicsyn/received_events",
        "repos_url": "https://api.github.com/users/pandemicsyn/repos",
        "site_admin": false,
        "starred_url": "https://api.github.com/users/pandemicsyn/starred{/owner}{/repo}",
        "subscriptions_url": "https://api.github.com/users/pandemicsyn/subscriptions",
        "type": "User",
        "url": "https://api.github.com/users/pandemicsyn"
    },
    "private": false,
    "pulls_url": "https://api.github.com/repos/pandemicsyn/asana/pulls{/number}",
    "pushed_at": "2014-04-22T20:34:33Z",
    "releases_url": "https://api.github.com/repos/pandemicsyn/asana/releases{/id}",
    "score": 1.0,
    "size": 550,
    "ssh_url": "git@github.com:pandemicsyn/asana.git",
    "stargazers_count": 69,
    "stargazers_url": "https://api.github.com/repos/pandemicsyn/asana/stargazers",
    "statuses_url": "https://api.github.com/repos/pandemicsyn/asana/statuses/{sha}",
    "subscribers_url": "https://api.github.com/repos/pandemicsyn/asana/subscribers",
    "subscription_url": "https://api.github.com/repos/pandemicsyn/asana/subscription",
    "svn_url": "https://github.com/pandemicsyn/asana",
    "tags_url": "https://api.github.com/repos/pandemicsyn/asana/tags",
    "teams_url": "https://api.github.com/repos/pandemicsyn/asana/teams",
    "trees_url": "https://api.github.com/repos/pandemicsyn/asana/git/trees{/sha}",
    "updated_at": "2014-04-26T11:21:22Z",
    "url": "https://api.github.com/repos/pandemicsyn/asana",
    "watchers": 69,
    "watchers_count": 69
}