[
    "tests",
    "recurly.resource",
    "test_resources",
    "recurlytests",
    "recurly.link_header",
    "recurly.js",
    "js",
    "errors",
    "resource",
    "tests.test_recurly",
    "test_recurly",
    "tests.test_resources",
    "recurly",
    "link_header",
    "tests.recurlytests",
    "test_js",
    "tests.test_js",
    "recurly.errors"
]