{
    "archive_url": "https://api.github.com/repos/jacobian/python-cloudservers/{archive_format}{/ref}",
    "assignees_url": "https://api.github.com/repos/jacobian/python-cloudservers/assignees{/user}",
    "blobs_url": "https://api.github.com/repos/jacobian/python-cloudservers/git/blobs{/sha}",
    "branches_url": "https://api.github.com/repos/jacobian/python-cloudservers/branches{/branch}",
    "clone_url": "https://github.com/jacobian/python-cloudservers.git",
    "collaborators_url": "https://api.github.com/repos/jacobian/python-cloudservers/collaborators{/collaborator}",
    "comments_url": "https://api.github.com/repos/jacobian/python-cloudservers/comments{/number}",
    "commits_url": "https://api.github.com/repos/jacobian/python-cloudservers/commits{/sha}",
    "compare_url": "https://api.github.com/repos/jacobian/python-cloudservers/compare/{base}...{head}",
    "contents_url": "https://api.github.com/repos/jacobian/python-cloudservers/contents/{+path}",
    "contributors_url": "https://api.github.com/repos/jacobian/python-cloudservers/contributors",
    "created_at": "2009-12-05T02:12:37Z",
    "default_branch": "master",
    "description": "Python bindings to Rackspace's Cloud Servers API - DEFUNCT. See openstack.compute instead.",
    "downloads_url": "https://api.github.com/repos/jacobian/python-cloudservers/downloads",
    "events_url": "https://api.github.com/repos/jacobian/python-cloudservers/events",
    "fork": false,
    "forks": 20,
    "forks_count": 20,
    "forks_url": "https://api.github.com/repos/jacobian/python-cloudservers/forks",
    "full_name": "jacobian/python-cloudservers",
    "git_commits_url": "https://api.github.com/repos/jacobian/python-cloudservers/git/commits{/sha}",
    "git_refs_url": "https://api.github.com/repos/jacobian/python-cloudservers/git/refs{/sha}",
    "git_tags_url": "https://api.github.com/repos/jacobian/python-cloudservers/git/tags{/sha}",
    "git_url": "git://github.com/jacobian/python-cloudservers.git",
    "has_downloads": false,
    "has_issues": true,
    "has_wiki": false,
    "homepage": "http://github.com/jacobian/openstack.compute",
    "hooks_url": "https://api.github.com/repos/jacobian/python-cloudservers/hooks",
    "html_url": "https://github.com/jacobian/python-cloudservers",
    "id": 398200,
    "issue_comment_url": "https://api.github.com/repos/jacobian/python-cloudservers/issues/comments/{number}",
    "issue_events_url": "https://api.github.com/repos/jacobian/python-cloudservers/issues/events{/number}",
    "issues_url": "https://api.github.com/repos/jacobian/python-cloudservers/issues{/number}",
    "keys_url": "https://api.github.com/repos/jacobian/python-cloudservers/keys{/key_id}",
    "labels_url": "https://api.github.com/repos/jacobian/python-cloudservers/labels{/name}",
    "language": "Python",
    "languages_url": "https://api.github.com/repos/jacobian/python-cloudservers/languages",
    "merges_url": "https://api.github.com/repos/jacobian/python-cloudservers/merges",
    "milestones_url": "https://api.github.com/repos/jacobian/python-cloudservers/milestones{/number}",
    "mirror_url": null,
    "name": "python-cloudservers",
    "notifications_url": "https://api.github.com/repos/jacobian/python-cloudservers/notifications{?since,all,participating}",
    "open_issues": 0,
    "open_issues_count": 0,
    "owner": {
        "avatar_url": "https://avatars.githubusercontent.com/u/21148?",
        "events_url": "https://api.github.com/users/jacobian/events{/privacy}",
        "followers_url": "https://api.github.com/users/jacobian/followers",
        "following_url": "https://api.github.com/users/jacobian/following{/other_user}",
        "gists_url": "https://api.github.com/users/jacobian/gists{/gist_id}",
        "gravatar_id": "2f5463832ccb768ccb4a1ca3607c27ef",
        "html_url": "https://github.com/jacobian",
        "id": 21148,
        "login": "jacobian",
        "organizations_url": "https://api.github.com/users/jacobian/orgs",
        "received_events_url": "https://api.github.com/users/jacobian/received_events",
        "repos_url": "https://api.github.com/users/jacobian/repos",
        "site_admin": false,
        "starred_url": "https://api.github.com/users/jacobian/starred{/owner}{/repo}",
        "subscriptions_url": "https://api.github.com/users/jacobian/subscriptions",
        "type": "User",
        "url": "https://api.github.com/users/jacobian"
    },
    "private": false,
    "pulls_url": "https://api.github.com/repos/jacobian/python-cloudservers/pulls{/number}",
    "pushed_at": "2011-03-16T21:16:16Z",
    "releases_url": "https://api.github.com/repos/jacobian/python-cloudservers/releases{/id}",
    "score": 1.0,
    "size": 599,
    "ssh_url": "git@github.com:jacobian/python-cloudservers.git",
    "stargazers_count": 84,
    "stargazers_url": "https://api.github.com/repos/jacobian/python-cloudservers/stargazers",
    "statuses_url": "https://api.github.com/repos/jacobian/python-cloudservers/statuses/{sha}",
    "subscribers_url": "https://api.github.com/repos/jacobian/python-cloudservers/subscribers",
    "subscription_url": "https://api.github.com/repos/jacobian/python-cloudservers/subscription",
    "svn_url": "https://github.com/jacobian/python-cloudservers",
    "tags_url": "https://api.github.com/repos/jacobian/python-cloudservers/tags",
    "teams_url": "https://api.github.com/repos/jacobian/python-cloudservers/teams",
    "trees_url": "https://api.github.com/repos/jacobian/python-cloudservers/git/trees{/sha}",
    "updated_at": "2013-10-30T22:17:06Z",
    "url": "https://api.github.com/repos/jacobian/python-cloudservers",
    "watchers": 84,
    "watchers_count": 84
}