{
    "archive_url": "https://api.github.com/repos/skariel/webalchemy/{archive_format}{/ref}",
    "assignees_url": "https://api.github.com/repos/skariel/webalchemy/assignees{/user}",
    "blobs_url": "https://api.github.com/repos/skariel/webalchemy/git/blobs{/sha}",
    "branches_url": "https://api.github.com/repos/skariel/webalchemy/branches{/branch}",
    "clone_url": "https://github.com/skariel/webalchemy.git",
    "collaborators_url": "https://api.github.com/repos/skariel/webalchemy/collaborators{/collaborator}",
    "comments_url": "https://api.github.com/repos/skariel/webalchemy/comments{/number}",
    "commits_url": "https://api.github.com/repos/skariel/webalchemy/commits{/sha}",
    "compare_url": "https://api.github.com/repos/skariel/webalchemy/compare/{base}...{head}",
    "contents_url": "https://api.github.com/repos/skariel/webalchemy/contents/{+path}",
    "contributors_url": "https://api.github.com/repos/skariel/webalchemy/contributors",
    "created_at": "2013-08-14T07:23:40Z",
    "default_branch": "master",
    "description": "Modern web development with Python",
    "downloads_url": "https://api.github.com/repos/skariel/webalchemy/downloads",
    "events_url": "https://api.github.com/repos/skariel/webalchemy/events",
    "fork": false,
    "forks": 15,
    "forks_count": 15,
    "forks_url": "https://api.github.com/repos/skariel/webalchemy/forks",
    "full_name": "skariel/webalchemy",
    "git_commits_url": "https://api.github.com/repos/skariel/webalchemy/git/commits{/sha}",
    "git_refs_url": "https://api.github.com/repos/skariel/webalchemy/git/refs{/sha}",
    "git_tags_url": "https://api.github.com/repos/skariel/webalchemy/git/tags{/sha}",
    "git_url": "git://github.com/skariel/webalchemy.git",
    "has_downloads": true,
    "has_issues": true,
    "has_wiki": true,
    "homepage": "",
    "hooks_url": "https://api.github.com/repos/skariel/webalchemy/hooks",
    "html_url": "https://github.com/skariel/webalchemy",
    "id": 12102683,
    "issue_comment_url": "https://api.github.com/repos/skariel/webalchemy/issues/comments/{number}",
    "issue_events_url": "https://api.github.com/repos/skariel/webalchemy/issues/events{/number}",
    "issues_url": "https://api.github.com/repos/skariel/webalchemy/issues{/number}",
    "keys_url": "https://api.github.com/repos/skariel/webalchemy/keys{/key_id}",
    "labels_url": "https://api.github.com/repos/skariel/webalchemy/labels{/name}",
    "language": "Python",
    "languages_url": "https://api.github.com/repos/skariel/webalchemy/languages",
    "merges_url": "https://api.github.com/repos/skariel/webalchemy/merges",
    "milestones_url": "https://api.github.com/repos/skariel/webalchemy/milestones{/number}",
    "mirror_url": null,
    "name": "webalchemy",
    "notifications_url": "https://api.github.com/repos/skariel/webalchemy/notifications{?since,all,participating}",
    "open_issues": 45,
    "open_issues_count": 45,
    "owner": {
        "avatar_url": "https://avatars.githubusercontent.com/u/2347816?",
        "events_url": "https://api.github.com/users/skariel/events{/privacy}",
        "followers_url": "https://api.github.com/users/skariel/followers",
        "following_url": "https://api.github.com/users/skariel/following{/other_user}",
        "gists_url": "https://api.github.com/users/skariel/gists{/gist_id}",
        "gravatar_id": "2e7778fb6ae5123e8296bd627d4f927f",
        "html_url": "https://github.com/skariel",
        "id": 2347816,
        "login": "skariel",
        "organizations_url": "https://api.github.com/users/skariel/orgs",
        "received_events_url": "https://api.github.com/users/skariel/received_events",
        "repos_url": "https://api.github.com/users/skariel/repos",
        "site_admin": false,
        "starred_url": "https://api.github.com/users/skariel/starred{/owner}{/repo}",
        "subscriptions_url": "https://api.github.com/users/skariel/subscriptions",
        "type": "User",
        "url": "https://api.github.com/users/skariel"
    },
    "private": false,
    "pulls_url": "https://api.github.com/repos/skariel/webalchemy/pulls{/number}",
    "pushed_at": "2014-03-24T10:48:09Z",
    "releases_url": "https://api.github.com/repos/skariel/webalchemy/releases{/id}",
    "score": 1.0,
    "size": 15511,
    "ssh_url": "git@github.com:skariel/webalchemy.git",
    "stargazers_count": 265,
    "stargazers_url": "https://api.github.com/repos/skariel/webalchemy/stargazers",
    "statuses_url": "https://api.github.com/repos/skariel/webalchemy/statuses/{sha}",
    "subscribers_url": "https://api.github.com/repos/skariel/webalchemy/subscribers",
    "subscription_url": "https://api.github.com/repos/skariel/webalchemy/subscription",
    "svn_url": "https://github.com/skariel/webalchemy",
    "tags_url": "https://api.github.com/repos/skariel/webalchemy/tags",
    "teams_url": "https://api.github.com/repos/skariel/webalchemy/teams",
    "trees_url": "https://api.github.com/repos/skariel/webalchemy/git/trees{/sha}",
    "updated_at": "2014-05-05T22:07:11Z",
    "url": "https://api.github.com/repos/skariel/webalchemy",
    "watchers": 265,
    "watchers_count": 265
}