[
    "webalchemy.widgets",
    "three_d_earth.freeze_app",
    "math_explorer",
    "jquerymobile.jquerymobile_example",
    "tictactoe_example",
    "stacker_wrappers",
    "todomvc.freeze_app",
    "colors_meteor.colors_meteor_example",
    "colors_meteor",
    "examples.colors_meteor.colors_meteor_example",
    "menu",
    "examples.colors_meteor",
    "examples.todomvc.todomvc",
    "todomvc",
    "board",
    "examples.hello_world.hello_world_example",
    "webalchemy.remotedocument",
    "widgets",
    "examples.three_d_earth.three_d_earth",
    "hello_world",
    "widgets.basic.menu",
    "basic.table",
    "sort",
    "todomvc.serve_through_websocket",
    "widgets.basic.table",
    "webalchemy.saferef",
    "basic",
    "examples.tictactoe.board",
    "hello_world.hello_world_example",
    "jquerymobile_example",
    "webalchemy.stacker_wrappers.bootstrap_3",
    "bootstrap3_wrapper",
    "three_d_earth",
    "freeze_app",
    "webalchemy",
    "examples.todomvc.freeze_app",
    "config",
    "examples.three_d_earth.serve_through_websocket",
    "examples.math_explorer",
    "widgets.basic",
    "server",
    "webalchemy.mainhtml",
    "bootstrap_3.bootstrap3_wrapper",
    "serve_through_websocket",
    "colors_meteor_example",
    "webalchemy.widgets.basic.table",
    "math_explorer.math_explorer",
    "stacker_wrappers.bootstrap_3",
    "examples.hello_world",
    "mainhtml",
    "webalchemy.widgets.basic.sort",
    "basic.menu",
    "bootstrap_3",
    "examples",
    "table",
    "examples.todomvc",
    "examples.jquerymobile",
    "basic.sort",
    "webalchemy.Stacker",
    "jquerymobile",
    "webalchemy.stacker_wrappers",
    "widgets.basic.sort",
    "webalchemy.config",
    "webalchemy.htmlparser",
    "examples.three_d_earth",
    "tictactoe",
    "three_d_earth.serve_through_websocket",
    "examples.math_explorer.math_explorer",
    "webalchemy.mvc",
    "saferef",
    "todomvc.todomvc",
    "three_d_earth.three_d_earth",
    "webalchemy.widgets.basic",
    "monkeypatch",
    "webalchemy.monkeypatch",
    "webalchemy.stacker_wrappers.bootstrap_3.bootstrap3_wrapper",
    "webalchemy.server",
    "Stacker",
    "examples.three_d_earth.freeze_app",
    "webalchemy.widgets.basic.menu",
    "examples.jquerymobile.jquerymobile_example",
    "stacker_wrappers.bootstrap_3.bootstrap3_wrapper",
    "tictactoe.board",
    "examples.tictactoe.tictactoe_example",
    "mvc",
    "htmlparser",
    "examples.tictactoe",
    "remotedocument",
    "tictactoe.tictactoe_example",
    "examples.todomvc.serve_through_websocket",
    "hello_world_example"
]