{
    "libs": [
        "socketserver",
        "SimpleHTTPServer",
        "unittest",
        "parse",
        "tools",
        "signal",
        "requests_oauthlib",
        "urllib",
        "re",
        "json",
        "collections",
        "csv",
        "math",
        "division",
        "string",
        "SocketServer",
        "time",
        "urllib2",
        "sys",
        "ssl",
        "types",
        "b",
        "logging",
        "socket",
        "h",
        "decimal",
        "request",
        "server",
        "itertools",
        "error",
        "requests",
        "os",
        "hmac"
    ]
}