[
    "pyment.pyment",
    "tests",
    "pyment",
    "tests.test_pyment",
    "tests.origin_test",
    "origin_test",
    "docstring",
    "tests.test_docs",
    "test_pyment",
    "test_docs",
    "pyment.docstring",
    "example"
]