[
    "management.commands.celeryd",
    "_ext",
    "req",
    "test_backends",
    "djcelery.backends.cache",
    "commands.celerymon",
    "someappwotask.views",
    "management.commands.celerybeat",
    "djcelery.schedulers",
    "djcelery.models",
    "djcelerymon",
    "tests.test_views",
    "djcelery.managers",
    "djcelery.mon",
    "commands.celerycam",
    "cache",
    "celery",
    "djcelery.app",
    "docs._ext.applyxrefs",
    "tests.test_snapshot",
    "management.commands.djcelerymon",
    "test_worker_job",
    "tests.someappwotask",
    "celeryd",
    "tests",
    "views",
    "docs",
    "db",
    "djcelery.tests.test_loaders",
    "tests.someapp.tests",
    "djcelery.db",
    "mon",
    "djcelery.management.commands.celery",
    "djcelery.utils",
    "management.commands.celeryd_detach",
    "docs.conf",
    "test_loaders",
    "test_views",
    "commands.celeryd",
    "settings",
    "djcelery.monproj",
    "djcelery.management.commands.celeryd",
    "pavement",
    "common",
    "release",
    "djcelery.management.commands.celerymon",
    "tests.manage",
    "management.commands",
    "celeryd_multi",
    "someappwotask",
    "djcelery.management",
    "djcelery.migrations.0003_v26_changes",
    "djcelery.loaders",
    "djcelery.management.commands.celeryd_detach",
    "djcelery.tests.req",
    "admin_utils",
    "commands.celeryd_detach",
    "applyxrefs",
    "djcelery.migrations.0004_v30_changes",
    "schedulers",
    "djcelery.migrations",
    "monproj.urls",
    "djcelery.tests.test_backends.test_cache",
    "migrations",
    "management.commands.celerycam",
    "djcelery.tests.test_schedulers",
    "someappwotask.models",
    "djcelery.humanize",
    "tests.utils",
    "management.commands.celerymon",
    "djcelery.admin",
    "djcelery.monproj.urls",
    "celerycam",
    "test_runner",
    "tests.test_discovery",
    "tests.someapp.tasks",
    "djcelery.common",
    "docs._ext",
    "djcelery.management.base",
    "djcelery.contrib.test_runner",
    "djcelery.management.commands",
    "commands",
    "docs._ext.literals_to_xrefs",
    "admin",
    "extra.release",
    "_ext.literals_to_xrefs",
    "djcelery.management.commands.celeryd_multi",
    "test_models",
    "tests.test_models",
    "migrations.0003_v26_changes",
    "base",
    "urls",
    "djcelery.tests.test_models",
    "test_discovery",
    "0004_v30_changes",
    "djcelery.tests.test_worker_job",
    "tasks",
    "managers",
    "extra",
    "app",
    "manage",
    "commands.djcelerymon",
    "management.commands.celery",
    "test_backends.test_cache",
    "celerybeat",
    "tests.test_worker_job",
    "test_database",
    "contrib",
    "djcelery.contrib",
    "management",
    "djcelery.tests.test_discovery",
    "sphinx-to-rst",
    "loaders",
    "someapp.tasks",
    "backends",
    "tests.test_backends",
    "management.commands.celeryd_multi",
    "picklefield",
    "tests.someappwotask.models",
    "djcelery.migrations.0001_initial",
    "migrations.0001_initial",
    "djcelery.management.commands.celerycam",
    "djcelery.tests.utils",
    "djcelery.backends",
    "tests.someapp",
    "extra.release.sphinx-to-rst",
    "test_backends.test_database",
    "djcelery.tests",
    "tests.someappwotask.views",
    "tests.test_schedulers",
    "djcelery",
    "test_cache",
    "literals_to_xrefs",
    "djcelery.migrations.0002_v25_changes",
    "celeryd_detach",
    "djcelery.urls",
    "test_schedulers",
    "migrations.0002_v25_changes",
    "djcelery.picklefield",
    "conf",
    "tests.test_backends.test_database",
    "_ext.applyxrefs",
    "commands.celery",
    "utils",
    "backends.cache",
    "0003_v26_changes",
    "tests.someapp.models",
    "commands.celeryd_multi",
    "tests.test_backends.test_cache",
    "management.base",
    "commands.celerybeat",
    "djcelery.snapshot",
    "djcelery.management.commands.djcelerymon",
    "someapp.models",
    "someapp",
    "djcelery.tests.test_backends",
    "djcelery.views",
    "docs.settings",
    "humanize",
    "djcelery.backends.database",
    "tests.settings",
    "tests.urls",
    "backends.database",
    "0002_v25_changes",
    "test_snapshot",
    "celerymon",
    "models",
    "djcelery.management.commands.celerybeat",
    "release.sphinx-to-rst",
    "0001_initial",
    "monproj",
    "djcelery.tests.test_views",
    "someapp.views",
    "djcelery.admin_utils",
    "djcelery.tests.test_snapshot",
    "djcelery.tests.test_backends.test_database",
    "migrations.0004_v30_changes",
    "database",
    "tests.someapp.views",
    "contrib.test_runner",
    "tests.test_loaders",
    "snapshot",
    "tests.req",
    "someapp.tests"
]