{
    "archive_url": "https://api.github.com/repos/hmarr/mongosearch/{archive_format}{/ref}",
    "assignees_url": "https://api.github.com/repos/hmarr/mongosearch/assignees{/user}",
    "blobs_url": "https://api.github.com/repos/hmarr/mongosearch/git/blobs{/sha}",
    "branches_url": "https://api.github.com/repos/hmarr/mongosearch/branches{/branch}",
    "clone_url": "https://github.com/hmarr/mongosearch.git",
    "collaborators_url": "https://api.github.com/repos/hmarr/mongosearch/collaborators{/collaborator}",
    "comments_url": "https://api.github.com/repos/hmarr/mongosearch/comments{/number}",
    "commits_url": "https://api.github.com/repos/hmarr/mongosearch/commits{/sha}",
    "compare_url": "https://api.github.com/repos/hmarr/mongosearch/compare/{base}...{head}",
    "contents_url": "https://api.github.com/repos/hmarr/mongosearch/contents/{+path}",
    "contributors_url": "https://api.github.com/repos/hmarr/mongosearch/contributors",
    "created_at": "2010-03-18T17:56:25Z",
    "default_branch": "master",
    "description": "A proof-of-concept full-text search engine using MongoDB",
    "downloads_url": "https://api.github.com/repos/hmarr/mongosearch/downloads",
    "events_url": "https://api.github.com/repos/hmarr/mongosearch/events",
    "fork": false,
    "forks": 5,
    "forks_count": 5,
    "forks_url": "https://api.github.com/repos/hmarr/mongosearch/forks",
    "full_name": "hmarr/mongosearch",
    "git_commits_url": "https://api.github.com/repos/hmarr/mongosearch/git/commits{/sha}",
    "git_refs_url": "https://api.github.com/repos/hmarr/mongosearch/git/refs{/sha}",
    "git_tags_url": "https://api.github.com/repos/hmarr/mongosearch/git/tags{/sha}",
    "git_url": "git://github.com/hmarr/mongosearch.git",
    "has_downloads": true,
    "has_issues": true,
    "has_wiki": true,
    "homepage": "",
    "hooks_url": "https://api.github.com/repos/hmarr/mongosearch/hooks",
    "html_url": "https://github.com/hmarr/mongosearch",
    "id": 568637,
    "issue_comment_url": "https://api.github.com/repos/hmarr/mongosearch/issues/comments/{number}",
    "issue_events_url": "https://api.github.com/repos/hmarr/mongosearch/issues/events{/number}",
    "issues_url": "https://api.github.com/repos/hmarr/mongosearch/issues{/number}",
    "keys_url": "https://api.github.com/repos/hmarr/mongosearch/keys{/key_id}",
    "labels_url": "https://api.github.com/repos/hmarr/mongosearch/labels{/name}",
    "language": "Python",
    "languages_url": "https://api.github.com/repos/hmarr/mongosearch/languages",
    "merges_url": "https://api.github.com/repos/hmarr/mongosearch/merges",
    "milestones_url": "https://api.github.com/repos/hmarr/mongosearch/milestones{/number}",
    "mirror_url": null,
    "name": "mongosearch",
    "notifications_url": "https://api.github.com/repos/hmarr/mongosearch/notifications{?since,all,participating}",
    "open_issues": 0,
    "open_issues_count": 0,
    "owner": {
        "avatar_url": "https://avatars.githubusercontent.com/u/110275?",
        "events_url": "https://api.github.com/users/hmarr/events{/privacy}",
        "followers_url": "https://api.github.com/users/hmarr/followers",
        "following_url": "https://api.github.com/users/hmarr/following{/other_user}",
        "gists_url": "https://api.github.com/users/hmarr/gists{/gist_id}",
        "gravatar_id": "dc3a4c4f6d1ae1445586e2444c435cd2",
        "html_url": "https://github.com/hmarr",
        "id": 110275,
        "login": "hmarr",
        "organizations_url": "https://api.github.com/users/hmarr/orgs",
        "received_events_url": "https://api.github.com/users/hmarr/received_events",
        "repos_url": "https://api.github.com/users/hmarr/repos",
        "site_admin": false,
        "starred_url": "https://api.github.com/users/hmarr/starred{/owner}{/repo}",
        "subscriptions_url": "https://api.github.com/users/hmarr/subscriptions",
        "type": "User",
        "url": "https://api.github.com/users/hmarr"
    },
    "private": false,
    "pulls_url": "https://api.github.com/repos/hmarr/mongosearch/pulls{/number}",
    "pushed_at": "2010-03-18T17:57:18Z",
    "releases_url": "https://api.github.com/repos/hmarr/mongosearch/releases{/id}",
    "score": 1.0,
    "size": 311,
    "ssh_url": "git@github.com:hmarr/mongosearch.git",
    "stargazers_count": 53,
    "stargazers_url": "https://api.github.com/repos/hmarr/mongosearch/stargazers",
    "statuses_url": "https://api.github.com/repos/hmarr/mongosearch/statuses/{sha}",
    "subscribers_url": "https://api.github.com/repos/hmarr/mongosearch/subscribers",
    "subscription_url": "https://api.github.com/repos/hmarr/mongosearch/subscription",
    "svn_url": "https://github.com/hmarr/mongosearch",
    "tags_url": "https://api.github.com/repos/hmarr/mongosearch/tags",
    "teams_url": "https://api.github.com/repos/hmarr/mongosearch/teams",
    "trees_url": "https://api.github.com/repos/hmarr/mongosearch/git/trees{/sha}",
    "updated_at": "2013-12-17T20:59:40Z",
    "url": "https://api.github.com/repos/hmarr/mongosearch",
    "watchers": 53,
    "watchers_count": 53
}