{
    "archive_url": "https://api.github.com/repos/TurboGears/tg2/{archive_format}{/ref}",
    "assignees_url": "https://api.github.com/repos/TurboGears/tg2/assignees{/user}",
    "blobs_url": "https://api.github.com/repos/TurboGears/tg2/git/blobs{/sha}",
    "branches_url": "https://api.github.com/repos/TurboGears/tg2/branches{/branch}",
    "clone_url": "https://github.com/TurboGears/tg2.git",
    "collaborators_url": "https://api.github.com/repos/TurboGears/tg2/collaborators{/collaborator}",
    "comments_url": "https://api.github.com/repos/TurboGears/tg2/comments{/number}",
    "commits_url": "https://api.github.com/repos/TurboGears/tg2/commits{/sha}",
    "compare_url": "https://api.github.com/repos/TurboGears/tg2/compare/{base}...{head}",
    "contents_url": "https://api.github.com/repos/TurboGears/tg2/contents/{+path}",
    "contributors_url": "https://api.github.com/repos/TurboGears/tg2/contributors",
    "created_at": "2011-02-18T04:07:35Z",
    "default_branch": "development",
    "description": "TurboGears 2.x Core Repository",
    "downloads_url": "https://api.github.com/repos/TurboGears/tg2/downloads",
    "events_url": "https://api.github.com/repos/TurboGears/tg2/events",
    "fork": false,
    "forks": 18,
    "forks_count": 18,
    "forks_url": "https://api.github.com/repos/TurboGears/tg2/forks",
    "full_name": "TurboGears/tg2",
    "git_commits_url": "https://api.github.com/repos/TurboGears/tg2/git/commits{/sha}",
    "git_refs_url": "https://api.github.com/repos/TurboGears/tg2/git/refs{/sha}",
    "git_tags_url": "https://api.github.com/repos/TurboGears/tg2/git/tags{/sha}",
    "git_url": "git://github.com/TurboGears/tg2.git",
    "has_downloads": true,
    "has_issues": true,
    "has_wiki": true,
    "homepage": "http://www.turbogears.org/",
    "hooks_url": "https://api.github.com/repos/TurboGears/tg2/hooks",
    "html_url": "https://github.com/TurboGears/tg2",
    "id": 1381103,
    "issue_comment_url": "https://api.github.com/repos/TurboGears/tg2/issues/comments/{number}",
    "issue_events_url": "https://api.github.com/repos/TurboGears/tg2/issues/events{/number}",
    "issues_url": "https://api.github.com/repos/TurboGears/tg2/issues{/number}",
    "keys_url": "https://api.github.com/repos/TurboGears/tg2/keys{/key_id}",
    "labels_url": "https://api.github.com/repos/TurboGears/tg2/labels{/name}",
    "language": "Python",
    "languages_url": "https://api.github.com/repos/TurboGears/tg2/languages",
    "merges_url": "https://api.github.com/repos/TurboGears/tg2/merges",
    "milestones_url": "https://api.github.com/repos/TurboGears/tg2/milestones{/number}",
    "mirror_url": null,
    "name": "tg2",
    "notifications_url": "https://api.github.com/repos/TurboGears/tg2/notifications{?since,all,participating}",
    "open_issues": 13,
    "open_issues_count": 13,
    "owner": {
        "avatar_url": "https://avatars.githubusercontent.com/u/2229932?",
        "events_url": "https://api.github.com/users/TurboGears/events{/privacy}",
        "followers_url": "https://api.github.com/users/TurboGears/followers",
        "following_url": "https://api.github.com/users/TurboGears/following{/other_user}",
        "gists_url": "https://api.github.com/users/TurboGears/gists{/gist_id}",
        "gravatar_id": "9ea56b774cc04c3f91fd0e4df3472c3c",
        "html_url": "https://github.com/TurboGears",
        "id": 2229932,
        "login": "TurboGears",
        "organizations_url": "https://api.github.com/users/TurboGears/orgs",
        "received_events_url": "https://api.github.com/users/TurboGears/received_events",
        "repos_url": "https://api.github.com/users/TurboGears/repos",
        "site_admin": false,
        "starred_url": "https://api.github.com/users/TurboGears/starred{/owner}{/repo}",
        "subscriptions_url": "https://api.github.com/users/TurboGears/subscriptions",
        "type": "Organization",
        "url": "https://api.github.com/users/TurboGears"
    },
    "private": false,
    "pulls_url": "https://api.github.com/repos/TurboGears/tg2/pulls{/number}",
    "pushed_at": "2014-05-03T20:31:19Z",
    "releases_url": "https://api.github.com/repos/TurboGears/tg2/releases{/id}",
    "score": 1.0,
    "size": 5801,
    "ssh_url": "git@github.com:TurboGears/tg2.git",
    "stargazers_count": 57,
    "stargazers_url": "https://api.github.com/repos/TurboGears/tg2/stargazers",
    "statuses_url": "https://api.github.com/repos/TurboGears/tg2/statuses/{sha}",
    "subscribers_url": "https://api.github.com/repos/TurboGears/tg2/subscribers",
    "subscription_url": "https://api.github.com/repos/TurboGears/tg2/subscription",
    "svn_url": "https://github.com/TurboGears/tg2",
    "tags_url": "https://api.github.com/repos/TurboGears/tg2/tags",
    "teams_url": "https://api.github.com/repos/TurboGears/tg2/teams",
    "trees_url": "https://api.github.com/repos/TurboGears/tg2/git/trees{/sha}",
    "updated_at": "2014-05-03T20:31:19Z",
    "url": "https://api.github.com/repos/TurboGears/tg2",
    "watchers": 57,
    "watchers_count": 57
}