{
    "libs": [
        "functools",
        "random",
        "absolute_import",
        "datetime",
        "ui_b",
        "component_editor",
        "tables",
        "platform",
        "combo",
        "string",
        "zipfile",
        "grid",
        "backend_wxagg",
        "qt",
        "resource_manager",
        "image_resource",
        "extr",
        "h",
        "threading",
        "token",
        "trait_notifiers",
        "nose",
        "kiva_font_trait",
        "trait_grid_cell_adapter",
        "cStringIO",
        "scrolledpanel",
        "traits",
        "trait_b",
        "animate",
        "backend_wx",
        "QtGui",
        "resource_reference",
        "warnings",
        "re",
        "progress_dialog",
        "math",
        "cgi",
        "core",
        "inspect",
        "matplotlib",
        "path",
        "heading_text",
        "iewin",
        "logging",
        "thread",
        "StringIO",
        "traceback",
        "dialog",
        "guisupport",
        "os",
        "trait_types",
        "unittest",
        "image_list",
        "operator",
        "fbi",
        "tools",
        "listctrl",
        "tokenize",
        "python_stc",
        "gizmos",
        "numpy",
        "cPickle",
        "drag_and_drop",
        "webbrowser",
        "idockable",
        "copy",
        "b",
        "stc",
        "colorsys",
        "shelve",
        "configobj",
        "figure",
        "m",
        "image_button",
        "contextlib",
        "io",
        "calendar",
        "html",
        "stat",
        "iewin_old",
        "glob",
        "sys",
        "fl",
        "types",
        "pyface",
        "edit_renderer",
        "flow",
        "time",
        "numeric_editor",
        "blockcanv"
    ]
}