{
    "archive_url": "https://api.github.com/repos/pcorliss/s3cmd-modification/{archive_format}{/ref}",
    "assignees_url": "https://api.github.com/repos/pcorliss/s3cmd-modification/assignees{/user}",
    "blobs_url": "https://api.github.com/repos/pcorliss/s3cmd-modification/git/blobs{/sha}",
    "branches_url": "https://api.github.com/repos/pcorliss/s3cmd-modification/branches{/branch}",
    "clone_url": "https://github.com/pcorliss/s3cmd-modification.git",
    "collaborators_url": "https://api.github.com/repos/pcorliss/s3cmd-modification/collaborators{/collaborator}",
    "comments_url": "https://api.github.com/repos/pcorliss/s3cmd-modification/comments{/number}",
    "commits_url": "https://api.github.com/repos/pcorliss/s3cmd-modification/commits{/sha}",
    "compare_url": "https://api.github.com/repos/pcorliss/s3cmd-modification/compare/{base}...{head}",
    "contents_url": "https://api.github.com/repos/pcorliss/s3cmd-modification/contents/{+path}",
    "contributors_url": "https://api.github.com/repos/pcorliss/s3cmd-modification/contributors",
    "created_at": "2010-08-28T00:57:26Z",
    "default_branch": "master",
    "description": "Modification of the s3cmd by s3tools.org to add parallel downloads and uploads. Forked as of revision 437.",
    "downloads_url": "https://api.github.com/repos/pcorliss/s3cmd-modification/downloads",
    "events_url": "https://api.github.com/repos/pcorliss/s3cmd-modification/events",
    "fork": false,
    "forks": 23,
    "forks_count": 23,
    "forks_url": "https://api.github.com/repos/pcorliss/s3cmd-modification/forks",
    "full_name": "pcorliss/s3cmd-modification",
    "git_commits_url": "https://api.github.com/repos/pcorliss/s3cmd-modification/git/commits{/sha}",
    "git_refs_url": "https://api.github.com/repos/pcorliss/s3cmd-modification/git/refs{/sha}",
    "git_tags_url": "https://api.github.com/repos/pcorliss/s3cmd-modification/git/tags{/sha}",
    "git_url": "git://github.com/pcorliss/s3cmd-modification.git",
    "has_downloads": true,
    "has_issues": true,
    "has_wiki": true,
    "homepage": "http://blog.50projects.com/p/s3cmd-modifications.html",
    "hooks_url": "https://api.github.com/repos/pcorliss/s3cmd-modification/hooks",
    "html_url": "https://github.com/pcorliss/s3cmd-modification",
    "id": 867599,
    "issue_comment_url": "https://api.github.com/repos/pcorliss/s3cmd-modification/issues/comments/{number}",
    "issue_events_url": "https://api.github.com/repos/pcorliss/s3cmd-modification/issues/events{/number}",
    "issues_url": "https://api.github.com/repos/pcorliss/s3cmd-modification/issues{/number}",
    "keys_url": "https://api.github.com/repos/pcorliss/s3cmd-modification/keys{/key_id}",
    "labels_url": "https://api.github.com/repos/pcorliss/s3cmd-modification/labels{/name}",
    "language": "Python",
    "languages_url": "https://api.github.com/repos/pcorliss/s3cmd-modification/languages",
    "merges_url": "https://api.github.com/repos/pcorliss/s3cmd-modification/merges",
    "milestones_url": "https://api.github.com/repos/pcorliss/s3cmd-modification/milestones{/number}",
    "mirror_url": null,
    "name": "s3cmd-modification",
    "notifications_url": "https://api.github.com/repos/pcorliss/s3cmd-modification/notifications{?since,all,participating}",
    "open_issues": 2,
    "open_issues_count": 2,
    "owner": {
        "avatar_url": "https://avatars.githubusercontent.com/u/141914?",
        "events_url": "https://api.github.com/users/pcorliss/events{/privacy}",
        "followers_url": "https://api.github.com/users/pcorliss/followers",
        "following_url": "https://api.github.com/users/pcorliss/following{/other_user}",
        "gists_url": "https://api.github.com/users/pcorliss/gists{/gist_id}",
        "gravatar_id": "fb14b3d53895e47d182a380405ad63ff",
        "html_url": "https://github.com/pcorliss",
        "id": 141914,
        "login": "pcorliss",
        "organizations_url": "https://api.github.com/users/pcorliss/orgs",
        "received_events_url": "https://api.github.com/users/pcorliss/received_events",
        "repos_url": "https://api.github.com/users/pcorliss/repos",
        "site_admin": false,
        "starred_url": "https://api.github.com/users/pcorliss/starred{/owner}{/repo}",
        "subscriptions_url": "https://api.github.com/users/pcorliss/subscriptions",
        "type": "User",
        "url": "https://api.github.com/users/pcorliss"
    },
    "private": false,
    "pulls_url": "https://api.github.com/repos/pcorliss/s3cmd-modification/pulls{/number}",
    "pushed_at": "2011-10-31T13:27:16Z",
    "releases_url": "https://api.github.com/repos/pcorliss/s3cmd-modification/releases{/id}",
    "score": 1.0,
    "size": 1226,
    "ssh_url": "git@github.com:pcorliss/s3cmd-modification.git",
    "stargazers_count": 52,
    "stargazers_url": "https://api.github.com/repos/pcorliss/s3cmd-modification/stargazers",
    "statuses_url": "https://api.github.com/repos/pcorliss/s3cmd-modification/statuses/{sha}",
    "subscribers_url": "https://api.github.com/repos/pcorliss/s3cmd-modification/subscribers",
    "subscription_url": "https://api.github.com/repos/pcorliss/s3cmd-modification/subscription",
    "svn_url": "https://github.com/pcorliss/s3cmd-modification",
    "tags_url": "https://api.github.com/repos/pcorliss/s3cmd-modification/tags",
    "teams_url": "https://api.github.com/repos/pcorliss/s3cmd-modification/teams",
    "trees_url": "https://api.github.com/repos/pcorliss/s3cmd-modification/git/trees{/sha}",
    "updated_at": "2014-04-27T02:50:27Z",
    "url": "https://api.github.com/repos/pcorliss/s3cmd-modification",
    "watchers": 52,
    "watchers_count": 52
}