[
    "lassie.filters.generic",
    "filters",
    "utils",
    "lassie.filters.social",
    "lassie.core",
    "filters.apple",
    "api",
    "conf",
    "test_core",
    "tests.test_core",
    "tests.test_open_graph",
    "lassie.filters",
    "tests.base",
    "apple",
    "compat",
    "filters.generic",
    "generic",
    "tests.test_generic",
    "lassie.filters.apple",
    "tests.test_twitter_card",
    "lassie.api",
    "test_generic",
    "lassie",
    "core",
    "tests",
    "lassie.compat",
    "test_open_graph",
    "docs",
    "lassie.utils",
    "filters.social",
    "lassie.exceptions",
    "base",
    "docs.conf",
    "social",
    "exceptions",
    "test_twitter_card"
]