{
    "archive_url": "https://api.github.com/repos/pkrumins/xgoogle/{archive_format}{/ref}",
    "assignees_url": "https://api.github.com/repos/pkrumins/xgoogle/assignees{/user}",
    "blobs_url": "https://api.github.com/repos/pkrumins/xgoogle/git/blobs{/sha}",
    "branches_url": "https://api.github.com/repos/pkrumins/xgoogle/branches{/branch}",
    "clone_url": "https://github.com/pkrumins/xgoogle.git",
    "collaborators_url": "https://api.github.com/repos/pkrumins/xgoogle/collaborators{/collaborator}",
    "comments_url": "https://api.github.com/repos/pkrumins/xgoogle/comments{/number}",
    "commits_url": "https://api.github.com/repos/pkrumins/xgoogle/commits{/sha}",
    "compare_url": "https://api.github.com/repos/pkrumins/xgoogle/compare/{base}...{head}",
    "contents_url": "https://api.github.com/repos/pkrumins/xgoogle/contents/{+path}",
    "contributors_url": "https://api.github.com/repos/pkrumins/xgoogle/contributors",
    "created_at": "2009-11-26T18:10:10Z",
    "default_branch": "master",
    "description": "Python library to Google services (google search, google sets, google translate, sponsored links)",
    "downloads_url": "https://api.github.com/repos/pkrumins/xgoogle/downloads",
    "events_url": "https://api.github.com/repos/pkrumins/xgoogle/events",
    "fork": false,
    "forks": 57,
    "forks_count": 57,
    "forks_url": "https://api.github.com/repos/pkrumins/xgoogle/forks",
    "full_name": "pkrumins/xgoogle",
    "git_commits_url": "https://api.github.com/repos/pkrumins/xgoogle/git/commits{/sha}",
    "git_refs_url": "https://api.github.com/repos/pkrumins/xgoogle/git/refs{/sha}",
    "git_tags_url": "https://api.github.com/repos/pkrumins/xgoogle/git/tags{/sha}",
    "git_url": "git://github.com/pkrumins/xgoogle.git",
    "has_downloads": true,
    "has_issues": true,
    "has_wiki": true,
    "homepage": "http://www.catonmat.net/blog/python-library-for-google-search/",
    "hooks_url": "https://api.github.com/repos/pkrumins/xgoogle/hooks",
    "html_url": "https://github.com/pkrumins/xgoogle",
    "id": 386740,
    "issue_comment_url": "https://api.github.com/repos/pkrumins/xgoogle/issues/comments/{number}",
    "issue_events_url": "https://api.github.com/repos/pkrumins/xgoogle/issues/events{/number}",
    "issues_url": "https://api.github.com/repos/pkrumins/xgoogle/issues{/number}",
    "keys_url": "https://api.github.com/repos/pkrumins/xgoogle/keys{/key_id}",
    "labels_url": "https://api.github.com/repos/pkrumins/xgoogle/labels{/name}",
    "language": "Python",
    "languages_url": "https://api.github.com/repos/pkrumins/xgoogle/languages",
    "merges_url": "https://api.github.com/repos/pkrumins/xgoogle/merges",
    "milestones_url": "https://api.github.com/repos/pkrumins/xgoogle/milestones{/number}",
    "mirror_url": null,
    "name": "xgoogle",
    "notifications_url": "https://api.github.com/repos/pkrumins/xgoogle/notifications{?since,all,participating}",
    "open_issues": 8,
    "open_issues_count": 8,
    "owner": {
        "avatar_url": "https://avatars.githubusercontent.com/u/41087?",
        "events_url": "https://api.github.com/users/pkrumins/events{/privacy}",
        "followers_url": "https://api.github.com/users/pkrumins/followers",
        "following_url": "https://api.github.com/users/pkrumins/following{/other_user}",
        "gists_url": "https://api.github.com/users/pkrumins/gists{/gist_id}",
        "gravatar_id": "9055b6c1d07708555ec584d03c387f15",
        "html_url": "https://github.com/pkrumins",
        "id": 41087,
        "login": "pkrumins",
        "organizations_url": "https://api.github.com/users/pkrumins/orgs",
        "received_events_url": "https://api.github.com/users/pkrumins/received_events",
        "repos_url": "https://api.github.com/users/pkrumins/repos",
        "site_admin": false,
        "starred_url": "https://api.github.com/users/pkrumins/starred{/owner}{/repo}",
        "subscriptions_url": "https://api.github.com/users/pkrumins/subscriptions",
        "type": "User",
        "url": "https://api.github.com/users/pkrumins"
    },
    "private": false,
    "pulls_url": "https://api.github.com/repos/pkrumins/xgoogle/pulls{/number}",
    "pushed_at": "2010-09-24T21:26:38Z",
    "releases_url": "https://api.github.com/repos/pkrumins/xgoogle/releases{/id}",
    "score": 1.0,
    "size": 214,
    "ssh_url": "git@github.com:pkrumins/xgoogle.git",
    "stargazers_count": 118,
    "stargazers_url": "https://api.github.com/repos/pkrumins/xgoogle/stargazers",
    "statuses_url": "https://api.github.com/repos/pkrumins/xgoogle/statuses/{sha}",
    "subscribers_url": "https://api.github.com/repos/pkrumins/xgoogle/subscribers",
    "subscription_url": "https://api.github.com/repos/pkrumins/xgoogle/subscription",
    "svn_url": "https://github.com/pkrumins/xgoogle",
    "tags_url": "https://api.github.com/repos/pkrumins/xgoogle/tags",
    "teams_url": "https://api.github.com/repos/pkrumins/xgoogle/teams",
    "trees_url": "https://api.github.com/repos/pkrumins/xgoogle/git/trees{/sha}",
    "updated_at": "2014-01-15T08:19:07Z",
    "url": "https://api.github.com/repos/pkrumins/xgoogle",
    "watchers": 118,
    "watchers_count": 118
}