[
    "bin",
    "tests",
    "tests.test_websocket",
    "examples.echoapp_client",
    "echo_client",
    "test_websocket",
    "examples.echo_client",
    "examples",
    "bin.wsdump",
    "echoapp_client",
    "wsdump"
]