{
    "libs": [
        "random",
        "with_statement",
        "functional",
        "datetime",
        "api",
        "contextlib",
        "conf",
        "shutil",
        "importlib",
        "re",
        "tempfile",
        "errno",
        "imp",
        "json",
        "template",
        "test",
        "mock",
        "files",
        "http",
        "string",
        "db",
        "sys",
        "v2",
        "github",
        "csrf",
        "subprocess",
        "b",
        "djcelery",
        "t",
        "defaults",
        "exceptions",
        "os"
    ]
}