{
    "archive_url": "https://api.github.com/repos/ionelmc/django-monkey-team/{archive_format}{/ref}",
    "assignees_url": "https://api.github.com/repos/ionelmc/django-monkey-team/assignees{/user}",
    "blobs_url": "https://api.github.com/repos/ionelmc/django-monkey-team/git/blobs{/sha}",
    "branches_url": "https://api.github.com/repos/ionelmc/django-monkey-team/branches{/branch}",
    "clone_url": "https://github.com/ionelmc/django-monkey-team.git",
    "collaborators_url": "https://api.github.com/repos/ionelmc/django-monkey-team/collaborators{/collaborator}",
    "comments_url": "https://api.github.com/repos/ionelmc/django-monkey-team/comments{/number}",
    "commits_url": "https://api.github.com/repos/ionelmc/django-monkey-team/commits{/sha}",
    "compare_url": "https://api.github.com/repos/ionelmc/django-monkey-team/compare/{base}...{head}",
    "contents_url": "https://api.github.com/repos/ionelmc/django-monkey-team/contents/{+path}",
    "contributors_url": "https://api.github.com/repos/ionelmc/django-monkey-team/contributors",
    "created_at": "2012-11-01T23:37:56Z",
    "default_branch": "master",
    "description": "Django middleware and userscript that displays debug tracebacks on production sites (where you would have DEBUG = False) only to developers.",
    "downloads_url": "https://api.github.com/repos/ionelmc/django-monkey-team/downloads",
    "events_url": "https://api.github.com/repos/ionelmc/django-monkey-team/events",
    "fork": false,
    "forks": 2,
    "forks_count": 2,
    "forks_url": "https://api.github.com/repos/ionelmc/django-monkey-team/forks",
    "full_name": "ionelmc/django-monkey-team",
    "git_commits_url": "https://api.github.com/repos/ionelmc/django-monkey-team/git/commits{/sha}",
    "git_refs_url": "https://api.github.com/repos/ionelmc/django-monkey-team/git/refs{/sha}",
    "git_tags_url": "https://api.github.com/repos/ionelmc/django-monkey-team/git/tags{/sha}",
    "git_url": "git://github.com/ionelmc/django-monkey-team.git",
    "has_downloads": true,
    "has_issues": true,
    "has_wiki": true,
    "homepage": "https://pypi.python.org/pypi/django-monkey-team",
    "hooks_url": "https://api.github.com/repos/ionelmc/django-monkey-team/hooks",
    "html_url": "https://github.com/ionelmc/django-monkey-team",
    "id": 6498722,
    "issue_comment_url": "https://api.github.com/repos/ionelmc/django-monkey-team/issues/comments/{number}",
    "issue_events_url": "https://api.github.com/repos/ionelmc/django-monkey-team/issues/events{/number}",
    "issues_url": "https://api.github.com/repos/ionelmc/django-monkey-team/issues{/number}",
    "keys_url": "https://api.github.com/repos/ionelmc/django-monkey-team/keys{/key_id}",
    "labels_url": "https://api.github.com/repos/ionelmc/django-monkey-team/labels{/name}",
    "language": "Python",
    "languages_url": "https://api.github.com/repos/ionelmc/django-monkey-team/languages",
    "merges_url": "https://api.github.com/repos/ionelmc/django-monkey-team/merges",
    "milestones_url": "https://api.github.com/repos/ionelmc/django-monkey-team/milestones{/number}",
    "mirror_url": null,
    "name": "django-monkey-team",
    "notifications_url": "https://api.github.com/repos/ionelmc/django-monkey-team/notifications{?since,all,participating}",
    "open_issues": 1,
    "open_issues_count": 1,
    "owner": {
        "avatar_url": "https://avatars.githubusercontent.com/u/129501?",
        "events_url": "https://api.github.com/users/ionelmc/events{/privacy}",
        "followers_url": "https://api.github.com/users/ionelmc/followers",
        "following_url": "https://api.github.com/users/ionelmc/following{/other_user}",
        "gists_url": "https://api.github.com/users/ionelmc/gists{/gist_id}",
        "gravatar_id": "4e190b0a42ef9aea59a7a1ebfc426d6e",
        "html_url": "https://github.com/ionelmc",
        "id": 129501,
        "login": "ionelmc",
        "organizations_url": "https://api.github.com/users/ionelmc/orgs",
        "received_events_url": "https://api.github.com/users/ionelmc/received_events",
        "repos_url": "https://api.github.com/users/ionelmc/repos",
        "site_admin": false,
        "starred_url": "https://api.github.com/users/ionelmc/starred{/owner}{/repo}",
        "subscriptions_url": "https://api.github.com/users/ionelmc/subscriptions",
        "type": "User",
        "url": "https://api.github.com/users/ionelmc"
    },
    "private": false,
    "pulls_url": "https://api.github.com/repos/ionelmc/django-monkey-team/pulls{/number}",
    "pushed_at": "2014-02-16T12:48:18Z",
    "releases_url": "https://api.github.com/repos/ionelmc/django-monkey-team/releases{/id}",
    "score": 1.0,
    "size": 337,
    "ssh_url": "git@github.com:ionelmc/django-monkey-team.git",
    "stargazers_count": 48,
    "stargazers_url": "https://api.github.com/repos/ionelmc/django-monkey-team/stargazers",
    "statuses_url": "https://api.github.com/repos/ionelmc/django-monkey-team/statuses/{sha}",
    "subscribers_url": "https://api.github.com/repos/ionelmc/django-monkey-team/subscribers",
    "subscription_url": "https://api.github.com/repos/ionelmc/django-monkey-team/subscription",
    "svn_url": "https://github.com/ionelmc/django-monkey-team",
    "tags_url": "https://api.github.com/repos/ionelmc/django-monkey-team/tags",
    "teams_url": "https://api.github.com/repos/ionelmc/django-monkey-team/teams",
    "trees_url": "https://api.github.com/repos/ionelmc/django-monkey-team/git/trees{/sha}",
    "updated_at": "2014-02-16T12:48:19Z",
    "url": "https://api.github.com/repos/ionelmc/django-monkey-team",
    "watchers": 48,
    "watchers_count": 48
}