{
    "archive_url": "https://api.github.com/repos/miracle2k/android2po/{archive_format}{/ref}",
    "assignees_url": "https://api.github.com/repos/miracle2k/android2po/assignees{/user}",
    "blobs_url": "https://api.github.com/repos/miracle2k/android2po/git/blobs{/sha}",
    "branches_url": "https://api.github.com/repos/miracle2k/android2po/branches{/branch}",
    "clone_url": "https://github.com/miracle2k/android2po.git",
    "collaborators_url": "https://api.github.com/repos/miracle2k/android2po/collaborators{/collaborator}",
    "comments_url": "https://api.github.com/repos/miracle2k/android2po/comments{/number}",
    "commits_url": "https://api.github.com/repos/miracle2k/android2po/commits{/sha}",
    "compare_url": "https://api.github.com/repos/miracle2k/android2po/compare/{base}...{head}",
    "contents_url": "https://api.github.com/repos/miracle2k/android2po/contents/{+path}",
    "contributors_url": "https://api.github.com/repos/miracle2k/android2po/contributors",
    "created_at": "2009-11-23T18:47:59Z",
    "default_branch": "master",
    "description": "Convert Android string resources to gettext, and back.",
    "downloads_url": "https://api.github.com/repos/miracle2k/android2po/downloads",
    "events_url": "https://api.github.com/repos/miracle2k/android2po/events",
    "fork": false,
    "forks": 25,
    "forks_count": 25,
    "forks_url": "https://api.github.com/repos/miracle2k/android2po/forks",
    "full_name": "miracle2k/android2po",
    "git_commits_url": "https://api.github.com/repos/miracle2k/android2po/git/commits{/sha}",
    "git_refs_url": "https://api.github.com/repos/miracle2k/android2po/git/refs{/sha}",
    "git_tags_url": "https://api.github.com/repos/miracle2k/android2po/git/tags{/sha}",
    "git_url": "git://github.com/miracle2k/android2po.git",
    "has_downloads": false,
    "has_issues": true,
    "has_wiki": false,
    "homepage": "",
    "hooks_url": "https://api.github.com/repos/miracle2k/android2po/hooks",
    "html_url": "https://github.com/miracle2k/android2po",
    "id": 382876,
    "issue_comment_url": "https://api.github.com/repos/miracle2k/android2po/issues/comments/{number}",
    "issue_events_url": "https://api.github.com/repos/miracle2k/android2po/issues/events{/number}",
    "issues_url": "https://api.github.com/repos/miracle2k/android2po/issues{/number}",
    "keys_url": "https://api.github.com/repos/miracle2k/android2po/keys{/key_id}",
    "labels_url": "https://api.github.com/repos/miracle2k/android2po/labels{/name}",
    "language": "Python",
    "languages_url": "https://api.github.com/repos/miracle2k/android2po/languages",
    "merges_url": "https://api.github.com/repos/miracle2k/android2po/merges",
    "milestones_url": "https://api.github.com/repos/miracle2k/android2po/milestones{/number}",
    "mirror_url": null,
    "name": "android2po",
    "notifications_url": "https://api.github.com/repos/miracle2k/android2po/notifications{?since,all,participating}",
    "open_issues": 7,
    "open_issues_count": 7,
    "owner": {
        "avatar_url": "https://avatars.githubusercontent.com/u/13807?",
        "events_url": "https://api.github.com/users/miracle2k/events{/privacy}",
        "followers_url": "https://api.github.com/users/miracle2k/followers",
        "following_url": "https://api.github.com/users/miracle2k/following{/other_user}",
        "gists_url": "https://api.github.com/users/miracle2k/gists{/gist_id}",
        "gravatar_id": "7709331e114efe7ea4336726543390ac",
        "html_url": "https://github.com/miracle2k",
        "id": 13807,
        "login": "miracle2k",
        "organizations_url": "https://api.github.com/users/miracle2k/orgs",
        "received_events_url": "https://api.github.com/users/miracle2k/received_events",
        "repos_url": "https://api.github.com/users/miracle2k/repos",
        "site_admin": false,
        "starred_url": "https://api.github.com/users/miracle2k/starred{/owner}{/repo}",
        "subscriptions_url": "https://api.github.com/users/miracle2k/subscriptions",
        "type": "User",
        "url": "https://api.github.com/users/miracle2k"
    },
    "private": false,
    "pulls_url": "https://api.github.com/repos/miracle2k/android2po/pulls{/number}",
    "pushed_at": "2012-12-25T16:40:34Z",
    "releases_url": "https://api.github.com/repos/miracle2k/android2po/releases{/id}",
    "score": 1.0,
    "size": 536,
    "ssh_url": "git@github.com:miracle2k/android2po.git",
    "stargazers_count": 55,
    "stargazers_url": "https://api.github.com/repos/miracle2k/android2po/stargazers",
    "statuses_url": "https://api.github.com/repos/miracle2k/android2po/statuses/{sha}",
    "subscribers_url": "https://api.github.com/repos/miracle2k/android2po/subscribers",
    "subscription_url": "https://api.github.com/repos/miracle2k/android2po/subscription",
    "svn_url": "https://github.com/miracle2k/android2po",
    "tags_url": "https://api.github.com/repos/miracle2k/android2po/tags",
    "teams_url": "https://api.github.com/repos/miracle2k/android2po/teams",
    "trees_url": "https://api.github.com/repos/miracle2k/android2po/git/trees{/sha}",
    "updated_at": "2014-01-14T10:33:53Z",
    "url": "https://api.github.com/repos/miracle2k/android2po",
    "watchers": 55,
    "watchers_count": 55
}