[
    "core",
    "test_jobs",
    "test_util",
    "test_outputs",
    "docs",
    "zencoder",
    "test_reports",
    "test.test_zencoder",
    "conf",
    "zencoder.core",
    "test.test_inputs",
    "test_inputs",
    "docs.conf",
    "test.test_outputs",
    "test.test_util",
    "test.test_jobs",
    "test_zencoder",
    "test.test_reports",
    "test",
    "test_accounts",
    "test.test_accounts"
]