{
    "archive_url": "https://api.github.com/repos/georgepsarakis/techu-search-server/{archive_format}{/ref}",
    "assignees_url": "https://api.github.com/repos/georgepsarakis/techu-search-server/assignees{/user}",
    "blobs_url": "https://api.github.com/repos/georgepsarakis/techu-search-server/git/blobs{/sha}",
    "branches_url": "https://api.github.com/repos/georgepsarakis/techu-search-server/branches{/branch}",
    "clone_url": "https://github.com/georgepsarakis/techu-search-server.git",
    "collaborators_url": "https://api.github.com/repos/georgepsarakis/techu-search-server/collaborators{/collaborator}",
    "comments_url": "https://api.github.com/repos/georgepsarakis/techu-search-server/comments{/number}",
    "commits_url": "https://api.github.com/repos/georgepsarakis/techu-search-server/commits{/sha}",
    "compare_url": "https://api.github.com/repos/georgepsarakis/techu-search-server/compare/{base}...{head}",
    "contents_url": "https://api.github.com/repos/georgepsarakis/techu-search-server/contents/{+path}",
    "contributors_url": "https://api.github.com/repos/georgepsarakis/techu-search-server/contributors",
    "created_at": "2013-05-11T16:21:23Z",
    "default_branch": "master",
    "description": "RESTful search server built on top of Sphinx full-text search engine. Uses realtime indexes, Django, Nginx & Redis.",
    "downloads_url": "https://api.github.com/repos/georgepsarakis/techu-search-server/downloads",
    "events_url": "https://api.github.com/repos/georgepsarakis/techu-search-server/events",
    "fork": false,
    "forks": 15,
    "forks_count": 15,
    "forks_url": "https://api.github.com/repos/georgepsarakis/techu-search-server/forks",
    "full_name": "georgepsarakis/techu-search-server",
    "git_commits_url": "https://api.github.com/repos/georgepsarakis/techu-search-server/git/commits{/sha}",
    "git_refs_url": "https://api.github.com/repos/georgepsarakis/techu-search-server/git/refs{/sha}",
    "git_tags_url": "https://api.github.com/repos/georgepsarakis/techu-search-server/git/tags{/sha}",
    "git_url": "git://github.com/georgepsarakis/techu-search-server.git",
    "has_downloads": true,
    "has_issues": true,
    "has_wiki": true,
    "homepage": "http://techusearch.org",
    "hooks_url": "https://api.github.com/repos/georgepsarakis/techu-search-server/hooks",
    "html_url": "https://github.com/georgepsarakis/techu-search-server",
    "id": 10001935,
    "issue_comment_url": "https://api.github.com/repos/georgepsarakis/techu-search-server/issues/comments/{number}",
    "issue_events_url": "https://api.github.com/repos/georgepsarakis/techu-search-server/issues/events{/number}",
    "issues_url": "https://api.github.com/repos/georgepsarakis/techu-search-server/issues{/number}",
    "keys_url": "https://api.github.com/repos/georgepsarakis/techu-search-server/keys{/key_id}",
    "labels_url": "https://api.github.com/repos/georgepsarakis/techu-search-server/labels{/name}",
    "language": "Python",
    "languages_url": "https://api.github.com/repos/georgepsarakis/techu-search-server/languages",
    "merges_url": "https://api.github.com/repos/georgepsarakis/techu-search-server/merges",
    "milestones_url": "https://api.github.com/repos/georgepsarakis/techu-search-server/milestones{/number}",
    "mirror_url": null,
    "name": "techu-search-server",
    "notifications_url": "https://api.github.com/repos/georgepsarakis/techu-search-server/notifications{?since,all,participating}",
    "open_issues": 27,
    "open_issues_count": 27,
    "owner": {
        "avatar_url": "https://avatars.githubusercontent.com/u/963304?",
        "events_url": "https://api.github.com/users/georgepsarakis/events{/privacy}",
        "followers_url": "https://api.github.com/users/georgepsarakis/followers",
        "following_url": "https://api.github.com/users/georgepsarakis/following{/other_user}",
        "gists_url": "https://api.github.com/users/georgepsarakis/gists{/gist_id}",
        "gravatar_id": "615827664b3d8081aa22082948dc5e66",
        "html_url": "https://github.com/georgepsarakis",
        "id": 963304,
        "login": "georgepsarakis",
        "organizations_url": "https://api.github.com/users/georgepsarakis/orgs",
        "received_events_url": "https://api.github.com/users/georgepsarakis/received_events",
        "repos_url": "https://api.github.com/users/georgepsarakis/repos",
        "site_admin": false,
        "starred_url": "https://api.github.com/users/georgepsarakis/starred{/owner}{/repo}",
        "subscriptions_url": "https://api.github.com/users/georgepsarakis/subscriptions",
        "type": "User",
        "url": "https://api.github.com/users/georgepsarakis"
    },
    "private": false,
    "pulls_url": "https://api.github.com/repos/georgepsarakis/techu-search-server/pulls{/number}",
    "pushed_at": "2013-07-06T17:40:48Z",
    "releases_url": "https://api.github.com/repos/georgepsarakis/techu-search-server/releases{/id}",
    "score": 1.0,
    "size": 1272,
    "ssh_url": "git@github.com:georgepsarakis/techu-search-server.git",
    "stargazers_count": 122,
    "stargazers_url": "https://api.github.com/repos/georgepsarakis/techu-search-server/stargazers",
    "statuses_url": "https://api.github.com/repos/georgepsarakis/techu-search-server/statuses/{sha}",
    "subscribers_url": "https://api.github.com/repos/georgepsarakis/techu-search-server/subscribers",
    "subscription_url": "https://api.github.com/repos/georgepsarakis/techu-search-server/subscription",
    "svn_url": "https://github.com/georgepsarakis/techu-search-server",
    "tags_url": "https://api.github.com/repos/georgepsarakis/techu-search-server/tags",
    "teams_url": "https://api.github.com/repos/georgepsarakis/techu-search-server/teams",
    "trees_url": "https://api.github.com/repos/georgepsarakis/techu-search-server/git/trees{/sha}",
    "updated_at": "2014-04-26T12:34:12Z",
    "url": "https://api.github.com/repos/georgepsarakis/techu-search-server",
    "watchers": 122,
    "watchers_count": 122
}