{
    "libs": [
        "markdown",
        "parser",
        "datetime",
        "parse",
        "HTMLParser",
        "ElementTree",
        "re",
        "urllib",
        "entities",
        "feedparser",
        "optparse",
        "htmlentitydefs",
        "sys",
        "codecs",
        "path",
        "types",
        "argparse",
        "logging",
        "traceback",
        "request",
        "urlparse",
        "chardet",
        "time"
    ]
}