{
    "archive_url": "https://api.github.com/repos/Zulko/easyAI/{archive_format}{/ref}",
    "assignees_url": "https://api.github.com/repos/Zulko/easyAI/assignees{/user}",
    "blobs_url": "https://api.github.com/repos/Zulko/easyAI/git/blobs{/sha}",
    "branches_url": "https://api.github.com/repos/Zulko/easyAI/branches{/branch}",
    "clone_url": "https://github.com/Zulko/easyAI.git",
    "collaborators_url": "https://api.github.com/repos/Zulko/easyAI/collaborators{/collaborator}",
    "comments_url": "https://api.github.com/repos/Zulko/easyAI/comments{/number}",
    "commits_url": "https://api.github.com/repos/Zulko/easyAI/commits{/sha}",
    "compare_url": "https://api.github.com/repos/Zulko/easyAI/compare/{base}...{head}",
    "contents_url": "https://api.github.com/repos/Zulko/easyAI/contents/{+path}",
    "contributors_url": "https://api.github.com/repos/Zulko/easyAI/contributors",
    "created_at": "2013-12-21T09:31:29Z",
    "default_branch": "master",
    "description": "Simple Python artificial intelligence framework for games",
    "downloads_url": "https://api.github.com/repos/Zulko/easyAI/downloads",
    "events_url": "https://api.github.com/repos/Zulko/easyAI/events",
    "fork": false,
    "forks": 24,
    "forks_count": 24,
    "forks_url": "https://api.github.com/repos/Zulko/easyAI/forks",
    "full_name": "Zulko/easyAI",
    "git_commits_url": "https://api.github.com/repos/Zulko/easyAI/git/commits{/sha}",
    "git_refs_url": "https://api.github.com/repos/Zulko/easyAI/git/refs{/sha}",
    "git_tags_url": "https://api.github.com/repos/Zulko/easyAI/git/tags{/sha}",
    "git_url": "git://github.com/Zulko/easyAI.git",
    "has_downloads": true,
    "has_issues": true,
    "has_wiki": true,
    "homepage": "http://zulko.github.io/easyAI/",
    "hooks_url": "https://api.github.com/repos/Zulko/easyAI/hooks",
    "html_url": "https://github.com/Zulko/easyAI",
    "id": 15356714,
    "issue_comment_url": "https://api.github.com/repos/Zulko/easyAI/issues/comments/{number}",
    "issue_events_url": "https://api.github.com/repos/Zulko/easyAI/issues/events{/number}",
    "issues_url": "https://api.github.com/repos/Zulko/easyAI/issues{/number}",
    "keys_url": "https://api.github.com/repos/Zulko/easyAI/keys{/key_id}",
    "labels_url": "https://api.github.com/repos/Zulko/easyAI/labels{/name}",
    "language": "Python",
    "languages_url": "https://api.github.com/repos/Zulko/easyAI/languages",
    "merges_url": "https://api.github.com/repos/Zulko/easyAI/merges",
    "milestones_url": "https://api.github.com/repos/Zulko/easyAI/milestones{/number}",
    "mirror_url": null,
    "name": "easyAI",
    "notifications_url": "https://api.github.com/repos/Zulko/easyAI/notifications{?since,all,participating}",
    "open_issues": 0,
    "open_issues_count": 0,
    "owner": {
        "avatar_url": "https://avatars.githubusercontent.com/u/1646122?",
        "events_url": "https://api.github.com/users/Zulko/events{/privacy}",
        "followers_url": "https://api.github.com/users/Zulko/followers",
        "following_url": "https://api.github.com/users/Zulko/following{/other_user}",
        "gists_url": "https://api.github.com/users/Zulko/gists{/gist_id}",
        "gravatar_id": "bb662f6315f081e82d24ea24f02b3e04",
        "html_url": "https://github.com/Zulko",
        "id": 1646122,
        "login": "Zulko",
        "organizations_url": "https://api.github.com/users/Zulko/orgs",
        "received_events_url": "https://api.github.com/users/Zulko/received_events",
        "repos_url": "https://api.github.com/users/Zulko/repos",
        "site_admin": false,
        "starred_url": "https://api.github.com/users/Zulko/starred{/owner}{/repo}",
        "subscriptions_url": "https://api.github.com/users/Zulko/subscriptions",
        "type": "User",
        "url": "https://api.github.com/users/Zulko"
    },
    "private": false,
    "pulls_url": "https://api.github.com/repos/Zulko/easyAI/pulls{/number}",
    "pushed_at": "2014-02-22T21:54:13Z",
    "releases_url": "https://api.github.com/repos/Zulko/easyAI/releases{/id}",
    "score": 1.0,
    "size": 1341,
    "ssh_url": "git@github.com:Zulko/easyAI.git",
    "stargazers_count": 263,
    "stargazers_url": "https://api.github.com/repos/Zulko/easyAI/stargazers",
    "statuses_url": "https://api.github.com/repos/Zulko/easyAI/statuses/{sha}",
    "subscribers_url": "https://api.github.com/repos/Zulko/easyAI/subscribers",
    "subscription_url": "https://api.github.com/repos/Zulko/easyAI/subscription",
    "svn_url": "https://github.com/Zulko/easyAI",
    "tags_url": "https://api.github.com/repos/Zulko/easyAI/tags",
    "teams_url": "https://api.github.com/repos/Zulko/easyAI/teams",
    "trees_url": "https://api.github.com/repos/Zulko/easyAI/git/trees{/sha}",
    "updated_at": "2014-04-25T16:09:20Z",
    "url": "https://api.github.com/repos/Zulko/easyAI",
    "watchers": 263,
    "watchers_count": 263
}