{
    "archive_url": "https://api.github.com/repos/johnboxall/django-paypal/{archive_format}{/ref}",
    "assignees_url": "https://api.github.com/repos/johnboxall/django-paypal/assignees{/user}",
    "blobs_url": "https://api.github.com/repos/johnboxall/django-paypal/git/blobs{/sha}",
    "branches_url": "https://api.github.com/repos/johnboxall/django-paypal/branches{/branch}",
    "clone_url": "https://github.com/johnboxall/django-paypal.git",
    "collaborators_url": "https://api.github.com/repos/johnboxall/django-paypal/collaborators{/collaborator}",
    "comments_url": "https://api.github.com/repos/johnboxall/django-paypal/comments{/number}",
    "commits_url": "https://api.github.com/repos/johnboxall/django-paypal/commits{/sha}",
    "compare_url": "https://api.github.com/repos/johnboxall/django-paypal/compare/{base}...{head}",
    "contents_url": "https://api.github.com/repos/johnboxall/django-paypal/contents/{+path}",
    "contributors_url": "https://api.github.com/repos/johnboxall/django-paypal/contributors",
    "created_at": "2009-02-01T22:17:31Z",
    "default_branch": "master",
    "description": "A pluggable Django application for integrating PayPal Payments Standard or Payments Pro",
    "downloads_url": "https://api.github.com/repos/johnboxall/django-paypal/downloads",
    "events_url": "https://api.github.com/repos/johnboxall/django-paypal/events",
    "fork": false,
    "forks": 350,
    "forks_count": 350,
    "forks_url": "https://api.github.com/repos/johnboxall/django-paypal/forks",
    "full_name": "johnboxall/django-paypal",
    "git_commits_url": "https://api.github.com/repos/johnboxall/django-paypal/git/commits{/sha}",
    "git_refs_url": "https://api.github.com/repos/johnboxall/django-paypal/git/refs{/sha}",
    "git_tags_url": "https://api.github.com/repos/johnboxall/django-paypal/git/tags{/sha}",
    "git_url": "git://github.com/johnboxall/django-paypal.git",
    "has_downloads": false,
    "has_issues": false,
    "has_wiki": false,
    "homepage": "",
    "hooks_url": "https://api.github.com/repos/johnboxall/django-paypal/hooks",
    "html_url": "https://github.com/johnboxall/django-paypal",
    "id": 119458,
    "issue_comment_url": "https://api.github.com/repos/johnboxall/django-paypal/issues/comments/{number}",
    "issue_events_url": "https://api.github.com/repos/johnboxall/django-paypal/issues/events{/number}",
    "issues_url": "https://api.github.com/repos/johnboxall/django-paypal/issues{/number}",
    "keys_url": "https://api.github.com/repos/johnboxall/django-paypal/keys{/key_id}",
    "labels_url": "https://api.github.com/repos/johnboxall/django-paypal/labels{/name}",
    "language": "Python",
    "languages_url": "https://api.github.com/repos/johnboxall/django-paypal/languages",
    "merges_url": "https://api.github.com/repos/johnboxall/django-paypal/merges",
    "milestones_url": "https://api.github.com/repos/johnboxall/django-paypal/milestones{/number}",
    "mirror_url": null,
    "name": "django-paypal",
    "notifications_url": "https://api.github.com/repos/johnboxall/django-paypal/notifications{?since,all,participating}",
    "open_issues": 46,
    "open_issues_count": 46,
    "owner": {
        "avatar_url": "https://avatars.githubusercontent.com/u/28967?",
        "events_url": "https://api.github.com/users/johnboxall/events{/privacy}",
        "followers_url": "https://api.github.com/users/johnboxall/followers",
        "following_url": "https://api.github.com/users/johnboxall/following{/other_user}",
        "gists_url": "https://api.github.com/users/johnboxall/gists{/gist_id}",
        "gravatar_id": "a2022dd6067098ab832277250f2185f7",
        "html_url": "https://github.com/johnboxall",
        "id": 28967,
        "login": "johnboxall",
        "organizations_url": "https://api.github.com/users/johnboxall/orgs",
        "received_events_url": "https://api.github.com/users/johnboxall/received_events",
        "repos_url": "https://api.github.com/users/johnboxall/repos",
        "site_admin": false,
        "starred_url": "https://api.github.com/users/johnboxall/starred{/owner}{/repo}",
        "subscriptions_url": "https://api.github.com/users/johnboxall/subscriptions",
        "type": "User",
        "url": "https://api.github.com/users/johnboxall"
    },
    "private": false,
    "pulls_url": "https://api.github.com/repos/johnboxall/django-paypal/pulls{/number}",
    "pushed_at": "2014-01-03T23:52:21Z",
    "releases_url": "https://api.github.com/repos/johnboxall/django-paypal/releases{/id}",
    "score": 1.0,
    "size": 596,
    "ssh_url": "git@github.com:johnboxall/django-paypal.git",
    "stargazers_count": 547,
    "stargazers_url": "https://api.github.com/repos/johnboxall/django-paypal/stargazers",
    "statuses_url": "https://api.github.com/repos/johnboxall/django-paypal/statuses/{sha}",
    "subscribers_url": "https://api.github.com/repos/johnboxall/django-paypal/subscribers",
    "subscription_url": "https://api.github.com/repos/johnboxall/django-paypal/subscription",
    "svn_url": "https://github.com/johnboxall/django-paypal",
    "tags_url": "https://api.github.com/repos/johnboxall/django-paypal/tags",
    "teams_url": "https://api.github.com/repos/johnboxall/django-paypal/teams",
    "trees_url": "https://api.github.com/repos/johnboxall/django-paypal/git/trees{/sha}",
    "updated_at": "2014-05-03T15:34:04Z",
    "url": "https://api.github.com/repos/johnboxall/django-paypal",
    "watchers": 547,
    "watchers_count": 547
}