{
    "archive_url": "https://api.github.com/repos/hiddenillusion/AnalyzePDF/{archive_format}{/ref}",
    "assignees_url": "https://api.github.com/repos/hiddenillusion/AnalyzePDF/assignees{/user}",
    "blobs_url": "https://api.github.com/repos/hiddenillusion/AnalyzePDF/git/blobs{/sha}",
    "branches_url": "https://api.github.com/repos/hiddenillusion/AnalyzePDF/branches{/branch}",
    "clone_url": "https://github.com/hiddenillusion/AnalyzePDF.git",
    "collaborators_url": "https://api.github.com/repos/hiddenillusion/AnalyzePDF/collaborators{/collaborator}",
    "comments_url": "https://api.github.com/repos/hiddenillusion/AnalyzePDF/comments{/number}",
    "commits_url": "https://api.github.com/repos/hiddenillusion/AnalyzePDF/commits{/sha}",
    "compare_url": "https://api.github.com/repos/hiddenillusion/AnalyzePDF/compare/{base}...{head}",
    "contents_url": "https://api.github.com/repos/hiddenillusion/AnalyzePDF/contents/{+path}",
    "contributors_url": "https://api.github.com/repos/hiddenillusion/AnalyzePDF/contributors",
    "created_at": "2013-12-02T23:07:03Z",
    "default_branch": "master",
    "description": "Tool to help analyze PDF files",
    "downloads_url": "https://api.github.com/repos/hiddenillusion/AnalyzePDF/downloads",
    "events_url": "https://api.github.com/repos/hiddenillusion/AnalyzePDF/events",
    "fork": false,
    "forks": 3,
    "forks_count": 3,
    "forks_url": "https://api.github.com/repos/hiddenillusion/AnalyzePDF/forks",
    "full_name": "hiddenillusion/AnalyzePDF",
    "git_commits_url": "https://api.github.com/repos/hiddenillusion/AnalyzePDF/git/commits{/sha}",
    "git_refs_url": "https://api.github.com/repos/hiddenillusion/AnalyzePDF/git/refs{/sha}",
    "git_tags_url": "https://api.github.com/repos/hiddenillusion/AnalyzePDF/git/tags{/sha}",
    "git_url": "git://github.com/hiddenillusion/AnalyzePDF.git",
    "has_downloads": true,
    "has_issues": true,
    "has_wiki": true,
    "homepage": null,
    "hooks_url": "https://api.github.com/repos/hiddenillusion/AnalyzePDF/hooks",
    "html_url": "https://github.com/hiddenillusion/AnalyzePDF",
    "id": 14877659,
    "issue_comment_url": "https://api.github.com/repos/hiddenillusion/AnalyzePDF/issues/comments/{number}",
    "issue_events_url": "https://api.github.com/repos/hiddenillusion/AnalyzePDF/issues/events{/number}",
    "issues_url": "https://api.github.com/repos/hiddenillusion/AnalyzePDF/issues{/number}",
    "keys_url": "https://api.github.com/repos/hiddenillusion/AnalyzePDF/keys{/key_id}",
    "labels_url": "https://api.github.com/repos/hiddenillusion/AnalyzePDF/labels{/name}",
    "language": "Python",
    "languages_url": "https://api.github.com/repos/hiddenillusion/AnalyzePDF/languages",
    "merges_url": "https://api.github.com/repos/hiddenillusion/AnalyzePDF/merges",
    "milestones_url": "https://api.github.com/repos/hiddenillusion/AnalyzePDF/milestones{/number}",
    "mirror_url": null,
    "name": "AnalyzePDF",
    "notifications_url": "https://api.github.com/repos/hiddenillusion/AnalyzePDF/notifications{?since,all,participating}",
    "open_issues": 0,
    "open_issues_count": 0,
    "owner": {
        "avatar_url": "https://avatars.githubusercontent.com/u/1418309?",
        "events_url": "https://api.github.com/users/hiddenillusion/events{/privacy}",
        "followers_url": "https://api.github.com/users/hiddenillusion/followers",
        "following_url": "https://api.github.com/users/hiddenillusion/following{/other_user}",
        "gists_url": "https://api.github.com/users/hiddenillusion/gists{/gist_id}",
        "gravatar_id": "a42b2d4612d22106b03b16f3da821bdf",
        "html_url": "https://github.com/hiddenillusion",
        "id": 1418309,
        "login": "hiddenillusion",
        "organizations_url": "https://api.github.com/users/hiddenillusion/orgs",
        "received_events_url": "https://api.github.com/users/hiddenillusion/received_events",
        "repos_url": "https://api.github.com/users/hiddenillusion/repos",
        "site_admin": false,
        "starred_url": "https://api.github.com/users/hiddenillusion/starred{/owner}{/repo}",
        "subscriptions_url": "https://api.github.com/users/hiddenillusion/subscriptions",
        "type": "User",
        "url": "https://api.github.com/users/hiddenillusion"
    },
    "private": false,
    "pulls_url": "https://api.github.com/repos/hiddenillusion/AnalyzePDF/pulls{/number}",
    "pushed_at": "2014-01-06T09:28:40Z",
    "releases_url": "https://api.github.com/repos/hiddenillusion/AnalyzePDF/releases{/id}",
    "score": 1.0,
    "size": 164,
    "ssh_url": "git@github.com:hiddenillusion/AnalyzePDF.git",
    "stargazers_count": 43,
    "stargazers_url": "https://api.github.com/repos/hiddenillusion/AnalyzePDF/stargazers",
    "statuses_url": "https://api.github.com/repos/hiddenillusion/AnalyzePDF/statuses/{sha}",
    "subscribers_url": "https://api.github.com/repos/hiddenillusion/AnalyzePDF/subscribers",
    "subscription_url": "https://api.github.com/repos/hiddenillusion/AnalyzePDF/subscription",
    "svn_url": "https://github.com/hiddenillusion/AnalyzePDF",
    "tags_url": "https://api.github.com/repos/hiddenillusion/AnalyzePDF/tags",
    "teams_url": "https://api.github.com/repos/hiddenillusion/AnalyzePDF/teams",
    "trees_url": "https://api.github.com/repos/hiddenillusion/AnalyzePDF/git/trees{/sha}",
    "updated_at": "2014-05-02T17:58:41Z",
    "url": "https://api.github.com/repos/hiddenillusion/AnalyzePDF",
    "watchers": 43,
    "watchers_count": 43
}