{
    "archive_url": "https://api.github.com/repos/edwardgeorge/virtualenv-clone/{archive_format}{/ref}",
    "assignees_url": "https://api.github.com/repos/edwardgeorge/virtualenv-clone/assignees{/user}",
    "blobs_url": "https://api.github.com/repos/edwardgeorge/virtualenv-clone/git/blobs{/sha}",
    "branches_url": "https://api.github.com/repos/edwardgeorge/virtualenv-clone/branches{/branch}",
    "clone_url": "https://github.com/edwardgeorge/virtualenv-clone.git",
    "collaborators_url": "https://api.github.com/repos/edwardgeorge/virtualenv-clone/collaborators{/collaborator}",
    "comments_url": "https://api.github.com/repos/edwardgeorge/virtualenv-clone/comments{/number}",
    "commits_url": "https://api.github.com/repos/edwardgeorge/virtualenv-clone/commits{/sha}",
    "compare_url": "https://api.github.com/repos/edwardgeorge/virtualenv-clone/compare/{base}...{head}",
    "contents_url": "https://api.github.com/repos/edwardgeorge/virtualenv-clone/contents/{+path}",
    "contributors_url": "https://api.github.com/repos/edwardgeorge/virtualenv-clone/contributors",
    "created_at": "2011-03-15T06:52:55Z",
    "default_branch": "master",
    "description": "A script for cloning a non-relocatable virtualenv. originated here: https://gist.github.com/860822",
    "downloads_url": "https://api.github.com/repos/edwardgeorge/virtualenv-clone/downloads",
    "events_url": "https://api.github.com/repos/edwardgeorge/virtualenv-clone/events",
    "fork": false,
    "forks": 11,
    "forks_count": 11,
    "forks_url": "https://api.github.com/repos/edwardgeorge/virtualenv-clone/forks",
    "full_name": "edwardgeorge/virtualenv-clone",
    "git_commits_url": "https://api.github.com/repos/edwardgeorge/virtualenv-clone/git/commits{/sha}",
    "git_refs_url": "https://api.github.com/repos/edwardgeorge/virtualenv-clone/git/refs{/sha}",
    "git_tags_url": "https://api.github.com/repos/edwardgeorge/virtualenv-clone/git/tags{/sha}",
    "git_url": "git://github.com/edwardgeorge/virtualenv-clone.git",
    "has_downloads": true,
    "has_issues": true,
    "has_wiki": true,
    "homepage": "",
    "hooks_url": "https://api.github.com/repos/edwardgeorge/virtualenv-clone/hooks",
    "html_url": "https://github.com/edwardgeorge/virtualenv-clone",
    "id": 1481706,
    "issue_comment_url": "https://api.github.com/repos/edwardgeorge/virtualenv-clone/issues/comments/{number}",
    "issue_events_url": "https://api.github.com/repos/edwardgeorge/virtualenv-clone/issues/events{/number}",
    "issues_url": "https://api.github.com/repos/edwardgeorge/virtualenv-clone/issues{/number}",
    "keys_url": "https://api.github.com/repos/edwardgeorge/virtualenv-clone/keys{/key_id}",
    "labels_url": "https://api.github.com/repos/edwardgeorge/virtualenv-clone/labels{/name}",
    "language": "Python",
    "languages_url": "https://api.github.com/repos/edwardgeorge/virtualenv-clone/languages",
    "merges_url": "https://api.github.com/repos/edwardgeorge/virtualenv-clone/merges",
    "milestones_url": "https://api.github.com/repos/edwardgeorge/virtualenv-clone/milestones{/number}",
    "mirror_url": null,
    "name": "virtualenv-clone",
    "notifications_url": "https://api.github.com/repos/edwardgeorge/virtualenv-clone/notifications{?since,all,participating}",
    "open_issues": 5,
    "open_issues_count": 5,
    "owner": {
        "avatar_url": "https://avatars.githubusercontent.com/u/1572?",
        "events_url": "https://api.github.com/users/edwardgeorge/events{/privacy}",
        "followers_url": "https://api.github.com/users/edwardgeorge/followers",
        "following_url": "https://api.github.com/users/edwardgeorge/following{/other_user}",
        "gists_url": "https://api.github.com/users/edwardgeorge/gists{/gist_id}",
        "gravatar_id": "a6a6262b5fe436a9342d2d77488e983e",
        "html_url": "https://github.com/edwardgeorge",
        "id": 1572,
        "login": "edwardgeorge",
        "organizations_url": "https://api.github.com/users/edwardgeorge/orgs",
        "received_events_url": "https://api.github.com/users/edwardgeorge/received_events",
        "repos_url": "https://api.github.com/users/edwardgeorge/repos",
        "site_admin": false,
        "starred_url": "https://api.github.com/users/edwardgeorge/starred{/owner}{/repo}",
        "subscriptions_url": "https://api.github.com/users/edwardgeorge/subscriptions",
        "type": "User",
        "url": "https://api.github.com/users/edwardgeorge"
    },
    "private": false,
    "pulls_url": "https://api.github.com/repos/edwardgeorge/virtualenv-clone/pulls{/number}",
    "pushed_at": "2014-04-27T14:47:54Z",
    "releases_url": "https://api.github.com/repos/edwardgeorge/virtualenv-clone/releases{/id}",
    "score": 1.0,
    "size": 236,
    "ssh_url": "git@github.com:edwardgeorge/virtualenv-clone.git",
    "stargazers_count": 65,
    "stargazers_url": "https://api.github.com/repos/edwardgeorge/virtualenv-clone/stargazers",
    "statuses_url": "https://api.github.com/repos/edwardgeorge/virtualenv-clone/statuses/{sha}",
    "subscribers_url": "https://api.github.com/repos/edwardgeorge/virtualenv-clone/subscribers",
    "subscription_url": "https://api.github.com/repos/edwardgeorge/virtualenv-clone/subscription",
    "svn_url": "https://github.com/edwardgeorge/virtualenv-clone",
    "tags_url": "https://api.github.com/repos/edwardgeorge/virtualenv-clone/tags",
    "teams_url": "https://api.github.com/repos/edwardgeorge/virtualenv-clone/teams",
    "trees_url": "https://api.github.com/repos/edwardgeorge/virtualenv-clone/git/trees{/sha}",
    "updated_at": "2014-05-06T00:56:10Z",
    "url": "https://api.github.com/repos/edwardgeorge/virtualenv-clone",
    "watchers": 65,
    "watchers_count": 65
}