[
    "bin",
    "urls",
    "settings.local-dist",
    "project_name",
    "settings.test",
    "test",
    "views",
    "models",
    "docs",
    "manage",
    "project_name.wsgi",
    "wsgi",
    "project_name.urls",
    "base",
    "conf",
    "project_name.settings.test",
    "bin.git_precommit_pycheck",
    "docs.conf",
    "base.views",
    "settings",
    "project_name.settings",
    "project_name.settings.base",
    "base.urls",
    "base.models",
    "local-dist",
    "settings.base",
    "git_precommit_pycheck",
    "project_name.settings.local-dist",
    "fabfile"
]