[
    "parse_performance",
    "station_distances",
    "cleaning_code.station_distances",
    "cleaning_code.service_status",
    "interarrival_time",
    "cleaning_code.parse_performance",
    "cleaning_code",
    "form_station_graph",
    "cleaning_code.interarrival_time",
    "cleaning_code.parse_waittime",
    "station_locations",
    "plaza_traffic",
    "cleaning_code.station_locations",
    "xmltodict",
    "parse_waittime",
    "cleaning_code.turnstile_traffic",
    "service_status",
    "cleaning_code.xmltodict",
    "turnstile_traffic",
    "cleaning_code.form_station_graph",
    "cleaning_code.plaza_traffic"
]