[
    "python.tests.test_emokit",
    "tests",
    "python.emokit.emotiv",
    "render",
    "python.tests",
    "python",
    "emokit.render",
    "python.emokit.render",
    "tests.test_emokit",
    "python.example",
    "test_emokit",
    "python.emokit",
    "mouse_control",
    "emokit.emotiv",
    "emokit",
    "emotiv",
    "example",
    "emokit.mouse_control",
    "python.emokit.mouse_control"
]