{
    "libs": [
        "netaddr",
        "version",
        "unicode_literals",
        "copy",
        "traceback",
        "subprocess",
        "locale",
        "babel",
        "contextlib",
        "gettext",
        "path",
        "calendar",
        "moves",
        "shutil",
        "fixtures",
        "oauthlib",
        "abc",
        "uuid",
        "testresources",
        "eventlet",
        "tempfile",
        "errno",
        "six",
        "urllib",
        "re",
        "json",
        "functools",
        "xmlrpc_client",
        "h",
        "getp",
        "webob",
        "sphinx",
        "mock",
        "cgi",
        "Cipher",
        "stat",
        "inspect",
        "simplejson",
        "optparse",
        "mox3",
        "iso8601",
        "sys",
        "memcache",
        "codecs",
        "pickle",
        "testtools",
        "datetime",
        "print_function",
        "argparse",
        "unicodedata",
        "b",
        "logging",
        "httpretty",
        "zlib",
        "keyring",
        "wsgiref",
        "itertools",
        "green",
        "math",
        "time",
        "requests",
        "anyjson",
        "os",
        "hmac",
        "noqa"
    ]
}