{
    "libs": [
        "sys",
        "encoding",
        "unittest",
        "json",
        "request",
        "urllib2",
        "urllib",
        "django",
        "forms",
        "parse",
        "conf",
        "translation",
        "loader",
        "os",
        "safestring",
        "utils"
    ]
}