[
    "google_voice",
    "hw_thermostat",
    "pytomation.utility.cron_timer",
    "tests.devices.google_voice",
    "wsgi",
    "devices.scene",
    "tests.interfaces.ha_interface",
    "interfaces.arduino",
    "pytomation.interfaces.hw_thermostat",
    "interfaces.common",
    "devices.generic",
    "pytomation.devices.xmpp_client",
    "tests.interfaces.tomato",
    "pytomation.devices.photocell",
    "insteon_message",
    "tests.interfaces.hw_thermostat",
    "arduino",
    "pytomation.interfaces.insteon2",
    "pytomation.interfaces.http_server",
    "common.config_example",
    "utility.timer",
    "pytomation.common",
    "interfaces.wemo",
    "common.pytomation_system",
    "tests.common",
    "location",
    "pytomation.utility.periodic_timer",
    "utility.cron_timer",
    "tests.common.MockInterface",
    "tests.common.pytomation_object",
    "tests.devices.light",
    "interfaces.http_server",
    "pytomation.interfaces.stargate",
    "pytomation.devices",
    "instances.graburns",
    "devices.thermostat",
    "interfaces.insteon",
    "devices.google_voice",
    "photocell",
    "pytomation_django.settings",
    "insteon",
    "tests.interfaces.mochad",
    "tests.experiment-threading",
    "interfaces.stargate",
    "upb_interface",
    "settings",
    "pytomation.devices.interface",
    "stargate_interface",
    "pytomation.interfaces.sparkio",
    "interfaces.tomato",
    "pytomation.interfaces.cm11a",
    "pytomation.interfaces.insteon_command",
    "pytomation.interfaces.insteon_message",
    "common",
    "tests.common.pytomation_api",
    "pytomation.interfaces",
    "tests.interfaces.upb_interface",
    "w800rf32",
    "devices.state",
    "honeywell_thermostat",
    "config_example",
    "interfaces.ha_interface",
    "tests.devices.room",
    "tests.common.pyto_logging",
    "common.pyto_logging",
    "upb",
    "pytomation.interfaces.wemo",
    "tests.devices.state",
    "tests.devices",
    "pytomation",
    "devices",
    "interfaces.honeywell_thermostat",
    "devices.motion",
    "tests.common.pytomation_system",
    "utility.manhole",
    "pyto_logging",
    "devices.door",
    "pytomation.common.pytomation_api",
    "tests.devices.attributes",
    "state_interface",
    "experiment-threading",
    "models",
    "state",
    "cm11a",
    "pytomation.interfaces.arduino",
    "interfaces.http",
    "devices.photocell",
    "contrib.instances.vanorman",
    "tests.utility.time_funcs",
    "interfaces.wtdio",
    "interfaces.insteon_message",
    "devices.attributes",
    "interfaces.cm11a",
    "interfaces",
    "tests.interfaces.harmony_hub",
    "pytomation.common.pytomation_system",
    "pytomation.interfaces.named_pipe",
    "pytomation.interfaces.ha_interface",
    "interfaces.harmony_hub",
    "common.pytomation_object",
    "vanorman",
    "pytomation_django",
    "interfaces.nest_thermostat",
    "tests.interfaces",
    "interfaces.state_interface",
    "utility.periodic_timer",
    "seaview",
    "tests.utility.timer",
    "timer",
    "motion",
    "utility.time_funcs",
    "interfaces.insteon_command",
    "urls",
    "attributes",
    "tests.interfaces.insteon2",
    "pytomation.devices.room",
    "pytomation.devices.generic",
    "pytomation.interfaces.nest_thermostat",
    "tests.interfaces.named_pipe",
    "common.pytomation_api",
    "pytomation.devices.location",
    "devices.xmpp_client",
    "manage",
    "scene",
    "probeport",
    "pytomation.interfaces.honeywell_thermostat",
    "tests.devices.generic",
    "instances",
    "rpi_input",
    "contrib",
    "tests.interfaces.sparkio",
    "utility",
    "pytomation.interfaces.mh_send",
    "tests.devices.location",
    "time_funcs",
    "tests.utility.periodic_timer",
    "interfaces.hw_thermostat",
    "pytomation.devices.state",
    "pytomation.utility.time_funcs",
    "tests.common.mock_interface",
    "pytomation.devices.google_voice",
    "nest_thermostat",
    "pytomation.utility.miranda",
    "pytomation.interfaces.harmony_hub",
    "tests.utility.cron_timer",
    "interfaces.named_pipe",
    "tests.interfaces.insteon",
    "door",
    "tests.interfaces.http",
    "pytomation_ui",
    "interfaces.rpi_input",
    "http_server",
    "tests.devices.interface",
    "pytomation.common.pytomation_object",
    "manhole",
    "interfaces.sparkio",
    "cron_timer",
    "interfaces.upb_interface",
    "instances.seaview",
    "interfaces.w800rf32",
    "tests.interfaces.mh_send",
    "graburns",
    "room",
    "pytomation_django.urls",
    "ha_interface",
    "MockInterface",
    "tests.interfaces.nest_thermostat",
    "pytomation.interfaces.open_zwave",
    "interfaces.open_zwave",
    "interfaces.insteon2",
    "pytomation.devices.motion",
    "contrib.instances",
    "pytomation_django.wsgi",
    "pytomation.devices.thermostat",
    "miranda",
    "tests.devices.motion",
    "xmpp_client",
    "devices.room",
    "pytomation.utility.manhole",
    "pytomation.interfaces.mochad",
    "pytomation_api",
    "interfaces.upb",
    "tests",
    "open_zwave",
    "contrib.instances.graburns",
    "pytomation_ui.models",
    "interfaces.stargate_interface",
    "devices.controller",
    "pytomation.utility.http_server",
    "tests.devices.xmpp_client",
    "pytomation_ui.tests",
    "pytomation.interfaces.state_interface",
    "tests.devices.scene",
    "devices.interface",
    "pytomation.utility.timer",
    "pytomation.devices.scene",
    "pytomation.interfaces.rpi_input",
    "pytomation_object",
    "pytomation.utility",
    "pytomation.devices.attributes",
    "generic",
    "views",
    "wemo",
    "harmony_hub",
    "interfaces.mh_send",
    "interfaces.mochad",
    "sparkio",
    "common.MockInterface",
    "tests.utility",
    "tests.interfaces.state_interface",
    "instances.vanorman",
    "http",
    "tests.devices.thermostat",
    "pytomation.interfaces.w800rf32",
    "devices.location",
    "tests.interfaces.stargate_interface",
    "common.mock_interface",
    "pytomation_system",
    "insteon_command",
    "pytomation.common.pyto_logging",
    "interface",
    "mh_send",
    "thermostat",
    "utility.miranda",
    "pytomation.devices.door",
    "pytomation.interfaces.common",
    "mock_interface",
    "named_pipe",
    "insteon2",
    "tests.devices.photocell",
    "pytomation_ui.views",
    "tomato",
    "pytomation.common.config_example",
    "pytomation.devices.light",
    "contrib.instances.seaview",
    "light",
    "tests.interfaces.wemo",
    "pytomation.interfaces.tomato",
    "controller",
    "wtdio",
    "utility.http_server",
    "pytomation.devices.controller",
    "pytomation.interfaces.wtdio",
    "tests.devices.door",
    "stargate",
    "periodic_timer",
    "pytomation.interfaces.upb",
    "mochad",
    "devices.light",
    "pytomation.interfaces.insteon"
]