{
    "archive_url": "https://api.github.com/repos/kislyuk/argcomplete/{archive_format}{/ref}",
    "assignees_url": "https://api.github.com/repos/kislyuk/argcomplete/assignees{/user}",
    "blobs_url": "https://api.github.com/repos/kislyuk/argcomplete/git/blobs{/sha}",
    "branches_url": "https://api.github.com/repos/kislyuk/argcomplete/branches{/branch}",
    "clone_url": "https://github.com/kislyuk/argcomplete.git",
    "collaborators_url": "https://api.github.com/repos/kislyuk/argcomplete/collaborators{/collaborator}",
    "comments_url": "https://api.github.com/repos/kislyuk/argcomplete/comments{/number}",
    "commits_url": "https://api.github.com/repos/kislyuk/argcomplete/commits{/sha}",
    "compare_url": "https://api.github.com/repos/kislyuk/argcomplete/compare/{base}...{head}",
    "contents_url": "https://api.github.com/repos/kislyuk/argcomplete/contents/{+path}",
    "contributors_url": "https://api.github.com/repos/kislyuk/argcomplete/contributors",
    "created_at": "2012-11-19T15:37:34Z",
    "default_branch": "master",
    "description": "Python and tab completion, better together",
    "downloads_url": "https://api.github.com/repos/kislyuk/argcomplete/downloads",
    "events_url": "https://api.github.com/repos/kislyuk/argcomplete/events",
    "fork": false,
    "forks": 24,
    "forks_count": 24,
    "forks_url": "https://api.github.com/repos/kislyuk/argcomplete/forks",
    "full_name": "kislyuk/argcomplete",
    "git_commits_url": "https://api.github.com/repos/kislyuk/argcomplete/git/commits{/sha}",
    "git_refs_url": "https://api.github.com/repos/kislyuk/argcomplete/git/refs{/sha}",
    "git_tags_url": "https://api.github.com/repos/kislyuk/argcomplete/git/tags{/sha}",
    "git_url": "git://github.com/kislyuk/argcomplete.git",
    "has_downloads": true,
    "has_issues": true,
    "has_wiki": true,
    "homepage": "",
    "hooks_url": "https://api.github.com/repos/kislyuk/argcomplete/hooks",
    "html_url": "https://github.com/kislyuk/argcomplete",
    "id": 6762625,
    "issue_comment_url": "https://api.github.com/repos/kislyuk/argcomplete/issues/comments/{number}",
    "issue_events_url": "https://api.github.com/repos/kislyuk/argcomplete/issues/events{/number}",
    "issues_url": "https://api.github.com/repos/kislyuk/argcomplete/issues{/number}",
    "keys_url": "https://api.github.com/repos/kislyuk/argcomplete/keys{/key_id}",
    "labels_url": "https://api.github.com/repos/kislyuk/argcomplete/labels{/name}",
    "language": "Python",
    "languages_url": "https://api.github.com/repos/kislyuk/argcomplete/languages",
    "merges_url": "https://api.github.com/repos/kislyuk/argcomplete/merges",
    "milestones_url": "https://api.github.com/repos/kislyuk/argcomplete/milestones{/number}",
    "mirror_url": null,
    "name": "argcomplete",
    "notifications_url": "https://api.github.com/repos/kislyuk/argcomplete/notifications{?since,all,participating}",
    "open_issues": 12,
    "open_issues_count": 12,
    "owner": {
        "avatar_url": "https://avatars.githubusercontent.com/u/862013?",
        "events_url": "https://api.github.com/users/kislyuk/events{/privacy}",
        "followers_url": "https://api.github.com/users/kislyuk/followers",
        "following_url": "https://api.github.com/users/kislyuk/following{/other_user}",
        "gists_url": "https://api.github.com/users/kislyuk/gists{/gist_id}",
        "gravatar_id": "d38d50c13985ec1a6174f09699dfd400",
        "html_url": "https://github.com/kislyuk",
        "id": 862013,
        "login": "kislyuk",
        "organizations_url": "https://api.github.com/users/kislyuk/orgs",
        "received_events_url": "https://api.github.com/users/kislyuk/received_events",
        "repos_url": "https://api.github.com/users/kislyuk/repos",
        "site_admin": false,
        "starred_url": "https://api.github.com/users/kislyuk/starred{/owner}{/repo}",
        "subscriptions_url": "https://api.github.com/users/kislyuk/subscriptions",
        "type": "User",
        "url": "https://api.github.com/users/kislyuk"
    },
    "private": false,
    "pulls_url": "https://api.github.com/repos/kislyuk/argcomplete/pulls{/number}",
    "pushed_at": "2014-05-02T16:27:37Z",
    "releases_url": "https://api.github.com/repos/kislyuk/argcomplete/releases{/id}",
    "score": 1.0,
    "size": 1350,
    "ssh_url": "git@github.com:kislyuk/argcomplete.git",
    "stargazers_count": 147,
    "stargazers_url": "https://api.github.com/repos/kislyuk/argcomplete/stargazers",
    "statuses_url": "https://api.github.com/repos/kislyuk/argcomplete/statuses/{sha}",
    "subscribers_url": "https://api.github.com/repos/kislyuk/argcomplete/subscribers",
    "subscription_url": "https://api.github.com/repos/kislyuk/argcomplete/subscription",
    "svn_url": "https://github.com/kislyuk/argcomplete",
    "tags_url": "https://api.github.com/repos/kislyuk/argcomplete/tags",
    "teams_url": "https://api.github.com/repos/kislyuk/argcomplete/teams",
    "trees_url": "https://api.github.com/repos/kislyuk/argcomplete/git/trees{/sha}",
    "updated_at": "2014-05-06T11:44:27Z",
    "url": "https://api.github.com/repos/kislyuk/argcomplete",
    "watchers": 147,
    "watchers_count": 147
}