[
    "twisted.wamp.work",
    "autobahn.twisted.flashpolicy",
    "websocket.echo",
    "autobahn.wamp.interfaces",
    "examples.twisted.websocket.multiproto.client",
    "autobahn.wamp.test",
    "asyncio.wamp.basic.pubsub.complex.backend",
    "websocket.streaming.streaming_producer_client",
    "twisted.websocket.echo_compressed",
    "websocket.echo_service.echows.echoservice",
    "twisted.wamp.basic.pubsub.decorators.backend",
    "dbus.server",
    "flashpolicy",
    "doc._themes.flask_theme_support",
    "examples.asyncio.websocket.echo.client_coroutines_py2",
    "examples.twisted.websocket.streaming.message_based_server",
    "plugins.autobahn_endpoints",
    "wrapping.client",
    "twisted.plugins.echows_plugin",
    "twisted.websocket.echo_service",
    "twisted.websocket.streaming.streaming_client",
    "examples.twisted.wamp.basic.rpc",
    "twisted.websocket.echo_wsgi",
    "authentication.client",
    "examples.twisted.wamp1.apps.serial2ws",
    "examples.twisted.websocket.slowsquare.server",
    "apps.dbus.client",
    "util",
    "pubsub.server",
    "asyncio.wamp.basic",
    "basic.rpc.complex",
    "slowsquare.frontend",
    "examples.twisted.wamp.work.test_interfaces",
    "wamp.basic.pubsub.complex.backend",
    "twisted.wamp1.apps.dirwatch.win32",
    "examples.asyncio.wamp.basic.rpc.progress.backend",
    "twisted.wamp1.apps.dirwatch.win32.dirwatch",
    "wamp.beginner.server",
    "examples.twisted.websocket.echo_multicore.server_reuseport",
    "wamp.basic.rpc.complex",
    "websocket.slowsquare.client",
    "wamplet1.wamplet1.calculator",
    "apps.dirwatch.dirwatch",
    "wamp1.apps.serial2ws",
    "examples.twisted",
    "autobahn.websocket.utf8validator",
    "autobahn.autobahn.wamp1.prefixmap",
    "echo_variants.client_with_proxy",
    "streaming.streaming_producer_client",
    "wamplet.wamplet1",
    "examples.twisted.wamp.work.test2",
    "wamplet.wampirc.wampirc",
    "plugins",
    "asyncio.wamp.basic.rpc.progress.backend",
    "autobahn.autobahn.websocket.test",
    "wamp1.rpc.profile.client",
    "series.backend",
    "examples.twisted.websocket.wrapping.client_endpoint",
    "errors",
    "client_with_params",
    "asyncio.wamp.basic.rpc.arguments",
    "examples.asyncio.wamp.basic.rpc.arguments.backend",
    "twisted.wamp.wamplet.votegame",
    "websocket.interfaces",
    "twisted.wamp.work.longpoll.server",
    "echo.client",
    "examples.twisted.websocket.echo_service",
    "basic.pubsub.complex.frontend",
    "asyncio.wamp.basic.pubsub",
    "pubsub.custom",
    "asyncio.wamp.basic.session.series.backend",
    "rpc.timeservice",
    "autobahn.twisted.forwarder",
    "examples.twisted.websocket.echo_site",
    "websocket.auth_persona.server",
    "autobahn.autobahn.wamp1.pbkdf2",
    "twisted.wamp.beginner.server",
    "useragent",
    "websocket.echo_site_tls.server",
    "options",
    "examples.twisted.wamp.basic.pubsub.decorators.backend",
    "wamp1.rpc.symmetric.client",
    "twisted.wamp1.rpc.simple.example2.client_icb",
    "wamp.basic.rpc",
    "flask_theme_support",
    "pubsub.unsubscribe.frontend",
    "asyncio.wamp.basic.rpc.complex.backend",
    "examples.twisted.websocket.echo_variants.client_with_proxy",
    "basic.rpc.arguments.frontend",
    "streaming_server",
    "examples.twisted.websocket.broadcast.server",
    "twisted.util",
    "work.test2",
    "twisted.wamp.work.test_interfaces",
    "wamp.basic.rpc.complex.frontend",
    "series.frontend",
    "dirwatch.server",
    "websocket.echo_multicore",
    "testee",
    "asyncio.wamp.basic.rpc.options.backend",
    "autobahn.websocket.useragent",
    "websocket.compress",
    "websocket.echo.client",
    "wamp.work.pubsub.client",
    "wamp.work.test_serializer",
    "wamp.work.longpoll",
    "asyncio.websocket",
    "work",
    "examples.asyncio.wamp.basic.server",
    "rpc.progress.backend",
    "streaming.frame_based_client",
    "wamp.role",
    "autobahn.autobahn",
    "examples.asyncio.wamp.basic.rpc.arguments",
    "examples.asyncio.wamp.wamplet",
    "wamp1.apps.dirwatch.dirwatch",
    "ranstring",
    "basic.rpc.options",
    "autobahn.autobahn.websocket.compress_bzip2",
    "autobahn.autobahn.wamp1",
    "wamp.work.test",
    "wamp.types",
    "asyncio.wamp.basic.rpc.complex",
    "wamp.basic.client",
    "asyncio.wamp.beginner.server",
    "basic.rpc.errors",
    "autobahn_endpoints",
    "examples.twisted.wamp.basic.rpc.complex",
    "autobahn.wamp.test.test_protocol_peer",
    "wamplet.votegame.votegame",
    "twisted.websocket.auth_persona.server",
    "examples.asyncio.wamp.beginner",
    "twisted.websocket.multiproto",
    "autobahn.autobahn.twisted.wamp",
    "websocket.compress_bzip2",
    "examples.asyncio.wamp.wamplet.wamplet1",
    "twisted.wamp.basic.rpc.progress",
    "basic.rpc.progress.frontend",
    "websocket.echo_wsfallbacks",
    "examples.twisted.wamp1.pubsub.loadlatency",
    "autobahn.websocket.compress",
    "wamp.wamplet.votegame",
    "autobahn.autobahn.wamp1.protocol",
    "twisted.wamp.basic.pubsub.complex",
    "asyncio.wamp.basic.pubsub.unsubscribe",
    "examples.twisted.wamp.beginner",
    "auth.persona.server",
    "timeservice",
    "router",
    "examples.twisted.wamp.basic.rpc.timeservice.backend",
    "wamp1.apps.calculator.server",
    "types",
    "wamp.basic",
    "twisted.websocket.slowsquare",
    "examples.twisted.websocket.echo.client_coroutines",
    "wamp.basic.rpc.progress.frontend",
    "autobahn.autobahn.wamp.test.test_protocol",
    "twisted.wamp.basic.rpc.decorators",
    "example1.client",
    "simple.example1.client",
    "echo_httpheaders.server",
    "wamp.test.test_component",
    "frontend",
    "echo_site.server",
    "twisted.websocket.echo_tls",
    "wamp1.pubsub",
    "twisted.websocket.echo_endpoints.client",
    "examples.twisted.wamp.basic.rpc.progress.frontend",
    "examples.twisted.websocket.echo_compressed.server",
    "work.test_serializer",
    "wamp1.apps.dirwatch.win32",
    "examples.twisted.wamp.basic.pubsub.unsubscribe.backend",
    "wamp1.apps.keyvalue.client",
    "twisted.wamp.basic.rpc.progress.backend",
    "autobahn.autobahn.websocket.utf8validator",
    "rpc.complex",
    "complex",
    "wamp.exception",
    "arguments",
    "votegame.votegame.backend",
    "dirwatch.win32.dirwatch",
    "rpc.decorators",
    "websocket.streaming.message_based_client",
    "basic.session.series",
    "message_based_client",
    "twisted.wamp.basic.rpc.slowsquare.backend",
    "examples.asyncio.wamp.basic.rpc",
    "twisted.websocket.ping.server",
    "symmetric.client",
    "pubsub.loadlatency.server",
    "examples.twisted.wamp1.pubsub.simple.example1.client",
    "echo_variants.server",
    "wamp1.authentication.client",
    "echo.client_coroutines",
    "websocket.http",
    "frame_based_server",
    "wamp.wamplet.wampirc.wampirc.client",
    "pubsub.complex.backend",
    "wamp.auth.persona.server",
    "asyncio.wamp.basic.rpc.decorators",
    "apps.keyvalue.server",
    "examples.twisted.wamp.basic.rpc.errors",
    "twisted.wamp.basic.rpc.arguments.frontend",
    "examples.twisted.wamp.basic.rpc.progress.backend",
    "asyncio.websocket.slowsquare.server",
    "twisted.websocket.ping.client",
    "twisted.wamp.auth.persona",
    "examples.twisted.wamp1.rpc.simple.example1",
    "series",
    "pubsub.unsubscribe",
    "autobahn.websocket.compress_base",
    "examples.twisted.wamp1.pubsub.simple.example1.server",
    "basic.rpc.progress.backend",
    "websocket.streaming",
    "wamp1.rpc.simple",
    "examples.twisted.websocket.wrapping.server_endpoint",
    "autobahn.autobahn.websocket.test.test_websocket_url",
    "work.pubsub",
    "websocket.echo_endpoints",
    "examples.asyncio.wamp.basic.rpc.errors.backend",
    "websocket.echo_endpoints.server",
    "asyncio.wamp.basic.rpc.slowsquare.backend",
    "websocket.protocol",
    "echo_httpheaders",
    "examples.twisted.websocket.echo_wsgi.server",
    "twisted.websocket.echo_variants.client_with_proxy",
    "websocket.testee.testee_server",
    "compress_base",
    "examples.twisted.wamp.work.test3",
    "examples.twisted.wamp1.rpc.symmetric",
    "wamp.wamplet.wampirc.wampirc.service",
    "basic.session",
    "autobahn.autobahn.wamp.test.test_serializer",
    "examples.twisted.wamp1.apps.keyvalue",
    "apps.serial2ws",
    "twisted.websocket.echo_service.twisted.plugins",
    "wamp.work.longpoll.server",
    "autobahn.autobahn.wamp.test.test_uri_pattern",
    "wamp.basic.test",
    "basic.rpc.slowsquare.frontend",
    "wamp.router",
    "wamp1.apps.dbus",
    "dirwatch.win32",
    "examples.twisted.wamp.wamplet.wampirc.wampirc.service",
    "wamp.wamplet.votegame.votegame.backend",
    "votegame",
    "autobahn.twisted",
    "wamp1.authentication",
    "wamp.wamplet.wamplet1.wamplet1",
    "examples.twisted.wamp1.rpc.simple.example2.client",
    "basic.pubsub.unsubscribe.frontend",
    "examples.twisted.websocket.broadcast",
    "wamp.basic.pubsub.decorators",
    "complex.frontend",
    "test_message",
    "echo_multicore",
    "twisted.websocket.echo_wsfallbacks",
    "examples.twisted.wamp.work.longpoll",
    "examples.asyncio.wamp.basic.rpc.complex",
    "examples.twisted.wamp.basic.session.series.frontend",
    "broadcast.client",
    "twisted.websocket.broadcast.client",
    "twisted.wamp.basic.pubsub.decorators",
    "wamp.basic.rpc.decorators.frontend",
    "twisted.wamp.wamplet.wamplet1.wamplet1.component1",
    "autobahn.wamp.types",
    "basic.pubsub.basic.frontend",
    "prefixmap",
    "twisted.websocket.echo_wsgi.server",
    "wamp1.authentication.server",
    "examples.twisted.wamp1.apps.dbus.server",
    "examples.asyncio.wamp",
    "examples.twisted.websocket.streaming.streaming_client",
    "twisted.websocket.echo_wsfallbacks.server",
    "twisted.websocket.echo_variants.client",
    "service",
    "autobahn.autobahn.twisted.util",
    "autobahn.autobahn.asyncio.wamp",
    "twisted",
    "fromoutside.client",
    "wamp.beginner.client",
    "asyncio.wamp.basic.rpc",
    "multiproto.server1",
    "multiproto.server2",
    "wamp.wamplet.wampirc.wampirc",
    "slowsquare.client",
    "examples.twisted.wamp.basic.pubsub.decorators.frontend",
    "wamp1.pubsub.loadlatency",
    "twisted.wamp1.apps.dirwatch",
    "examples.twisted.wamp1.authentication.server",
    "message_based_server",
    "examples.twisted.wamp.wamplet.wamplet1.wamplet1.component1",
    "examples.asyncio.wamp.basic.pubsub.options",
    "xormasker",
    "autobahn.wamp.broker",
    "websocket.echo_compressed",
    "asyncio.wamp.wamplet.wamplet1.wamplet1.component1",
    "wamp.basic.pubsub.options.frontend",
    "autobahn.autobahn.asyncio.websocket",
    "echo.server",
    "echo_service.twisted.plugins.echows_plugin",
    "twisted.wamp.basic.client",
    "auth_persona",
    "wamp.basic.pubsub.unsubscribe",
    "wamp.http",
    "examples.asyncio.wamp.basic.pubsub.unsubscribe.backend",
    "websocket",
    "examples.asyncio.wamp.basic.rpc.arguments.frontend",
    "echo_site",
    "asyncio.wamp.basic.rpc.complex.frontend",
    "wamp.basic.pubsub.options.backend",
    "test.test_websocket_url",
    "wamp.basic.rpc.timeservice",
    "example2.client_icb",
    "examples.asyncio.wamp.basic.rpc.decorators.backend",
    "wamp1.apps",
    "keyvalue.server",
    "twisted.wamp.work.pubsub",
    "examples.asyncio.wamp.basic.pubsub.basic",
    "examples.asyncio.wamp.basic.pubsub.options.backend",
    "basic.pubsub.complex",
    "basic.rpc.complex.backend",
    "client_coroutines",
    "twisted.wamp.basic.session.series.backend",
    "asyncio.websocket.slowsquare.server_py2",
    "twisted.wamp1.rpc",
    "examples.asyncio.wamp.basic.rpc.timeservice.frontend",
    "timeservice.frontend",
    "examples.twisted.wamp.basic.client",
    "autobahn.autobahn.wamp.websocket",
    "broadcast",
    "examples.twisted.wamp1.pubsub.simple.example2.server",
    "doc",
    "websocket.echo_wsgi",
    "wamp.work.pubsub.server",
    "examples.twisted.websocket.echo_tls.client",
    "twisted.wamp.basic.rpc.progress.frontend",
    "examples.twisted.wamp1.rpc.simple.example2.server",
    "twisted.wamp.basic.session.series.frontend",
    "twisted.websocket.echo_endpoints",
    "examples.twisted.wamp.wamplet.votegame.votegame",
    "rpc.options.backend",
    "echo_endpoints.client",
    "examples.twisted.websocket.echo_wsgi",
    "wamplet.wamplet1.wamplet1.calculator",
    "examples.asyncio.websocket.echo.client_coroutines",
    "examples.twisted.wamp.auth",
    "session",
    "wamp.basic.rpc.decorators.backend",
    "twisted.wamp1.apps.keyvalue.server",
    "rpc.simple.example2",
    "examples.asyncio.websocket.slowsquare.server",
    "examples.twisted.websocket.streaming.streaming_producer_client",
    "examples.twisted.wamp1.authentication.client",
    "examples.twisted.wamp.work.longpoll.server",
    "client_endpoint",
    "wamp.basic.rpc.options.frontend",
    "twisted.wamp.basic.rpc.arguments",
    "wamp.basic.rpc.slowsquare.frontend",
    "websocket.streaming.frame_based_server",
    "twisted.websocket.echo_site",
    "unsubscribe.backend",
    "autobahn.wamp.exception",
    "wamp1.rpc.simple.example2.server",
    "examples.asyncio.wamp.basic.rpc.decorators.frontend",
    "examples.twisted.websocket.streaming.ranstring",
    "examples.asyncio.wamp.basic.pubsub.complex.backend",
    "twisted.wamp1.rpc.symmetric.server",
    "examples.twisted.wamp1.apps",
    "examples.twisted.wamp1.pubsub.custom.server",
    "twisted.wamp1.rpc.simple.example2.server",
    "autobahn.autobahn.wamp.router",
    "wamp.basic.rpc.arguments.backend",
    "wamplet1",
    "websocket.echo.server",
    "twisted.wamp.basic.rpc.errors.backend",
    "websocket.test",
    "examples.twisted.wamp.basic.rpc.slowsquare",
    "client_icb",
    "basic.pubsub.decorators.backend",
    "wamp.basic.pubsub.decorators.backend",
    "twisted.wamp.basic.rpc",
    "autobahn.autobahn.wamp.serializer",
    "examples.twisted.wamp1.rpc.simple.example2.client_icb",
    "apps.dirwatch.server",
    "session.series",
    "example2.server",
    "examples.twisted.websocket.echo_site.server",
    "twisted.plugins.autobahn_endpoints",
    "examples.twisted.wamp.basic.rpc.options.frontend",
    "twisted.websocket.echo_variants.server",
    "wamp1.pubsub.custom",
    "examples.twisted.wamp.basic.rpc.complex.frontend",
    "wamplet.wamplet1.wamplet1.component1",
    "examples.twisted.websocket",
    "examples.twisted.wamp1.pubsub.simple.example2",
    "examples.twisted.wamp1.pubsub.simple.example1",
    "twisted.wamp1.apps.calculator.server",
    "asyncio.wamp.wamplet.wamplet1.wamplet1",
    "work.longpoll",
    "wamp.basic.session.series",
    "examples.twisted.wamp.wamplet.wamplet1.wamplet1",
    "examples.twisted.websocket.echo_service.twisted",
    "twisted.wamp.basic.rpc.decorators.backend",
    "symmetric",
    "twisted.websocket.slowsquare.server",
    "examples.twisted.wamp1.rpc.simple",
    "wamp1.rpc.symmetric.server",
    "simple.example1",
    "pubsub.simple.example2",
    "pubsub.simple.example1",
    "twisted.wamp.basic.server",
    "autobahn.autobahn.wamp.uri",
    "twisted.wamp.basic.pubsub.unsubscribe.frontend",
    "interfaces",
    "plugins.autobahn_twistd",
    "examples.twisted.websocket.echo_wsfallbacks",
    "asyncio.wamp.basic.pubsub.options.backend",
    "autobahn.wamp1.pbkdf2",
    "serial2ws.serial2ws",
    "basic.rpc.complex.frontend",
    "examples.twisted.websocket.streaming.frame_based_client",
    "autobahn.autobahn.websocket.compress_deflate",
    "plugins.echows_plugin",
    "rpc.simple.example2.client",
    "autobahn.websocket.xormasker",
    "twisted.wamp",
    "websocket.echo_service.twisted",
    "autobahn.websocket.interfaces",
    "wamp.wamplet",
    "wrapping",
    "twisted.wamp.basic.pubsub.unsubscribe",
    "echo_compressed.client",
    "asyncio.wamp.basic.rpc.decorators.backend",
    "examples.asyncio.wamp.basic.pubsub.complex",
    "examples.twisted.websocket.echo_endpoints",
    "basic.rpc.decorators",
    "simple",
    "twisted.wamp1.pubsub.simple.example1.client",
    "examples.asyncio.wamp.basic.rpc.progress.frontend",
    "twisted.websocket.testee.testee_server",
    "backend",
    "asyncio.wamp.basic.rpc.progress.frontend",
    "asyncio.wamp.basic.pubsub.decorators.backend",
    "asyncio.wamp.basic.rpc.options.frontend",
    "asyncio.websocket.echo.client_coroutines_py2",
    "simple.example2.client_icb",
    "wamplet1.calculator",
    "twisted.wamp.basic.session",
    "asyncio.wamp.basic.rpc.errors.frontend",
    "examples.twisted.wamp.wamplet.wampirc.wampirc.client",
    "beginner.server",
    "twisted.websocket.streaming.ranstring",
    "pubsub.loadlatency.client",
    "examples.asyncio.wamp.basic.rpc.options",
    "examples.asyncio.wamp.basic.pubsub.decorators",
    "wamp.basic.rpc.options",
    "twisted.wamp1.pubsub.simple.example2.client",
    "wamp.basic.pubsub.basic.backend",
    "autobahn.wamp.router",
    "echo_wsgi.server",
    "asyncio.wamp.basic.rpc.errors",
    "doc._themes",
    "examples.twisted.wamp.basic",
    "examples.twisted.websocket.echo_variants.client_reconnecting",
    "websocket.echo_multicore.server",
    "autobahn.wamp1",
    "examples.twisted.websocket.echo_service.twisted.plugins.echows_plugin",
    "twisted.wamp.work.pubsub.client",
    "autobahn.autobahn.websocket",
    "wamp.uri",
    "calculator",
    "basic.pubsub.options.backend",
    "examples.asyncio.websocket.slowsquare.client",
    "conf",
    "wamp.basic.server",
    "_themes",
    "basic.pubsub.basic",
    "examples.twisted.wamp1.apps.dirwatch.win32.dirwatch",
    "basic.rpc.decorators.frontend",
    "_themes.flask_theme_support",
    "rpc.decorators.frontend",
    "examples.asyncio.wamp.basic.session.series.frontend",
    "asyncio.wamp.basic.pubsub.basic.frontend",
    "rpc.simple.example1",
    "profile.server",
    "wamp1.apps.dirwatch",
    "twisted.wamp.wamplet.wampirc.wampirc.client",
    "websocket.slowsquare",
    "twisted.wamp1.apps.serial2ws",
    "rpc.slowsquare.backend",
    "examples.twisted.wamp.basic.rpc.arguments.frontend",
    "client",
    "keyvalue",
    "examples.twisted.wamp1.apps.dbus.client",
    "asyncio.wamp.basic.session.series",
    "wamplet",
    "wampirc.wampirc.service",
    "autobahn",
    "apps.dirwatch.win32.dirwatch",
    "dbus.client",
    "websocket.echo_service.twisted.plugins.echows_plugin",
    "protocol",
    "wamp.wamplet.wamplet1.wamplet1.calculator",
    "wamp.basic.rpc.errors.frontend",
    "twisted.wamp1.pubsub.simple.example1.server",
    "pubsub.basic.frontend",
    "client_advanced",
    "wampirc.wampirc.client",
    "basic.rpc.slowsquare",
    "echo_service.twisted.plugins",
    "websocket.echo_compressed.server",
    "twisted.wamp.basic.rpc.complex",
    "autobahn.autobahn.twisted.flashpolicy",
    "websocket.echo_tls.client",
    "wamp.basic.pubsub.unsubscribe.backend",
    "twisted.wamp.work.longpoll",
    "websocket.echo_wsgi.server",
    "twisted.websocket.echo_httpheaders.client",
    "autobahn.asyncio.wamp",
    "autobahn.autobahn.wamp",
    "examples.twisted.wamp1.authentication",
    "twisted.wamp1.rpc.symmetric",
    "examples.twisted.wamp1",
    "examples.asyncio.wamp.basic.rpc.slowsquare.backend",
    "examples.twisted.wamp.basic.session.series",
    "examples.twisted.websocket.wrapping.client",
    "asyncio.wamp.basic.pubsub.unsubscribe.frontend",
    "pubsub.basic",
    "basic.rpc.progress",
    "examples.twisted.wamp.basic.rpc.progress",
    "examples.twisted.websocket.echo_httpheaders.server",
    "options.backend",
    "examples.twisted.wamp.basic.rpc.decorators.frontend",
    "examples.asyncio.wamp.basic.session.series",
    "examples.twisted.wamp.basic.pubsub.options.backend",
    "loadlatency.server",
    "rpc.symmetric.client",
    "twisted.wamp.basic.pubsub",
    "rpc.simple.example2.server",
    "twisted.wamp1.authentication.server",
    "autobahn.wamp.test.test_protocol",
    "examples.twisted.wamp1.apps.dirwatch.dirwatch",
    "examples.twisted.websocket.streaming.message_based_client",
    "autobahn.autobahn.wamp.test.test_message",
    "twisted.wamp.basic.pubsub.options.backend",
    "wamp.test.test_protocol_peer",
    "echo_site_tls",
    "examples",
    "wamp.websocket",
    "wamp.auth",
    "decorators.frontend",
    "examples.twisted.wamp.basic.rpc.arguments.backend",
    "rpc.errors.frontend",
    "wamp1.pubsub.simple.example2.client",
    "asyncio.websocket.testee.testee_server",
    "autobahn.autobahn.websocket.useragent",
    "pubsub.options",
    "twisted.wamp.wamplet",
    "examples.twisted.wamp.work.pubsub.server",
    "twisted.websocket.multiproto.server2",
    "autobahn.wamp1.prefixmap",
    "apps.dbus.server",
    "wamp.basic.session.series.frontend",
    "twisted.websocket.echo_compressed.client",
    "wamp.basic.pubsub.options",
    "wamp1.rpc.symmetric",
    "example2",
    "twisted.wamp1.apps.calculator",
    "example1",
    "examples.asyncio.wamp.basic.rpc.errors.frontend",
    "rpc.options.frontend",
    "autobahn.autobahn.websocket.interfaces",
    "twisted.wamp.wamplet.wamplet1.wamplet1.calculator",
    "wamp.test.test_message",
    "broadcast.server",
    "wamp.basic.pubsub.unsubscribe.frontend",
    "examples.twisted.websocket.streaming.frame_based_server",
    "twisted.wamp1.authentication",
    "twisted.wamp1.rpc.symmetric.client",
    "rpc.progress",
    "wamp.interfaces",
    "examples.twisted.wamp1.apps.keyvalue.client",
    "wamp.test",
    "autobahn.wamp.websocket",
    "pubsub.simple.example1.client",
    "autobahn.asyncio.websocket",
    "autobahn.autobahn.twisted.choosereactor",
    "examples.twisted.wamp1.apps.serial2ws.serial2ws",
    "examples.twisted.websocket.slowsquare",
    "examples.twisted.websocket.broadcast.client",
    "twisted.websocket.echo.client_coroutines",
    "twisted.wamp1.pubsub",
    "twisted.wamp.basic.session.series",
    "examples.twisted.wamp.work",
    "pubsub.options.backend",
    "basic.pubsub.unsubscribe",
    "twisted.wamp1.rpc.simple.example1.server",
    "examples.twisted.wamp1.apps.dirwatch",
    "examples.twisted.websocket.echo_multicore.server",
    "test.test_component",
    "twisted.websocket.multiproto.client",
    "autobahn.twisted.util",
    "examples.twisted.wamp.work.test",
    "twisted.websocket.echo_site.server",
    "server1",
    "examples.twisted.websocket.multiproto",
    "autobahn.wamp.role",
    "examples.twisted.websocket.echo_endpoints.server",
    "twisted.wamp1.apps.dirwatch.dirwatch",
    "websocket.echo_variants.client_reconnecting",
    "examples.twisted.wamp.wamplet.wamplet1.wamplet1.calculator",
    "twisted.websocket.streaming.frame_based_client",
    "twisted.wamp1.rpc.simple.example2.client",
    "streaming.streaming_server",
    "streaming.frame_based_server",
    "streaming",
    "slowsquare",
    "asyncio.wamp.wamplet.wamplet1",
    "twisted.websocket.streaming",
    "examples.twisted.wamp.wamplet.wampirc.wampirc",
    "wamp.basic.session.fromoutside",
    "serial2ws",
    "examples.twisted.wamp.basic.rpc.decorators",
    "asyncio.wamp.basic.rpc.errors.backend",
    "asyncio.wamp.basic.pubsub.complex",
    "win32.dirwatch",
    "websocket.echo_multicore.server_reuseport",
    "autobahn.autobahn.twisted",
    "autobahn.websocket.compress_bzip2",
    "simple.example2.client",
    "websocket.echo_compressed.server_advanced",
    "websocket.echo_site",
    "twisted.wamp.work.test3",
    "twisted.wamp.work.test2",
    "example1.server",
    "basic.pubsub.decorators.frontend",
    "twisted.wamp1.apps.dbus.client",
    "dealer",
    "autobahn.autobahn.websocket.compress_snappy",
    "examples.twisted.wamp.basic.pubsub.complex.frontend",
    "websocket.streaming.streaming_server",
    "wamp1.pubsub.simple.example1.server",
    "exception",
    "client_coroutines_py2",
    "websocket.utf8validator",
    "role",
    "rpc.profile.server",
    "test",
    "streaming_producer_client",
    "echo_compressed.client_advanced",
    "apps.calculator.server",
    "test_protocol_peer",
    "wamp.broker",
    "twisted.wamp.work.test_serializer",
    "symmetric.server",
    "basic.server",
    "pubsub.custom.client",
    "basic.rpc.slowsquare.backend",
    "rpc.symmetric.server",
    "loadlatency.client",
    "twisted.wamp.basic.rpc.options.backend",
    "examples.twisted.wamp.basic.pubsub.unsubscribe",
    "wamplet1.component1",
    "pbkdf2",
    "wamp1.rpc",
    "dirwatch.dirwatch",
    "custom.client",
    "asyncio.wamp.basic.rpc.slowsquare",
    "asyncio.wamp.beginner.client",
    "wamp.basic.pubsub.complex",
    "echo_variants.client",
    "serializer",
    "examples.twisted.websocket.testee.testee_server",
    "examples.asyncio.websocket.echo",
    "twisted.wamp.wamplet.wampirc",
    "basic.backend",
    "wamp.basic.rpc.arguments",
    "examples.twisted.websocket.echo.client",
    "asyncio.websocket.echo",
    "twisted.wamp.work.test",
    "asyncio.wamp.basic.rpc.arguments.backend",
    "asyncio.wamp.basic.pubsub.basic",
    "wamp.auth.persona",
    "autobahn.websocket.test",
    "twisted.websocket.wrapping",
    "twisted.wamp1.rpc.profile.server",
    "examples.asyncio.websocket",
    "examples.twisted.wamp1.rpc.profile",
    "examples.twisted.wamp.basic.test",
    "wamp.basic.rpc.decorators",
    "autobahn.autobahn.twisted.forwarder",
    "streaming.ranstring",
    "twisted.websocket.wrapping.client_endpoint",
    "websocket.compress_deflate",
    "examples.asyncio.wamp.wamplet.wamplet1.wamplet1.calculator",
    "autobahn.twisted.plugins.autobahn_endpoints",
    "twisted.websocket.echo_service.echows.echoservice",
    "examples.asyncio.wamp.basic.rpc.options.backend",
    "websocket.test.test_websocket_url",
    "twisted.websocket.echo_httpheaders",
    "profile.client",
    "examples.twisted.wamp.basic.rpc.slowsquare.backend",
    "wamp.work.test_interfaces",
    "wamp.work.test3",
    "wamp.work.test2",
    "autobahn.wamp1.protocol",
    "basic.pubsub.basic.backend",
    "autobahn.autobahn.wamp.message",
    "twisted.wamp1.pubsub.custom.server",
    "twisted.rawsocket",
    "examples.twisted.websocket.echo_tls.server",
    "server_endpoint",
    "decorators.backend",
    "wamp.test.test_serializer",
    "twisted.websocket.multiproto.server1",
    "wamp.message",
    "echo_wsfallbacks.server",
    "rpc.errors.backend",
    "pubsub.decorators",
    "authentication.server",
    "echo_wsgi",
    "twisted.wamp1.pubsub.loadlatency",
    "autobahn.autobahn.websocket.xormasker",
    "echows.main",
    "wamp1.rpc.simple.example2.client",
    "examples.asyncio.wamp.basic.session.series.backend",
    "session.series.backend",
    "twisted.websocket.broadcast",
    "twisted.wamp.basic.pubsub.basic.frontend",
    "wamp.test.test_protocol",
    "wamp.wamplet.wamplet1",
    "apps.dirwatch",
    "twisted.websocket",
    "examples.asyncio.wamp.beginner.server",
    "examples.asyncio.wamp.basic.rpc.slowsquare.frontend",
    "examples.twisted.wamp.basic.session",
    "examples.twisted.wamp.basic.session.fromoutside",
    "examples.asyncio.wamp.wamplet.wamplet1.wamplet1",
    "twisted.wamp1.apps.serial2ws.serial2ws",
    "twisted.wamp.auth",
    "frame_based_client",
    "rpc.simple.example1.server",
    "examples.twisted.wamp.basic.pubsub.basic",
    "fromoutside",
    "asyncio.websocket.slowsquare",
    "twisted.wamp.basic.rpc.errors",
    "asyncio.wamp.basic.pubsub.decorators",
    "examples.twisted.wamp.basic.rpc.errors.frontend",
    "errors.frontend",
    "autobahn.autobahn.twisted.resource",
    "examples.twisted.wamp.wamplet.votegame.votegame.backend",
    "twisted.wamp.basic.rpc.options",
    "streaming.message_based_client",
    "autobahn.autobahn.websocket.compress_base",
    "server_py2",
    "autobahn.autobahn.wamp.exception",
    "asyncio.wamp.basic.pubsub.decorators.frontend",
    "examples.asyncio.wamp.basic.pubsub.decorators.frontend",
    "pubsub.simple.example1.server",
    "twisted.wamp.basic.rpc.timeservice.backend",
    "examples.twisted.websocket.echo",
    "asyncio.wamp.basic.pubsub.complex.frontend",
    "beginner.client",
    "twisted.wamp.basic.rpc.complex.frontend",
    "doc.conf",
    "examples.asyncio.wamp.basic.pubsub.options.frontend",
    "twisted.wamp.wamplet.wampirc.wampirc",
    "twisted.flashpolicy",
    "twisted.websocket.echo_site_tls",
    "examples.twisted.wamp.wamplet.wampirc",
    "slowsquare.server_py2",
    "examples.twisted.websocket.echo_httpheaders.client",
    "autobahn.util",
    "autobahn.asyncio",
    "twisted.wamp.basic.pubsub.options",
    "rpc.arguments.frontend",
    "examples.twisted.wamp1.rpc.simple.example1.server",
    "echo_wsfallbacks",
    "websocket.echo_wsfallbacks.server",
    "test_websocket_url",
    "asyncio.wamp.basic.rpc.decorators.frontend",
    "examples.twisted.wamp.basic.rpc.timeservice.frontend",
    "rpc.slowsquare",
    "examples.twisted.wamp.basic.rpc.decorators.backend",
    "wamp1.rpc.simple.example2",
    "wamp1.rpc.simple.example1",
    "twisted.plugins",
    "examples.twisted.wamp1.pubsub.loadlatency.client",
    "twisted.wamp1.apps.keyvalue.client",
    "basic.session.fromoutside.client",
    "asyncio.websocket.testee",
    "asyncio.wamp.wamplet.wamplet1.wamplet1.calculator",
    "wamp.beginner",
    "websocket.echo_variants.server",
    "twisted.choosereactor",
    "autobahn.wamp.test.test_uri_pattern",
    "test.test_protocol",
    "dirwatch",
    "examples.twisted.wamp.basic.rpc.arguments",
    "examples.twisted.websocket.echo.server",
    "websocket.slowsquare.server_py2",
    "websocket.echo_tls.server",
    "twisted.websocket.echo_compressed.server_advanced",
    "twisted.wamp.basic.rpc.errors.frontend",
    "asyncio.wamp.basic.rpc.timeservice",
    "autobahn.autobahn.wamp.dealer",
    "twisted.wamp.beginner.client",
    "autobahn.websocket.http",
    "choosereactor",
    "ping",
    "websocket.broadcast",
    "examples.twisted.wamp1.apps.calculator.server",
    "test_uri_pattern",
    "compress_snappy",
    "profile",
    "wamp1.apps.serial2ws.serial2ws",
    "work.pubsub.server",
    "wamp.basic.session",
    "examples.twisted.wamp.auth.persona",
    "twisted.websocket.echo_service.twisted.plugins.echows_plugin",
    "autobahn.wamp.dealer",
    "asyncio.wamp.basic.pubsub.options",
    "examples.twisted.wamp.basic.pubsub.basic.frontend",
    "basic.session.fromoutside",
    "websocket.multiproto.server2",
    "test_component",
    "asyncio.wamp.basic.client",
    "progress.backend",
    "autobahn.autobahn.wamp.protocol",
    "echo_compressed.server",
    "examples.twisted.wamp.basic.rpc.options",
    "basic.session.series.backend",
    "twisted.wamp1.rpc.simple.example2",
    "twisted.wamp1.rpc.simple.example1",
    "echo_variants",
    "echo_tls.client",
    "arguments.frontend",
    "echo_variants.client_with_params",
    "pubsub.complex.frontend",
    "wamp1",
    "twisted.websocket.streaming.message_based_client",
    "twisted.wamp1.rpc.simple",
    "basic.session.series.frontend",
    "autobahn.autobahn.wamp.role",
    "websocket.xormasker",
    "examples.asyncio.wamp.basic.rpc.decorators",
    "rpc.slowsquare.frontend",
    "websocket.slowsquare.server",
    "twisted.websocket.echo_endpoints.server",
    "work.test_interfaces",
    "pubsub.unsubscribe.backend",
    "basic.client",
    "asyncio.websocket.echo.server",
    "examples.twisted.websocket.echo_compressed",
    "examples.twisted.websocket.echo_variants.client",
    "asyncio.wamp.basic.rpc.timeservice.frontend",
    "main",
    "streaming.streaming_client",
    "twisted.websocket.echo.server",
    "websocket.echo_site.server",
    "session.fromoutside",
    "twisted.wamp1.pubsub.simple.example2.server",
    "wamp1.protocol",
    "examples.twisted.wamp.wamplet.votegame",
    "wampirc.wampirc",
    "auth",
    "simple.example2",
    "wamp.basic.rpc.complex.backend",
    "work.longpoll.server",
    "echo_service.echows.main",
    "echo_tls",
    "dbus",
    "twisted.wamp.wamplet.wamplet1",
    "win32",
    "examples.twisted.wamp.basic.rpc.options.backend",
    "examples.twisted.wamp.basic.rpc.errors.backend",
    "examples.twisted.websocket.streaming.streaming_server",
    "examples.twisted.websocket.echo_variants.client_with_params",
    "examples.twisted.wamp.auth.persona.server",
    "beginner",
    "twisted.websocket.echo_service.echows",
    "basic.rpc.decorators.backend",
    "rpc.arguments",
    "examples.twisted.wamp.basic.pubsub.options",
    "twisted.wamp.basic.rpc.slowsquare.frontend",
    "wamp.basic.pubsub.decorators.frontend",
    "wamp.basic.pubsub",
    "wamp1.rpc.simple.example1.server",
    "wamp.wamplet.wamplet1.wamplet1.component1",
    "examples.twisted.wamp.wamplet",
    "streaming_client",
    "asyncio.wamp.basic.rpc.timeservice.backend",
    "twisted.forwarder",
    "decorators",
    "twisted.websocket.streaming.message_based_server",
    "examples.twisted.wamp1.apps.dirwatch.server",
    "wamp1.pubsub.custom.client",
    "examples.twisted.wamp1.apps.dirwatch.win32",
    "twisted.wamp.basic.rpc.arguments.backend",
    "websocket.echo_variants.client",
    "asyncio.websocket.echo.client",
    "twisted.websocket.ping",
    "websocket.echo_variants.client_with_proxy",
    "votegame.backend",
    "twisted.wamp1.pubsub.custom",
    "basic.pubsub.decorators",
    "wamp.wamplet.wampirc",
    "slowsquare.backend",
    "autobahn.wamp.serializer",
    "echo_tls.server",
    "wamp.basic.rpc.errors.backend",
    "example2.client",
    "echo_endpoints",
    "wamp1.rpc.simple.example2.client_icb",
    "websocket.streaming.ranstring",
    "wamp.basic.rpc.options.backend",
    "asyncio.wamp.basic.pubsub.basic.backend",
    "autobahn.wamp.message",
    "pubsub.client",
    "rpc.errors",
    "echo",
    "twisted.wamp1.apps.dbus",
    "twisted.websocket.echo_tls.server",
    "twisted.websocket.echo_variants.client_reconnecting",
    "wamp1.apps.dbus.client",
    "message",
    "custom",
    "websocket.compress_snappy",
    "echo_compressed.server_advanced",
    "twisted.websocket.echo",
    "asyncio.wamp.basic.pubsub.unsubscribe.backend",
    "asyncio.wamp.basic.rpc.arguments.frontend",
    "twisted.plugins.autobahn_twistd",
    "pubsub.decorators.backend",
    "forwarder",
    "websocket.echo_service",
    "asyncio.wamp.basic.rpc.progress",
    "examples.twisted.wamp.basic.pubsub.complex.backend",
    "pubsub.options.frontend",
    "rpc.simple.example2.client_icb",
    "rpc.arguments.backend",
    "rpc.progress.frontend",
    "twisted.wamp.basic",
    "echows_plugin",
    "wamp1.apps.keyvalue.server",
    "basic.pubsub.options.frontend",
    "examples.twisted.wamp1.pubsub.custom",
    "autobahn.wamp.protocol",
    "autobahn.autobahn.wamp.broker",
    "compress_bzip2",
    "examples.twisted.wamp.basic.session.series.backend",
    "wamp1.pubsub.loadlatency.client",
    "examples.asyncio.wamp.basic.rpc.progress",
    "test.test_protocol_peer",
    "basic.rpc.arguments",
    "asyncio.websocket.echo.client_coroutines",
    "examples.asyncio.wamp.basic.rpc.timeservice.backend",
    "basic.rpc",
    "autobahn.websocket",
    "wamp.basic.pubsub.basic.frontend",
    "examples.twisted.wamp.wamplet.wamplet1",
    "examples.twisted.wamp.basic.rpc.timeservice",
    "websocket.multiproto.server1",
    "examples.twisted.websocket.wrapping.server",
    "websocket.echo.client_coroutines",
    "twisted.wamp.wamplet.votegame.votegame",
    "simple.example1.server",
    "twisted.wamp.basic.session.fromoutside.client",
    "twisted.wamp.basic.pubsub.unsubscribe.backend",
    "autobahn.autobahn.wamp.test.test_component",
    "session.fromoutside.client",
    "twisted.websocket.echo_multicore",
    "websocket.wrapping",
    "echo_site_tls.server",
    "wamp1.apps.dirwatch.win32.dirwatch",
    "websocket.echo_variants.client_with_params",
    "twisted.wamp1.pubsub.custom.client",
    "asyncio.wamp.basic.rpc.slowsquare.frontend",
    "basic.rpc.timeservice.frontend",
    "examples.twisted.wamp.basic.rpc.complex.backend",
    "wamp.basic.rpc.slowsquare.backend",
    "examples.asyncio.wamp.basic.rpc.complex.frontend",
    "websocket.echo_endpoints.client",
    "slowsquare.server",
    "websocket.broadcast.client",
    "autobahn.twisted.plugins.autobahn_twistd",
    "apps.calculator",
    "compress",
    "websocket.echo.client_coroutines_py2",
    "examples.twisted.wamp.beginner.server",
    "server2",
    "simple.example2.server",
    "websocket.wrapping.server",
    "twisted.wamp.basic.session.fromoutside",
    "apps.keyvalue",
    "autobahn.websocket.compress_snappy",
    "echo.client_coroutines_py2",
    "wamplet.wamplet1.wamplet1",
    "rpc.options",
    "rpc.decorators.backend",
    "uri",
    "examples.twisted.wamp",
    "examples.twisted.wamp.basic.pubsub.unsubscribe.frontend",
    "autobahn.autobahn.util",
    "rawsocket",
    "examples.twisted.websocket.multiproto.server2",
    "examples.twisted.websocket.multiproto.server1",
    "twisted.wamp.basic.pubsub.decorators.frontend",
    "examples.twisted.wamp1.apps.keyvalue.server",
    "websocket.wrapping.client",
    "asyncio.wamp",
    "asyncio.wamp.basic.pubsub.options.frontend",
    "twisted.wamp.wamplet.wamplet1.wamplet1",
    "work.test",
    "examples.asyncio.wamp.basic.pubsub.decorators.backend",
    "examples.asyncio.websocket.echo.server",
    "twisted.wamp.basic.pubsub.basic.backend",
    "examples.twisted.websocket.echo_compressed.client_advanced",
    "examples.twisted.wamp1.apps.calculator",
    "examples.asyncio.wamp.basic.rpc.options.frontend",
    "examples.twisted.websocket.auth_persona",
    "twisted.websocket.echo_site_tls.server",
    "testee_server",
    "twisted.wamp.basic.pubsub.options.frontend",
    "examples.twisted.wamp1.pubsub.simple",
    "session.series.frontend",
    "rpc.complex.frontend",
    "echo_multicore.server_reuseport",
    "test.test_serializer",
    "asyncio.wamp.beginner",
    "twisted.websocket.echo_multicore.server",
    "autobahn.wamp.uri",
    "websocket.echo_httpheaders.server",
    "websocket.wrapping.client_endpoint",
    "examples.twisted.websocket.ping.server",
    "wampirc",
    "twisted.wamp.basic.pubsub.complex.backend",
    "resource",
    "echo_multicore.server",
    "websocket.ping",
    "websocket.multiproto",
    "wamplet1.wamplet1.component1",
    "wamp.test.test_uri_pattern",
    "ping.client",
    "wamp1.apps.dbus.server",
    "utf8validator",
    "wamp1.apps.keyvalue",
    "twisted.wamp.beginner",
    "twisted.wamp.work.pubsub.server",
    "autobahn.websocket.test.test_websocket_url",
    "twisted.wamp1.apps.dirwatch.server",
    "progress",
    "twisted.websocket.echo_tls.client",
    "websocket.echo_site_tls",
    "examples.twisted.wamp.work.pubsub.client",
    "autobahn.twisted.wamp",
    "rpc.profile.client",
    "autobahn.wamp.test.test_serializer",
    "examples.twisted.websocket.echo_wsfallbacks.server",
    "wamp.basic.rpc.timeservice.frontend",
    "test.test_message",
    "unsubscribe",
    "wamplet.votegame.votegame.backend",
    "twisted.wamp.auth.persona.server",
    "streaming.message_based_server",
    "wamp1.pubsub.loadlatency.server",
    "examples.twisted.wamp1.rpc.symmetric.server",
    "autobahn.autobahn.twisted.websocket",
    "websocket.compress_base",
    "asyncio.websocket.slowsquare.client",
    "echo_service.echows.echoservice",
    "wamp.basic.rpc.progress.backend",
    "examples.twisted.websocket.wrapping",
    "autobahn.wamp",
    "websocket.streaming.streaming_client",
    "basic.frontend",
    "wamp1.pubsub.simple.example2.server",
    "custom.server",
    "twisted.websocket.echo_variants.client_with_params",
    "websocket.streaming.frame_based_client",
    "autobahn.twisted.plugins",
    "votegame.votegame",
    "twisted.websocket.wrapping.client",
    "autobahn.autobahn.wamp.interfaces",
    "autobahn.autobahn.wamp.test.test_protocol_peer",
    "autobahn.websocket.compress_deflate",
    "twisted.wamp.basic.rpc.slowsquare",
    "asyncio.wamp.basic.session",
    "keyvalue.client",
    "rpc",
    "basic.rpc.errors.frontend",
    "test.test_uri_pattern",
    "autobahn.autobahn.websocket.http",
    "websocket.echo_service.twisted.plugins",
    "examples.twisted.wamp.basic.pubsub.basic.backend",
    "twisted.wamp.wamplet.wampirc.wampirc.service",
    "examples.twisted.wamp1.pubsub.custom.client",
    "twisted.websocket.testee",
    "examples.twisted.wamp.basic.pubsub.decorators",
    "wamp1.pbkdf2",
    "wamp.basic.pubsub.basic",
    "wamp1.apps.dirwatch.server",
    "apps.serial2ws.serial2ws",
    "wamp.basic.session.series.backend",
    "examples.twisted.websocket.echo_httpheaders",
    "twisted.websocket.broadcast.server",
    "examples.twisted.wamp1.apps.dbus",
    "wamplet.votegame",
    "websocket.broadcast.server",
    "twisted.websocket.streaming.streaming_server",
    "examples.twisted.websocket.echo_endpoints.client",
    "wamp.basic.session.fromoutside.client",
    "wamp1.pubsub.simple.example2",
    "wamp1.pubsub.simple.example1",
    "timeservice.backend",
    "examples.twisted.websocket.echo_multicore",
    "websocket.echo_variants",
    "twisted.wamp.basic.rpc.options.frontend",
    "websocket.wrapping.server_endpoint",
    "test_interfaces",
    "twisted.wamp.basic.rpc.complex.backend",
    "twisted.wamp1.apps.dbus.server",
    "examples.asyncio.wamp.basic.pubsub.unsubscribe",
    "twisted.wamp1",
    "websocket.echo_service.echows.main",
    "twisted.websocket.streaming.streaming_producer_client",
    "websocket.echo_tls",
    "twisted.websocket.echo_httpheaders.server",
    "examples.asyncio",
    "rpc.timeservice.backend",
    "examples.twisted.wamp1.pubsub.simple.example2.client",
    "wamp.serializer",
    "twisted.websocket.echo_multicore.server_reuseport",
    "twisted.wamp.basic.rpc.decorators.frontend",
    "twisted.wamp.basic.pubsub.basic",
    "examples.asyncio.wamp.basic",
    "basic.pubsub.options",
    "twisted.websocket.echo_service.twisted",
    "compress_deflate",
    "wamp1.pubsub.custom.server",
    "rpc.timeservice.frontend",
    "longpoll",
    "twisted.wamp1.authentication.client",
    "websocket.echo_compressed.client",
    "websocket.echo_httpheaders",
    "apps.dirwatch.win32",
    "client_reconnecting",
    "examples.twisted.wamp1.rpc.symmetric.client",
    "examples.asyncio.wamp.basic.pubsub.basic.backend",
    "examples.twisted.websocket.echo_service.echows",
    "twisted.websocket.streaming.frame_based_server",
    "examples.asyncio.wamp.basic.session",
    "authentication",
    "component1",
    "apps.dbus",
    "twisted.wamp1.apps",
    "twisted.websocket.slowsquare.client",
    "complex.backend",
    "persona",
    "http",
    "examples.asyncio.wamp.basic.rpc.complex.backend",
    "websocket.multiproto.client",
    "examples.twisted.wamp.work.pubsub",
    "examples.asyncio.wamp.wamplet.wamplet1.wamplet1.component1",
    "wamplet.wampirc.wampirc.client",
    "asyncio.wamp.wamplet",
    "basic.rpc.arguments.backend",
    "examples.asyncio.websocket.slowsquare.server_py2",
    "examples.twisted.websocket.testee",
    "wamp.work",
    "test_serializer",
    "examples.twisted.websocket.slowsquare.client",
    "autobahn.wamp.http",
    "pubsub.basic.backend",
    "autobahn.autobahn.twisted.rawsocket",
    "test3",
    "test2",
    "examples.asyncio.wamp.basic.pubsub.complex.frontend",
    "echo_service.twisted",
    "twisted.wamp1.pubsub.loadlatency.client",
    "server_advanced",
    "websocket.useragent",
    "multiproto.client",
    "websocket.auth_persona",
    "persona.server",
    "examples.twisted.wamp.basic.session.fromoutside.client",
    "wamp.basic.rpc.arguments.frontend",
    "rpc.complex.backend",
    "echo_compressed",
    "progress.frontend",
    "options.frontend",
    "wamplet.wampirc",
    "basic.rpc.options.frontend",
    "examples.twisted.websocket.streaming",
    "asyncio.wamp.basic.rpc.options",
    "basic.rpc.timeservice.backend",
    "wamp1.pubsub.simple.example1.client",
    "echows",
    "autobahn.websocket.protocol",
    "pubsub",
    "wampirc.client",
    "examples.twisted.websocket.echo_site_tls.server",
    "wrapping.server_endpoint",
    "twisted.wamp.basic.pubsub.complex.frontend",
    "wamp1.pubsub.simple",
    "arguments.backend",
    "websocket.ping.client",
    "autobahn_twistd",
    "rpc.simple",
    "examples.twisted.websocket.ping",
    "twisted.websocket.auth_persona",
    "server",
    "examples.twisted.wamp.work.test_serializer",
    "twisted.websocket.wrapping.server",
    "autobahn.autobahn.wamp.types",
    "wamp.basic.rpc.errors",
    "wamp1.rpc.profile.server",
    "loadlatency",
    "examples.twisted.wamp1.pubsub.loadlatency.server",
    "basic.rpc.errors.backend",
    "server_reuseport",
    "apps.keyvalue.client",
    "examples.twisted.wamp1.rpc.simple.example2",
    "wamp.basic.rpc.slowsquare",
    "wamp.dealer",
    "wamp.protocol",
    "echoservice",
    "autobahn.autobahn.wamp.http",
    "basic.pubsub",
    "wamp.basic.rpc.progress",
    "twisted.websocket.echo_compressed.client_advanced",
    "examples.twisted.wamp.basic.server",
    "twisted.wamp.wamplet.votegame.votegame.backend",
    "twisted.resource",
    "examples.asyncio.wamp.basic.pubsub",
    "autobahn.twisted.resource",
    "twisted.wamp1.rpc.profile.client",
    "wamplet.wampirc.wampirc.service",
    "echo_service",
    "auth.persona",
    "wamp.basic.rpc.timeservice.backend",
    "pubsub.custom.server",
    "calculator.server",
    "twisted.wamp1.rpc.profile",
    "examples.twisted.wamp.basic.pubsub.complex",
    "test_protocol",
    "examples.twisted.wamp.beginner.client",
    "broker",
    "twisted.wamp1.pubsub.loadlatency.server",
    "autobahn.autobahn.websocket.protocol",
    "autobahn.twisted.rawsocket",
    "work.pubsub.client",
    "twisted.wamp.basic.test",
    "examples.twisted.wamp1.rpc.profile.server",
    "twisted.wamp.basic.rpc.timeservice.frontend",
    "wamp1.apps.calculator",
    "autobahn.autobahn.asyncio",
    "examples.asyncio.websocket.echo.client",
    "twisted.websocket.echo_variants",
    "longpoll.server",
    "echo_variants.client_reconnecting",
    "pubsub.decorators.frontend",
    "basic.rpc.timeservice",
    "twisted.websocket.echo_service.echows.main",
    "websocket.echo_httpheaders.client",
    "examples.twisted.websocket.echo_compressed.client",
    "examples.twisted.websocket.echo_compressed.server_advanced",
    "examples.twisted.websocket.echo_tls",
    "wrapping.server",
    "autobahn.twisted.choosereactor",
    "wamp1.rpc.profile",
    "ping.server",
    "echo_service.echows",
    "pubsub.simple.example2.client",
    "examples.twisted.websocket.auth_persona.server",
    "examples.twisted.websocket.echo_variants.server",
    "apps",
    "wamp.work.pubsub",
    "twisted.wamp1.pubsub.simple",
    "autobahn.twisted.websocket",
    "examples.twisted.wamp.basic.pubsub.options.frontend",
    "wamp1.prefixmap",
    "examples.asyncio.wamp.basic.pubsub.basic.frontend",
    "examples.asyncio.wamp.beginner.client",
    "rpc.symmetric",
    "examples.asyncio.wamp.basic.rpc.slowsquare",
    "testee.testee_server",
    "basic.pubsub.unsubscribe.backend",
    "basic",
    "autobahn.autobahn.wamp.test",
    "examples.twisted.wamp1.rpc.profile.client",
    "errors.backend",
    "examples.asyncio.websocket.slowsquare",
    "basic.test",
    "examples.twisted.websocket.echo_variants",
    "examples.twisted.websocket.echo_service.echows.echoservice",
    "examples.twisted.wamp1.pubsub",
    "basic.rpc.options.backend",
    "autobahn.autobahn.websocket.compress",
    "pubsub.complex",
    "examples.twisted.wamp1.rpc",
    "examples.twisted.wamp.basic.pubsub",
    "autobahn.wamp.test.test_component",
    "auth_persona.server",
    "wrapping.client_endpoint",
    "examples.twisted.websocket.ping.client",
    "examples.twisted.websocket.echo_site_tls",
    "websocket.echo_service.echows",
    "examples.twisted.websocket.echo_service.echows.main",
    "echows.echoservice",
    "echo_endpoints.server",
    "twisted.wamp.basic.rpc.timeservice",
    "twisted.wamp1.pubsub.simple.example2",
    "twisted.wamp1.pubsub.simple.example1",
    "examples.asyncio.websocket.testee.testee_server",
    "examples.asyncio.wamp.basic.rpc.errors",
    "examples.asyncio.wamp.basic.rpc.timeservice",
    "echo_httpheaders.client",
    "pubsub.loadlatency",
    "wamplet1.wamplet1",
    "asyncio",
    "client_with_proxy",
    "pubsub.simple",
    "basic.pubsub.complex.backend",
    "websocket.echo_compressed.client_advanced",
    "examples.twisted.wamp.basic.rpc.slowsquare.frontend",
    "websocket.ping.server",
    "twisted.websocket.echo_compressed.server",
    "examples.asyncio.websocket.testee",
    "wampirc.service",
    "multiproto",
    "rpc.profile",
    "wamp.basic.pubsub.complex.frontend",
    "twisted.websocket.wrapping.server_endpoint",
    "wamp",
    "asyncio.wamp.basic.server",
    "examples.asyncio.wamp.basic.pubsub.unsubscribe.frontend",
    "asyncio.wamp.basic.session.series.frontend",
    "examples.asyncio.wamp.basic.client",
    "websocket.streaming.message_based_server",
    "work.test3",
    "pubsub.simple.example2.server",
    "autobahn.wamp.test.test_message",
    "examples.twisted.websocket.echo_service.twisted.plugins",
    "unsubscribe.frontend",
    "wamp.wamplet.votegame.votegame",
    "websocket.testee",
    "twisted.websocket.echo.client",
    "twisted.wamp1.apps.keyvalue"
]