{
    "archive_url": "https://api.github.com/repos/pypa/virtualenv/{archive_format}{/ref}",
    "assignees_url": "https://api.github.com/repos/pypa/virtualenv/assignees{/user}",
    "blobs_url": "https://api.github.com/repos/pypa/virtualenv/git/blobs{/sha}",
    "branches_url": "https://api.github.com/repos/pypa/virtualenv/branches{/branch}",
    "clone_url": "https://github.com/pypa/virtualenv.git",
    "collaborators_url": "https://api.github.com/repos/pypa/virtualenv/collaborators{/collaborator}",
    "comments_url": "https://api.github.com/repos/pypa/virtualenv/comments{/number}",
    "commits_url": "https://api.github.com/repos/pypa/virtualenv/commits{/sha}",
    "compare_url": "https://api.github.com/repos/pypa/virtualenv/compare/{base}...{head}",
    "contents_url": "https://api.github.com/repos/pypa/virtualenv/contents/{+path}",
    "contributors_url": "https://api.github.com/repos/pypa/virtualenv/contributors",
    "created_at": "2011-03-06T14:33:27Z",
    "default_branch": "develop",
    "description": "Virtual Python Environment builder",
    "downloads_url": "https://api.github.com/repos/pypa/virtualenv/downloads",
    "events_url": "https://api.github.com/repos/pypa/virtualenv/events",
    "fork": false,
    "forks": 253,
    "forks_count": 253,
    "forks_url": "https://api.github.com/repos/pypa/virtualenv/forks",
    "full_name": "pypa/virtualenv",
    "git_commits_url": "https://api.github.com/repos/pypa/virtualenv/git/commits{/sha}",
    "git_refs_url": "https://api.github.com/repos/pypa/virtualenv/git/refs{/sha}",
    "git_tags_url": "https://api.github.com/repos/pypa/virtualenv/git/tags{/sha}",
    "git_url": "git://github.com/pypa/virtualenv.git",
    "has_downloads": true,
    "has_issues": true,
    "has_wiki": false,
    "homepage": "www.virtualenv.org",
    "hooks_url": "https://api.github.com/repos/pypa/virtualenv/hooks",
    "html_url": "https://github.com/pypa/virtualenv",
    "id": 1446474,
    "issue_comment_url": "https://api.github.com/repos/pypa/virtualenv/issues/comments/{number}",
    "issue_events_url": "https://api.github.com/repos/pypa/virtualenv/issues/events{/number}",
    "issues_url": "https://api.github.com/repos/pypa/virtualenv/issues{/number}",
    "keys_url": "https://api.github.com/repos/pypa/virtualenv/keys{/key_id}",
    "labels_url": "https://api.github.com/repos/pypa/virtualenv/labels{/name}",
    "language": "Python",
    "languages_url": "https://api.github.com/repos/pypa/virtualenv/languages",
    "merges_url": "https://api.github.com/repos/pypa/virtualenv/merges",
    "milestones_url": "https://api.github.com/repos/pypa/virtualenv/milestones{/number}",
    "mirror_url": null,
    "name": "virtualenv",
    "notifications_url": "https://api.github.com/repos/pypa/virtualenv/notifications{?since,all,participating}",
    "open_issues": 203,
    "open_issues_count": 203,
    "owner": {
        "avatar_url": "https://avatars.githubusercontent.com/u/647025?",
        "events_url": "https://api.github.com/users/pypa/events{/privacy}",
        "followers_url": "https://api.github.com/users/pypa/followers",
        "following_url": "https://api.github.com/users/pypa/following{/other_user}",
        "gists_url": "https://api.github.com/users/pypa/gists{/gist_id}",
        "gravatar_id": "097e00640790ef99fa4df9e0c29cc6d8",
        "html_url": "https://github.com/pypa",
        "id": 647025,
        "login": "pypa",
        "organizations_url": "https://api.github.com/users/pypa/orgs",
        "received_events_url": "https://api.github.com/users/pypa/received_events",
        "repos_url": "https://api.github.com/users/pypa/repos",
        "site_admin": false,
        "starred_url": "https://api.github.com/users/pypa/starred{/owner}{/repo}",
        "subscriptions_url": "https://api.github.com/users/pypa/subscriptions",
        "type": "Organization",
        "url": "https://api.github.com/users/pypa"
    },
    "private": false,
    "pulls_url": "https://api.github.com/repos/pypa/virtualenv/pulls{/number}",
    "pushed_at": "2014-05-03T06:50:15Z",
    "releases_url": "https://api.github.com/repos/pypa/virtualenv/releases{/id}",
    "score": 1.0,
    "size": 41744,
    "ssh_url": "git@github.com:pypa/virtualenv.git",
    "stargazers_count": 920,
    "stargazers_url": "https://api.github.com/repos/pypa/virtualenv/stargazers",
    "statuses_url": "https://api.github.com/repos/pypa/virtualenv/statuses/{sha}",
    "subscribers_url": "https://api.github.com/repos/pypa/virtualenv/subscribers",
    "subscription_url": "https://api.github.com/repos/pypa/virtualenv/subscription",
    "svn_url": "https://github.com/pypa/virtualenv",
    "tags_url": "https://api.github.com/repos/pypa/virtualenv/tags",
    "teams_url": "https://api.github.com/repos/pypa/virtualenv/teams",
    "trees_url": "https://api.github.com/repos/pypa/virtualenv/git/trees{/sha}",
    "updated_at": "2014-05-06T17:30:49Z",
    "url": "https://api.github.com/repos/pypa/virtualenv",
    "watchers": 920,
    "watchers_count": 920
}