{
    "libs": [
        "with_statement",
        "b",
        "uuid",
        "h",
        "unittest",
        "oss_api",
        "sqlalchemy",
        "datetime",
        "re",
        "api",
        "wtforms",
        "validators",
        "markdown2",
        "config",
        "fl",
        "_b",
        "alembic",
        "functools"
    ]
}