[
    "xichuangzhu.models.author",
    "test_user",
    "test.test_user",
    "xichuangzhu.mails",
    "manage",
    "dynasty",
    "xichuangzhu.models._base",
    "models.dynasty",
    "test_dynasty",
    "filters",
    "test.test_topic",
    "models.author",
    "xichuangzhu.controllers.dynasty",
    "xichuangzhu.controllers.work",
    "test_sign",
    "xichuangzhu.utils",
    "xichuangzhu.config_sample",
    "forms",
    "test.base",
    "fabfile",
    "models.user",
    "xichuangzhu.forms.work",
    "xichuangzhu.controllers.site",
    "controllers.admin",
    "test.test_dynasty",
    "test.test_sign",
    "xichuangzhu.controllers.admin",
    "test.test_site",
    "xichuangzhu.controllers.author",
    "_base",
    "xichuangzhu.filters",
    "test.test_author",
    "xichuangzhu.models.user",
    "permissions",
    "xichuangzhu.controllers",
    "account",
    "xichuangzhu.models.topic",
    "roles",
    "work",
    "controllers.dynasty",
    "controllers",
    "collect",
    "uploadsets",
    "controllers.author",
    "controllers.account",
    "xichuangzhu.forms",
    "mails",
    "utils",
    "site",
    "test_work_image",
    "topic",
    "controllers.topic",
    "models.work",
    "test_work",
    "forms.forum",
    "controllers.site",
    "models._base",
    "test_author",
    "author",
    "migrations",
    "config_sample",
    "xichuangzhu.controllers.user",
    "test_topic",
    "xichuangzhu.models.collect",
    "env",
    "test_site",
    "test",
    "xichuangzhu",
    "xichuangzhu.permissions",
    "xichuangzhu.models",
    "controllers.user",
    "test.test_work_image",
    "xichuangzhu.forms.admin",
    "test_work_review",
    "models",
    "test.test_work",
    "xichuangzhu.roles",
    "xichuangzhu.forms.forum",
    "forms.work",
    "base",
    "test.test_work_review",
    "user",
    "xichuangzhu.models.dynasty",
    "xichuangzhu.forms.account",
    "forum",
    "admin",
    "xichuangzhu.controllers.topic",
    "forms.admin",
    "migrations.env",
    "xichuangzhu.models.work",
    "xichuangzhu.uploadsets",
    "controllers.work",
    "models.collect",
    "xichuangzhu.controllers.account",
    "models.topic",
    "forms.account"
]