{
    "archive_url": "https://api.github.com/repos/jaredly/django-appsettings/{archive_format}{/ref}",
    "assignees_url": "https://api.github.com/repos/jaredly/django-appsettings/assignees{/user}",
    "blobs_url": "https://api.github.com/repos/jaredly/django-appsettings/git/blobs{/sha}",
    "branches_url": "https://api.github.com/repos/jaredly/django-appsettings/branches{/branch}",
    "clone_url": "https://github.com/jaredly/django-appsettings.git",
    "collaborators_url": "https://api.github.com/repos/jaredly/django-appsettings/collaborators{/collaborator}",
    "comments_url": "https://api.github.com/repos/jaredly/django-appsettings/comments{/number}",
    "commits_url": "https://api.github.com/repos/jaredly/django-appsettings/commits{/sha}",
    "compare_url": "https://api.github.com/repos/jaredly/django-appsettings/compare/{base}...{head}",
    "contents_url": "https://api.github.com/repos/jaredly/django-appsettings/contents/{+path}",
    "contributors_url": "https://api.github.com/repos/jaredly/django-appsettings/contributors",
    "created_at": "2010-02-28T08:42:56Z",
    "default_branch": "master",
    "description": "A unified settings system for reusable django apps",
    "downloads_url": "https://api.github.com/repos/jaredly/django-appsettings/downloads",
    "events_url": "https://api.github.com/repos/jaredly/django-appsettings/events",
    "fork": false,
    "forks": 12,
    "forks_count": 12,
    "forks_url": "https://api.github.com/repos/jaredly/django-appsettings/forks",
    "full_name": "jaredly/django-appsettings",
    "git_commits_url": "https://api.github.com/repos/jaredly/django-appsettings/git/commits{/sha}",
    "git_refs_url": "https://api.github.com/repos/jaredly/django-appsettings/git/refs{/sha}",
    "git_tags_url": "https://api.github.com/repos/jaredly/django-appsettings/git/tags{/sha}",
    "git_url": "git://github.com/jaredly/django-appsettings.git",
    "has_downloads": true,
    "has_issues": true,
    "has_wiki": true,
    "homepage": "http://jaredforsyth.com/projects/app-settings",
    "hooks_url": "https://api.github.com/repos/jaredly/django-appsettings/hooks",
    "html_url": "https://github.com/jaredly/django-appsettings",
    "id": 539558,
    "issue_comment_url": "https://api.github.com/repos/jaredly/django-appsettings/issues/comments/{number}",
    "issue_events_url": "https://api.github.com/repos/jaredly/django-appsettings/issues/events{/number}",
    "issues_url": "https://api.github.com/repos/jaredly/django-appsettings/issues{/number}",
    "keys_url": "https://api.github.com/repos/jaredly/django-appsettings/keys{/key_id}",
    "labels_url": "https://api.github.com/repos/jaredly/django-appsettings/labels{/name}",
    "language": "Python",
    "languages_url": "https://api.github.com/repos/jaredly/django-appsettings/languages",
    "merges_url": "https://api.github.com/repos/jaredly/django-appsettings/merges",
    "milestones_url": "https://api.github.com/repos/jaredly/django-appsettings/milestones{/number}",
    "mirror_url": null,
    "name": "django-appsettings",
    "notifications_url": "https://api.github.com/repos/jaredly/django-appsettings/notifications{?since,all,participating}",
    "open_issues": 7,
    "open_issues_count": 7,
    "owner": {
        "avatar_url": "https://avatars.githubusercontent.com/u/112170?",
        "events_url": "https://api.github.com/users/jaredly/events{/privacy}",
        "followers_url": "https://api.github.com/users/jaredly/followers",
        "following_url": "https://api.github.com/users/jaredly/following{/other_user}",
        "gists_url": "https://api.github.com/users/jaredly/gists{/gist_id}",
        "gravatar_id": "313878fc8f316fc3fe4443b13913d0a4",
        "html_url": "https://github.com/jaredly",
        "id": 112170,
        "login": "jaredly",
        "organizations_url": "https://api.github.com/users/jaredly/orgs",
        "received_events_url": "https://api.github.com/users/jaredly/received_events",
        "repos_url": "https://api.github.com/users/jaredly/repos",
        "site_admin": false,
        "starred_url": "https://api.github.com/users/jaredly/starred{/owner}{/repo}",
        "subscriptions_url": "https://api.github.com/users/jaredly/subscriptions",
        "type": "User",
        "url": "https://api.github.com/users/jaredly"
    },
    "private": false,
    "pulls_url": "https://api.github.com/repos/jaredly/django-appsettings/pulls{/number}",
    "pushed_at": "2013-07-21T05:22:02Z",
    "releases_url": "https://api.github.com/repos/jaredly/django-appsettings/releases{/id}",
    "score": 1.0,
    "size": 82,
    "ssh_url": "git@github.com:jaredly/django-appsettings.git",
    "stargazers_count": 82,
    "stargazers_url": "https://api.github.com/repos/jaredly/django-appsettings/stargazers",
    "statuses_url": "https://api.github.com/repos/jaredly/django-appsettings/statuses/{sha}",
    "subscribers_url": "https://api.github.com/repos/jaredly/django-appsettings/subscribers",
    "subscription_url": "https://api.github.com/repos/jaredly/django-appsettings/subscription",
    "svn_url": "https://github.com/jaredly/django-appsettings",
    "tags_url": "https://api.github.com/repos/jaredly/django-appsettings/tags",
    "teams_url": "https://api.github.com/repos/jaredly/django-appsettings/teams",
    "trees_url": "https://api.github.com/repos/jaredly/django-appsettings/git/trees{/sha}",
    "updated_at": "2013-12-31T22:09:16Z",
    "url": "https://api.github.com/repos/jaredly/django-appsettings",
    "watchers": 82,
    "watchers_count": 82
}