{
    "libs": [
        "cStringIO",
        "subprocess",
        "syslog",
        "parsers",
        "contextlib",
        "io",
        "Logger",
        "shutil",
        "array",
        "lxml",
        "cli",
        "tempfile",
        "pprint",
        "feature",
        "urllib",
        "re",
        "json",
        "collections",
        "mit",
        "string",
        "urllib2",
        "auth",
        "sys",
        "ssl",
        "saxutils",
        "interface",
        "datetime",
        "argparse",
        "httplib",
        "b",
        "socket",
        "dom",
        "pickle",
        "signal",
        "StringIO",
        "xmlreader",
        "threading",
        "shlex",
        "time",
        "os",
        "marshal"
    ]
}