{
    "libs": [
        "cgi",
        "urlparse",
        "httplib",
        "b",
        "cgitb",
        "string",
        "StringIO",
        "os",
        "urllib",
        "datetime",
        "sys",
        "handler",
        "saxutils",
        "gzip",
        "xmlreader",
        "sax"
    ]
}