{
    "archive_url": "https://api.github.com/repos/mbadran/headlights/{archive_format}{/ref}",
    "assignees_url": "https://api.github.com/repos/mbadran/headlights/assignees{/user}",
    "blobs_url": "https://api.github.com/repos/mbadran/headlights/git/blobs{/sha}",
    "branches_url": "https://api.github.com/repos/mbadran/headlights/branches{/branch}",
    "clone_url": "https://github.com/mbadran/headlights.git",
    "collaborators_url": "https://api.github.com/repos/mbadran/headlights/collaborators{/collaborator}",
    "comments_url": "https://api.github.com/repos/mbadran/headlights/comments{/number}",
    "commits_url": "https://api.github.com/repos/mbadran/headlights/commits{/sha}",
    "compare_url": "https://api.github.com/repos/mbadran/headlights/compare/{base}...{head}",
    "contents_url": "https://api.github.com/repos/mbadran/headlights/contents/{+path}",
    "contributors_url": "https://api.github.com/repos/mbadran/headlights/contributors",
    "created_at": "2010-12-27T22:06:48Z",
    "default_branch": "master",
    "description": "Headlights: Know thy Bundles",
    "downloads_url": "https://api.github.com/repos/mbadran/headlights/downloads",
    "events_url": "https://api.github.com/repos/mbadran/headlights/events",
    "fork": false,
    "forks": 2,
    "forks_count": 2,
    "forks_url": "https://api.github.com/repos/mbadran/headlights/forks",
    "full_name": "mbadran/headlights",
    "git_commits_url": "https://api.github.com/repos/mbadran/headlights/git/commits{/sha}",
    "git_refs_url": "https://api.github.com/repos/mbadran/headlights/git/refs{/sha}",
    "git_tags_url": "https://api.github.com/repos/mbadran/headlights/git/tags{/sha}",
    "git_url": "git://github.com/mbadran/headlights.git",
    "has_downloads": true,
    "has_issues": true,
    "has_wiki": true,
    "homepage": "http://mbadran.github.com/headlights/",
    "hooks_url": "https://api.github.com/repos/mbadran/headlights/hooks",
    "html_url": "https://github.com/mbadran/headlights",
    "id": 1201578,
    "issue_comment_url": "https://api.github.com/repos/mbadran/headlights/issues/comments/{number}",
    "issue_events_url": "https://api.github.com/repos/mbadran/headlights/issues/events{/number}",
    "issues_url": "https://api.github.com/repos/mbadran/headlights/issues{/number}",
    "keys_url": "https://api.github.com/repos/mbadran/headlights/keys{/key_id}",
    "labels_url": "https://api.github.com/repos/mbadran/headlights/labels{/name}",
    "language": "Python",
    "languages_url": "https://api.github.com/repos/mbadran/headlights/languages",
    "merges_url": "https://api.github.com/repos/mbadran/headlights/merges",
    "milestones_url": "https://api.github.com/repos/mbadran/headlights/milestones{/number}",
    "mirror_url": null,
    "name": "headlights",
    "notifications_url": "https://api.github.com/repos/mbadran/headlights/notifications{?since,all,participating}",
    "open_issues": 2,
    "open_issues_count": 2,
    "owner": {
        "avatar_url": "https://avatars.githubusercontent.com/u/13339?",
        "events_url": "https://api.github.com/users/mbadran/events{/privacy}",
        "followers_url": "https://api.github.com/users/mbadran/followers",
        "following_url": "https://api.github.com/users/mbadran/following{/other_user}",
        "gists_url": "https://api.github.com/users/mbadran/gists{/gist_id}",
        "gravatar_id": "6272061683d97eabe9eaaac77ca303e8",
        "html_url": "https://github.com/mbadran",
        "id": 13339,
        "login": "mbadran",
        "organizations_url": "https://api.github.com/users/mbadran/orgs",
        "received_events_url": "https://api.github.com/users/mbadran/received_events",
        "repos_url": "https://api.github.com/users/mbadran/repos",
        "site_admin": false,
        "starred_url": "https://api.github.com/users/mbadran/starred{/owner}{/repo}",
        "subscriptions_url": "https://api.github.com/users/mbadran/subscriptions",
        "type": "User",
        "url": "https://api.github.com/users/mbadran"
    },
    "private": false,
    "pulls_url": "https://api.github.com/repos/mbadran/headlights/pulls{/number}",
    "pushed_at": "2012-09-15T05:25:13Z",
    "releases_url": "https://api.github.com/repos/mbadran/headlights/releases{/id}",
    "score": 1.0,
    "size": 1034,
    "ssh_url": "git@github.com:mbadran/headlights.git",
    "stargazers_count": 66,
    "stargazers_url": "https://api.github.com/repos/mbadran/headlights/stargazers",
    "statuses_url": "https://api.github.com/repos/mbadran/headlights/statuses/{sha}",
    "subscribers_url": "https://api.github.com/repos/mbadran/headlights/subscribers",
    "subscription_url": "https://api.github.com/repos/mbadran/headlights/subscription",
    "svn_url": "https://github.com/mbadran/headlights",
    "tags_url": "https://api.github.com/repos/mbadran/headlights/tags",
    "teams_url": "https://api.github.com/repos/mbadran/headlights/teams",
    "trees_url": "https://api.github.com/repos/mbadran/headlights/git/trees{/sha}",
    "updated_at": "2014-01-04T22:09:49Z",
    "url": "https://api.github.com/repos/mbadran/headlights",
    "watchers": 66,
    "watchers_count": 66
}