{
    "libs": [
        "cStringIO",
        "functools",
        "with_statement",
        "absolute_import",
        "subprocess",
        "contextlib",
        "etree",
        "tools",
        "lxml",
        "tempfile",
        "urllib",
        "re",
        "json",
        "html",
        "collections",
        "routing",
        "werkzeug",
        "test",
        "csv",
        "mimetypes",
        "blinker",
        "simplejson",
        "warnings",
        "optparse",
        "UserDict",
        "inspect",
        "urllib2",
        "textwrap",
        "util",
        "path",
        "copy",
        "cookielib",
        "ConfigParser",
        "sys",
        "b",
        "logging",
        "socket",
        "StringIO",
        "signal",
        "pkg_resources",
        "urlparse",
        "_setmixin",
        "shlex",
        "time",
        "exceptions",
        "os",
        "dummy_threading"
    ]
}