{
    "archive_url": "https://api.github.com/repos/swcarpentry/boot-camps/{archive_format}{/ref}",
    "assignees_url": "https://api.github.com/repos/swcarpentry/boot-camps/assignees{/user}",
    "blobs_url": "https://api.github.com/repos/swcarpentry/boot-camps/git/blobs{/sha}",
    "branches_url": "https://api.github.com/repos/swcarpentry/boot-camps/branches{/branch}",
    "clone_url": "https://github.com/swcarpentry/boot-camps.git",
    "collaborators_url": "https://api.github.com/repos/swcarpentry/boot-camps/collaborators{/collaborator}",
    "comments_url": "https://api.github.com/repos/swcarpentry/boot-camps/comments{/number}",
    "commits_url": "https://api.github.com/repos/swcarpentry/boot-camps/commits{/sha}",
    "compare_url": "https://api.github.com/repos/swcarpentry/boot-camps/compare/{base}...{head}",
    "contents_url": "https://api.github.com/repos/swcarpentry/boot-camps/contents/{+path}",
    "contributors_url": "https://api.github.com/repos/swcarpentry/boot-camps/contributors",
    "created_at": "2012-11-23T02:14:38Z",
    "default_branch": "master",
    "description": "Software Carpentry boot camp material",
    "downloads_url": "https://api.github.com/repos/swcarpentry/boot-camps/downloads",
    "events_url": "https://api.github.com/repos/swcarpentry/boot-camps/events",
    "fork": false,
    "forks": 250,
    "forks_count": 250,
    "forks_url": "https://api.github.com/repos/swcarpentry/boot-camps/forks",
    "full_name": "swcarpentry/boot-camps",
    "git_commits_url": "https://api.github.com/repos/swcarpentry/boot-camps/git/commits{/sha}",
    "git_refs_url": "https://api.github.com/repos/swcarpentry/boot-camps/git/refs{/sha}",
    "git_tags_url": "https://api.github.com/repos/swcarpentry/boot-camps/git/tags{/sha}",
    "git_url": "git://github.com/swcarpentry/boot-camps.git",
    "has_downloads": true,
    "has_issues": true,
    "has_wiki": true,
    "homepage": null,
    "hooks_url": "https://api.github.com/repos/swcarpentry/boot-camps/hooks",
    "html_url": "https://github.com/swcarpentry/boot-camps",
    "id": 6821320,
    "issue_comment_url": "https://api.github.com/repos/swcarpentry/boot-camps/issues/comments/{number}",
    "issue_events_url": "https://api.github.com/repos/swcarpentry/boot-camps/issues/events{/number}",
    "issues_url": "https://api.github.com/repos/swcarpentry/boot-camps/issues{/number}",
    "keys_url": "https://api.github.com/repos/swcarpentry/boot-camps/keys{/key_id}",
    "labels_url": "https://api.github.com/repos/swcarpentry/boot-camps/labels{/name}",
    "language": "Python",
    "languages_url": "https://api.github.com/repos/swcarpentry/boot-camps/languages",
    "merges_url": "https://api.github.com/repos/swcarpentry/boot-camps/merges",
    "milestones_url": "https://api.github.com/repos/swcarpentry/boot-camps/milestones{/number}",
    "mirror_url": null,
    "name": "boot-camps",
    "notifications_url": "https://api.github.com/repos/swcarpentry/boot-camps/notifications{?since,all,participating}",
    "open_issues": 6,
    "open_issues_count": 6,
    "owner": {
        "avatar_url": "https://avatars.githubusercontent.com/u/2238358?",
        "events_url": "https://api.github.com/users/swcarpentry/events{/privacy}",
        "followers_url": "https://api.github.com/users/swcarpentry/followers",
        "following_url": "https://api.github.com/users/swcarpentry/following{/other_user}",
        "gists_url": "https://api.github.com/users/swcarpentry/gists{/gist_id}",
        "gravatar_id": "d7c59c38273d06899bb322e4b2436b65",
        "html_url": "https://github.com/swcarpentry",
        "id": 2238358,
        "login": "swcarpentry",
        "organizations_url": "https://api.github.com/users/swcarpentry/orgs",
        "received_events_url": "https://api.github.com/users/swcarpentry/received_events",
        "repos_url": "https://api.github.com/users/swcarpentry/repos",
        "site_admin": false,
        "starred_url": "https://api.github.com/users/swcarpentry/starred{/owner}{/repo}",
        "subscriptions_url": "https://api.github.com/users/swcarpentry/subscriptions",
        "type": "Organization",
        "url": "https://api.github.com/users/swcarpentry"
    },
    "private": false,
    "pulls_url": "https://api.github.com/repos/swcarpentry/boot-camps/pulls{/number}",
    "pushed_at": "2013-12-08T02:27:33Z",
    "releases_url": "https://api.github.com/repos/swcarpentry/boot-camps/releases{/id}",
    "score": 1.0,
    "size": 126557,
    "ssh_url": "git@github.com:swcarpentry/boot-camps.git",
    "stargazers_count": 63,
    "stargazers_url": "https://api.github.com/repos/swcarpentry/boot-camps/stargazers",
    "statuses_url": "https://api.github.com/repos/swcarpentry/boot-camps/statuses/{sha}",
    "subscribers_url": "https://api.github.com/repos/swcarpentry/boot-camps/subscribers",
    "subscription_url": "https://api.github.com/repos/swcarpentry/boot-camps/subscription",
    "svn_url": "https://github.com/swcarpentry/boot-camps",
    "tags_url": "https://api.github.com/repos/swcarpentry/boot-camps/tags",
    "teams_url": "https://api.github.com/repos/swcarpentry/boot-camps/teams",
    "trees_url": "https://api.github.com/repos/swcarpentry/boot-camps/git/trees{/sha}",
    "updated_at": "2014-01-07T20:19:07Z",
    "url": "https://api.github.com/repos/swcarpentry/boot-camps",
    "watchers": 63,
    "watchers_count": 63
}