{
    "libs": [
        "cStringIO",
        "archive_util",
        "unittest",
        "random",
        "package_index",
        "copy",
        "subprocess",
        "parse",
        "io",
        "path",
        "shutil",
        "errors",
        "struct",
        "platform",
        "tempfile",
        "errno",
        "urllib",
        "re",
        "collections",
        "System",
        "B",
        "setopt",
        "optparse",
        "UserDict",
        "glob",
        "zipfile",
        "urllib2",
        "textwrap",
        "sys",
        "e",
        "datetime",
        "md5",
        "logging",
        "socket",
        "h",
        "traceback",
        "request",
        "pkg_resources",
        "server",
        "urlparse",
        "threading",
        "itertools",
        "doctest",
        "setuptools",
        "time",
        "site",
        "py_compile",
        "os",
        "pdb"
    ]
}