{
    "libs": [
        "fractions",
        "division",
        "Tkinter",
        "struct",
        "tempfile",
        "unittest",
        "sys",
        "re",
        "itertools",
        "collections",
        "copy",
        "os",
        "unittest2",
        "math"
    ]
}