[
    "statsd",
    "defaults.django",
    "statsd.client",
    "env",
    "statsd.defaults.django",
    "docs",
    "statsd.defaults.env",
    "django",
    "client",
    "tests",
    "statsd.defaults",
    "conf",
    "statsd.tests",
    "defaults",
    "docs.conf",
    "defaults.env"
]