{
    "archive_url": "https://api.github.com/repos/pydata/pandas/{archive_format}{/ref}",
    "assignees_url": "https://api.github.com/repos/pydata/pandas/assignees{/user}",
    "blobs_url": "https://api.github.com/repos/pydata/pandas/git/blobs{/sha}",
    "branches_url": "https://api.github.com/repos/pydata/pandas/branches{/branch}",
    "clone_url": "https://github.com/pydata/pandas.git",
    "collaborators_url": "https://api.github.com/repos/pydata/pandas/collaborators{/collaborator}",
    "comments_url": "https://api.github.com/repos/pydata/pandas/comments{/number}",
    "commits_url": "https://api.github.com/repos/pydata/pandas/commits{/sha}",
    "compare_url": "https://api.github.com/repos/pydata/pandas/compare/{base}...{head}",
    "contents_url": "https://api.github.com/repos/pydata/pandas/contents/{+path}",
    "contributors_url": "https://api.github.com/repos/pydata/pandas/contributors",
    "created_at": "2010-08-24T01:37:33Z",
    "default_branch": "master",
    "description": "Flexible and powerful data analysis / manipulation library for Python, providing labeled data structures similar to R data.frame objects, statistical functions, and much more",
    "downloads_url": "https://api.github.com/repos/pydata/pandas/downloads",
    "events_url": "https://api.github.com/repos/pydata/pandas/events",
    "fork": false,
    "forks": 902,
    "forks_count": 902,
    "forks_url": "https://api.github.com/repos/pydata/pandas/forks",
    "full_name": "pydata/pandas",
    "git_commits_url": "https://api.github.com/repos/pydata/pandas/git/commits{/sha}",
    "git_refs_url": "https://api.github.com/repos/pydata/pandas/git/refs{/sha}",
    "git_tags_url": "https://api.github.com/repos/pydata/pandas/git/tags{/sha}",
    "git_url": "git://github.com/pydata/pandas.git",
    "has_downloads": true,
    "has_issues": true,
    "has_wiki": true,
    "homepage": "http://pandas.pydata.org",
    "hooks_url": "https://api.github.com/repos/pydata/pandas/hooks",
    "html_url": "https://github.com/pydata/pandas",
    "id": 858127,
    "issue_comment_url": "https://api.github.com/repos/pydata/pandas/issues/comments/{number}",
    "issue_events_url": "https://api.github.com/repos/pydata/pandas/issues/events{/number}",
    "issues_url": "https://api.github.com/repos/pydata/pandas/issues{/number}",
    "keys_url": "https://api.github.com/repos/pydata/pandas/keys{/key_id}",
    "labels_url": "https://api.github.com/repos/pydata/pandas/labels{/name}",
    "language": "Python",
    "languages_url": "https://api.github.com/repos/pydata/pandas/languages",
    "merges_url": "https://api.github.com/repos/pydata/pandas/merges",
    "milestones_url": "https://api.github.com/repos/pydata/pandas/milestones{/number}",
    "mirror_url": null,
    "name": "pandas",
    "notifications_url": "https://api.github.com/repos/pydata/pandas/notifications{?since,all,participating}",
    "open_issues": 862,
    "open_issues_count": 862,
    "owner": {
        "avatar_url": "https://avatars.githubusercontent.com/u/1284191?",
        "events_url": "https://api.github.com/users/pydata/events{/privacy}",
        "followers_url": "https://api.github.com/users/pydata/followers",
        "following_url": "https://api.github.com/users/pydata/following{/other_user}",
        "gists_url": "https://api.github.com/users/pydata/gists{/gist_id}",
        "gravatar_id": "0b41e491d21e0e2e054d9c1b2d72ad59",
        "html_url": "https://github.com/pydata",
        "id": 1284191,
        "login": "pydata",
        "organizations_url": "https://api.github.com/users/pydata/orgs",
        "received_events_url": "https://api.github.com/users/pydata/received_events",
        "repos_url": "https://api.github.com/users/pydata/repos",
        "site_admin": false,
        "starred_url": "https://api.github.com/users/pydata/starred{/owner}{/repo}",
        "subscriptions_url": "https://api.github.com/users/pydata/subscriptions",
        "type": "Organization",
        "url": "https://api.github.com/users/pydata"
    },
    "private": false,
    "pulls_url": "https://api.github.com/repos/pydata/pandas/pulls{/number}",
    "pushed_at": "2014-05-06T18:02:22Z",
    "releases_url": "https://api.github.com/repos/pydata/pandas/releases{/id}",
    "score": 1.0,
    "size": 66227,
    "ssh_url": "git@github.com:pydata/pandas.git",
    "stargazers_count": 2953,
    "stargazers_url": "https://api.github.com/repos/pydata/pandas/stargazers",
    "statuses_url": "https://api.github.com/repos/pydata/pandas/statuses/{sha}",
    "subscribers_url": "https://api.github.com/repos/pydata/pandas/subscribers",
    "subscription_url": "https://api.github.com/repos/pydata/pandas/subscription",
    "svn_url": "https://github.com/pydata/pandas",
    "tags_url": "https://api.github.com/repos/pydata/pandas/tags",
    "teams_url": "https://api.github.com/repos/pydata/pandas/teams",
    "trees_url": "https://api.github.com/repos/pydata/pandas/git/trees{/sha}",
    "updated_at": "2014-05-07T05:01:33Z",
    "url": "https://api.github.com/repos/pydata/pandas",
    "watchers": 2953,
    "watchers_count": 2953
}