{
    "archive_url": "https://api.github.com/repos/shacker/django-todo/{archive_format}{/ref}",
    "assignees_url": "https://api.github.com/repos/shacker/django-todo/assignees{/user}",
    "blobs_url": "https://api.github.com/repos/shacker/django-todo/git/blobs{/sha}",
    "branches_url": "https://api.github.com/repos/shacker/django-todo/branches{/branch}",
    "clone_url": "https://github.com/shacker/django-todo.git",
    "collaborators_url": "https://api.github.com/repos/shacker/django-todo/collaborators{/collaborator}",
    "comments_url": "https://api.github.com/repos/shacker/django-todo/comments{/number}",
    "commits_url": "https://api.github.com/repos/shacker/django-todo/commits{/sha}",
    "compare_url": "https://api.github.com/repos/shacker/django-todo/compare/{base}...{head}",
    "contents_url": "https://api.github.com/repos/shacker/django-todo/contents/{+path}",
    "contributors_url": "https://api.github.com/repos/shacker/django-todo/contributors",
    "created_at": "2010-09-26T20:46:51Z",
    "default_branch": "master",
    "description": "A multi-user, multi-group todo/ticketing system for Django sites",
    "downloads_url": "https://api.github.com/repos/shacker/django-todo/downloads",
    "events_url": "https://api.github.com/repos/shacker/django-todo/events",
    "fork": false,
    "forks": 52,
    "forks_count": 52,
    "forks_url": "https://api.github.com/repos/shacker/django-todo/forks",
    "full_name": "shacker/django-todo",
    "git_commits_url": "https://api.github.com/repos/shacker/django-todo/git/commits{/sha}",
    "git_refs_url": "https://api.github.com/repos/shacker/django-todo/git/refs{/sha}",
    "git_tags_url": "https://api.github.com/repos/shacker/django-todo/git/tags{/sha}",
    "git_url": "git://github.com/shacker/django-todo.git",
    "has_downloads": true,
    "has_issues": true,
    "has_wiki": true,
    "homepage": "http://birdhouse.org/software/2008/09/django-todo/",
    "hooks_url": "https://api.github.com/repos/shacker/django-todo/hooks",
    "html_url": "https://github.com/shacker/django-todo",
    "id": 941011,
    "issue_comment_url": "https://api.github.com/repos/shacker/django-todo/issues/comments/{number}",
    "issue_events_url": "https://api.github.com/repos/shacker/django-todo/issues/events{/number}",
    "issues_url": "https://api.github.com/repos/shacker/django-todo/issues{/number}",
    "keys_url": "https://api.github.com/repos/shacker/django-todo/keys{/key_id}",
    "labels_url": "https://api.github.com/repos/shacker/django-todo/labels{/name}",
    "language": "Python",
    "languages_url": "https://api.github.com/repos/shacker/django-todo/languages",
    "merges_url": "https://api.github.com/repos/shacker/django-todo/merges",
    "milestones_url": "https://api.github.com/repos/shacker/django-todo/milestones{/number}",
    "mirror_url": null,
    "name": "django-todo",
    "notifications_url": "https://api.github.com/repos/shacker/django-todo/notifications{?since,all,participating}",
    "open_issues": 0,
    "open_issues_count": 0,
    "owner": {
        "avatar_url": "https://avatars.githubusercontent.com/u/102694?",
        "events_url": "https://api.github.com/users/shacker/events{/privacy}",
        "followers_url": "https://api.github.com/users/shacker/followers",
        "following_url": "https://api.github.com/users/shacker/following{/other_user}",
        "gists_url": "https://api.github.com/users/shacker/gists{/gist_id}",
        "gravatar_id": "8d031559f78965528d6e08c0b1a9d3d5",
        "html_url": "https://github.com/shacker",
        "id": 102694,
        "login": "shacker",
        "organizations_url": "https://api.github.com/users/shacker/orgs",
        "received_events_url": "https://api.github.com/users/shacker/received_events",
        "repos_url": "https://api.github.com/users/shacker/repos",
        "site_admin": false,
        "starred_url": "https://api.github.com/users/shacker/starred{/owner}{/repo}",
        "subscriptions_url": "https://api.github.com/users/shacker/subscriptions",
        "type": "User",
        "url": "https://api.github.com/users/shacker"
    },
    "private": false,
    "pulls_url": "https://api.github.com/repos/shacker/django-todo/pulls{/number}",
    "pushed_at": "2014-05-06T06:21:59Z",
    "releases_url": "https://api.github.com/repos/shacker/django-todo/releases{/id}",
    "score": 1.0,
    "size": 509,
    "ssh_url": "git@github.com:shacker/django-todo.git",
    "stargazers_count": 157,
    "stargazers_url": "https://api.github.com/repos/shacker/django-todo/stargazers",
    "statuses_url": "https://api.github.com/repos/shacker/django-todo/statuses/{sha}",
    "subscribers_url": "https://api.github.com/repos/shacker/django-todo/subscribers",
    "subscription_url": "https://api.github.com/repos/shacker/django-todo/subscription",
    "svn_url": "https://github.com/shacker/django-todo",
    "tags_url": "https://api.github.com/repos/shacker/django-todo/tags",
    "teams_url": "https://api.github.com/repos/shacker/django-todo/teams",
    "trees_url": "https://api.github.com/repos/shacker/django-todo/git/trees{/sha}",
    "updated_at": "2014-05-06T06:21:59Z",
    "url": "https://api.github.com/repos/shacker/django-todo",
    "watchers": 157,
    "watchers_count": 157
}