[
    "pylatex.pgfplots",
    "pylatex.section",
    "utils",
    "pylatex.utils",
    "pylatex.math",
    "base_classes",
    "pylatex.package",
    "examples",
    "table",
    "numpy_ex",
    "pylatex.table",
    "pylatex.base_classes",
    "pylatex.document",
    "pylatex.numpy",
    "package",
    "examples.example",
    "section",
    "examples.numpy_ex",
    "tests",
    "pgfplots",
    "pylatex",
    "tests.multirow_test",
    "document",
    "numpy",
    "example",
    "math",
    "multirow_test"
]