{
    "archive_url": "https://api.github.com/repos/FogCreek/WebPutty/{archive_format}{/ref}",
    "assignees_url": "https://api.github.com/repos/FogCreek/WebPutty/assignees{/user}",
    "blobs_url": "https://api.github.com/repos/FogCreek/WebPutty/git/blobs{/sha}",
    "branches_url": "https://api.github.com/repos/FogCreek/WebPutty/branches{/branch}",
    "clone_url": "https://github.com/FogCreek/WebPutty.git",
    "collaborators_url": "https://api.github.com/repos/FogCreek/WebPutty/collaborators{/collaborator}",
    "comments_url": "https://api.github.com/repos/FogCreek/WebPutty/comments{/number}",
    "commits_url": "https://api.github.com/repos/FogCreek/WebPutty/commits{/sha}",
    "compare_url": "https://api.github.com/repos/FogCreek/WebPutty/compare/{base}...{head}",
    "contents_url": "https://api.github.com/repos/FogCreek/WebPutty/contents/{+path}",
    "contributors_url": "https://api.github.com/repos/FogCreek/WebPutty/contributors",
    "created_at": "2012-04-03T18:52:02Z",
    "default_branch": "master",
    "description": "WebPutty is a simple CSS editing and hosting service that you can run on Google App Engine.",
    "downloads_url": "https://api.github.com/repos/FogCreek/WebPutty/downloads",
    "events_url": "https://api.github.com/repos/FogCreek/WebPutty/events",
    "fork": false,
    "forks": 120,
    "forks_count": 120,
    "forks_url": "https://api.github.com/repos/FogCreek/WebPutty/forks",
    "full_name": "FogCreek/WebPutty",
    "git_commits_url": "https://api.github.com/repos/FogCreek/WebPutty/git/commits{/sha}",
    "git_refs_url": "https://api.github.com/repos/FogCreek/WebPutty/git/refs{/sha}",
    "git_tags_url": "https://api.github.com/repos/FogCreek/WebPutty/git/tags{/sha}",
    "git_url": "git://github.com/FogCreek/WebPutty.git",
    "has_downloads": true,
    "has_issues": true,
    "has_wiki": true,
    "homepage": "https://www.webputty.net/",
    "hooks_url": "https://api.github.com/repos/FogCreek/WebPutty/hooks",
    "html_url": "https://github.com/FogCreek/WebPutty",
    "id": 3921398,
    "issue_comment_url": "https://api.github.com/repos/FogCreek/WebPutty/issues/comments/{number}",
    "issue_events_url": "https://api.github.com/repos/FogCreek/WebPutty/issues/events{/number}",
    "issues_url": "https://api.github.com/repos/FogCreek/WebPutty/issues{/number}",
    "keys_url": "https://api.github.com/repos/FogCreek/WebPutty/keys{/key_id}",
    "labels_url": "https://api.github.com/repos/FogCreek/WebPutty/labels{/name}",
    "language": "Python",
    "languages_url": "https://api.github.com/repos/FogCreek/WebPutty/languages",
    "merges_url": "https://api.github.com/repos/FogCreek/WebPutty/merges",
    "milestones_url": "https://api.github.com/repos/FogCreek/WebPutty/milestones{/number}",
    "mirror_url": null,
    "name": "WebPutty",
    "notifications_url": "https://api.github.com/repos/FogCreek/WebPutty/notifications{?since,all,participating}",
    "open_issues": 36,
    "open_issues_count": 36,
    "owner": {
        "avatar_url": "https://avatars.githubusercontent.com/u/1530371?",
        "events_url": "https://api.github.com/users/FogCreek/events{/privacy}",
        "followers_url": "https://api.github.com/users/FogCreek/followers",
        "following_url": "https://api.github.com/users/FogCreek/following{/other_user}",
        "gists_url": "https://api.github.com/users/FogCreek/gists{/gist_id}",
        "gravatar_id": "91ab609100e96dd5ccb270399e1acab6",
        "html_url": "https://github.com/FogCreek",
        "id": 1530371,
        "login": "FogCreek",
        "organizations_url": "https://api.github.com/users/FogCreek/orgs",
        "received_events_url": "https://api.github.com/users/FogCreek/received_events",
        "repos_url": "https://api.github.com/users/FogCreek/repos",
        "site_admin": false,
        "starred_url": "https://api.github.com/users/FogCreek/starred{/owner}{/repo}",
        "subscriptions_url": "https://api.github.com/users/FogCreek/subscriptions",
        "type": "Organization",
        "url": "https://api.github.com/users/FogCreek"
    },
    "private": false,
    "pulls_url": "https://api.github.com/repos/FogCreek/WebPutty/pulls{/number}",
    "pushed_at": "2013-05-13T17:31:33Z",
    "releases_url": "https://api.github.com/repos/FogCreek/WebPutty/releases{/id}",
    "score": 1.0,
    "size": 11841,
    "ssh_url": "git@github.com:FogCreek/WebPutty.git",
    "stargazers_count": 582,
    "stargazers_url": "https://api.github.com/repos/FogCreek/WebPutty/stargazers",
    "statuses_url": "https://api.github.com/repos/FogCreek/WebPutty/statuses/{sha}",
    "subscribers_url": "https://api.github.com/repos/FogCreek/WebPutty/subscribers",
    "subscription_url": "https://api.github.com/repos/FogCreek/WebPutty/subscription",
    "svn_url": "https://github.com/FogCreek/WebPutty",
    "tags_url": "https://api.github.com/repos/FogCreek/WebPutty/tags",
    "teams_url": "https://api.github.com/repos/FogCreek/WebPutty/teams",
    "trees_url": "https://api.github.com/repos/FogCreek/WebPutty/git/trees{/sha}",
    "updated_at": "2014-05-01T13:36:35Z",
    "url": "https://api.github.com/repos/FogCreek/WebPutty",
    "watchers": 582,
    "watchers_count": 582
}