[
    "tests",
    "unittesthelper",
    "src.underscore",
    "test_arrays",
    "test_utility",
    "tests.test_functions",
    "underscore",
    "tests.test_objects",
    "tests.test_structure",
    "src",
    "test_collections",
    "test_objects",
    "test_functions",
    "tests.test_utility",
    "tests.test_arrays",
    "test_structure",
    "tests.test_collections",
    "tests.unittesthelper"
]