[
    "wsgi_intercept.webunit_intercept",
    "test.test_suite",
    "mock_ofx_server",
    "3rdparty.wsgi_intercept",
    "test.ofx_response",
    "3rdparty.wsgi_intercept.test.test_mechanoid",
    "3rdparty.dateutil.relativedelta",
    "3rdparty.wsgi_intercept.urllib2_intercept.wsgi_urllib2",
    "ofx_document",
    "3rdparty.dateutil.easter",
    "validators",
    "test.test_mechanize",
    "tzwin",
    "pyparsing",
    "ofxtools.ofc_parser",
    "3rdparty.wsgi_intercept.mechanize_intercept.wsgi_browser",
    "3rdparty.wsgi_intercept.mechanoid_intercept",
    "3rdparty.wsgi_intercept.urllib2_intercept",
    "ofx_account",
    "test_webtest",
    "3rdparty.wsgi_intercept.webtest_intercept",
    "3rdparty.wsgi_intercept.setup_cmd.build_docs",
    "wsgi_intercept.test",
    "ofx_error",
    "wsgi_intercept.mechanoid_intercept",
    "ofx.generator",
    "3rdparty.dateutil.parser",
    "easter",
    "test_zope_testbrowser",
    "wsgi_intercept.test.test_zope_testbrowser",
    "zope_testbrowser.wsgi_testbrowser",
    "3rdparty.wsgi_intercept.test",
    "mock_http",
    "mechanize_intercept",
    "3rdparty.wsgi_intercept.test.test_zope_testbrowser",
    "lib.ofx.document",
    "ofxtools.ofc_converter",
    "wsgi_intercept",
    "test_wsgi_compliance",
    "IMGSucker",
    "wsgi_intercept.test.test_mechanoid",
    "lib.ofx",
    "wsgi_intercept.urllib2_intercept.wsgi_urllib2",
    "3rdparty.wsgi_intercept.webunit_intercept.config",
    "urllib2_intercept",
    "wsgi_intercept.mechanoid_intercept.wsgi_browser",
    "ofx_parser",
    "relativedelta",
    "3rdparty.wsgi_intercept.test.test_webtest",
    "3rdparty.dateutil.tz",
    "publish_docs",
    "3rdparty.wsgi_intercept.test.test_wsgi_compliance",
    "3rdparty.wsgi_intercept.setup_cmd",
    "lib.ofxtools.ofc_parser",
    "dateutil.easter",
    "ofx_test_utils",
    "3rdparty.wsgi_intercept.test.test_wsgi_urllib2",
    "wsgi_intercept.test.test_wsgi_compliance",
    "zope_testbrowser",
    "3rdparty.wsgi_intercept.webtest_intercept.webtest",
    "3rdparty.dateutil.rrule",
    "ofx.request",
    "3rdparty.wsgi_intercept.mechanize_intercept",
    "test_mechanoid",
    "setup_cmd.build_docs",
    "wsgi_browser",
    "HTMLParser",
    "rrule",
    "ofx.builder",
    "test.test_wsgi_compliance",
    "dateutil",
    "wsgi_intercept.mechanize_intercept.wsgi_browser",
    "ofx.client",
    "lib.ofx.parser",
    "3rdparty.wsgi_intercept.test_wsgi_app",
    "ofx_statement",
    "ofxtools.qif_converter",
    "test.ofx_client",
    "wsgi_intercept.webunit_intercept.HTMLParser",
    "3rdparty.wsgi_intercept.webunit_intercept.utility",
    "lib.ofxtools.ofx_statement",
    "test.test_wsgi_urllib2",
    "3rdparty.wsgi_intercept.zope_testbrowser.wsgi_testbrowser",
    "3rdparty.dateutil.tzwin",
    "webunit_intercept.HTMLParser",
    "lib.ofx.institution",
    "mechanoid_intercept",
    "test.ofx_builder",
    "wsgi_intercept.urllib2_intercept",
    "mechanize_intercept.wsgi_browser",
    "cookie",
    "tz",
    "wsgi_intercept.mechanize_intercept",
    "setup_cmd",
    "ofxtools_qif_converter",
    "wsgi_intercept.setup_cmd.publish_docs",
    "ofx.validators",
    "test_webunit",
    "3rdparty.wsgi_intercept.test.test_httplib2",
    "generator",
    "3rdparty.wsgi_intercept.test.test_mechanize",
    "test.ofx_document",
    "wsgi_intercept.test.test_httplib2",
    "test_suite",
    "ofc_parser",
    "lib.ofx.request",
    "lib.ofx.response",
    "lib.ofxtools",
    "wsgi_intercept.zope_testbrowser",
    "webunit_intercept.config",
    "ofx_builder",
    "3rdparty.wsgi_intercept.setup_cmd.publish_docs",
    "qif_parser",
    "3rdparty.wsgi_intercept.webunit_intercept.HTMLParser",
    "ofx.parser",
    "fakeofx",
    "dateutil.rrule",
    "ofx.filetyper",
    "wsgi_intercept.test.test_webunit",
    "webunit_intercept.IMGSucker",
    "3rdparty.wsgi_intercept.webunit_intercept",
    "utility",
    "httplib2_intercept",
    "ofxtools.qif_parser",
    "wsgi_testbrowser",
    "wsgi_intercept.webunit_intercept.SimpleDOM",
    "lib.ofx.filetyper",
    "SimpleDOM",
    "lib.ofxtools.csv_converter",
    "wsgi_intercept.webtest_intercept",
    "3rdparty.wsgi_intercept.zope_testbrowser",
    "test_httplib2",
    "test_wsgi_urllib2",
    "mechanoid_intercept.wsgi_browser",
    "3rdparty.wsgi_intercept.test.test_webunit",
    "setup_cmd.publish_docs",
    "test.test_httplib2",
    "3rdparty.wsgi_intercept.webunit_intercept.SimpleDOM",
    "wsgi_intercept.setup_cmd",
    "test.test_mechanoid",
    "3rdparty.wsgi_intercept.webunit_intercept.IMGSucker",
    "3rdparty.dateutil",
    "webunit_intercept.SimpleDOM",
    "test.ofx_request",
    "wsgi_intercept.test.test_webtest",
    "test_mechanize",
    "3rdparty.wsgi_intercept.mechanoid_intercept.wsgi_browser",
    "test_wsgi_app",
    "test.mock_ofx_server",
    "test.ofx_account",
    "test.ofx_parser",
    "institution",
    "wsgi_intercept.httplib2_intercept",
    "wsgi_intercept.test.test_wsgi_urllib2",
    "account",
    "3rdparty.wsgi_intercept.mock_http",
    "wsgi_intercept.zope_testbrowser.wsgi_testbrowser",
    "wsgi_intercept.webunit_intercept.config",
    "lib.ofx.account",
    "test.ofx_test_utils",
    "ofx_request",
    "wsgi_urllib2",
    "lib.ofx.error",
    "error",
    "webtest_intercept.webtest",
    "lib.ofx.generator",
    "wsgi_intercept.webunit_intercept.cookie",
    "webtest_intercept",
    "3rdparty.wsgi_intercept.httplib2_intercept",
    "3rdparty",
    "build_docs",
    "wsgi_intercept.webunit_intercept.IMGSucker",
    "qif_converter",
    "parser",
    "ofx.document",
    "3rdparty.wsgi_intercept.webunit_intercept.webunittest",
    "wsgi_intercept.webunit_intercept.utility",
    "dateutil.tz",
    "wsgi_intercept.setup_cmd.build_docs",
    "test.ofxtools_qif_converter",
    "csv_converter",
    "wsgi_intercept.webtest_intercept.webtest",
    "test.test_zope_testbrowser",
    "webunit_intercept.webunittest",
    "lib.ofx.builder",
    "ofc_converter",
    "dateutil.parser",
    "wsgi_intercept.test.test_mechanize",
    "lib.ofx.validators",
    "webtest",
    "webunit_intercept",
    "ofxtools.csv_converter",
    "fixofx",
    "webunit_intercept.cookie",
    "test.test_webunit",
    "ofx_client",
    "test",
    "wsgi_intercept.test_wsgi_app",
    "document",
    "config",
    "webunit_intercept.utility",
    "ofxtools.ofx_statement",
    "ofx.institution",
    "webunittest",
    "dateutil.relativedelta",
    "test.test_webtest",
    "urllib2_intercept.wsgi_urllib2",
    "ofx.response",
    "lib.ofxtools.qif_parser",
    "lib.ofxtools.qif_converter",
    "test.ofx_error",
    "dateutil.tzwin",
    "response",
    "ofx_response",
    "3rdparty.pyparsing",
    "lib.ofxtools.ofc_converter",
    "ofx_validators",
    "test.ofx_validators",
    "lib",
    "wsgi_intercept.mock_http",
    "builder",
    "request",
    "ofxtools",
    "wsgi_intercept.webunit_intercept.webunittest",
    "client",
    "ofx.account",
    "lib.ofx.client",
    "ofx",
    "ofx.error",
    "filetyper",
    "3rdparty.wsgi_intercept.webunit_intercept.cookie"
]