{
    "libs": [
        "code",
        "random",
        "subprocess",
        "sysconfig",
        "query",
        "paginator",
        "loading",
        "struct",
        "tempfile",
        "pprint",
        "mail",
        "haystack",
        "string",
        "dat",
        "datetime",
        "xmlutils",
        "httplib",
        "resource",
        "extr",
        "h",
        "decimal",
        "threading",
        "t",
        "defaults",
        "debug",
        "cStringIO",
        "related",
        "operator",
        "virtualenv",
        "local_settings",
        "notification",
        "urllib",
        "re",
        "decorators",
        "cgi",
        "optparse",
        "inspect",
        "codecs",
        "path",
        "minidom",
        "logging",
        "StringIO",
        "traceback",
        "pkg_resources",
        "itertools",
        "context",
        "pinax",
        "os",
        "options",
        "win32api",
        "encoding",
        "simple",
        "unittest",
        "functional",
        "dispatch",
        "registration",
        "contrib",
        "array",
        "IPython",
        "posixpath",
        "json",
        "backends",
        "mailer",
        "simplejson",
        "translation",
        "copy",
        "b",
        "defaultfilters",
        "chardet",
        "exceptions",
        "pickle",
        "shortcuts",
        "site",
        "shutil",
        "indexes",
        "html",
        "getopt",
        "csv",
        "openid",
        "http",
        "sets",
        "cPickle",
        "urllib2",
        "sys",
        "user",
        "readline",
        "types",
        "safestring",
        "modelsinspector",
        "django",
        "urlparse",
        "time",
        "urlresolvers",
        "rlcompleter"
    ]
}