[
    "wal_e.storage.base",
    "piper",
    "wabs_integration_help",
    "blobstore.swift.credentials",
    "test_aws_sts",
    "subprocess",
    "wal_e.copyfileobj",
    "tests.test_s3_deleter",
    "s3_credentials",
    "wal_e.worker.swift",
    "worker.worker_util",
    "storage.swift_storage",
    "s3_deleter",
    "wabs_util",
    "wal_e.channel",
    "wal_e.pipebuf",
    "worker.pg.wal_transfer",
    "test_wal_segment",
    "s3.s3_worker",
    "tests",
    "wabs_storage",
    "log_help",
    "wabs_operator",
    "wal_e.blobstore.s3.calling_format",
    "wal_e.operator.wabs_operator",
    "worker.s3.s3_deleter",
    "s3.s3_util",
    "credentials",
    "blobstore",
    "test_wabs_deleter",
    "tests.test_wal_segment",
    "tar_partition",
    "tests.test_s3_worker",
    "wabs.calling_format",
    "wal_e.worker.upload",
    "cmd",
    "upload",
    "wal_e.storage",
    "worker.s3",
    "pg.wal_transfer",
    "calling_format",
    "wal_e.blobstore.wabs.wabs_util",
    "worker.wabs.wabs_worker",
    "test_wabs_worker",
    "tests.test_wabs_worker",
    "s3_integration_help",
    "worker.wabs.wabs_deleter",
    "blobstore.s3.s3_util",
    "blobstore.wabs.wabs_credentials",
    "wal_e.operator.s3_operator",
    "wal_e.blobstore.swift.credentials",
    "s3_storage",
    "pg.pg_controldata_worker",
    "s3_operator",
    "blobstore.wabs.wabs_util",
    "worker.pg.pg_controldata_worker",
    "copyfileobj",
    "tests.test_blackbox",
    "wal_e.subprocess",
    "swift.swift_worker",
    "channel",
    "wal_e.worker",
    "wal_e.blobstore.swift.calling_format",
    "wabs.wabs_credentials",
    "tests.test_log_help",
    "wal_e.worker.base",
    "upload_pool",
    "s3.s3_deleter",
    "wal_e.worker.pg",
    "worker.swift.swift_worker",
    "tests.test_tar_upload_pool",
    "wal_e.worker.swift.swift_deleter",
    "wal_e.blobstore.wabs.calling_format",
    "swift.swift_deleter",
    "tests.test_bytedeque",
    "wal_e.blobstore.wabs",
    "pipe_performance",
    "blobstore.s3.calling_format",
    "s3.s3_credentials",
    "base",
    "wal_transfer",
    "wabs.wabs_deleter",
    "wal_e.worker.pg.pg_controldata_worker",
    "wabs_deleter",
    "wal_e.blobstore.wabs.wabs_credentials",
    "wal_e.blobstore.s3.s3_util",
    "swift",
    "operator.swift_operator",
    "test_log_help",
    "tests.test_pipeline_sanity",
    "pipeline",
    "test_s3_deleter",
    "test_bytedeque",
    "wal_e.blobstore",
    "swift_operator",
    "wabs.wabs_util",
    "operator.wabs_operator",
    "wal_e.exception",
    "blobstore.swift.utils",
    "wal_e.operator",
    "wal_e.pipeline",
    "operator.s3_operator",
    "backup",
    "swift_storage",
    "tests.test_aws_instance_profiles",
    "tests.stage_pgxlog",
    "test_wal_transfer",
    "tests.test_piper_low_mem",
    "storage.s3_storage",
    "wal_e.worker.s3.s3_worker",
    "s3_util",
    "wal_e.tar_partition",
    "worker.pg",
    "wal_e.blobstore.s3",
    "operator",
    "worker.swift.swift_deleter",
    "wal_e",
    "tests.wabs_integration_help",
    "wal_e.blobstore.swift",
    "worker.wabs",
    "blobstore.swift",
    "wal_e.worker.wabs.wabs_deleter",
    "wal_e.blobstore.s3.s3_credentials",
    "test_tar_upload_pool",
    "blobstore.s3.s3_credentials",
    "pg",
    "wal_e.worker.s3.s3_deleter",
    "s3.calling_format",
    "swift.credentials",
    "test_aws_instance_profiles",
    "wal_e.worker.wabs",
    "wal_e.worker.pg.psql_worker",
    "operator.backup",
    "pipebuf",
    "wal_e.retries",
    "swift.utils",
    "worker.upload",
    "tests.test_cmdline_version",
    "swift.calling_format",
    "retries",
    "exception",
    "wal_e.worker.s3",
    "wal_e.worker.swift.swift_worker",
    "worker.upload_pool",
    "blobstore.swift.calling_format",
    "worker.s3.s3_worker",
    "wal_e.cmd",
    "wabs",
    "test_blackbox",
    "wal_e.blobstore.swift.utils",
    "blobstore.wabs.calling_format",
    "utils",
    "storage.base",
    "tests.test_exceptions",
    "wabs_credentials",
    "blobstore.s3",
    "pg_controldata_worker",
    "tests.pipe_performance",
    "wal_e.worker.pg.wal_transfer",
    "swift_worker",
    "test_cmdline_version",
    "s3",
    "test_channel_shim",
    "tests.test_aws_sts",
    "stage_pgxlog",
    "storage",
    "wabs.wabs_worker",
    "test_exceptions",
    "wal_e.storage.s3_storage",
    "pg.psql_worker",
    "s3_worker",
    "wal_e.worker.upload_pool",
    "wal_e.log_help",
    "blobstore.wabs",
    "tests.test_wal_transfer",
    "blackbox",
    "worker.swift",
    "worker",
    "psql_worker",
    "wal_e.operator.backup",
    "tests.test_tar_hacks",
    "tests.test_s3_calling_format",
    "wal_e.piper",
    "test_s3_calling_format",
    "test_s3_worker",
    "tests.s3_integration_help",
    "wal_e.storage.wabs_storage",
    "wal_e.operator.swift_operator",
    "wal_e.storage.swift_storage",
    "test_piper_low_mem",
    "test_tar_hacks",
    "worker_util",
    "worker.base",
    "tests.blackbox",
    "worker.pg.psql_worker",
    "tests.test_wabs_deleter",
    "storage.wabs_storage",
    "test_pipeline_sanity",
    "runtests",
    "tests.test_channel_shim",
    "swift_deleter",
    "wal_e.worker.worker_util",
    "wabs_worker",
    "wal_e.worker.wabs.wabs_worker"
]