[
    "templatetags.assets",
    "django_assets.glob",
    "django_assets.models",
    "django_assets.settings",
    "django_assets.filter",
    "conf",
    "django_assets.loaders",
    "django_assets.management.commands.assets",
    "management",
    "loaders",
    "django_assets.templatetags",
    "docs.conf",
    "env",
    "fabfile",
    "commands.assets",
    "django_assets.env",
    "tests",
    "test_django",
    "models",
    "docs",
    "glob",
    "django_assets.finders",
    "django_assets.templatetags.assets",
    "finders",
    "django_assets.management",
    "commands",
    "assets",
    "tests.test_django",
    "settings",
    "pytest_plugin",
    "templatetags",
    "management.commands.assets",
    "tests.helpers",
    "filter",
    "helpers",
    "django_assets",
    "django_assets.pytest_plugin",
    "management.commands",
    "django_assets.management.commands"
]