[
    "ecdsa.keys",
    "test_pyecdsa",
    "six",
    "ecdsa",
    "keys",
    "ecdsa.ellipticcurve",
    "curves",
    "_version",
    "util",
    "versioneer",
    "ecdsa.test_pyecdsa",
    "ecdsa.util",
    "ecdsa.ecdsa",
    "ecdsa.numbertheory",
    "ellipticcurve",
    "numbertheory",
    "der",
    "ecdsa.rfc6979",
    "ecdsa._version",
    "ecdsa.der",
    "ecdsa.six",
    "ecdsa.curves",
    "rfc6979"
]