[
    "admin",
    "monospace.models",
    "models",
    "views",
    "manage",
    "monospace.settings",
    "monospace.admin",
    "forms",
    "monospace.forms",
    "urls",
    "monospace.manage",
    "settings",
    "monospace",
    "monospace.urls",
    "monospace.views"
]