{
    "archive_url": "https://api.github.com/repos/lericson/simples3/{archive_format}{/ref}",
    "assignees_url": "https://api.github.com/repos/lericson/simples3/assignees{/user}",
    "blobs_url": "https://api.github.com/repos/lericson/simples3/git/blobs{/sha}",
    "branches_url": "https://api.github.com/repos/lericson/simples3/branches{/branch}",
    "clone_url": "https://github.com/lericson/simples3.git",
    "collaborators_url": "https://api.github.com/repos/lericson/simples3/collaborators{/collaborator}",
    "comments_url": "https://api.github.com/repos/lericson/simples3/comments{/number}",
    "commits_url": "https://api.github.com/repos/lericson/simples3/commits{/sha}",
    "compare_url": "https://api.github.com/repos/lericson/simples3/compare/{base}...{head}",
    "contents_url": "https://api.github.com/repos/lericson/simples3/contents/{+path}",
    "contributors_url": "https://api.github.com/repos/lericson/simples3/contributors",
    "created_at": "2009-04-09T00:28:56Z",
    "default_branch": "master",
    "description": "Simple, quick Amazon AWS S3 interface in Python",
    "downloads_url": "https://api.github.com/repos/lericson/simples3/downloads",
    "events_url": "https://api.github.com/repos/lericson/simples3/events",
    "fork": false,
    "forks": 23,
    "forks_count": 23,
    "forks_url": "https://api.github.com/repos/lericson/simples3/forks",
    "full_name": "lericson/simples3",
    "git_commits_url": "https://api.github.com/repos/lericson/simples3/git/commits{/sha}",
    "git_refs_url": "https://api.github.com/repos/lericson/simples3/git/refs{/sha}",
    "git_tags_url": "https://api.github.com/repos/lericson/simples3/git/tags{/sha}",
    "git_url": "git://github.com/lericson/simples3.git",
    "has_downloads": true,
    "has_issues": true,
    "has_wiki": true,
    "homepage": "",
    "hooks_url": "https://api.github.com/repos/lericson/simples3/hooks",
    "html_url": "https://github.com/lericson/simples3",
    "id": 171553,
    "issue_comment_url": "https://api.github.com/repos/lericson/simples3/issues/comments/{number}",
    "issue_events_url": "https://api.github.com/repos/lericson/simples3/issues/events{/number}",
    "issues_url": "https://api.github.com/repos/lericson/simples3/issues{/number}",
    "keys_url": "https://api.github.com/repos/lericson/simples3/keys{/key_id}",
    "labels_url": "https://api.github.com/repos/lericson/simples3/labels{/name}",
    "language": "Python",
    "languages_url": "https://api.github.com/repos/lericson/simples3/languages",
    "merges_url": "https://api.github.com/repos/lericson/simples3/merges",
    "milestones_url": "https://api.github.com/repos/lericson/simples3/milestones{/number}",
    "mirror_url": null,
    "name": "simples3",
    "notifications_url": "https://api.github.com/repos/lericson/simples3/notifications{?since,all,participating}",
    "open_issues": 3,
    "open_issues_count": 3,
    "owner": {
        "avatar_url": "https://avatars.githubusercontent.com/u/46901?",
        "events_url": "https://api.github.com/users/lericson/events{/privacy}",
        "followers_url": "https://api.github.com/users/lericson/followers",
        "following_url": "https://api.github.com/users/lericson/following{/other_user}",
        "gists_url": "https://api.github.com/users/lericson/gists{/gist_id}",
        "gravatar_id": "a97f36318ce39859ea06ba647106c88a",
        "html_url": "https://github.com/lericson",
        "id": 46901,
        "login": "lericson",
        "organizations_url": "https://api.github.com/users/lericson/orgs",
        "received_events_url": "https://api.github.com/users/lericson/received_events",
        "repos_url": "https://api.github.com/users/lericson/repos",
        "site_admin": false,
        "starred_url": "https://api.github.com/users/lericson/starred{/owner}{/repo}",
        "subscriptions_url": "https://api.github.com/users/lericson/subscriptions",
        "type": "User",
        "url": "https://api.github.com/users/lericson"
    },
    "private": false,
    "pulls_url": "https://api.github.com/repos/lericson/simples3/pulls{/number}",
    "pushed_at": "2013-07-10T23:51:27Z",
    "releases_url": "https://api.github.com/repos/lericson/simples3/releases{/id}",
    "score": 1.0,
    "size": 611,
    "ssh_url": "git@github.com:lericson/simples3.git",
    "stargazers_count": 69,
    "stargazers_url": "https://api.github.com/repos/lericson/simples3/stargazers",
    "statuses_url": "https://api.github.com/repos/lericson/simples3/statuses/{sha}",
    "subscribers_url": "https://api.github.com/repos/lericson/simples3/subscribers",
    "subscription_url": "https://api.github.com/repos/lericson/simples3/subscription",
    "svn_url": "https://github.com/lericson/simples3",
    "tags_url": "https://api.github.com/repos/lericson/simples3/tags",
    "teams_url": "https://api.github.com/repos/lericson/simples3/teams",
    "trees_url": "https://api.github.com/repos/lericson/simples3/git/trees{/sha}",
    "updated_at": "2013-12-11T06:13:45Z",
    "url": "https://api.github.com/repos/lericson/simples3",
    "watchers": 69,
    "watchers_count": 69
}