{
    "libs": [
        "exceptions",
        "b",
        "http",
        "importlib",
        "shortcuts",
        "functools",
        "absolute_import",
        "django",
        "appconf",
        "edit",
        "defaults",
        "urlresolvers",
        "vobject"
    ]
}