[
    "extra",
    "markdown_python.etree_loader",
    "nl2br",
    "markdown_python.inlinepatterns",
    "etree_loader",
    "markdown_python.extensions.sane_lists",
    "extensions.smart_strong",
    "tables",
    "fenced_code",
    "wikilinks",
    "headerid",
    "markdown_python",
    "markdown_python.extensions.footnotes",
    "def_list",
    "markdown_python.extensions.nl2br",
    "extensions.rss",
    "toc",
    "inlinepatterns",
    "markdown_python.blockparser",
    "extensions.abbr",
    "extensions.footnotes",
    "markdown_python.extensions.extra",
    "odict",
    "codehilite",
    "markdown_python.extensions.fenced_code",
    "abbr",
    "MarkdownBuild",
    "markdown_python.serializers",
    "extensions.codehilite",
    "markdown_python.extensions.meta",
    "rss",
    "markdown_python.extensions.tables",
    "blockparser",
    "sane_lists",
    "markdown_python.treeprocessors",
    "extensions.headerid",
    "extensions.wikilinks",
    "extensions.extra",
    "markdown_python.extensions.html_tidy",
    "extensions.attr_list",
    "markdown_python.extensions.attr_list",
    "html_tidy",
    "markdown_python.blockprocessors",
    "markdown_python.__main__",
    "__main__",
    "meta",
    "extensions.def_list",
    "treeprocessors",
    "markdown_python.preprocessors",
    "markdown_python.extensions.abbr",
    "extensions.tables",
    "serializers",
    "markdown_python.extensions",
    "markdown_python.postprocessors",
    "markdown_python.extensions.def_list",
    "markdown_python.extensions.codehilite",
    "extensions.html_tidy",
    "markdown_python.extensions.headerid",
    "markdown_python.extensions.smart_strong",
    "extensions.toc",
    "extensions.meta",
    "attr_list",
    "postprocessors",
    "extensions.fenced_code",
    "markdown_python.odict",
    "blockprocessors",
    "extensions.nl2br",
    "extensions.sane_lists",
    "util",
    "preprocessors",
    "markdown_python.util",
    "smart_strong",
    "extensions",
    "markdown_python.extensions.rss",
    "footnotes",
    "markdown_python.extensions.toc",
    "markdown_python.extensions.wikilinks"
]