{
    "archive_url": "https://api.github.com/repos/stchris/untangle/{archive_format}{/ref}",
    "assignees_url": "https://api.github.com/repos/stchris/untangle/assignees{/user}",
    "blobs_url": "https://api.github.com/repos/stchris/untangle/git/blobs{/sha}",
    "branches_url": "https://api.github.com/repos/stchris/untangle/branches{/branch}",
    "clone_url": "https://github.com/stchris/untangle.git",
    "collaborators_url": "https://api.github.com/repos/stchris/untangle/collaborators{/collaborator}",
    "comments_url": "https://api.github.com/repos/stchris/untangle/comments{/number}",
    "commits_url": "https://api.github.com/repos/stchris/untangle/commits{/sha}",
    "compare_url": "https://api.github.com/repos/stchris/untangle/compare/{base}...{head}",
    "contents_url": "https://api.github.com/repos/stchris/untangle/contents/{+path}",
    "contributors_url": "https://api.github.com/repos/stchris/untangle/contributors",
    "created_at": "2011-06-05T10:12:12Z",
    "default_branch": "master",
    "description": "Converts XML to Python objects",
    "downloads_url": "https://api.github.com/repos/stchris/untangle/downloads",
    "events_url": "https://api.github.com/repos/stchris/untangle/events",
    "fork": false,
    "forks": 8,
    "forks_count": 8,
    "forks_url": "https://api.github.com/repos/stchris/untangle/forks",
    "full_name": "stchris/untangle",
    "git_commits_url": "https://api.github.com/repos/stchris/untangle/git/commits{/sha}",
    "git_refs_url": "https://api.github.com/repos/stchris/untangle/git/refs{/sha}",
    "git_tags_url": "https://api.github.com/repos/stchris/untangle/git/tags{/sha}",
    "git_url": "git://github.com/stchris/untangle.git",
    "has_downloads": true,
    "has_issues": true,
    "has_wiki": true,
    "homepage": "",
    "hooks_url": "https://api.github.com/repos/stchris/untangle/hooks",
    "html_url": "https://github.com/stchris/untangle",
    "id": 1849865,
    "issue_comment_url": "https://api.github.com/repos/stchris/untangle/issues/comments/{number}",
    "issue_events_url": "https://api.github.com/repos/stchris/untangle/issues/events{/number}",
    "issues_url": "https://api.github.com/repos/stchris/untangle/issues{/number}",
    "keys_url": "https://api.github.com/repos/stchris/untangle/keys{/key_id}",
    "labels_url": "https://api.github.com/repos/stchris/untangle/labels{/name}",
    "language": "Python",
    "languages_url": "https://api.github.com/repos/stchris/untangle/languages",
    "merges_url": "https://api.github.com/repos/stchris/untangle/merges",
    "milestones_url": "https://api.github.com/repos/stchris/untangle/milestones{/number}",
    "mirror_url": null,
    "name": "untangle",
    "notifications_url": "https://api.github.com/repos/stchris/untangle/notifications{?since,all,participating}",
    "open_issues": 1,
    "open_issues_count": 1,
    "owner": {
        "avatar_url": "https://avatars.githubusercontent.com/u/217554?",
        "events_url": "https://api.github.com/users/stchris/events{/privacy}",
        "followers_url": "https://api.github.com/users/stchris/followers",
        "following_url": "https://api.github.com/users/stchris/following{/other_user}",
        "gists_url": "https://api.github.com/users/stchris/gists{/gist_id}",
        "gravatar_id": "f6fc838795dde1f2ebf5b97cfb630142",
        "html_url": "https://github.com/stchris",
        "id": 217554,
        "login": "stchris",
        "organizations_url": "https://api.github.com/users/stchris/orgs",
        "received_events_url": "https://api.github.com/users/stchris/received_events",
        "repos_url": "https://api.github.com/users/stchris/repos",
        "site_admin": false,
        "starred_url": "https://api.github.com/users/stchris/starred{/owner}{/repo}",
        "subscriptions_url": "https://api.github.com/users/stchris/subscriptions",
        "type": "User",
        "url": "https://api.github.com/users/stchris"
    },
    "private": false,
    "pulls_url": "https://api.github.com/repos/stchris/untangle/pulls{/number}",
    "pushed_at": "2014-02-05T11:46:57Z",
    "releases_url": "https://api.github.com/repos/stchris/untangle/releases{/id}",
    "score": 1.0,
    "size": 319,
    "ssh_url": "git@github.com:stchris/untangle.git",
    "stargazers_count": 71,
    "stargazers_url": "https://api.github.com/repos/stchris/untangle/stargazers",
    "statuses_url": "https://api.github.com/repos/stchris/untangle/statuses/{sha}",
    "subscribers_url": "https://api.github.com/repos/stchris/untangle/subscribers",
    "subscription_url": "https://api.github.com/repos/stchris/untangle/subscription",
    "svn_url": "https://github.com/stchris/untangle",
    "tags_url": "https://api.github.com/repos/stchris/untangle/tags",
    "teams_url": "https://api.github.com/repos/stchris/untangle/teams",
    "trees_url": "https://api.github.com/repos/stchris/untangle/git/trees{/sha}",
    "updated_at": "2014-02-05T11:46:58Z",
    "url": "https://api.github.com/repos/stchris/untangle",
    "watchers": 71,
    "watchers_count": 71
}