{
    "archive_url": "https://api.github.com/repos/alecthomas/pawk/{archive_format}{/ref}",
    "assignees_url": "https://api.github.com/repos/alecthomas/pawk/assignees{/user}",
    "blobs_url": "https://api.github.com/repos/alecthomas/pawk/git/blobs{/sha}",
    "branches_url": "https://api.github.com/repos/alecthomas/pawk/branches{/branch}",
    "clone_url": "https://github.com/alecthomas/pawk.git",
    "collaborators_url": "https://api.github.com/repos/alecthomas/pawk/collaborators{/collaborator}",
    "comments_url": "https://api.github.com/repos/alecthomas/pawk/comments{/number}",
    "commits_url": "https://api.github.com/repos/alecthomas/pawk/commits{/sha}",
    "compare_url": "https://api.github.com/repos/alecthomas/pawk/compare/{base}...{head}",
    "contents_url": "https://api.github.com/repos/alecthomas/pawk/contents/{+path}",
    "contributors_url": "https://api.github.com/repos/alecthomas/pawk/contributors",
    "created_at": "2013-02-09T23:48:22Z",
    "default_branch": "master",
    "description": "PAWK - A Python line processor (like AWK)",
    "downloads_url": "https://api.github.com/repos/alecthomas/pawk/downloads",
    "events_url": "https://api.github.com/repos/alecthomas/pawk/events",
    "fork": false,
    "forks": 18,
    "forks_count": 18,
    "forks_url": "https://api.github.com/repos/alecthomas/pawk/forks",
    "full_name": "alecthomas/pawk",
    "git_commits_url": "https://api.github.com/repos/alecthomas/pawk/git/commits{/sha}",
    "git_refs_url": "https://api.github.com/repos/alecthomas/pawk/git/refs{/sha}",
    "git_tags_url": "https://api.github.com/repos/alecthomas/pawk/git/tags{/sha}",
    "git_url": "git://github.com/alecthomas/pawk.git",
    "has_downloads": true,
    "has_issues": true,
    "has_wiki": true,
    "homepage": null,
    "hooks_url": "https://api.github.com/repos/alecthomas/pawk/hooks",
    "html_url": "https://github.com/alecthomas/pawk",
    "id": 8116879,
    "issue_comment_url": "https://api.github.com/repos/alecthomas/pawk/issues/comments/{number}",
    "issue_events_url": "https://api.github.com/repos/alecthomas/pawk/issues/events{/number}",
    "issues_url": "https://api.github.com/repos/alecthomas/pawk/issues{/number}",
    "keys_url": "https://api.github.com/repos/alecthomas/pawk/keys{/key_id}",
    "labels_url": "https://api.github.com/repos/alecthomas/pawk/labels{/name}",
    "language": "Python",
    "languages_url": "https://api.github.com/repos/alecthomas/pawk/languages",
    "merges_url": "https://api.github.com/repos/alecthomas/pawk/merges",
    "milestones_url": "https://api.github.com/repos/alecthomas/pawk/milestones{/number}",
    "mirror_url": null,
    "name": "pawk",
    "notifications_url": "https://api.github.com/repos/alecthomas/pawk/notifications{?since,all,participating}",
    "open_issues": 0,
    "open_issues_count": 0,
    "owner": {
        "avatar_url": "https://avatars.githubusercontent.com/u/41767?",
        "events_url": "https://api.github.com/users/alecthomas/events{/privacy}",
        "followers_url": "https://api.github.com/users/alecthomas/followers",
        "following_url": "https://api.github.com/users/alecthomas/following{/other_user}",
        "gists_url": "https://api.github.com/users/alecthomas/gists{/gist_id}",
        "gravatar_id": "65b42c59ffe8d671459604f0f32f7a30",
        "html_url": "https://github.com/alecthomas",
        "id": 41767,
        "login": "alecthomas",
        "organizations_url": "https://api.github.com/users/alecthomas/orgs",
        "received_events_url": "https://api.github.com/users/alecthomas/received_events",
        "repos_url": "https://api.github.com/users/alecthomas/repos",
        "site_admin": false,
        "starred_url": "https://api.github.com/users/alecthomas/starred{/owner}{/repo}",
        "subscriptions_url": "https://api.github.com/users/alecthomas/subscriptions",
        "type": "User",
        "url": "https://api.github.com/users/alecthomas"
    },
    "private": false,
    "pulls_url": "https://api.github.com/repos/alecthomas/pawk/pulls{/number}",
    "pushed_at": "2014-02-20T12:10:35Z",
    "releases_url": "https://api.github.com/repos/alecthomas/pawk/releases{/id}",
    "score": 1.0,
    "size": 201,
    "ssh_url": "git@github.com:alecthomas/pawk.git",
    "stargazers_count": 283,
    "stargazers_url": "https://api.github.com/repos/alecthomas/pawk/stargazers",
    "statuses_url": "https://api.github.com/repos/alecthomas/pawk/statuses/{sha}",
    "subscribers_url": "https://api.github.com/repos/alecthomas/pawk/subscribers",
    "subscription_url": "https://api.github.com/repos/alecthomas/pawk/subscription",
    "svn_url": "https://github.com/alecthomas/pawk",
    "tags_url": "https://api.github.com/repos/alecthomas/pawk/tags",
    "teams_url": "https://api.github.com/repos/alecthomas/pawk/teams",
    "trees_url": "https://api.github.com/repos/alecthomas/pawk/git/trees{/sha}",
    "updated_at": "2014-05-02T17:12:40Z",
    "url": "https://api.github.com/repos/alecthomas/pawk",
    "watchers": 283,
    "watchers_count": 283
}