{
    "archive_url": "https://api.github.com/repos/mfenniak/pg8000/{archive_format}{/ref}",
    "assignees_url": "https://api.github.com/repos/mfenniak/pg8000/assignees{/user}",
    "blobs_url": "https://api.github.com/repos/mfenniak/pg8000/git/blobs{/sha}",
    "branches_url": "https://api.github.com/repos/mfenniak/pg8000/branches{/branch}",
    "clone_url": "https://github.com/mfenniak/pg8000.git",
    "collaborators_url": "https://api.github.com/repos/mfenniak/pg8000/collaborators{/collaborator}",
    "comments_url": "https://api.github.com/repos/mfenniak/pg8000/comments{/number}",
    "commits_url": "https://api.github.com/repos/mfenniak/pg8000/commits{/sha}",
    "compare_url": "https://api.github.com/repos/mfenniak/pg8000/compare/{base}...{head}",
    "contents_url": "https://api.github.com/repos/mfenniak/pg8000/contents/{+path}",
    "contributors_url": "https://api.github.com/repos/mfenniak/pg8000/contributors",
    "created_at": "2009-10-08T02:20:50Z",
    "default_branch": "master",
    "description": "A Pure-Python PostgreSQL Driver",
    "downloads_url": "https://api.github.com/repos/mfenniak/pg8000/downloads",
    "events_url": "https://api.github.com/repos/mfenniak/pg8000/events",
    "fork": false,
    "forks": 15,
    "forks_count": 15,
    "forks_url": "https://api.github.com/repos/mfenniak/pg8000/forks",
    "full_name": "mfenniak/pg8000",
    "git_commits_url": "https://api.github.com/repos/mfenniak/pg8000/git/commits{/sha}",
    "git_refs_url": "https://api.github.com/repos/mfenniak/pg8000/git/refs{/sha}",
    "git_tags_url": "https://api.github.com/repos/mfenniak/pg8000/git/tags{/sha}",
    "git_url": "git://github.com/mfenniak/pg8000.git",
    "has_downloads": true,
    "has_issues": true,
    "has_wiki": true,
    "homepage": "http://pythonhosted.org/pg8000/",
    "hooks_url": "https://api.github.com/repos/mfenniak/pg8000/hooks",
    "html_url": "https://github.com/mfenniak/pg8000",
    "id": 330505,
    "issue_comment_url": "https://api.github.com/repos/mfenniak/pg8000/issues/comments/{number}",
    "issue_events_url": "https://api.github.com/repos/mfenniak/pg8000/issues/events{/number}",
    "issues_url": "https://api.github.com/repos/mfenniak/pg8000/issues{/number}",
    "keys_url": "https://api.github.com/repos/mfenniak/pg8000/keys{/key_id}",
    "labels_url": "https://api.github.com/repos/mfenniak/pg8000/labels{/name}",
    "language": "Python",
    "languages_url": "https://api.github.com/repos/mfenniak/pg8000/languages",
    "merges_url": "https://api.github.com/repos/mfenniak/pg8000/merges",
    "milestones_url": "https://api.github.com/repos/mfenniak/pg8000/milestones{/number}",
    "mirror_url": null,
    "name": "pg8000",
    "notifications_url": "https://api.github.com/repos/mfenniak/pg8000/notifications{?since,all,participating}",
    "open_issues": 2,
    "open_issues_count": 2,
    "owner": {
        "avatar_url": "https://avatars.githubusercontent.com/u/91093?",
        "events_url": "https://api.github.com/users/mfenniak/events{/privacy}",
        "followers_url": "https://api.github.com/users/mfenniak/followers",
        "following_url": "https://api.github.com/users/mfenniak/following{/other_user}",
        "gists_url": "https://api.github.com/users/mfenniak/gists{/gist_id}",
        "gravatar_id": "4dbde6e8b5b0932957db2ecc90177b81",
        "html_url": "https://github.com/mfenniak",
        "id": 91093,
        "login": "mfenniak",
        "organizations_url": "https://api.github.com/users/mfenniak/orgs",
        "received_events_url": "https://api.github.com/users/mfenniak/received_events",
        "repos_url": "https://api.github.com/users/mfenniak/repos",
        "site_admin": false,
        "starred_url": "https://api.github.com/users/mfenniak/starred{/owner}{/repo}",
        "subscriptions_url": "https://api.github.com/users/mfenniak/subscriptions",
        "type": "User",
        "url": "https://api.github.com/users/mfenniak"
    },
    "private": false,
    "pulls_url": "https://api.github.com/repos/mfenniak/pg8000/pulls{/number}",
    "pushed_at": "2014-05-05T12:47:51Z",
    "releases_url": "https://api.github.com/repos/mfenniak/pg8000/releases{/id}",
    "score": 1.0,
    "size": 1532,
    "ssh_url": "git@github.com:mfenniak/pg8000.git",
    "stargazers_count": 50,
    "stargazers_url": "https://api.github.com/repos/mfenniak/pg8000/stargazers",
    "statuses_url": "https://api.github.com/repos/mfenniak/pg8000/statuses/{sha}",
    "subscribers_url": "https://api.github.com/repos/mfenniak/pg8000/subscribers",
    "subscription_url": "https://api.github.com/repos/mfenniak/pg8000/subscription",
    "svn_url": "https://github.com/mfenniak/pg8000",
    "tags_url": "https://api.github.com/repos/mfenniak/pg8000/tags",
    "teams_url": "https://api.github.com/repos/mfenniak/pg8000/teams",
    "trees_url": "https://api.github.com/repos/mfenniak/pg8000/git/trees{/sha}",
    "updated_at": "2014-05-05T12:47:51Z",
    "url": "https://api.github.com/repos/mfenniak/pg8000",
    "watchers": 50,
    "watchers_count": 50
}