[
    "Sublime Text.site-packages.dulwich.patch",
    "tests.test_repository",
    "protocol",
    "Sublime Text.site-packages.dulwich.tests.test_hooks",
    "hooks",
    "site-packages.dulwich.hooks",
    "Sublime Text.site-packages.dulwich.errors",
    "tests.test_hooks",
    "site-packages.dulwich.tests",
    "tests.test_patch",
    "Sublime Text",
    "web",
    "dulwich.client",
    "tests.test_config",
    "site-packages.dulwich.patch",
    "site-packages.dulwich.fastexport",
    "dulwich.tests.test_repository",
    "Sublime Text.site-packages.dulwich.file",
    "site-packages.dulwich.pack",
    "tests.test_missing_obj_finder",
    "dulwich.patch",
    "dulwich.repo",
    "tests",
    "dulwich.tests.test_file",
    "Sublime Text.site-packages.dulwich.tests.test_missing_obj_finder",
    "tests.test_object_store",
    "dulwich.tests.test_server",
    "autogit",
    "site-packages.dulwich.repo",
    "Sublime Text.site-packages",
    "repo",
    "Sublime Text.site-packages.dulwich.walk",
    "site-packages.dulwich.tests.test_fastexport",
    "walk",
    "tests.test_fastexport",
    "dulwich.index",
    "site-packages.dulwich.tests.test_client",
    "test_utils",
    "dulwich",
    "dulwich.tests.test_walk",
    "server",
    "site-packages.dulwich.tests.test_missing_obj_finder",
    "dulwich.tests.test_protocol",
    "Sublime Text.site-packages.dulwich.diff_tree",
    "dulwich.tests.test_patch",
    "log_utils",
    "dulwich.tests.test_client",
    "site-packages.dulwich.protocol",
    "Sublime Text.site-packages.dulwich.tests.test_index",
    "Sublime Text.site-packages.dulwich.index",
    "Sublime Text.site-packages.dulwich.tests.test_pack",
    "Sublime Text.site-packages.dulwich.tests.test_fastexport",
    "test_objects",
    "pack",
    "Sublime Text.site-packages.dulwich.tests.test_client",
    "dulwich.tests.test_utils",
    "dulwich.file",
    "Sublime Text.site-packages.dulwich.tests",
    "patch",
    "site-packages.dulwich.tests.test_blackbox",
    "tests.test_blackbox",
    "dulwich.walk",
    "Sublime Text.site-packages.dulwich.client",
    "errors",
    "Sublime Text.site-packages.dulwich.tests.test_diff_tree",
    "site-packages.dulwich.tests.test_lru_cache",
    "site-packages.dulwich.tests.test_pack",
    "test_config",
    "site-packages.dulwich.errors",
    "test_patch",
    "Sublime Text.site-packages.dulwich.object_store",
    "Sublime Text.site-packages.dulwich.repo",
    "tests.utils",
    "site-packages.dulwich.walk",
    "diff_tree",
    "dulwich._compat",
    "Sublime Text.site-packages.dulwich.tests.test_utils",
    "dulwich.tests.test_blackbox",
    "site-packages.dulwich.tests.test_server",
    "Sublime Text.site-packages.dulwich.tests.utils",
    "dulwich.tests.test_pack",
    "dulwich.lru_cache",
    "site-packages.dulwich.tests.test_diff_tree",
    "site-packages.dulwich.tests.test_hooks",
    "objects",
    "Sublime Text.site-packages.dulwich.tests.test_web",
    "dulwich.tests.test_missing_obj_finder",
    "Sublime Text.site-packages.dulwich.log_utils",
    "site-packages.dulwich.file",
    "dulwich.server",
    "Sublime Text.site-packages.dulwich.tests.test_patch",
    "dulwich.objects",
    "dulwich.web",
    "site-packages.dulwich.tests.test_object_store",
    "tests.test_file",
    "Sublime Text.site-packages.dulwich._compat",
    "fastexport",
    "site-packages.dulwich.client",
    "test_diff_tree",
    "dulwich.config",
    "site-packages.dulwich.tests.test_index",
    "dulwich.tests.test_fastexport",
    "site-packages.dulwich.object_store",
    "site-packages.dulwich.tests.test_file",
    "dulwich.tests.test_config",
    "Sublime Text.site-packages.dulwich.pack",
    "Sublime Text.site-packages.dulwich.lru_cache",
    "site-packages.dulwich.log_utils",
    "dulwich.tests.test_diff_tree",
    "Sublime Text.site-packages.dulwich.tests.test_protocol",
    "dulwich.errors",
    "site-packages.dulwich.web",
    "dulwich.tests.test_hooks",
    "site-packages.dulwich.server",
    "site-packages.dulwich.tests.test_walk",
    "dulwich.hooks",
    "Sublime Text.site-packages.dulwich.hooks",
    "Sublime Text.site-packages.dulwich.objects",
    "Sublime Text.autogit",
    "site-packages.dulwich.tests.test_patch",
    "test_client",
    "Sublime Text.site-packages.dulwich.web",
    "Sublime Text.site-packages.dulwich.tests.test_object_store",
    "object_store",
    "dulwich.log_utils",
    "site-packages.dulwich.tests.test_utils",
    "Sublime Text.site-packages.dulwich.server",
    "dulwich.tests.test_index",
    "test_repository",
    "test_object_store",
    "site-packages.dulwich.diff_tree",
    "tests.test_index",
    "site-packages.dulwich.tests.test_config",
    "dulwich.tests.test_objects",
    "dulwich.object_store",
    "site-packages.dulwich.lru_cache",
    "tests.test_lru_cache",
    "tests.test_utils",
    "Sublime Text.site-packages.dulwich.tests.test_blackbox",
    "site-packages.dulwich.tests.utils",
    "test_web",
    "lru_cache",
    "test_blackbox",
    "dulwich.tests.utils",
    "Sublime Text.site-packages.dulwich.fastexport",
    "tests.test_protocol",
    "dulwich.fastexport",
    "utils",
    "Sublime Text.site-packages.dulwich.tests.test_walk",
    "test_hooks",
    "tests.test_objects",
    "tests.test_web",
    "test_fastexport",
    "test_index",
    "file",
    "Sublime Text.site-packages.dulwich.tests.test_server",
    "test_file",
    "Sublime Text.site-packages.dulwich.tests.test_config",
    "Sublime Text.site-packages.dulwich.config",
    "dulwich.pack",
    "site-packages.dulwich.tests.test_objects",
    "test_missing_obj_finder",
    "dulwich.tests.test_object_store",
    "Sublime Text.site-packages.dulwich.tests.test_objects",
    "test_protocol",
    "tests.test_server",
    "Sublime Text.site-packages.dulwich.tests.test_file",
    "dulwich.diff_tree",
    "site-packages.dulwich._compat",
    "config",
    "test_pack",
    "tests.test_diff_tree",
    "dulwich.tests.test_lru_cache",
    "Sublime Text.site-packages.dulwich",
    "site-packages.dulwich.tests.test_web",
    "index",
    "Sublime Text.site-packages.dulwich.tests.test_repository",
    "test_walk",
    "site-packages.dulwich.objects",
    "Sublime Text.site-packages.dulwich.tests.test_lru_cache",
    "dulwich.tests.test_web",
    "test_lru_cache",
    "tests.test_walk",
    "site-packages.dulwich",
    "Sublime Text.site-packages.dulwich.protocol",
    "site-packages.dulwich.index",
    "tests.test_pack",
    "_compat",
    "site-packages.dulwich.tests.test_protocol",
    "site-packages.dulwich.tests.test_repository",
    "dulwich.protocol",
    "dulwich.tests",
    "client",
    "site-packages",
    "test_server",
    "tests.test_client",
    "site-packages.dulwich.config"
]