[
    "tests.tests",
    "tests",
    "debug_toolbar_htmltidy.tests.urls",
    "models",
    "example_htmltidy",
    "manage",
    "debug_toolbar_htmltidy.models",
    "example_htmltidy.settings",
    "debug_toolbar_htmltidy",
    "debug_toolbar_htmltidy.views",
    "debug_toolbar_htmltidy.panels",
    "settings",
    "debug_toolbar_htmltidy.tests.tests",
    "views",
    "debug_toolbar_htmltidy.urls",
    "debug_toolbar_htmltidy.tests",
    "example_htmltidy.views",
    "debug_toolbar_htmltidy.runtests",
    "urls",
    "example_htmltidy.models",
    "example_htmltidy.manage",
    "panels",
    "example_htmltidy.urls",
    "tests.urls",
    "runtests"
]