{
    "libs": [
        "ioloop",
        "web",
        "heapq",
        "b",
        "logging",
        "socket",
        "simplejson",
        "h",
        "random",
        "urllib",
        "datetime",
        "sys",
        "json",
        "collections",
        "parse",
        "time",
        "os",
        "math"
    ]
}