{
    "archive_url": "https://api.github.com/repos/mrjoes/sockjs-tornado/{archive_format}{/ref}",
    "assignees_url": "https://api.github.com/repos/mrjoes/sockjs-tornado/assignees{/user}",
    "blobs_url": "https://api.github.com/repos/mrjoes/sockjs-tornado/git/blobs{/sha}",
    "branches_url": "https://api.github.com/repos/mrjoes/sockjs-tornado/branches{/branch}",
    "clone_url": "https://github.com/mrjoes/sockjs-tornado.git",
    "collaborators_url": "https://api.github.com/repos/mrjoes/sockjs-tornado/collaborators{/collaborator}",
    "comments_url": "https://api.github.com/repos/mrjoes/sockjs-tornado/comments{/number}",
    "commits_url": "https://api.github.com/repos/mrjoes/sockjs-tornado/commits{/sha}",
    "compare_url": "https://api.github.com/repos/mrjoes/sockjs-tornado/compare/{base}...{head}",
    "contents_url": "https://api.github.com/repos/mrjoes/sockjs-tornado/contents/{+path}",
    "contributors_url": "https://api.github.com/repos/mrjoes/sockjs-tornado/contributors",
    "created_at": "2011-12-06T20:41:39Z",
    "default_branch": "master",
    "description": "WebSocket emulation - Python server",
    "downloads_url": "https://api.github.com/repos/mrjoes/sockjs-tornado/downloads",
    "events_url": "https://api.github.com/repos/mrjoes/sockjs-tornado/events",
    "fork": false,
    "forks": 65,
    "forks_count": 65,
    "forks_url": "https://api.github.com/repos/mrjoes/sockjs-tornado/forks",
    "full_name": "mrjoes/sockjs-tornado",
    "git_commits_url": "https://api.github.com/repos/mrjoes/sockjs-tornado/git/commits{/sha}",
    "git_refs_url": "https://api.github.com/repos/mrjoes/sockjs-tornado/git/refs{/sha}",
    "git_tags_url": "https://api.github.com/repos/mrjoes/sockjs-tornado/git/tags{/sha}",
    "git_url": "git://github.com/mrjoes/sockjs-tornado.git",
    "has_downloads": true,
    "has_issues": true,
    "has_wiki": true,
    "homepage": "",
    "hooks_url": "https://api.github.com/repos/mrjoes/sockjs-tornado/hooks",
    "html_url": "https://github.com/mrjoes/sockjs-tornado",
    "id": 2927833,
    "issue_comment_url": "https://api.github.com/repos/mrjoes/sockjs-tornado/issues/comments/{number}",
    "issue_events_url": "https://api.github.com/repos/mrjoes/sockjs-tornado/issues/events{/number}",
    "issues_url": "https://api.github.com/repos/mrjoes/sockjs-tornado/issues{/number}",
    "keys_url": "https://api.github.com/repos/mrjoes/sockjs-tornado/keys{/key_id}",
    "labels_url": "https://api.github.com/repos/mrjoes/sockjs-tornado/labels{/name}",
    "language": "Python",
    "languages_url": "https://api.github.com/repos/mrjoes/sockjs-tornado/languages",
    "merges_url": "https://api.github.com/repos/mrjoes/sockjs-tornado/merges",
    "milestones_url": "https://api.github.com/repos/mrjoes/sockjs-tornado/milestones{/number}",
    "mirror_url": null,
    "name": "sockjs-tornado",
    "notifications_url": "https://api.github.com/repos/mrjoes/sockjs-tornado/notifications{?since,all,participating}",
    "open_issues": 11,
    "open_issues_count": 11,
    "owner": {
        "avatar_url": "https://avatars.githubusercontent.com/u/179880?",
        "events_url": "https://api.github.com/users/mrjoes/events{/privacy}",
        "followers_url": "https://api.github.com/users/mrjoes/followers",
        "following_url": "https://api.github.com/users/mrjoes/following{/other_user}",
        "gists_url": "https://api.github.com/users/mrjoes/gists{/gist_id}",
        "gravatar_id": "495fa98e6767ef3497fb56edb1b8d46a",
        "html_url": "https://github.com/mrjoes",
        "id": 179880,
        "login": "mrjoes",
        "organizations_url": "https://api.github.com/users/mrjoes/orgs",
        "received_events_url": "https://api.github.com/users/mrjoes/received_events",
        "repos_url": "https://api.github.com/users/mrjoes/repos",
        "site_admin": false,
        "starred_url": "https://api.github.com/users/mrjoes/starred{/owner}{/repo}",
        "subscriptions_url": "https://api.github.com/users/mrjoes/subscriptions",
        "type": "User",
        "url": "https://api.github.com/users/mrjoes"
    },
    "private": false,
    "pulls_url": "https://api.github.com/repos/mrjoes/sockjs-tornado/pulls{/number}",
    "pushed_at": "2014-02-23T08:50:38Z",
    "releases_url": "https://api.github.com/repos/mrjoes/sockjs-tornado/releases{/id}",
    "score": 1.0,
    "size": 384,
    "ssh_url": "git@github.com:mrjoes/sockjs-tornado.git",
    "stargazers_count": 430,
    "stargazers_url": "https://api.github.com/repos/mrjoes/sockjs-tornado/stargazers",
    "statuses_url": "https://api.github.com/repos/mrjoes/sockjs-tornado/statuses/{sha}",
    "subscribers_url": "https://api.github.com/repos/mrjoes/sockjs-tornado/subscribers",
    "subscription_url": "https://api.github.com/repos/mrjoes/sockjs-tornado/subscription",
    "svn_url": "https://github.com/mrjoes/sockjs-tornado",
    "tags_url": "https://api.github.com/repos/mrjoes/sockjs-tornado/tags",
    "teams_url": "https://api.github.com/repos/mrjoes/sockjs-tornado/teams",
    "trees_url": "https://api.github.com/repos/mrjoes/sockjs-tornado/git/trees{/sha}",
    "updated_at": "2014-05-05T11:33:39Z",
    "url": "https://api.github.com/repos/mrjoes/sockjs-tornado",
    "watchers": 430,
    "watchers_count": 430
}