{
    "archive_url": "https://api.github.com/repos/kakkyz81/evervim/{archive_format}{/ref}",
    "assignees_url": "https://api.github.com/repos/kakkyz81/evervim/assignees{/user}",
    "blobs_url": "https://api.github.com/repos/kakkyz81/evervim/git/blobs{/sha}",
    "branches_url": "https://api.github.com/repos/kakkyz81/evervim/branches{/branch}",
    "clone_url": "https://github.com/kakkyz81/evervim.git",
    "collaborators_url": "https://api.github.com/repos/kakkyz81/evervim/collaborators{/collaborator}",
    "comments_url": "https://api.github.com/repos/kakkyz81/evervim/comments{/number}",
    "commits_url": "https://api.github.com/repos/kakkyz81/evervim/commits{/sha}",
    "compare_url": "https://api.github.com/repos/kakkyz81/evervim/compare/{base}...{head}",
    "contents_url": "https://api.github.com/repos/kakkyz81/evervim/contents/{+path}",
    "contributors_url": "https://api.github.com/repos/kakkyz81/evervim/contributors",
    "created_at": "2011-05-05T12:46:20Z",
    "default_branch": "master",
    "description": "edit evernote on vim.",
    "downloads_url": "https://api.github.com/repos/kakkyz81/evervim/downloads",
    "events_url": "https://api.github.com/repos/kakkyz81/evervim/events",
    "fork": false,
    "forks": 32,
    "forks_count": 32,
    "forks_url": "https://api.github.com/repos/kakkyz81/evervim/forks",
    "full_name": "kakkyz81/evervim",
    "git_commits_url": "https://api.github.com/repos/kakkyz81/evervim/git/commits{/sha}",
    "git_refs_url": "https://api.github.com/repos/kakkyz81/evervim/git/refs{/sha}",
    "git_tags_url": "https://api.github.com/repos/kakkyz81/evervim/git/tags{/sha}",
    "git_url": "git://github.com/kakkyz81/evervim.git",
    "has_downloads": true,
    "has_issues": true,
    "has_wiki": true,
    "homepage": "",
    "hooks_url": "https://api.github.com/repos/kakkyz81/evervim/hooks",
    "html_url": "https://github.com/kakkyz81/evervim",
    "id": 1706134,
    "issue_comment_url": "https://api.github.com/repos/kakkyz81/evervim/issues/comments/{number}",
    "issue_events_url": "https://api.github.com/repos/kakkyz81/evervim/issues/events{/number}",
    "issues_url": "https://api.github.com/repos/kakkyz81/evervim/issues{/number}",
    "keys_url": "https://api.github.com/repos/kakkyz81/evervim/keys{/key_id}",
    "labels_url": "https://api.github.com/repos/kakkyz81/evervim/labels{/name}",
    "language": "Python",
    "languages_url": "https://api.github.com/repos/kakkyz81/evervim/languages",
    "merges_url": "https://api.github.com/repos/kakkyz81/evervim/merges",
    "milestones_url": "https://api.github.com/repos/kakkyz81/evervim/milestones{/number}",
    "mirror_url": null,
    "name": "evervim",
    "notifications_url": "https://api.github.com/repos/kakkyz81/evervim/notifications{?since,all,participating}",
    "open_issues": 11,
    "open_issues_count": 11,
    "owner": {
        "avatar_url": "https://avatars.githubusercontent.com/u/71936?",
        "events_url": "https://api.github.com/users/kakkyz81/events{/privacy}",
        "followers_url": "https://api.github.com/users/kakkyz81/followers",
        "following_url": "https://api.github.com/users/kakkyz81/following{/other_user}",
        "gists_url": "https://api.github.com/users/kakkyz81/gists{/gist_id}",
        "gravatar_id": "0a0047407101d3c8adf65bec6f014e53",
        "html_url": "https://github.com/kakkyz81",
        "id": 71936,
        "login": "kakkyz81",
        "organizations_url": "https://api.github.com/users/kakkyz81/orgs",
        "received_events_url": "https://api.github.com/users/kakkyz81/received_events",
        "repos_url": "https://api.github.com/users/kakkyz81/repos",
        "site_admin": false,
        "starred_url": "https://api.github.com/users/kakkyz81/starred{/owner}{/repo}",
        "subscriptions_url": "https://api.github.com/users/kakkyz81/subscriptions",
        "type": "User",
        "url": "https://api.github.com/users/kakkyz81"
    },
    "private": false,
    "pulls_url": "https://api.github.com/repos/kakkyz81/evervim/pulls{/number}",
    "pushed_at": "2014-04-06T01:49:54Z",
    "releases_url": "https://api.github.com/repos/kakkyz81/evervim/releases{/id}",
    "score": 1.0,
    "size": 688,
    "ssh_url": "git@github.com:kakkyz81/evervim.git",
    "stargazers_count": 143,
    "stargazers_url": "https://api.github.com/repos/kakkyz81/evervim/stargazers",
    "statuses_url": "https://api.github.com/repos/kakkyz81/evervim/statuses/{sha}",
    "subscribers_url": "https://api.github.com/repos/kakkyz81/evervim/subscribers",
    "subscription_url": "https://api.github.com/repos/kakkyz81/evervim/subscription",
    "svn_url": "https://github.com/kakkyz81/evervim",
    "tags_url": "https://api.github.com/repos/kakkyz81/evervim/tags",
    "teams_url": "https://api.github.com/repos/kakkyz81/evervim/teams",
    "trees_url": "https://api.github.com/repos/kakkyz81/evervim/git/trees{/sha}",
    "updated_at": "2014-05-06T16:25:22Z",
    "url": "https://api.github.com/repos/kakkyz81/evervim",
    "watchers": 143,
    "watchers_count": 143
}