{
    "libs": [
        "cStringIO",
        "Growl",
        "notifo",
        "objectid",
        "unittest",
        "random",
        "Queue",
        "__builtin__",
        "datetime",
        "parse",
        "header",
        "execnet",
        "contextlib",
        "io",
        "win32evtlog",
        "uri_parser",
        "shutil",
        "message",
        "queue",
        "errors",
        "_thread",
        "platform",
        "tempfile",
        "errno",
        "pynotify",
        "gtk",
        "redis",
        "itertools",
        "urllib",
        "re",
        "json",
        "collections",
        "kombu",
        "h",
        "couchdb",
        "jinja2",
        "smtplib",
        "zmq",
        "pymongo",
        "unittest2",
        "_speedups",
        "cgi",
        "stat",
        "sqlalchemy",
        "http",
        "simplejson",
        "warnings",
        "sys",
        "oauth2",
        "ctypes",
        "builtins",
        "subprocess",
        "print_function",
        "argparse",
        "httplib",
        "b",
        "logging",
        "socket",
        "thread",
        "pickle",
        "traceback",
        "pkg_resources",
        "weakref",
        "threading",
        "connection",
        "sha",
        "time",
        "win32evtlogutil",
        "os",
        "multiprocessing"
    ]
}