{
    "archive_url": "https://api.github.com/repos/plish/Trolly/{archive_format}{/ref}",
    "assignees_url": "https://api.github.com/repos/plish/Trolly/assignees{/user}",
    "blobs_url": "https://api.github.com/repos/plish/Trolly/git/blobs{/sha}",
    "branches_url": "https://api.github.com/repos/plish/Trolly/branches{/branch}",
    "clone_url": "https://github.com/plish/Trolly.git",
    "collaborators_url": "https://api.github.com/repos/plish/Trolly/collaborators{/collaborator}",
    "comments_url": "https://api.github.com/repos/plish/Trolly/comments{/number}",
    "commits_url": "https://api.github.com/repos/plish/Trolly/commits{/sha}",
    "compare_url": "https://api.github.com/repos/plish/Trolly/compare/{base}...{head}",
    "contents_url": "https://api.github.com/repos/plish/Trolly/contents/{+path}",
    "contributors_url": "https://api.github.com/repos/plish/Trolly/contributors",
    "created_at": "2012-11-14T22:52:32Z",
    "default_branch": "master",
    "description": "A Python wrapper around the Trello API. Provides a group of Python classes to represent Trello Objects. All classes come with basic Trello API method calls and are easily extensible to suit your needs. See the README for more details.",
    "downloads_url": "https://api.github.com/repos/plish/Trolly/downloads",
    "events_url": "https://api.github.com/repos/plish/Trolly/events",
    "fork": false,
    "forks": 18,
    "forks_count": 18,
    "forks_url": "https://api.github.com/repos/plish/Trolly/forks",
    "full_name": "plish/Trolly",
    "git_commits_url": "https://api.github.com/repos/plish/Trolly/git/commits{/sha}",
    "git_refs_url": "https://api.github.com/repos/plish/Trolly/git/refs{/sha}",
    "git_tags_url": "https://api.github.com/repos/plish/Trolly/git/tags{/sha}",
    "git_url": "git://github.com/plish/Trolly.git",
    "has_downloads": true,
    "has_issues": true,
    "has_wiki": true,
    "homepage": "",
    "hooks_url": "https://api.github.com/repos/plish/Trolly/hooks",
    "html_url": "https://github.com/plish/Trolly",
    "id": 6696313,
    "issue_comment_url": "https://api.github.com/repos/plish/Trolly/issues/comments/{number}",
    "issue_events_url": "https://api.github.com/repos/plish/Trolly/issues/events{/number}",
    "issues_url": "https://api.github.com/repos/plish/Trolly/issues{/number}",
    "keys_url": "https://api.github.com/repos/plish/Trolly/keys{/key_id}",
    "labels_url": "https://api.github.com/repos/plish/Trolly/labels{/name}",
    "language": "Python",
    "languages_url": "https://api.github.com/repos/plish/Trolly/languages",
    "merges_url": "https://api.github.com/repos/plish/Trolly/merges",
    "milestones_url": "https://api.github.com/repos/plish/Trolly/milestones{/number}",
    "mirror_url": null,
    "name": "Trolly",
    "notifications_url": "https://api.github.com/repos/plish/Trolly/notifications{?since,all,participating}",
    "open_issues": 1,
    "open_issues_count": 1,
    "owner": {
        "avatar_url": "https://avatars.githubusercontent.com/u/1016498?",
        "events_url": "https://api.github.com/users/plish/events{/privacy}",
        "followers_url": "https://api.github.com/users/plish/followers",
        "following_url": "https://api.github.com/users/plish/following{/other_user}",
        "gists_url": "https://api.github.com/users/plish/gists{/gist_id}",
        "gravatar_id": "34840aa2414a54075136c5603dff8fd4",
        "html_url": "https://github.com/plish",
        "id": 1016498,
        "login": "plish",
        "organizations_url": "https://api.github.com/users/plish/orgs",
        "received_events_url": "https://api.github.com/users/plish/received_events",
        "repos_url": "https://api.github.com/users/plish/repos",
        "site_admin": false,
        "starred_url": "https://api.github.com/users/plish/starred{/owner}{/repo}",
        "subscriptions_url": "https://api.github.com/users/plish/subscriptions",
        "type": "User",
        "url": "https://api.github.com/users/plish"
    },
    "private": false,
    "pulls_url": "https://api.github.com/repos/plish/Trolly/pulls{/number}",
    "pushed_at": "2014-04-02T07:51:37Z",
    "releases_url": "https://api.github.com/repos/plish/Trolly/releases{/id}",
    "score": 1.0,
    "size": 323,
    "ssh_url": "git@github.com:plish/Trolly.git",
    "stargazers_count": 40,
    "stargazers_url": "https://api.github.com/repos/plish/Trolly/stargazers",
    "statuses_url": "https://api.github.com/repos/plish/Trolly/statuses/{sha}",
    "subscribers_url": "https://api.github.com/repos/plish/Trolly/subscribers",
    "subscription_url": "https://api.github.com/repos/plish/Trolly/subscription",
    "svn_url": "https://github.com/plish/Trolly",
    "tags_url": "https://api.github.com/repos/plish/Trolly/tags",
    "teams_url": "https://api.github.com/repos/plish/Trolly/teams",
    "trees_url": "https://api.github.com/repos/plish/Trolly/git/trees{/sha}",
    "updated_at": "2014-05-01T11:14:54Z",
    "url": "https://api.github.com/repos/plish/Trolly",
    "watchers": 40,
    "watchers_count": 40
}