{
    "libs": [
        "cgi",
        "sys",
        "logging",
        "simplejson",
        "webob",
        "unittest",
        "urllib",
        "util",
        "ext",
        "api",
        "template",
        "time",
        "webapp",
        "os"
    ]
}