[
    "lang.areference",
    "tests.persistentlist_tests",
    "lang.itransientassociative",
    "clojure.lang.cons",
    "ipersistentvector",
    "areference",
    "itransientassociative",
    "persistenthashmap",
    "clojure.lang.aref",
    "lang.ipersistentvector",
    "lang.rt",
    "clojure.lang.sequential",
    "lockingtransaction",
    "ihasheq",
    "lang.persistentarraymap",
    "clojure.lang.linenumberingtextreader",
    "clojure.lang.persistentvector",
    "util",
    "ipersistentstack",
    "repl",
    "amapentry",
    "clojure.lang.fileseq",
    "lang.aseq",
    "compiler",
    "lang.atom",
    "clojure.lang.ihasheq",
    "tests.bootstrap-clj-tests",
    "persistentvector",
    "clojure.lang.ipersistentmap",
    "lang.ifn",
    "lang.persistenthashset",
    "lang.persistentvector",
    "tests.threaded-transaction-tests",
    "lang.ref",
    "lang.iprintable",
    "apersistentset",
    "freeze",
    "settable",
    "clojure.lang.rt",
    "clojure.lang.ifn",
    "clojure.lang.ipersistentlist",
    "sequential",
    "util.freeze",
    "seqable",
    "lang.indexableseq",
    "bootstrap-clj-tests",
    "lang.amapentry",
    "cljkeyword",
    "clojure.lang.cljkeyword",
    "threadutil",
    "clojure.lang.ipersistentset",
    "itransientmap",
    "lang.apersistentset",
    "lang.cljexceptions",
    "cons_tests",
    "lang.counted",
    "tests.emptylist_tests",
    "lang.ipersistentset",
    "box",
    "clojure.lang.seqable",
    "lang.multimethod",
    "lang.iseq",
    "apersistentmap",
    "tests.cons_tests",
    "lang.named",
    "lang.gmp",
    "lang.atomicreference",
    "clojure.lang.atransientmap",
    "persistenttreemap-tests",
    "pytypes",
    "clojure.util.freeze",
    "lang.cljkeyword",
    "named",
    "globals",
    "lang.sequential",
    "clojure.lang.lockingtransaction",
    "iterable",
    "lang.persistenttreemap",
    "clojure.lang.iterable",
    "symbol",
    "clojure.lang.mapentry",
    "lang.mapentry",
    "clojure.lang.persistentarraymap",
    "linenumberingtextreader",
    "tests.persistenttreemap-tests",
    "reversible",
    "rpython",
    "clojure.lang.imeta",
    "lang.apersistentmap",
    "gmp",
    "comparator",
    "lang.iref",
    "clojure.lang.named",
    "clojure.lang.reversible",
    "persistenthashset",
    "iobj",
    "clojure.lang.iobj",
    "persistentarraymap",
    "cons",
    "clojure.lang.atom",
    "clojure.lang.ireference",
    "iseq",
    "clojure.lang.ilookup",
    "rpython.bootstrap",
    "emptylist_tests",
    "clojure.lang.iref",
    "lang.itransientmap",
    "clojure.lang.symbol",
    "clojure.lang.persistenthashset",
    "itransientcollection",
    "clojure.lang.counted",
    "namespace",
    "clojure.lang.aseq",
    "reader-tests",
    "lang.protocol",
    "clojure.lang.indexableseq",
    "lang.comparator",
    "ilookup",
    "lang.apersistentvector",
    "iref",
    "atomicreference",
    "iprintable",
    "lang.seqable",
    "lang.obj",
    "bootstrap",
    "clojure.lang.gmp",
    "lang.itransientcollection",
    "ipersistentset",
    "lang.indexed",
    "clojure.util.shared_lock",
    "counted",
    "lang.aref",
    "clojure.lang.ideref",
    "mapentry",
    "protocol",
    "clojure.lang.compiler",
    "lang.lockingtransaction",
    "tests.new_style_class_audit",
    "ipersistentcollection",
    "lang.ieditablecollection",
    "lang.atransientmap",
    "clojure.lang.threadutil",
    "clojure.lang.util",
    "lang.persistentlist",
    "persistentlist_tests",
    "lang.util",
    "clojure.lang.settable",
    "main",
    "tests",
    "persistentlist",
    "factorial",
    "lang.fileseq",
    "clojure.lang.atomicreference",
    "persistentvector_tests",
    "lang.imeta",
    "examples.factorial",
    "indexableseq",
    "clojure.lang.globals",
    "tests.reader-tests",
    "clojure.lang.itransientcollection",
    "lang.linenumberingtextreader",
    "ifn",
    "tests.mapentry_tests",
    "associative",
    "clojure.lang.comparator",
    "clojure.lang.associative",
    "imeta",
    "clojure.lang.persistentlist",
    "clojure.lang.var",
    "clojure.lang.apersistentset",
    "threaded-transaction-tests",
    "examples",
    "lang.ihasheq",
    "rt",
    "lang.ipersistentcollection",
    "lang.persistenthashmap",
    "ireduce",
    "clojure.repl",
    "clojure.lang.apersistentmap",
    "lang.cons",
    "persistenthashset_tests",
    "clojure.lang.ipersistentvector",
    "ipersistentlist",
    "mapentry_tests",
    "tests.protocol-tests",
    "ref",
    "lang.threadutil",
    "lang.associative",
    "fileseq",
    "clojure.lang.pytypes",
    "clojure.util",
    "clojure.lang.ipersistentstack",
    "clojure.lang.ireduce",
    "clojure.lang.iprintable",
    "obj",
    "clojure.lang.itransientmap",
    "byteplay",
    "clojure.lang.lispreader",
    "clojure",
    "lang.ipersistentmap",
    "clojure.lang.iseq",
    "lang.ilookup",
    "lang.ireference",
    "clojure.standardimports",
    "util.byteplay",
    "aref",
    "ideref",
    "clojure.lang.apersistentvector",
    "lang.iobj",
    "shared_lock",
    "clojure.lang.multimethod",
    "tests.ref-tests",
    "var",
    "persistenttreemap",
    "clojure.util.byteplay",
    "ipersistentmap",
    "examples.rpython",
    "atransientmap",
    "clojure.lang.ref",
    "tests.persistentvector_tests",
    "clojure.lang.itransientassociative",
    "lang.symbol",
    "tests.subvec_tests",
    "lang.ipersistentlist",
    "clojure.lang.amapentry",
    "atom",
    "clojure.lang",
    "multimethod",
    "lang.iterable",
    "lispreader",
    "lang.pytypes",
    "lang.reversible",
    "lang.lispreader",
    "clojure.main",
    "ref-tests",
    "lang.ireduce",
    "lang.ideref",
    "tests.persistenthashset_tests",
    "protocol-tests",
    "clojure.lang.areference",
    "lang.ipersistentstack",
    "cljexceptions",
    "clojure.lang.namespace",
    "clojure.lang.obj",
    "standardimports",
    "lang.namespace",
    "lang.var",
    "subvec_tests",
    "apersistentvector",
    "indexed",
    "clojure.lang.ipersistentcollection",
    "clojure.lang.persistenthashmap",
    "clojure.lang.box",
    "lang.compiler",
    "aseq",
    "examples.rpython.bootstrap",
    "clojure.lang.indexed",
    "util.shared_lock",
    "lang.settable",
    "ieditablecollection",
    "new_style_class_audit",
    "lang.globals",
    "lang",
    "clojure.lang.persistenttreemap",
    "ireference",
    "clojure.lang.ieditablecollection",
    "clojure.lang.cljexceptions",
    "lang.box",
    "clojure.lang.protocol"
]