{
    "archive_url": "https://api.github.com/repos/feross/SpoofMAC/{archive_format}{/ref}",
    "assignees_url": "https://api.github.com/repos/feross/SpoofMAC/assignees{/user}",
    "blobs_url": "https://api.github.com/repos/feross/SpoofMAC/git/blobs{/sha}",
    "branches_url": "https://api.github.com/repos/feross/SpoofMAC/branches{/branch}",
    "clone_url": "https://github.com/feross/SpoofMAC.git",
    "collaborators_url": "https://api.github.com/repos/feross/SpoofMAC/collaborators{/collaborator}",
    "comments_url": "https://api.github.com/repos/feross/SpoofMAC/comments{/number}",
    "commits_url": "https://api.github.com/repos/feross/SpoofMAC/commits{/sha}",
    "compare_url": "https://api.github.com/repos/feross/SpoofMAC/compare/{base}...{head}",
    "contents_url": "https://api.github.com/repos/feross/SpoofMAC/contents/{+path}",
    "contributors_url": "https://api.github.com/repos/feross/SpoofMAC/contributors",
    "created_at": "2011-08-31T08:43:43Z",
    "default_branch": "master",
    "description": "Easily spoof your MAC address (OS X, Windows, Linux)",
    "downloads_url": "https://api.github.com/repos/feross/SpoofMAC/downloads",
    "events_url": "https://api.github.com/repos/feross/SpoofMAC/events",
    "fork": false,
    "forks": 55,
    "forks_count": 55,
    "forks_url": "https://api.github.com/repos/feross/SpoofMAC/forks",
    "full_name": "feross/SpoofMAC",
    "git_commits_url": "https://api.github.com/repos/feross/SpoofMAC/git/commits{/sha}",
    "git_refs_url": "https://api.github.com/repos/feross/SpoofMAC/git/refs{/sha}",
    "git_tags_url": "https://api.github.com/repos/feross/SpoofMAC/git/tags{/sha}",
    "git_url": "git://github.com/feross/SpoofMAC.git",
    "has_downloads": true,
    "has_issues": true,
    "has_wiki": true,
    "homepage": "http://feross.org/spoofmac/",
    "hooks_url": "https://api.github.com/repos/feross/SpoofMAC/hooks",
    "html_url": "https://github.com/feross/SpoofMAC",
    "id": 2300485,
    "issue_comment_url": "https://api.github.com/repos/feross/SpoofMAC/issues/comments/{number}",
    "issue_events_url": "https://api.github.com/repos/feross/SpoofMAC/issues/events{/number}",
    "issues_url": "https://api.github.com/repos/feross/SpoofMAC/issues{/number}",
    "keys_url": "https://api.github.com/repos/feross/SpoofMAC/keys{/key_id}",
    "labels_url": "https://api.github.com/repos/feross/SpoofMAC/labels{/name}",
    "language": "Python",
    "languages_url": "https://api.github.com/repos/feross/SpoofMAC/languages",
    "merges_url": "https://api.github.com/repos/feross/SpoofMAC/merges",
    "milestones_url": "https://api.github.com/repos/feross/SpoofMAC/milestones{/number}",
    "mirror_url": null,
    "name": "SpoofMAC",
    "notifications_url": "https://api.github.com/repos/feross/SpoofMAC/notifications{?since,all,participating}",
    "open_issues": 4,
    "open_issues_count": 4,
    "owner": {
        "avatar_url": "https://avatars.githubusercontent.com/u/121766?",
        "events_url": "https://api.github.com/users/feross/events{/privacy}",
        "followers_url": "https://api.github.com/users/feross/followers",
        "following_url": "https://api.github.com/users/feross/following{/other_user}",
        "gists_url": "https://api.github.com/users/feross/gists{/gist_id}",
        "gravatar_id": "b498d33041627b07726dc29c28f02df7",
        "html_url": "https://github.com/feross",
        "id": 121766,
        "login": "feross",
        "organizations_url": "https://api.github.com/users/feross/orgs",
        "received_events_url": "https://api.github.com/users/feross/received_events",
        "repos_url": "https://api.github.com/users/feross/repos",
        "site_admin": false,
        "starred_url": "https://api.github.com/users/feross/starred{/owner}{/repo}",
        "subscriptions_url": "https://api.github.com/users/feross/subscriptions",
        "type": "User",
        "url": "https://api.github.com/users/feross"
    },
    "private": false,
    "pulls_url": "https://api.github.com/repos/feross/SpoofMAC/pulls{/number}",
    "pushed_at": "2014-05-01T14:22:45Z",
    "releases_url": "https://api.github.com/repos/feross/SpoofMAC/releases{/id}",
    "score": 1.0,
    "size": 410,
    "ssh_url": "git@github.com:feross/SpoofMAC.git",
    "stargazers_count": 729,
    "stargazers_url": "https://api.github.com/repos/feross/SpoofMAC/stargazers",
    "statuses_url": "https://api.github.com/repos/feross/SpoofMAC/statuses/{sha}",
    "subscribers_url": "https://api.github.com/repos/feross/SpoofMAC/subscribers",
    "subscription_url": "https://api.github.com/repos/feross/SpoofMAC/subscription",
    "svn_url": "https://github.com/feross/SpoofMAC",
    "tags_url": "https://api.github.com/repos/feross/SpoofMAC/tags",
    "teams_url": "https://api.github.com/repos/feross/SpoofMAC/teams",
    "trees_url": "https://api.github.com/repos/feross/SpoofMAC/git/trees{/sha}",
    "updated_at": "2014-05-04T09:55:26Z",
    "url": "https://api.github.com/repos/feross/SpoofMAC",
    "watchers": 729,
    "watchers_count": 729
}