{
    "libs": [
        "parse",
        "httplib",
        "B",
        "logging",
        "optparse",
        "functools",
        "itertools",
        "subprocess",
        "sys",
        "re",
        "json",
        "contextlib",
        "urlparse",
        "path",
        "os",
        "unittest",
        "doctest"
    ]
}