{
    "archive_url": "https://api.github.com/repos/dcramer/django-uuidfield/{archive_format}{/ref}",
    "assignees_url": "https://api.github.com/repos/dcramer/django-uuidfield/assignees{/user}",
    "blobs_url": "https://api.github.com/repos/dcramer/django-uuidfield/git/blobs{/sha}",
    "branches_url": "https://api.github.com/repos/dcramer/django-uuidfield/branches{/branch}",
    "clone_url": "https://github.com/dcramer/django-uuidfield.git",
    "collaborators_url": "https://api.github.com/repos/dcramer/django-uuidfield/collaborators{/collaborator}",
    "comments_url": "https://api.github.com/repos/dcramer/django-uuidfield/comments{/number}",
    "commits_url": "https://api.github.com/repos/dcramer/django-uuidfield/commits{/sha}",
    "compare_url": "https://api.github.com/repos/dcramer/django-uuidfield/compare/{base}...{head}",
    "contents_url": "https://api.github.com/repos/dcramer/django-uuidfield/contents/{+path}",
    "contributors_url": "https://api.github.com/repos/dcramer/django-uuidfield/contributors",
    "created_at": "2010-09-01T06:15:14Z",
    "default_branch": "master",
    "description": "A UUIDField for Django",
    "downloads_url": "https://api.github.com/repos/dcramer/django-uuidfield/downloads",
    "events_url": "https://api.github.com/repos/dcramer/django-uuidfield/events",
    "fork": false,
    "forks": 56,
    "forks_count": 56,
    "forks_url": "https://api.github.com/repos/dcramer/django-uuidfield/forks",
    "full_name": "dcramer/django-uuidfield",
    "git_commits_url": "https://api.github.com/repos/dcramer/django-uuidfield/git/commits{/sha}",
    "git_refs_url": "https://api.github.com/repos/dcramer/django-uuidfield/git/refs{/sha}",
    "git_tags_url": "https://api.github.com/repos/dcramer/django-uuidfield/git/tags{/sha}",
    "git_url": "git://github.com/dcramer/django-uuidfield.git",
    "has_downloads": true,
    "has_issues": true,
    "has_wiki": true,
    "homepage": "",
    "hooks_url": "https://api.github.com/repos/dcramer/django-uuidfield/hooks",
    "html_url": "https://github.com/dcramer/django-uuidfield",
    "id": 876835,
    "issue_comment_url": "https://api.github.com/repos/dcramer/django-uuidfield/issues/comments/{number}",
    "issue_events_url": "https://api.github.com/repos/dcramer/django-uuidfield/issues/events{/number}",
    "issues_url": "https://api.github.com/repos/dcramer/django-uuidfield/issues{/number}",
    "keys_url": "https://api.github.com/repos/dcramer/django-uuidfield/keys{/key_id}",
    "labels_url": "https://api.github.com/repos/dcramer/django-uuidfield/labels{/name}",
    "language": "Python",
    "languages_url": "https://api.github.com/repos/dcramer/django-uuidfield/languages",
    "merges_url": "https://api.github.com/repos/dcramer/django-uuidfield/merges",
    "milestones_url": "https://api.github.com/repos/dcramer/django-uuidfield/milestones{/number}",
    "mirror_url": null,
    "name": "django-uuidfield",
    "notifications_url": "https://api.github.com/repos/dcramer/django-uuidfield/notifications{?since,all,participating}",
    "open_issues": 16,
    "open_issues_count": 16,
    "owner": {
        "avatar_url": "https://avatars.githubusercontent.com/u/23610?",
        "events_url": "https://api.github.com/users/dcramer/events{/privacy}",
        "followers_url": "https://api.github.com/users/dcramer/followers",
        "following_url": "https://api.github.com/users/dcramer/following{/other_user}",
        "gists_url": "https://api.github.com/users/dcramer/gists{/gist_id}",
        "gravatar_id": "51567a4f786cd8a2c41c513b592de9f9",
        "html_url": "https://github.com/dcramer",
        "id": 23610,
        "login": "dcramer",
        "organizations_url": "https://api.github.com/users/dcramer/orgs",
        "received_events_url": "https://api.github.com/users/dcramer/received_events",
        "repos_url": "https://api.github.com/users/dcramer/repos",
        "site_admin": false,
        "starred_url": "https://api.github.com/users/dcramer/starred{/owner}{/repo}",
        "subscriptions_url": "https://api.github.com/users/dcramer/subscriptions",
        "type": "User",
        "url": "https://api.github.com/users/dcramer"
    },
    "private": false,
    "pulls_url": "https://api.github.com/repos/dcramer/django-uuidfield/pulls{/number}",
    "pushed_at": "2014-02-20T01:05:19Z",
    "releases_url": "https://api.github.com/repos/dcramer/django-uuidfield/releases{/id}",
    "score": 1.0,
    "size": 244,
    "ssh_url": "git@github.com:dcramer/django-uuidfield.git",
    "stargazers_count": 161,
    "stargazers_url": "https://api.github.com/repos/dcramer/django-uuidfield/stargazers",
    "statuses_url": "https://api.github.com/repos/dcramer/django-uuidfield/statuses/{sha}",
    "subscribers_url": "https://api.github.com/repos/dcramer/django-uuidfield/subscribers",
    "subscription_url": "https://api.github.com/repos/dcramer/django-uuidfield/subscription",
    "svn_url": "https://github.com/dcramer/django-uuidfield",
    "tags_url": "https://api.github.com/repos/dcramer/django-uuidfield/tags",
    "teams_url": "https://api.github.com/repos/dcramer/django-uuidfield/teams",
    "trees_url": "https://api.github.com/repos/dcramer/django-uuidfield/git/trees{/sha}",
    "updated_at": "2014-05-02T22:02:01Z",
    "url": "https://api.github.com/repos/dcramer/django-uuidfield",
    "watchers": 161,
    "watchers_count": 161
}