[
    "migrations.0004_auto__chg_field_user_verified",
    "migrations.0003_auto__add_field_user_authorized",
    "fandjango.migrations.0009_auto__chg_field_oauthtoken_token",
    "project.manage",
    "fandjango.migrations.0002_auto__add_field_user_facebook_username__add_field_user_hometown__add_f",
    "app",
    "0002_auto__add_field_user_facebook_username__add_field_user_hometown__add_f",
    "migrations.0007_auto__add_unique_user_facebook_id",
    "fandjango.views",
    "tests.project.app.views",
    "fandjango.migrations",
    "migrations.0002_auto__add_field_user_facebook_username__add_field_user_hometown__add_f",
    "app.models",
    "tests.test_fandjango",
    "source",
    "version",
    "tests.project.urls",
    "fandjango.migrations.0004_auto__chg_field_user_verified",
    "migrations.0008_auto__del_field_user_verified",
    "test_fandjango",
    "fandjango.models",
    "tests",
    "manage",
    "views",
    "docs",
    "migrations.0001_initial",
    "0003_auto__add_field_user_authorized",
    "fandjango.templatetags.facebook",
    "source.conf",
    "tests.project",
    "facebook",
    "fandjango.migrations.0001_initial",
    "fandjango.urls",
    "fandjango.utils",
    "tests.project.app.urls",
    "templatetags.facebook",
    "fandjango.migrations.0005_auto__add_field_user_middle_name__add_field_user_timezone__add_field_u",
    "fandjango.migrations.0007_auto__add_unique_user_facebook_id",
    "middleware",
    "settings",
    "0005_auto__add_field_user_middle_name__add_field_user_timezone__add_field_u",
    "project.urls",
    "tests.helpers",
    "project",
    "docs.source.conf",
    "migrations.0010_auto__add_field_user_email__add_field_user_locale__add_field_user_gend",
    "0009_auto__chg_field_oauthtoken_token",
    "fandjango",
    "project.app.urls",
    "fandjango.decorators",
    "utils",
    "tests.project.settings",
    "app.views",
    "project.settings",
    "fandjango.migrations.0006_auto__del_field_user_relationship_status__del_field_user_locale__del_f",
    "conf",
    "0006_auto__del_field_user_relationship_status__del_field_user_locale__del_f",
    "docs.source",
    "migrations.0006_auto__del_field_user_relationship_status__del_field_user_locale__del_f",
    "project.app",
    "migrations",
    "fandjango.migrations.0003_auto__add_field_user_authorized",
    "fandjango.version",
    "decorators",
    "0008_auto__del_field_user_verified",
    "fandjango.admin",
    "fandjango.migrations.0008_auto__del_field_user_verified",
    "project.app.models",
    "models",
    "fandjango.middleware",
    "tests.project.manage",
    "fandjango.templatetags",
    "tests.project.app",
    "project.app.views",
    "fandjango.settings",
    "0004_auto__chg_field_user_verified",
    "0010_auto__add_field_user_email__add_field_user_locale__add_field_user_gend",
    "0007_auto__add_unique_user_facebook_id",
    "app.urls",
    "fandjango.migrations.0010_auto__add_field_user_email__add_field_user_locale__add_field_user_gend",
    "admin",
    "migrations.0009_auto__chg_field_oauthtoken_token",
    "templatetags",
    "migrations.0005_auto__add_field_user_middle_name__add_field_user_timezone__add_field_u",
    "helpers",
    "urls",
    "0001_initial",
    "tests.project.app.models"
]