[
    "composed",
    "libbitcoin.multimap",
    "stratum_tcp",
    "backends.libbitcoin",
    "h1",
    "backends.bitcoind.blockchain_processor",
    "backends.bitcoind",
    "bitcoind",
    "blockchain_processor",
    "bitcoind.storage",
    "libbitcoin",
    "backends.libbitcoin.h1",
    "storage",
    "libbitcoin.h1",
    "backends",
    "version",
    "backends.bitcoind.storage",
    "bitcoind.blockchain_processor",
    "libbitcoin.history",
    "multimap",
    "transports.stratum_http",
    "backends.libbitcoin.history",
    "backends.libbitcoin.trace_test",
    "backends.libbitcoin.composed",
    "backends.libbitcoin.multimap",
    "bitcoind.deserialize",
    "libbitcoin.composed",
    "stratum_http",
    "deserialize",
    "libbitcoin.trace_test",
    "transports.stratum_tcp",
    "trace_test",
    "server",
    "backends.bitcoind.deserialize",
    "transports",
    "processor",
    "history"
]