{
    "libs": [
        "c",
        "foo",
        "bar",
        "functools",
        "inspect",
        "baz",
        "absolute_import",
        "operator",
        "shutil",
        "os",
        "types"
    ]
}