[
    "multi_attack.multiattack",
    "src.teensy.sd2teensy",
    "text",
    "src.html.spawn",
    "src.core.patched.socket",
    "core.payloadgen",
    "web_clone.cloner",
    "sccm_main",
    "src.core.dictionaries",
    "config.update_config",
    "menu",
    "fasttrack.exploits.rdpdos",
    "src.core.msf_attacks",
    "html.spawn",
    "patched",
    "core.dictionaries",
    "client.smtp_client",
    "fsattacks",
    "hijacking",
    "java_applet.unsigned",
    "payloadgen.solo",
    "src.fasttrack.sccm",
    "listener",
    "teensy.binary2teensy",
    "src.core.menu.text",
    "webattack.java_applet.sign_jar",
    "src.payloads.set_payloads",
    "fasttrack.autopwn",
    "fasttrack.exploits.firefox_3_6_16",
    "smtp_web",
    "exploits.solarwinds",
    "src.webattack.harvester.report_generator",
    "src.fasttrack.exploits.firefox_3_6_16",
    "phishing.smtp",
    "set_payloads.persistence",
    "set_payloads.pyinjector_args",
    "core.patched.socket",
    "fasttrack.psexec",
    "verified_sign",
    "arp",
    "set",
    "html.unsigned.self_sign",
    "digitalsig",
    "autorun.autorun",
    "src.payloads.set_payloads.pyinjector_args",
    "scraper",
    "src.webattack.tabnabbing",
    "src.webattack.dll_hijacking.hijacking",
    "webattack.multi_attack.multiattack",
    "multi_pyinjector",
    "src.fasttrack.delldrac",
    "payloads.set_payloads",
    "fasttrack.sccm",
    "src.webattack",
    "src.core.setcore",
    "set_payloads.shell",
    "phishing.smtp.client.smtp_web",
    "webattack.dll_hijacking",
    "webattack.fsattack.full",
    "template",
    "webattack.tabnabbing.tabnabbing",
    "webattack.mlitm.thebiz",
    "mlitm.thebiz",
    "solo",
    "full",
    "src.webattack.java_applet.sign_jar",
    "core.ssl.setssl",
    "src.webattack.fsattack.full",
    "src.html.unsigned.verified_sign",
    "ssl.PoC_SSL",
    "src.html.unsigned",
    "webattack.browser_exploits",
    "src.payloads.set_payloads.set_http_server",
    "report_generator",
    "phishing",
    "teensy.sd2teensy",
    "src.payloads.powershell.prep",
    "wireless.wifiattack",
    "payloads.set_payloads.shell",
    "powershell_shellcode",
    "config.set_config",
    "src.webattack.dll_hijacking",
    "src.payloads",
    "webattack.tabnabbing",
    "src.core.set",
    "src.payloads.powershell",
    "fasttrack",
    "web_clone",
    "html.templates",
    "powershell.prep",
    "sccm",
    "delldrac",
    "src.fasttrack.autopwn",
    "src.autorun",
    "src.webattack.harvester.harvester",
    "src.fasttrack.mssql",
    "src.html",
    "src.core.scapy",
    "core.ssl",
    "update_config",
    "psexec",
    "sign_jar",
    "smtp.client.smtp_web",
    "pyinjector_args",
    "prep",
    "src.core.msf_attacks.msf_list",
    "set_payloads.http_shell",
    "mlitm",
    "webattack.profiler",
    "setssl",
    "core.payloadgen.solo",
    "webattack.harvester.scraper",
    "src.core.ssl",
    "menu.text",
    "ms08067",
    "socket",
    "webattack.web_clone.cloner",
    "webattack.multi_attack",
    "fasttrack.sccm.sccm_main",
    "self_sign",
    "core.payloadprep",
    "html.templates.template",
    "profiler",
    "fsattack.fsattacks",
    "arp_cache",
    "src.core.payloadgen.create_payloads",
    "module_handler",
    "spawn",
    "phishing.smtp.client.smtp_client",
    "core.set",
    "browser_exploits.gen_payload",
    "f5",
    "powershell.powershell",
    "smtp",
    "webattack.profiler.webprofiler",
    "src.webattack.tabnabbing.tabnabbing",
    "src.webattack.profiler",
    "msf_list",
    "qrgenerator",
    "fasttrack.delldrac",
    "src.core.menu",
    "src.webattack.mlitm.thebiz",
    "src.webattack.profiler.webprofiler",
    "html.web_start",
    "set_payloads.listener",
    "src.html.fasttrack_http_server",
    "core.menu.text",
    "html",
    "http_shell",
    "webattack.web_clone",
    "config",
    "src.core.patched",
    "src.html.templates",
    "templates",
    "src.core.arp_cache",
    "webprofiler",
    "modules.ratte_only_module",
    "src.fasttrack.exploits.ms08067",
    "exploits.ms08067",
    "src.payloads.set_payloads.http_shell",
    "src.core",
    "src.core.fasttrack",
    "harvester.harvester",
    "src.core.ssl.setssl",
    "dll_hijacking.hijacking",
    "core.scapy",
    "PoC_SSL",
    "browser_exploits",
    "webattack.mlitm",
    "slim_set",
    "msf_attacks.create_payload",
    "src.webattack.harvester.scraper",
    "fasttrack.rid_enum",
    "ssl",
    "payloads.set_payloads.http_shell",
    "custom_template",
    "src.webattack.fsattack.fsattacks",
    "src.webattack.java_applet",
    "ratte_only_module",
    "digitalsig.disitool",
    "exploits.firefox_3_6_16",
    "payloadgen",
    "fasttrack.exploits.mysql_bypass",
    "exploits",
    "patched.socket",
    "tabnabbing.tabnabbing",
    "src.qrcode.qrcode",
    "set_payloads.multi_pyinjector",
    "webattack.harvester.report_generator",
    "src.powershell.powershell",
    "set_payloads",
    "core.module_handler",
    "src.core.payloadgen.solo",
    "unsigned",
    "core.payloadgen.create_payloads",
    "ssl.setssl",
    "smtp.client.custom_template",
    "create_payload",
    "qrcode.qrcode",
    "phishing.smtp.client",
    "src.webattack.browser_exploits",
    "src.core.payloadprep",
    "src.payloads.set_payloads.multi_pyinjector",
    "payloads.set_payloads.persistence",
    "solarwinds",
    "webattack.browser_exploits.gen_payload",
    "src.html.web_start",
    "src.html.unsigned.self_sign",
    "src.core.webserver",
    "teensy.teensy",
    "src.payloads.set_payloads.shell",
    "src.teensy.binary2teensy",
    "src.fasttrack",
    "src.phishing.smtp.client",
    "webattack.dll_hijacking.hijacking",
    "payloads.set_payloads.set_http_server",
    "smtp.client",
    "mysql_bypass",
    "webattack.java_applet",
    "scapy",
    "dictionaries",
    "rdpdos",
    "persistence",
    "arp_cache.arp",
    "src.core.msf_attacks.create_payload",
    "src.wireless.stop_wifiattack",
    "fasttrack.exploits",
    "fasttrack.exploits.solarwinds",
    "binary2teensy",
    "setcore",
    "client.smtp_web",
    "src.webattack.web_clone",
    "src.fasttrack.exploits.mysql_bypass",
    "profiler.webprofiler",
    "multiattack",
    "templates.template",
    "fsattack",
    "src.autorun.autorun",
    "fasttrack.exploits.ms08067",
    "webattack.harvester.harvester",
    "gen_payload",
    "core.setcore",
    "src.webattack.fsattack",
    "src.webattack.mlitm",
    "src.fasttrack.psexec",
    "src.html.templates.template",
    "src.webattack.web_clone.cloner",
    "src.webattack.harvester",
    "payloads.powershell",
    "core",
    "webattack.fsattack.fsattacks",
    "dll_hijacking",
    "core.msf_attacks.msf_list",
    "core.patched",
    "src.qrcode.qrgenerator",
    "mssql",
    "src",
    "firefox_3_6_16",
    "fasttrack.mssql",
    "set_config",
    "modules.ratte_module",
    "src.core.arp_cache.arp",
    "src.core.payloadgen",
    "autopwn",
    "payloads.set_payloads.listener",
    "smtp_client",
    "core.arp_cache",
    "tabnabbing",
    "create_payloads",
    "payloads.set_payloads.multi_pyinjector",
    "html.fasttrack_http_server",
    "src.phishing",
    "src.fasttrack.exploits",
    "core.webserver",
    "qrcode",
    "src.phishing.smtp.client.smtp_client",
    "html.unsigned.verified_sign",
    "webattack.java_applet.unsigned",
    "src.wireless.wifiattack",
    "src.powershell",
    "src.teensy.teensy",
    "src.payloads.set_payloads.persistence",
    "autorun",
    "src.core.digitalsig.disitool",
    "harvester.scraper",
    "src.core.digitalsig",
    "core.fasttrack",
    "shell",
    "wireless.stop_wifiattack",
    "unsigned.verified_sign",
    "wireless",
    "core.digitalsig.disitool",
    "core.digitalsig",
    "core.msf_attacks",
    "cloner",
    "src.phishing.smtp",
    "rid_enum",
    "harvester.report_generator",
    "stop_wifiattack",
    "fasttrack_http_server",
    "src.webattack.browser_exploits.gen_payload",
    "harvester",
    "smtp.client.smtp_client",
    "html.unsigned",
    "phishing.smtp.client.custom_template",
    "multi_attack",
    "webattack.fsattack",
    "powershell",
    "payloads.powershell.prep",
    "teensy",
    "exploits.rdpdos",
    "java_applet.sign_jar",
    "client.custom_template",
    "modules",
    "teensy.powershell_shellcode",
    "payloadprep",
    "webattack",
    "src.webattack.multi_attack",
    "unsigned.self_sign",
    "src.webattack.java_applet.unsigned",
    "src.fasttrack.rid_enum",
    "src.fasttrack.exploits.solarwinds",
    "core.msf_attacks.create_payload",
    "qrcode.qrgenerator",
    "src.phishing.smtp.client.custom_template",
    "wifiattack",
    "client",
    "fasttrack.exploits.f5",
    "msf_attacks",
    "payloads",
    "src.fasttrack.exploits.rdpdos",
    "src.webattack.multi_attack.multiattack",
    "core.menu",
    "msf_attacks.msf_list",
    "exploits.mysql_bypass",
    "payloads.set_payloads.pyinjector_args",
    "src.core.ssl.PoC_SSL",
    "set_payloads.set_http_server",
    "set_http_server",
    "src.fasttrack.sccm.sccm_main",
    "src.core.module_handler",
    "core.ssl.PoC_SSL",
    "src.phishing.smtp.client.smtp_web",
    "webserver",
    "fsattack.full",
    "src.fasttrack.exploits.f5",
    "exploits.f5",
    "java_applet",
    "src.payloads.set_payloads.listener",
    "web_start",
    "core.arp_cache.arp",
    "sd2teensy",
    "config.slim_set",
    "src.teensy",
    "sccm.sccm_main",
    "src.wireless",
    "webattack.harvester",
    "payloadgen.create_payloads",
    "disitool",
    "src.teensy.powershell_shellcode",
    "ratte_module",
    "src.qrcode",
    "thebiz"
]