{
    "libs": [
        "SimpleHTTPServer",
        "datetime",
        "atexit",
        "pygments",
        "pyatom",
        "errno",
        "houdini",
        "lexers",
        "B",
        "blinker",
        "SocketServer",
        "util",
        "jinja2",
        "path",
        "subprocess",
        "sys",
        "logging",
        "socket",
        "h",
        "signal",
        "formatters",
        "threading",
        "toml",
        "time",
        "misaka",
        "docopt",
        "os"
    ]
}