{
    "libs": [
        "optparse",
        "os",
        "unittest",
        "ddt",
        "sys",
        "re",
        "jinja2",
        "time",
        "requests",
        "datetime",
        "tools",
        "mock"
    ]
}