[
    "0010_no_null_cache",
    "yarr.migrations.0009_auto__add_field_feed_text",
    "managers",
    "migrations.0003_auto__chg_field_feed_feed_url__chg_field_feed_site_url__chg_field_entr",
    "yarr.decorators",
    "migrations.0011_auto__chg_field_feed_count_unread__chg_field_feed_count_total",
    "tests.opml",
    "yarr.migrations.0007_entry_state",
    "yarr.migrations.0006_auto__add_field_entry_state",
    "yarr.migrations.0011_auto__chg_field_feed_count_unread__chg_field_feed_count_total",
    "migrations.0006_auto__add_field_entry_state",
    "forms",
    "yarr.management.commands.import_opml",
    "0002_auto__chg_field_feed_title__chg_field_entry_author__chg_field_entry_ti",
    "0005_populate_feed_cache",
    "tests",
    "yarr.migrations.0008_auto__del_field_entry_read__del_field_entry_saved",
    "views",
    "yarr.tests",
    "migrations.0005_populate_feed_cache",
    "migrations.0001_initial",
    "commands.check_feeds",
    "yarr.admin",
    "commands.yarr_clean",
    "0008_auto__del_field_entry_read__del_field_entry_saved",
    "yarr.forms",
    "migrations.0007_entry_state",
    "management.commands.import_opml",
    "yarr.management.commands.yarr_clean",
    "0003_auto__chg_field_feed_feed_url__chg_field_feed_site_url__chg_field_entr",
    "0011_auto__chg_field_feed_count_unread__chg_field_feed_count_total",
    "yarr.migrations.0005_populate_feed_cache",
    "settings",
    "0006_auto__add_field_entry_state",
    "yarr.management.commands",
    "management.commands",
    "yarr.management",
    "yarr.migrations.0002_auto__chg_field_feed_title__chg_field_entry_author__chg_field_entry_ti",
    "management.commands.check_feeds",
    "utils",
    "check_feeds",
    "yarr.settings",
    "yarr.migrations.0010_no_null_cache",
    "management.commands.yarr_clean",
    "yarr.migrations.0001_initial",
    "yarr.models",
    "yarr.constants",
    "yarr.migrations.0003_auto__chg_field_feed_feed_url__chg_field_feed_site_url__chg_field_entr",
    "yarr.views",
    "migrations.0002_auto__chg_field_feed_title__chg_field_entry_author__chg_field_entry_ti",
    "commands.import_opml",
    "migrations",
    "yarr.management.commands.check_feeds",
    "migrations.0010_no_null_cache",
    "yarr.urls",
    "decorators",
    "yarr_clean",
    "yarr.migrations.0004_auto__add_field_feed_count_unread__add_field_feed_count_total__add_fie",
    "models",
    "0004_auto__add_field_feed_count_unread__add_field_feed_count_total__add_fie",
    "management",
    "0001_initial",
    "migrations.0008_auto__del_field_entry_read__del_field_entry_saved",
    "constants",
    "0009_auto__add_field_feed_text",
    "commands",
    "import_opml",
    "yarr.managers",
    "yarr.tests.opml",
    "admin",
    "opml",
    "migrations.0004_auto__add_field_feed_count_unread__add_field_feed_count_total__add_fie",
    "migrations.0009_auto__add_field_feed_text",
    "yarr.utils",
    "yarr",
    "yarr.migrations",
    "urls",
    "0007_entry_state",
    "runtests"
]