{
    "libs": [
        "cStringIO",
        "dispatch",
        "encoding",
        "unicode_literals",
        "with_statement",
        "functional",
        "absolute_import",
        "datetime",
        "bs4",
        "defaulttags",
        "io",
        "jingo",
        "copy",
        "importlib",
        "errno",
        "BeautifulSoup",
        "re",
        "json",
        "html",
        "test",
        "nodes",
        "mock",
        "mimetypes",
        "etree",
        "optparse",
        "app_directories",
        "time",
        "loader_tags",
        "textwrap",
        "sys",
        "fnmatch",
        "_rjsmin",
        "loader",
        "test_b",
        "b",
        "socket",
        "StringIO",
        "h",
        "backends",
        "ext",
        "_rcssmin",
        "common",
        "posixpath",
        "filesystem",
        "gzip",
        "os"
    ]
}