{
    "libs": [
        "jws",
        "saml",
        "cherrypy",
        "random",
        "wsgiserver",
        "datetime",
        "array",
        "ElementTree",
        "calendar",
        "mako",
        "user_c",
        "uuid",
        "re",
        "urllib",
        "authn_setup",
        "json",
        "pytest",
        "Cookie",
        "ldap",
        "lookup",
        "Cipher",
        "math",
        "cgi",
        "keystore",
        "string",
        "time",
        "htmlentitydefs",
        "struct",
        "Crypto",
        "sys",
        "path",
        "copy",
        "importlib",
        "argparse",
        "b",
        "logging",
        "socket",
        "handlers",
        "h",
        "middleware",
        "traceback",
        "XpressConnect",
        "jwe",
        "urlparse",
        "PublicKey",
        "jwk",
        "jwkest",
        "shelve",
        "exceptions",
        "requests",
        "runtime",
        "os",
        "hmac"
    ]
}