{
    "libs": [
        "cStringIO",
        "pprint",
        "encoding",
        "shortcuts",
        "unittest",
        "with_statement",
        "mutations",
        "datetime",
        "atexit",
        "conf",
        "contrib",
        "simple",
        "exceptions",
        "loading",
        "struct",
        "threading",
        "tempfile",
        "errno",
        "cache",
        "urllib",
        "re",
        "version",
        "template",
        "sqlite3",
        "timesince",
        "division",
        "cPickle",
        "http",
        "list_detail",
        "sets",
        "db",
        "sys",
        "feedutil",
        "comment_utils",
        "atomformat",
        "path",
        "translation",
        "md5",
        "b",
        "logging",
        "socket",
        "thread",
        "regviews",
        "pickle",
        "safestring",
        "html",
        "django",
        "bisect",
        "defaultfilters",
        "doctest",
        "defaults",
        "time",
        "urlresolvers",
        "os",
        "markup"
    ]
}