{
    "libs": [
        "encoding",
        "unittest",
        "datetime",
        "sax",
        "conf",
        "calendar",
        "shutil",
        "_threading_local",
        "buildout",
        "importlib",
        "tempfile",
        "re",
        "json",
        "template",
        "widgets",
        "tests3credentials",
        "mimetypes",
        "http",
        "optparse",
        "zipfile",
        "urllib2",
        "rsa",
        "sys",
        "test",
        "subprocess",
        "httplib",
        "b",
        "StringIO",
        "h",
        "pkg_resources",
        "django",
        "urlparse",
        "threading",
        "time",
        "gzip",
        "os",
        "hmac"
    ]
}