[
    "upload.s3",
    "bcbio.upload.galaxy",
    "bcbio.upload.shared",
    "variation.gatkfilter",
    "ngsalign.bowtie",
    "galaxy.nglims",
    "provenance.diagnostics",
    "variation.freebayes",
    "vcfutils",
    "server.run",
    "gatkfilter",
    "bcbio.variation.multi",
    "bcbio.server.run",
    "ploidy",
    "server.main",
    "bam.cram",
    "ngsalign.alignprep",
    "bcbio.picard",
    "illumina",
    "distributed",
    "bcbio.upload",
    "ngsalign.mosaik",
    "bcbio.ngsalign.alignprep",
    "resources",
    "do",
    "utils.sort_gatk_intervals",
    "multitasks",
    "alignprep",
    "mutect",
    "unit.test_count",
    "pipeline.disambiguate",
    "bcbio.pipeline.disambiguate",
    "distributed.ipython",
    "bcbio.variation.phasing",
    "bcbio.structural.delly",
    "scripts.utils.bam_to_fastq_region",
    "test_utils",
    "config_utils",
    "utils.hydra_to_vcf",
    "delly",
    "bcbio.distributed.ipython",
    "upload",
    "rnaseq.featureCounts",
    "runfn",
    "bcbio.workflow.stormseq",
    "bcbio.variation.bamprep",
    "pipeline.alignment",
    "illumina.machine",
    "ngsalign.bowtie2",
    "provenance.profile",
    "pipeline.lane",
    "pipeline.cleanbam",
    "picardrun",
    "tests.test_automated_analysis",
    "bcbio.provenance.programs",
    "logbook_zmqpush",
    "bcbio.bam.trim",
    "variation.bedutils",
    "analyze_complexity_by_starts",
    "bcbio.variation.varscan",
    "bcbio.ngsalign.novoalign",
    "clargs",
    "pipeline.rnaseq",
    "picard.utils",
    "tests.unit.test_trim",
    "bcbio.bam",
    "bcbio.structural.hydra",
    "bcbio.variation.recalibrate",
    "scripts.bcbio_nextgen",
    "broad.picardrun",
    "variation.genotype",
    "test_trim",
    "bcbio.variation.freebayes",
    "run",
    "alignment",
    "template",
    "shared",
    "bcbio.provenance.diagnostics",
    "utils.cg_svevents_to_vcf",
    "convert_samplesheet_config",
    "monthly_billing_report",
    "variation.ensemble",
    "pipeline.main",
    "structural.hydra",
    "bcbio.rnaseq.cufflinks",
    "install",
    "bowtie",
    "bcbio.bam.callable",
    "disambiguate.run",
    "ngsalign",
    "pipeline.genome",
    "bcbio.distributed.split",
    "bcbio.ngsalign.postalign",
    "rnaseq.coverage",
    "log.logbook_zmqpush",
    "bcbio.pipeline.rnaseq",
    "ipython",
    "provenance.programs",
    "bam.counts",
    "search",
    "variation.samtools",
    "bwa",
    "stormseq",
    "region",
    "ipythontasks",
    "xprize",
    "bcbio.upload.s3",
    "bcbio.picard.metrics",
    "ngsalign.tophat",
    "bcbio.bam.cram",
    "genome",
    "upload.galaxy",
    "scripts.utils.hydra_to_vcf",
    "test_SequencingDump",
    "bcbio_nextgen",
    "workflow.xprize",
    "test_pipeline",
    "variation.vfilter",
    "bcbio.picard.utils",
    "bam_to_wiggle",
    "bam.callable",
    "api",
    "cleanbam",
    "bcbio.distributed.resources",
    "bcbio.ngsalign.bowtie2",
    "counts",
    "bcbio.distributed.transaction",
    "tools",
    "unit",
    "scripts.utils.sort_gatk_intervals",
    "bcbio.hmmer",
    "tests.test_pipeline",
    "provenance.do",
    "collect_metrics_to_csv",
    "hydra",
    "cram",
    "pipeline.run_info",
    "illumina.transfer",
    "variation.annotation",
    "vfilter",
    "qc",
    "bam.fastq",
    "scripts.utils.plink_to_vcf",
    "illumina.samplesheet",
    "upload.filesystem",
    "bcbio.ngsalign.mosaik",
    "tests.unit.manage_unit_test_data",
    "distributed.clusterk",
    "bcbio.structural.lumpy",
    "versioncheck",
    "sample",
    "multi",
    "bcbio.ngsalign.snap",
    "bcbio.variation.gatk",
    "bcbio.distributed.prun",
    "manage_unit_test_data",
    "bcbio.variation.ensemble",
    "unit.test_picardrun",
    "bcbio.variation.mutect",
    "distributed.ipythontasks",
    "bcbio.variation.population",
    "bcbio.variation.bedutils",
    "utils.analyze_quality_recal",
    "bcbio.broad.metrics",
    "bcbio.pipeline.shared",
    "variation.recalibrate",
    "bcbio.utils",
    "scripts.utils",
    "bcbio.distributed.multi",
    "bcbio.bam.ref",
    "structural.cn_mops",
    "utils",
    "bcbio.pipeline.tools",
    "resort_bam_karyotype",
    "bcbio.distributed.clargs",
    "distributed.multi",
    "distributed.split",
    "bcbio.provenance.profile",
    "conf",
    "sort_gatk_intervals",
    "illumina.flowcell",
    "bcbio.rnaseq.coverage",
    "scripts.utils.broad_redo_analysis",
    "bcbio.distributed.clusterk",
    "samtools",
    "bcbio.variation",
    "s3",
    "bcbio.server",
    "bcbio.pipeline.genome",
    "archive",
    "machine",
    "scripts.utils.analyze_complexity_by_starts",
    "rnaseq.count",
    "gatk",
    "ensemble",
    "profile",
    "ngsalign.snap",
    "bcbio.pipeline",
    "recalibrate",
    "bcbio.structural.cn_mops",
    "bcbio.hmmer.search",
    "test_picardrun",
    "bcbio.variation.vfilter",
    "tests.unit",
    "mosaik",
    "pipeline.archive",
    "annotation",
    "bcbio.provenance.versioncheck",
    "bcbio.variation.ploidy",
    "unit.test_trim",
    "transaction",
    "bcbio.pipeline.sample",
    "bcbio.distributed",
    "ngsalign.postalign",
    "programs",
    "bcbio.pipeline.cleanbam",
    "distributed.prun",
    "build_compare_vcf",
    "structural.delly",
    "utils.resort_bam_karyotype",
    "filesystem",
    "workflow.stormseq",
    "ngsalign.bwa",
    "bcbio.rnaseq.count",
    "picard.metrics",
    "unit.manage_unit_test_data",
    "bcbio.ngsalign.tophat",
    "ngsalign.star",
    "nglims",
    "bcbio.ngsalign.bowtie",
    "bcbio.server.main",
    "pipeline.region",
    "bam_to_fastq_region",
    "utils.collect_metrics_to_csv",
    "bcbio.ngsalign",
    "bcbio.galaxy.nglims",
    "galaxy",
    "rnaseq",
    "clusterk",
    "bcbio.broad.picardrun",
    "bcbio.illumina",
    "bcbio.rnaseq.featureCounts",
    "bcbio_nextgen_install",
    "distributed.runfn",
    "picard",
    "variation.multi",
    "bam.ref",
    "postalign",
    "run_info",
    "bcbio.illumina.demultiplex",
    "bcbio.pipeline.main",
    "snap",
    "flowcell",
    "main",
    "bcbio.ngsalign.bwa",
    "bcbio.pipeline.qcsummary",
    "split",
    "tests",
    "varscan",
    "broad.metrics",
    "tests.unit.test_utils",
    "bcbio.structural",
    "docs",
    "plink_to_vcf",
    "effects",
    "background",
    "bcbio.ngsalign.star",
    "bcbio.pipeline.config_utils",
    "bcbio.bam.fastq",
    "bcbio.pipeline.lane",
    "docs.conf",
    "structural",
    "distributed.transaction",
    "bcbio.upload.filesystem",
    "pipeline.sample",
    "server",
    "merge",
    "bcbio.provenance",
    "prun",
    "bcbio.pipeline.variation",
    "bcbio.provenance.do",
    "galaxy.api",
    "bcbio.rnaseq",
    "bcbio.pipeline.disambiguate.run",
    "structural.ensemble",
    "pipeline.shared",
    "metrics",
    "pipeline.variation",
    "bcbio.variation.vcfutils",
    "validateplot",
    "bcbio.log",
    "variation.phasing",
    "bcbio.variation.validateplot",
    "hmmer",
    "bcbio.galaxy.api",
    "bcbio.variation.annotation",
    "tests.unit.test_fastq",
    "variation.coverage",
    "structural.lumpy",
    "broad_redo_analysis",
    "variation.population",
    "bcbio.bam.counts",
    "utils.bam_to_wiggle",
    "analyze_quality_recal",
    "scripts.utils.summarize_gemini_tstv",
    "bcbio.variation.samtools",
    "realign",
    "bcbio.pipeline.archive",
    "qcsummary",
    "variation.gatk",
    "samplesheet",
    "bcbio.pipeline.fastq",
    "phasing",
    "bcbio.distributed.multitasks",
    "scripts.utils.rename_samples",
    "ref",
    "utils.rename_samples",
    "bcbio.structural.ensemble",
    "scripts.utils.monthly_billing_report",
    "featureCounts",
    "workflow.template",
    "bcbio.pipeline.merge",
    "pipeline.config_utils",
    "cg_svevents_to_vcf",
    "distributed.clargs",
    "pipeline.fastq",
    "utils.convert_samplesheet_config",
    "unit.test_fastq",
    "diagnostics",
    "novoalign",
    "cufflinks",
    "distributed.multitasks",
    "rnaseq.cufflinks",
    "utils.broad_redo_analysis",
    "pipeline",
    "bam",
    "bcbio.illumina.transfer",
    "rename_samples",
    "test_automated_analysis",
    "bcbio.workflow",
    "scripts.bcbio_nextgen_install",
    "star",
    "bcbio.log.logbook_zmqpush",
    "variation.cortex",
    "unit.test_utils",
    "bamprep",
    "tests.test_SequencingDump",
    "summarize_gemini_tstv",
    "scripts",
    "system",
    "test_count",
    "bcbio.rnaseq.oncofuse",
    "bcbio.distributed.ipythontasks",
    "ngsalign.novoalign",
    "validate",
    "freebayes",
    "log",
    "distributed.resources",
    "transfer",
    "variation.realign",
    "provenance",
    "utils.summarize_gemini_tstv",
    "test_fastq",
    "variation.ploidy",
    "scripts.utils.cg_svevents_to_vcf",
    "bedutils",
    "bcbio.workflow.xprize",
    "bowtie2",
    "genotype",
    "hydra_to_vcf",
    "utils.plink_to_vcf",
    "oncofuse",
    "disambiguate",
    "bcbio.pipeline.region",
    "pipeline.disambiguate.run",
    "tests.unit.test_count",
    "scripts.utils.resort_bam_karyotype",
    "bcbio.server.background",
    "variation.effects",
    "provenance.versioncheck",
    "population",
    "count",
    "scripts.utils.build_compare_vcf",
    "illumina.demultiplex",
    "pipeline.tools",
    "bcbio.broad",
    "variation.vcfutils",
    "bcbio.variation.split",
    "bcbio.provenance.system",
    "tophat",
    "utils.monthly_billing_report",
    "workflow",
    "trim",
    "rnaseq.qc",
    "variation.validate",
    "bcbio.variation.coverage",
    "fastq",
    "scripts.utils.collect_metrics_to_csv",
    "provenance.system",
    "cn_mops",
    "bcbio.install",
    "variation.bamprep",
    "bcbio.variation.effects",
    "bcbio.galaxy",
    "bcbio.pipeline.alignment",
    "bcbio",
    "lumpy",
    "bcbio.workflow.template",
    "bam.trim",
    "upload.shared",
    "utils.build_compare_vcf",
    "variation.mutect",
    "scripts.utils.analyze_quality_recal",
    "bcbio.rnaseq.qc",
    "bcbio.illumina.machine",
    "demultiplex",
    "bcbio.illumina.samplesheet",
    "bcbio.variation.cortex",
    "bcbio.variation.genotype",
    "utils.bam_to_fastq_region",
    "bcbio.pipeline.run_info",
    "scripts.utils.bam_to_wiggle",
    "pipeline.merge",
    "bcbio.variation.realign",
    "bcbio.variation.validate",
    "bcbio.distributed.runfn",
    "variation",
    "callable",
    "tests.unit.test_picardrun",
    "variation.varscan",
    "bcbio.variation.gatkfilter",
    "coverage",
    "hmmer.search",
    "scripts.utils.convert_samplesheet_config",
    "pipeline.qcsummary",
    "lane",
    "bcbio.illumina.flowcell",
    "variation.split",
    "variation.validateplot",
    "rnaseq.oncofuse",
    "utils.analyze_complexity_by_starts",
    "server.background",
    "cortex",
    "broad"
]