{
    "archive_url": "https://api.github.com/repos/kmike/django-webtest/{archive_format}{/ref}",
    "assignees_url": "https://api.github.com/repos/kmike/django-webtest/assignees{/user}",
    "blobs_url": "https://api.github.com/repos/kmike/django-webtest/git/blobs{/sha}",
    "branches_url": "https://api.github.com/repos/kmike/django-webtest/branches{/branch}",
    "clone_url": "https://github.com/kmike/django-webtest.git",
    "collaborators_url": "https://api.github.com/repos/kmike/django-webtest/collaborators{/collaborator}",
    "comments_url": "https://api.github.com/repos/kmike/django-webtest/comments{/number}",
    "commits_url": "https://api.github.com/repos/kmike/django-webtest/commits{/sha}",
    "compare_url": "https://api.github.com/repos/kmike/django-webtest/compare/{base}...{head}",
    "contents_url": "https://api.github.com/repos/kmike/django-webtest/contents/{+path}",
    "contributors_url": "https://api.github.com/repos/kmike/django-webtest/contributors",
    "created_at": "2011-06-27T19:59:52Z",
    "default_branch": "master",
    "description": "django-webtest provides integration of Ian Bicking's WebTest (http://pythonpaste.org/webtest/) with django's testing framework.",
    "downloads_url": "https://api.github.com/repos/kmike/django-webtest/downloads",
    "events_url": "https://api.github.com/repos/kmike/django-webtest/events",
    "fork": false,
    "forks": 15,
    "forks_count": 15,
    "forks_url": "https://api.github.com/repos/kmike/django-webtest/forks",
    "full_name": "kmike/django-webtest",
    "git_commits_url": "https://api.github.com/repos/kmike/django-webtest/git/commits{/sha}",
    "git_refs_url": "https://api.github.com/repos/kmike/django-webtest/git/refs{/sha}",
    "git_tags_url": "https://api.github.com/repos/kmike/django-webtest/git/tags{/sha}",
    "git_url": "git://github.com/kmike/django-webtest.git",
    "has_downloads": true,
    "has_issues": true,
    "has_wiki": false,
    "homepage": "https://pypi.python.org/pypi/django-webtest/",
    "hooks_url": "https://api.github.com/repos/kmike/django-webtest/hooks",
    "html_url": "https://github.com/kmike/django-webtest",
    "id": 1962269,
    "issue_comment_url": "https://api.github.com/repos/kmike/django-webtest/issues/comments/{number}",
    "issue_events_url": "https://api.github.com/repos/kmike/django-webtest/issues/events{/number}",
    "issues_url": "https://api.github.com/repos/kmike/django-webtest/issues{/number}",
    "keys_url": "https://api.github.com/repos/kmike/django-webtest/keys{/key_id}",
    "labels_url": "https://api.github.com/repos/kmike/django-webtest/labels{/name}",
    "language": "Python",
    "languages_url": "https://api.github.com/repos/kmike/django-webtest/languages",
    "merges_url": "https://api.github.com/repos/kmike/django-webtest/merges",
    "milestones_url": "https://api.github.com/repos/kmike/django-webtest/milestones{/number}",
    "mirror_url": null,
    "name": "django-webtest",
    "notifications_url": "https://api.github.com/repos/kmike/django-webtest/notifications{?since,all,participating}",
    "open_issues": 6,
    "open_issues_count": 6,
    "owner": {
        "avatar_url": "https://avatars.githubusercontent.com/u/107893?",
        "events_url": "https://api.github.com/users/kmike/events{/privacy}",
        "followers_url": "https://api.github.com/users/kmike/followers",
        "following_url": "https://api.github.com/users/kmike/following{/other_user}",
        "gists_url": "https://api.github.com/users/kmike/gists{/gist_id}",
        "gravatar_id": "3e9dc491607f52141897a765eaab25e4",
        "html_url": "https://github.com/kmike",
        "id": 107893,
        "login": "kmike",
        "organizations_url": "https://api.github.com/users/kmike/orgs",
        "received_events_url": "https://api.github.com/users/kmike/received_events",
        "repos_url": "https://api.github.com/users/kmike/repos",
        "site_admin": false,
        "starred_url": "https://api.github.com/users/kmike/starred{/owner}{/repo}",
        "subscriptions_url": "https://api.github.com/users/kmike/subscriptions",
        "type": "User",
        "url": "https://api.github.com/users/kmike"
    },
    "private": false,
    "pulls_url": "https://api.github.com/repos/kmike/django-webtest/pulls{/number}",
    "pushed_at": "2014-03-25T21:33:39Z",
    "releases_url": "https://api.github.com/repos/kmike/django-webtest/releases{/id}",
    "score": 1.0,
    "size": 443,
    "ssh_url": "git@github.com:kmike/django-webtest.git",
    "stargazers_count": 67,
    "stargazers_url": "https://api.github.com/repos/kmike/django-webtest/stargazers",
    "statuses_url": "https://api.github.com/repos/kmike/django-webtest/statuses/{sha}",
    "subscribers_url": "https://api.github.com/repos/kmike/django-webtest/subscribers",
    "subscription_url": "https://api.github.com/repos/kmike/django-webtest/subscription",
    "svn_url": "https://github.com/kmike/django-webtest",
    "tags_url": "https://api.github.com/repos/kmike/django-webtest/tags",
    "teams_url": "https://api.github.com/repos/kmike/django-webtest/teams",
    "trees_url": "https://api.github.com/repos/kmike/django-webtest/git/trees{/sha}",
    "updated_at": "2014-04-25T17:18:56Z",
    "url": "https://api.github.com/repos/kmike/django-webtest",
    "watchers": 67,
    "watchers_count": 67
}