[
    "contrib.internal.run-pyflakes",
    "default_reviewer_local_site",
    "diffviewer.evolutions.diffset_base_commit_id",
    "reviewboard.webapi.tests.mixins_comment",
    "utils.tests",
    "attachments.admin",
    "hostingsvcs.evolutions.account_unique_together_baseline",
    "reviewboard.accounts.backends",
    "reviewboard.diffviewer.evolutions.diffsethistory_diff_updated",
    "reviewboard.diffviewer.parser",
    "reviewboard.accounts.signals",
    "diffviewer",
    "reviewboard.site.evolutions.localsite_public",
    "site.validation",
    "hostingsvcs.utils.paginator",
    "accounts.models",
    "reviewboard.reviews.ui.screenshot",
    "test_hosting_service",
    "templates.extensions",
    "reviewboard.reviews.ui",
    "reviewboard.diffviewer.views",
    "evolutions.shipit_count",
    "reviewboard.webapi.resources.draft_file_attachment",
    "rb_extensions",
    "review_reply_diff_comment",
    "reviews.evolutions.group_email_list_only",
    "contrib.tools.templates.extensions.extension.extension",
    "extension.views",
    "reviewboard.webapi.tests.test_review_request_draft",
    "reviewboard.scmtools.evolutions.repository_access_control",
    "reviews.urls",
    "helloworld",
    "account_hosting_url_max_length_255",
    "resources.draft_file_attachment",
    "admin.cache_stats",
    "crypto_utils",
    "scmtools.hg",
    "reviewboard.changedescs.evolutions",
    "notifications.email",
    "accounts.evolutions.profile_show_closed",
    "extensions.hooks",
    "webapi.tests.base",
    "reviewboard.reviews.evolutions.review_request_last_review_activity_timestamp",
    "test_draft_diff",
    "reviewboard.extensions.packaging",
    "test_file_attachment_draft",
    "review_diff_comment",
    "management.commands.registerscmtools",
    "reviewboard.reviews.management.commands.fill-database",
    "tests.test_repository_branches",
    "changedescs.admin",
    "reviewboard.reviews.templatetags.reviewtags",
    "reviewboard.accounts.pages",
    "diffviewer.management",
    "webapi.resources.file_attachment_comment",
    "webapi.resources.base_comment",
    "evolutions.filediffdata_line_counts",
    "last_review_timestamp",
    "codebase",
    "hostingsvcs.hook_utils",
    "tools.templates.extensions",
    "reviewboard.cmdline.rbssh",
    "reviewboard.hostingsvcs.gitlab",
    "webapi.resources.filediff",
    "search",
    "manual.settings_local",
    "all_extra_data",
    "hostingsvcs.service",
    "ssh.policy",
    "tools.templates.extensions.extension",
    "reviewboard.webapi.tests.test_file_diff_comment",
    "reviewboard.webapi.base",
    "webapi.tests.test_draft_filediff",
    "googlecode",
    "diffviewer.differ",
    "tests.test_file_attachment",
    "unique_together_baseline",
    "reviewboard.datagrids.views",
    "tests.test_screenshot",
    "reviewboard.ssh.utils",
    "reviewboard.hostingsvcs.utils.tests",
    "webapi.tests.test_watched_review_request",
    "reviews.models.base_comment",
    "extension.admin_urls",
    "ssh.tests",
    "reviewboard.extensions.management.commands.enable-extension",
    "reviewboard.extensions.views",
    "commands.fixscreenshots",
    "reviewboard.urls",
    "reviewboard.scmtools.managers",
    "resources.diff_context",
    "reviewboard.accounts.decorators",
    "reviewboard.hostingsvcs.admin",
    "account_hosting_url",
    "resources.original_file",
    "reviewboard.scmtools.git",
    "webapi.tests.mimetypes",
    "contrib.internal.conf.settings_local",
    "site.evolutions.localsite_public",
    "reviewboard.attachments.evolutions.file_attachment_repo_revision_max_length_64",
    "resources.watched",
    "reviews.ui.base",
    "reviewboard.scmtools.bzr",
    "webapi.resources.watched_review_request",
    "test_change",
    "resources.review_reply_diff_comment",
    "codebase.settings_local",
    "httprole",
    "attachments.mimetypes",
    "tests.test_repository_info",
    "root",
    "list-extensions",
    "extensions.conf.settings_local",
    "reviewboard.diffviewer.templatetags",
    "hosting_service",
    "datagrids.builtin_items",
    "reviewboard.reviews.evolutions.group_visible",
    "scmtools.evolutions.repository_path_length_255",
    "repository_raw_file_url",
    "webapi.decorators",
    "webapi.server_info",
    "resources.base_diff_comment",
    "processors",
    "reviews.context",
    "reviewboard.changedescs.evolutions.rich_text",
    "datagrids.urls",
    "evolutions.add_diff_hash",
    "resources.screenshot_comment",
    "reviewboard.diffviewer.managers",
    "diffviewer.models",
    "admin.views",
    "reviews.errors",
    "resources.watched_review_request",
    "tests.urls",
    "contrib.tools.templates.extensions",
    "commit_id",
    "resources.base_watched_object",
    "search_indexes",
    "reviewboard.extensions.management",
    "mixins",
    "templatetags.rb_extensions",
    "fill-database",
    "hostingsvcs.bitbucket",
    "webapi.resources.draft_file_attachment",
    "ssh.utils",
    "reviews.evolutions",
    "accounts.forms.pages",
    "reviewboard.changedescs.models",
    "contrib.tools.generate_extension",
    "admin.templatetags",
    "hostingsvcs.errors",
    "reviewboard.accounts.managers",
    "github",
    "commands.loaddb",
    "reviewboard.scmtools.evolutions.repository_hosting_accounts",
    "hostingsvcs.evolutions.account_hosting_url",
    "tests.test_screenshot_draft",
    "_ext",
    "draft_diff",
    "test_user",
    "accounts.forms",
    "reviewboard.admin.urls",
    "contrib.internal.test-upgrade",
    "svn.subvertpy",
    "reviewboard.reviews.models.file_attachment_comment",
    "reviewboard.webapi.tests.mixins",
    "contrib.internal.conf",
    "manual._ext.webapidocs",
    "evolutions.change_descriptions",
    "reviewboard.hostingsvcs.hook_utils",
    "reviews.evolutions.null_repository",
    "accounts.evolutions.localsiteprofile_permissions",
    "reviewboard.scmtools.svn",
    "reviewboard.diffviewer.myersdiff",
    "reviewboard.notifications.templatetags.markdown_email",
    "evolutions.base_comment_extra_data",
    "tests.mixins_extra_data",
    "reviewboard.webapi.tests.test_watched_review_group",
    "reviewboard.reviews.evolutions.add_issues_to_comments",
    "reviewboard.webapi.tests.test_review_reply_diff_comment",
    "reviewboard.scmtools.evolutions.bugzilla_url_charfield",
    "reviewboard.attachments.models",
    "webapi.tests.test_draft_diff",
    "evolutions.extra_data",
    "webapi.resources.watched_review_group",
    "templatetags.difftags",
    "docs.manual.settings_local",
    "admin.forms",
    "gitlab",
    "tests.test_draft_filediff",
    "reviewboard.reviews.forms",
    "reviews.evolutions.review_request_issue_counts",
    "webapi.tests.test_default_reviewer",
    "webapi.resources",
    "changedescs",
    "reviewboard.scmtools.cvs",
    "changedescs.tests",
    "manual.docsmanage",
    "docs.manual._ext.httprole",
    "webapi.tests.test_review_request_draft",
    "reviewboard.hostingsvcs.bugzilla",
    "scmtools.evolutions.repository_access_control",
    "reviews.managers",
    "review_request_last_update",
    "docs.releasenotes",
    "rbssh",
    "reviewboard.attachments.mimetypes",
    "reviewboard.attachments.evolutions.file_attachment_file_max_length_512",
    "docs.manual.conf",
    "reviewboard.scmtools.svn.pysvn",
    "chunk_generator",
    "reviewboard.scmtools.core",
    "webapi.errors",
    "hostingsvcs.management.commands",
    "reviewboard.reviews",
    "evolutions.group_incoming_request_count",
    "commands.resolve-check",
    "evolutions.review_request_depends_on",
    "mixins_review",
    "contrib.tools.templates.extensions.extension",
    "file_attachment_file_max_length_512",
    "reviewboard.scmtools.evolutions.localsite",
    "evolutions.group_mailing_list_charfield",
    "commands.disable-extension",
    "docs.releasenotes._ext.extralinks",
    "differ",
    "reviewboard.diffviewer.evolutions.add_diff_hash",
    "webapi.resources.session",
    "reviewboard.webapi.resources.review_reply_file_attachment_comment",
    "base",
    "codebasehq",
    "webapi.resources.review_request_last_update",
    "contrib.tools.templates.extensions.extension.admin_urls",
    "diffviewer.testdata.orig_src.helloworld",
    "scmtools.svn.pysvn",
    "ui.text",
    "test_session",
    "evolutions.review_request_draft_commit_id",
    "resources.patched_file",
    "review_reply_screenshot_comment",
    "scmtools.forms",
    "reviewboard.webapi.tests.test_diff",
    "internal.webapi-lint",
    "hostingsvcs.evolutions.account_hosting_url_max_length_255",
    "reviewboard.webapi.resources.review",
    "reviewboard.reviews.evolutions.review_request_issue_counts",
    "smdiff",
    "svn.base",
    "reviewboard.webapi.resources.base_comment",
    "repository_commits",
    "resolve-check",
    "group_site",
    "reviewboard.scmtools.evolutions.repository_visible",
    "reviewboard.diffviewer.evolutions.diffset_basedir",
    "diffviewer.renderers",
    "service",
    "reviewboard.attachments.evolutions.file_attachment_orig_filename",
    "webapi.resources.diff_context",
    "reviewboard.scmtools.evolutions.unique_together_baseline",
    "accounts.forms.auth",
    "reviews.ui.image",
    "reviewboard.diffviewer.evolutions.filediff_filenames_1024_chars",
    "diffviewer.evolutions.filediffdata_line_counts",
    "reviewboard.webapi.resources.search",
    "diffviewer.views",
    "shipit_count",
    "base_file_attachment_comment",
    "svn.pysvn",
    "diffviewer.templatetags.difftags",
    "reviewboard.extensions.conf.settings_local",
    "reviewboard.hostingsvcs.service",
    "reviews.management",
    "reviewboard.settings",
    "reviewboard.webapi.tests.urls",
    "evolutions.repository_visible",
    "webapi.resources.hosting_service",
    "ui.base",
    "reviews.admin",
    "webapi.resources.review_reply_file_attachment_comment",
    "builtin_fields",
    "scmtools.perforce_vmware",
    "webapi.resources.review_request_draft",
    "reviewboard.diffviewer.tests",
    "site.templatetags",
    "reviews.markdown_utils",
    "reviewboard.site.tests",
    "myersdiff",
    "test_watched_review_request",
    "evolutions.file_attachment_orig_filename",
    "admin.urls",
    "account_unique_together_baseline",
    "webapi.tests.test_review_reply",
    "reviewboard.diffviewer.evolutions.diffset_base_commit_id",
    "evolutions.file_attachment_repo_path_no_index",
    "reviewboard.site.context_processors",
    "site.context_processors",
    "reviewboard.webapi.tests.test_repository_branches",
    "evolutions.diffsethistory_diff_updated",
    "contrib.profiling",
    "reviewboard.webapi.resources.original_file",
    "reviewboard.scmtools.svn.subvertpy",
    "reviewboard.scmtools.tests",
    "admin.management.evolutions",
    "reviews.search_indexes",
    "localsite",
    "reviews.evolutions.file_attachment_comment_diff_id",
    "reviews.evolutions.review_request_draft_commit_id",
    "reviewboard.webapi.resources.base_diff_comment",
    "internal",
    "diffviewer.evolutions.diffset_basedir",
    "build-media",
    "reviewboard.webapi.resources.watched_review_group",
    "webapi.resources.review_request",
    "hostingsvcs.evolutions",
    "reviewboard.webapi.resources.session",
    "accounts.admin",
    "dumpdb",
    "reviewboard.notifications.tests",
    "datagrids.grids",
    "reviewboard.hostingsvcs.unfuddle",
    "index",
    "rbadmintags",
    "reviewboard.webapi.tests.test_review_reply_screenshot_comment",
    "evolutions.filediff_status",
    "errors",
    "models.review_request_draft",
    "reviewboard.attachments.evolutions.file_attachment_repo_info",
    "reviewboard.webapi.tests.test_user",
    "resources.base_screenshot_comment",
    "diffviewer.smdiff",
    "reviewboard.hostingsvcs.gitorious",
    "markdownui",
    "reviewboard.diffviewer.testdata.new_src.helloworld",
    "bzr",
    "repository_hosting_accounts",
    "condensediffs",
    "admin.management.sites",
    "reviewboard.diffviewer.evolutions.add_parent_diffs",
    "reviews.models.default_reviewer",
    "reviews.tests",
    "reviewboard.attachments.tests",
    "run-pyflakes",
    "reviewboard.scmtools.perforce_vmware",
    "docs.manual.docsmanage",
    "tests.test_repository",
    "docs.manual",
    "reviewboard.accounts.models",
    "extralinks",
    "docs.codebase.conf",
    "accounts.middleware",
    "session",
    "certs",
    "file_attachments",
    "tests.mixins",
    "cmdline.rbssh",
    "webapi.resources.review_group",
    "paginator",
    "reviews.evolutions.review_request_depends_on",
    "reviewboard.attachments",
    "loaddb",
    "hostingsvcs.models",
    "import_utils",
    "docs.releasenotes._ext.retina_images",
    "email",
    "accounts.evolutions.is_private",
    "evolutions.default_reviewer_local_site",
    "base_review",
    "testdata",
    "columns",
    "reviewboard.webapi.resources.review_screenshot_comment",
    "test_repository_commits",
    "reviewboard.admin.management.commands.dumpdb",
    "reviewboard.cmdline.rbsite",
    "repository_access_control",
    "reviewboard.accounts.middleware",
    "reviews.signals",
    "reviewboard.site.decorators",
    "reviewboard.webapi.resources.filediff",
    "attachments.managers",
    "docs.codebase",
    "evolutions.localsite",
    "reviewboard.reviews.evolutions.null_repository",
    "reviewboard.webapi.tests.test_review_screenshot_comment",
    "fields",
    "resources.review_file_attachment_comment",
    "scmtools.managers",
    "reviews.models.review_request_draft",
    "cache_stats",
    "reviewboard.webapi.tests.test_review_comment",
    "reviews.ui.markdownui",
    "reviewboard.testing.testcase",
    "webapi.resources.repository_info",
    "management.commands.condensediffs",
    "release",
    "releasenotes",
    "reviews.evolutions.default_reviewer_local_site",
    "resources.review_draft",
    "reviews.evolutions.commit_id",
    "reviewboard.webapi.resources.base_watched_object",
    "reviewboard.accounts.evolutions.localsiteprofile_permissions",
    "diffset_basedir",
    "reviews.evolutions.group_invite_only",
    "reviewboard.webapi.resources.screenshot_comment",
    "webapi.resources.review_screenshot_comment",
    "reviewboard.ssh",
    "scmtools.admin",
    "test_root",
    "reviewboard.diffviewer.evolutions.filediff_status",
    "reviewboard.accounts.forms",
    "reviewboard.webapi.tests.mixins_review",
    "reviewboard.reviews.models.group",
    "sites",
    "resources.review_group",
    "docs.manual._ext.webapidocs",
    "docs.codebase.settings_local",
    "reviewboard.webapi.tests.test_server_info",
    "profiling",
    "test_review",
    "webapi.resources.base_file_attachment",
    "webapi.resources.base_file_attachment_comment",
    "testdata.orig_src.helloworld",
    "reviewboard.extensions.management.commands.list-extensions",
    "reviewboard.webapi.tests.test_screenshot_comment",
    "accounts.tests",
    "tests.test_root",
    "diff_file_attachment",
    "profile_show_closed",
    "releasenotes._ext.retina_images",
    "resources.user",
    "reviewboard.webapi.resources.base_file_attachment_comment",
    "reviewboard.scmtools.errors",
    "hostingsvcs.admin",
    "evolutions.file_attachment_comment_extra_data",
    "reviewboard.accounts.forms.auth",
    "test_file_attachment",
    "webapi.resources.review",
    "reviewboard.changedescs.admin",
    "context",
    "extensions.extension.views",
    "reviews.evolutions.group_mailing_list_charfield",
    "reviewboard.admin.cache_stats",
    "resources.file_attachment_comment",
    "reviewboard.webapi.tests.test_review_group_user",
    "reviewboard.accounts.evolutions.is_private",
    "resources.draft_filediff",
    "reviews.models.review_request",
    "admin.context_processors",
    "resources.root",
    "tests.test_watched_review_request",
    "reviewboard.hostingsvcs.management",
    "reviewboard.scmtools.svn.base",
    "templates.extensions.extension",
    "diff",
    "fixscreenshots",
    "reviewboard.accounts.urls",
    "reviews.management.commands.fixreviewcounts",
    "reviewboard.reviews.ui.text",
    "reviewboard.admin.management.commands.loaddb",
    "reviewboard.admin.middleware",
    "fedorahosted",
    "management.commands.index",
    "webapi.resources.hosting_service_account",
    "reviewboard.scmtools.evolutions.repository_path_length_255",
    "models.screenshot_comment",
    "admin.validation",
    "reviewboard.diffviewer.forms",
    "reviews.evolutions.default_reviewer_repositories",
    "evolutions.repository_access_control",
    "reviewboard.scmtools.clearcase",
    "reviewboard.webapi.tests.test_review_request",
    "ssh.client",
    "extensions.tests",
    "reviewboard.webapi.decorators",
    "diffviewer.templatetags",
    "contrib.internal.webapi-lint",
    "tests.test_review_screenshot_comment",
    "webapi.tests.test_screenshot",
    "webapi.tests.test_watched_review_group",
    "base_file_attachment",
    "reviews",
    "reviews.evolutions.shipit_count",
    "clearcase",
    "gitorious",
    "reviewboard.admin.templatetags",
    "site.admin",
    "reviews.views",
    "reviewboard.webapi.tests.test_file_attachment",
    "tools.generate_extension",
    "scmtools.management.commands.registerscmtools",
    "reviewboard.hostingsvcs.evolutions.account_unique_together_baseline",
    "reviewboard.webapi.resources.review_request_draft",
    "cmdline",
    "internal.build-media",
    "draft_file_attachment",
    "hostingsvcs.github",
    "conf",
    "reviews.templatetags.reviewtags",
    "evolutions.null_repository",
    "accounts.evolutions.timezone_length_30",
    "webapi.tests.test_root",
    "reviewboard.diffviewer.management",
    "resources.review_reply_screenshot_comment",
    "scmtools.certs",
    "admin.checks",
    "contrib.internal.build-i18n",
    "webapi.tests.test_diff_file_attachment",
    "reviewboard.diffviewer.chunk_generator",
    "models.group",
    "webapi.tests",
    "base_comment",
    "admin.support",
    "templates",
    "extensions.conf",
    "webapi.resources.diff",
    "internal.run-pyflakes",
    "hostingsvcs.management.commands.reset-github-tokens",
    "orig_src.helloworld",
    "diffviewer.opcode_generator",
    "reviewboard.scmtools.models",
    "reviewboard.webapi.tests.base",
    "null_repository",
    "reviewboard.accounts.evolutions.unique_together_baseline",
    "reviewboard.reviews.ui.base",
    "reviewboard.reviews.evolutions.commit_id",
    "user",
    "reviewboard.reviews.models.default_reviewer",
    "reviewboard.webapi.resources.draft_diff",
    "management.commands.fixscreenshots",
    "scmtools.plastic",
    "reviewboard.webapi.tests.test_file_attachment_draft",
    "bugzilla",
    "client",
    "management.commands.list-extensions",
    "reviewboard.ssh.policy",
    "localsiteprofile_permissions",
    "internal.devserver",
    "repository_extra_data_null",
    "reviewboard.diffviewer.testdata.new_src",
    "reviewboard.diffviewer.management.commands.condensediffs",
    "reviewboard.datagrids.urls",
    "reviewboard.webapi.tests.test_review_reply_file_attachment_comment",
    "sidebar",
    "hostingsvcs.gitlab",
    "tests.test_change",
    "reviewboard.reviews.tests",
    "reviewboard.accounts.forms.pages",
    "scmtools",
    "forms.registration",
    "reviewboard.hostingsvcs.github",
    "webapi.tests.test_server_info",
    "reviewboard.reviews.models.base_review_request_details",
    "diff_context",
    "evolutions.reviewrequest_unique_together_baseline",
    "reviewboard.webapi.resources.review_reply_diff_comment",
    "reviews.evolutions.file_attachment_comment_extra_data",
    "reviewboard.scmtools.signals",
    "reviewboard.datagrids.builtin_items",
    "site.tests",
    "tools.templates.extensions.extension.views",
    "scmtools.crypto_utils",
    "reviews.ui.screenshot",
    "hostingsvcs.forms",
    "reviewboard.diffviewer.processors",
    "reviewboard.reviews.evolutions.shipit_count",
    "reviewboard.reviews.errors",
    "diffsethistory_diff_updated",
    "filediff",
    "reviewboard.reviews.evolutions.default_reviewer_repositories",
    "manual",
    "beanstalk",
    "reviewboard.site.templatetags",
    "scmtools.svn.subvertpy",
    "evolutions",
    "scmtools.core",
    "reviewboard.webapi.resources.review_reply_screenshot_comment",
    "tools.templates.extensions.extension.extension",
    "webapi.tests.test_repository",
    "hostingsvcs.tests",
    "tests.test_review_reply_screenshot_comment",
    "webapi.tests.test_file_attachment_comment",
    "reviews.models.screenshot",
    "evolutions.timezone_length_30",
    "reviewboard.webapi.resources.diff_file_attachment",
    "reviewboard.reviews.signals",
    "reviewboard.admin.import_utils",
    "repository_path_length_255",
    "resources.review_group_user",
    "management.commands.reset-github-tokens",
    "webapi.resources.root",
    "reviewboard.hostingsvcs.managers",
    "webapi.resources.diff_file_attachment",
    "evolutions.review_request_issue_counts",
    "internal.build-i18n",
    "reviewboard.diffviewer.testdata",
    "reviewboard.reviews.templatetags",
    "group_incoming_request_count",
    "new_src.helloworld",
    "core",
    "attachments.evolutions.file_attachment_repo_info",
    "reviewboard.webapi.resources.review_reply",
    "repository",
    "reviewboard.accounts.evolutions.timezone_length_30",
    "reviewboard.webapi.tests.test_repository_commits",
    "hostingsvcs.urls",
    "reviewboard.changedescs.evolutions.fields_changed_longtext",
    "reviewboard.webapi.resources.review_file_attachment_comment",
    "tests.test_user",
    "admin.siteconfig",
    "reviewboard.webapi.resources",
    "tools.templates",
    "diff_comment",
    "site.decorators",
    "ui.screenshot",
    "file_attachment_comment_extra_data",
    "extensions",
    "reviewboard.webapi.resources.file_attachment",
    "webapi.resources.user",
    "managers",
    "models.base_review_request_details",
    "test_screenshot_comment",
    "reviewboard.hostingsvcs.utils",
    "reviewboard.notifications.templatetags",
    "contrib",
    "admin.middleware",
    "test_review_reply",
    "scmtools.svn",
    "resources.file_attachment",
    "git",
    "attachments.evolutions.file_attachment_orig_filename",
    "reviewboard.site",
    "support",
    "scmtools.localfile",
    "models.default_reviewer",
    "redmine",
    "scmtools.errors",
    "webapi.tests.test_review_comment",
    "reviews.templatetags",
    "evolutions.filediff_filenames_1024_chars",
    "reviewboard.admin.validation",
    "_ext.httprole",
    "orig_src",
    "resources.draft_screenshot",
    "reviewboard.reviews.evolutions.last_review_timestamp",
    "reviewboard.webapi.tests.test_repository",
    "webapi.resources.default_reviewer",
    "encoder",
    "notifications",
    "reviewboard.reviews.ui.markdownui",
    "reviewboard.extensions.templatetags.rb_extensions",
    "resources.draft_diff",
    "diffviewer.evolutions.filediff_filenames_1024_chars",
    "reviewboard.webapi.resources.base_screenshot",
    "evolutions.file_attachment_comment_diff_id",
    "pysvn",
    "diffset_base_commit_id",
    "testdata.orig_src",
    "models.screenshot",
    "middleware",
    "datagrids.columns",
    "evolutions.group_visible",
    "mtn",
    "reviewboard.webapi.resources.base_review",
    "reviewboard.reviews.evolutions.review_request_depends_on",
    "contrib.tools.templates",
    "draft_filediff",
    "reviewboard.admin.views",
    "reviewboard.reviews.management.commands",
    "base_screenshot",
    "extensions.views",
    "reviewboard.webapi.tests.test_validate_diff",
    "resources.review_request_last_update",
    "parser",
    "reviewboard.hostingsvcs.bitbucket",
    "prepare-dev",
    "timezone",
    "sourceforge",
    "accounts.context_processors",
    "docs.releasenotes.conf",
    "webapi.resources.change",
    "evolutions.add_parent_diffs",
    "models.file_attachment_comment",
    "reviewboard.reviews.markdown_utils",
    "evolutions.account_unique_together_baseline",
    "test_diff",
    "reviewboard.extensions.hooks",
    "reviews.evolutions.group_incoming_request_count",
    "diffviewer.evolutions.add_parent_diffs",
    "reviewboard.diffviewer.renderers",
    "reviewboard.reviews.evolutions.file_attachment_comment_extra_data",
    "reviewboard.webapi.resources.diff",
    "reviewboard.datagrids.grids",
    "models",
    "diffviewer.tests",
    "utils.paginator",
    "reviewboard.accounts.tests",
    "test_review_group_user",
    "_ext.webapidocs",
    "evolutions.all_extra_data",
    "reviews.forms",
    "change_descriptions",
    "reviewboard.hostingsvcs.utils.paginator",
    "group_visible",
    "svn",
    "base_comment_extra_data",
    "reviews.models.base_review_request_details",
    "evolutions.repository_raw_file_url",
    "diffutils",
    "tests.test_draft_diff",
    "webapi.resources.file_attachment",
    "reviews.models.group",
    "filetypes",
    "webapi.tests.test_user",
    "scmtools.tests",
    "diffviewer.testdata",
    "commands.condensediffs",
    "reviewboard.site.templatetags.localsite",
    "reviewboard.testing",
    "tests.test_review_comment",
    "webapi.tests.test_validate_diff",
    "reviewboard.diffviewer.management.commands",
    "webapi.tests.test_file_diff_comment",
    "docs.manual._ext.retina_images",
    "reviewboard.extensions.conf",
    "notifications.templatetags.markdown_email",
    "admin.import_utils",
    "evolutions.repository_hosting_accounts",
    "accounts.evolutions.timezone",
    "webapi.tests.test_review_group",
    "extensions.management.commands.list-extensions",
    "accounts.forms.registration",
    "admin.management.commands.dumpdb",
    "webapi.resources.review_reply",
    "test_review_reply_diff_comment",
    "reviewboard.ssh.client",
    "webapi.tests.test_review_group_user",
    "reviewboard.diffviewer.evolutions",
    "reviewboard.diffviewer",
    "reviewboard.scmtools.management",
    "resources",
    "webapi.tests.mixins_review",
    "evolutions.rich_text",
    "contrib.tools.templates.extensions.extension.views",
    "cmdline.rbsite",
    "versionone",
    "resources.change",
    "reviewboard.webapi.resources.base_file_attachment",
    "add_diff_hash",
    "resources.hosting_service",
    "commands.dumpdb",
    "internal.conf.settings_local",
    "releasenotes._ext.extralinks",
    "reviewboard.hostingsvcs.forms",
    "resources.repository_commits",
    "webapi.tests.test_diff",
    "releasenotes.conf",
    "reviewboard.webapi.resources.review_request",
    "internal.test-upgrade",
    "webapi.tests.test_file_attachment_draft",
    "reviewboard.hostingsvcs.sourceforge",
    "gather_profile_stats",
    "diffviewer.chunk_generator",
    "test_repository_info",
    "reviewboard.extensions.management.commands.disable-extension",
    "review_reply",
    "subvertpy",
    "admin.management.commands.loaddb",
    "reviewboard.datagrids.sidebar",
    "reviews.models",
    "webapi.resources.patched_file",
    "reviews.builtin_fields",
    "reviewboard.ssh.errors",
    "reviewboard.reviews.evolutions.change_descriptions",
    "resources.hosting_service_account",
    "webapi.resources.watched",
    "extensions.management.commands",
    "evolutions.file_attachment_repo_revision_max_length_64",
    "reviewboard.reviews.evolutions.file_attachment_comment_diff_id",
    "reviewboard.webapi.resources.hosting_service",
    "watched_review_request",
    "context_processors",
    "reviewboard.scmtools",
    "contrib.internal.devserver",
    "reviewboard.reviews.evolutions",
    "review_request_depends_on",
    "site.evolutions",
    "manual.conf",
    "watched_review_group",
    "extensions.management.commands.disable-extension",
    "changedescs.evolutions",
    "reviewboard.webapi.tests.test_review_group",
    "reviewboard.hostingsvcs.evolutions",
    "models.review_request",
    "ui.markdownui",
    "rich_text",
    "contrib.profiling.print_info",
    "resources.review_reply_file_attachment_comment",
    "reviewboard.diffviewer.filetypes",
    "tests.test_server_info",
    "extensions.management",
    "reviewboard.hostingsvcs.tests",
    "reviewboard.admin.context_processors",
    "test",
    "scmtools.mtn",
    "webapi.resources.repository",
    "reviewboard.hostingsvcs.errors",
    "webapi.resources.base_screenshot_comment",
    "change",
    "diffviewer.managers",
    "scmtools.perforce",
    "reviewboard.attachments.managers",
    "evolutions.group_invite_only",
    "reviewboard.accounts.admin",
    "siteconfig",
    "resources.repository_branches",
    "testing.testcase",
    "forms.pages",
    "reviewboard.webapi.tests",
    "reviews.management.commands.fixscreenshots",
    "reviewboard.webapi.tests.test_hosting_service",
    "screenshot_comment",
    "accounts.signals",
    "review_reply_draft",
    "reviewboard.accounts.evolutions",
    "reviewboard.attachments.admin",
    "reviewboard.scmtools.evolutions",
    "hostingsvcs",
    "webapi.resources.review_file_attachment_comment",
    "manage",
    "reviewboard.admin.templatetags.rbadmintags",
    "reviews.evolutions.reviewrequest_unique_together_baseline",
    "reviewboard.webapi.tests.test_screenshot",
    "new_src",
    "diffviewer.evolutions.add_diff_hash",
    "scmtools.evolutions.bugzilla_url_charfield",
    "resources.base_comment",
    "ssh.errors",
    "tools",
    "reviewboard.diffviewer.evolutions.filediffdata_line_counts",
    "filediff_comment",
    "attachments.forms",
    "reviewboard.webapi.tests.test_session",
    "reviewboard.webapi.tests.test_review_reply",
    "accounts.urls",
    "reviewboard.webapi",
    "diffviewer.filetypes",
    "reviews.ui",
    "contrib.internal.release",
    "reviewboard.hostingsvcs.redmine",
    "reviewboard.webapi.resources.patched_file",
    "resources.validation",
    "reviewboard.accounts.errors",
    "webapi.tests.mixins_comment",
    "evolutions.filediffdata_extra_data",
    "webapi.resources.base_screenshot",
    "diffviewer.testdata.orig_src",
    "templates.extensions.extension.extension",
    "file_attachment",
    "reviewboard.reviews.management",
    "builtin_items",
    "accounts.backends",
    "retina_images",
    "reviewtags",
    "reviewboard.notifications",
    "reviewboard.reviews.builtin_fields",
    "reviewboard.webapi.resources.diff_context",
    "scmtools.management.commands",
    "reviewboard.hostingsvcs.urls",
    "reviewboard.diffviewer.differ",
    "templatetags.localsite",
    "tests.test_review_group",
    "print_info",
    "management.sites",
    "resources.diff",
    "test_screenshot_draft",
    "group_email_list_only",
    "file_attachment_repo_revision_max_length_64",
    "validate_diff",
    "resources.filediff",
    "settings_local",
    "reviewboard.webapi.server_info",
    "scmtools.evolutions.unique_together_baseline",
    "webapi.tests.test_repository_branches",
    "evolutions.localsiteprofile_permissions",
    "scmtools.cvs",
    "reviewboard.reviews.models.base_comment",
    "reviews.management.commands.index",
    "evolutions.account_hosting_url",
    "reviewboard.scmtools.perforce",
    "resources.validate_diff",
    "test_review_reply_screenshot_comment",
    "reviewboard.extensions.templatetags",
    "reviewboard.diffviewer.testdata.orig_src.helloworld",
    "open_an_issue",
    "test_review_reply_file_attachment_comment",
    "reviewboard.scmtools.management.commands.registerscmtools",
    "base_diff_comment",
    "webapi.tests.test_file_attachment",
    "test_server_info",
    "changedescs.evolutions.rich_text",
    "evolutions.account_hosting_url_max_length_255",
    "scmtools.evolutions.repository_hosting_accounts",
    "reviewboard.admin.management.commands.resolve-check",
    "repository_branches",
    "attachments.tests",
    "reviews.evolutions.group_visible",
    "evolutions.repository_path_length_255",
    "resources.review_reply_draft",
    "diffviewer.errors",
    "reviewboard.datagrids",
    "reviewboard.hostingsvcs.evolutions.account_hosting_url_max_length_255",
    "scmtools.management",
    "reviewboard.scmtools.evolutions.group_site",
    "webapi.resources.validate_diff",
    "repository_info",
    "reviewboard.accounts",
    "hostingsvcs.googlecode",
    "webapi.base",
    "fields_changed_longtext",
    "webapi.tests.test_screenshot_comment",
    "management.evolutions",
    "reviewboard.site.urlresolvers",
    "reviewboard.attachments.forms",
    "hostingsvcs.management",
    "reviewboard.reviews.evolutions.extra_data",
    "urlresolvers",
    "reviewboard.attachments.evolutions.file_attachment_repo_path_no_index",
    "templatetags.reviewtags",
    "reviewboard.webapi.tests.test_review",
    "webapi.tests.test_hosting_service",
    "reviewboard.reviews.management.commands.fixreviewcounts",
    "internal.prepare-dev",
    "reviewboard.webapi.resources.validation",
    "datagrids.tests",
    "attachments.evolutions.file_attachment_file_max_length_512",
    "reviewboard.extensions.base",
    "group",
    "test-upgrade",
    "staticbundles",
    "review_reply_file_attachment_comment",
    "forms",
    "datagrids",
    "policy",
    "test_review_request_draft",
    "manual._ext",
    "review_draft",
    "views",
    "docs",
    "hostingsvcs.sourceforge",
    "test_repository_branches",
    "reviewboard.webapi.resources.repository_commits",
    "localsite_public",
    "diffviewer.testdata.new_src",
    "internal.conf",
    "datagrids.views",
    "evolutions.default_reviewer_repositories",
    "resources.search",
    "diffviewer.management.commands",
    "reviewboard.diffviewer.evolutions.all_extra_data",
    "diffviewer.evolutions",
    "review_request_draft",
    "test_diff_file_attachment",
    "testdata.new_src",
    "reviewboard.manage",
    "resources.review_request",
    "reviewboard.webapi.resources.default_reviewer",
    "hostingsvcs.gitorious",
    "webapi.resources.server_info",
    "reviews.models.diff_comment",
    "releasenotes._ext",
    "filediffdata_extra_data",
    "repository_visible",
    "reviewboard.reviews.ui.image",
    "evolutions.review_request_last_review_activity_timestamp",
    "evolutions.fields_changed_longtext",
    "commands.enable-extension",
    "webapi.tests.test_review_reply_screenshot_comment",
    "reviewboard.reviews.models.review",
    "reviews.ui.text",
    "manual._ext.httprole",
    "scmtools.evolutions",
    "scmtools.evolutions.group_site",
    "hostingsvcs.utils.tests",
    "site.models",
    "webapi.resources.base_diff_comment",
    "review_request_issue_counts",
    "reviewboard.webapi.tests.mixins_extra_data",
    "registerscmtools",
    "management.commands.dumpdb",
    "reviewboard.webapi.tests.test_repository_info",
    "webapi.resources.review_reply_draft",
    "tests.test_file_attachment_draft",
    "reviews.evolutions.file_attachments",
    "decorators",
    "reviews.evolutions.last_review_timestamp",
    "reviewboard.admin.management.sites",
    "extension.extension",
    "test_review_request",
    "reviews.evolutions.base_comment_extra_data",
    "generate_extension",
    "reviewboard.reviews.models.review_request_draft",
    "reviewboard.reviews.management.commands.index",
    "opcode_generator",
    "reviewboard.diffviewer.errors",
    "evolutions.file_attachments",
    "reviewboard.webapi.resources.watched",
    "reviews.evolutions.unique_together_baseline",
    "accounts.evolutions.open_an_issue",
    "test_review_screenshot_comment",
    "reviewboard.reviews.evolutions.review_request_draft_commit_id",
    "tests.test_review_reply",
    "test_repository",
    "reviewboard.admin.management.evolutions",
    "hosting_service_account",
    "webapi.resources.repository_branches",
    "group_invite_only",
    "reviewboard.notifications.email",
    "webapi.tests.test_review_reply_diff_comment",
    "evolutions.localsite_public",
    "admin_urls",
    "security_checks",
    "reviewboard.accounts.evolutions.extra_data",
    "reviewboard.hostingsvcs.beanstalk",
    "scmtools.git",
    "reviewboard.webapi.resources.hosting_service_account",
    "draft_screenshot",
    "testing.scmtool",
    "management",
    "plastic",
    "reviewboard.admin",
    "widgets",
    "extensions.packaging",
    "add_issues_to_comments",
    "docs.releasenotes._ext",
    "localfile",
    "tests.test_hosting_service",
    "testing",
    "codebase.conf",
    "webapi.tests.test_change",
    "reviewboard.datagrids.tests",
    "hostingsvcs.codebasehq",
    "reviews.evolutions.rich_text",
    "perforce",
    "scmtools.clearcase",
    "diffviewer.processors",
    "tests.test_review_request",
    "reviewboard.admin.checks",
    "test_default_reviewer",
    "reviewboard.reviews.models.review_request",
    "webapi-lint",
    "admin.management",
    "file_attachment_repo_path_no_index",
    "markdown_utils",
    "resources.repository_info",
    "reviewboard.webapi.resources.root",
    "models.review",
    "resources.server_info",
    "contrib.profiling.gather_profile_stats",
    "templates.extensions.extension.admin_urls",
    "reviewboard.datagrids.columns",
    "hostingsvcs.bugzilla",
    "webapi.tests.mixins",
    "evolutions.file_attachment_repo_info",
    "contrib.tools",
    "notifications.tests",
    "reviewboard.scmtools.evolutions.repository_extra_data_null",
    "templatetags.markdown_email",
    "webapi.tests.test_screenshot_draft",
    "reviewboard.accounts.evolutions.timezone",
    "review_file_attachment_comment",
    "reviewboard.reviews.management.commands.fixscreenshots",
    "commands.fill-database",
    "evolutions.open_an_issue",
    "reviewboard.reviews.models.diff_comment",
    "diffviewer.myersdiff",
    "reviewboard.webapi.resources.repository",
    "hostingsvcs.repository",
    "admin.management.commands.resolve-check",
    "reviewboard.webapi.resources.server_info",
    "group_mailing_list_charfield",
    "commands.index",
    "review_request",
    "tests.mimetypes",
    "profiling.gather_profile_stats",
    "tests.test_review_request_draft",
    "reviewboard.webapi.resources.draft_screenshot",
    "reviews.models.screenshot_comment",
    "notifications.templatetags",
    "webapi.resources.base_watched_object",
    "reviewboard.admin.widgets",
    "resources.base_screenshot",
    "webapi.tests.test_review",
    "resources.base_file_attachment_comment",
    "pages",
    "reviewboard.hostingsvcs.trac",
    "resources.watched_review_group",
    "_ext.extralinks",
    "templatetags",
    "reviews.management.commands.fill-database",
    "testcase",
    "resources.review_screenshot_comment",
    "review_request_last_review_activity_timestamp",
    "reviewboard.scmtools.mtn",
    "test_validate_diff",
    "file_attachment_repo_info",
    "text",
    "reviewboard.reviews.context",
    "reviewboard.scmtools.hg",
    "reviews.evolutions.review_request_last_review_activity_timestamp",
    "commands.fixreviewcounts",
    "resources.review_request_draft",
    "patched_file",
    "reviewboard.scmtools.localfile",
    "reviewboard.reviews.models",
    "reviewboard.webapi.resources.file_attachment_comment",
    "commands.list-extensions",
    "reviewboard.accounts.views",
    "webapi.tests.test_session",
    "reviewboard.admin.siteconfig",
    "tests.test_review_group_user",
    "webapidocs",
    "reviewboard.diffviewer.smdiff",
    "evolutions.profile_show_closed",
    "management.commands.resolve-check",
    "reviewboard.reviews.evolutions.reviewrequest_unique_together_baseline",
    "webapi.resources.review_diff_comment",
    "reviewboard.diffviewer.testdata.orig_src",
    "reviewboard.reviews.evolutions.group_incoming_request_count",
    "management.commands.fixreviewcounts",
    "ssh",
    "reviewboard.webapi.tests.mimetypes",
    "evolutions.group_site",
    "diffviewer.evolutions.filediff_status",
    "evolutions.file_attachment_file_max_length_512",
    "reviews.models.file_attachment_comment",
    "is_private",
    "site.middleware",
    "ui.image",
    "reviewboard.webapi.tests.test_root",
    "settings",
    "reviewboard.hostingsvcs.repository",
    "tests.test_repository_commits",
    "webapi.resources.base_review",
    "reviewboard.extensions",
    "reviews.evolutions.change_descriptions",
    "management.commands",
    "fixreviewcounts",
    "accounts.managers",
    "scmtools.bzr",
    "reviewboard.scmtools.evolutions.repository_raw_file_url",
    "testdata.new_src.helloworld",
    "evolutions.is_private",
    "markdown_email",
    "site.urlresolvers",
    "commands.reset-github-tokens",
    "diffviewer.testdata.new_src.helloworld",
    "reviewboard.reviews.evolutions.group_email_list_only",
    "evolutions.last_review_timestamp",
    "reviewboard.changedescs",
    "mixins_extra_data",
    "management.commands.fill-database",
    "reviewboard.webapi.resources.review_reply_draft",
    "reviewboard.webapi.resources.draft_filediff",
    "review",
    "webapi.tests.test_repository_commits",
    "review_group",
    "file_attachment_orig_filename",
    "forms.auth",
    "manual._ext.retina_images",
    "reviewrequest_unique_together_baseline",
    "ui",
    "hostingsvcs.utils",
    "checks",
    "webapi",
    "reviewboard.webapi.resources.review_request_last_update",
    "webapi.tests.mixins_extra_data",
    "webapi.resources.review_draft",
    "reviewboard.hostingsvcs.models",
    "diffviewer.parser",
    "resources.diff_file_attachment",
    "hooks",
    "diffviewer.evolutions.filediffdata_extra_data",
    "reviewboard.webapi.resources.screenshot",
    "commands",
    "webapi.tests.test_review_reply_file_attachment_comment",
    "attachments.models",
    "contrib.internal.prepare-dev",
    "test_review_comment",
    "reviewboard.webapi.resources.review_draft",
    "_ext.retina_images",
    "accounts.errors",
    "reviewboard.diffviewer.templatetags.difftags",
    "management.commands.enable-extension",
    "docs.manual._ext",
    "diffviewer.evolutions.all_extra_data",
    "resources.review_diff_comment",
    "tests.test_validate_diff",
    "reviewboard.scmtools.management.commands",
    "webapi.tests.test_repository_info",
    "devserver",
    "packaging",
    "reviewboard.hostingsvcs.management.commands.reset-github-tokens",
    "reviewboard.hostingsvcs",
    "review_screenshot_comment",
    "reviewboard.site.evolutions",
    "evolutions.unique_together_baseline",
    "evolutions.diffset_basedir",
    "reviewboard",
    "tests.test_session",
    "admin.tests",
    "scmtools.evolutions.repository_extra_data_null",
    "reviewboard.testing.scmtool",
    "resources.repository",
    "filediffdata_line_counts",
    "build-i18n",
    "reviewboard.webapi.resources.review_group",
    "reviewboard.diffviewer.diffutils",
    "reviewboard.reviews.fields",
    "hostingsvcs.beanstalk",
    "reviewboard.admin.support",
    "webapi.resources.draft_screenshot",
    "reviewboard.accounts.forms.registration",
    "filediff_status",
    "extra_data",
    "scmtools.signals",
    "reviewboard.reviews.managers",
    "tests.test_default_reviewer",
    "templatetags.rbadmintags",
    "reviewboard.attachments.evolutions",
    "models.diff_comment",
    "reviewboard.cmdline",
    "diffviewer.forms",
    "scmtools.evolutions.repository_visible",
    "reviewboard.webapi.tests.test_diff_file_attachment",
    "cvs",
    "attachments.evolutions",
    "admin",
    "reviewboard.diffviewer.opcode_generator",
    "file_attachment_comment",
    "evolutions.add_issues_to_comments",
    "resources.default_reviewer",
    "reviewboard.reviews.urls",
    "base_review_request_details",
    "perforce_vmware",
    "reviewboard.hostingsvcs.management.commands",
    "reviewboard.reviews.models.screenshot",
    "webapi.encoder",
    "reviewboard.webapi.resources.filediff_comment",
    "utils",
    "management.commands.loaddb",
    "site",
    "reviewboard.reviews.evolutions.group_mailing_list_charfield",
    "internal.release",
    "add_parent_diffs",
    "diffviewer.diffutils",
    "reviewboard.admin.forms",
    "unfuddle",
    "hook_utils",
    "reviewboard.reviews.evolutions.base_comment_extra_data",
    "accounts.evolutions.extra_data",
    "webapi.resources.search",
    "reset-github-tokens",
    "reviewboard.hostingsvcs.fedorahosted",
    "conf.settings_local",
    "tests.test_screenshot_comment",
    "reviewboard.reviews.views",
    "templates.extensions.extension.views",
    "webapi.resources.draft_filediff",
    "tests.test_diff_file_attachment",
    "urls",
    "screenshot",
    "resources.review_reply",
    "reviewboard.webapi.tests.test_default_reviewer",
    "reviewboard.webapi.tests.test_file_attachment_comment",
    "accounts.views",
    "reviewboard.hostingsvcs.versionone",
    "reviewboard.changedescs.tests",
    "auth",
    "base_watched_object",
    "reviewboard.ssh.storage",
    "diffviewer.admin",
    "resources.base_file_attachment",
    "test_review_group",
    "default_reviewer",
    "hostingsvcs.trac",
    "hostingsvcs.versionone",
    "reviewboard.admin.management",
    "scmtools.svn.base",
    "reviewboard.reviews.evolutions.file_attachments",
    "reviewboard.reviews.evolutions.default_reviewer_local_site",
    "timezone_length_30",
    "reviewboard.accounts.context_processors",
    "reviewboard.accounts.evolutions.profile_show_closed",
    "tests.test_watched_review_group",
    "reviewboard.scmtools.plastic",
    "extensions.extension.extension",
    "reviewboard.signals",
    "server_info",
    "tests.mixins_review",
    "tests.test_file_diff_comment",
    "mixins_comment",
    "models.base_comment",
    "scmtools.evolutions.localsite",
    "site.templatetags.localsite",
    "hostingsvcs.redmine",
    "reviewboard.ssh.tests",
    "tests.test_review_reply_diff_comment",
    "tests",
    "scmtools.models",
    "reviews.management.commands",
    "difftags",
    "management.commands.disable-extension",
    "reviewboard.site.validation",
    "reviewboard.reviews.admin",
    "resources.session",
    "admin.management.commands",
    "reviewboard.accounts.evolutions.open_an_issue",
    "reviewboard.webapi.resources.review_group_user",
    "admin.widgets",
    "webapi.mixins",
    "reviewboard.scmtools.certs",
    "test_draft_filediff",
    "trac",
    "reviews.evolutions.add_issues_to_comments",
    "reviewboard.admin.tests",
    "reviewboard.webapi.tests.test_change",
    "reviewboard.webapi.tests.test_draft_filediff",
    "grids",
    "test_watched_review_group",
    "reviewboard.scmtools.forms",
    "reviews.models.review",
    "review_request_draft_commit_id",
    "hostingsvcs.fedorahosted",
    "reviews.fields",
    "profiling.print_info",
    "accounts.decorators",
    "reviewboard.site.models",
    "webapi.resources.screenshot_comment",
    "reviewboard.scmtools.crypto_utils",
    "reviewboard.webapi.resources.validate_diff",
    "accounts.pages",
    "tests.mixins_comment",
    "attachments.evolutions.file_attachment_repo_revision_max_length_64",
    "extensions.templatetags.rb_extensions",
    "webapi.tests.urls",
    "reviewboard.diffviewer.admin",
    "evolutions.group_email_list_only",
    "reviewboard.webapi.resources.watched_review_request",
    "resources.screenshot",
    "datagrids.sidebar",
    "reviewboard.webapi.encoder",
    "webapi.resources.review_group_user",
    "changedescs.models",
    "reviewboard.webapi.resources.user",
    "contrib.tools.tests",
    "tools.tests",
    "test_file_attachment_comment",
    "reviewboard.admin.security_checks",
    "tests.test_diff",
    "reviewboard.staticbundles",
    "reviewboard.webapi.resources.base_screenshot_comment",
    "contrib.internal.build-media",
    "evolutions.commit_id",
    "extension",
    "reviewboard.reviews.evolutions.group_invite_only",
    "evolutions.timezone",
    "hostingsvcs.managers",
    "webapi.tests.test_review_request",
    "renderers",
    "tests.test_review",
    "resources.base_review",
    "ssh.storage",
    "enable-extension",
    "extensions.extension",
    "reviews.evolutions.extra_data",
    "tests.test_review_reply_file_attachment_comment",
    "image",
    "reviewboard.webapi.tests.test_draft_diff",
    "tests.test_file_attachment_comment",
    "attachments.evolutions.file_attachment_repo_path_no_index",
    "registration",
    "reviewboard.reviews.models.screenshot_comment",
    "reviewboard.extensions.tests",
    "tests.base",
    "attachments",
    "reviewboard.reviews.evolutions.unique_together_baseline",
    "webapi.resources.review_reply_diff_comment",
    "admin.templatetags.rbadmintags",
    "scmtools.evolutions.repository_raw_file_url",
    "extensions.templatetags",
    "accounts.evolutions",
    "bugzilla_url_charfield",
    "original_file",
    "webapi.resources.filediff_comment",
    "webapi.resources.review_reply_screenshot_comment",
    "reviewboard.webapi.tests.test_screenshot_draft",
    "file_attachment_comment_diff_id",
    "reviewboard.hostingsvcs.evolutions.account_hosting_url",
    "changedescs.evolutions.fields_changed_longtext",
    "contrib.internal",
    "reviewboard.reviews.evolutions.rich_text",
    "tools.templates.extensions.extension.admin_urls",
    "base_screenshot_comment",
    "hg",
    "scmtool",
    "filediff_filenames_1024_chars",
    "extensions.management.commands.enable-extension",
    "test_file_diff_comment",
    "reviewboard.test",
    "rbsite",
    "reviewboard.webapi.resources.repository_info",
    "webapi.resources.draft_diff",
    "webapi.tests.test_review_screenshot_comment",
    "evolutions.diffset_base_commit_id",
    "reviewboard.hostingsvcs.googlecode",
    "bitbucket",
    "resources.filediff_comment",
    "reviewboard.site.admin",
    "diffviewer.evolutions.diffsethistory_diff_updated",
    "reviewboard.extensions.management.commands",
    "accounts",
    "reviewboard.scmtools.admin",
    "reviewboard.webapi.resources.repository_branches",
    "reviewboard.webapi.resources.change",
    "reviewboard.webapi.errors",
    "default_reviewer_repositories",
    "reviewboard.site.middleware",
    "watched",
    "reviewboard.reviews.search_indexes",
    "reviewboard.diffviewer.evolutions.filediffdata_extra_data",
    "reviewboard.reviews.evolutions.localsite",
    "docsmanage",
    "backends",
    "webapi.resources.original_file",
    "storage",
    "webapi.resources.validation",
    "reviewboard.webapi.mixins",
    "commands.registerscmtools",
    "webapi.resources.repository_commits",
    "diffviewer.management.commands.condensediffs",
    "review_group_user",
    "evolutions.bugzilla_url_charfield",
    "resources.review",
    "mimetypes",
    "evolutions.repository_extra_data_null",
    "accounts.evolutions.unique_together_baseline",
    "webapi.resources.screenshot",
    "reviewboard.hostingsvcs.codebasehq",
    "reviews.evolutions.localsite",
    "reviewboard.webapi.resources.review_diff_comment",
    "admin.security_checks",
    "extensions.extension.admin_urls",
    "hostingsvcs.unfuddle",
    "reviewboard.admin.management.commands",
    "extensions.base",
    "disable-extension",
    "reviewboard.webapi.tests.test_watched_review_request",
    "test_screenshot",
    "signals",
    "validation",
    "reviewboard.diffviewer.models"
]