{
    "libs": [
        "abc",
        "uuid",
        "bisect",
        "random",
        "json",
        "b",
        "collections",
        "time",
        "copy",
        "os"
    ]
}