[
    "wsgi",
    "timelinejs.views",
    "manage",
    "timelinejs",
    "migrations",
    "example.example.wsgi",
    "example.example_usage.models",
    "timelinejs.urls",
    "example.example_usage.tests",
    "example_usage",
    "example_usage.views",
    "example.example",
    "timelinejs.migrations.0002_auto__add_field_timeline_slug",
    "timelinejs.admin",
    "example.urls",
    "example.settings",
    "migrations.0002_auto__add_field_timeline_slug",
    "tests",
    "example.manage",
    "views",
    "models",
    "example.wsgi",
    "migrations.0001_initial",
    "timelinejs.models",
    "0002_auto__add_field_timeline_slug",
    "example_usage.models",
    "timelinejs.migrations",
    "example_usage.tests",
    "example.example_usage.views",
    "example.example.urls",
    "timelinejs.migrations.0001_initial",
    "admin",
    "settings",
    "example.example_usage",
    "urls",
    "example.example.settings",
    "0001_initial",
    "example"
]