{
    "libs": [
        "cgi",
        "mimetypes",
        "logging",
        "handlers",
        "urllib",
        "datetime",
        "re",
        "ext",
        "api",
        "time",
        "webapp",
        "os"
    ]
}