[
    "crab.scoring.scorer",
    "crab.neighborhood",
    "neighborhood",
    "scoring.scorer",
    "recommender.utils",
    "utils",
    "crab.tests.test_evaluator",
    "crab.similarities.similarity_distance",
    "similarities.similarity",
    "tests.test_evaluator",
    "test_topitems",
    "crab.tests.similarities_test",
    "crab.tests",
    "scoring",
    "crab.evaluation",
    "crab.tests.models_test",
    "statistics",
    "recommender",
    "tests.test_neighborhood",
    "itemstrategies",
    "similarities",
    "similarity",
    "crab.similarities",
    "similarity_distance",
    "similarities_test",
    "crab",
    "crab.interfaces",
    "evaluation.statistics",
    "neighborhood.itemstrategies",
    "evaluation",
    "crab.models",
    "crab.similarities.similarity",
    "tests",
    "crab.neighborhood.neighborhood",
    "crab.recommender",
    "models",
    "interfaces",
    "tests.models_test",
    "tests.similarities_test",
    "recommender.recommender",
    "test_itemstrategies",
    "tests.test_recommender",
    "test_evaluator",
    "crab.tests.test_recommender",
    "scorer",
    "test_neighborhood",
    "similarities.similarity_distance",
    "models_test",
    "crab.evaluation.statistics",
    "recommender.topmatches",
    "crab.recommender.recommender",
    "neighborhood.neighborhood",
    "tests.test_topitems",
    "models.datamodel",
    "topmatches",
    "test_recommender",
    "crab.tests.test_itemstrategies",
    "crab.scoring",
    "crab.recommender.topmatches",
    "crab.tests.test_topitems",
    "crab.models.datamodel",
    "crab.recommender.utils",
    "tests.test_itemstrategies",
    "crab.tests.test_neighborhood",
    "crab.neighborhood.itemstrategies",
    "datamodel"
]