{
    "libs": [
        "sys",
        "commands",
        "b",
        "http",
        "conf",
        "optparse",
        "cache",
        "db",
        "django_nose",
        "absolute_import",
        "signals",
        "defaults",
        "time",
        "test",
        "path",
        "mock"
    ]
}