{
    "archive_url": "https://api.github.com/repos/disqus/django-modeldict/{archive_format}{/ref}",
    "assignees_url": "https://api.github.com/repos/disqus/django-modeldict/assignees{/user}",
    "blobs_url": "https://api.github.com/repos/disqus/django-modeldict/git/blobs{/sha}",
    "branches_url": "https://api.github.com/repos/disqus/django-modeldict/branches{/branch}",
    "clone_url": "https://github.com/disqus/django-modeldict.git",
    "collaborators_url": "https://api.github.com/repos/disqus/django-modeldict/collaborators{/collaborator}",
    "comments_url": "https://api.github.com/repos/disqus/django-modeldict/comments{/number}",
    "commits_url": "https://api.github.com/repos/disqus/django-modeldict/commits{/sha}",
    "compare_url": "https://api.github.com/repos/disqus/django-modeldict/compare/{base}...{head}",
    "contents_url": "https://api.github.com/repos/disqus/django-modeldict/contents/{+path}",
    "contributors_url": "https://api.github.com/repos/disqus/django-modeldict/contributors",
    "created_at": "2010-12-16T18:33:00Z",
    "default_branch": "master",
    "description": "",
    "downloads_url": "https://api.github.com/repos/disqus/django-modeldict/downloads",
    "events_url": "https://api.github.com/repos/disqus/django-modeldict/events",
    "fork": false,
    "forks": 9,
    "forks_count": 9,
    "forks_url": "https://api.github.com/repos/disqus/django-modeldict/forks",
    "full_name": "disqus/django-modeldict",
    "git_commits_url": "https://api.github.com/repos/disqus/django-modeldict/git/commits{/sha}",
    "git_refs_url": "https://api.github.com/repos/disqus/django-modeldict/git/refs{/sha}",
    "git_tags_url": "https://api.github.com/repos/disqus/django-modeldict/git/tags{/sha}",
    "git_url": "git://github.com/disqus/django-modeldict.git",
    "has_downloads": true,
    "has_issues": true,
    "has_wiki": true,
    "homepage": "http://code.disqus.com",
    "hooks_url": "https://api.github.com/repos/disqus/django-modeldict/hooks",
    "html_url": "https://github.com/disqus/django-modeldict",
    "id": 1174889,
    "issue_comment_url": "https://api.github.com/repos/disqus/django-modeldict/issues/comments/{number}",
    "issue_events_url": "https://api.github.com/repos/disqus/django-modeldict/issues/events{/number}",
    "issues_url": "https://api.github.com/repos/disqus/django-modeldict/issues{/number}",
    "keys_url": "https://api.github.com/repos/disqus/django-modeldict/keys{/key_id}",
    "labels_url": "https://api.github.com/repos/disqus/django-modeldict/labels{/name}",
    "language": "Python",
    "languages_url": "https://api.github.com/repos/disqus/django-modeldict/languages",
    "merges_url": "https://api.github.com/repos/disqus/django-modeldict/merges",
    "milestones_url": "https://api.github.com/repos/disqus/django-modeldict/milestones{/number}",
    "mirror_url": null,
    "name": "django-modeldict",
    "notifications_url": "https://api.github.com/repos/disqus/django-modeldict/notifications{?since,all,participating}",
    "open_issues": 2,
    "open_issues_count": 2,
    "owner": {
        "avatar_url": "https://avatars.githubusercontent.com/u/317745?",
        "events_url": "https://api.github.com/users/disqus/events{/privacy}",
        "followers_url": "https://api.github.com/users/disqus/followers",
        "following_url": "https://api.github.com/users/disqus/following{/other_user}",
        "gists_url": "https://api.github.com/users/disqus/gists{/gist_id}",
        "gravatar_id": "d63982d5731c59dfde8e25b458ce2ee9",
        "html_url": "https://github.com/disqus",
        "id": 317745,
        "login": "disqus",
        "organizations_url": "https://api.github.com/users/disqus/orgs",
        "received_events_url": "https://api.github.com/users/disqus/received_events",
        "repos_url": "https://api.github.com/users/disqus/repos",
        "site_admin": false,
        "starred_url": "https://api.github.com/users/disqus/starred{/owner}{/repo}",
        "subscriptions_url": "https://api.github.com/users/disqus/subscriptions",
        "type": "Organization",
        "url": "https://api.github.com/users/disqus"
    },
    "private": false,
    "pulls_url": "https://api.github.com/repos/disqus/django-modeldict/pulls{/number}",
    "pushed_at": "2012-12-04T19:49:18Z",
    "releases_url": "https://api.github.com/repos/disqus/django-modeldict/releases{/id}",
    "score": 1.0,
    "size": 190,
    "ssh_url": "git@github.com:disqus/django-modeldict.git",
    "stargazers_count": 121,
    "stargazers_url": "https://api.github.com/repos/disqus/django-modeldict/stargazers",
    "statuses_url": "https://api.github.com/repos/disqus/django-modeldict/statuses/{sha}",
    "subscribers_url": "https://api.github.com/repos/disqus/django-modeldict/subscribers",
    "subscription_url": "https://api.github.com/repos/disqus/django-modeldict/subscription",
    "svn_url": "https://github.com/disqus/django-modeldict",
    "tags_url": "https://api.github.com/repos/disqus/django-modeldict/tags",
    "teams_url": "https://api.github.com/repos/disqus/django-modeldict/teams",
    "trees_url": "https://api.github.com/repos/disqus/django-modeldict/git/trees{/sha}",
    "updated_at": "2014-05-03T06:34:58Z",
    "url": "https://api.github.com/repos/disqus/django-modeldict",
    "watchers": 121,
    "watchers_count": 121
}