[
    "tests",
    "modeldict.urls",
    "modeldict.models",
    "models",
    "modeldict.redis",
    "redis",
    "tests.modeldict.urls",
    "tests.modeldict.tests",
    "modeldict.tests",
    "modeldict",
    "base",
    "tests.modeldict",
    "modeldict.base",
    "urls",
    "tests.modeldict.models",
    "runtests"
]