{
    "archive_url": "https://api.github.com/repos/lincolnloop/python-qrcode/{archive_format}{/ref}",
    "assignees_url": "https://api.github.com/repos/lincolnloop/python-qrcode/assignees{/user}",
    "blobs_url": "https://api.github.com/repos/lincolnloop/python-qrcode/git/blobs{/sha}",
    "branches_url": "https://api.github.com/repos/lincolnloop/python-qrcode/branches{/branch}",
    "clone_url": "https://github.com/lincolnloop/python-qrcode.git",
    "collaborators_url": "https://api.github.com/repos/lincolnloop/python-qrcode/collaborators{/collaborator}",
    "comments_url": "https://api.github.com/repos/lincolnloop/python-qrcode/comments{/number}",
    "commits_url": "https://api.github.com/repos/lincolnloop/python-qrcode/commits{/sha}",
    "compare_url": "https://api.github.com/repos/lincolnloop/python-qrcode/compare/{base}...{head}",
    "contents_url": "https://api.github.com/repos/lincolnloop/python-qrcode/contents/{+path}",
    "contributors_url": "https://api.github.com/repos/lincolnloop/python-qrcode/contributors",
    "created_at": "2011-11-10T09:36:22Z",
    "default_branch": "master",
    "description": "Python QR Code image generator",
    "downloads_url": "https://api.github.com/repos/lincolnloop/python-qrcode/downloads",
    "events_url": "https://api.github.com/repos/lincolnloop/python-qrcode/events",
    "fork": false,
    "forks": 106,
    "forks_count": 106,
    "forks_url": "https://api.github.com/repos/lincolnloop/python-qrcode/forks",
    "full_name": "lincolnloop/python-qrcode",
    "git_commits_url": "https://api.github.com/repos/lincolnloop/python-qrcode/git/commits{/sha}",
    "git_refs_url": "https://api.github.com/repos/lincolnloop/python-qrcode/git/refs{/sha}",
    "git_tags_url": "https://api.github.com/repos/lincolnloop/python-qrcode/git/tags{/sha}",
    "git_url": "git://github.com/lincolnloop/python-qrcode.git",
    "has_downloads": true,
    "has_issues": true,
    "has_wiki": true,
    "homepage": "https://pypi.python.org/pypi/qrcode",
    "hooks_url": "https://api.github.com/repos/lincolnloop/python-qrcode/hooks",
    "html_url": "https://github.com/lincolnloop/python-qrcode",
    "id": 2747590,
    "issue_comment_url": "https://api.github.com/repos/lincolnloop/python-qrcode/issues/comments/{number}",
    "issue_events_url": "https://api.github.com/repos/lincolnloop/python-qrcode/issues/events{/number}",
    "issues_url": "https://api.github.com/repos/lincolnloop/python-qrcode/issues{/number}",
    "keys_url": "https://api.github.com/repos/lincolnloop/python-qrcode/keys{/key_id}",
    "labels_url": "https://api.github.com/repos/lincolnloop/python-qrcode/labels{/name}",
    "language": "Python",
    "languages_url": "https://api.github.com/repos/lincolnloop/python-qrcode/languages",
    "merges_url": "https://api.github.com/repos/lincolnloop/python-qrcode/merges",
    "milestones_url": "https://api.github.com/repos/lincolnloop/python-qrcode/milestones{/number}",
    "mirror_url": null,
    "name": "python-qrcode",
    "notifications_url": "https://api.github.com/repos/lincolnloop/python-qrcode/notifications{?since,all,participating}",
    "open_issues": 0,
    "open_issues_count": 0,
    "owner": {
        "avatar_url": "https://avatars.githubusercontent.com/u/1964?",
        "events_url": "https://api.github.com/users/lincolnloop/events{/privacy}",
        "followers_url": "https://api.github.com/users/lincolnloop/followers",
        "following_url": "https://api.github.com/users/lincolnloop/following{/other_user}",
        "gists_url": "https://api.github.com/users/lincolnloop/gists{/gist_id}",
        "gravatar_id": "34ae1f85673184b05e55f2d4f7e78e48",
        "html_url": "https://github.com/lincolnloop",
        "id": 1964,
        "login": "lincolnloop",
        "organizations_url": "https://api.github.com/users/lincolnloop/orgs",
        "received_events_url": "https://api.github.com/users/lincolnloop/received_events",
        "repos_url": "https://api.github.com/users/lincolnloop/repos",
        "site_admin": false,
        "starred_url": "https://api.github.com/users/lincolnloop/starred{/owner}{/repo}",
        "subscriptions_url": "https://api.github.com/users/lincolnloop/subscriptions",
        "type": "Organization",
        "url": "https://api.github.com/users/lincolnloop"
    },
    "private": false,
    "pulls_url": "https://api.github.com/repos/lincolnloop/python-qrcode/pulls{/number}",
    "pushed_at": "2014-04-23T03:39:27Z",
    "releases_url": "https://api.github.com/repos/lincolnloop/python-qrcode/releases{/id}",
    "score": 1.0,
    "size": 554,
    "ssh_url": "git@github.com:lincolnloop/python-qrcode.git",
    "stargazers_count": 409,
    "stargazers_url": "https://api.github.com/repos/lincolnloop/python-qrcode/stargazers",
    "statuses_url": "https://api.github.com/repos/lincolnloop/python-qrcode/statuses/{sha}",
    "subscribers_url": "https://api.github.com/repos/lincolnloop/python-qrcode/subscribers",
    "subscription_url": "https://api.github.com/repos/lincolnloop/python-qrcode/subscription",
    "svn_url": "https://github.com/lincolnloop/python-qrcode",
    "tags_url": "https://api.github.com/repos/lincolnloop/python-qrcode/tags",
    "teams_url": "https://api.github.com/repos/lincolnloop/python-qrcode/teams",
    "trees_url": "https://api.github.com/repos/lincolnloop/python-qrcode/git/trees{/sha}",
    "updated_at": "2014-05-04T10:08:30Z",
    "url": "https://api.github.com/repos/lincolnloop/python-qrcode",
    "watchers": 409,
    "watchers_count": 409
}