{
    "libs": [
        "encoding",
        "unicode_literals",
        "utils",
        "datetime",
        "conf",
        "contrib",
        "query",
        "unittest",
        "abc",
        "importlib",
        "re",
        "json",
        "signals",
        "shortcuts",
        "contenttypes",
        "version",
        "test",
        "main",
        "functools",
        "http",
        "optparse",
        "db",
        "sys",
        "v2",
        "print_function",
        "b",
        "list",
        "html",
        "django",
        "weakref",
        "threading",
        "itertools",
        "defaults",
        "exceptions",
        "os"
    ]
}