[
    "tests",
    "scripts.rqscheduler",
    "rqscheduler",
    "rq_scheduler.scheduler",
    "test_scheduler",
    "tests.test_scheduler",
    "rq_scheduler",
    "scheduler",
    "scripts",
    "rq_scheduler.scripts.rqscheduler",
    "rq_scheduler.utils",
    "utils",
    "rq_scheduler.scripts"
]