[
    "pyhackers.helpers",
    "pyhackers.tasks.project_finder",
    "wsgi",
    "cassandra.management",
    "pyhackers.worker.article",
    "alembic.versions.1f27928bf1a6_add_parent_field_to_",
    "alembic.versions.32f93e2b03a3_add_pypi_packages",
    "alembic.versions.3ec00f83b814_create_tutorial_obje",
    "2aa06b3e5853_add_channel_table",
    "service.project",
    "versions.2d67c6e370bb_upgrade_for_social_i",
    "pyhackers.wsgi",
    "pyhackers.tasks",
    "pyhackers.model.package",
    "cache",
    "4e34adcfd51d_add_message_table",
    "pyhackers.model.cassandra.connection",
    "controllers.oauth",
    "pyhackers.common.timelimit",
    "fabfile",
    "main",
    "pyhackers.model.cassandra.management",
    "ghub",
    "pyhackers.model.message",
    "pyhackers.controllers.user",
    "pyhackers.job_scheduler",
    "versions.32f93e2b03a3_add_pypi_packages",
    "pyhackers.controllers.oauth.google",
    "db",
    "common.timelimit",
    "util",
    "pyhackers",
    "pyhackers.worker.github_worker",
    "job_scheduler",
    "discuss",
    "pyhackers.controllers.discuss",
    "worker.article",
    "pyhackers.scripts",
    "pyhackers.service.post",
    "1f27928bf1a6_add_parent_field_to_",
    "project_finder",
    "import_packages",
    "ext.twitter",
    "pyhackers.api",
    "controllers",
    "timelimit",
    "67ea78b2bbd_add_role_to_user_tab",
    "common",
    "cassandra.hierachy",
    "b4f4be61aa7_add_buckets_table",
    "pyhackers.util",
    "pyhackers.common.stringutils",
    "pyhackers.common.indexer",
    "pyhackers.admin",
    "google",
    "controllers.oauth.google",
    "controllers.oauth.ghub",
    "twitter",
    "pyhackers.service.discuss",
    "service.channel",
    "model.package",
    "3ec00f83b814_create_tutorial_obje",
    "util.textractor",
    "cassandra.connection",
    "hierachy",
    "pyhackers.scripts.import_packages",
    "model.bucket",
    "tutorial",
    "pyhackers.model.user",
    "pyhackers.model.bucket",
    "textractor",
    "pyhackers.controllers.ajax",
    "pyhackers.model.os_project",
    "2d67c6e370bb_upgrade_for_social_i",
    "service.user",
    "pyhackers.utils",
    "alembic.versions.b4f4be61aa7_add_buckets_table",
    "pyhackers.events",
    "scripts.import_packages",
    "model.message",
    "alembic.versions.271328db402d_os_project_in_text",
    "versions.271328db402d_os_project_in_text",
    "alembic.versions.2d67c6e370bb_upgrade_for_social_i",
    "ajax",
    "worker.message",
    "common.stringutils",
    "versions.4ee15a6a9f1c_create_base_tables",
    "article",
    "post",
    "pyhackers.worker",
    "pyhackers.cassandra_old",
    "alembic.versions.127e0d40f05d_add_flags_to_project",
    "pyhackers.service",
    "pyhackers.db",
    "alembic.versions.4e34adcfd51d_add_message_table",
    "package",
    "admin",
    "controllers.oauth.twitter",
    "model.cassandra.connection",
    "connection",
    "pyhackers.model.channel",
    "helpers",
    "action",
    "alembic.versions.2aa06b3e5853_add_channel_table",
    "pyhackers.controllers.main",
    "stringutils",
    "alembic",
    "versions.3ec00f83b814_create_tutorial_obje",
    "feed",
    "alembic.versions.67ea78b2bbd_add_role_to_user_tab",
    "tasks",
    "model.feed",
    "app",
    "scripts",
    "pyhackers.controllers",
    "api",
    "http_utils",
    "hipchat",
    "gateway",
    "pyhackers.idgen",
    "management",
    "job_worker",
    "service",
    "apps",
    "controllers.user",
    "pyhackers.service.project",
    "alembic.versions.43d4e52bb53f_add_category_to_proj",
    "pyhackers.gateway.realtime",
    "pyhackers.model.feed",
    "util.resolve_link",
    "pyhackers.worker.message",
    "127e0d40f05d_add_flags_to_project",
    "utils",
    "versions.2aa06b3e5853_add_channel_table",
    "resolve_link",
    "pyhackers.apps",
    "pyhackers.cache",
    "startup",
    "pyhackers.app",
    "worker",
    "versions.b4f4be61aa7_add_buckets_table",
    "common.dbfield",
    "model.os_project",
    "github_worker",
    "oauth",
    "alembic.env",
    "oauth.ghub",
    "message",
    "43d4e52bb53f_add_category_to_proj",
    "pyhackers.service.channel",
    "versions",
    "versions.1f27928bf1a6_add_parent_field_to_",
    "sentry",
    "bucket",
    "pyhackers.apps.idgen",
    "project",
    "4ee15a6a9f1c_create_base_tables",
    "versions.127e0d40f05d_add_flags_to_project",
    "pyhackers.util.textractor",
    "common.http_utils",
    "versions.4e34adcfd51d_add_message_table",
    "versions.43d4e52bb53f_add_category_to_proj",
    "model.cassandra.hierachy",
    "pyhackers.model.cassandra",
    "pyhackers.common",
    "model.tutorial",
    "idgen",
    "pyhackers.model",
    "pyhackers.ext.twitter",
    "pyhackers.worker.hipchat",
    "model.user",
    "controllers.ajax",
    "pyhackers.controllers.oauth.twitter",
    "pyhackers.ext",
    "pyhackers.job_worker",
    "pyhackers.controllers.oauth.ghub",
    "gateway.realtime",
    "pyhackers.model.cassandra.hierachy",
    "tasks.project_finder",
    "271328db402d_os_project_in_text",
    "pyhackers.gateway",
    "ext",
    "indexer",
    "pyhackers.sentry",
    "controllers.discuss",
    "versions.67ea78b2bbd_add_role_to_user_tab",
    "pyhackers.service.user",
    "pyhackers.util.resolve_link",
    "env",
    "model.cassandra",
    "cassandra",
    "config",
    "events",
    "channel",
    "service.post",
    "model.action",
    "oauth.google",
    "pyhackers.config",
    "model.channel",
    "oauth.twitter",
    "controllers.main",
    "pyhackers.common.http_utils",
    "57e06acf468_add_actions_table",
    "user",
    "versions.57e06acf468_add_actions_table",
    "32f93e2b03a3_add_pypi_packages",
    "service.discuss",
    "os_project",
    "pyhackers.controllers.oauth",
    "model.cassandra.management",
    "worker.hipchat",
    "cassandra_old",
    "alembic.versions.4ee15a6a9f1c_create_base_tables",
    "pyhackers.common.dbfield",
    "realtime",
    "alembic.versions.57e06acf468_add_actions_table",
    "dbfield",
    "pyhackers.model.tutorial",
    "alembic.versions",
    "apps.idgen",
    "common.indexer",
    "model",
    "pyhackers.model.action",
    "worker.github_worker"
]