{
    "libs": [
        "fcntl",
        "zlib",
        "ordereddict",
        "unicode_literals",
        "functools",
        "absolute_import",
        "datetime",
        "parse",
        "io",
        "shutil",
        "msvcrt",
        "struct",
        "pprint",
        "re",
        "json",
        "collections",
        "sqlite3",
        "unittest",
        "math",
        "bin",
        "division",
        "cPickle",
        "sqlalchemy",
        "etree",
        "mpyq",
        "urllib2",
        "termios",
        "sys",
        "declarative",
        "pickle",
        "print_function",
        "pkgutil",
        "argparse",
        "b",
        "logging",
        "exc",
        "h",
        "traceback",
        "request",
        "unittest2",
        "urlparse",
        "itertools",
        "orm",
        "time",
        "os"
    ]
}