{
    "archive_url": "https://api.github.com/repos/brianhouse/conversnitch/{archive_format}{/ref}",
    "assignees_url": "https://api.github.com/repos/brianhouse/conversnitch/assignees{/user}",
    "blobs_url": "https://api.github.com/repos/brianhouse/conversnitch/git/blobs{/sha}",
    "branches_url": "https://api.github.com/repos/brianhouse/conversnitch/branches{/branch}",
    "clone_url": "https://github.com/brianhouse/conversnitch.git",
    "collaborators_url": "https://api.github.com/repos/brianhouse/conversnitch/collaborators{/collaborator}",
    "comments_url": "https://api.github.com/repos/brianhouse/conversnitch/comments{/number}",
    "commits_url": "https://api.github.com/repos/brianhouse/conversnitch/commits{/sha}",
    "compare_url": "https://api.github.com/repos/brianhouse/conversnitch/compare/{base}...{head}",
    "contents_url": "https://api.github.com/repos/brianhouse/conversnitch/contents/{+path}",
    "contributors_url": "https://api.github.com/repos/brianhouse/conversnitch/contributors",
    "created_at": "2013-08-31T16:26:03Z",
    "default_branch": "master",
    "description": "A monitoring device",
    "downloads_url": "https://api.github.com/repos/brianhouse/conversnitch/downloads",
    "events_url": "https://api.github.com/repos/brianhouse/conversnitch/events",
    "fork": false,
    "forks": 11,
    "forks_count": 11,
    "forks_url": "https://api.github.com/repos/brianhouse/conversnitch/forks",
    "full_name": "brianhouse/conversnitch",
    "git_commits_url": "https://api.github.com/repos/brianhouse/conversnitch/git/commits{/sha}",
    "git_refs_url": "https://api.github.com/repos/brianhouse/conversnitch/git/refs{/sha}",
    "git_tags_url": "https://api.github.com/repos/brianhouse/conversnitch/git/tags{/sha}",
    "git_url": "git://github.com/brianhouse/conversnitch.git",
    "has_downloads": true,
    "has_issues": true,
    "has_wiki": true,
    "homepage": null,
    "hooks_url": "https://api.github.com/repos/brianhouse/conversnitch/hooks",
    "html_url": "https://github.com/brianhouse/conversnitch",
    "id": 12508182,
    "issue_comment_url": "https://api.github.com/repos/brianhouse/conversnitch/issues/comments/{number}",
    "issue_events_url": "https://api.github.com/repos/brianhouse/conversnitch/issues/events{/number}",
    "issues_url": "https://api.github.com/repos/brianhouse/conversnitch/issues{/number}",
    "keys_url": "https://api.github.com/repos/brianhouse/conversnitch/keys{/key_id}",
    "labels_url": "https://api.github.com/repos/brianhouse/conversnitch/labels{/name}",
    "language": "Python",
    "languages_url": "https://api.github.com/repos/brianhouse/conversnitch/languages",
    "merges_url": "https://api.github.com/repos/brianhouse/conversnitch/merges",
    "milestones_url": "https://api.github.com/repos/brianhouse/conversnitch/milestones{/number}",
    "mirror_url": null,
    "name": "conversnitch",
    "notifications_url": "https://api.github.com/repos/brianhouse/conversnitch/notifications{?since,all,participating}",
    "open_issues": 1,
    "open_issues_count": 1,
    "owner": {
        "avatar_url": "https://avatars.githubusercontent.com/u/23200?",
        "events_url": "https://api.github.com/users/brianhouse/events{/privacy}",
        "followers_url": "https://api.github.com/users/brianhouse/followers",
        "following_url": "https://api.github.com/users/brianhouse/following{/other_user}",
        "gists_url": "https://api.github.com/users/brianhouse/gists{/gist_id}",
        "gravatar_id": "de495dac03aba5e535d40bd8fb5c5797",
        "html_url": "https://github.com/brianhouse",
        "id": 23200,
        "login": "brianhouse",
        "organizations_url": "https://api.github.com/users/brianhouse/orgs",
        "received_events_url": "https://api.github.com/users/brianhouse/received_events",
        "repos_url": "https://api.github.com/users/brianhouse/repos",
        "site_admin": false,
        "starred_url": "https://api.github.com/users/brianhouse/starred{/owner}{/repo}",
        "subscriptions_url": "https://api.github.com/users/brianhouse/subscriptions",
        "type": "User",
        "url": "https://api.github.com/users/brianhouse"
    },
    "private": false,
    "pulls_url": "https://api.github.com/repos/brianhouse/conversnitch/pulls{/number}",
    "pushed_at": "2013-10-04T22:03:51Z",
    "releases_url": "https://api.github.com/repos/brianhouse/conversnitch/releases{/id}",
    "score": 1.0,
    "size": 892,
    "ssh_url": "git@github.com:brianhouse/conversnitch.git",
    "stargazers_count": 50,
    "stargazers_url": "https://api.github.com/repos/brianhouse/conversnitch/stargazers",
    "statuses_url": "https://api.github.com/repos/brianhouse/conversnitch/statuses/{sha}",
    "subscribers_url": "https://api.github.com/repos/brianhouse/conversnitch/subscribers",
    "subscription_url": "https://api.github.com/repos/brianhouse/conversnitch/subscription",
    "svn_url": "https://github.com/brianhouse/conversnitch",
    "tags_url": "https://api.github.com/repos/brianhouse/conversnitch/tags",
    "teams_url": "https://api.github.com/repos/brianhouse/conversnitch/teams",
    "trees_url": "https://api.github.com/repos/brianhouse/conversnitch/git/trees{/sha}",
    "updated_at": "2014-05-03T01:22:58Z",
    "url": "https://api.github.com/repos/brianhouse/conversnitch",
    "watchers": 50,
    "watchers_count": 50
}