{
    "archive_url": "https://api.github.com/repos/dabapps/django-user-roles/{archive_format}{/ref}",
    "assignees_url": "https://api.github.com/repos/dabapps/django-user-roles/assignees{/user}",
    "blobs_url": "https://api.github.com/repos/dabapps/django-user-roles/git/blobs{/sha}",
    "branches_url": "https://api.github.com/repos/dabapps/django-user-roles/branches{/branch}",
    "clone_url": "https://github.com/dabapps/django-user-roles.git",
    "collaborators_url": "https://api.github.com/repos/dabapps/django-user-roles/collaborators{/collaborator}",
    "comments_url": "https://api.github.com/repos/dabapps/django-user-roles/comments{/number}",
    "commits_url": "https://api.github.com/repos/dabapps/django-user-roles/commits{/sha}",
    "compare_url": "https://api.github.com/repos/dabapps/django-user-roles/compare/{base}...{head}",
    "contents_url": "https://api.github.com/repos/dabapps/django-user-roles/contents/{+path}",
    "contributors_url": "https://api.github.com/repos/dabapps/django-user-roles/contributors",
    "created_at": "2012-01-17T09:59:56Z",
    "default_branch": "master",
    "description": "Simple role-based user permissions for Django.",
    "downloads_url": "https://api.github.com/repos/dabapps/django-user-roles/downloads",
    "events_url": "https://api.github.com/repos/dabapps/django-user-roles/events",
    "fork": false,
    "forks": 20,
    "forks_count": 20,
    "forks_url": "https://api.github.com/repos/dabapps/django-user-roles/forks",
    "full_name": "dabapps/django-user-roles",
    "git_commits_url": "https://api.github.com/repos/dabapps/django-user-roles/git/commits{/sha}",
    "git_refs_url": "https://api.github.com/repos/dabapps/django-user-roles/git/refs{/sha}",
    "git_tags_url": "https://api.github.com/repos/dabapps/django-user-roles/git/tags{/sha}",
    "git_url": "git://github.com/dabapps/django-user-roles.git",
    "has_downloads": true,
    "has_issues": true,
    "has_wiki": true,
    "homepage": "",
    "hooks_url": "https://api.github.com/repos/dabapps/django-user-roles/hooks",
    "html_url": "https://github.com/dabapps/django-user-roles",
    "id": 3198298,
    "issue_comment_url": "https://api.github.com/repos/dabapps/django-user-roles/issues/comments/{number}",
    "issue_events_url": "https://api.github.com/repos/dabapps/django-user-roles/issues/events{/number}",
    "issues_url": "https://api.github.com/repos/dabapps/django-user-roles/issues{/number}",
    "keys_url": "https://api.github.com/repos/dabapps/django-user-roles/keys{/key_id}",
    "labels_url": "https://api.github.com/repos/dabapps/django-user-roles/labels{/name}",
    "language": "Python",
    "languages_url": "https://api.github.com/repos/dabapps/django-user-roles/languages",
    "merges_url": "https://api.github.com/repos/dabapps/django-user-roles/merges",
    "milestones_url": "https://api.github.com/repos/dabapps/django-user-roles/milestones{/number}",
    "mirror_url": null,
    "name": "django-user-roles",
    "notifications_url": "https://api.github.com/repos/dabapps/django-user-roles/notifications{?since,all,participating}",
    "open_issues": 5,
    "open_issues_count": 5,
    "owner": {
        "avatar_url": "https://avatars.githubusercontent.com/u/445568?",
        "events_url": "https://api.github.com/users/dabapps/events{/privacy}",
        "followers_url": "https://api.github.com/users/dabapps/followers",
        "following_url": "https://api.github.com/users/dabapps/following{/other_user}",
        "gists_url": "https://api.github.com/users/dabapps/gists{/gist_id}",
        "gravatar_id": "2f771fa28f568f75162d252f8b082736",
        "html_url": "https://github.com/dabapps",
        "id": 445568,
        "login": "dabapps",
        "organizations_url": "https://api.github.com/users/dabapps/orgs",
        "received_events_url": "https://api.github.com/users/dabapps/received_events",
        "repos_url": "https://api.github.com/users/dabapps/repos",
        "site_admin": false,
        "starred_url": "https://api.github.com/users/dabapps/starred{/owner}{/repo}",
        "subscriptions_url": "https://api.github.com/users/dabapps/subscriptions",
        "type": "Organization",
        "url": "https://api.github.com/users/dabapps"
    },
    "private": false,
    "pulls_url": "https://api.github.com/repos/dabapps/django-user-roles/pulls{/number}",
    "pushed_at": "2013-05-28T15:51:19Z",
    "releases_url": "https://api.github.com/repos/dabapps/django-user-roles/releases{/id}",
    "score": 1.0,
    "size": 241,
    "ssh_url": "git@github.com:dabapps/django-user-roles.git",
    "stargazers_count": 57,
    "stargazers_url": "https://api.github.com/repos/dabapps/django-user-roles/stargazers",
    "statuses_url": "https://api.github.com/repos/dabapps/django-user-roles/statuses/{sha}",
    "subscribers_url": "https://api.github.com/repos/dabapps/django-user-roles/subscribers",
    "subscription_url": "https://api.github.com/repos/dabapps/django-user-roles/subscription",
    "svn_url": "https://github.com/dabapps/django-user-roles",
    "tags_url": "https://api.github.com/repos/dabapps/django-user-roles/tags",
    "teams_url": "https://api.github.com/repos/dabapps/django-user-roles/teams",
    "trees_url": "https://api.github.com/repos/dabapps/django-user-roles/git/trees{/sha}",
    "updated_at": "2014-03-18T13:00:55Z",
    "url": "https://api.github.com/repos/dabapps/django-user-roles",
    "watchers": 57,
    "watchers_count": 57
}