{
    "archive_url": "https://api.github.com/repos/wandering-nomad/Spidernet/{archive_format}{/ref}",
    "assignees_url": "https://api.github.com/repos/wandering-nomad/Spidernet/assignees{/user}",
    "blobs_url": "https://api.github.com/repos/wandering-nomad/Spidernet/git/blobs{/sha}",
    "branches_url": "https://api.github.com/repos/wandering-nomad/Spidernet/branches{/branch}",
    "clone_url": "https://github.com/wandering-nomad/Spidernet.git",
    "collaborators_url": "https://api.github.com/repos/wandering-nomad/Spidernet/collaborators{/collaborator}",
    "comments_url": "https://api.github.com/repos/wandering-nomad/Spidernet/comments{/number}",
    "commits_url": "https://api.github.com/repos/wandering-nomad/Spidernet/commits{/sha}",
    "compare_url": "https://api.github.com/repos/wandering-nomad/Spidernet/compare/{base}...{head}",
    "contents_url": "https://api.github.com/repos/wandering-nomad/Spidernet/contents/{+path}",
    "contributors_url": "https://api.github.com/repos/wandering-nomad/Spidernet/contributors",
    "created_at": "2013-12-22T00:01:40Z",
    "default_branch": "master",
    "description": "SSH Based Remote Administration Tool",
    "downloads_url": "https://api.github.com/repos/wandering-nomad/Spidernet/downloads",
    "events_url": "https://api.github.com/repos/wandering-nomad/Spidernet/events",
    "fork": false,
    "forks": 5,
    "forks_count": 5,
    "forks_url": "https://api.github.com/repos/wandering-nomad/Spidernet/forks",
    "full_name": "wandering-nomad/Spidernet",
    "git_commits_url": "https://api.github.com/repos/wandering-nomad/Spidernet/git/commits{/sha}",
    "git_refs_url": "https://api.github.com/repos/wandering-nomad/Spidernet/git/refs{/sha}",
    "git_tags_url": "https://api.github.com/repos/wandering-nomad/Spidernet/git/tags{/sha}",
    "git_url": "git://github.com/wandering-nomad/Spidernet.git",
    "has_downloads": true,
    "has_issues": true,
    "has_wiki": true,
    "homepage": null,
    "hooks_url": "https://api.github.com/repos/wandering-nomad/Spidernet/hooks",
    "html_url": "https://github.com/wandering-nomad/Spidernet",
    "id": 15367710,
    "issue_comment_url": "https://api.github.com/repos/wandering-nomad/Spidernet/issues/comments/{number}",
    "issue_events_url": "https://api.github.com/repos/wandering-nomad/Spidernet/issues/events{/number}",
    "issues_url": "https://api.github.com/repos/wandering-nomad/Spidernet/issues{/number}",
    "keys_url": "https://api.github.com/repos/wandering-nomad/Spidernet/keys{/key_id}",
    "labels_url": "https://api.github.com/repos/wandering-nomad/Spidernet/labels{/name}",
    "language": "Python",
    "languages_url": "https://api.github.com/repos/wandering-nomad/Spidernet/languages",
    "merges_url": "https://api.github.com/repos/wandering-nomad/Spidernet/merges",
    "milestones_url": "https://api.github.com/repos/wandering-nomad/Spidernet/milestones{/number}",
    "mirror_url": null,
    "name": "Spidernet",
    "notifications_url": "https://api.github.com/repos/wandering-nomad/Spidernet/notifications{?since,all,participating}",
    "open_issues": 0,
    "open_issues_count": 0,
    "owner": {
        "avatar_url": "https://avatars.githubusercontent.com/u/6236725?",
        "events_url": "https://api.github.com/users/wandering-nomad/events{/privacy}",
        "followers_url": "https://api.github.com/users/wandering-nomad/followers",
        "following_url": "https://api.github.com/users/wandering-nomad/following{/other_user}",
        "gists_url": "https://api.github.com/users/wandering-nomad/gists{/gist_id}",
        "gravatar_id": "aab0f3a65049516e80f88fe088656b58",
        "html_url": "https://github.com/wandering-nomad",
        "id": 6236725,
        "login": "wandering-nomad",
        "organizations_url": "https://api.github.com/users/wandering-nomad/orgs",
        "received_events_url": "https://api.github.com/users/wandering-nomad/received_events",
        "repos_url": "https://api.github.com/users/wandering-nomad/repos",
        "site_admin": false,
        "starred_url": "https://api.github.com/users/wandering-nomad/starred{/owner}{/repo}",
        "subscriptions_url": "https://api.github.com/users/wandering-nomad/subscriptions",
        "type": "User",
        "url": "https://api.github.com/users/wandering-nomad"
    },
    "private": false,
    "pulls_url": "https://api.github.com/repos/wandering-nomad/Spidernet/pulls{/number}",
    "pushed_at": "2013-12-22T00:37:25Z",
    "releases_url": "https://api.github.com/repos/wandering-nomad/Spidernet/releases{/id}",
    "score": 1.0,
    "size": 102,
    "ssh_url": "git@github.com:wandering-nomad/Spidernet.git",
    "stargazers_count": 63,
    "stargazers_url": "https://api.github.com/repos/wandering-nomad/Spidernet/stargazers",
    "statuses_url": "https://api.github.com/repos/wandering-nomad/Spidernet/statuses/{sha}",
    "subscribers_url": "https://api.github.com/repos/wandering-nomad/Spidernet/subscribers",
    "subscription_url": "https://api.github.com/repos/wandering-nomad/Spidernet/subscription",
    "svn_url": "https://github.com/wandering-nomad/Spidernet",
    "tags_url": "https://api.github.com/repos/wandering-nomad/Spidernet/tags",
    "teams_url": "https://api.github.com/repos/wandering-nomad/Spidernet/teams",
    "trees_url": "https://api.github.com/repos/wandering-nomad/Spidernet/git/trees{/sha}",
    "updated_at": "2014-01-10T01:16:30Z",
    "url": "https://api.github.com/repos/wandering-nomad/Spidernet",
    "watchers": 63,
    "watchers_count": 63
}