[
    "dev_userskins",
    "context",
    "views",
    "models",
    "manage",
    "userskins.views",
    "userskins.templatetags",
    "userskins.models",
    "dev_userskins.urls",
    "dev_userskins.settings",
    "userskins.templatetags.userskins",
    "dev_userskins.manage",
    "settings",
    "middleware",
    "userskins.context",
    "templatetags",
    "templatetags.userskins",
    "userskins.middleware",
    "urls",
    "userskins"
]