{
    "archive_url": "https://api.github.com/repos/awahlig/skype4py/{archive_format}{/ref}",
    "assignees_url": "https://api.github.com/repos/awahlig/skype4py/assignees{/user}",
    "blobs_url": "https://api.github.com/repos/awahlig/skype4py/git/blobs{/sha}",
    "branches_url": "https://api.github.com/repos/awahlig/skype4py/branches{/branch}",
    "clone_url": "https://github.com/awahlig/skype4py.git",
    "collaborators_url": "https://api.github.com/repos/awahlig/skype4py/collaborators{/collaborator}",
    "comments_url": "https://api.github.com/repos/awahlig/skype4py/comments{/number}",
    "commits_url": "https://api.github.com/repos/awahlig/skype4py/commits{/sha}",
    "compare_url": "https://api.github.com/repos/awahlig/skype4py/compare/{base}...{head}",
    "contents_url": "https://api.github.com/repos/awahlig/skype4py/contents/{+path}",
    "contributors_url": "https://api.github.com/repos/awahlig/skype4py/contributors",
    "created_at": "2012-10-01T19:34:23Z",
    "default_branch": "master",
    "description": "Platform indepeneant Python wrapper for the Skype API.",
    "downloads_url": "https://api.github.com/repos/awahlig/skype4py/downloads",
    "events_url": "https://api.github.com/repos/awahlig/skype4py/events",
    "fork": false,
    "forks": 34,
    "forks_count": 34,
    "forks_url": "https://api.github.com/repos/awahlig/skype4py/forks",
    "full_name": "awahlig/skype4py",
    "git_commits_url": "https://api.github.com/repos/awahlig/skype4py/git/commits{/sha}",
    "git_refs_url": "https://api.github.com/repos/awahlig/skype4py/git/refs{/sha}",
    "git_tags_url": "https://api.github.com/repos/awahlig/skype4py/git/tags{/sha}",
    "git_url": "git://github.com/awahlig/skype4py.git",
    "has_downloads": true,
    "has_issues": true,
    "has_wiki": true,
    "homepage": null,
    "hooks_url": "https://api.github.com/repos/awahlig/skype4py/hooks",
    "html_url": "https://github.com/awahlig/skype4py",
    "id": 6035091,
    "issue_comment_url": "https://api.github.com/repos/awahlig/skype4py/issues/comments/{number}",
    "issue_events_url": "https://api.github.com/repos/awahlig/skype4py/issues/events{/number}",
    "issues_url": "https://api.github.com/repos/awahlig/skype4py/issues{/number}",
    "keys_url": "https://api.github.com/repos/awahlig/skype4py/keys{/key_id}",
    "labels_url": "https://api.github.com/repos/awahlig/skype4py/labels{/name}",
    "language": "Python",
    "languages_url": "https://api.github.com/repos/awahlig/skype4py/languages",
    "merges_url": "https://api.github.com/repos/awahlig/skype4py/merges",
    "milestones_url": "https://api.github.com/repos/awahlig/skype4py/milestones{/number}",
    "mirror_url": null,
    "name": "skype4py",
    "notifications_url": "https://api.github.com/repos/awahlig/skype4py/notifications{?since,all,participating}",
    "open_issues": 16,
    "open_issues_count": 16,
    "owner": {
        "avatar_url": "https://avatars.githubusercontent.com/u/1263649?",
        "events_url": "https://api.github.com/users/awahlig/events{/privacy}",
        "followers_url": "https://api.github.com/users/awahlig/followers",
        "following_url": "https://api.github.com/users/awahlig/following{/other_user}",
        "gists_url": "https://api.github.com/users/awahlig/gists{/gist_id}",
        "gravatar_id": "05ac381007a9fbb7d112366099295547",
        "html_url": "https://github.com/awahlig",
        "id": 1263649,
        "login": "awahlig",
        "organizations_url": "https://api.github.com/users/awahlig/orgs",
        "received_events_url": "https://api.github.com/users/awahlig/received_events",
        "repos_url": "https://api.github.com/users/awahlig/repos",
        "site_admin": false,
        "starred_url": "https://api.github.com/users/awahlig/starred{/owner}{/repo}",
        "subscriptions_url": "https://api.github.com/users/awahlig/subscriptions",
        "type": "User",
        "url": "https://api.github.com/users/awahlig"
    },
    "private": false,
    "pulls_url": "https://api.github.com/repos/awahlig/skype4py/pulls{/number}",
    "pushed_at": "2013-05-25T09:58:51Z",
    "releases_url": "https://api.github.com/repos/awahlig/skype4py/releases{/id}",
    "score": 1.0,
    "size": 401,
    "ssh_url": "git@github.com:awahlig/skype4py.git",
    "stargazers_count": 166,
    "stargazers_url": "https://api.github.com/repos/awahlig/skype4py/stargazers",
    "statuses_url": "https://api.github.com/repos/awahlig/skype4py/statuses/{sha}",
    "subscribers_url": "https://api.github.com/repos/awahlig/skype4py/subscribers",
    "subscription_url": "https://api.github.com/repos/awahlig/skype4py/subscription",
    "svn_url": "https://github.com/awahlig/skype4py",
    "tags_url": "https://api.github.com/repos/awahlig/skype4py/tags",
    "teams_url": "https://api.github.com/repos/awahlig/skype4py/teams",
    "trees_url": "https://api.github.com/repos/awahlig/skype4py/git/trees{/sha}",
    "updated_at": "2014-05-06T11:07:48Z",
    "url": "https://api.github.com/repos/awahlig/skype4py",
    "watchers": 166,
    "watchers_count": 166
}