{
    "archive_url": "https://api.github.com/repos/dreid/yunomi/{archive_format}{/ref}",
    "assignees_url": "https://api.github.com/repos/dreid/yunomi/assignees{/user}",
    "blobs_url": "https://api.github.com/repos/dreid/yunomi/git/blobs{/sha}",
    "branches_url": "https://api.github.com/repos/dreid/yunomi/branches{/branch}",
    "clone_url": "https://github.com/dreid/yunomi.git",
    "collaborators_url": "https://api.github.com/repos/dreid/yunomi/collaborators{/collaborator}",
    "comments_url": "https://api.github.com/repos/dreid/yunomi/comments{/number}",
    "commits_url": "https://api.github.com/repos/dreid/yunomi/commits{/sha}",
    "compare_url": "https://api.github.com/repos/dreid/yunomi/compare/{base}...{head}",
    "contents_url": "https://api.github.com/repos/dreid/yunomi/contents/{+path}",
    "contributors_url": "https://api.github.com/repos/dreid/yunomi/contributors",
    "created_at": "2012-06-18T22:00:14Z",
    "default_branch": "master",
    "description": "Y U NO MEASURE IT - A Python metrics library",
    "downloads_url": "https://api.github.com/repos/dreid/yunomi/downloads",
    "events_url": "https://api.github.com/repos/dreid/yunomi/events",
    "fork": false,
    "forks": 11,
    "forks_count": 11,
    "forks_url": "https://api.github.com/repos/dreid/yunomi/forks",
    "full_name": "dreid/yunomi",
    "git_commits_url": "https://api.github.com/repos/dreid/yunomi/git/commits{/sha}",
    "git_refs_url": "https://api.github.com/repos/dreid/yunomi/git/refs{/sha}",
    "git_tags_url": "https://api.github.com/repos/dreid/yunomi/git/tags{/sha}",
    "git_url": "git://github.com/dreid/yunomi.git",
    "has_downloads": true,
    "has_issues": false,
    "has_wiki": true,
    "homepage": "",
    "hooks_url": "https://api.github.com/repos/dreid/yunomi/hooks",
    "html_url": "https://github.com/dreid/yunomi",
    "id": 4706773,
    "issue_comment_url": "https://api.github.com/repos/dreid/yunomi/issues/comments/{number}",
    "issue_events_url": "https://api.github.com/repos/dreid/yunomi/issues/events{/number}",
    "issues_url": "https://api.github.com/repos/dreid/yunomi/issues{/number}",
    "keys_url": "https://api.github.com/repos/dreid/yunomi/keys{/key_id}",
    "labels_url": "https://api.github.com/repos/dreid/yunomi/labels{/name}",
    "language": "Python",
    "languages_url": "https://api.github.com/repos/dreid/yunomi/languages",
    "merges_url": "https://api.github.com/repos/dreid/yunomi/merges",
    "milestones_url": "https://api.github.com/repos/dreid/yunomi/milestones{/number}",
    "mirror_url": null,
    "name": "yunomi",
    "notifications_url": "https://api.github.com/repos/dreid/yunomi/notifications{?since,all,participating}",
    "open_issues": 3,
    "open_issues_count": 3,
    "owner": {
        "avatar_url": "https://avatars.githubusercontent.com/u/48695?",
        "events_url": "https://api.github.com/users/dreid/events{/privacy}",
        "followers_url": "https://api.github.com/users/dreid/followers",
        "following_url": "https://api.github.com/users/dreid/following{/other_user}",
        "gists_url": "https://api.github.com/users/dreid/gists{/gist_id}",
        "gravatar_id": "fba4b1ec2535b55189d1de44e4b5121a",
        "html_url": "https://github.com/dreid",
        "id": 48695,
        "login": "dreid",
        "organizations_url": "https://api.github.com/users/dreid/orgs",
        "received_events_url": "https://api.github.com/users/dreid/received_events",
        "repos_url": "https://api.github.com/users/dreid/repos",
        "site_admin": false,
        "starred_url": "https://api.github.com/users/dreid/starred{/owner}{/repo}",
        "subscriptions_url": "https://api.github.com/users/dreid/subscriptions",
        "type": "User",
        "url": "https://api.github.com/users/dreid"
    },
    "private": false,
    "pulls_url": "https://api.github.com/repos/dreid/yunomi/pulls{/number}",
    "pushed_at": "2013-07-27T11:54:13Z",
    "releases_url": "https://api.github.com/repos/dreid/yunomi/releases{/id}",
    "score": 1.0,
    "size": 228,
    "ssh_url": "git@github.com:dreid/yunomi.git",
    "stargazers_count": 74,
    "stargazers_url": "https://api.github.com/repos/dreid/yunomi/stargazers",
    "statuses_url": "https://api.github.com/repos/dreid/yunomi/statuses/{sha}",
    "subscribers_url": "https://api.github.com/repos/dreid/yunomi/subscribers",
    "subscription_url": "https://api.github.com/repos/dreid/yunomi/subscription",
    "svn_url": "https://github.com/dreid/yunomi",
    "tags_url": "https://api.github.com/repos/dreid/yunomi/tags",
    "teams_url": "https://api.github.com/repos/dreid/yunomi/teams",
    "trees_url": "https://api.github.com/repos/dreid/yunomi/git/trees{/sha}",
    "updated_at": "2014-01-10T12:44:23Z",
    "url": "https://api.github.com/repos/dreid/yunomi",
    "watchers": 74,
    "watchers_count": 74
}