{
    "libs": [
        "cherrypy",
        "unittest",
        "random",
        "subprocess",
        "io",
        "shutil",
        "headers",
        "tempfile",
        "urllib",
        "re",
        "collections",
        "utils",
        "mimetypes",
        "sys",
        "path",
        "win32service",
        "socket",
        "StringIO",
        "request",
        "urlparse",
        "threading",
        "win32serviceutil",
        "time",
        "gzip",
        "os"
    ]
}