{
    "archive_url": "https://api.github.com/repos/litl/rauth/{archive_format}{/ref}",
    "assignees_url": "https://api.github.com/repos/litl/rauth/assignees{/user}",
    "blobs_url": "https://api.github.com/repos/litl/rauth/git/blobs{/sha}",
    "branches_url": "https://api.github.com/repos/litl/rauth/branches{/branch}",
    "clone_url": "https://github.com/litl/rauth.git",
    "collaborators_url": "https://api.github.com/repos/litl/rauth/collaborators{/collaborator}",
    "comments_url": "https://api.github.com/repos/litl/rauth/comments{/number}",
    "commits_url": "https://api.github.com/repos/litl/rauth/commits{/sha}",
    "compare_url": "https://api.github.com/repos/litl/rauth/compare/{base}...{head}",
    "contents_url": "https://api.github.com/repos/litl/rauth/contents/{+path}",
    "contributors_url": "https://api.github.com/repos/litl/rauth/contributors",
    "created_at": "2012-03-02T14:18:54Z",
    "default_branch": "master",
    "description": "A Python library for OAuth 1.0/a, 2.0, and Ofly.",
    "downloads_url": "https://api.github.com/repos/litl/rauth/downloads",
    "events_url": "https://api.github.com/repos/litl/rauth/events",
    "fork": false,
    "forks": 121,
    "forks_count": 121,
    "forks_url": "https://api.github.com/repos/litl/rauth/forks",
    "full_name": "litl/rauth",
    "git_commits_url": "https://api.github.com/repos/litl/rauth/git/commits{/sha}",
    "git_refs_url": "https://api.github.com/repos/litl/rauth/git/refs{/sha}",
    "git_tags_url": "https://api.github.com/repos/litl/rauth/git/tags{/sha}",
    "git_url": "git://github.com/litl/rauth.git",
    "has_downloads": true,
    "has_issues": true,
    "has_wiki": true,
    "homepage": "http://readthedocs.org/docs/rauth/en/latest/",
    "hooks_url": "https://api.github.com/repos/litl/rauth/hooks",
    "html_url": "https://github.com/litl/rauth",
    "id": 3602702,
    "issue_comment_url": "https://api.github.com/repos/litl/rauth/issues/comments/{number}",
    "issue_events_url": "https://api.github.com/repos/litl/rauth/issues/events{/number}",
    "issues_url": "https://api.github.com/repos/litl/rauth/issues{/number}",
    "keys_url": "https://api.github.com/repos/litl/rauth/keys{/key_id}",
    "labels_url": "https://api.github.com/repos/litl/rauth/labels{/name}",
    "language": "Python",
    "languages_url": "https://api.github.com/repos/litl/rauth/languages",
    "merges_url": "https://api.github.com/repos/litl/rauth/merges",
    "milestones_url": "https://api.github.com/repos/litl/rauth/milestones{/number}",
    "mirror_url": null,
    "name": "rauth",
    "notifications_url": "https://api.github.com/repos/litl/rauth/notifications{?since,all,participating}",
    "open_issues": 6,
    "open_issues_count": 6,
    "owner": {
        "avatar_url": "https://avatars.githubusercontent.com/u/190361?",
        "events_url": "https://api.github.com/users/litl/events{/privacy}",
        "followers_url": "https://api.github.com/users/litl/followers",
        "following_url": "https://api.github.com/users/litl/following{/other_user}",
        "gists_url": "https://api.github.com/users/litl/gists{/gist_id}",
        "gravatar_id": "2544baae90780aa558a2dedc84817cab",
        "html_url": "https://github.com/litl",
        "id": 190361,
        "login": "litl",
        "organizations_url": "https://api.github.com/users/litl/orgs",
        "received_events_url": "https://api.github.com/users/litl/received_events",
        "repos_url": "https://api.github.com/users/litl/repos",
        "site_admin": false,
        "starred_url": "https://api.github.com/users/litl/starred{/owner}{/repo}",
        "subscriptions_url": "https://api.github.com/users/litl/subscriptions",
        "type": "Organization",
        "url": "https://api.github.com/users/litl"
    },
    "private": false,
    "pulls_url": "https://api.github.com/repos/litl/rauth/pulls{/number}",
    "pushed_at": "2014-04-29T23:22:47Z",
    "releases_url": "https://api.github.com/repos/litl/rauth/releases{/id}",
    "score": 1.0,
    "size": 31051,
    "ssh_url": "git@github.com:litl/rauth.git",
    "stargazers_count": 1223,
    "stargazers_url": "https://api.github.com/repos/litl/rauth/stargazers",
    "statuses_url": "https://api.github.com/repos/litl/rauth/statuses/{sha}",
    "subscribers_url": "https://api.github.com/repos/litl/rauth/subscribers",
    "subscription_url": "https://api.github.com/repos/litl/rauth/subscription",
    "svn_url": "https://github.com/litl/rauth",
    "tags_url": "https://api.github.com/repos/litl/rauth/tags",
    "teams_url": "https://api.github.com/repos/litl/rauth/teams",
    "trees_url": "https://api.github.com/repos/litl/rauth/git/trees{/sha}",
    "updated_at": "2014-05-03T15:40:04Z",
    "url": "https://api.github.com/repos/litl/rauth",
    "watchers": 1223,
    "watchers_count": 1223
}