{
    "archive_url": "https://api.github.com/repos/boto/boto/{archive_format}{/ref}",
    "assignees_url": "https://api.github.com/repos/boto/boto/assignees{/user}",
    "blobs_url": "https://api.github.com/repos/boto/boto/git/blobs{/sha}",
    "branches_url": "https://api.github.com/repos/boto/boto/branches{/branch}",
    "clone_url": "https://github.com/boto/boto.git",
    "collaborators_url": "https://api.github.com/repos/boto/boto/collaborators{/collaborator}",
    "comments_url": "https://api.github.com/repos/boto/boto/comments{/number}",
    "commits_url": "https://api.github.com/repos/boto/boto/commits{/sha}",
    "compare_url": "https://api.github.com/repos/boto/boto/compare/{base}...{head}",
    "contents_url": "https://api.github.com/repos/boto/boto/contents/{+path}",
    "contributors_url": "https://api.github.com/repos/boto/boto/contributors",
    "created_at": "2010-07-12T19:15:33Z",
    "default_branch": "develop",
    "description": "Python interface to Amazon Web Services",
    "downloads_url": "https://api.github.com/repos/boto/boto/downloads",
    "events_url": "https://api.github.com/repos/boto/boto/events",
    "fork": false,
    "forks": 1248,
    "forks_count": 1248,
    "forks_url": "https://api.github.com/repos/boto/boto/forks",
    "full_name": "boto/boto",
    "git_commits_url": "https://api.github.com/repos/boto/boto/git/commits{/sha}",
    "git_refs_url": "https://api.github.com/repos/boto/boto/git/refs{/sha}",
    "git_tags_url": "https://api.github.com/repos/boto/boto/git/tags{/sha}",
    "git_url": "git://github.com/boto/boto.git",
    "has_downloads": true,
    "has_issues": true,
    "has_wiki": false,
    "homepage": "http://docs.pythonboto.org/",
    "hooks_url": "https://api.github.com/repos/boto/boto/hooks",
    "html_url": "https://github.com/boto/boto",
    "id": 771016,
    "issue_comment_url": "https://api.github.com/repos/boto/boto/issues/comments/{number}",
    "issue_events_url": "https://api.github.com/repos/boto/boto/issues/events{/number}",
    "issues_url": "https://api.github.com/repos/boto/boto/issues{/number}",
    "keys_url": "https://api.github.com/repos/boto/boto/keys{/key_id}",
    "labels_url": "https://api.github.com/repos/boto/boto/labels{/name}",
    "language": "Python",
    "languages_url": "https://api.github.com/repos/boto/boto/languages",
    "merges_url": "https://api.github.com/repos/boto/boto/merges",
    "milestones_url": "https://api.github.com/repos/boto/boto/milestones{/number}",
    "mirror_url": null,
    "name": "boto",
    "notifications_url": "https://api.github.com/repos/boto/boto/notifications{?since,all,participating}",
    "open_issues": 380,
    "open_issues_count": 380,
    "owner": {
        "avatar_url": "https://avatars.githubusercontent.com/u/327752?",
        "events_url": "https://api.github.com/users/boto/events{/privacy}",
        "followers_url": "https://api.github.com/users/boto/followers",
        "following_url": "https://api.github.com/users/boto/following{/other_user}",
        "gists_url": "https://api.github.com/users/boto/gists{/gist_id}",
        "gravatar_id": "9062d6f913c867ce042928d6637abd05",
        "html_url": "https://github.com/boto",
        "id": 327752,
        "login": "boto",
        "organizations_url": "https://api.github.com/users/boto/orgs",
        "received_events_url": "https://api.github.com/users/boto/received_events",
        "repos_url": "https://api.github.com/users/boto/repos",
        "site_admin": false,
        "starred_url": "https://api.github.com/users/boto/starred{/owner}{/repo}",
        "subscriptions_url": "https://api.github.com/users/boto/subscriptions",
        "type": "Organization",
        "url": "https://api.github.com/users/boto"
    },
    "private": false,
    "pulls_url": "https://api.github.com/repos/boto/boto/pulls{/number}",
    "pushed_at": "2014-05-02T18:56:05Z",
    "releases_url": "https://api.github.com/repos/boto/boto/releases{/id}",
    "score": 1.0,
    "size": 32046,
    "ssh_url": "git@github.com:boto/boto.git",
    "stargazers_count": 3748,
    "stargazers_url": "https://api.github.com/repos/boto/boto/stargazers",
    "statuses_url": "https://api.github.com/repos/boto/boto/statuses/{sha}",
    "subscribers_url": "https://api.github.com/repos/boto/boto/subscribers",
    "subscription_url": "https://api.github.com/repos/boto/boto/subscription",
    "svn_url": "https://github.com/boto/boto",
    "tags_url": "https://api.github.com/repos/boto/boto/tags",
    "teams_url": "https://api.github.com/repos/boto/boto/teams",
    "trees_url": "https://api.github.com/repos/boto/boto/git/trees{/sha}",
    "updated_at": "2014-05-07T00:00:44Z",
    "url": "https://api.github.com/repos/boto/boto",
    "watchers": 3748,
    "watchers_count": 3748
}