[
    "tests",
    "heap",
    "stream",
    "immutable.list",
    "fn.immutable.trie",
    "fn.immutable",
    "fn.stream",
    "immutable.trie",
    "fn.immutable.list",
    "func",
    "fn.iters",
    "underscore",
    "fn",
    "fn.func",
    "fn.underscore",
    "immutable.heap",
    "recur",
    "list",
    "fn.recur",
    "uniform",
    "monad",
    "trie",
    "fn.monad",
    "iters",
    "immutable.finger",
    "fn.op",
    "fn.immutable.heap",
    "fn.uniform",
    "op",
    "fn.immutable.finger",
    "immutable",
    "finger"
]