{
    "archive_url": "https://api.github.com/repos/superfeedr/notifixlight/{archive_format}{/ref}",
    "assignees_url": "https://api.github.com/repos/superfeedr/notifixlight/assignees{/user}",
    "blobs_url": "https://api.github.com/repos/superfeedr/notifixlight/git/blobs{/sha}",
    "branches_url": "https://api.github.com/repos/superfeedr/notifixlight/branches{/branch}",
    "clone_url": "https://github.com/superfeedr/notifixlight.git",
    "collaborators_url": "https://api.github.com/repos/superfeedr/notifixlight/collaborators{/collaborator}",
    "comments_url": "https://api.github.com/repos/superfeedr/notifixlight/comments{/number}",
    "commits_url": "https://api.github.com/repos/superfeedr/notifixlight/commits{/sha}",
    "compare_url": "https://api.github.com/repos/superfeedr/notifixlight/compare/{base}...{head}",
    "contents_url": "https://api.github.com/repos/superfeedr/notifixlight/contents/{+path}",
    "contributors_url": "https://api.github.com/repos/superfeedr/notifixlight/contributors",
    "created_at": "2009-11-06T18:48:51Z",
    "default_branch": "master",
    "description": "Defunct RSS to IM bot, powered by Google App Engine. Check Notifix for a better replacement!",
    "downloads_url": "https://api.github.com/repos/superfeedr/notifixlight/downloads",
    "events_url": "https://api.github.com/repos/superfeedr/notifixlight/events",
    "fork": false,
    "forks": 9,
    "forks_count": 9,
    "forks_url": "https://api.github.com/repos/superfeedr/notifixlight/forks",
    "full_name": "superfeedr/notifixlight",
    "git_commits_url": "https://api.github.com/repos/superfeedr/notifixlight/git/commits{/sha}",
    "git_refs_url": "https://api.github.com/repos/superfeedr/notifixlight/git/refs{/sha}",
    "git_tags_url": "https://api.github.com/repos/superfeedr/notifixlight/git/tags{/sha}",
    "git_url": "git://github.com/superfeedr/notifixlight.git",
    "has_downloads": true,
    "has_issues": false,
    "has_wiki": false,
    "homepage": "https://github.com/julien51/notifix",
    "hooks_url": "https://api.github.com/repos/superfeedr/notifixlight/hooks",
    "html_url": "https://github.com/superfeedr/notifixlight",
    "id": 363595,
    "issue_comment_url": "https://api.github.com/repos/superfeedr/notifixlight/issues/comments/{number}",
    "issue_events_url": "https://api.github.com/repos/superfeedr/notifixlight/issues/events{/number}",
    "issues_url": "https://api.github.com/repos/superfeedr/notifixlight/issues{/number}",
    "keys_url": "https://api.github.com/repos/superfeedr/notifixlight/keys{/key_id}",
    "labels_url": "https://api.github.com/repos/superfeedr/notifixlight/labels{/name}",
    "language": "Python",
    "languages_url": "https://api.github.com/repos/superfeedr/notifixlight/languages",
    "merges_url": "https://api.github.com/repos/superfeedr/notifixlight/merges",
    "milestones_url": "https://api.github.com/repos/superfeedr/notifixlight/milestones{/number}",
    "mirror_url": null,
    "name": "notifixlight",
    "notifications_url": "https://api.github.com/repos/superfeedr/notifixlight/notifications{?since,all,participating}",
    "open_issues": 7,
    "open_issues_count": 7,
    "owner": {
        "avatar_url": "https://avatars.githubusercontent.com/u/83422?",
        "events_url": "https://api.github.com/users/superfeedr/events{/privacy}",
        "followers_url": "https://api.github.com/users/superfeedr/followers",
        "following_url": "https://api.github.com/users/superfeedr/following{/other_user}",
        "gists_url": "https://api.github.com/users/superfeedr/gists{/gist_id}",
        "gravatar_id": "a2f7d4dd6df7dd59e4adab811c00a3a1",
        "html_url": "https://github.com/superfeedr",
        "id": 83422,
        "login": "superfeedr",
        "organizations_url": "https://api.github.com/users/superfeedr/orgs",
        "received_events_url": "https://api.github.com/users/superfeedr/received_events",
        "repos_url": "https://api.github.com/users/superfeedr/repos",
        "site_admin": false,
        "starred_url": "https://api.github.com/users/superfeedr/starred{/owner}{/repo}",
        "subscriptions_url": "https://api.github.com/users/superfeedr/subscriptions",
        "type": "Organization",
        "url": "https://api.github.com/users/superfeedr"
    },
    "private": false,
    "pulls_url": "https://api.github.com/repos/superfeedr/notifixlight/pulls{/number}",
    "pushed_at": "2013-08-19T22:16:27Z",
    "releases_url": "https://api.github.com/repos/superfeedr/notifixlight/releases{/id}",
    "score": 1.0,
    "size": 298,
    "ssh_url": "git@github.com:superfeedr/notifixlight.git",
    "stargazers_count": 52,
    "stargazers_url": "https://api.github.com/repos/superfeedr/notifixlight/stargazers",
    "statuses_url": "https://api.github.com/repos/superfeedr/notifixlight/statuses/{sha}",
    "subscribers_url": "https://api.github.com/repos/superfeedr/notifixlight/subscribers",
    "subscription_url": "https://api.github.com/repos/superfeedr/notifixlight/subscription",
    "svn_url": "https://github.com/superfeedr/notifixlight",
    "tags_url": "https://api.github.com/repos/superfeedr/notifixlight/tags",
    "teams_url": "https://api.github.com/repos/superfeedr/notifixlight/teams",
    "trees_url": "https://api.github.com/repos/superfeedr/notifixlight/git/trees{/sha}",
    "updated_at": "2013-09-02T15:46:02Z",
    "url": "https://api.github.com/repos/superfeedr/notifixlight",
    "watchers": 52,
    "watchers_count": 52
}