{
    "archive_url": "https://api.github.com/repos/tschellenbach/Django-facebook/{archive_format}{/ref}",
    "assignees_url": "https://api.github.com/repos/tschellenbach/Django-facebook/assignees{/user}",
    "blobs_url": "https://api.github.com/repos/tschellenbach/Django-facebook/git/blobs{/sha}",
    "branches_url": "https://api.github.com/repos/tschellenbach/Django-facebook/branches{/branch}",
    "clone_url": "https://github.com/tschellenbach/Django-facebook.git",
    "collaborators_url": "https://api.github.com/repos/tschellenbach/Django-facebook/collaborators{/collaborator}",
    "comments_url": "https://api.github.com/repos/tschellenbach/Django-facebook/comments{/number}",
    "commits_url": "https://api.github.com/repos/tschellenbach/Django-facebook/commits{/sha}",
    "compare_url": "https://api.github.com/repos/tschellenbach/Django-facebook/compare/{base}...{head}",
    "contents_url": "https://api.github.com/repos/tschellenbach/Django-facebook/contents/{+path}",
    "contributors_url": "https://api.github.com/repos/tschellenbach/Django-facebook/contributors",
    "created_at": "2010-05-05T10:00:50Z",
    "default_branch": "master",
    "description": "Facebook open graph api implementation using the Django web framework in python",
    "downloads_url": "https://api.github.com/repos/tschellenbach/Django-facebook/downloads",
    "events_url": "https://api.github.com/repos/tschellenbach/Django-facebook/events",
    "fork": false,
    "forks": 313,
    "forks_count": 313,
    "forks_url": "https://api.github.com/repos/tschellenbach/Django-facebook/forks",
    "full_name": "tschellenbach/Django-facebook",
    "git_commits_url": "https://api.github.com/repos/tschellenbach/Django-facebook/git/commits{/sha}",
    "git_refs_url": "https://api.github.com/repos/tschellenbach/Django-facebook/git/refs{/sha}",
    "git_tags_url": "https://api.github.com/repos/tschellenbach/Django-facebook/git/tags{/sha}",
    "git_url": "git://github.com/tschellenbach/Django-facebook.git",
    "has_downloads": true,
    "has_issues": true,
    "has_wiki": true,
    "homepage": "http://www.mellowmorning.com/",
    "hooks_url": "https://api.github.com/repos/tschellenbach/Django-facebook/hooks",
    "html_url": "https://github.com/tschellenbach/Django-facebook",
    "id": 648127,
    "issue_comment_url": "https://api.github.com/repos/tschellenbach/Django-facebook/issues/comments/{number}",
    "issue_events_url": "https://api.github.com/repos/tschellenbach/Django-facebook/issues/events{/number}",
    "issues_url": "https://api.github.com/repos/tschellenbach/Django-facebook/issues{/number}",
    "keys_url": "https://api.github.com/repos/tschellenbach/Django-facebook/keys{/key_id}",
    "labels_url": "https://api.github.com/repos/tschellenbach/Django-facebook/labels{/name}",
    "language": "Python",
    "languages_url": "https://api.github.com/repos/tschellenbach/Django-facebook/languages",
    "merges_url": "https://api.github.com/repos/tschellenbach/Django-facebook/merges",
    "milestones_url": "https://api.github.com/repos/tschellenbach/Django-facebook/milestones{/number}",
    "mirror_url": null,
    "name": "Django-facebook",
    "notifications_url": "https://api.github.com/repos/tschellenbach/Django-facebook/notifications{?since,all,participating}",
    "open_issues": 30,
    "open_issues_count": 30,
    "owner": {
        "avatar_url": "https://avatars.githubusercontent.com/u/265409?",
        "events_url": "https://api.github.com/users/tschellenbach/events{/privacy}",
        "followers_url": "https://api.github.com/users/tschellenbach/followers",
        "following_url": "https://api.github.com/users/tschellenbach/following{/other_user}",
        "gists_url": "https://api.github.com/users/tschellenbach/gists{/gist_id}",
        "gravatar_id": "55d71ad27f79006049e236f8254e2548",
        "html_url": "https://github.com/tschellenbach",
        "id": 265409,
        "login": "tschellenbach",
        "organizations_url": "https://api.github.com/users/tschellenbach/orgs",
        "received_events_url": "https://api.github.com/users/tschellenbach/received_events",
        "repos_url": "https://api.github.com/users/tschellenbach/repos",
        "site_admin": false,
        "starred_url": "https://api.github.com/users/tschellenbach/starred{/owner}{/repo}",
        "subscriptions_url": "https://api.github.com/users/tschellenbach/subscriptions",
        "type": "User",
        "url": "https://api.github.com/users/tschellenbach"
    },
    "private": false,
    "pulls_url": "https://api.github.com/repos/tschellenbach/Django-facebook/pulls{/number}",
    "pushed_at": "2014-01-06T08:52:32Z",
    "releases_url": "https://api.github.com/repos/tschellenbach/Django-facebook/releases{/id}",
    "score": 1.0,
    "size": 6010,
    "ssh_url": "git@github.com:tschellenbach/Django-facebook.git",
    "stargazers_count": 933,
    "stargazers_url": "https://api.github.com/repos/tschellenbach/Django-facebook/stargazers",
    "statuses_url": "https://api.github.com/repos/tschellenbach/Django-facebook/statuses/{sha}",
    "subscribers_url": "https://api.github.com/repos/tschellenbach/Django-facebook/subscribers",
    "subscription_url": "https://api.github.com/repos/tschellenbach/Django-facebook/subscription",
    "svn_url": "https://github.com/tschellenbach/Django-facebook",
    "tags_url": "https://api.github.com/repos/tschellenbach/Django-facebook/tags",
    "teams_url": "https://api.github.com/repos/tschellenbach/Django-facebook/teams",
    "trees_url": "https://api.github.com/repos/tschellenbach/Django-facebook/git/trees{/sha}",
    "updated_at": "2014-05-05T18:13:53Z",
    "url": "https://api.github.com/repos/tschellenbach/Django-facebook",
    "watchers": 933,
    "watchers_count": 933
}