[
    "djangomodel",
    "mongoenginemodel",
    "quickstart.second",
    "examples.simple",
    "contrib.sqlamodel",
    "flask_superadmin.form",
    "fileadmin",
    "filters",
    "file",
    "flask_superadmin.model.backends.django",
    "babel.simple",
    "backends.sqlalchemy",
    "django.view",
    "contrib.mongoenginemodel",
    "doc._themes.flask_theme_support",
    "examples.simple.simple",
    "model.backends.django.view",
    "examples.django",
    "examples.file",
    "examples.django.utils",
    "model.backends.django",
    "model.backends.sqlalchemy.orm",
    "tests",
    "model.base",
    "simple.simple",
    "examples.quickstart",
    "backends.mongoengine.fields",
    "mongoengine",
    "auth",
    "test_model",
    "model.backends.django.fields",
    "examples.mongoengine",
    "tests.test_django",
    "fields",
    "flask_superadmin.model.backends.django.fields",
    "view",
    "sqlalchemy.view",
    "mongoengine.orm",
    "second",
    "auth.mongoauth",
    "examples",
    "flask_superadmin.model.backends.sqlalchemy.orm",
    "sqlalchemy.orm",
    "tests.test_sqlamodel",
    "file.file",
    "sqlalchemy.filters",
    "backends.django.orm",
    "flask_superadmin.base",
    "flask_superadmin.tests.test_mongoengine",
    "flask_superadmin.model.backends.sqlalchemy.view",
    "model.backends.mongoengine.orm",
    "quickstart.third",
    "test_django",
    "flask_superadmin",
    "base",
    "flask_superadmin.tests.test_model",
    "flask_superadmin.model.base",
    "django.fields",
    "django.orm",
    "flask_superadmin.contrib.djangomodel",
    "sqlalchemy.simple",
    "examples.auth.mongoauth",
    "orm",
    "flask_superadmin.contrib.sqlamodel",
    "examples.auth.auth",
    "sqlalchemy.tools",
    "examples.sqlalchemy.simple",
    "first",
    "flask_superadmin.model.backends.mongoengine.view",
    "examples.quickstart.first",
    "django.utils",
    "simple",
    "tests.test_mongoengine",
    "flask_theme_support",
    "contrib",
    "mongoengine.fields",
    "examples.quickstart.third",
    "backends.sqlalchemy.view",
    "tools",
    "quickstart.first",
    "examples.babel",
    "backends.sqlalchemy.filters",
    "flask_superadmin.model.backends.mongoengine.orm",
    "backends.mongoengine.orm",
    "doc.conf",
    "flask_superadmin.contrib",
    "flask_superadmin.model.backends.sqlalchemy",
    "mongoengine.view",
    "utils",
    "examples.file.file",
    "mongoauth",
    "model.backends.sqlalchemy",
    "examples.sqlalchemy",
    "model.backends.sqlalchemy.filters",
    "flask_superadmin.contrib.mongoenginemodel",
    "model.backends.sqlalchemy.tools",
    "tests.test_model",
    "doc._themes",
    "flask_superadmin.babel",
    "flask_superadmin.tests.test_base",
    "conf",
    "flask_superadmin.tests.test_django",
    "model.backends.mongoengine.fields",
    "contrib.fileadmin",
    "examples.babel.simple",
    "flask_superadmin.model",
    "model.backends",
    "sqlamodel",
    "flask_superadmin.model.backends.mongoengine.fields",
    "model.backends.django.orm",
    "quickstart",
    "backends.sqlalchemy.tools",
    "backends.mongoengine.view",
    "examples.django.simple",
    "backends.sqlalchemy.orm",
    "backends.django.fields",
    "model.backends.mongoengine.view",
    "sqlalchemy",
    "flask_superadmin.model.backends.sqlalchemy.filters",
    "django.simple",
    "_themes",
    "form",
    "contrib.djangomodel",
    "auth.auth",
    "backends",
    "tests.test_base",
    "examples.quickstart.second",
    "examples.mongoengine.simple",
    "examples.auth",
    "_themes.flask_theme_support",
    "flask_superadmin.tests",
    "backends.django.view",
    "test_mongoengine",
    "flask_superadmin.contrib.fileadmin",
    "flask_superadmin.model.backends.django.orm",
    "model.backends.mongoengine",
    "flask_superadmin.model.backends.mongoengine",
    "backends.django",
    "backends.mongoengine",
    "mongoengine.simple",
    "flask_superadmin.model.backends.sqlalchemy.tools",
    "third",
    "test_sqlamodel",
    "doc",
    "flask_superadmin.tests.test_sqlamodel",
    "test_base",
    "django",
    "model.backends.sqlalchemy.view",
    "flask_superadmin.model.backends.django.view",
    "babel",
    "model",
    "flask_superadmin.model.backends"
]