{
    "archive_url": "https://api.github.com/repos/joelpt/sublimetext-automatic-backups/{archive_format}{/ref}",
    "assignees_url": "https://api.github.com/repos/joelpt/sublimetext-automatic-backups/assignees{/user}",
    "blobs_url": "https://api.github.com/repos/joelpt/sublimetext-automatic-backups/git/blobs{/sha}",
    "branches_url": "https://api.github.com/repos/joelpt/sublimetext-automatic-backups/branches{/branch}",
    "clone_url": "https://github.com/joelpt/sublimetext-automatic-backups.git",
    "collaborators_url": "https://api.github.com/repos/joelpt/sublimetext-automatic-backups/collaborators{/collaborator}",
    "comments_url": "https://api.github.com/repos/joelpt/sublimetext-automatic-backups/comments{/number}",
    "commits_url": "https://api.github.com/repos/joelpt/sublimetext-automatic-backups/commits{/sha}",
    "compare_url": "https://api.github.com/repos/joelpt/sublimetext-automatic-backups/compare/{base}...{head}",
    "contents_url": "https://api.github.com/repos/joelpt/sublimetext-automatic-backups/contents/{+path}",
    "contributors_url": "https://api.github.com/repos/joelpt/sublimetext-automatic-backups/contributors",
    "created_at": "2012-04-13T08:24:55Z",
    "default_branch": "master",
    "description": "Automatically save a backup copy every time you save a file in Sublime Text 2.",
    "downloads_url": "https://api.github.com/repos/joelpt/sublimetext-automatic-backups/downloads",
    "events_url": "https://api.github.com/repos/joelpt/sublimetext-automatic-backups/events",
    "fork": false,
    "forks": 6,
    "forks_count": 6,
    "forks_url": "https://api.github.com/repos/joelpt/sublimetext-automatic-backups/forks",
    "full_name": "joelpt/sublimetext-automatic-backups",
    "git_commits_url": "https://api.github.com/repos/joelpt/sublimetext-automatic-backups/git/commits{/sha}",
    "git_refs_url": "https://api.github.com/repos/joelpt/sublimetext-automatic-backups/git/refs{/sha}",
    "git_tags_url": "https://api.github.com/repos/joelpt/sublimetext-automatic-backups/git/tags{/sha}",
    "git_url": "git://github.com/joelpt/sublimetext-automatic-backups.git",
    "has_downloads": true,
    "has_issues": true,
    "has_wiki": true,
    "homepage": "",
    "hooks_url": "https://api.github.com/repos/joelpt/sublimetext-automatic-backups/hooks",
    "html_url": "https://github.com/joelpt/sublimetext-automatic-backups",
    "id": 4013859,
    "issue_comment_url": "https://api.github.com/repos/joelpt/sublimetext-automatic-backups/issues/comments/{number}",
    "issue_events_url": "https://api.github.com/repos/joelpt/sublimetext-automatic-backups/issues/events{/number}",
    "issues_url": "https://api.github.com/repos/joelpt/sublimetext-automatic-backups/issues{/number}",
    "keys_url": "https://api.github.com/repos/joelpt/sublimetext-automatic-backups/keys{/key_id}",
    "labels_url": "https://api.github.com/repos/joelpt/sublimetext-automatic-backups/labels{/name}",
    "language": "Python",
    "languages_url": "https://api.github.com/repos/joelpt/sublimetext-automatic-backups/languages",
    "merges_url": "https://api.github.com/repos/joelpt/sublimetext-automatic-backups/merges",
    "milestones_url": "https://api.github.com/repos/joelpt/sublimetext-automatic-backups/milestones{/number}",
    "mirror_url": null,
    "name": "sublimetext-automatic-backups",
    "notifications_url": "https://api.github.com/repos/joelpt/sublimetext-automatic-backups/notifications{?since,all,participating}",
    "open_issues": 10,
    "open_issues_count": 10,
    "owner": {
        "avatar_url": "https://avatars.githubusercontent.com/u/127942?",
        "events_url": "https://api.github.com/users/joelpt/events{/privacy}",
        "followers_url": "https://api.github.com/users/joelpt/followers",
        "following_url": "https://api.github.com/users/joelpt/following{/other_user}",
        "gists_url": "https://api.github.com/users/joelpt/gists{/gist_id}",
        "gravatar_id": "60645faedba87fbdf3a11f6f35d53824",
        "html_url": "https://github.com/joelpt",
        "id": 127942,
        "login": "joelpt",
        "organizations_url": "https://api.github.com/users/joelpt/orgs",
        "received_events_url": "https://api.github.com/users/joelpt/received_events",
        "repos_url": "https://api.github.com/users/joelpt/repos",
        "site_admin": false,
        "starred_url": "https://api.github.com/users/joelpt/starred{/owner}{/repo}",
        "subscriptions_url": "https://api.github.com/users/joelpt/subscriptions",
        "type": "User",
        "url": "https://api.github.com/users/joelpt"
    },
    "private": false,
    "pulls_url": "https://api.github.com/repos/joelpt/sublimetext-automatic-backups/pulls{/number}",
    "pushed_at": "2013-01-25T17:13:41Z",
    "releases_url": "https://api.github.com/repos/joelpt/sublimetext-automatic-backups/releases{/id}",
    "score": 1.0,
    "size": 193,
    "ssh_url": "git@github.com:joelpt/sublimetext-automatic-backups.git",
    "stargazers_count": 49,
    "stargazers_url": "https://api.github.com/repos/joelpt/sublimetext-automatic-backups/stargazers",
    "statuses_url": "https://api.github.com/repos/joelpt/sublimetext-automatic-backups/statuses/{sha}",
    "subscribers_url": "https://api.github.com/repos/joelpt/sublimetext-automatic-backups/subscribers",
    "subscription_url": "https://api.github.com/repos/joelpt/sublimetext-automatic-backups/subscription",
    "svn_url": "https://github.com/joelpt/sublimetext-automatic-backups",
    "tags_url": "https://api.github.com/repos/joelpt/sublimetext-automatic-backups/tags",
    "teams_url": "https://api.github.com/repos/joelpt/sublimetext-automatic-backups/teams",
    "trees_url": "https://api.github.com/repos/joelpt/sublimetext-automatic-backups/git/trees{/sha}",
    "updated_at": "2014-04-29T13:03:32Z",
    "url": "https://api.github.com/repos/joelpt/sublimetext-automatic-backups",
    "watchers": 49,
    "watchers_count": 49
}