{
    "archive_url": "https://api.github.com/repos/frappe/erpnext/{archive_format}{/ref}",
    "assignees_url": "https://api.github.com/repos/frappe/erpnext/assignees{/user}",
    "blobs_url": "https://api.github.com/repos/frappe/erpnext/git/blobs{/sha}",
    "branches_url": "https://api.github.com/repos/frappe/erpnext/branches{/branch}",
    "clone_url": "https://github.com/frappe/erpnext.git",
    "collaborators_url": "https://api.github.com/repos/frappe/erpnext/collaborators{/collaborator}",
    "comments_url": "https://api.github.com/repos/frappe/erpnext/comments{/number}",
    "commits_url": "https://api.github.com/repos/frappe/erpnext/commits{/sha}",
    "compare_url": "https://api.github.com/repos/frappe/erpnext/compare/{base}...{head}",
    "contents_url": "https://api.github.com/repos/frappe/erpnext/contents/{+path}",
    "contributors_url": "https://api.github.com/repos/frappe/erpnext/contributors",
    "created_at": "2011-06-08T08:20:56Z",
    "default_branch": "develop",
    "description": "Open Source ERP built for the Web. Uses Python, MariaDB.",
    "downloads_url": "https://api.github.com/repos/frappe/erpnext/downloads",
    "events_url": "https://api.github.com/repos/frappe/erpnext/events",
    "fork": false,
    "forks": 233,
    "forks_count": 233,
    "forks_url": "https://api.github.com/repos/frappe/erpnext/forks",
    "full_name": "frappe/erpnext",
    "git_commits_url": "https://api.github.com/repos/frappe/erpnext/git/commits{/sha}",
    "git_refs_url": "https://api.github.com/repos/frappe/erpnext/git/refs{/sha}",
    "git_tags_url": "https://api.github.com/repos/frappe/erpnext/git/tags{/sha}",
    "git_url": "git://github.com/frappe/erpnext.git",
    "has_downloads": true,
    "has_issues": true,
    "has_wiki": true,
    "homepage": "http://erpnext.org",
    "hooks_url": "https://api.github.com/repos/frappe/erpnext/hooks",
    "html_url": "https://github.com/frappe/erpnext",
    "id": 1864233,
    "issue_comment_url": "https://api.github.com/repos/frappe/erpnext/issues/comments/{number}",
    "issue_events_url": "https://api.github.com/repos/frappe/erpnext/issues/events{/number}",
    "issues_url": "https://api.github.com/repos/frappe/erpnext/issues{/number}",
    "keys_url": "https://api.github.com/repos/frappe/erpnext/keys{/key_id}",
    "labels_url": "https://api.github.com/repos/frappe/erpnext/labels{/name}",
    "language": "Python",
    "languages_url": "https://api.github.com/repos/frappe/erpnext/languages",
    "merges_url": "https://api.github.com/repos/frappe/erpnext/merges",
    "milestones_url": "https://api.github.com/repos/frappe/erpnext/milestones{/number}",
    "mirror_url": null,
    "name": "erpnext",
    "notifications_url": "https://api.github.com/repos/frappe/erpnext/notifications{?since,all,participating}",
    "open_issues": 339,
    "open_issues_count": 339,
    "owner": {
        "avatar_url": "https://avatars.githubusercontent.com/u/836974?",
        "events_url": "https://api.github.com/users/frappe/events{/privacy}",
        "followers_url": "https://api.github.com/users/frappe/followers",
        "following_url": "https://api.github.com/users/frappe/following{/other_user}",
        "gists_url": "https://api.github.com/users/frappe/gists{/gist_id}",
        "gravatar_id": "5ad921ba60a250c1f97cb415020fba8d",
        "html_url": "https://github.com/frappe",
        "id": 836974,
        "login": "frappe",
        "organizations_url": "https://api.github.com/users/frappe/orgs",
        "received_events_url": "https://api.github.com/users/frappe/received_events",
        "repos_url": "https://api.github.com/users/frappe/repos",
        "site_admin": false,
        "starred_url": "https://api.github.com/users/frappe/starred{/owner}{/repo}",
        "subscriptions_url": "https://api.github.com/users/frappe/subscriptions",
        "type": "Organization",
        "url": "https://api.github.com/users/frappe"
    },
    "private": false,
    "pulls_url": "https://api.github.com/repos/frappe/erpnext/pulls{/number}",
    "pushed_at": "2014-05-07T05:36:36Z",
    "releases_url": "https://api.github.com/repos/frappe/erpnext/releases{/id}",
    "score": 1.0,
    "size": 67097,
    "ssh_url": "git@github.com:frappe/erpnext.git",
    "stargazers_count": 340,
    "stargazers_url": "https://api.github.com/repos/frappe/erpnext/stargazers",
    "statuses_url": "https://api.github.com/repos/frappe/erpnext/statuses/{sha}",
    "subscribers_url": "https://api.github.com/repos/frappe/erpnext/subscribers",
    "subscription_url": "https://api.github.com/repos/frappe/erpnext/subscription",
    "svn_url": "https://github.com/frappe/erpnext",
    "tags_url": "https://api.github.com/repos/frappe/erpnext/tags",
    "teams_url": "https://api.github.com/repos/frappe/erpnext/teams",
    "trees_url": "https://api.github.com/repos/frappe/erpnext/git/trees{/sha}",
    "updated_at": "2014-05-07T05:36:38Z",
    "url": "https://api.github.com/repos/frappe/erpnext",
    "watchers": 340,
    "watchers_count": 340
}