{
    "archive_url": "https://api.github.com/repos/Netflix/gcviz/{archive_format}{/ref}",
    "assignees_url": "https://api.github.com/repos/Netflix/gcviz/assignees{/user}",
    "blobs_url": "https://api.github.com/repos/Netflix/gcviz/git/blobs{/sha}",
    "branches_url": "https://api.github.com/repos/Netflix/gcviz/branches{/branch}",
    "clone_url": "https://github.com/Netflix/gcviz.git",
    "collaborators_url": "https://api.github.com/repos/Netflix/gcviz/collaborators{/collaborator}",
    "comments_url": "https://api.github.com/repos/Netflix/gcviz/comments{/number}",
    "commits_url": "https://api.github.com/repos/Netflix/gcviz/commits{/sha}",
    "compare_url": "https://api.github.com/repos/Netflix/gcviz/compare/{base}...{head}",
    "contents_url": "https://api.github.com/repos/Netflix/gcviz/contents/{+path}",
    "contributors_url": "https://api.github.com/repos/Netflix/gcviz/contributors",
    "created_at": "2013-05-16T02:36:38Z",
    "default_branch": "master",
    "description": "Garbage Collector Visualization Tool/Framework",
    "downloads_url": "https://api.github.com/repos/Netflix/gcviz/downloads",
    "events_url": "https://api.github.com/repos/Netflix/gcviz/events",
    "fork": false,
    "forks": 12,
    "forks_count": 12,
    "forks_url": "https://api.github.com/repos/Netflix/gcviz/forks",
    "full_name": "Netflix/gcviz",
    "git_commits_url": "https://api.github.com/repos/Netflix/gcviz/git/commits{/sha}",
    "git_refs_url": "https://api.github.com/repos/Netflix/gcviz/git/refs{/sha}",
    "git_tags_url": "https://api.github.com/repos/Netflix/gcviz/git/tags{/sha}",
    "git_url": "git://github.com/Netflix/gcviz.git",
    "has_downloads": true,
    "has_issues": true,
    "has_wiki": true,
    "homepage": null,
    "hooks_url": "https://api.github.com/repos/Netflix/gcviz/hooks",
    "html_url": "https://github.com/Netflix/gcviz",
    "id": 10092222,
    "issue_comment_url": "https://api.github.com/repos/Netflix/gcviz/issues/comments/{number}",
    "issue_events_url": "https://api.github.com/repos/Netflix/gcviz/issues/events{/number}",
    "issues_url": "https://api.github.com/repos/Netflix/gcviz/issues{/number}",
    "keys_url": "https://api.github.com/repos/Netflix/gcviz/keys{/key_id}",
    "labels_url": "https://api.github.com/repos/Netflix/gcviz/labels{/name}",
    "language": "Python",
    "languages_url": "https://api.github.com/repos/Netflix/gcviz/languages",
    "merges_url": "https://api.github.com/repos/Netflix/gcviz/merges",
    "milestones_url": "https://api.github.com/repos/Netflix/gcviz/milestones{/number}",
    "mirror_url": null,
    "name": "gcviz",
    "notifications_url": "https://api.github.com/repos/Netflix/gcviz/notifications{?since,all,participating}",
    "open_issues": 2,
    "open_issues_count": 2,
    "owner": {
        "avatar_url": "https://avatars.githubusercontent.com/u/913567?",
        "events_url": "https://api.github.com/users/Netflix/events{/privacy}",
        "followers_url": "https://api.github.com/users/Netflix/followers",
        "following_url": "https://api.github.com/users/Netflix/following{/other_user}",
        "gists_url": "https://api.github.com/users/Netflix/gists{/gist_id}",
        "gravatar_id": "9452a86b2d066c6e6e35fe2ea83d16a5",
        "html_url": "https://github.com/Netflix",
        "id": 913567,
        "login": "Netflix",
        "organizations_url": "https://api.github.com/users/Netflix/orgs",
        "received_events_url": "https://api.github.com/users/Netflix/received_events",
        "repos_url": "https://api.github.com/users/Netflix/repos",
        "site_admin": false,
        "starred_url": "https://api.github.com/users/Netflix/starred{/owner}{/repo}",
        "subscriptions_url": "https://api.github.com/users/Netflix/subscriptions",
        "type": "Organization",
        "url": "https://api.github.com/users/Netflix"
    },
    "private": false,
    "pulls_url": "https://api.github.com/repos/Netflix/gcviz/pulls{/number}",
    "pushed_at": "2014-04-01T20:08:57Z",
    "releases_url": "https://api.github.com/repos/Netflix/gcviz/releases{/id}",
    "score": 1.0,
    "size": 301,
    "ssh_url": "git@github.com:Netflix/gcviz.git",
    "stargazers_count": 101,
    "stargazers_url": "https://api.github.com/repos/Netflix/gcviz/stargazers",
    "statuses_url": "https://api.github.com/repos/Netflix/gcviz/statuses/{sha}",
    "subscribers_url": "https://api.github.com/repos/Netflix/gcviz/subscribers",
    "subscription_url": "https://api.github.com/repos/Netflix/gcviz/subscription",
    "svn_url": "https://github.com/Netflix/gcviz",
    "tags_url": "https://api.github.com/repos/Netflix/gcviz/tags",
    "teams_url": "https://api.github.com/repos/Netflix/gcviz/teams",
    "trees_url": "https://api.github.com/repos/Netflix/gcviz/git/trees{/sha}",
    "updated_at": "2014-05-02T18:27:13Z",
    "url": "https://api.github.com/repos/Netflix/gcviz",
    "watchers": 101,
    "watchers_count": 101
}