{
    "archive_url": "https://api.github.com/repos/ntoll/workflow/{archive_format}{/ref}",
    "assignees_url": "https://api.github.com/repos/ntoll/workflow/assignees{/user}",
    "blobs_url": "https://api.github.com/repos/ntoll/workflow/git/blobs{/sha}",
    "branches_url": "https://api.github.com/repos/ntoll/workflow/branches{/branch}",
    "clone_url": "https://github.com/ntoll/workflow.git",
    "collaborators_url": "https://api.github.com/repos/ntoll/workflow/collaborators{/collaborator}",
    "comments_url": "https://api.github.com/repos/ntoll/workflow/comments{/number}",
    "commits_url": "https://api.github.com/repos/ntoll/workflow/commits{/sha}",
    "compare_url": "https://api.github.com/repos/ntoll/workflow/compare/{base}...{head}",
    "contents_url": "https://api.github.com/repos/ntoll/workflow/contents/{+path}",
    "contributors_url": "https://api.github.com/repos/ntoll/workflow/contributors",
    "created_at": "2009-05-14T20:18:52Z",
    "default_branch": "master",
    "description": "A lightweight workflow engine application for Django based web-applications",
    "downloads_url": "https://api.github.com/repos/ntoll/workflow/downloads",
    "events_url": "https://api.github.com/repos/ntoll/workflow/events",
    "fork": false,
    "forks": 22,
    "forks_count": 22,
    "forks_url": "https://api.github.com/repos/ntoll/workflow/forks",
    "full_name": "ntoll/workflow",
    "git_commits_url": "https://api.github.com/repos/ntoll/workflow/git/commits{/sha}",
    "git_refs_url": "https://api.github.com/repos/ntoll/workflow/git/refs{/sha}",
    "git_tags_url": "https://api.github.com/repos/ntoll/workflow/git/tags{/sha}",
    "git_url": "git://github.com/ntoll/workflow.git",
    "has_downloads": true,
    "has_issues": true,
    "has_wiki": true,
    "homepage": "",
    "hooks_url": "https://api.github.com/repos/ntoll/workflow/hooks",
    "html_url": "https://github.com/ntoll/workflow",
    "id": 201222,
    "issue_comment_url": "https://api.github.com/repos/ntoll/workflow/issues/comments/{number}",
    "issue_events_url": "https://api.github.com/repos/ntoll/workflow/issues/events{/number}",
    "issues_url": "https://api.github.com/repos/ntoll/workflow/issues{/number}",
    "keys_url": "https://api.github.com/repos/ntoll/workflow/keys{/key_id}",
    "labels_url": "https://api.github.com/repos/ntoll/workflow/labels{/name}",
    "language": "Python",
    "languages_url": "https://api.github.com/repos/ntoll/workflow/languages",
    "merges_url": "https://api.github.com/repos/ntoll/workflow/merges",
    "milestones_url": "https://api.github.com/repos/ntoll/workflow/milestones{/number}",
    "mirror_url": null,
    "name": "workflow",
    "notifications_url": "https://api.github.com/repos/ntoll/workflow/notifications{?since,all,participating}",
    "open_issues": 1,
    "open_issues_count": 1,
    "owner": {
        "avatar_url": "https://avatars.githubusercontent.com/u/37602?",
        "events_url": "https://api.github.com/users/ntoll/events{/privacy}",
        "followers_url": "https://api.github.com/users/ntoll/followers",
        "following_url": "https://api.github.com/users/ntoll/following{/other_user}",
        "gists_url": "https://api.github.com/users/ntoll/gists{/gist_id}",
        "gravatar_id": "e8d4e155929363bd22a7852494d18c25",
        "html_url": "https://github.com/ntoll",
        "id": 37602,
        "login": "ntoll",
        "organizations_url": "https://api.github.com/users/ntoll/orgs",
        "received_events_url": "https://api.github.com/users/ntoll/received_events",
        "repos_url": "https://api.github.com/users/ntoll/repos",
        "site_admin": false,
        "starred_url": "https://api.github.com/users/ntoll/starred{/owner}{/repo}",
        "subscriptions_url": "https://api.github.com/users/ntoll/subscriptions",
        "type": "User",
        "url": "https://api.github.com/users/ntoll"
    },
    "private": false,
    "pulls_url": "https://api.github.com/repos/ntoll/workflow/pulls{/number}",
    "pushed_at": "2009-09-25T14:43:45Z",
    "releases_url": "https://api.github.com/repos/ntoll/workflow/releases{/id}",
    "score": 1.0,
    "size": 113,
    "ssh_url": "git@github.com:ntoll/workflow.git",
    "stargazers_count": 99,
    "stargazers_url": "https://api.github.com/repos/ntoll/workflow/stargazers",
    "statuses_url": "https://api.github.com/repos/ntoll/workflow/statuses/{sha}",
    "subscribers_url": "https://api.github.com/repos/ntoll/workflow/subscribers",
    "subscription_url": "https://api.github.com/repos/ntoll/workflow/subscription",
    "svn_url": "https://github.com/ntoll/workflow",
    "tags_url": "https://api.github.com/repos/ntoll/workflow/tags",
    "teams_url": "https://api.github.com/repos/ntoll/workflow/teams",
    "trees_url": "https://api.github.com/repos/ntoll/workflow/git/trees{/sha}",
    "updated_at": "2014-05-06T02:37:05Z",
    "url": "https://api.github.com/repos/ntoll/workflow",
    "watchers": 99,
    "watchers_count": 99
}