{
    "libs": [
        "encoding",
        "color",
        "datetime",
        "defaulttags",
        "contrib",
        "importlib",
        "cache",
        "sites",
        "unicode_literals",
        "collections",
        "template",
        "core",
        "http",
        "warnings",
        "optparse",
        "db",
        "sys",
        "exceptions",
        "v2",
        "b",
        "translation",
        "copy",
        "module_loading",
        "safestring",
        "traceback",
        "modelsinspector",
        "django",
        "urls",
        "urlresolvers",
        "os"
    ]
}