{
    "archive_url": "https://api.github.com/repos/liuslevis/weiquncrawler/{archive_format}{/ref}",
    "assignees_url": "https://api.github.com/repos/liuslevis/weiquncrawler/assignees{/user}",
    "blobs_url": "https://api.github.com/repos/liuslevis/weiquncrawler/git/blobs{/sha}",
    "branches_url": "https://api.github.com/repos/liuslevis/weiquncrawler/branches{/branch}",
    "clone_url": "https://github.com/liuslevis/weiquncrawler.git",
    "collaborators_url": "https://api.github.com/repos/liuslevis/weiquncrawler/collaborators{/collaborator}",
    "comments_url": "https://api.github.com/repos/liuslevis/weiquncrawler/comments{/number}",
    "commits_url": "https://api.github.com/repos/liuslevis/weiquncrawler/commits{/sha}",
    "compare_url": "https://api.github.com/repos/liuslevis/weiquncrawler/compare/{base}...{head}",
    "contents_url": "https://api.github.com/repos/liuslevis/weiquncrawler/contents/{+path}",
    "contributors_url": "https://api.github.com/repos/liuslevis/weiquncrawler/contributors",
    "created_at": "2013-06-26T04:13:29Z",
    "default_branch": "master",
    "description": "This is a crawler for Sina Weiqun website(WAP) information, including given Weiqun's posts, replies, users and their follow relation. Written in Python 2.7.1, store data in SQLite3. Relation-crawling part customized on Github Project sina_reptile.",
    "downloads_url": "https://api.github.com/repos/liuslevis/weiquncrawler/downloads",
    "events_url": "https://api.github.com/repos/liuslevis/weiquncrawler/events",
    "fork": false,
    "forks": 20,
    "forks_count": 20,
    "forks_url": "https://api.github.com/repos/liuslevis/weiquncrawler/forks",
    "full_name": "liuslevis/weiquncrawler",
    "git_commits_url": "https://api.github.com/repos/liuslevis/weiquncrawler/git/commits{/sha}",
    "git_refs_url": "https://api.github.com/repos/liuslevis/weiquncrawler/git/refs{/sha}",
    "git_tags_url": "https://api.github.com/repos/liuslevis/weiquncrawler/git/tags{/sha}",
    "git_url": "git://github.com/liuslevis/weiquncrawler.git",
    "has_downloads": true,
    "has_issues": true,
    "has_wiki": true,
    "homepage": null,
    "hooks_url": "https://api.github.com/repos/liuslevis/weiquncrawler/hooks",
    "html_url": "https://github.com/liuslevis/weiquncrawler",
    "id": 10958001,
    "issue_comment_url": "https://api.github.com/repos/liuslevis/weiquncrawler/issues/comments/{number}",
    "issue_events_url": "https://api.github.com/repos/liuslevis/weiquncrawler/issues/events{/number}",
    "issues_url": "https://api.github.com/repos/liuslevis/weiquncrawler/issues{/number}",
    "keys_url": "https://api.github.com/repos/liuslevis/weiquncrawler/keys{/key_id}",
    "labels_url": "https://api.github.com/repos/liuslevis/weiquncrawler/labels{/name}",
    "language": "Python",
    "languages_url": "https://api.github.com/repos/liuslevis/weiquncrawler/languages",
    "merges_url": "https://api.github.com/repos/liuslevis/weiquncrawler/merges",
    "milestones_url": "https://api.github.com/repos/liuslevis/weiquncrawler/milestones{/number}",
    "mirror_url": null,
    "name": "weiquncrawler",
    "notifications_url": "https://api.github.com/repos/liuslevis/weiquncrawler/notifications{?since,all,participating}",
    "open_issues": 0,
    "open_issues_count": 0,
    "owner": {
        "avatar_url": "https://avatars.githubusercontent.com/u/3361154?",
        "events_url": "https://api.github.com/users/liuslevis/events{/privacy}",
        "followers_url": "https://api.github.com/users/liuslevis/followers",
        "following_url": "https://api.github.com/users/liuslevis/following{/other_user}",
        "gists_url": "https://api.github.com/users/liuslevis/gists{/gist_id}",
        "gravatar_id": "49153756a5105ba6f59011dc13f1f6e0",
        "html_url": "https://github.com/liuslevis",
        "id": 3361154,
        "login": "liuslevis",
        "organizations_url": "https://api.github.com/users/liuslevis/orgs",
        "received_events_url": "https://api.github.com/users/liuslevis/received_events",
        "repos_url": "https://api.github.com/users/liuslevis/repos",
        "site_admin": false,
        "starred_url": "https://api.github.com/users/liuslevis/starred{/owner}{/repo}",
        "subscriptions_url": "https://api.github.com/users/liuslevis/subscriptions",
        "type": "User",
        "url": "https://api.github.com/users/liuslevis"
    },
    "private": false,
    "pulls_url": "https://api.github.com/repos/liuslevis/weiquncrawler/pulls{/number}",
    "pushed_at": "2014-05-05T05:39:59Z",
    "releases_url": "https://api.github.com/repos/liuslevis/weiquncrawler/releases{/id}",
    "score": 1.0,
    "size": 280,
    "ssh_url": "git@github.com:liuslevis/weiquncrawler.git",
    "stargazers_count": 90,
    "stargazers_url": "https://api.github.com/repos/liuslevis/weiquncrawler/stargazers",
    "statuses_url": "https://api.github.com/repos/liuslevis/weiquncrawler/statuses/{sha}",
    "subscribers_url": "https://api.github.com/repos/liuslevis/weiquncrawler/subscribers",
    "subscription_url": "https://api.github.com/repos/liuslevis/weiquncrawler/subscription",
    "svn_url": "https://github.com/liuslevis/weiquncrawler",
    "tags_url": "https://api.github.com/repos/liuslevis/weiquncrawler/tags",
    "teams_url": "https://api.github.com/repos/liuslevis/weiquncrawler/teams",
    "trees_url": "https://api.github.com/repos/liuslevis/weiquncrawler/git/trees{/sha}",
    "updated_at": "2014-05-07T00:42:10Z",
    "url": "https://api.github.com/repos/liuslevis/weiquncrawler",
    "watchers": 90,
    "watchers_count": 90
}