{
    "archive_url": "https://api.github.com/repos/lazybird/django-solo/{archive_format}{/ref}",
    "assignees_url": "https://api.github.com/repos/lazybird/django-solo/assignees{/user}",
    "blobs_url": "https://api.github.com/repos/lazybird/django-solo/git/blobs{/sha}",
    "branches_url": "https://api.github.com/repos/lazybird/django-solo/branches{/branch}",
    "clone_url": "https://github.com/lazybird/django-solo.git",
    "collaborators_url": "https://api.github.com/repos/lazybird/django-solo/collaborators{/collaborator}",
    "comments_url": "https://api.github.com/repos/lazybird/django-solo/comments{/number}",
    "commits_url": "https://api.github.com/repos/lazybird/django-solo/commits{/sha}",
    "compare_url": "https://api.github.com/repos/lazybird/django-solo/compare/{base}...{head}",
    "contents_url": "https://api.github.com/repos/lazybird/django-solo/contents/{+path}",
    "contributors_url": "https://api.github.com/repos/lazybird/django-solo/contributors",
    "created_at": "2013-05-22T21:28:08Z",
    "default_branch": "master",
    "description": "Helps working with singletons - things like global settings that you want to edit from the admin site.",
    "downloads_url": "https://api.github.com/repos/lazybird/django-solo/downloads",
    "events_url": "https://api.github.com/repos/lazybird/django-solo/events",
    "fork": false,
    "forks": 7,
    "forks_count": 7,
    "forks_url": "https://api.github.com/repos/lazybird/django-solo/forks",
    "full_name": "lazybird/django-solo",
    "git_commits_url": "https://api.github.com/repos/lazybird/django-solo/git/commits{/sha}",
    "git_refs_url": "https://api.github.com/repos/lazybird/django-solo/git/refs{/sha}",
    "git_tags_url": "https://api.github.com/repos/lazybird/django-solo/git/tags{/sha}",
    "git_url": "git://github.com/lazybird/django-solo.git",
    "has_downloads": true,
    "has_issues": true,
    "has_wiki": true,
    "homepage": "",
    "hooks_url": "https://api.github.com/repos/lazybird/django-solo/hooks",
    "html_url": "https://github.com/lazybird/django-solo",
    "id": 10230120,
    "issue_comment_url": "https://api.github.com/repos/lazybird/django-solo/issues/comments/{number}",
    "issue_events_url": "https://api.github.com/repos/lazybird/django-solo/issues/events{/number}",
    "issues_url": "https://api.github.com/repos/lazybird/django-solo/issues{/number}",
    "keys_url": "https://api.github.com/repos/lazybird/django-solo/keys{/key_id}",
    "labels_url": "https://api.github.com/repos/lazybird/django-solo/labels{/name}",
    "language": "Python",
    "languages_url": "https://api.github.com/repos/lazybird/django-solo/languages",
    "merges_url": "https://api.github.com/repos/lazybird/django-solo/merges",
    "milestones_url": "https://api.github.com/repos/lazybird/django-solo/milestones{/number}",
    "mirror_url": null,
    "name": "django-solo",
    "notifications_url": "https://api.github.com/repos/lazybird/django-solo/notifications{?since,all,participating}",
    "open_issues": 0,
    "open_issues_count": 0,
    "owner": {
        "avatar_url": "https://avatars.githubusercontent.com/u/2660255?",
        "events_url": "https://api.github.com/users/lazybird/events{/privacy}",
        "followers_url": "https://api.github.com/users/lazybird/followers",
        "following_url": "https://api.github.com/users/lazybird/following{/other_user}",
        "gists_url": "https://api.github.com/users/lazybird/gists{/gist_id}",
        "gravatar_id": "9960db865a29d5490727cb3be18b2bd7",
        "html_url": "https://github.com/lazybird",
        "id": 2660255,
        "login": "lazybird",
        "organizations_url": "https://api.github.com/users/lazybird/orgs",
        "received_events_url": "https://api.github.com/users/lazybird/received_events",
        "repos_url": "https://api.github.com/users/lazybird/repos",
        "site_admin": false,
        "starred_url": "https://api.github.com/users/lazybird/starred{/owner}{/repo}",
        "subscriptions_url": "https://api.github.com/users/lazybird/subscriptions",
        "type": "User",
        "url": "https://api.github.com/users/lazybird"
    },
    "private": false,
    "pulls_url": "https://api.github.com/repos/lazybird/django-solo/pulls{/number}",
    "pushed_at": "2014-04-27T22:01:02Z",
    "releases_url": "https://api.github.com/repos/lazybird/django-solo/releases{/id}",
    "score": 1.0,
    "size": 341,
    "ssh_url": "git@github.com:lazybird/django-solo.git",
    "stargazers_count": 53,
    "stargazers_url": "https://api.github.com/repos/lazybird/django-solo/stargazers",
    "statuses_url": "https://api.github.com/repos/lazybird/django-solo/statuses/{sha}",
    "subscribers_url": "https://api.github.com/repos/lazybird/django-solo/subscribers",
    "subscription_url": "https://api.github.com/repos/lazybird/django-solo/subscription",
    "svn_url": "https://github.com/lazybird/django-solo",
    "tags_url": "https://api.github.com/repos/lazybird/django-solo/tags",
    "teams_url": "https://api.github.com/repos/lazybird/django-solo/teams",
    "trees_url": "https://api.github.com/repos/lazybird/django-solo/git/trees{/sha}",
    "updated_at": "2014-05-06T07:14:45Z",
    "url": "https://api.github.com/repos/lazybird/django-solo",
    "watchers": 53,
    "watchers_count": 53
}