[
    "dropper",
    "yamond",
    "pagekite.proto.conns",
    "selectables",
    "proto.selectables",
    "proto.proto",
    "pagekite.dropper",
    "pagekite.manual",
    "proto.conns",
    "filters",
    "__main__",
    "pagekite.yamond",
    "pagekite.logparse",
    "logparse",
    "compat",
    "httpd",
    "pagekite.common",
    "proto",
    "pagekite.proto.proto",
    "ui.basic",
    "ui.remote",
    "pagekite.android",
    "pagekite.ui.basic",
    "pagekite.proto",
    "basic",
    "conns",
    "pk",
    "android",
    "ui.nullui",
    "pagekite",
    "pagekite.proto.parsers",
    "proto.filters",
    "pagekite.logging",
    "droiddemo",
    "logging",
    "pagekite.pk",
    "nullui",
    "pagekite.proto.filters",
    "pagekite.__main__",
    "proto.parsers",
    "remote",
    "pagekite.ui.remote",
    "pagekite.ui",
    "manual",
    "pagekite.httpd",
    "parsers",
    "ui",
    "common",
    "pagekite.proto.selectables",
    "pagekite.compat",
    "pagekite.ui.nullui"
]