{
    "archive_url": "https://api.github.com/repos/retresco/Spyder/{archive_format}{/ref}",
    "assignees_url": "https://api.github.com/repos/retresco/Spyder/assignees{/user}",
    "blobs_url": "https://api.github.com/repos/retresco/Spyder/git/blobs{/sha}",
    "branches_url": "https://api.github.com/repos/retresco/Spyder/branches{/branch}",
    "clone_url": "https://github.com/retresco/Spyder.git",
    "collaborators_url": "https://api.github.com/repos/retresco/Spyder/collaborators{/collaborator}",
    "comments_url": "https://api.github.com/repos/retresco/Spyder/comments{/number}",
    "commits_url": "https://api.github.com/repos/retresco/Spyder/commits{/sha}",
    "compare_url": "https://api.github.com/repos/retresco/Spyder/compare/{base}...{head}",
    "contents_url": "https://api.github.com/repos/retresco/Spyder/contents/{+path}",
    "contributors_url": "https://api.github.com/repos/retresco/Spyder/contributors",
    "created_at": "2011-04-21T13:17:38Z",
    "default_branch": "master",
    "description": "A Python web crawler using Tornado and ZeroMQ",
    "downloads_url": "https://api.github.com/repos/retresco/Spyder/downloads",
    "events_url": "https://api.github.com/repos/retresco/Spyder/events",
    "fork": false,
    "forks": 18,
    "forks_count": 18,
    "forks_url": "https://api.github.com/repos/retresco/Spyder/forks",
    "full_name": "retresco/Spyder",
    "git_commits_url": "https://api.github.com/repos/retresco/Spyder/git/commits{/sha}",
    "git_refs_url": "https://api.github.com/repos/retresco/Spyder/git/refs{/sha}",
    "git_tags_url": "https://api.github.com/repos/retresco/Spyder/git/tags{/sha}",
    "git_url": "git://github.com/retresco/Spyder.git",
    "has_downloads": true,
    "has_issues": true,
    "has_wiki": true,
    "homepage": "http://retresco.github.com/Spyder/",
    "hooks_url": "https://api.github.com/repos/retresco/Spyder/hooks",
    "html_url": "https://github.com/retresco/Spyder",
    "id": 1645354,
    "issue_comment_url": "https://api.github.com/repos/retresco/Spyder/issues/comments/{number}",
    "issue_events_url": "https://api.github.com/repos/retresco/Spyder/issues/events{/number}",
    "issues_url": "https://api.github.com/repos/retresco/Spyder/issues{/number}",
    "keys_url": "https://api.github.com/repos/retresco/Spyder/keys{/key_id}",
    "labels_url": "https://api.github.com/repos/retresco/Spyder/labels{/name}",
    "language": "Python",
    "languages_url": "https://api.github.com/repos/retresco/Spyder/languages",
    "merges_url": "https://api.github.com/repos/retresco/Spyder/merges",
    "milestones_url": "https://api.github.com/repos/retresco/Spyder/milestones{/number}",
    "mirror_url": null,
    "name": "Spyder",
    "notifications_url": "https://api.github.com/repos/retresco/Spyder/notifications{?since,all,participating}",
    "open_issues": 12,
    "open_issues_count": 12,
    "owner": {
        "avatar_url": "https://avatars.githubusercontent.com/u/547317?",
        "events_url": "https://api.github.com/users/retresco/events{/privacy}",
        "followers_url": "https://api.github.com/users/retresco/followers",
        "following_url": "https://api.github.com/users/retresco/following{/other_user}",
        "gists_url": "https://api.github.com/users/retresco/gists{/gist_id}",
        "gravatar_id": "9d5e2766d203948535167ae1f2b8d115",
        "html_url": "https://github.com/retresco",
        "id": 547317,
        "login": "retresco",
        "organizations_url": "https://api.github.com/users/retresco/orgs",
        "received_events_url": "https://api.github.com/users/retresco/received_events",
        "repos_url": "https://api.github.com/users/retresco/repos",
        "site_admin": false,
        "starred_url": "https://api.github.com/users/retresco/starred{/owner}{/repo}",
        "subscriptions_url": "https://api.github.com/users/retresco/subscriptions",
        "type": "Organization",
        "url": "https://api.github.com/users/retresco"
    },
    "private": false,
    "pulls_url": "https://api.github.com/repos/retresco/Spyder/pulls{/number}",
    "pushed_at": "2012-05-09T08:38:47Z",
    "releases_url": "https://api.github.com/repos/retresco/Spyder/releases{/id}",
    "score": 1.0,
    "size": 1502,
    "ssh_url": "git@github.com:retresco/Spyder.git",
    "stargazers_count": 99,
    "stargazers_url": "https://api.github.com/repos/retresco/Spyder/stargazers",
    "statuses_url": "https://api.github.com/repos/retresco/Spyder/statuses/{sha}",
    "subscribers_url": "https://api.github.com/repos/retresco/Spyder/subscribers",
    "subscription_url": "https://api.github.com/repos/retresco/Spyder/subscription",
    "svn_url": "https://github.com/retresco/Spyder",
    "tags_url": "https://api.github.com/repos/retresco/Spyder/tags",
    "teams_url": "https://api.github.com/repos/retresco/Spyder/teams",
    "trees_url": "https://api.github.com/repos/retresco/Spyder/git/trees{/sha}",
    "updated_at": "2014-03-03T14:05:38Z",
    "url": "https://api.github.com/repos/retresco/Spyder",
    "watchers": 99,
    "watchers_count": 99
}