{
    "archive_url": "https://api.github.com/repos/sindresorhus/sublime-autoprefixer/{archive_format}{/ref}",
    "assignees_url": "https://api.github.com/repos/sindresorhus/sublime-autoprefixer/assignees{/user}",
    "blobs_url": "https://api.github.com/repos/sindresorhus/sublime-autoprefixer/git/blobs{/sha}",
    "branches_url": "https://api.github.com/repos/sindresorhus/sublime-autoprefixer/branches{/branch}",
    "clone_url": "https://github.com/sindresorhus/sublime-autoprefixer.git",
    "collaborators_url": "https://api.github.com/repos/sindresorhus/sublime-autoprefixer/collaborators{/collaborator}",
    "comments_url": "https://api.github.com/repos/sindresorhus/sublime-autoprefixer/comments{/number}",
    "commits_url": "https://api.github.com/repos/sindresorhus/sublime-autoprefixer/commits{/sha}",
    "compare_url": "https://api.github.com/repos/sindresorhus/sublime-autoprefixer/compare/{base}...{head}",
    "contents_url": "https://api.github.com/repos/sindresorhus/sublime-autoprefixer/contents/{+path}",
    "contributors_url": "https://api.github.com/repos/sindresorhus/sublime-autoprefixer/contributors",
    "created_at": "2013-04-25T21:21:36Z",
    "default_branch": "master",
    "description": "Sublime plugin to prefix your CSS",
    "downloads_url": "https://api.github.com/repos/sindresorhus/sublime-autoprefixer/downloads",
    "events_url": "https://api.github.com/repos/sindresorhus/sublime-autoprefixer/events",
    "fork": false,
    "forks": 17,
    "forks_count": 17,
    "forks_url": "https://api.github.com/repos/sindresorhus/sublime-autoprefixer/forks",
    "full_name": "sindresorhus/sublime-autoprefixer",
    "git_commits_url": "https://api.github.com/repos/sindresorhus/sublime-autoprefixer/git/commits{/sha}",
    "git_refs_url": "https://api.github.com/repos/sindresorhus/sublime-autoprefixer/git/refs{/sha}",
    "git_tags_url": "https://api.github.com/repos/sindresorhus/sublime-autoprefixer/git/tags{/sha}",
    "git_url": "git://github.com/sindresorhus/sublime-autoprefixer.git",
    "has_downloads": true,
    "has_issues": true,
    "has_wiki": false,
    "homepage": "",
    "hooks_url": "https://api.github.com/repos/sindresorhus/sublime-autoprefixer/hooks",
    "html_url": "https://github.com/sindresorhus/sublime-autoprefixer",
    "id": 9681647,
    "issue_comment_url": "https://api.github.com/repos/sindresorhus/sublime-autoprefixer/issues/comments/{number}",
    "issue_events_url": "https://api.github.com/repos/sindresorhus/sublime-autoprefixer/issues/events{/number}",
    "issues_url": "https://api.github.com/repos/sindresorhus/sublime-autoprefixer/issues{/number}",
    "keys_url": "https://api.github.com/repos/sindresorhus/sublime-autoprefixer/keys{/key_id}",
    "labels_url": "https://api.github.com/repos/sindresorhus/sublime-autoprefixer/labels{/name}",
    "language": "Python",
    "languages_url": "https://api.github.com/repos/sindresorhus/sublime-autoprefixer/languages",
    "merges_url": "https://api.github.com/repos/sindresorhus/sublime-autoprefixer/merges",
    "milestones_url": "https://api.github.com/repos/sindresorhus/sublime-autoprefixer/milestones{/number}",
    "mirror_url": null,
    "name": "sublime-autoprefixer",
    "notifications_url": "https://api.github.com/repos/sindresorhus/sublime-autoprefixer/notifications{?since,all,participating}",
    "open_issues": 4,
    "open_issues_count": 4,
    "owner": {
        "avatar_url": "https://avatars.githubusercontent.com/u/170270?",
        "events_url": "https://api.github.com/users/sindresorhus/events{/privacy}",
        "followers_url": "https://api.github.com/users/sindresorhus/followers",
        "following_url": "https://api.github.com/users/sindresorhus/following{/other_user}",
        "gists_url": "https://api.github.com/users/sindresorhus/gists{/gist_id}",
        "gravatar_id": "d36a92237c75c5337c17b60d90686bf9",
        "html_url": "https://github.com/sindresorhus",
        "id": 170270,
        "login": "sindresorhus",
        "organizations_url": "https://api.github.com/users/sindresorhus/orgs",
        "received_events_url": "https://api.github.com/users/sindresorhus/received_events",
        "repos_url": "https://api.github.com/users/sindresorhus/repos",
        "site_admin": false,
        "starred_url": "https://api.github.com/users/sindresorhus/starred{/owner}{/repo}",
        "subscriptions_url": "https://api.github.com/users/sindresorhus/subscriptions",
        "type": "User",
        "url": "https://api.github.com/users/sindresorhus"
    },
    "private": false,
    "pulls_url": "https://api.github.com/repos/sindresorhus/sublime-autoprefixer/pulls{/number}",
    "pushed_at": "2014-04-03T22:40:34Z",
    "releases_url": "https://api.github.com/repos/sindresorhus/sublime-autoprefixer/releases{/id}",
    "score": 1.0,
    "size": 1980,
    "ssh_url": "git@github.com:sindresorhus/sublime-autoprefixer.git",
    "stargazers_count": 299,
    "stargazers_url": "https://api.github.com/repos/sindresorhus/sublime-autoprefixer/stargazers",
    "statuses_url": "https://api.github.com/repos/sindresorhus/sublime-autoprefixer/statuses/{sha}",
    "subscribers_url": "https://api.github.com/repos/sindresorhus/sublime-autoprefixer/subscribers",
    "subscription_url": "https://api.github.com/repos/sindresorhus/sublime-autoprefixer/subscription",
    "svn_url": "https://github.com/sindresorhus/sublime-autoprefixer",
    "tags_url": "https://api.github.com/repos/sindresorhus/sublime-autoprefixer/tags",
    "teams_url": "https://api.github.com/repos/sindresorhus/sublime-autoprefixer/teams",
    "trees_url": "https://api.github.com/repos/sindresorhus/sublime-autoprefixer/git/trees{/sha}",
    "updated_at": "2014-05-06T03:24:18Z",
    "url": "https://api.github.com/repos/sindresorhus/sublime-autoprefixer",
    "watchers": 299,
    "watchers_count": 299
}