[
    "v11.ttypes",
    "concurrent_schema_changes_test",
    "v07.ttypes",
    "cassandra.v11",
    "v11",
    "cqlsh_tests",
    "range_ghost_test",
    "topology_test",
    "taketoken_test",
    "cassandra.v07.constants",
    "loadmaker_test",
    "cassandra.v07.Cassandra",
    "thrift_hsha_test",
    "v07.Cassandra",
    "repair_test",
    "cql_tests",
    "tools",
    "cassandra",
    "paxos_tests",
    "multidc_putget_test",
    "super_column_cache_test",
    "sstable_generation_loading_test",
    "consistent_bootstrap_test",
    "secondary_indexes_test",
    "bootstrap_test",
    "upgrade_through_versions_test",
    "dtest",
    "snapshot_test",
    "consistency_test",
    "deletion_test",
    "v11.Cassandra",
    "assertions",
    "batch_test",
    "cassandra.v11.Cassandra",
    "ttypes",
    "v07",
    "global_row_key_cache_test",
    "cassandra.v07",
    "cassandra.v07.ttypes",
    "replication_test",
    "upgrade_supercolumns_test",
    "delete_insert_test",
    "wide_rows_test",
    "replace_address_test",
    "loadmaker",
    "constants",
    "cassandra.v11.ttypes",
    "configuration_test",
    "auth_test",
    "counter_tests",
    "cassandra.v11.constants",
    "putget_test",
    "v11.constants",
    "v07.constants",
    "sstablesplit_test",
    "cql_prepared_test",
    "schema_test",
    "user_types",
    "super_counter_test",
    "Cassandra"
]