[
    "graphite_api.render.grammar",
    "render",
    "graphite_api.storage",
    "render.glyph",
    "app",
    "intervals",
    "graphite_api.render.glyph",
    "graphite_api.render",
    "tests.test_attime",
    "readers",
    "attime",
    "graphite_api.config",
    "test_finders",
    "tests.test_metrics",
    "graphite_api.middleware",
    "tests",
    "graphite_api.render.datalib",
    "render.grammar",
    "graphite_api",
    "graphite_api.search",
    "tests.test_finders",
    "finders.whisper",
    "graphite_api.intervals",
    "docs.conf",
    "grammar",
    "test_functions",
    "middleware",
    "graphite_api.app",
    "tests.test_http",
    "test_http",
    "graphite_api.render.attime",
    "test_metrics",
    "test_intervals",
    "whisper",
    "utils",
    "tests.test_functions",
    "tests.test_render",
    "test_attime",
    "_vendor",
    "conf",
    "_vendor.whisper",
    "glyph",
    "tests.test_intervals",
    "functions",
    "encoders",
    "graphite_api._vendor",
    "graphite_api._vendor.whisper",
    "storage",
    "docs",
    "graphite_api.functions",
    "config",
    "node",
    "graphite_api.utils",
    "unittest_main",
    "graphite_api.node",
    "render.attime",
    "finders",
    "search",
    "graphite_api.encoders",
    "graphite_api.readers",
    "datalib",
    "render.datalib",
    "test_render",
    "graphite_api.finders",
    "graphite_api.finders.whisper"
]