{
    "archive_url": "https://api.github.com/repos/iBaa/PlexConnect/{archive_format}{/ref}",
    "assignees_url": "https://api.github.com/repos/iBaa/PlexConnect/assignees{/user}",
    "blobs_url": "https://api.github.com/repos/iBaa/PlexConnect/git/blobs{/sha}",
    "branches_url": "https://api.github.com/repos/iBaa/PlexConnect/branches{/branch}",
    "clone_url": "https://github.com/iBaa/PlexConnect.git",
    "collaborators_url": "https://api.github.com/repos/iBaa/PlexConnect/collaborators{/collaborator}",
    "comments_url": "https://api.github.com/repos/iBaa/PlexConnect/comments{/number}",
    "commits_url": "https://api.github.com/repos/iBaa/PlexConnect/commits{/sha}",
    "compare_url": "https://api.github.com/repos/iBaa/PlexConnect/compare/{base}...{head}",
    "contents_url": "https://api.github.com/repos/iBaa/PlexConnect/contents/{+path}",
    "contributors_url": "https://api.github.com/repos/iBaa/PlexConnect/contributors",
    "created_at": "2013-04-14T08:02:23Z",
    "default_branch": "master",
    "description": "Plex @ aTV - think different...",
    "downloads_url": "https://api.github.com/repos/iBaa/PlexConnect/downloads",
    "events_url": "https://api.github.com/repos/iBaa/PlexConnect/events",
    "fork": false,
    "forks": 405,
    "forks_count": 405,
    "forks_url": "https://api.github.com/repos/iBaa/PlexConnect/forks",
    "full_name": "iBaa/PlexConnect",
    "git_commits_url": "https://api.github.com/repos/iBaa/PlexConnect/git/commits{/sha}",
    "git_refs_url": "https://api.github.com/repos/iBaa/PlexConnect/git/refs{/sha}",
    "git_tags_url": "https://api.github.com/repos/iBaa/PlexConnect/git/tags{/sha}",
    "git_url": "git://github.com/iBaa/PlexConnect.git",
    "has_downloads": true,
    "has_issues": true,
    "has_wiki": true,
    "homepage": null,
    "hooks_url": "https://api.github.com/repos/iBaa/PlexConnect/hooks",
    "html_url": "https://github.com/iBaa/PlexConnect",
    "id": 9426192,
    "issue_comment_url": "https://api.github.com/repos/iBaa/PlexConnect/issues/comments/{number}",
    "issue_events_url": "https://api.github.com/repos/iBaa/PlexConnect/issues/events{/number}",
    "issues_url": "https://api.github.com/repos/iBaa/PlexConnect/issues{/number}",
    "keys_url": "https://api.github.com/repos/iBaa/PlexConnect/keys{/key_id}",
    "labels_url": "https://api.github.com/repos/iBaa/PlexConnect/labels{/name}",
    "language": "Python",
    "languages_url": "https://api.github.com/repos/iBaa/PlexConnect/languages",
    "merges_url": "https://api.github.com/repos/iBaa/PlexConnect/merges",
    "milestones_url": "https://api.github.com/repos/iBaa/PlexConnect/milestones{/number}",
    "mirror_url": null,
    "name": "PlexConnect",
    "notifications_url": "https://api.github.com/repos/iBaa/PlexConnect/notifications{?since,all,participating}",
    "open_issues": 25,
    "open_issues_count": 25,
    "owner": {
        "avatar_url": "https://avatars.githubusercontent.com/u/4150852?",
        "events_url": "https://api.github.com/users/iBaa/events{/privacy}",
        "followers_url": "https://api.github.com/users/iBaa/followers",
        "following_url": "https://api.github.com/users/iBaa/following{/other_user}",
        "gists_url": "https://api.github.com/users/iBaa/gists{/gist_id}",
        "gravatar_id": "85a9ce643ed624da7c13a13291bc409b",
        "html_url": "https://github.com/iBaa",
        "id": 4150852,
        "login": "iBaa",
        "organizations_url": "https://api.github.com/users/iBaa/orgs",
        "received_events_url": "https://api.github.com/users/iBaa/received_events",
        "repos_url": "https://api.github.com/users/iBaa/repos",
        "site_admin": false,
        "starred_url": "https://api.github.com/users/iBaa/starred{/owner}{/repo}",
        "subscriptions_url": "https://api.github.com/users/iBaa/subscriptions",
        "type": "User",
        "url": "https://api.github.com/users/iBaa"
    },
    "private": false,
    "pulls_url": "https://api.github.com/repos/iBaa/PlexConnect/pulls{/number}",
    "pushed_at": "2014-05-06T19:25:02Z",
    "releases_url": "https://api.github.com/repos/iBaa/PlexConnect/releases{/id}",
    "score": 1.0,
    "size": 35031,
    "ssh_url": "git@github.com:iBaa/PlexConnect.git",
    "stargazers_count": 1031,
    "stargazers_url": "https://api.github.com/repos/iBaa/PlexConnect/stargazers",
    "statuses_url": "https://api.github.com/repos/iBaa/PlexConnect/statuses/{sha}",
    "subscribers_url": "https://api.github.com/repos/iBaa/PlexConnect/subscribers",
    "subscription_url": "https://api.github.com/repos/iBaa/PlexConnect/subscription",
    "svn_url": "https://github.com/iBaa/PlexConnect",
    "tags_url": "https://api.github.com/repos/iBaa/PlexConnect/tags",
    "teams_url": "https://api.github.com/repos/iBaa/PlexConnect/teams",
    "trees_url": "https://api.github.com/repos/iBaa/PlexConnect/git/trees{/sha}",
    "updated_at": "2014-05-06T19:25:03Z",
    "url": "https://api.github.com/repos/iBaa/PlexConnect",
    "watchers": 1031,
    "watchers_count": 1031
}