{
    "archive_url": "https://api.github.com/repos/daimajia/bleed-baidu-white/{archive_format}{/ref}",
    "assignees_url": "https://api.github.com/repos/daimajia/bleed-baidu-white/assignees{/user}",
    "blobs_url": "https://api.github.com/repos/daimajia/bleed-baidu-white/git/blobs{/sha}",
    "branches_url": "https://api.github.com/repos/daimajia/bleed-baidu-white/branches{/branch}",
    "clone_url": "https://github.com/daimajia/bleed-baidu-white.git",
    "collaborators_url": "https://api.github.com/repos/daimajia/bleed-baidu-white/collaborators{/collaborator}",
    "comments_url": "https://api.github.com/repos/daimajia/bleed-baidu-white/comments{/number}",
    "commits_url": "https://api.github.com/repos/daimajia/bleed-baidu-white/commits{/sha}",
    "compare_url": "https://api.github.com/repos/daimajia/bleed-baidu-white/compare/{base}...{head}",
    "contents_url": "https://api.github.com/repos/daimajia/bleed-baidu-white/contents/{+path}",
    "contributors_url": "https://api.github.com/repos/daimajia/bleed-baidu-white/contributors",
    "created_at": "2013-06-07T02:41:11Z",
    "default_branch": "master",
    "description": "\u69a8\u5e72\u767e\u5ea6\u7f51\u76d8\u7684\u5269\u4f59\u4ef7\u503c",
    "downloads_url": "https://api.github.com/repos/daimajia/bleed-baidu-white/downloads",
    "events_url": "https://api.github.com/repos/daimajia/bleed-baidu-white/events",
    "fork": false,
    "forks": 40,
    "forks_count": 40,
    "forks_url": "https://api.github.com/repos/daimajia/bleed-baidu-white/forks",
    "full_name": "daimajia/bleed-baidu-white",
    "git_commits_url": "https://api.github.com/repos/daimajia/bleed-baidu-white/git/commits{/sha}",
    "git_refs_url": "https://api.github.com/repos/daimajia/bleed-baidu-white/git/refs{/sha}",
    "git_tags_url": "https://api.github.com/repos/daimajia/bleed-baidu-white/git/tags{/sha}",
    "git_url": "git://github.com/daimajia/bleed-baidu-white.git",
    "has_downloads": true,
    "has_issues": true,
    "has_wiki": true,
    "homepage": "http://daimajia.duapp.com",
    "hooks_url": "https://api.github.com/repos/daimajia/bleed-baidu-white/hooks",
    "html_url": "https://github.com/daimajia/bleed-baidu-white",
    "id": 10541110,
    "issue_comment_url": "https://api.github.com/repos/daimajia/bleed-baidu-white/issues/comments/{number}",
    "issue_events_url": "https://api.github.com/repos/daimajia/bleed-baidu-white/issues/events{/number}",
    "issues_url": "https://api.github.com/repos/daimajia/bleed-baidu-white/issues{/number}",
    "keys_url": "https://api.github.com/repos/daimajia/bleed-baidu-white/keys{/key_id}",
    "labels_url": "https://api.github.com/repos/daimajia/bleed-baidu-white/labels{/name}",
    "language": "Python",
    "languages_url": "https://api.github.com/repos/daimajia/bleed-baidu-white/languages",
    "merges_url": "https://api.github.com/repos/daimajia/bleed-baidu-white/merges",
    "milestones_url": "https://api.github.com/repos/daimajia/bleed-baidu-white/milestones{/number}",
    "mirror_url": null,
    "name": "bleed-baidu-white",
    "notifications_url": "https://api.github.com/repos/daimajia/bleed-baidu-white/notifications{?since,all,participating}",
    "open_issues": 1,
    "open_issues_count": 1,
    "owner": {
        "avatar_url": "https://avatars.githubusercontent.com/u/2503423?",
        "events_url": "https://api.github.com/users/daimajia/events{/privacy}",
        "followers_url": "https://api.github.com/users/daimajia/followers",
        "following_url": "https://api.github.com/users/daimajia/following{/other_user}",
        "gists_url": "https://api.github.com/users/daimajia/gists{/gist_id}",
        "gravatar_id": "977d0d3e3f8a5577598424c49c1d4e00",
        "html_url": "https://github.com/daimajia",
        "id": 2503423,
        "login": "daimajia",
        "organizations_url": "https://api.github.com/users/daimajia/orgs",
        "received_events_url": "https://api.github.com/users/daimajia/received_events",
        "repos_url": "https://api.github.com/users/daimajia/repos",
        "site_admin": false,
        "starred_url": "https://api.github.com/users/daimajia/starred{/owner}{/repo}",
        "subscriptions_url": "https://api.github.com/users/daimajia/subscriptions",
        "type": "User",
        "url": "https://api.github.com/users/daimajia"
    },
    "private": false,
    "pulls_url": "https://api.github.com/repos/daimajia/bleed-baidu-white/pulls{/number}",
    "pushed_at": "2014-04-28T01:26:05Z",
    "releases_url": "https://api.github.com/repos/daimajia/bleed-baidu-white/releases{/id}",
    "score": 1.0,
    "size": 410,
    "ssh_url": "git@github.com:daimajia/bleed-baidu-white.git",
    "stargazers_count": 175,
    "stargazers_url": "https://api.github.com/repos/daimajia/bleed-baidu-white/stargazers",
    "statuses_url": "https://api.github.com/repos/daimajia/bleed-baidu-white/statuses/{sha}",
    "subscribers_url": "https://api.github.com/repos/daimajia/bleed-baidu-white/subscribers",
    "subscription_url": "https://api.github.com/repos/daimajia/bleed-baidu-white/subscription",
    "svn_url": "https://github.com/daimajia/bleed-baidu-white",
    "tags_url": "https://api.github.com/repos/daimajia/bleed-baidu-white/tags",
    "teams_url": "https://api.github.com/repos/daimajia/bleed-baidu-white/teams",
    "trees_url": "https://api.github.com/repos/daimajia/bleed-baidu-white/git/trees{/sha}",
    "updated_at": "2014-05-07T04:27:49Z",
    "url": "https://api.github.com/repos/daimajia/bleed-baidu-white",
    "watchers": 175,
    "watchers_count": 175
}