{
    "libs": [
        "code",
        "Generator",
        "functools",
        "random",
        "datetime",
        "cmemcache",
        "markdown",
        "gc",
        "MIMEText",
        "web",
        "Shell",
        "PIL",
        "struct",
        "generator",
        "re",
        "tempfile",
        "pprint",
        "imp",
        "smtplib",
        "me",
        "zipimport",
        "string",
        "SocketServer",
        "zipfile",
        "dat",
        "testc",
        "hotshot",
        "new",
        "subprocess",
        "Debugger",
        "httplib",
        "extr",
        "signal",
        "bisect",
        "h",
        "decimal",
        "ImageFile",
        "threading",
        "flup",
        "TextTools",
        "Utils",
        "dummy_threading",
        "cStringIO",
        "old",
        "with_statement",
        "mimetypes",
        "atexit",
        "win32file",
        "MIMEB",
        "compat",
        "sha",
        "urllib",
        "docutils",
        "pylibmc",
        "email",
        "math",
        "cgi",
        "MIMEMultipart",
        "optparse",
        "inspect",
        "ctypes",
        "codecs",
        "path",
        "md5",
        "minidom",
        "logging",
        "socket",
        "thread",
        "StringIO",
        "traceback",
        "fcntl",
        "pkg_resources",
        "multiprocessing",
        "weakref",
        "itertools",
        "pstats",
        "smtpd",
        "os",
        "pdb",
        "__future__",
        "debugger",
        "dummy_thread",
        "platform",
        "operator",
        "tools",
        "yaml",
        "errno",
        "cPickle",
        "B",
        "termios",
        "iso8601",
        "memcache",
        "testtools",
        "pywintypes",
        "copy",
        "std",
        "unicodedata",
        "b",
        "keyword",
        "f",
        "Header",
        "shelve",
        "fnmatch",
        "embed",
        "pickle",
        "a_package_name_that_does_not_exist",
        "mox",
        "shutil",
        "lxml",
        "bz2",
        "_systemrestart",
        "moves",
        "gettext",
        "textile",
        "writers",
        "getp",
        "getopt",
        "config",
        "mock",
        "_speedups",
        "ioloop",
        "stat",
        "sure",
        "warnings",
        "glob",
        "time",
        "urllib2",
        "sys",
        "v2",
        "fuzzywuzzy",
        "user",
        "saxutils",
        "bpython",
        "readline",
        "types",
        "sphinx",
        "dom",
        "difflib",
        "urlparse",
        "linecache",
        "win32con",
        "rlcompleter",
        "hmac"
    ]
}