{
    "archive_url": "https://api.github.com/repos/gabrielfalcao/lettuce/{archive_format}{/ref}",
    "assignees_url": "https://api.github.com/repos/gabrielfalcao/lettuce/assignees{/user}",
    "blobs_url": "https://api.github.com/repos/gabrielfalcao/lettuce/git/blobs{/sha}",
    "branches_url": "https://api.github.com/repos/gabrielfalcao/lettuce/branches{/branch}",
    "clone_url": "https://github.com/gabrielfalcao/lettuce.git",
    "collaborators_url": "https://api.github.com/repos/gabrielfalcao/lettuce/collaborators{/collaborator}",
    "comments_url": "https://api.github.com/repos/gabrielfalcao/lettuce/comments{/number}",
    "commits_url": "https://api.github.com/repos/gabrielfalcao/lettuce/commits{/sha}",
    "compare_url": "https://api.github.com/repos/gabrielfalcao/lettuce/compare/{base}...{head}",
    "contents_url": "https://api.github.com/repos/gabrielfalcao/lettuce/contents/{+path}",
    "contributors_url": "https://api.github.com/repos/gabrielfalcao/lettuce/contributors",
    "created_at": "2010-03-24T10:30:22Z",
    "default_branch": "master",
    "description": "Cucumber-ish BDD for python",
    "downloads_url": "https://api.github.com/repos/gabrielfalcao/lettuce/downloads",
    "events_url": "https://api.github.com/repos/gabrielfalcao/lettuce/events",
    "fork": false,
    "forks": 214,
    "forks_count": 214,
    "forks_url": "https://api.github.com/repos/gabrielfalcao/lettuce/forks",
    "full_name": "gabrielfalcao/lettuce",
    "git_commits_url": "https://api.github.com/repos/gabrielfalcao/lettuce/git/commits{/sha}",
    "git_refs_url": "https://api.github.com/repos/gabrielfalcao/lettuce/git/refs{/sha}",
    "git_tags_url": "https://api.github.com/repos/gabrielfalcao/lettuce/git/tags{/sha}",
    "git_url": "git://github.com/gabrielfalcao/lettuce.git",
    "has_downloads": true,
    "has_issues": true,
    "has_wiki": true,
    "homepage": "http://lettuce.it",
    "hooks_url": "https://api.github.com/repos/gabrielfalcao/lettuce/hooks",
    "html_url": "https://github.com/gabrielfalcao/lettuce",
    "id": 577245,
    "issue_comment_url": "https://api.github.com/repos/gabrielfalcao/lettuce/issues/comments/{number}",
    "issue_events_url": "https://api.github.com/repos/gabrielfalcao/lettuce/issues/events{/number}",
    "issues_url": "https://api.github.com/repos/gabrielfalcao/lettuce/issues{/number}",
    "keys_url": "https://api.github.com/repos/gabrielfalcao/lettuce/keys{/key_id}",
    "labels_url": "https://api.github.com/repos/gabrielfalcao/lettuce/labels{/name}",
    "language": "Python",
    "languages_url": "https://api.github.com/repos/gabrielfalcao/lettuce/languages",
    "merges_url": "https://api.github.com/repos/gabrielfalcao/lettuce/merges",
    "milestones_url": "https://api.github.com/repos/gabrielfalcao/lettuce/milestones{/number}",
    "mirror_url": null,
    "name": "lettuce",
    "notifications_url": "https://api.github.com/repos/gabrielfalcao/lettuce/notifications{?since,all,participating}",
    "open_issues": 61,
    "open_issues_count": 61,
    "owner": {
        "avatar_url": "https://avatars.githubusercontent.com/u/54914?",
        "events_url": "https://api.github.com/users/gabrielfalcao/events{/privacy}",
        "followers_url": "https://api.github.com/users/gabrielfalcao/followers",
        "following_url": "https://api.github.com/users/gabrielfalcao/following{/other_user}",
        "gists_url": "https://api.github.com/users/gabrielfalcao/gists{/gist_id}",
        "gravatar_id": "3fa0df5c54f5ac0f8652d992d7d24039",
        "html_url": "https://github.com/gabrielfalcao",
        "id": 54914,
        "login": "gabrielfalcao",
        "organizations_url": "https://api.github.com/users/gabrielfalcao/orgs",
        "received_events_url": "https://api.github.com/users/gabrielfalcao/received_events",
        "repos_url": "https://api.github.com/users/gabrielfalcao/repos",
        "site_admin": false,
        "starred_url": "https://api.github.com/users/gabrielfalcao/starred{/owner}{/repo}",
        "subscriptions_url": "https://api.github.com/users/gabrielfalcao/subscriptions",
        "type": "User",
        "url": "https://api.github.com/users/gabrielfalcao"
    },
    "private": false,
    "pulls_url": "https://api.github.com/repos/gabrielfalcao/lettuce/pulls{/number}",
    "pushed_at": "2014-04-28T03:34:06Z",
    "releases_url": "https://api.github.com/repos/gabrielfalcao/lettuce/releases{/id}",
    "score": 1.0,
    "size": 17688,
    "ssh_url": "git@github.com:gabrielfalcao/lettuce.git",
    "stargazers_count": 794,
    "stargazers_url": "https://api.github.com/repos/gabrielfalcao/lettuce/stargazers",
    "statuses_url": "https://api.github.com/repos/gabrielfalcao/lettuce/statuses/{sha}",
    "subscribers_url": "https://api.github.com/repos/gabrielfalcao/lettuce/subscribers",
    "subscription_url": "https://api.github.com/repos/gabrielfalcao/lettuce/subscription",
    "svn_url": "https://github.com/gabrielfalcao/lettuce",
    "tags_url": "https://api.github.com/repos/gabrielfalcao/lettuce/tags",
    "teams_url": "https://api.github.com/repos/gabrielfalcao/lettuce/teams",
    "trees_url": "https://api.github.com/repos/gabrielfalcao/lettuce/git/trees{/sha}",
    "updated_at": "2014-05-06T06:09:24Z",
    "url": "https://api.github.com/repos/gabrielfalcao/lettuce",
    "watchers": 794,
    "watchers_count": 794
}