{
    "archive_url": "https://api.github.com/repos/inoi/trombi/{archive_format}{/ref}",
    "assignees_url": "https://api.github.com/repos/inoi/trombi/assignees{/user}",
    "blobs_url": "https://api.github.com/repos/inoi/trombi/git/blobs{/sha}",
    "branches_url": "https://api.github.com/repos/inoi/trombi/branches{/branch}",
    "clone_url": "https://github.com/inoi/trombi.git",
    "collaborators_url": "https://api.github.com/repos/inoi/trombi/collaborators{/collaborator}",
    "comments_url": "https://api.github.com/repos/inoi/trombi/comments{/number}",
    "commits_url": "https://api.github.com/repos/inoi/trombi/commits{/sha}",
    "compare_url": "https://api.github.com/repos/inoi/trombi/compare/{base}...{head}",
    "contents_url": "https://api.github.com/repos/inoi/trombi/contents/{+path}",
    "contributors_url": "https://api.github.com/repos/inoi/trombi/contributors",
    "created_at": "2010-08-24T13:23:21Z",
    "default_branch": "master",
    "description": "Trombi is an asynchronous CouchDB client for Tornado",
    "downloads_url": "https://api.github.com/repos/inoi/trombi/downloads",
    "events_url": "https://api.github.com/repos/inoi/trombi/events",
    "fork": false,
    "forks": 20,
    "forks_count": 20,
    "forks_url": "https://api.github.com/repos/inoi/trombi/forks",
    "full_name": "inoi/trombi",
    "git_commits_url": "https://api.github.com/repos/inoi/trombi/git/commits{/sha}",
    "git_refs_url": "https://api.github.com/repos/inoi/trombi/git/refs{/sha}",
    "git_tags_url": "https://api.github.com/repos/inoi/trombi/git/tags{/sha}",
    "git_url": "git://github.com/inoi/trombi.git",
    "has_downloads": true,
    "has_issues": true,
    "has_wiki": true,
    "homepage": "http://inoi.github.com/trombi",
    "hooks_url": "https://api.github.com/repos/inoi/trombi/hooks",
    "html_url": "https://github.com/inoi/trombi",
    "id": 859067,
    "issue_comment_url": "https://api.github.com/repos/inoi/trombi/issues/comments/{number}",
    "issue_events_url": "https://api.github.com/repos/inoi/trombi/issues/events{/number}",
    "issues_url": "https://api.github.com/repos/inoi/trombi/issues{/number}",
    "keys_url": "https://api.github.com/repos/inoi/trombi/keys{/key_id}",
    "labels_url": "https://api.github.com/repos/inoi/trombi/labels{/name}",
    "language": "Python",
    "languages_url": "https://api.github.com/repos/inoi/trombi/languages",
    "merges_url": "https://api.github.com/repos/inoi/trombi/merges",
    "milestones_url": "https://api.github.com/repos/inoi/trombi/milestones{/number}",
    "mirror_url": null,
    "name": "trombi",
    "notifications_url": "https://api.github.com/repos/inoi/trombi/notifications{?since,all,participating}",
    "open_issues": 3,
    "open_issues_count": 3,
    "owner": {
        "avatar_url": "https://avatars.githubusercontent.com/u/76972?",
        "events_url": "https://api.github.com/users/inoi/events{/privacy}",
        "followers_url": "https://api.github.com/users/inoi/followers",
        "following_url": "https://api.github.com/users/inoi/following{/other_user}",
        "gists_url": "https://api.github.com/users/inoi/gists{/gist_id}",
        "gravatar_id": "e1e0c8a029e9ab85777d518f93a374c2",
        "html_url": "https://github.com/inoi",
        "id": 76972,
        "login": "inoi",
        "organizations_url": "https://api.github.com/users/inoi/orgs",
        "received_events_url": "https://api.github.com/users/inoi/received_events",
        "repos_url": "https://api.github.com/users/inoi/repos",
        "site_admin": false,
        "starred_url": "https://api.github.com/users/inoi/starred{/owner}{/repo}",
        "subscriptions_url": "https://api.github.com/users/inoi/subscriptions",
        "type": "Organization",
        "url": "https://api.github.com/users/inoi"
    },
    "private": false,
    "pulls_url": "https://api.github.com/repos/inoi/trombi/pulls{/number}",
    "pushed_at": "2012-05-05T15:59:34Z",
    "releases_url": "https://api.github.com/repos/inoi/trombi/releases{/id}",
    "score": 1.0,
    "size": 547,
    "ssh_url": "git@github.com:inoi/trombi.git",
    "stargazers_count": 53,
    "stargazers_url": "https://api.github.com/repos/inoi/trombi/stargazers",
    "statuses_url": "https://api.github.com/repos/inoi/trombi/statuses/{sha}",
    "subscribers_url": "https://api.github.com/repos/inoi/trombi/subscribers",
    "subscription_url": "https://api.github.com/repos/inoi/trombi/subscription",
    "svn_url": "https://github.com/inoi/trombi",
    "tags_url": "https://api.github.com/repos/inoi/trombi/tags",
    "teams_url": "https://api.github.com/repos/inoi/trombi/teams",
    "trees_url": "https://api.github.com/repos/inoi/trombi/git/trees{/sha}",
    "updated_at": "2013-11-26T22:57:01Z",
    "url": "https://api.github.com/repos/inoi/trombi",
    "watchers": 53,
    "watchers_count": 53
}