[
    "stats",
    "eventlog",
    "models",
    "docs",
    "eventlog.signals",
    "eventlog.admin",
    "signals",
    "admin",
    "eventlog.stats",
    "eventlog.models",
    "conf",
    "docs.conf"
]