{
    "archive_url": "https://api.github.com/repos/yueyoum/django-social-login/{archive_format}{/ref}",
    "assignees_url": "https://api.github.com/repos/yueyoum/django-social-login/assignees{/user}",
    "blobs_url": "https://api.github.com/repos/yueyoum/django-social-login/git/blobs{/sha}",
    "branches_url": "https://api.github.com/repos/yueyoum/django-social-login/branches{/branch}",
    "clone_url": "https://github.com/yueyoum/django-social-login.git",
    "collaborators_url": "https://api.github.com/repos/yueyoum/django-social-login/collaborators{/collaborator}",
    "comments_url": "https://api.github.com/repos/yueyoum/django-social-login/comments{/number}",
    "commits_url": "https://api.github.com/repos/yueyoum/django-social-login/commits{/sha}",
    "compare_url": "https://api.github.com/repos/yueyoum/django-social-login/compare/{base}...{head}",
    "contents_url": "https://api.github.com/repos/yueyoum/django-social-login/contents/{+path}",
    "contributors_url": "https://api.github.com/repos/yueyoum/django-social-login/contributors",
    "created_at": "2013-03-31T16:36:50Z",
    "default_branch": "master",
    "description": "[DISCARDED]A Django APP for Social accounts login via OAuth2 Service",
    "downloads_url": "https://api.github.com/repos/yueyoum/django-social-login/downloads",
    "events_url": "https://api.github.com/repos/yueyoum/django-social-login/events",
    "fork": false,
    "forks": 18,
    "forks_count": 18,
    "forks_url": "https://api.github.com/repos/yueyoum/django-social-login/forks",
    "full_name": "yueyoum/django-social-login",
    "git_commits_url": "https://api.github.com/repos/yueyoum/django-social-login/git/commits{/sha}",
    "git_refs_url": "https://api.github.com/repos/yueyoum/django-social-login/git/refs{/sha}",
    "git_tags_url": "https://api.github.com/repos/yueyoum/django-social-login/git/tags{/sha}",
    "git_url": "git://github.com/yueyoum/django-social-login.git",
    "has_downloads": true,
    "has_issues": true,
    "has_wiki": true,
    "homepage": "",
    "hooks_url": "https://api.github.com/repos/yueyoum/django-social-login/hooks",
    "html_url": "https://github.com/yueyoum/django-social-login",
    "id": 9132818,
    "issue_comment_url": "https://api.github.com/repos/yueyoum/django-social-login/issues/comments/{number}",
    "issue_events_url": "https://api.github.com/repos/yueyoum/django-social-login/issues/events{/number}",
    "issues_url": "https://api.github.com/repos/yueyoum/django-social-login/issues{/number}",
    "keys_url": "https://api.github.com/repos/yueyoum/django-social-login/keys{/key_id}",
    "labels_url": "https://api.github.com/repos/yueyoum/django-social-login/labels{/name}",
    "language": "Python",
    "languages_url": "https://api.github.com/repos/yueyoum/django-social-login/languages",
    "merges_url": "https://api.github.com/repos/yueyoum/django-social-login/merges",
    "milestones_url": "https://api.github.com/repos/yueyoum/django-social-login/milestones{/number}",
    "mirror_url": null,
    "name": "django-social-login",
    "notifications_url": "https://api.github.com/repos/yueyoum/django-social-login/notifications{?since,all,participating}",
    "open_issues": 2,
    "open_issues_count": 2,
    "owner": {
        "avatar_url": "https://avatars.githubusercontent.com/u/2081686?",
        "events_url": "https://api.github.com/users/yueyoum/events{/privacy}",
        "followers_url": "https://api.github.com/users/yueyoum/followers",
        "following_url": "https://api.github.com/users/yueyoum/following{/other_user}",
        "gists_url": "https://api.github.com/users/yueyoum/gists{/gist_id}",
        "gravatar_id": "deabf064baf56e064e1d71fabb49b676",
        "html_url": "https://github.com/yueyoum",
        "id": 2081686,
        "login": "yueyoum",
        "organizations_url": "https://api.github.com/users/yueyoum/orgs",
        "received_events_url": "https://api.github.com/users/yueyoum/received_events",
        "repos_url": "https://api.github.com/users/yueyoum/repos",
        "site_admin": false,
        "starred_url": "https://api.github.com/users/yueyoum/starred{/owner}{/repo}",
        "subscriptions_url": "https://api.github.com/users/yueyoum/subscriptions",
        "type": "User",
        "url": "https://api.github.com/users/yueyoum"
    },
    "private": false,
    "pulls_url": "https://api.github.com/repos/yueyoum/django-social-login/pulls{/number}",
    "pushed_at": "2013-04-06T13:26:02Z",
    "releases_url": "https://api.github.com/repos/yueyoum/django-social-login/releases{/id}",
    "score": 1.0,
    "size": 271,
    "ssh_url": "git@github.com:yueyoum/django-social-login.git",
    "stargazers_count": 65,
    "stargazers_url": "https://api.github.com/repos/yueyoum/django-social-login/stargazers",
    "statuses_url": "https://api.github.com/repos/yueyoum/django-social-login/statuses/{sha}",
    "subscribers_url": "https://api.github.com/repos/yueyoum/django-social-login/subscribers",
    "subscription_url": "https://api.github.com/repos/yueyoum/django-social-login/subscription",
    "svn_url": "https://github.com/yueyoum/django-social-login",
    "tags_url": "https://api.github.com/repos/yueyoum/django-social-login/tags",
    "teams_url": "https://api.github.com/repos/yueyoum/django-social-login/teams",
    "trees_url": "https://api.github.com/repos/yueyoum/django-social-login/git/trees{/sha}",
    "updated_at": "2014-01-10T07:48:04Z",
    "url": "https://api.github.com/repos/yueyoum/django-social-login",
    "watchers": 65,
    "watchers_count": 65
}