{
    "libs": [
        "third_party",
        "daemon",
        "socket",
        "SocketServer",
        "core",
        "optparse",
        "sys",
        "threading",
        "gevent",
        "pylru",
        "py2exe",
        "os",
        "struct"
    ]
}