{
    "archive_url": "https://api.github.com/repos/eliben/pycparser/{archive_format}{/ref}",
    "assignees_url": "https://api.github.com/repos/eliben/pycparser/assignees{/user}",
    "blobs_url": "https://api.github.com/repos/eliben/pycparser/git/blobs{/sha}",
    "branches_url": "https://api.github.com/repos/eliben/pycparser/branches{/branch}",
    "clone_url": "https://github.com/eliben/pycparser.git",
    "collaborators_url": "https://api.github.com/repos/eliben/pycparser/collaborators{/collaborator}",
    "comments_url": "https://api.github.com/repos/eliben/pycparser/comments{/number}",
    "commits_url": "https://api.github.com/repos/eliben/pycparser/commits{/sha}",
    "compare_url": "https://api.github.com/repos/eliben/pycparser/compare/{base}...{head}",
    "contents_url": "https://api.github.com/repos/eliben/pycparser/contents/{+path}",
    "contributors_url": "https://api.github.com/repos/eliben/pycparser/contributors",
    "created_at": "2013-06-09T22:01:56Z",
    "default_branch": "master",
    "description": "Complete C99 parser in pure Python",
    "downloads_url": "https://api.github.com/repos/eliben/pycparser/downloads",
    "events_url": "https://api.github.com/repos/eliben/pycparser/events",
    "fork": false,
    "forks": 37,
    "forks_count": 37,
    "forks_url": "https://api.github.com/repos/eliben/pycparser/forks",
    "full_name": "eliben/pycparser",
    "git_commits_url": "https://api.github.com/repos/eliben/pycparser/git/commits{/sha}",
    "git_refs_url": "https://api.github.com/repos/eliben/pycparser/git/refs{/sha}",
    "git_tags_url": "https://api.github.com/repos/eliben/pycparser/git/tags{/sha}",
    "git_url": "git://github.com/eliben/pycparser.git",
    "has_downloads": true,
    "has_issues": true,
    "has_wiki": true,
    "homepage": null,
    "hooks_url": "https://api.github.com/repos/eliben/pycparser/hooks",
    "html_url": "https://github.com/eliben/pycparser",
    "id": 10589864,
    "issue_comment_url": "https://api.github.com/repos/eliben/pycparser/issues/comments/{number}",
    "issue_events_url": "https://api.github.com/repos/eliben/pycparser/issues/events{/number}",
    "issues_url": "https://api.github.com/repos/eliben/pycparser/issues{/number}",
    "keys_url": "https://api.github.com/repos/eliben/pycparser/keys{/key_id}",
    "labels_url": "https://api.github.com/repos/eliben/pycparser/labels{/name}",
    "language": "Python",
    "languages_url": "https://api.github.com/repos/eliben/pycparser/languages",
    "merges_url": "https://api.github.com/repos/eliben/pycparser/merges",
    "milestones_url": "https://api.github.com/repos/eliben/pycparser/milestones{/number}",
    "mirror_url": null,
    "name": "pycparser",
    "notifications_url": "https://api.github.com/repos/eliben/pycparser/notifications{?since,all,participating}",
    "open_issues": 1,
    "open_issues_count": 1,
    "owner": {
        "avatar_url": "https://avatars.githubusercontent.com/u/1130906?",
        "events_url": "https://api.github.com/users/eliben/events{/privacy}",
        "followers_url": "https://api.github.com/users/eliben/followers",
        "following_url": "https://api.github.com/users/eliben/following{/other_user}",
        "gists_url": "https://api.github.com/users/eliben/gists{/gist_id}",
        "gravatar_id": "fc761ccaf6c0d7d977e2959f9bfebd06",
        "html_url": "https://github.com/eliben",
        "id": 1130906,
        "login": "eliben",
        "organizations_url": "https://api.github.com/users/eliben/orgs",
        "received_events_url": "https://api.github.com/users/eliben/received_events",
        "repos_url": "https://api.github.com/users/eliben/repos",
        "site_admin": false,
        "starred_url": "https://api.github.com/users/eliben/starred{/owner}{/repo}",
        "subscriptions_url": "https://api.github.com/users/eliben/subscriptions",
        "type": "User",
        "url": "https://api.github.com/users/eliben"
    },
    "private": false,
    "pulls_url": "https://api.github.com/repos/eliben/pycparser/pulls{/number}",
    "pushed_at": "2014-04-24T00:00:56Z",
    "releases_url": "https://api.github.com/repos/eliben/pycparser/releases{/id}",
    "score": 1.0,
    "size": 1069,
    "ssh_url": "git@github.com:eliben/pycparser.git",
    "stargazers_count": 167,
    "stargazers_url": "https://api.github.com/repos/eliben/pycparser/stargazers",
    "statuses_url": "https://api.github.com/repos/eliben/pycparser/statuses/{sha}",
    "subscribers_url": "https://api.github.com/repos/eliben/pycparser/subscribers",
    "subscription_url": "https://api.github.com/repos/eliben/pycparser/subscription",
    "svn_url": "https://github.com/eliben/pycparser",
    "tags_url": "https://api.github.com/repos/eliben/pycparser/tags",
    "teams_url": "https://api.github.com/repos/eliben/pycparser/teams",
    "trees_url": "https://api.github.com/repos/eliben/pycparser/git/trees{/sha}",
    "updated_at": "2014-05-07T01:07:21Z",
    "url": "https://api.github.com/repos/eliben/pycparser",
    "watchers": 167,
    "watchers_count": 167
}