{
    "libs": [
        "heapq",
        "reactor",
        "curses",
        "locale",
        "unittest",
        "random",
        "tty",
        "subprocess",
        "canv",
        "atexit",
        "pty",
        "operator",
        "serial",
        "select",
        "ioloop",
        "manhole_ssh",
        "struct",
        "service",
        "platform",
        "errno",
        "twisted",
        "re",
        "time",
        "abstract",
        "math",
        "fcntl",
        "functools",
        "repository",
        "warnings",
        "tornado",
        "glob",
        "inspect",
        "internet",
        "termios",
        "insults",
        "sys",
        "portal",
        "codecs",
        "interface",
        "copy",
        "socket",
        "signal",
        "traceback",
        "interfaces",
        "weakref",
        "itertools",
        "doctest",
        "components",
        "error",
        "_curses",
        "os"
    ]
}