[
    "tests.test_vterm",
    "docs.tutorial.sig",
    "docs.manual",
    "wmod",
    "tutorial.input",
    "cmenu",
    "test_container",
    "examples.palette_test",
    "test_util",
    "examples.treesample",
    "font",
    "urwid.util",
    "tests.test_graphics",
    "wcur1",
    "wcur2",
    "wanat",
    "urwid.tests.test_decoration",
    "docs.tutorial.highcolors",
    "graph",
    "highcolors",
    "urwid.wimp",
    "urwid.lcd_display",
    "terminal",
    "input",
    "urwid.treetools",
    "examples.bigtext",
    "urwid.decoration",
    "urwid.tests.test_listbox",
    "tutorial.qa",
    "bin",
    "tests",
    "examples.fib",
    "docs.examples.real_browse",
    "docs",
    "docs.manual.wmod",
    "urwid.main_loop",
    "tutorial.sig",
    "util",
    "examples.tour",
    "tests.test_doctests",
    "tutorial.multiple",
    "manual.wanat",
    "docs.conf",
    "tutorial.highcolors",
    "examples.real_browse",
    "docs.manual.wcur2",
    "edit",
    "input_test",
    "manual",
    "examples.graph",
    "qa",
    "test_event_loops",
    "urwid.tests.test_vterm",
    "docs.examples.real_edit",
    "docs.tutorial.input",
    "docs.tutorial.qa",
    "docs.examples.subproc",
    "tutorial.cmenu",
    "docs.examples.browse",
    "lcd_display",
    "urwid.html_fragment",
    "real_edit",
    "main_loop",
    "subproc2",
    "examples",
    "escape",
    "listbox",
    "tutorial.minimal",
    "tutorial",
    "manual.bright_combinations",
    "compat",
    "canvas",
    "container",
    "manual.safe_combinations",
    "docs.examples.graph",
    "command_map",
    "examples.edit",
    "docs.manual.safe_combinations",
    "version",
    "treesample",
    "urwid.raw_display",
    "docs.examples.tour",
    "test_vterm",
    "manual.wmod",
    "tests.test_widget",
    "subproc",
    "minimal",
    "docs.tutorial.multiple",
    "urwid.graphics",
    "examples.input_test",
    "docs.manual.wsel",
    "html_fragment",
    "widget",
    "urwid.container",
    "manual.wsel",
    "tests.test_container",
    "docs.examples.palette_test",
    "tests.test_event_loops",
    "urwid.tests.test_event_loops",
    "examples.twisted_serve_ssh",
    "examples.subproc",
    "tutorial.attr",
    "tests.test_text_layout",
    "examples.real_edit",
    "examples.lcd_cf635",
    "tutorial.hmenu",
    "test_widget",
    "urwid.old_str_util",
    "curses_display",
    "tour",
    "dialog",
    "urwid.monitored_list",
    "examples.subproc2",
    "vterm",
    "urwid.vterm",
    "palette_test",
    "old_str_util",
    "docs.examples",
    "urwid",
    "urwid.tests.test_util",
    "urwid.tests.test_str_util",
    "docs.examples.pop_up",
    "urwid.signals",
    "docs.examples.subproc2",
    "examples.pop_up",
    "signals",
    "twisted_serve_ssh",
    "urwid.display_common",
    "urwid.font",
    "urwid.widget",
    "browse",
    "docs.manual.wanat_multi",
    "wimp",
    "docs.tutorial.attr",
    "bigtext",
    "wsel",
    "docs.tutorial.smenu",
    "urwid.split_repr",
    "real_browse",
    "calc",
    "smenu",
    "urwid.tests.test_doctests",
    "docs.examples.bigtext",
    "urwid.tests.test_graphics",
    "tests.test_str_util",
    "monitored_list",
    "safe_combinations",
    "urwid.text_layout",
    "graphics",
    "docs.manual.bright_combinations",
    "docs.tutorial",
    "attr",
    "docs.tutorial.cmenu",
    "tests.test_util",
    "urwid.tests.test_canvas",
    "docs.tutorial.minimal",
    "tests.test_canvas",
    "deps",
    "test_graphics",
    "test_decoration",
    "tests.test_decoration",
    "test_text_layout",
    "wanat_multi",
    "test_listbox",
    "display_common",
    "urwid.tests",
    "urwid.tests.test_widget",
    "urwid.tests.test_container",
    "decoration",
    "urwid.command_map",
    "urwid.escape",
    "conf",
    "manual.wcur1",
    "manual.wcur2",
    "urwid.version",
    "pop_up",
    "raw_display",
    "tests.util",
    "lcd_cf635",
    "treetools",
    "urwid.tests.test_text_layout",
    "bin.deps",
    "test_doctests",
    "tutorial.smenu",
    "web_display",
    "sig",
    "fib",
    "docs.manual.wcur1",
    "examples.dialog",
    "test_str_util",
    "urwid.listbox",
    "urwid.compat",
    "multiple",
    "text_layout",
    "manual.wanat_multi",
    "tutorial.adventure",
    "urwid.tests.util",
    "urwid.curses_display",
    "docs.tutorial.hmenu",
    "docs.examples.edit",
    "adventure",
    "urwid.web_display",
    "test_canvas",
    "examples.browse",
    "docs.tutorial.adventure",
    "urwid.canvas",
    "tests.test_listbox",
    "examples.terminal",
    "split_repr",
    "docs.manual.wanat",
    "hmenu",
    "examples.calc",
    "bright_combinations"
]