{
    "archive_url": "https://api.github.com/repos/RuudBurger/CouchPotatoV1/{archive_format}{/ref}",
    "assignees_url": "https://api.github.com/repos/RuudBurger/CouchPotatoV1/assignees{/user}",
    "blobs_url": "https://api.github.com/repos/RuudBurger/CouchPotatoV1/git/blobs{/sha}",
    "branches_url": "https://api.github.com/repos/RuudBurger/CouchPotatoV1/branches{/branch}",
    "clone_url": "https://github.com/RuudBurger/CouchPotatoV1.git",
    "collaborators_url": "https://api.github.com/repos/RuudBurger/CouchPotatoV1/collaborators{/collaborator}",
    "comments_url": "https://api.github.com/repos/RuudBurger/CouchPotatoV1/comments{/number}",
    "commits_url": "https://api.github.com/repos/RuudBurger/CouchPotatoV1/commits{/sha}",
    "compare_url": "https://api.github.com/repos/RuudBurger/CouchPotatoV1/compare/{base}...{head}",
    "contents_url": "https://api.github.com/repos/RuudBurger/CouchPotatoV1/contents/{+path}",
    "contributors_url": "https://api.github.com/repos/RuudBurger/CouchPotatoV1/contributors",
    "created_at": "2010-06-15T21:27:32Z",
    "default_branch": "master",
    "description": "This is the old version, please use https://github.com/RuudBurger/CouchPotatoServer",
    "downloads_url": "https://api.github.com/repos/RuudBurger/CouchPotatoV1/downloads",
    "events_url": "https://api.github.com/repos/RuudBurger/CouchPotatoV1/events",
    "fork": false,
    "forks": 214,
    "forks_count": 214,
    "forks_url": "https://api.github.com/repos/RuudBurger/CouchPotatoV1/forks",
    "full_name": "RuudBurger/CouchPotatoV1",
    "git_commits_url": "https://api.github.com/repos/RuudBurger/CouchPotatoV1/git/commits{/sha}",
    "git_refs_url": "https://api.github.com/repos/RuudBurger/CouchPotatoV1/git/refs{/sha}",
    "git_tags_url": "https://api.github.com/repos/RuudBurger/CouchPotatoV1/git/tags{/sha}",
    "git_url": "git://github.com/RuudBurger/CouchPotatoV1.git",
    "has_downloads": true,
    "has_issues": false,
    "has_wiki": false,
    "homepage": "couchpota.to",
    "hooks_url": "https://api.github.com/repos/RuudBurger/CouchPotatoV1/hooks",
    "html_url": "https://github.com/RuudBurger/CouchPotatoV1",
    "id": 722962,
    "issue_comment_url": "https://api.github.com/repos/RuudBurger/CouchPotatoV1/issues/comments/{number}",
    "issue_events_url": "https://api.github.com/repos/RuudBurger/CouchPotatoV1/issues/events{/number}",
    "issues_url": "https://api.github.com/repos/RuudBurger/CouchPotatoV1/issues{/number}",
    "keys_url": "https://api.github.com/repos/RuudBurger/CouchPotatoV1/keys{/key_id}",
    "labels_url": "https://api.github.com/repos/RuudBurger/CouchPotatoV1/labels{/name}",
    "language": "Python",
    "languages_url": "https://api.github.com/repos/RuudBurger/CouchPotatoV1/languages",
    "merges_url": "https://api.github.com/repos/RuudBurger/CouchPotatoV1/merges",
    "milestones_url": "https://api.github.com/repos/RuudBurger/CouchPotatoV1/milestones{/number}",
    "mirror_url": null,
    "name": "CouchPotatoV1",
    "notifications_url": "https://api.github.com/repos/RuudBurger/CouchPotatoV1/notifications{?since,all,participating}",
    "open_issues": 5,
    "open_issues_count": 5,
    "owner": {
        "avatar_url": "https://avatars.githubusercontent.com/u/38136?",
        "events_url": "https://api.github.com/users/RuudBurger/events{/privacy}",
        "followers_url": "https://api.github.com/users/RuudBurger/followers",
        "following_url": "https://api.github.com/users/RuudBurger/following{/other_user}",
        "gists_url": "https://api.github.com/users/RuudBurger/gists{/gist_id}",
        "gravatar_id": "dc8b8cb353e7cb91b79ae16d0e3737ab",
        "html_url": "https://github.com/RuudBurger",
        "id": 38136,
        "login": "RuudBurger",
        "organizations_url": "https://api.github.com/users/RuudBurger/orgs",
        "received_events_url": "https://api.github.com/users/RuudBurger/received_events",
        "repos_url": "https://api.github.com/users/RuudBurger/repos",
        "site_admin": false,
        "starred_url": "https://api.github.com/users/RuudBurger/starred{/owner}{/repo}",
        "subscriptions_url": "https://api.github.com/users/RuudBurger/subscriptions",
        "type": "User",
        "url": "https://api.github.com/users/RuudBurger"
    },
    "private": false,
    "pulls_url": "https://api.github.com/repos/RuudBurger/CouchPotatoV1/pulls{/number}",
    "pushed_at": "2012-10-26T13:25:40Z",
    "releases_url": "https://api.github.com/repos/RuudBurger/CouchPotatoV1/releases{/id}",
    "score": 1.0,
    "size": 8442,
    "ssh_url": "git@github.com:RuudBurger/CouchPotatoV1.git",
    "stargazers_count": 1057,
    "stargazers_url": "https://api.github.com/repos/RuudBurger/CouchPotatoV1/stargazers",
    "statuses_url": "https://api.github.com/repos/RuudBurger/CouchPotatoV1/statuses/{sha}",
    "subscribers_url": "https://api.github.com/repos/RuudBurger/CouchPotatoV1/subscribers",
    "subscription_url": "https://api.github.com/repos/RuudBurger/CouchPotatoV1/subscription",
    "svn_url": "https://github.com/RuudBurger/CouchPotatoV1",
    "tags_url": "https://api.github.com/repos/RuudBurger/CouchPotatoV1/tags",
    "teams_url": "https://api.github.com/repos/RuudBurger/CouchPotatoV1/teams",
    "trees_url": "https://api.github.com/repos/RuudBurger/CouchPotatoV1/git/trees{/sha}",
    "updated_at": "2014-04-30T17:11:32Z",
    "url": "https://api.github.com/repos/RuudBurger/CouchPotatoV1",
    "watchers": 1057,
    "watchers_count": 1057
}