[
    "hachoir_core.field.seekable_field_set",
    "mako.ext.autohandler",
    "provider.subtitle.sources",
    "sqlalchemy.engine.reflection",
    "maxdb.base",
    "dynamic",
    "lib.cron.imdbwatchlist",
    "cherrypy._cpmodpy",
    "sqlalchemy.ext.sqlsoup",
    "hachoir_metadata.timezone",
    "sources.opensubtitles",
    "http.utils",
    "types",
    "library.mako.util",
    "sqlalchemy.orm.session",
    "tz",
    "getmeta",
    "hachoir_metadata.riff",
    "imdb.locale",
    "searchPersonParser",
    "library.sqlalchemy.dialects.sqlite",
    "hachoir_core.field.link",
    "controllers.config",
    "generatepot",
    "hachoir_parser.video.asf",
    "wmf",
    "mako.parsetree",
    "lib.provider.rss",
    "parser.http.bsouplxml._bsoup",
    "library.hachoir_parser.archive.rpm",
    "library.hachoir_parser.image.bmp",
    "git.branch",
    "hachoir_metadata.metadata",
    "fat",
    "util",
    "library.dateutil.parser",
    "updater",
    "real_audio",
    "game.zsnes",
    "app.lib.provider.yarr.sources.x264",
    "mako.lookup",
    "library.hachoir_parser.archive.sevenzip",
    "sqlalchemy.dialects.informix",
    "vector",
    "app.lib.provider.yarr.sources",
    "sqlalchemy.sql.operators",
    "library.routes",
    "dialects.access",
    "cherrypy.lib.covercp",
    "hachoir_core.field.byte_field",
    "library.hachoir_parser.image.tiff",
    "common.msdos",
    "sqlalchemy.schema",
    "parser.http.companyParser",
    "sqlalchemy.dialects.sybase.base",
    "dialects.sybase",
    "dialects.mssql.pymssql",
    "dialects.mysql.mysqlconnector",
    "sync",
    "library.mako.ext.babelplugin",
    "pynma",
    "plugins",
    "library.hachoir_parser.misc.pifv",
    "pyodbc",
    "prowl",
    "hachoir_core.field.vector",
    "library.sqlalchemy.dialects.sybase",
    "library.sqlalchemy.sql.functions",
    "lib.cron.movierss",
    "library.git.files",
    "cherrypy",
    "library.sqlalchemy.orm.identity",
    "movieParser",
    "library.hachoir_parser.archive.gzip_parser",
    "subtitle.sources.opensubtitles",
    "library.hachoir_metadata.audio",
    "mssql.base",
    "newzbin",
    "nmwp",
    "cron.movierss",
    "imdb.parser.sql.dbschema",
    "theMovieDb",
    "lib.nzbget",
    "container.ogg",
    "library.git.commit",
    "metadata",
    "library.sqlalchemy.dialects.mssql.pymssql",
    "library.sqlalchemy.dialects.postgresql.psycopg2",
    "library.hachoir_metadata.formatter",
    "library.sqlalchemy.topological",
    "subscene",
    "imdb._compat",
    "dialects.sqlite.pysqlite",
    "http.searchCharacterParser",
    "bit_field",
    "xmg",
    "sqlalchemy.engine.default",
    "library.hachoir_core.text_handler",
    "hachoir_parser.game.zsnes",
    "transmissionrpc.error",
    "hachoir_metadata.metadata_item",
    "library.pynma",
    "provider.movie",
    "http.personParser",
    "dialects.sqlite",
    "library.imdb.Person",
    "file_system.mbr",
    "imdb.parser.sql",
    "video.mov",
    "sqlalchemy.dialects.oracle",
    "sqlalchemy.dialects.informix.informixdb",
    "lib.auth",
    "hachoir_parser.video.flv",
    "field.static_field_set",
    "library.mako.ext.autohandler",
    "library.hachoir_parser.container.swf",
    "library.hachoir_parser.program.python",
    "app.lib.cron.movierss",
    "library.sqlalchemy.dialects.maxdb.sapdb",
    "sqlalchemy.engine.url",
    "sql.functions",
    "cherrypy.lib.jsontools",
    "mssql.information_schema",
    "newznab",
    "library.dateutil.easter",
    "helper",
    "imdb.parser.http.searchCompanyParser",
    "library.sqlalchemy.dialects.mysql.pyodbc",
    "cherrypy.process.servers",
    "library.sqlalchemy",
    "program",
    "lib.provider.yarr.sources.mysterbin",
    "hachoir_metadata.image",
    "postgresql.pg8000",
    "library.sqlalchemy.dialects.postgresql",
    "video.fourcc",
    "hachoir_core.field.bit_field",
    "app.lib.provider.subtitle.base",
    "mako.ext.preprocessors",
    "app.lib.qualities",
    "parser.http.searchKeywordParser",
    "dialects.mysql.zxjdbc",
    "operators",
    "file_system.ext2",
    "file_3ds",
    "Person",
    "file_3do",
    "flac",
    "config.configApp",
    "library.hachoir_parser.archive",
    "lib.provider.yarr.sources.x264",
    "provider.yarr.sources.mysterbin",
    "game.blp",
    "imdb.parser.http.companyParser",
    "library.hachoir_core.version",
    "library.hachoir_parser",
    "library.routes.mapper",
    "library.imdb.parser.http.searchMovieParser",
    "lib.boxcar",
    "exceptions",
    "strategies",
    "route",
    "library.hachoir_parser.image.psd",
    "library.sqlalchemy.sql.compiler",
    "library.sqlalchemy.dialects.oracle",
    "provider.yarr.sources.nzbmatrix",
    "threadlocal",
    "library.hachoir_parser.image.iptc",
    "library.sqlalchemy.dialects.firebird.base",
    "library.markupsafe.tests",
    "library.hachoir_parser.parser",
    "imdb.parser.http.searchMovieParser",
    "app.lib.provider.yarr.sources.tpb",
    "ouid",
    "orm.evaluator",
    "config.cplog",
    "library.hachoir_parser.archive.rar",
    "misc.word_doc",
    "library.imdb.parser.http.movieParser",
    "hachoir_parser.audio.modplug",
    "library.hachoir_parser.file_system.reiser_fs",
    "imdbwatchlist",
    "trailers.hdtrailers",
    "program.exe_pe",
    "library.mako.lexer",
    "dialects.oracle.zxjdbc",
    "kinepolisrss",
    "sqlalchemy.orm.shard",
    "cherrypy.lib.xmlrpcutil",
    "audio.mod",
    "library.sqlalchemy.dialects.mysql",
    "reprconf",
    "config",
    "pynma.pynma",
    "css",
    "sqlalchemy.dialects.mysql.mysqldb",
    "library.git.remotes",
    "adodbapi",
    "laf",
    "subtitle.base",
    "library.hachoir_core.error",
    "sqlalchemy.sql.util",
    "orm.util",
    "library.mako.ext",
    "library.imdb.parser.http.personParser",
    "dateutil.tzwin",
    "constants",
    "provider.movie.sources",
    "text_handler",
    "library.hachoir_parser.image.exif",
    "transmissionrpc.client",
    "parser.http.bsouplxml.etree",
    "library.hachoir_core.field.link",
    "register",
    "library.sqlalchemy.dialects.mysql.mysqlconnector",
    "library.sqlalchemy.orm.attributes",
    "library.hachoir_core.memory",
    "library.sqlalchemy.orm.shard",
    "hachoir_parser.audio.xm",
    "lib.provider.movie.sources.sceneReleases",
    "dialects.mssql.information_schema",
    "parser.sql",
    "hachoir_parser.file_system.linux_swap",
    "bsoupxpath",
    "library.mako.ext.turbogears",
    "library.sqlalchemy.engine.url",
    "library.hachoir_parser.audio.itunesdb",
    "jpeg",
    "field.link",
    "library.hachoir_metadata.register",
    "sqlalchemy.sql.functions",
    "filters",
    "hachoir_parser.program.elf",
    "app.lib.provider.yarr.base",
    "topBottomParser",
    "http.bsouplxml._bsoup",
    "provider.movie.search",
    "library.hachoir_core.stream.input_helper",
    "library.imdb.parser.http.utils",
    "cherrypy._cpwsgi",
    "library.sqlalchemy.engine",
    "library.hachoir_parser.audio.xm",
    "sources.nzbmatrix",
    "library.hachoir_core.field.string_field",
    "hachoir_parser.misc.hlp",
    "hachoir_metadata.video",
    "library.imdb.parser.http.bsouplxml",
    "library.hachoir_core.field.padding",
    "ref_container",
    "library.hachoir_metadata.file_system",
    "library.hachoir_parser.archive.tar",
    "library.pynmwp.pynmwp",
    "library.hachoir_parser.network",
    "git.config",
    "hachoir_parser.audio",
    "timestamp",
    "safe",
    "misc.pifv",
    "library.dateutil.tzwin",
    "fourcc",
    "pifv",
    "provider.movie.sources.imdbWrapper",
    "autohandler",
    "library.hachoir_metadata.config",
    "image.exif",
    "sqlalchemy.dialects.postgresql.zxjdbc",
    "library.pynma.pynma",
    "relativedelta",
    "archive.gzip_parser",
    "library.sqlalchemy.ext.sqlsoup",
    "program.exe_ne",
    "program.elf",
    "timeout",
    "provider.trailers.hdtrailers",
    "cherrypy.lib.httputil",
    "trailer",
    "sqlalchemy.orm.collections",
    "sqlalchemy.orm.strategies",
    "lib.provider.yarr",
    "library.hachoir_core.i18n",
    "markupsafe._native",
    "provider.yarr.sources.nzbs",
    "msoffice",
    "imdb.Character",
    "cherrypy.process.win32",
    "library.getmeta",
    "field_set",
    "scoping",
    "app.config",
    "library.httplib2",
    "network",
    "library.hachoir_parser.image.common",
    "hachoir_metadata.program",
    "dialects",
    "zxJDBC",
    "hachoir_parser.misc.torrent",
    "library.imdb.Movie",
    "audio.mpeg_audio",
    "parser.http.topBottomParser",
    "alchemyadapter",
    "field.field_set",
    "library.hachoir_parser.misc.msoffice",
    "hachoir_metadata",
    "ast",
    "hachoir_parser.image.tiff",
    "app.lib.library",
    "base",
    "asf",
    "objectadapter",
    "sqlalchemy.dialects.sqlite.base",
    "field.helper",
    "library.mako.template",
    "sub_file",
    "_cpreqbody",
    "oracle.base",
    "orm.dependency",
    "library.hachoir_parser.image.ico",
    "cherrypy.lib.auth_basic",
    "lib.provider.yarr.sources.nzbsrus",
    "program.exe_res",
    "library.mako.runtime",
    "sources.newzbin",
    "library.sqlalchemy.dialects.informix.base",
    "hachoir_parser.misc.bplist",
    "library.imdb.parser.http.bsouplxml.html",
    "feed",
    "notifo",
    "_cpwsgi_server",
    "render",
    "encoding",
    "hachoir_core.field.field",
    "library.hachoir_parser.misc.file_3ds",
    "sqlalchemy.dialects.firebird",
    "misc",
    "library.sqlalchemy.engine.reflection",
    "library.hachoir_parser.misc.file_3do",
    "hachoir_core.timeout",
    "hachoir_core.field.string_field",
    "lib.cpstats",
    "bsouplxml._bsoup",
    "yarr.sources.tpb",
    "container.realmedia",
    "guess",
    "game.laf",
    "sql.objectadapter",
    "library.imdb.parser.http.companyParser",
    "msoffice_summary",
    "hachoir_core.field.helper",
    "git.ref_container",
    "parser.http.searchPersonParser",
    "hachoir_core.text_handler",
    "library.sqlalchemy.dialects.mssql.adodbapi",
    "provider.movie.sources.sceneSource",
    "_cpdispatch",
    "_cptree",
    "provider.yarr",
    "library.hachoir_parser.container.riff",
    "hachoir_parser.game.spider_man_video",
    "_cpconfig",
    "library.hachoir_parser.file_system.fat",
    "app.lib.provider.yarr.sources.mysterbin",
    "hachoir_parser.misc.msoffice",
    "sql.compiler",
    "app.controllers",
    "engine.base",
    "_native",
    "bsouplxml.etree",
    "process.wspbus",
    "imdb.parser.http.searchPersonParser",
    "parser_list",
    "mssql.pyodbc",
    "git.utils",
    "mako.runtime",
    "sql.operators",
    "hachoir_metadata.misc",
    "library.hachoir_core.timeout",
    "library.imdb.parser.http.bsouplxml.bsoupxpath",
    "library.hachoir_core.stream",
    "parser.http.personParser",
    "httpauth",
    "bsouplxml.bsoupxpath",
    "Movie",
    "lib.provider",
    "library.transmissionrpc.session",
    "library.sqlalchemy.orm",
    "_cpthreadinglocal",
    "hachoir_parser.misc.common",
    "dialects.access.base",
    "rar",
    "sqlalchemy.connectors.mxodbc",
    "hachoir_parser.archive",
    "lib.static",
    "_cprequest",
    "httputil",
    "app.lib.synoindex",
    "transmissionrpc.constants",
    "http.bsouplxml.html",
    "lib",
    "library.routes.lru",
    "hachoir_core.config",
    "lib.jsontools",
    "field.string_field",
    "library.imdb.parser.sql",
    "audio.aiff",
    "fake_array",
    "misc.chm",
    "hachoir_parser.archive.bzip2_parser",
    "library.sqlalchemy.orm.dynamic",
    "hachoir_core.language",
    "orm.mapper",
    "library.hachoir_parser.misc.ttf",
    "image.gif",
    "boxcar",
    "image.photoshop_metadata",
    "connectors.pyodbc",
    "library.imdb.locale",
    "hachoir_core.field.new_seekable_field_set",
    "exe",
    "misc.file_3do",
    "tpb",
    "misc.gnome_keyring",
    "horizontal_shard",
    "library.sqlalchemy.dialects.mysql.zxjdbc",
    "lib.xmlrpcutil",
    "sqlalchemy.orm.state",
    "sqlalchemy.dialects.postgresql.psycopg2",
    "ext",
    "library.hachoir_core.field.fake_array",
    "stream.output",
    "caching",
    "app.lib.nmwp",
    "hachoir_core.stream.input_helper",
    "hachoir_metadata.audio",
    "httphandler",
    "lib.provider.movie.base",
    "cherrypy.process",
    "sqlalchemy.orm.query",
    "stream.input_helper",
    "cherrypy.lib.encoding",
    "session",
    "library.sqlalchemy.ext.orderinglist",
    "x264",
    "hachoir_core.error",
    "library.imdb.parser.sql.alchemyadapter",
    "app.lib.provider.movie.sources",
    "hachoir_core.field.float",
    "misc.msoffice_summary",
    "cherrypy.lib.profiler",
    "hachoir_parser.guess",
    "archive.mar",
    "topological",
    "library.sqlalchemy.interfaces",
    "version",
    "library.imdb",
    "git.files",
    "lib.synoindex",
    "dialects.mssql.pyodbc",
    "image.common",
    "ssl_builtin",
    "cron.base",
    "mako.ext.babelplugin",
    "cron.traktwatchlist",
    "parser.http.searchCompanyParser",
    "app.lib.provider.yarr.search",
    "library.markupsafe._constants",
    "db",
    "library.mako._ast_util",
    "app.lib.imdbwl",
    "nzbget",
    "field.byte_field",
    "pysybase",
    "lib.provider.yarr.sources.nzbmatrix",
    "library.hachoir_metadata.archive",
    "controllers.manage",
    "app.lib.trakt",
    "postgresql.base",
    "ext.associationproxy",
    "compiler",
    "dialects.mysql.mysqldb",
    "_exceptions",
    "provider.movie.sources.sceneReleases",
    "video.mpeg_ts",
    "library.transmissionrpc.utils",
    "mako.util",
    "library.hachoir_core.field.field_set",
    "common",
    "dateutil.easter",
    "oursql",
    "mysql.pyodbc",
    "provider.yarr.sources.x264",
    "imdbwl",
    "common.win32",
    "http.characterParser",
    "library.sqlalchemy.dialects.postgresql.pg8000",
    "locale",
    "program.exe",
    "cherrypy._cperror",
    "library.hachoir_parser.program.exe",
    "audio.modplug",
    "field.generic_field_set",
    "wsgiserver.ssl_pyopenssl",
    "informix.base",
    "library.sqlalchemy.pool",
    "dateutil",
    "dialects.mssql",
    "cherrypy.lib.reprconf",
    "movie",
    "lib.provider.movie.sources",
    "library.hachoir_parser.audio.mod",
    "process.plugins",
    "hachoir_parser.archive.rar",
    "provider.trailers",
    "cherrypy._cpthreadinglocal",
    "formatter",
    "imdb.Movie",
    "imdb.locale.rebuildmo",
    "sqlalchemy.orm",
    "hachoir_parser.common.tracker",
    "parser.sql.objectadapter",
    "interfaces",
    "sqlalchemy.log",
    "library.imdb._compat",
    "library.sqlalchemy.util",
    "library.sqlalchemy.dialects.mssql.pyodbc",
    "parser.http.movieParser",
    "searchMovieParser",
    "pymssql",
    "library.hachoir_parser.audio.aiff",
    "orm.identity",
    "hachoir_parser.video",
    "app.lib.nzbget",
    "ext.pygmentplugin",
    "app.controllers.manage",
    "image.wmf",
    "field.float",
    "provider.yarr.sources.newzbin",
    "hachoir_parser.image.photoshop_metadata",
    "archive.rpm",
    "hachoir_metadata.file_system",
    "pdf",
    "informix.informixdb",
    "sqlalchemy.sql",
    "file_system.reiser_fs",
    "hachoir_parser.game.blp",
    "hachoir_metadata.archive",
    "cherrypy._cpwsgi_server",
    "library.sqlalchemy.dialects.maxdb.base",
    "character",
    "_cpserver",
    "misc.ttf",
    "library.mako.pyparser",
    "provider.subtitle.base",
    "_cpwsgi",
    "library.hachoir_parser.file_system.linux_swap",
    "library.sqlalchemy.orm.properties",
    "lib.provider.yarr.sources",
    "image.tiff",
    "library.hachoir_parser.container.ogg",
    "library.hachoir_parser.audio.mpeg_audio",
    "hachoir_core",
    "lib.nmwp",
    "java",
    "http.bsouplxml.etree",
    "library.hachoir_parser.common.msdos",
    "markupsafe.tests",
    "swf",
    "library.hachoir_parser.image.pcx",
    "hachoir_parser.archive.cab",
    "dialects.postgresql.zxjdbc",
    "audio.flac",
    "hachoir_parser.image.png",
    "cron.renamer",
    "sqlalchemy.dialects.postgresql.pg8000",
    "video.amf",
    "yarr.sources.newznab",
    "library.imdb.Character",
    "library.sqlalchemy.sql.util",
    "_cpcompat",
    "event_handler",
    "search",
    "app.lib.cron.trailer",
    "hachoir_parser.misc.pifv",
    "hachoir_parser.audio.id3",
    "lib.provider.subtitle",
    "hachoir_parser.program.exe",
    "hachoir_parser.audio.s3m",
    "image.iptc",
    "sqlalchemy.dialects.mssql.mxodbc",
    "pyparser",
    "library.transmissionrpc.torrent",
    "movie.sources.theMovieDb",
    "sqlalchemy.dialects.access",
    "sources.sceneReleases",
    "yarr.sources.nzbs",
    "connectors",
    "imdb.articles",
    "config.routes",
    "sqlalchemy.orm.properties",
    "library.transmissionrpc.constants",
    "error",
    "hachoir_core.field.enum",
    "cherrypy._cplogging",
    "library.hachoir_core.field.seekable_field_set",
    "lib.cron.eta",
    "sqlalchemy.orm.dynamic",
    "sqlalchemy.ext.declarative",
    "library.hachoir_parser.program.exe_ne",
    "hachoir_core.memory",
    "dateutil.tz",
    "library.git.exceptions",
    "cherrypy._cpnative_server",
    "parser.http.searchMovieParser",
    "audio.midi",
    "mako",
    "library.hachoir_parser.misc.lnk",
    "growl",
    "imdb.Person",
    "library.sqlalchemy.engine.default",
    "app.lib.provider.movie.sources.imdbWrapper",
    "sqlalchemy.dialects.postgresql.base",
    "library.imdb.parser.http",
    "library.sqlalchemy.ext.horizontal_shard",
    "library.xmg.xmg",
    "sources.nzbs",
    "parsetree",
    "library.hachoir_core.field.byte_field",
    "library.hachoir_parser.archive.bzip2_parser",
    "linux_swap",
    "lib.cptools",
    "hachoir_parser.version",
    "config.db",
    "app.lib.provider.movie.sources.sceneReleases",
    "yarr.base",
    "library.imdb.parser",
    "psd",
    "hachoir_core.event_handler",
    "dialects.mysql.oursql",
    "controllers.cron",
    "mssql.adodbapi",
    "hachoir_parser.file_system.fat",
    "sqlalchemy.ext.serializer",
    "hachoir_parser.video.mov",
    "provider.yarr.base",
    "searchKeywordParser",
    "library.sqlalchemy.dialects.sqlite.pysqlite",
    "sources.imdbWrapper",
    "library.sqlalchemy.orm.interfaces",
    "markupsafe._constants",
    "client",
    "field.character",
    "library.minify",
    "qualities",
    "sources.mysterbin",
    "library.imdb.parser.http.topBottomParser",
    "app.config.cplog",
    "mysqldb",
    "library.hachoir_parser.version",
    "field.fake_array",
    "minify.js",
    "library.hachoir_core.profiler",
    "library.hachoir_metadata.metadata",
    "sqlalchemy.dialects.mysql.zxjdbc",
    "library.sqlalchemy.sql",
    "mysql",
    "transmissionrpc.torrent",
    "hachoir_core.field.fake_array",
    "app.lib.cron.base",
    "library.hachoir_core.field.sub_file",
    "pygmentplugin",
    "elf",
    "imdb.parser.http.bsouplxml.bsoupxpath",
    "collections",
    "locale.msgfmt",
    "sqlalchemy.engine",
    "hachoir_parser.image.xcf",
    "input",
    "easter",
    "engine.url",
    "library.hachoir_parser.common.deflate",
    "network.common",
    "searchCompanyParser",
    "sql.visitors",
    "byte_field",
    "game",
    "_cptools",
    "sqlalchemy.dialects.firebird.kinterbasdb",
    "integer",
    "parser.http.searchCharacterParser",
    "app.lib.cron.eta",
    "mako.exceptions",
    "library.imdb.parser.http.characterParser",
    "mpeg_video",
    "renamer",
    "library.hachoir_parser.archive.ace",
    "lib.provider.yarr.sources.newzbin",
    "archive.tar",
    "hachoir_parser.network.tcpdump",
    "mako.ext.turbogears",
    "library.sqlalchemy.dialects.firebird",
    "cherrypy.lib.static",
    "babelplugin",
    "hachoir_parser.archive.tar",
    "library.hachoir_parser.image.tga",
    "dialects.mysql.pyodbc",
    "generic_field_set",
    "hachoir_parser.template",
    "sqlalchemy.orm.unitofwork",
    "library.sqlalchemy.dialects.mysql.base",
    "ext.turbogears",
    "cherrypy._cpserver",
    "lib.provider.subtitle.sources.subscene",
    "library.hachoir_core.field.generic_field_set",
    "lib.encoding",
    "imdb.helpers",
    "ico",
    "git.ref",
    "library.imdb.helpers",
    "auth_digest",
    "id3",
    "lib.reprconf",
    "tracker",
    "preprocessors",
    "parser.http.bsouplxml.bsoupxpath",
    "mysql.oursql",
    "pysqlite",
    "hachoir_parser.archive.rpm",
    "_cperror",
    "orm.properties",
    "sqlalchemy.engine.ddl",
    "library.hachoir_core.language",
    "imdb.utils",
    "bzip2_parser",
    "sqlalchemy.dialects.mysql.oursql",
    "output",
    "misc.pdf",
    "ole2",
    "sqlalchemy.dialects.mssql.adodbapi",
    "mssql",
    "hachoir_parser.common.deflate",
    "postgresql",
    "hachoir_parser.file_system.reiser_fs",
    "hachoir_parser.misc.gnome_keyring",
    "wsgiserver2",
    "wsgiserver3",
    "library.sqlalchemy.engine.threadlocal",
    "sqlalchemy.engine.base",
    "image.ico",
    "commit",
    "library.hachoir_parser.video",
    "runtime",
    "mysqlconnector",
    "sqlalchemy.orm.evaluator",
    "mssql.mxodbc",
    "field.parser",
    "tiff",
    "float",
    "app.lib.provider.subtitle.sources.opensubtitles",
    "library.sqlalchemy.dialects.sybase.pyodbc",
    "servers",
    "library.hachoir_parser.audio.au",
    "app.lib",
    "sqlalchemy.dialects.mssql.pymssql",
    "dateutil.rrule",
    "library.hachoir_parser.audio",
    "sabNzbd",
    "controllers",
    "cherrypy.wsgiserver.wsgiserver3",
    "engine.default",
    "mbr",
    "git",
    "library.hachoir_core.config",
    "turbogears",
    "engine.strategies",
    "sqlalchemy.connectors.pyodbc",
    "library.transmissionrpc",
    "library.sqlalchemy.sql.visitors",
    "library.sqlalchemy.orm.util",
    "hachoir_core.compatibility",
    "gif",
    "opensubtitles",
    "app.lib.provider.movie.base",
    "mssql.pymssql",
    "parser.http.bsouplxml.html",
    "library.mako.ast",
    "tcpdump",
    "app.controllers.config",
    "files",
    "process.servers",
    "sqlalchemy",
    "image.png",
    "library.mako.codegen",
    "msgfmt",
    "memory",
    "library.hachoir_parser.image.gif",
    "hachoir_parser.program",
    "transmissionrpc",
    "link",
    "library.sqlalchemy.engine.strategies",
    "library.sqlalchemy.engine.base",
    "imdb.parser.http.topBottomParser",
    "hachoir_parser.archive.ace",
    "library.hachoir_parser.container",
    "hachoir_parser.program.exe_ne",
    "orm.collections",
    "library.sqlalchemy.connectors.zxJDBC",
    "git.remotes",
    "audio.au",
    "hachoir_parser.container.riff",
    "library.hachoir_core.event_handler",
    "url",
    "library.hachoir_parser.misc.chm",
    "pygen",
    "sybase.mxodbc",
    "library.hachoir_core.field.vector",
    "bplist",
    "library.sqlalchemy.dialects.mssql.information_schema",
    "lib.covercp",
    "audio.itunesdb",
    "sqlalchemy.dialects.firebird.base",
    "http.movieParser",
    "mssql.zxjdbc",
    "library.hachoir_parser.video.fourcc",
    "hachoir_core.i18n",
    "timezone",
    "library.sqlalchemy.connectors",
    "app.lib.provider.yarr",
    "archive",
    "library.hachoir_parser.common.win32",
    "library.imdb.parser.sql.dbschema",
    "hachoir_parser.file_system.iso9660",
    "dialects.postgresql.pg8000",
    "lib.library",
    "library.imdb.utils",
    "hachoir_parser.image.tga",
    "sqlalchemy.dialects.sqlite",
    "sybase",
    "container.asn1",
    "hachoir_parser.misc",
    "hachoir_core.cmd_line",
    "library.git.ref_container",
    "library.imdb._exceptions",
    "sql.dbschema",
    "library.hachoir_core.compatibility",
    "sqlalchemy.util",
    "cherrypy._cpreqbody",
    "dialects.maxdb.sapdb",
    "trailers",
    "misc.file_3ds",
    "unitofwork",
    "hachoir_metadata.jpeg",
    "transmissionrpc.httphandler",
    "hachoir_parser.audio.au",
    "sql",
    "library.markupsafe",
    "cron.subtitle",
    "routes.middleware",
    "sqlalchemy.dialects.maxdb",
    "cherrypy.lib.auth",
    "ntfs",
    "orm.dynamic",
    "imdb.parser.http.movieParser",
    "imdb._logging",
    "provider.subtitle.sources.subscene",
    "http.bsouplxml",
    "mako.pygen",
    "oracle",
    "cherrypy._cpchecker",
    "serializer",
    "companyParser",
    "library.mako.ext.pygmentplugin",
    "library.hachoir_metadata.riff",
    "informix",
    "ext.preprocessors",
    "app.lib.nma",
    "tzwin",
    "orm.attributes",
    "app.lib.nmj",
    "field.bit_field",
    "library.sqlalchemy.dialects.maxdb",
    "app.lib.provider.movie.sources.sceneSource",
    "cron.kinepolisrss",
    "hachoir_metadata.filter",
    "library.routes.base",
    "library.mako.lookup",
    "sql.expression",
    "misc.msoffice",
    "cmd_line",
    "sqlalchemy.processors",
    "container.riff",
    "hachoir_parser.common.win32",
    "movie.search",
    "app.lib.provider.yarr.sources.nzbsrus",
    "sqlalchemy.ext.associationproxy",
    "Character",
    "provider",
    "yarr.sources.nzbmatrix",
    "markupsafe",
    "lib.sessions",
    "lru",
    "cron.yarr",
    "exe_ne",
    "bsouplxml.html",
    "lib.imdbwl",
    "library.hachoir_parser.file_system.ext2",
    "transmission",
    "library.sqlalchemy.orm.session",
    "gnome_keyring",
    "engine",
    "repository",
    "sqlalchemy.pool",
    "image.xcf",
    "imdb.parser.http.utils",
    "app.lib.prowl",
    "hachoir_parser.audio.aiff",
    "hachoir_parser.network.ouid",
    "hachoir_parser.common.win32_lang_id",
    "library.sqlalchemy.dialects.sybase.mxodbc",
    "library.sqlalchemy.dialects.postgresql.zxjdbc",
    "yarr.sources.mysterbin",
    "movie.sources",
    "hachoir_metadata.safe",
    "wsgiserver.wsgiserver2",
    "wsgiserver.wsgiserver3",
    "firebird.kinterbasdb",
    "library.git.config",
    "video",
    "app.controllers.cron",
    "engine.ddl",
    "library.hachoir_core.field.new_seekable_field_set",
    "cron.imdbwatchlist",
    "dialects.sybase.base",
    "mako.lexer",
    "network.ouid",
    "action_script",
    "CouchPotato",
    "dialects.informix.informixdb",
    "library.sqlalchemy.orm.strategies",
    "access",
    "library.hachoir_parser.container.action_script",
    "template",
    "library.mako.exceptions",
    "http.searchKeywordParser",
    "minify.css",
    "hachoir_core.log",
    "library.sqlalchemy.dialects.firebird.kinterbasdb",
    "common.deflate",
    "hachoir_parser.container.swf",
    "cherrypy.process.wspbus",
    "pynmwp.pynmwp",
    "hachoir_core.field.basic_field_set",
    "hachoir_parser.audio.flac",
    "sqlalchemy.topological",
    "imdb.parser.http.searchCharacterParser",
    "orm.scoping",
    "lib.prowl",
    "http.companyParser",
    "app.config.render",
    "library.hachoir_metadata.program",
    "parser.sql.alchemyadapter",
    "lib.plex",
    "cherrypy.lib.sessions",
    "photoshop_metadata",
    "library.hachoir_parser.audio.real_audio",
    "provider.subtitle",
    "library.hachoir_parser.audio.s3m",
    "library.hachoir_parser.image.photoshop_metadata",
    "hachoir_parser.archive.ar",
    "library.hachoir_core.cmd_line",
    "subtitle.sources",
    "sybase.pysybase",
    "helpers",
    "hachoir_core.stream",
    "postgresql.zxjdbc",
    "app.lib.cron.imdbwatchlist",
    "imdb.locale.generatepot",
    "hachoir_parser.audio.itunesdb",
    "library.sqlalchemy.dialects.mssql.zxjdbc",
    "git.commit",
    "app",
    "manage",
    "cherrypy._cpcompat",
    "library.hachoir_core.tools",
    "library.sqlalchemy.orm.evaluator",
    "cherrypy._cprequest",
    "library.mako.ext.preprocessors",
    "sqlalchemy.ext.orderinglist",
    "library.sqlalchemy.dialects.postgresql.base",
    "hachoir_parser.audio.real_audio",
    "tools",
    "tar",
    "zip",
    "lib.trakt",
    "library.hachoir_core.dict",
    "hachoir_core.stream.stream",
    "field.enum",
    "chm",
    "properties",
    "hachoir_parser.game.laf",
    "library.sqlalchemy.dialects.oracle.base",
    "hachoir_core.stream.output",
    "dialects.oracle.cx_oracle",
    "library.dateutil.relativedelta",
    "library.hachoir_core.stream.output",
    "pg8000",
    "hachoir_parser.misc.ole2",
    "modplug",
    "library.imdb.Company",
    "sessions",
    "sources.tpb",
    "benchmark",
    "imdb.parser.http.characterParser",
    "sybase.base",
    "http.topBottomParser",
    "sqlalchemy.interfaces",
    "sqlalchemy.types",
    "lib.caching",
    "library.sqlalchemy.orm.exc",
    "hachoir_parser.misc.chm",
    "image.psd",
    "library.hachoir_parser.misc.pcf",
    "movie.sources.sceneSource",
    "library.hachoir_parser.image.xcf",
    "library.hachoir_metadata.metadata_item",
    "misc.hlp",
    "flv",
    "library.sqlalchemy.orm.sync",
    "app.controllers.log",
    "imdb.parser.sql.objectadapter",
    "cherrypy.lib",
    "endian",
    "cab",
    "exc",
    "controllers.feed",
    "library.hachoir_parser.parser_list",
    "sqlite",
    "xcf",
    "stream",
    "process",
    "library.sqlalchemy.engine.ddl",
    "sqlalchemy.queue",
    "lib.provider.movie.search",
    "cherrypy.wsgiserver",
    "hachoir_parser.misc.lnk",
    "app.lib.provider.subtitle",
    "http.bsouplxml.bsoupxpath",
    "dialects.mssql.mxodbc",
    "hachoir_core.field.generic_field_set",
    "sqlalchemy.sql.compiler",
    "provider.movie.sources.theMovieDb",
    "sqlite.base",
    "pypostgresql",
    "dialects.mssql.adodbapi",
    "library.sqlalchemy.queue",
    "sqlalchemy.engine.threadlocal",
    "library.hachoir_core.field.character",
    "sqlalchemy.dialects.mysql.base",
    "lib.sabNzbd",
    "mar",
    "sqlalchemy.engine.strategies",
    "library.hachoir_parser.game.zsnes",
    "library.minify.js",
    "dateutil.relativedelta",
    "sceneReleases",
    "mako.ext",
    "sqlalchemy.orm.exc",
    "misc.bplist",
    "library.imdb.articles",
    "maxdb.sapdb",
    "video.asf",
    "compatibility",
    "mysql.base",
    "dialects.postgresql.pypostgresql",
    "lib.provider.trailers",
    "library.hachoir_parser.misc.hlp",
    "library.hachoir_core.field.parser",
    "library.hachoir_parser.program.elf",
    "lib.qualities",
    "movie.base",
    "engine.reflection",
    "library.hachoir_parser.guess",
    "program.prc",
    "metadata_item",
    "sqlalchemy.dialects.mysql.pyodbc",
    "expression",
    "stream.input",
    "xmg.xmg",
    "audio.s3m",
    "app.lib.provider.subtitle.sources.subscene",
    "cherrypy.wsgiserver.ssl_pyopenssl",
    "orm.unitofwork",
    "library.hachoir_parser.common",
    "library.hachoir_parser.program.exe_pe",
    "connectors.mxodbc",
    "iptc",
    "library.hachoir_parser.container.mkv",
    "library.hachoir_core.field.integer",
    "hachoir_parser.file_system.ntfs",
    "dialects.mssql.zxjdbc",
    "oracle.cx_oracle",
    "sceneSource",
    "ext2",
    "hachoir_core.endian",
    "lib.cron.renamer",
    "field.integer",
    "common.win32_lang_id",
    "lib.cron.base",
    "library.sqlalchemy.sql.operators",
    "hachoir_parser.network",
    "dialects.mysql",
    "etree",
    "library.sqlalchemy.dialects.mssql.mxodbc",
    "mako.pyparser",
    "python",
    "library.dateutil.rrule",
    "provider.yarr.sources.nzbsrus",
    "basic_field_set",
    "auth",
    "hachoir_parser.image.iptc",
    "orm.session",
    "library.transmissionrpc.client",
    "hachoir_parser.archive.mar",
    "archive.zip",
    "cherrypy.wsgiserver.ssl_builtin",
    "sqlalchemy.ext.horizontal_shard",
    "library.hachoir_parser.image.png",
    "library.sqlalchemy.ext.serializer",
    "library.hachoir_parser.template",
    "field.padding",
    "imdb.parser.http.bsouplxml.etree",
    "audio.real_audio",
    "app.config.updater",
    "hachoir_parser.parser_list",
    "stream.stream",
    "hachoir_core.field.character",
    "file_system.fat",
    "app.lib.plex",
    "library.imdb.parser.http.searchKeywordParser",
    "ext.sqlsoup",
    "library.routes.route",
    "hachoir_core.profiler",
    "sql.util",
    "library.sqlalchemy.dialects.access",
    "hachoir_parser.archive.zip",
    "library.git.ref",
    "hachoir_parser.program.java",
    "hachoir_core.stream.input",
    "app.version",
    "library.imdb.locale.msgfmt",
    "library.hachoir_core.field.enum",
    "hlp",
    "_bsoup",
    "library.imdb.parser.http.bsouplxml.etree",
    "sqlalchemy.dialects.sybase.pysybase",
    "lib.gctools",
    "app.lib.provider.rss",
    "orm.state",
    "string_field",
    "nzbs",
    "container",
    "mysql.zxjdbc",
    "sqlalchemy.dialects.mssql.pyodbc",
    "audio.id3",
    "blp",
    "cherrypy._cptools",
    "lib.growl",
    "imdb.locale.msgfmt",
    "app.controllers.feed",
    "library.hachoir_parser.file_system.ntfs",
    "cherrypy.process.plugins",
    "ref",
    "library.routes.middleware",
    "hachoir_parser.image.exif",
    "mysql.mysqldb",
    "hachoir_parser.image.jpeg",
    "hachoir_parser.container.realmedia",
    "exe_pe",
    "hachoir_parser.archive.sevenzip",
    "lib.cron.trailer",
    "_cpchecker",
    "movie.sources.imdbWrapper",
    "library.sqlalchemy.schema",
    "plex",
    "orm",
    "library.markupsafe._native",
    "cherrypy.lib.cpstats",
    "characterParser",
    "hachoir_parser.video.mpeg_ts",
    "hachoir_parser.image.pcx",
    "app.lib.cron",
    "library.sqlalchemy.ext.associationproxy",
    "sqlalchemy.dialects.mssql.base",
    "language",
    "midi",
    "gctools",
    "lib.provider.subtitle.sources.opensubtitles",
    "lexer",
    "app.lib.cron.kinepolisrss",
    "codegen",
    "hachoir_parser.file_system.mbr",
    "yarr",
    "ext.horizontal_shard",
    "sqlalchemy.dialects.maxdb.base",
    "routes",
    "lib.provider.subtitle.sources",
    "hachoir_parser.container",
    "xbmc",
    "dialects.informix",
    "schema",
    "xm",
    "dialects.maxdb.base",
    "parser",
    "library.hachoir_core.log",
    "wspbus",
    "library.hachoir_core.endian",
    "s3m",
    "lib.nmj",
    "sqlalchemy.orm.identity",
    "http.searchMovieParser",
    "lib.nma",
    "traktwatchlist",
    "mkv",
    "library.routes.util",
    "mpeg_ts",
    "library.pynmwp",
    "mako._ast_util",
    "library.hachoir_parser.archive.zip",
    "cpstats",
    "app.lib.cron.subtitle",
    "bits",
    "library.hachoir_parser.file_system.iso9660",
    "lib.provider.movie",
    "orm.shard",
    "hachoir_core.field.static_field_set",
    "library.sqlalchemy.types",
    "library.hachoir_parser.misc.torrent",
    "library.hachoir_core",
    "padding",
    "orm.sync",
    "ogg",
    "library.imdb.parser.http.searchCompanyParser",
    "sqlalchemy.orm.mapper",
    "png",
    "rss",
    "library.sqlalchemy.orm.query",
    "hachoir_core.dict",
    "field.basic_field_set",
    "library.hachoir_metadata.timezone",
    "library.httplib2.iri2uri",
    "sqlsoup",
    "dialects.informix.base",
    "cron",
    "app.lib.provider.trailers.hdtrailers",
    "archive.rar",
    "library.imdb.parser.http.searchPersonParser",
    "ext.declarative",
    "provider.yarr.sources.newznab",
    "prc",
    "dialects.postgresql.base",
    "routes.util",
    "lib.auth_digest",
    "lib.profiler",
    "imdb",
    "library.hachoir_parser.archive.ar",
    "hachoir_parser.misc.word_doc",
    "sqlalchemy.dialects.maxdb.sapdb",
    "library.hachoir_parser.network.common",
    "sqlalchemy.dialects",
    "dialects.sqlite.base",
    "app.lib.provider.subtitle.sources",
    "parser.http.characterParser",
    "library.sqlalchemy.dialects.mysql.oursql",
    "sqlalchemy.dialects.access.base",
    "common.tracker",
    "dateutil.parser",
    "hachoir_core.iso639",
    "cron.trailer",
    "mako.ast",
    "transmissionrpc.session",
    "searchCharacterParser",
    "hachoir_metadata.setter",
    "profiler",
    "dialects.postgres",
    "lib.provider.yarr.sources.tpb",
    "library.hachoir_parser.video.flv",
    "lib.provider.movie.sources.imdbWrapper",
    "field.new_seekable_field_set",
    "dialects.oracle.base",
    "cherrypy.lib.http",
    "iri2uri",
    "library.hachoir_core.field.static_field_set",
    "library.sqlalchemy.dialects.access.base",
    "visitors",
    "pynmwp",
    "evaluator",
    "library.sqlalchemy.ext.declarative",
    "hachoir_parser.image.wmf",
    "dbschema",
    "library.hachoir_core.field",
    "lib.provider.trailers.hdtrailers",
    "hachoir_parser.misc.msoffice_summary",
    "routes.base",
    "mysterbin",
    "seekable_field_set",
    "app.lib.boxcar",
    "library.sqlalchemy.sql.expression",
    "hachoir_parser.image.gif",
    "app.lib.growl",
    "sqlalchemy.sql.visitors",
    "lib.cron.kinepolisrss",
    "library.sqlalchemy.orm.state",
    "library.mako.pygen",
    "library.mako.cache",
    "mpeg_audio",
    "hachoir_metadata.register",
    "hachoir_parser.container.action_script",
    "imdb.parser.http.searchKeywordParser",
    "xmlrpcutil",
    "setter",
    "misc.torrent",
    "app.config.db",
    "hachoir_core.bits",
    "imdb.parser.http.bsouplxml.html",
    "cherrypy._cpconfig",
    "asn1",
    "library.hachoir_parser.archive.mar",
    "static_field_set",
    "dict",
    "library.hachoir_parser.file_system.mbr",
    "library.hachoir_parser.network.ouid",
    "kinterbasdb",
    "library.sqlalchemy.log",
    "library.hachoir_core.field.float",
    "library.hachoir_parser.misc.ole2",
    "remotes",
    "lib.http",
    "library.imdb.locale.rebuildmo",
    "file_system.linux_swap",
    "sources.sceneSource",
    "mapper",
    "imdb.parser",
    "library.hachoir_metadata.safe",
    "app.lib.provider.trailers",
    "dialects.postgresql",
    "queue",
    "misc.lnk",
    "app.lib.cron.traktwatchlist",
    "ext.autohandler",
    "middleware",
    "sqlalchemy.orm.interfaces",
    "rebuildmo",
    "library.hachoir_parser.audio.id3",
    "lib.provider.yarr.sources.newznab",
    "connectors.zxJDBC",
    "provider.yarr.search",
    "library.sqlalchemy.exc",
    "hachoir_parser.program.prc",
    "hachoir_parser.misc.ttf",
    "sqlalchemy.dialects.mssql",
    "lnk",
    "mako.ext.pygmentplugin",
    "controllers.log",
    "library.sqlalchemy.ext",
    "ext.serializer",
    "library.hachoir_parser.game.blp",
    "itunesdb",
    "hachoir_parser.misc.pdf",
    "_cplogging",
    "locale.generatepot",
    "ttf",
    "hachoir_core.benchmark",
    "state",
    "app.lib.sabNzbd",
    "library.imdb.parser.http.bsouplxml._bsoup",
    "sqlalchemy.dialects.sybase",
    "covercp",
    "bsouplxml",
    "field.vector",
    "library.imdb._logging",
    "library.hachoir_parser.common.win32_lang_id",
    "realmedia",
    "filter",
    "postgresql.pypostgresql",
    "pcx",
    "cron.eta",
    "locale.rebuildmo",
    "library.hachoir_parser.video.amf",
    "personParser",
    "sources.x264",
    "dialects.firebird.kinterbasdb",
    "win32_lang_id",
    "js",
    "library.dateutil.tz",
    "library.sqlalchemy.dialects.sybase.pysybase",
    "imdb._exceptions",
    "lib.transmission",
    "app.lib.cron.yarr",
    "hachoir_parser.misc.file_3do",
    "declarative",
    "cache",
    "eta",
    "orm.strategies",
    "image.pcx",
    "imdb.parser.sql.alchemyadapter",
    "app.lib.provider.yarr.sources.nzbs",
    "dialects.firebird.base",
    "ext.compiler",
    "provider.subtitle.sources.opensubtitles",
    "library.hachoir_parser.program.prc",
    "lib.auth_basic",
    "library.sqlalchemy.dialects.informix",
    "subtitle",
    "library.hachoir_core.field.helper",
    "hachoir_parser.container.ogg",
    "library.sqlalchemy.dialects.mssql.base",
    "video.mpeg_video",
    "sqlite.pysqlite",
    "wsgiserver",
    "ssl_pyopenssl",
    "misc.pcf",
    "dialects.sybase.pysybase",
    "shard",
    "_constants",
    "imdb.parser.http.bsouplxml._bsoup",
    "rpm",
    "imdb.parser.http.personParser",
    "auth_basic",
    "hachoir_parser.container.mkv",
    "library.hachoir_parser.audio.flac",
    "routes.route",
    "hachoir_parser.misc.pcf",
    "library.hachoir_core.iso639",
    "dialects.firebird",
    "field.sub_file",
    "yarr.sources.x264",
    "psycopg2",
    "sybase.pyodbc",
    "library.hachoir_parser.video.mpeg_video",
    "field.field",
    "container.mkv",
    "hachoir_parser.game",
    "yarr.sources.newzbin",
    "minify",
    "routes.mapper",
    "library.imdb.locale.generatepot",
    "_logging",
    "library.hachoir_parser.game.laf",
    "lib.cron.traktwatchlist",
    "sqlalchemy.dialects.sybase.mxodbc",
    "git.repository",
    "gzip_parser",
    "bmp",
    "imdb.parser.http",
    "parser.http.bsouplxml",
    "library.sqlalchemy.connectors.mxodbc",
    "i18n",
    "library.sqlalchemy.orm.mapper",
    "ext.orderinglist",
    "sqlalchemy.orm.sync",
    "library.hachoir_parser.network.tcpdump",
    "msdos",
    "container.swf",
    "pcf",
    "app.lib.twitter",
    "sources.theMovieDb",
    "library.hachoir_parser.container.realmedia",
    "sqlalchemy.exc",
    "library.hachoir_parser.misc.common",
    "library.dateutil",
    "lib.httpauth",
    "library.hachoir_core.benchmark",
    "misc.ole2",
    "sqlalchemy.ext",
    "library.hachoir_parser.misc.bplist",
    "hachoir_parser.parser",
    "library.sqlalchemy.connectors.pyodbc",
    "library.hachoir_parser.image",
    "library.hachoir_metadata.filter",
    "orderinglist",
    "sqlalchemy.dialects.mssql.zxjdbc",
    "jsontools",
    "torrent",
    "provider.rss",
    "utils",
    "library.sqlalchemy.ext.compiler",
    "library.hachoir_parser.program.java",
    "config.render",
    "app.lib.cron.renamer",
    "lib.provider.yarr.sources.nzbs",
    "oracle.zxjdbc",
    "nzbsrus",
    "sqlalchemy.connectors",
    "hdtrailers",
    "parser.http.utils",
    "mako.filters",
    "postgres",
    "movie.sources.sceneReleases",
    "archive.ar",
    "zsnes",
    "zxjdbc",
    "orm.interfaces",
    "library.hachoir_metadata.misc",
    "engine.threadlocal",
    "wsgiserver.ssl_builtin",
    "library.hachoir_parser.misc.pdf",
    "html",
    "program.python",
    "app.lib.provider.movie.search",
    "hachoir_core.field.timestamp",
    "sqlalchemy.dialects.mssql.information_schema",
    "hachoir_parser.video.mpeg_video",
    "library.sqlalchemy.orm.collections",
    "sqlalchemy.dialects.mysql",
    "file_system.ntfs",
    "http",
    "provider.movie.base",
    "_cpnative_server",
    "nzbmatrix",
    "maxdb",
    "library.hachoir_core.stream.input",
    "hachoir_parser.misc.file_3ds",
    "functions",
    "deflate",
    "trakt",
    "archive.cab",
    "library.sqlalchemy.dialects.mssql",
    "hachoir_parser.audio.mod",
    "library.imdb.parser.http.searchCharacterParser",
    "attributes",
    "game.spider_man_video",
    "identity",
    "library.hachoir_parser.image.wmf",
    "reflection",
    "cx_oracle",
    "transmissionrpc.utils",
    "orm.exc",
    "archive.sevenzip",
    "sqlalchemy.orm.attributes",
    "library.transmissionrpc.error",
    "hachoir_parser.image.ico",
    "sqlalchemy.ext.compiler",
    "riff",
    "hachoir_core.field.field_set",
    "audio",
    "program.java",
    "library.hachoir_core.field.basic_field_set",
    "yarr.sources",
    "httplib2",
    "_ast_util",
    "video.flv",
    "app.lib.provider",
    "sapdb",
    "cplog",
    "aiff",
    "library.hachoir_parser.audio.modplug",
    "sources",
    "dialects.postgresql.psycopg2",
    "lib.provider.yarr.search",
    "mako.template",
    "app.lib.provider.movie",
    "mxodbc",
    "app.lib.provider.movie.sources.theMovieDb",
    "library.hachoir_parser.misc",
    "cherrypy.wsgiserver.wsgiserver2",
    "lib.xbmc",
    "field",
    "sqlalchemy.orm.util",
    "Company",
    "iso9660",
    "library.sqlalchemy.dialects.sqlite.base",
    "hachoir_core.field.parser",
    "yarr.sources.nzbsrus",
    "library.hachoir_parser.misc.msoffice_summary",
    "lib.twitter",
    "library.git",
    "field.timestamp",
    "tests",
    "library.hachoir_core.field.field",
    "hachoir_parser.archive.gzip_parser",
    "articles",
    "app.lib.transmission",
    "library.mako",
    "mov",
    "git.exceptions",
    "amf",
    "httplib2.iri2uri",
    "firebird.base",
    "file_system",
    "mod",
    "parser.http",
    "library.sqlalchemy.orm.scoping",
    "container.action_script",
    "hachoir_parser.image",
    "library.sqlalchemy.dialects.sybase.base",
    "imdb.Company",
    "sqlalchemy.orm.dependency",
    "synoindex",
    "mysql.mysqlconnector",
    "library.hachoir_core.bits",
    "hachoir_parser.image.bmp",
    "tga",
    "hachoir_parser.network.common",
    "sqlalchemy.dialects.informix.base",
    "hachoir_parser",
    "yarr.search",
    "sqlalchemy.dialects.oracle.base",
    "input_helper",
    "movierss",
    "twitter",
    "sqlalchemy.dialects.postgres",
    "library.hachoir_parser.program.exe_res",
    "library",
    "cherrypy.lib.cptools",
    "hachoir_parser.image.psd",
    "library.hachoir_parser.misc.gnome_keyring",
    "rrule",
    "_cpmodpy",
    "library.hachoir_core.stream.stream",
    "library.mako.filters",
    "library.sqlalchemy.dialects.informix.informixdb",
    "win32",
    "library.hachoir_parser.common.tracker",
    "library.xmg",
    "informixdb",
    "exif",
    "image.jpeg",
    "cherrypy.lib.caching",
    "library.hachoir_parser.misc.word_doc",
    "hachoir_parser.program.python",
    "lib.cron",
    "cherrypy.lib.auth_digest",
    "dialects.sybase.pyodbc",
    "access.base",
    "ddl",
    "routes.lru",
    "library.hachoir_metadata",
    "ext.babelplugin",
    "library.sqlalchemy.dialects",
    "library.hachoir_parser.audio.midi",
    "dialects.sybase.mxodbc",
    "library.sqlalchemy.dialects.postgres",
    "enum",
    "library.hachoir_metadata.version",
    "library.hachoir_parser.container.asn1",
    "library.hachoir_parser.file_system",
    "cherrypy.lib.httpauth",
    "nma",
    "sqlalchemy.orm.scoping",
    "nmj",
    "sqlalchemy.connectors.zxJDBC",
    "app.lib.provider.yarr.sources.newzbin",
    "misc.common",
    "sources.newznab",
    "firebird",
    "ace",
    "http.searchPersonParser",
    "dialects.oracle",
    "audio.xm",
    "controllers.movie",
    "lib.provider.movie.sources.theMovieDb",
    "library.hachoir_metadata.image",
    "dependency",
    "app.lib.notifo",
    "imdb.parser.http.bsouplxml",
    "sqlalchemy.dialects.oracle.cx_oracle",
    "provider.yarr.sources",
    "orm.query",
    "library.hachoir_metadata.jpeg",
    "app.lib.provider.yarr.sources.nzbmatrix",
    "hachoir_metadata.version",
    "app.controllers.movie",
    "hachoir_core.field.sub_file",
    "sources.nzbsrus",
    "image",
    "new_seekable_field_set",
    "library.sqlalchemy.processors",
    "sources.subscene",
    "sevenzip",
    "library.sqlalchemy.dialects.oracle.cx_oracle",
    "image.tga",
    "library.hachoir_core.field.bit_field",
    "sqlalchemy.dialects.oracle.zxjdbc",
    "parser.sql.dbschema",
    "archive.ace",
    "library.sqlalchemy.dialects.oracle.zxjdbc",
    "log",
    "hachoir_core.tools",
    "http.searchCompanyParser",
    "library.git.repository",
    "lib.cron.subtitle",
    "mako.cache",
    "library.mako.parsetree",
    "lib.provider.yarr.base",
    "library.minify.css",
    "library.git.utils",
    "hachoir_parser.audio.midi",
    "information_schema",
    "library.hachoir_parser.image.jpeg",
    "lib.httputil",
    "hachoir_metadata.config",
    "library.hachoir_parser.video.asf",
    "library.hachoir_parser.program",
    "sqlalchemy.dialects.sqlite.pysqlite",
    "sqlalchemy.dialects.sybase.pyodbc",
    "configApp",
    "library.hachoir_parser.video.mpeg_ts",
    "library.hachoir_parser.game.spider_man_video",
    "config.updater",
    "app.config.configApp",
    "sqlalchemy.sql.expression",
    "iso639",
    "default",
    "hachoir_core.field.padding",
    "image.bmp",
    "hachoir_parser.video.fourcc",
    "dialects.mssql.base",
    "hachoir_parser.common",
    "static",
    "library.sqlalchemy.orm.dependency",
    "file_system.iso9660",
    "cptools",
    "cherrypy.lib.gctools",
    "hachoir_parser.container.asn1",
    "hachoir_core.field.integer",
    "dialects.mysql.base",
    "imdbWrapper",
    "library.imdb.parser.sql.objectadapter",
    "hachoir_parser.video.amf",
    "library.hachoir_core.field.timestamp",
    "word_doc",
    "library.git.branch",
    "hachoir_core.version",
    "ar",
    "au",
    "sql.alchemyadapter",
    "lib.provider.subtitle.base",
    "sqlalchemy.dialects.postgresql",
    "hachoir_parser.audio.mpeg_audio",
    "process.win32",
    "field.seekable_field_set",
    "library.sqlalchemy.orm.unitofwork",
    "spider_man_video",
    "associationproxy",
    "reiser_fs",
    "library.hachoir_metadata.video",
    "lib.cron.yarr",
    "exe_res",
    "app.config.routes",
    "lookup",
    "branch",
    "hachoir_metadata.formatter",
    "hachoir_parser.common.msdos",
    "hachoir_parser.program.exe_pe",
    "hachoir_parser.image.common",
    "app.lib.xbmc",
    "provider.yarr.sources.tpb",
    "hachoir_parser.file_system.ext2",
    "query",
    "app.lib.provider.yarr.sources.newznab",
    "library.sqlalchemy.dialects.mysql.mysqldb",
    "library.hachoir_parser.game",
    "sqlalchemy.dialects.mysql.mysqlconnector",
    "hachoir_core.field",
    "postgresql.psycopg2",
    "library.transmissionrpc.httphandler",
    "library.hachoir_parser.video.mov",
    "library.hachoir_metadata.setter",
    "pool",
    "lib.provider.movie.sources.sceneSource",
    "hachoir_parser.file_system",
    "library.hachoir_parser.archive.cab",
    "library.sqlalchemy.dialects.postgresql.pypostgresql",
    "lib.notifo",
    "mako.codegen",
    "cherrypy._cpdispatch",
    "hachoir_parser.program.exe_res",
    "_compat",
    "network.tcpdump",
    "dialects.maxdb",
    "cherrypy._cptree",
    "archive.bzip2_parser",
    "subtitle.sources.subscene",
    "processors",
    "sqlalchemy.dialects.postgresql.pypostgresql"
]