{
    "libs": [
        "tty",
        "decimal",
        "skip",
        "functools",
        "random",
        "win32security",
        "subprocess",
        "gc",
        "psutil",
        "win32evtlog",
        "ElementTree",
        "web",
        "uuid",
        "tempfile",
        "psycopg2",
        "pprint",
        "platform",
        "wmi",
        "collections",
        "cProfile",
        "persist",
        "servicemanager",
        "bin",
        "string",
        "adodbapi",
        "textwrap",
        "ssl",
        "datetime",
        "cookielib",
        "ConfigParser",
        "httplib",
        "resource",
        "bisect",
        "h",
        "signal",
        "sha",
        "shlex",
        "Utils",
        "cStringIO",
        "pstats",
        "with_statement",
        "stat",
        "atexit",
        "MySQLdb",
        "escape",
        "calendar",
        "handlers",
        "configtools",
        "QtGui",
        "bdb",
        "gearman",
        "redis",
        "struct",
        "urllib",
        "re",
        "math",
        "fcntl",
        "ftplib",
        "iostream",
        "optparse",
        "inspect",
        "Queue",
        "ctypes",
        "codecs",
        "path",
        "win32service",
        "elementtree",
        "md5",
        "minidom",
        "c",
        "socket",
        "thread",
        "StringIO",
        "traceback",
        "multiprocessing",
        "itertools",
        "extensions",
        "_yaml",
        "attrib",
        "os",
        "pdb",
        "win32api",
        "simple_httpclient",
        "netutil",
        "unittest",
        "saxutils",
        "operator",
        "tools",
        "select",
        "posixpath",
        "imp",
        "errno",
        "json",
        "httpclient",
        "cPickle",
        "simplejson",
        "rsa",
        "termios",
        "pwd",
        "memcache",
        "webbrowser",
        "copy",
        "b",
        "keyword",
        "zlib",
        "um",
        "fnmatch",
        "win32evtlogutil",
        "pickle",
        "mimetools",
        "copy_reg",
        "keyring",
        "sax",
        "contextlib",
        "shutil",
        "paramiko",
        "win32event",
        "httpserver",
        "threading",
        "codeeditor",
        "getopt",
        "win32con",
        "pymongo",
        "profile",
        "ioloop",
        "mimetypes",
        "scriptb",
        "tornado",
        "tcpserver",
        "glob",
        "sets",
        "urllib2",
        "epdb",
        "sys",
        "lxml",
        "qthelpers",
        "requests",
        "rrdtool",
        "m",
        "options",
        "urlparse",
        "win32serviceutil",
        "client",
        "time",
        "QtCore",
        "hmac"
    ]
}