{
    "archive_url": "https://api.github.com/repos/DataDog/dd-agent/{archive_format}{/ref}",
    "assignees_url": "https://api.github.com/repos/DataDog/dd-agent/assignees{/user}",
    "blobs_url": "https://api.github.com/repos/DataDog/dd-agent/git/blobs{/sha}",
    "branches_url": "https://api.github.com/repos/DataDog/dd-agent/branches{/branch}",
    "clone_url": "https://github.com/DataDog/dd-agent.git",
    "collaborators_url": "https://api.github.com/repos/DataDog/dd-agent/collaborators{/collaborator}",
    "comments_url": "https://api.github.com/repos/DataDog/dd-agent/comments{/number}",
    "commits_url": "https://api.github.com/repos/DataDog/dd-agent/commits{/sha}",
    "compare_url": "https://api.github.com/repos/DataDog/dd-agent/compare/{base}...{head}",
    "contents_url": "https://api.github.com/repos/DataDog/dd-agent/contents/{+path}",
    "contributors_url": "https://api.github.com/repos/DataDog/dd-agent/contributors",
    "created_at": "2010-12-31T03:02:47Z",
    "default_branch": "master",
    "description": "Datadog Agent",
    "downloads_url": "https://api.github.com/repos/DataDog/dd-agent/downloads",
    "events_url": "https://api.github.com/repos/DataDog/dd-agent/events",
    "fork": false,
    "forks": 88,
    "forks_count": 88,
    "forks_url": "https://api.github.com/repos/DataDog/dd-agent/forks",
    "full_name": "DataDog/dd-agent",
    "git_commits_url": "https://api.github.com/repos/DataDog/dd-agent/git/commits{/sha}",
    "git_refs_url": "https://api.github.com/repos/DataDog/dd-agent/git/refs{/sha}",
    "git_tags_url": "https://api.github.com/repos/DataDog/dd-agent/git/tags{/sha}",
    "git_url": "git://github.com/DataDog/dd-agent.git",
    "has_downloads": false,
    "has_issues": true,
    "has_wiki": true,
    "homepage": "http://docs.datadoghq.com/",
    "hooks_url": "https://api.github.com/repos/DataDog/dd-agent/hooks",
    "html_url": "https://github.com/DataDog/dd-agent",
    "id": 1210071,
    "issue_comment_url": "https://api.github.com/repos/DataDog/dd-agent/issues/comments/{number}",
    "issue_events_url": "https://api.github.com/repos/DataDog/dd-agent/issues/events{/number}",
    "issues_url": "https://api.github.com/repos/DataDog/dd-agent/issues{/number}",
    "keys_url": "https://api.github.com/repos/DataDog/dd-agent/keys{/key_id}",
    "labels_url": "https://api.github.com/repos/DataDog/dd-agent/labels{/name}",
    "language": "Python",
    "languages_url": "https://api.github.com/repos/DataDog/dd-agent/languages",
    "merges_url": "https://api.github.com/repos/DataDog/dd-agent/merges",
    "milestones_url": "https://api.github.com/repos/DataDog/dd-agent/milestones{/number}",
    "mirror_url": null,
    "name": "dd-agent",
    "notifications_url": "https://api.github.com/repos/DataDog/dd-agent/notifications{?since,all,participating}",
    "open_issues": 192,
    "open_issues_count": 192,
    "owner": {
        "avatar_url": "https://avatars.githubusercontent.com/u/365230?",
        "events_url": "https://api.github.com/users/DataDog/events{/privacy}",
        "followers_url": "https://api.github.com/users/DataDog/followers",
        "following_url": "https://api.github.com/users/DataDog/following{/other_user}",
        "gists_url": "https://api.github.com/users/DataDog/gists{/gist_id}",
        "gravatar_id": "812de840123feefac39f85428fd7744a",
        "html_url": "https://github.com/DataDog",
        "id": 365230,
        "login": "DataDog",
        "organizations_url": "https://api.github.com/users/DataDog/orgs",
        "received_events_url": "https://api.github.com/users/DataDog/received_events",
        "repos_url": "https://api.github.com/users/DataDog/repos",
        "site_admin": false,
        "starred_url": "https://api.github.com/users/DataDog/starred{/owner}{/repo}",
        "subscriptions_url": "https://api.github.com/users/DataDog/subscriptions",
        "type": "Organization",
        "url": "https://api.github.com/users/DataDog"
    },
    "private": false,
    "pulls_url": "https://api.github.com/repos/DataDog/dd-agent/pulls{/number}",
    "pushed_at": "2014-05-06T22:19:15Z",
    "releases_url": "https://api.github.com/repos/DataDog/dd-agent/releases{/id}",
    "score": 1.0,
    "size": 42471,
    "ssh_url": "git@github.com:DataDog/dd-agent.git",
    "stargazers_count": 189,
    "stargazers_url": "https://api.github.com/repos/DataDog/dd-agent/stargazers",
    "statuses_url": "https://api.github.com/repos/DataDog/dd-agent/statuses/{sha}",
    "subscribers_url": "https://api.github.com/repos/DataDog/dd-agent/subscribers",
    "subscription_url": "https://api.github.com/repos/DataDog/dd-agent/subscription",
    "svn_url": "https://github.com/DataDog/dd-agent",
    "tags_url": "https://api.github.com/repos/DataDog/dd-agent/tags",
    "teams_url": "https://api.github.com/repos/DataDog/dd-agent/teams",
    "trees_url": "https://api.github.com/repos/DataDog/dd-agent/git/trees{/sha}",
    "updated_at": "2014-05-06T22:19:15Z",
    "url": "https://api.github.com/repos/DataDog/dd-agent",
    "watchers": 189,
    "watchers_count": 189
}