{
    "archive_url": "https://api.github.com/repos/iphelix/pack/{archive_format}{/ref}",
    "assignees_url": "https://api.github.com/repos/iphelix/pack/assignees{/user}",
    "blobs_url": "https://api.github.com/repos/iphelix/pack/git/blobs{/sha}",
    "branches_url": "https://api.github.com/repos/iphelix/pack/branches{/branch}",
    "clone_url": "https://github.com/iphelix/pack.git",
    "collaborators_url": "https://api.github.com/repos/iphelix/pack/collaborators{/collaborator}",
    "comments_url": "https://api.github.com/repos/iphelix/pack/comments{/number}",
    "commits_url": "https://api.github.com/repos/iphelix/pack/commits{/sha}",
    "compare_url": "https://api.github.com/repos/iphelix/pack/compare/{base}...{head}",
    "contents_url": "https://api.github.com/repos/iphelix/pack/contents/{+path}",
    "contributors_url": "https://api.github.com/repos/iphelix/pack/contributors",
    "created_at": "2013-07-16T18:40:29Z",
    "default_branch": "master",
    "description": "PACK (Password Analysis and Cracking Kit)",
    "downloads_url": "https://api.github.com/repos/iphelix/pack/downloads",
    "events_url": "https://api.github.com/repos/iphelix/pack/events",
    "fork": false,
    "forks": 3,
    "forks_count": 3,
    "forks_url": "https://api.github.com/repos/iphelix/pack/forks",
    "full_name": "iphelix/pack",
    "git_commits_url": "https://api.github.com/repos/iphelix/pack/git/commits{/sha}",
    "git_refs_url": "https://api.github.com/repos/iphelix/pack/git/refs{/sha}",
    "git_tags_url": "https://api.github.com/repos/iphelix/pack/git/tags{/sha}",
    "git_url": "git://github.com/iphelix/pack.git",
    "has_downloads": true,
    "has_issues": true,
    "has_wiki": true,
    "homepage": "http://thesprawl.org/projects/pack/",
    "hooks_url": "https://api.github.com/repos/iphelix/pack/hooks",
    "html_url": "https://github.com/iphelix/pack",
    "id": 11457159,
    "issue_comment_url": "https://api.github.com/repos/iphelix/pack/issues/comments/{number}",
    "issue_events_url": "https://api.github.com/repos/iphelix/pack/issues/events{/number}",
    "issues_url": "https://api.github.com/repos/iphelix/pack/issues{/number}",
    "keys_url": "https://api.github.com/repos/iphelix/pack/keys{/key_id}",
    "labels_url": "https://api.github.com/repos/iphelix/pack/labels{/name}",
    "language": "Python",
    "languages_url": "https://api.github.com/repos/iphelix/pack/languages",
    "merges_url": "https://api.github.com/repos/iphelix/pack/merges",
    "milestones_url": "https://api.github.com/repos/iphelix/pack/milestones{/number}",
    "mirror_url": null,
    "name": "pack",
    "notifications_url": "https://api.github.com/repos/iphelix/pack/notifications{?since,all,participating}",
    "open_issues": 0,
    "open_issues_count": 0,
    "owner": {
        "avatar_url": "https://avatars.githubusercontent.com/u/887841?",
        "events_url": "https://api.github.com/users/iphelix/events{/privacy}",
        "followers_url": "https://api.github.com/users/iphelix/followers",
        "following_url": "https://api.github.com/users/iphelix/following{/other_user}",
        "gists_url": "https://api.github.com/users/iphelix/gists{/gist_id}",
        "gravatar_id": "7c4cc77b28816ba6efb6ae7ee18c4ad0",
        "html_url": "https://github.com/iphelix",
        "id": 887841,
        "login": "iphelix",
        "organizations_url": "https://api.github.com/users/iphelix/orgs",
        "received_events_url": "https://api.github.com/users/iphelix/received_events",
        "repos_url": "https://api.github.com/users/iphelix/repos",
        "site_admin": false,
        "starred_url": "https://api.github.com/users/iphelix/starred{/owner}{/repo}",
        "subscriptions_url": "https://api.github.com/users/iphelix/subscriptions",
        "type": "User",
        "url": "https://api.github.com/users/iphelix"
    },
    "private": false,
    "pulls_url": "https://api.github.com/repos/iphelix/pack/pulls{/number}",
    "pushed_at": "2014-04-08T16:52:55Z",
    "releases_url": "https://api.github.com/repos/iphelix/pack/releases{/id}",
    "score": 1.0,
    "size": 316,
    "ssh_url": "git@github.com:iphelix/pack.git",
    "stargazers_count": 46,
    "stargazers_url": "https://api.github.com/repos/iphelix/pack/stargazers",
    "statuses_url": "https://api.github.com/repos/iphelix/pack/statuses/{sha}",
    "subscribers_url": "https://api.github.com/repos/iphelix/pack/subscribers",
    "subscription_url": "https://api.github.com/repos/iphelix/pack/subscription",
    "svn_url": "https://github.com/iphelix/pack",
    "tags_url": "https://api.github.com/repos/iphelix/pack/tags",
    "teams_url": "https://api.github.com/repos/iphelix/pack/teams",
    "trees_url": "https://api.github.com/repos/iphelix/pack/git/trees{/sha}",
    "updated_at": "2014-04-08T16:52:54Z",
    "url": "https://api.github.com/repos/iphelix/pack",
    "watchers": 46,
    "watchers_count": 46
}