{
    "libs": [
        "unicodedata",
        "markdown",
        "re",
        "tempfile",
        "os",
        "unittest",
        "inspect",
        "datetime",
        "sys",
        "operator",
        "itertools",
        "contextlib",
        "yaml",
        "exceptions",
        "shutil",
        "fl",
        "formatters"
    ]
}