{
    "archive_url": "https://api.github.com/repos/oskusalerma/trelby/{archive_format}{/ref}",
    "assignees_url": "https://api.github.com/repos/oskusalerma/trelby/assignees{/user}",
    "blobs_url": "https://api.github.com/repos/oskusalerma/trelby/git/blobs{/sha}",
    "branches_url": "https://api.github.com/repos/oskusalerma/trelby/branches{/branch}",
    "clone_url": "https://github.com/oskusalerma/trelby.git",
    "collaborators_url": "https://api.github.com/repos/oskusalerma/trelby/collaborators{/collaborator}",
    "comments_url": "https://api.github.com/repos/oskusalerma/trelby/comments{/number}",
    "commits_url": "https://api.github.com/repos/oskusalerma/trelby/commits{/sha}",
    "compare_url": "https://api.github.com/repos/oskusalerma/trelby/compare/{base}...{head}",
    "contents_url": "https://api.github.com/repos/oskusalerma/trelby/contents/{+path}",
    "contributors_url": "https://api.github.com/repos/oskusalerma/trelby/contributors",
    "created_at": "2008-09-08T13:25:55Z",
    "default_branch": "master",
    "description": "Screenplay writing program",
    "downloads_url": "https://api.github.com/repos/oskusalerma/trelby/downloads",
    "events_url": "https://api.github.com/repos/oskusalerma/trelby/events",
    "fork": false,
    "forks": 32,
    "forks_count": 32,
    "forks_url": "https://api.github.com/repos/oskusalerma/trelby/forks",
    "full_name": "oskusalerma/trelby",
    "git_commits_url": "https://api.github.com/repos/oskusalerma/trelby/git/commits{/sha}",
    "git_refs_url": "https://api.github.com/repos/oskusalerma/trelby/git/refs{/sha}",
    "git_tags_url": "https://api.github.com/repos/oskusalerma/trelby/git/tags{/sha}",
    "git_url": "git://github.com/oskusalerma/trelby.git",
    "has_downloads": true,
    "has_issues": true,
    "has_wiki": true,
    "homepage": "http://www.trelby.org/",
    "hooks_url": "https://api.github.com/repos/oskusalerma/trelby/hooks",
    "html_url": "https://github.com/oskusalerma/trelby",
    "id": 50425,
    "issue_comment_url": "https://api.github.com/repos/oskusalerma/trelby/issues/comments/{number}",
    "issue_events_url": "https://api.github.com/repos/oskusalerma/trelby/issues/events{/number}",
    "issues_url": "https://api.github.com/repos/oskusalerma/trelby/issues{/number}",
    "keys_url": "https://api.github.com/repos/oskusalerma/trelby/keys{/key_id}",
    "labels_url": "https://api.github.com/repos/oskusalerma/trelby/labels{/name}",
    "language": "Python",
    "languages_url": "https://api.github.com/repos/oskusalerma/trelby/languages",
    "merges_url": "https://api.github.com/repos/oskusalerma/trelby/merges",
    "milestones_url": "https://api.github.com/repos/oskusalerma/trelby/milestones{/number}",
    "mirror_url": null,
    "name": "trelby",
    "notifications_url": "https://api.github.com/repos/oskusalerma/trelby/notifications{?since,all,participating}",
    "open_issues": 57,
    "open_issues_count": 57,
    "owner": {
        "avatar_url": "https://avatars.githubusercontent.com/u/23551?",
        "events_url": "https://api.github.com/users/oskusalerma/events{/privacy}",
        "followers_url": "https://api.github.com/users/oskusalerma/followers",
        "following_url": "https://api.github.com/users/oskusalerma/following{/other_user}",
        "gists_url": "https://api.github.com/users/oskusalerma/gists{/gist_id}",
        "gravatar_id": "51031f824068b5896f75b1a1dff03426",
        "html_url": "https://github.com/oskusalerma",
        "id": 23551,
        "login": "oskusalerma",
        "organizations_url": "https://api.github.com/users/oskusalerma/orgs",
        "received_events_url": "https://api.github.com/users/oskusalerma/received_events",
        "repos_url": "https://api.github.com/users/oskusalerma/repos",
        "site_admin": false,
        "starred_url": "https://api.github.com/users/oskusalerma/starred{/owner}{/repo}",
        "subscriptions_url": "https://api.github.com/users/oskusalerma/subscriptions",
        "type": "User",
        "url": "https://api.github.com/users/oskusalerma"
    },
    "private": false,
    "pulls_url": "https://api.github.com/repos/oskusalerma/trelby/pulls{/number}",
    "pushed_at": "2013-12-05T00:10:43Z",
    "releases_url": "https://api.github.com/repos/oskusalerma/trelby/releases{/id}",
    "score": 1.0,
    "size": 8897,
    "ssh_url": "git@github.com:oskusalerma/trelby.git",
    "stargazers_count": 77,
    "stargazers_url": "https://api.github.com/repos/oskusalerma/trelby/stargazers",
    "statuses_url": "https://api.github.com/repos/oskusalerma/trelby/statuses/{sha}",
    "subscribers_url": "https://api.github.com/repos/oskusalerma/trelby/subscribers",
    "subscription_url": "https://api.github.com/repos/oskusalerma/trelby/subscription",
    "svn_url": "https://github.com/oskusalerma/trelby",
    "tags_url": "https://api.github.com/repos/oskusalerma/trelby/tags",
    "teams_url": "https://api.github.com/repos/oskusalerma/trelby/teams",
    "trees_url": "https://api.github.com/repos/oskusalerma/trelby/git/trees{/sha}",
    "updated_at": "2014-04-30T14:42:49Z",
    "url": "https://api.github.com/repos/oskusalerma/trelby",
    "watchers": 77,
    "watchers_count": 77
}