{
    "archive_url": "https://api.github.com/repos/rdegges/django-heroku-postgresify/{archive_format}{/ref}",
    "assignees_url": "https://api.github.com/repos/rdegges/django-heroku-postgresify/assignees{/user}",
    "blobs_url": "https://api.github.com/repos/rdegges/django-heroku-postgresify/git/blobs{/sha}",
    "branches_url": "https://api.github.com/repos/rdegges/django-heroku-postgresify/branches{/branch}",
    "clone_url": "https://github.com/rdegges/django-heroku-postgresify.git",
    "collaborators_url": "https://api.github.com/repos/rdegges/django-heroku-postgresify/collaborators{/collaborator}",
    "comments_url": "https://api.github.com/repos/rdegges/django-heroku-postgresify/comments{/number}",
    "commits_url": "https://api.github.com/repos/rdegges/django-heroku-postgresify/commits{/sha}",
    "compare_url": "https://api.github.com/repos/rdegges/django-heroku-postgresify/compare/{base}...{head}",
    "contents_url": "https://api.github.com/repos/rdegges/django-heroku-postgresify/contents/{+path}",
    "contributors_url": "https://api.github.com/repos/rdegges/django-heroku-postgresify/contributors",
    "created_at": "2012-04-30T17:47:23Z",
    "default_branch": "master",
    "description": "Automatic Django database configuration on Heroku.",
    "downloads_url": "https://api.github.com/repos/rdegges/django-heroku-postgresify/downloads",
    "events_url": "https://api.github.com/repos/rdegges/django-heroku-postgresify/events",
    "fork": false,
    "forks": 4,
    "forks_count": 4,
    "forks_url": "https://api.github.com/repos/rdegges/django-heroku-postgresify/forks",
    "full_name": "rdegges/django-heroku-postgresify",
    "git_commits_url": "https://api.github.com/repos/rdegges/django-heroku-postgresify/git/commits{/sha}",
    "git_refs_url": "https://api.github.com/repos/rdegges/django-heroku-postgresify/git/refs{/sha}",
    "git_tags_url": "https://api.github.com/repos/rdegges/django-heroku-postgresify/git/tags{/sha}",
    "git_url": "git://github.com/rdegges/django-heroku-postgresify.git",
    "has_downloads": true,
    "has_issues": true,
    "has_wiki": true,
    "homepage": "",
    "hooks_url": "https://api.github.com/repos/rdegges/django-heroku-postgresify/hooks",
    "html_url": "https://github.com/rdegges/django-heroku-postgresify",
    "id": 4185242,
    "issue_comment_url": "https://api.github.com/repos/rdegges/django-heroku-postgresify/issues/comments/{number}",
    "issue_events_url": "https://api.github.com/repos/rdegges/django-heroku-postgresify/issues/events{/number}",
    "issues_url": "https://api.github.com/repos/rdegges/django-heroku-postgresify/issues{/number}",
    "keys_url": "https://api.github.com/repos/rdegges/django-heroku-postgresify/keys{/key_id}",
    "labels_url": "https://api.github.com/repos/rdegges/django-heroku-postgresify/labels{/name}",
    "language": "Python",
    "languages_url": "https://api.github.com/repos/rdegges/django-heroku-postgresify/languages",
    "merges_url": "https://api.github.com/repos/rdegges/django-heroku-postgresify/merges",
    "milestones_url": "https://api.github.com/repos/rdegges/django-heroku-postgresify/milestones{/number}",
    "mirror_url": null,
    "name": "django-heroku-postgresify",
    "notifications_url": "https://api.github.com/repos/rdegges/django-heroku-postgresify/notifications{?since,all,participating}",
    "open_issues": 0,
    "open_issues_count": 0,
    "owner": {
        "avatar_url": "https://avatars.githubusercontent.com/u/90247?",
        "events_url": "https://api.github.com/users/rdegges/events{/privacy}",
        "followers_url": "https://api.github.com/users/rdegges/followers",
        "following_url": "https://api.github.com/users/rdegges/following{/other_user}",
        "gists_url": "https://api.github.com/users/rdegges/gists{/gist_id}",
        "gravatar_id": "56badf521701d4f9b3a394d3ef6e90c4",
        "html_url": "https://github.com/rdegges",
        "id": 90247,
        "login": "rdegges",
        "organizations_url": "https://api.github.com/users/rdegges/orgs",
        "received_events_url": "https://api.github.com/users/rdegges/received_events",
        "repos_url": "https://api.github.com/users/rdegges/repos",
        "site_admin": false,
        "starred_url": "https://api.github.com/users/rdegges/starred{/owner}{/repo}",
        "subscriptions_url": "https://api.github.com/users/rdegges/subscriptions",
        "type": "User",
        "url": "https://api.github.com/users/rdegges"
    },
    "private": false,
    "pulls_url": "https://api.github.com/repos/rdegges/django-heroku-postgresify/pulls{/number}",
    "pushed_at": "2012-12-21T23:03:23Z",
    "releases_url": "https://api.github.com/repos/rdegges/django-heroku-postgresify/releases{/id}",
    "score": 1.0,
    "size": 186,
    "ssh_url": "git@github.com:rdegges/django-heroku-postgresify.git",
    "stargazers_count": 42,
    "stargazers_url": "https://api.github.com/repos/rdegges/django-heroku-postgresify/stargazers",
    "statuses_url": "https://api.github.com/repos/rdegges/django-heroku-postgresify/statuses/{sha}",
    "subscribers_url": "https://api.github.com/repos/rdegges/django-heroku-postgresify/subscribers",
    "subscription_url": "https://api.github.com/repos/rdegges/django-heroku-postgresify/subscription",
    "svn_url": "https://github.com/rdegges/django-heroku-postgresify",
    "tags_url": "https://api.github.com/repos/rdegges/django-heroku-postgresify/tags",
    "teams_url": "https://api.github.com/repos/rdegges/django-heroku-postgresify/teams",
    "trees_url": "https://api.github.com/repos/rdegges/django-heroku-postgresify/git/trees{/sha}",
    "updated_at": "2014-05-02T05:50:02Z",
    "url": "https://api.github.com/repos/rdegges/django-heroku-postgresify",
    "watchers": 42,
    "watchers_count": 42
}