{
    "archive_url": "https://api.github.com/repos/disqus/gargoyle/{archive_format}{/ref}",
    "assignees_url": "https://api.github.com/repos/disqus/gargoyle/assignees{/user}",
    "blobs_url": "https://api.github.com/repos/disqus/gargoyle/git/blobs{/sha}",
    "branches_url": "https://api.github.com/repos/disqus/gargoyle/branches{/branch}",
    "clone_url": "https://github.com/disqus/gargoyle.git",
    "collaborators_url": "https://api.github.com/repos/disqus/gargoyle/collaborators{/collaborator}",
    "comments_url": "https://api.github.com/repos/disqus/gargoyle/comments{/number}",
    "commits_url": "https://api.github.com/repos/disqus/gargoyle/commits{/sha}",
    "compare_url": "https://api.github.com/repos/disqus/gargoyle/compare/{base}...{head}",
    "contents_url": "https://api.github.com/repos/disqus/gargoyle/contents/{+path}",
    "contributors_url": "https://api.github.com/repos/disqus/gargoyle/contributors",
    "created_at": "2010-12-16T18:30:40Z",
    "default_branch": "master",
    "description": "Feature switches in Django",
    "downloads_url": "https://api.github.com/repos/disqus/gargoyle/downloads",
    "events_url": "https://api.github.com/repos/disqus/gargoyle/events",
    "fork": false,
    "forks": 73,
    "forks_count": 73,
    "forks_url": "https://api.github.com/repos/disqus/gargoyle/forks",
    "full_name": "disqus/gargoyle",
    "git_commits_url": "https://api.github.com/repos/disqus/gargoyle/git/commits{/sha}",
    "git_refs_url": "https://api.github.com/repos/disqus/gargoyle/git/refs{/sha}",
    "git_tags_url": "https://api.github.com/repos/disqus/gargoyle/git/tags{/sha}",
    "git_url": "git://github.com/disqus/gargoyle.git",
    "has_downloads": true,
    "has_issues": true,
    "has_wiki": true,
    "homepage": "http://engineering.disqus.com",
    "hooks_url": "https://api.github.com/repos/disqus/gargoyle/hooks",
    "html_url": "https://github.com/disqus/gargoyle",
    "id": 1174883,
    "issue_comment_url": "https://api.github.com/repos/disqus/gargoyle/issues/comments/{number}",
    "issue_events_url": "https://api.github.com/repos/disqus/gargoyle/issues/events{/number}",
    "issues_url": "https://api.github.com/repos/disqus/gargoyle/issues{/number}",
    "keys_url": "https://api.github.com/repos/disqus/gargoyle/keys{/key_id}",
    "labels_url": "https://api.github.com/repos/disqus/gargoyle/labels{/name}",
    "language": "Python",
    "languages_url": "https://api.github.com/repos/disqus/gargoyle/languages",
    "merges_url": "https://api.github.com/repos/disqus/gargoyle/merges",
    "milestones_url": "https://api.github.com/repos/disqus/gargoyle/milestones{/number}",
    "mirror_url": null,
    "name": "gargoyle",
    "notifications_url": "https://api.github.com/repos/disqus/gargoyle/notifications{?since,all,participating}",
    "open_issues": 26,
    "open_issues_count": 26,
    "owner": {
        "avatar_url": "https://avatars.githubusercontent.com/u/317745?",
        "events_url": "https://api.github.com/users/disqus/events{/privacy}",
        "followers_url": "https://api.github.com/users/disqus/followers",
        "following_url": "https://api.github.com/users/disqus/following{/other_user}",
        "gists_url": "https://api.github.com/users/disqus/gists{/gist_id}",
        "gravatar_id": "d63982d5731c59dfde8e25b458ce2ee9",
        "html_url": "https://github.com/disqus",
        "id": 317745,
        "login": "disqus",
        "organizations_url": "https://api.github.com/users/disqus/orgs",
        "received_events_url": "https://api.github.com/users/disqus/received_events",
        "repos_url": "https://api.github.com/users/disqus/repos",
        "site_admin": false,
        "starred_url": "https://api.github.com/users/disqus/starred{/owner}{/repo}",
        "subscriptions_url": "https://api.github.com/users/disqus/subscriptions",
        "type": "Organization",
        "url": "https://api.github.com/users/disqus"
    },
    "private": false,
    "pulls_url": "https://api.github.com/repos/disqus/gargoyle/pulls{/number}",
    "pushed_at": "2014-05-03T02:59:18Z",
    "releases_url": "https://api.github.com/repos/disqus/gargoyle/releases{/id}",
    "score": 1.0,
    "size": 997,
    "ssh_url": "git@github.com:disqus/gargoyle.git",
    "stargazers_count": 562,
    "stargazers_url": "https://api.github.com/repos/disqus/gargoyle/stargazers",
    "statuses_url": "https://api.github.com/repos/disqus/gargoyle/statuses/{sha}",
    "subscribers_url": "https://api.github.com/repos/disqus/gargoyle/subscribers",
    "subscription_url": "https://api.github.com/repos/disqus/gargoyle/subscription",
    "svn_url": "https://github.com/disqus/gargoyle",
    "tags_url": "https://api.github.com/repos/disqus/gargoyle/tags",
    "teams_url": "https://api.github.com/repos/disqus/gargoyle/teams",
    "trees_url": "https://api.github.com/repos/disqus/gargoyle/git/trees{/sha}",
    "updated_at": "2014-05-06T20:20:53Z",
    "url": "https://api.github.com/repos/disqus/gargoyle",
    "watchers": 562,
    "watchers_count": 562
}