[
    "templates",
    "flask_alembic.templates",
    "flask.env",
    "flask",
    "templates.flask",
    "flask_alembic.templates.flask.env",
    "templates.flask.env",
    "env",
    "flask_alembic.templates.flask",
    "flask_alembic"
]