{
    "libs": [
        "nose_test_sets",
        "tempfile",
        "bs4",
        "functools",
        "subprocess",
        "parse",
        "contextlib",
        "shutil",
        "tools",
        "uuid",
        "catchy",
        "errno",
        "six",
        "re",
        "json",
        "config",
        "dodge",
        "simple_server",
        "stat",
        "mayo",
        "sys",
        "path",
        "spur",
        "print_function",
        "argparse",
        "h",
        "threading",
        "starboard",
        "requests",
        "os"
    ]
}