{
    "archive_url": "https://api.github.com/repos/mwilliamson/whack/{archive_format}{/ref}",
    "assignees_url": "https://api.github.com/repos/mwilliamson/whack/assignees{/user}",
    "blobs_url": "https://api.github.com/repos/mwilliamson/whack/git/blobs{/sha}",
    "branches_url": "https://api.github.com/repos/mwilliamson/whack/branches{/branch}",
    "clone_url": "https://github.com/mwilliamson/whack.git",
    "collaborators_url": "https://api.github.com/repos/mwilliamson/whack/collaborators{/collaborator}",
    "comments_url": "https://api.github.com/repos/mwilliamson/whack/comments{/number}",
    "commits_url": "https://api.github.com/repos/mwilliamson/whack/commits{/sha}",
    "compare_url": "https://api.github.com/repos/mwilliamson/whack/compare/{base}...{head}",
    "contents_url": "https://api.github.com/repos/mwilliamson/whack/contents/{+path}",
    "contributors_url": "https://api.github.com/repos/mwilliamson/whack/contributors",
    "created_at": "2012-10-23T21:43:42Z",
    "default_branch": "master",
    "description": "Compile and run relocatable Linux programs",
    "downloads_url": "https://api.github.com/repos/mwilliamson/whack/downloads",
    "events_url": "https://api.github.com/repos/mwilliamson/whack/events",
    "fork": false,
    "forks": 0,
    "forks_count": 0,
    "forks_url": "https://api.github.com/repos/mwilliamson/whack/forks",
    "full_name": "mwilliamson/whack",
    "git_commits_url": "https://api.github.com/repos/mwilliamson/whack/git/commits{/sha}",
    "git_refs_url": "https://api.github.com/repos/mwilliamson/whack/git/refs{/sha}",
    "git_tags_url": "https://api.github.com/repos/mwilliamson/whack/git/tags{/sha}",
    "git_url": "git://github.com/mwilliamson/whack.git",
    "has_downloads": true,
    "has_issues": true,
    "has_wiki": true,
    "homepage": "",
    "hooks_url": "https://api.github.com/repos/mwilliamson/whack/hooks",
    "html_url": "https://github.com/mwilliamson/whack",
    "id": 6360503,
    "issue_comment_url": "https://api.github.com/repos/mwilliamson/whack/issues/comments/{number}",
    "issue_events_url": "https://api.github.com/repos/mwilliamson/whack/issues/events{/number}",
    "issues_url": "https://api.github.com/repos/mwilliamson/whack/issues{/number}",
    "keys_url": "https://api.github.com/repos/mwilliamson/whack/keys{/key_id}",
    "labels_url": "https://api.github.com/repos/mwilliamson/whack/labels{/name}",
    "language": "Python",
    "languages_url": "https://api.github.com/repos/mwilliamson/whack/languages",
    "merges_url": "https://api.github.com/repos/mwilliamson/whack/merges",
    "milestones_url": "https://api.github.com/repos/mwilliamson/whack/milestones{/number}",
    "mirror_url": null,
    "name": "whack",
    "notifications_url": "https://api.github.com/repos/mwilliamson/whack/notifications{?since,all,participating}",
    "open_issues": 0,
    "open_issues_count": 0,
    "owner": {
        "avatar_url": "https://avatars.githubusercontent.com/u/391876?",
        "events_url": "https://api.github.com/users/mwilliamson/events{/privacy}",
        "followers_url": "https://api.github.com/users/mwilliamson/followers",
        "following_url": "https://api.github.com/users/mwilliamson/following{/other_user}",
        "gists_url": "https://api.github.com/users/mwilliamson/gists{/gist_id}",
        "gravatar_id": "440512e6a49b5310494ecafefe37724f",
        "html_url": "https://github.com/mwilliamson",
        "id": 391876,
        "login": "mwilliamson",
        "organizations_url": "https://api.github.com/users/mwilliamson/orgs",
        "received_events_url": "https://api.github.com/users/mwilliamson/received_events",
        "repos_url": "https://api.github.com/users/mwilliamson/repos",
        "site_admin": false,
        "starred_url": "https://api.github.com/users/mwilliamson/starred{/owner}{/repo}",
        "subscriptions_url": "https://api.github.com/users/mwilliamson/subscriptions",
        "type": "User",
        "url": "https://api.github.com/users/mwilliamson"
    },
    "private": false,
    "pulls_url": "https://api.github.com/repos/mwilliamson/whack/pulls{/number}",
    "pushed_at": "2013-10-12T12:10:08Z",
    "releases_url": "https://api.github.com/repos/mwilliamson/whack/releases{/id}",
    "score": 1.0,
    "size": 1640,
    "ssh_url": "git@github.com:mwilliamson/whack.git",
    "stargazers_count": 78,
    "stargazers_url": "https://api.github.com/repos/mwilliamson/whack/stargazers",
    "statuses_url": "https://api.github.com/repos/mwilliamson/whack/statuses/{sha}",
    "subscribers_url": "https://api.github.com/repos/mwilliamson/whack/subscribers",
    "subscription_url": "https://api.github.com/repos/mwilliamson/whack/subscription",
    "svn_url": "https://github.com/mwilliamson/whack",
    "tags_url": "https://api.github.com/repos/mwilliamson/whack/tags",
    "teams_url": "https://api.github.com/repos/mwilliamson/whack/teams",
    "trees_url": "https://api.github.com/repos/mwilliamson/whack/git/trees{/sha}",
    "updated_at": "2014-01-09T18:30:55Z",
    "url": "https://api.github.com/repos/mwilliamson/whack",
    "watchers": 78,
    "watchers_count": 78
}