[
    "operations",
    "downloads_test",
    "whack.packagerequests",
    "whack.deployer",
    "builder_tests",
    "cli",
    "providers_test",
    "packagerequests",
    "platform",
    "platform_tests",
    "tests.platform_tests",
    "whack.errors",
    "local",
    "whack",
    "whack.common",
    "files",
    "tests",
    "tests.operations_test",
    "whack.lists",
    "hashes_test",
    "tests.deployer_tests",
    "whack.files",
    "whack.platform",
    "lists",
    "deployer_tests",
    "whack.local",
    "tarballs",
    "whack.indices",
    "sources",
    "indices_tests",
    "uris",
    "tests.testing",
    "whack.sources",
    "common",
    "indices",
    "tests.providers_test",
    "tests.downloads_test",
    "tests.sources_tests",
    "tests.whack_cli_test",
    "providers",
    "testing",
    "whack.builder",
    "tests.whack_test",
    "whack.operations",
    "tests.builder_tests",
    "whack.downloads",
    "tests.hashes_test",
    "tests.packagerequests_tests",
    "httpserver",
    "sources_tests",
    "tests.args_test",
    "deployer",
    "whack.caching",
    "whack.slugs",
    "env",
    "tempdir",
    "packagerequests_tests",
    "whack.uris",
    "slugs",
    "tests.indexserver",
    "whack.args",
    "whack_cli_test",
    "downloads",
    "args",
    "operations_test",
    "args_test",
    "whack.tarballs",
    "errors",
    "tests.indices_tests",
    "hashes",
    "whack.cli",
    "whack.env",
    "indexserver",
    "tests.httpserver",
    "whack.hashes",
    "whack.testing",
    "whack.tempdir",
    "builder",
    "whack_test",
    "whack.providers",
    "caching"
]