{
    "archive_url": "https://api.github.com/repos/astroML/astroML/{archive_format}{/ref}",
    "assignees_url": "https://api.github.com/repos/astroML/astroML/assignees{/user}",
    "blobs_url": "https://api.github.com/repos/astroML/astroML/git/blobs{/sha}",
    "branches_url": "https://api.github.com/repos/astroML/astroML/branches{/branch}",
    "clone_url": "https://github.com/astroML/astroML.git",
    "collaborators_url": "https://api.github.com/repos/astroML/astroML/collaborators{/collaborator}",
    "comments_url": "https://api.github.com/repos/astroML/astroML/comments{/number}",
    "commits_url": "https://api.github.com/repos/astroML/astroML/commits{/sha}",
    "compare_url": "https://api.github.com/repos/astroML/astroML/compare/{base}...{head}",
    "contents_url": "https://api.github.com/repos/astroML/astroML/contents/{+path}",
    "contributors_url": "https://api.github.com/repos/astroML/astroML/contributors",
    "created_at": "2012-10-17T22:33:50Z",
    "default_branch": "master",
    "description": "Machine learning, statistics, and data mining for astronomy and astrophysics",
    "downloads_url": "https://api.github.com/repos/astroML/astroML/downloads",
    "events_url": "https://api.github.com/repos/astroML/astroML/events",
    "fork": false,
    "forks": 36,
    "forks_count": 36,
    "forks_url": "https://api.github.com/repos/astroML/astroML/forks",
    "full_name": "astroML/astroML",
    "git_commits_url": "https://api.github.com/repos/astroML/astroML/git/commits{/sha}",
    "git_refs_url": "https://api.github.com/repos/astroML/astroML/git/refs{/sha}",
    "git_tags_url": "https://api.github.com/repos/astroML/astroML/git/tags{/sha}",
    "git_url": "git://github.com/astroML/astroML.git",
    "has_downloads": true,
    "has_issues": true,
    "has_wiki": true,
    "homepage": null,
    "hooks_url": "https://api.github.com/repos/astroML/astroML/hooks",
    "html_url": "https://github.com/astroML/astroML",
    "id": 6269799,
    "issue_comment_url": "https://api.github.com/repos/astroML/astroML/issues/comments/{number}",
    "issue_events_url": "https://api.github.com/repos/astroML/astroML/issues/events{/number}",
    "issues_url": "https://api.github.com/repos/astroML/astroML/issues{/number}",
    "keys_url": "https://api.github.com/repos/astroML/astroML/keys{/key_id}",
    "labels_url": "https://api.github.com/repos/astroML/astroML/labels{/name}",
    "language": "Python",
    "languages_url": "https://api.github.com/repos/astroML/astroML/languages",
    "merges_url": "https://api.github.com/repos/astroML/astroML/merges",
    "milestones_url": "https://api.github.com/repos/astroML/astroML/milestones{/number}",
    "mirror_url": null,
    "name": "astroML",
    "notifications_url": "https://api.github.com/repos/astroML/astroML/notifications{?since,all,participating}",
    "open_issues": 7,
    "open_issues_count": 7,
    "owner": {
        "avatar_url": "https://avatars.githubusercontent.com/u/1971246?",
        "events_url": "https://api.github.com/users/astroML/events{/privacy}",
        "followers_url": "https://api.github.com/users/astroML/followers",
        "following_url": "https://api.github.com/users/astroML/following{/other_user}",
        "gists_url": "https://api.github.com/users/astroML/gists{/gist_id}",
        "gravatar_id": "9dd93a5e0f27c93bab99928afb11287a",
        "html_url": "https://github.com/astroML",
        "id": 1971246,
        "login": "astroML",
        "organizations_url": "https://api.github.com/users/astroML/orgs",
        "received_events_url": "https://api.github.com/users/astroML/received_events",
        "repos_url": "https://api.github.com/users/astroML/repos",
        "site_admin": false,
        "starred_url": "https://api.github.com/users/astroML/starred{/owner}{/repo}",
        "subscriptions_url": "https://api.github.com/users/astroML/subscriptions",
        "type": "Organization",
        "url": "https://api.github.com/users/astroML"
    },
    "private": false,
    "pulls_url": "https://api.github.com/repos/astroML/astroML/pulls{/number}",
    "pushed_at": "2014-03-04T18:31:16Z",
    "releases_url": "https://api.github.com/repos/astroML/astroML/releases{/id}",
    "score": 1.0,
    "size": 3333,
    "ssh_url": "git@github.com:astroML/astroML.git",
    "stargazers_count": 115,
    "stargazers_url": "https://api.github.com/repos/astroML/astroML/stargazers",
    "statuses_url": "https://api.github.com/repos/astroML/astroML/statuses/{sha}",
    "subscribers_url": "https://api.github.com/repos/astroML/astroML/subscribers",
    "subscription_url": "https://api.github.com/repos/astroML/astroML/subscription",
    "svn_url": "https://github.com/astroML/astroML",
    "tags_url": "https://api.github.com/repos/astroML/astroML/tags",
    "teams_url": "https://api.github.com/repos/astroML/astroML/teams",
    "trees_url": "https://api.github.com/repos/astroML/astroML/git/trees{/sha}",
    "updated_at": "2014-05-06T18:19:22Z",
    "url": "https://api.github.com/repos/astroML/astroML",
    "watchers": 115,
    "watchers_count": 115
}